vacature wijkverpleegkundige | bunnik | werken bij quarijn | ewoud &amp elisabeth gasthuis
vacature verpleegkundige in de wijk | wijk bij duurstede | werken bij quarijn | ewoud &amp elisabeth gasthuis
vacature verpleegkundige in de wijk | wijk bij duurstede | werken bij quarijn | ewoud &amp elisabeth gasthuis
😢 wat een sof psv wint dankzij een cadeautje van twente😢 op de passie van de jongens
dat laatste had drie kwartier eerder gemogen wat mij betreft
kan iemand doe assistent even vertellen dat er gewisseld kan worden? weg met stilstaande holla en falende slagveer!
dat is jan van halst zijn kwaliteit...😢😢😢
als ik mijn werk zo slordig en onzorgvuldig deed dan werd ik ontslagen...😌
. geweldig applaus voor rené hake tijden de wedstrijd bedankt rené!
of een mooi opstapje naar wat beters...
wij ook niet in hem...hij s blind
het debat over verpleeghuizen gaat voorbij aan de emoties van de verzorgende via om eens over na te denken
mijn order nummer is 42447669. bedankt!
ik ben bang dat de zojuist door jullie bezorgde ijsbergsla last heeft van global warming, hoe lossen…
korting op lesgeld voor pabo , maar niet voor hbov studenten , 3000 vacatures in de wijkverpleging…
jammer dat de fct fans de andere doelpunten niet mogen zien...
harry mens noemt de nieuwe mieke telkamp... zou claudia daar blij van worden?
kijken vanuit slovenië
ik zit met stiefzoon in buitenland nadat hij eerst op vakantie was met moeder, hoe krijg ik die datalimiet eraf? help!
geweldig, je kunt iedere dag zelf de verandering zijn!
jannie schutte zoekt 2 kaartjes voor castlefest 2017 saturday ticket – ticketswap
heeft iemand nog twee kaarten over voor zaterdag a.s.?
coach leefplezier | veenendaal | werken bij quarijn
mooi aangrijpend en inspirerend verhaal van een oud collega
waarom onze kinderen steeds minder spelen en wij met een burnout thuis zitten
dit verdient meer aandacht van de politiek!
delfzijl
hoe ontstaat burnout?
had er met rood afgemoeten!!
lekker lunchen die is al op op het terras van tante sien in vasse
bunninchem beweegt meer
omgaan met stress? “niksen helpt niet”, zegt dr. erik scherder
joop gaat alleen voor de pp😜
wat een goed plan!
help slachtoffers hongersnood. geef nu!
lieve bertha op bezoek bij quarijn
lekker avondje grappige twitterfeeds lezen.. het bijbehorende voetbal is toch niet om aan te zien...#bulhol
laat die vaste dagindeling in het verpleeghuis toch eens los via
wie is die blonde mevrouw? ze moet eens buiten rondkijken...er gaan nog steeds heel veel nl op stap met een broodtrommeltje!
hallo ajax, zullen wij dan ook maar het licht uit doen en de deur dicht?
en eigen publiek gaat toch al kwartier voor tijd naar huis dus t is niet echt nodig..
toppunt van ongastvrijheid ... gasten opsluiten en laten wachten als ze nog uren huiswaarts moeten reizen
we zijn inmiddels binnen😜
ik stem steun de campagne en draag bij
dat zou ik ook wel graag willen weten!
heilige heeft nooit zoiets gedaan...#studiovoetbal hypocriet ik heb respect voor eerlijkheid van
nee hij doet aan zieltjeswinnerij...en wil graag aandacht
wat mij betreft het commentaar....
alles mag in den haag eat you hear out...#adotwe
en fc twente....
ja de koekebakker van de
wordt jij mijn nieuwe collega?
kijk anders naar oude mensen ze groeien nog
je bent vast ook een uitzondering..
hier mee bevestig je mijn statement! bedankt!
dat heb je mij niet horen zeggen.
..en de arbitrage werd wederom gesponsord oor of toch ...gewoon blind?
good for you! zo ver ben ik nog niet .. volgende week weer.. moeten snel even bijpraten
he egbert beterschap!, we zijn allebei de klos..hier helaas ook geen kippensoep..wel een blije kat..
dat je netjes de grieprik haalt in november en dan toch nu met hoge koorts plat ligt
boek bezielde jaren over zingeving via
nog heel even...#top2000 zoooo moooi...brok in mijn keel..
heerlijk rustig wakker worden en genieten.. fijne kerstdagen allemaal!
ik wens al mijn comtacten mooie feestdagen!
ben je? of ken je...? wil je hem anders delen met je netwerk? bedankt!
ben jij...of ken jij....? delen? ja graag !
⚡ overwinning op ajax! door
wil jij het leven van onze bewoners leuker maken? kijk dan eens naar deze vacature! of ken je iemand ie dit goed zo…
evelien tonkens ze legt de vinger precies op de zere plek, ik hoop dat den haag en gemeenten luisteren!
gelukkig hebben we de fotos nog....
kom dit leuke enthousiaste team versterken!
water besparen? korter douchen helpt niet
hoe zou het met ilse zijn?
activiteitenbegeleider m/v 36 uur
je kunt ook gewoon speler zeggen ipv steeds huurling....#psvtwe
begin vandaag!
...zielig hoor....ga toch andere ouwe koeien uit de sloot halen...
kan misschien eens een compilatie maken van al deze arbitrale fouten op rij...#twepec
ben echt geraakt en vol respect voor floortje en de reactie van haar vader! gefeliciteerd!
ik had best je koffer willen dragen....
samen dementievriendelijk
in bunnik zijn ok mogelijkheden!
maar daar kopen we niets voor...dus...die man blundert al 60 minuten
dat zeg ik..misschien voortaan hiwr ook een video scheids? we zijn boos!
nooit
dat was dus gewoon een doelpunt ik kon het beter zien dan hij!
dat was dus gewoon 20 he!
een mooie werkconferentie vanavond voor medewerkers dag en ontmoetingscentra
er zijn zelfs geen twente scouts luuk,wel noaberschap&ampgedrevenheid hier in twente! ..en geweldige supporters dat maakt
is t nou klaar? ik wil ook nog wel even rustig van het mooie weer en de bbq genieten in de tuin...
hoe is het nu inmiddels op de bij richting is die vrachtauto al opgeruimd?
ben je of ken je iemand die ons team wil komen versterken? reageer snel! of deel deze leuke vacature in je netwerk!
nieuwe sollicitatie ronde. delen mag!
steekpenningen of zonnesteek...
alleen voor deze commentator zou je je stopzetten, t is dat ik mijn club wil zien spelen...t is echt maar 10 hoor...#feytwe
kan die van a u b gewisseld? deze zuigende manier van verslaglegging..hij verpest ieders wedstrijdbeleving!
lof voor .. en wat een riooljournalistiek van de npo ..misschien moet hij solliciteren bij de prive?
samen dementievriendelijk
respectloos van die fransen...mijn sympathie zijn ze kwijt na die vikinggroet..
lage tarieven funest voor werknemers thuiszorg
waardigheid en trots aanpak vernieuwing verpleeghuiszorg via
gelukkigop congres 2016 in tegenstelling tot het nieuws hier veel mooie en positieve voorbeelden!
daarom sta ik nu maar even in de zon.. volgende ronde beter? 😜
inspirerend congres.. wel balen dat je niet meer naar binnenkan bij gekozen workshop.
zes manieren om weerstand voor hulp te overwinnen of te accepteren alleszelf.nl
ben je of ken je iemand ? delen mag!
delen mag!
twente blijft toch in de eredivisie
ik wil hem gewoon buiten kunnen hangen straks 😜
is het nog geen twee uur?
ik heb zojuist vast een nieuwe fc twente vlag gekocht in de fanstore...#whisfullthinking
jammer dat er ook zulke ado supporters zijn ...afhaalchinees! gelukkig zijn er ook die ons steunen tegen de knvb maffia
hij hangt ....en
van rijn beslist over uurtarief wijkverpleging
we blijven de ontwikkelingen maar volgen...
herkenbaar...
oproep deel uw verhaal over casemanagement dementie via
mooi voorbeeld van samenwerken versus concerteren en marktwerking!
even bijkomen aan zee in strandgoed ter heijde
mooi geschreven column die de wereld even weer in perspectief zet..
delen? ja graag!
mogelijkheden in bunnik en in wijk bij duurstede! delen? ja graag!
om over na te denken...
mooi praktijkvoorbeeld van samenwerking en verbinden voor betere zorg!
goede actie lees vooral ook de verklaring
kevin blom , wat doe je? ... arbitrage blundert en manipuleert
en ze is nog niet eens bevallen...
je zou er nog trek van krijgen jay jay jay
voor mijn noordelijke werkzoekende connecties
en vooral naar ontmoetingscentrum, waar ook de mantelzorger meetelt en in beeld is
delen mag!
vacature communicatieadviseur | wijk bij duurstede | werken bij quarijn | ewoud &amp elisabeth gasthuis
vacature wijkverpleegkundigeflexibele werktijden/onbepaalde tijd leersum/wijk bij duurstede |werken bij quarijn
wie wil samen met ons bouwen?
vacature casemanager zzg zorggroep
het zijn de competenties die tellen!
8 tips om ziekteverzuim bij zelfsturende teams te voorkomen
das waar en prachtig..maa ik word r niet goed van als zo n reporter zegt dat hij europees nivo speelt en de rest eerste divisie..
hou toch eens op met die manipulatie rondom hakim...ook mokotjo en guiterrez speelden goed!
was nog opgefokt door de ziech verheerlijking bij fox..de echte complimenten voor 600 supporters..😉
nee slecht plan! geweldige voetballer maar geen hart voor fc twente en de supporters..
wat een heerlijk lentezonnetje vandaag..onderweg naar de kleinkinderen en dan straks samen naar de dierentuin
.... ben erg benieuwd...@alwaysbusy1964
verzekeraar cz helpt mantelzorgers
wie geeft nermin gewoon een kans?
wlz staat voor waardige liefdevolle zorg
ik snap dat jullie daar op hopen... wij weten hier wel beter!
dan mag je de uitslag nu ook noteren twenteleeft!
nee nu niet meer hihihi
zielig figuur..
vandaag een heel terecht vingertje!😛
jij gebruikt twitter als klaagmuur ...
ongelooflijk wat een slechte arbitrage...#matchfixing? de macht van het geld? gewoon ergerlijk om naar te kijken...
casemanager dementiezorg | werken bij quarijn | ewoud &amp elisabeth gasthuis
duizenden twentefans lopen mars saamhorigheid moet terug /via
vacature wijkverpleegkundige mogl. onbepaalde tijd met zorginhoudelijke regisseursrol binnen zelfsturende teams …
samen op weg naar vrijheid in de zorg
ik ben lid van twente verenigt
ik ben lid van twente verenigt
verzorgende ig | zorgthuis | krommerijnstreek | werken bij quarijn | ewoud &amp elisabeth gasthuis
wijkverpleegkundige mogl. onbepaalde tijd met zorginhoudelijke regisseursrol binnen zelfsturende teams | werken bi…
wij zullen ons moeten voorbereiden op clienten met andere welzijnsvragen.....wie doet er mee aan de top 2000 kwis?…
ben jij? of ken jij? delen mag!
elearning vrijheid en veiligheid in thuiszorg
handig om te weten
iedere collega kan iets wat jij niet kan icm extra
wijkverpleegkundige met zorginhoudelijke regisseursrol binnen zelfsturende team | werken bij quarijn
voorbereiden op de nieuwe generatie
delen? ja graag!
collega gezocht! durf jij de uitdaging aan?
hartverwarmende thaise reclame is hartverwarmend
wordt jij onze nieuwe collega? of ken je iemand die dit zou willen zijn? feel free to share!
woonplezier met een stekker 5 tips voor slimme en eenvoudige technologie in huis alleszelf.nl
veroordelingsgesprekken
waarom waarschuwd men niet voor de mist in provincie utrecht en midden nederland?
samen het jaar uit met peter linsey owen aj en....stom he als je iemands naam vergeten bent...😊
mooi gezegd!
en ook aan de ja echt dat kan gewoon in nederland!
weten jullie eigenlijk wel dat je 00k tijd en geld kunt doneren aan én aan i.p.v. negativiteit boys goed bezig!
heeft iemand al een geit gezien? succes jongens!
ik wens iedereen gezellige &amp liefdevolle feestdagen &amp gezond &amp gelukkig 2016! dat je je dromen waar mag maken!
de essentie van topsport is buiten de lijntjes kleuren...hoe kan je je onderscheiden?
super goed congres over de verdraaide organisatie! inspiratie..met nu de laatste spreker erben wennemars
word jij mijn nieuwe collega?
mijn favoriete cadeau zijn de wat is die van jou?
en zo is het!
brandbrief zorgsector over thuiszorgtarieven binnenlands bestuur
eigen bijdrage voor dagbesteding fors omhoog via nos..
wij zijn ook op zoek!
omdat het coördineren van de mantelzorg ook wel wat ondersteuning kan gebruiken!
inspirerend en motiverend!
activiteitenbegeleider | doorn | werken bij quarijn | het zonnehuis
wordt jij mijn nieuwe collega?
teammanager zorg en welzijn | werken bij quarijn | het zonnehuis
interessant artikel! het lezen waard..
hoogleraar pleit voor sociale benadering dementie
vdl herfstlunch en mooie verhalen delen met een deel van de fractie van
100 % strafschop niet gegeven aan fc twente en buitenspel waarbij fc twente speler 23 meter achter de verdediger van cambuur?
als de portemonnee in de oven ligt veenendaalsekrant.nl
ik denk dat het dan snel verwarrend wordt...maar wet natuurlijk niet precies hoe en wat..vanaf maandag hoop ik er weer te zijn!
manlief gevallen en geblesseerd. ..das dus een echte nare breuk..#balen
dat dan weer wel..
bij gebrek aan witte zakdoekjes..gebruiken we aan t eind de sleutelhangers..
heeft u alles kunnen vinden? op weg naar een vriendelijke gemeenschap aedesactiz...
nog meer ooievaars
ooievaars vlak bij ijhorst..
en zo is het...
ter inspiratie...
de nieuwevuurvliegjes van 2015 de wifi. hotspots op de camping😋#vakantie
ik maak een diepe buiging
misschien kan schreuder een voorbeeld nemen aan blatter....
gaat wout brama terug naar fc twente dan?😆😆😆😆😆😂
het zijn niet de sterksten of de slimsten die overwinnen, maar degene die zich het best aanpassen aan verandering.
hard gewerkt door vrijwilligers ,resultaat 4 plantenbakken voor tuinieren op hoogte!
aanpakken die bezem…… fc
als ikzo slecht presteerde op mijn werk als bij en die trainer stond ik al lang op straat..
goede dementiezorg, het kan wel
altijd je spullen bij je met registratie is gratis!
ik heb de nationale gedaan. en een 5.5 gehaald! benieuwd naar jouw kennis over eten? doe de test
zombie nation kernkraft 400 aangevraagd voor hands off our girls!
de 3fm djs zijn weer super bezig in haarlem !
ik heb jan rot groot avontuur aangevraagd voor hands off our girls!
zo simpel uit te leggen...maar soms ook zo moeilijk te bewaken...
respect voor dame die op correcte wijze de hork aansprak toen hij de stoel niet leeg wou maken naast zich in een volle ic
ik hoop dat luistert naar hij verteld haar tussen de regels waarin zij verschillen..hij is echt en zij is en blijft fake
... hierbij een mooie twentse analyse van dit debacle..
50 ideeën om te blijven bewegen bij dementie
nieuw in di theater ajax fcutrecht, the musical...
hotel hugo de vries in lunteren de veluwe, gelderland
ergerlijk dat zelfs door jeroen pauw haat gezaaid wordt, waardeloze journalistiek!
actis bikkels in weer en wind!
klussen in weer en wint bikkels! de schermerij leersum.
50 tips voorkomen uitdroging en ondervoeding
slaptekort ..maat zo gezellig met em en de nummers worsen ateeds mooier
2013...genieten , verhalen delen met ...houtkachel aan .bankhangen en koffie ..en natuurlijk muziek..live is good!
zorgt voor te weinig slaap..vele luieruurtjes in bed voor de tv..hvj aj..dit is zo leuk samen met jou!
lekker samen lang in bed luierend genieten met det , super! ihvj aj j d
75 euro voor anneke douwsma...en jullie laten haar zelfzingen...foutje.....
lekker bankhangen met mijn lief, 2 weken vrij samen..heerlijk, de eerste week alleen maar en verder niets..
alzheimer nederland lanceert de alzheimer assistent een app voor mantelzorgers voor mensen met dementie!
zorg een zorg via om over na te denken...
innovatiekring dementie ontmoetingscentra in de wijk en dagbehandeling nieuwe stijl via
innovatiekring dementie geen diclofenac bij hart en vaatziekten via
innovatiekring dementie ontmoetingscentra in de wijk en dagbehandeling nieuwe stijl via
innovatiekring dementie mantelzorgregelingen vaak onbekend via
open dagen ontmoetingscentrum dementie veenendaal goed bezocht! | de rijnpost | dé weekkrant
weer op weg...
en dan zegt de twingo alleen nog tik s je de sleutel omdraait ...en nee ik heb niet de lampen laten branden....
“@omdenken geen idee wat je wilt? da’s mooi. dan kun je nog alle kanten op.”
popen dagen ontmoetingscentrum dementie veenendaal/p veenendaalsekrant.nl
“@fctwente fc twente vrouwen is kampioen van nederland! da s wel een feestplaatje waard toch? sonnentanz?
nieuw landelijk symposium dagvoorzieningen nieuwe stijl
brigitte kaandorp lieve koningin via gewoon omdat het zo is en wat tegengas te geven..
kromme tenen, dame die de kroning steeds gebruikt als podium om zichzelf te propageren jammer dat ze haar dat weer bieden..#penw30apr
“@4positiviteit lichtpuntjes, soms zijn ze groot, soms zijn ze klein. je hoeft ze niet te zoeken. je kunt er ook een zijn.”
feestje hier in twente! ..weer winst voor fc twente! terecht gewonnen van ado...13 zege! hoera!
na een race tegen de klok om op tijd te zijn ..komt de tegenpartij niet ...@atc65...nu dus extra training..maar wel gewonnen..
castaignos zorgt net voor rust voor de dik en dikverdiende voorsprong 10!!! nu rust in de veste...
werkelijk om je rot te ergeren die commentator van we kijken vandaag wel zonder geluid...#kanechtniet
vandaag terrein verkend in veenendaal, ik heb er zin in!
goedemorgen allemaal!
“@4positiviteit moed brult niet altijd. soms is het de zachte stem die aan het einde van de dag zegt ik probeer het morgen opnieuw.”
moet je echt even bekijken, hilarisch ..
“@4positiviteit de mooie ingrediënten voor het leven zijn iets doen, iemand liefhebben en ergens op hopen.
“@4positiviteit laat los wat voorbij is. wees dankbaar voor wat over blijft en kijk vooruit naar wat er gaat komen.”
woning in scherpenzeel gevonden via unieke locatie!
met dank aan loesje...
“@tegeltjeswijs indien je wilt dat iemand je vertrouwt, wees dan eerlijk.”
wat nou de wereld lacht me toe vandaag! voor mij dus gewoon ! t is maar wat je er zelf van maakt!
laura en petra kijken niet, ik herhaal laura en petra kijken niet naar de top2000 ze zijn al lang naar bed..met....
met a.j. op de bank, wil niet slapen, dit is genieten..#top2000
zouden djs van weten dat zombienation van kernkraft altijd in de grolschveste klinkt? het feestnummer voor fctwente vraag aan!
kleine moeite, doe je mee voor u icef? het kost je niks...
goedemorgen allemaal! is er al koffie?
oefenen als soccermom..haha..langs de lijn bij. de d tjes van atc....het leven zit vol verassingen..
heerlijk! weekend in twente...&lt3
concert omnia in enschede was geweldig..wat een heerlijke muziek en sfeer toch echt veel mooier dan op een festival! nu lekker in hotel
straks naar concert van omnia in enschede
zo...2 uur in de tandartstoel overleefd..en ze was trots op het eindresultaat...auch...
in wachtkamer van de tandarts...
toch een andere route..vanuit hoog buurlo..meer hei, minder zand..
woning in scherpenzeel gevonden via
lekker met dwarrel klompenpad route aan het lopen..zon..wandelschoenen hoofd leeg..hart vol..jee ruikt de herfststilte ruimte vrijheid geluk
“@4positiviteit loslaten als het kan… ”
“@fokkesukke f&amps hakken d eknoop door nrc, wo, 120912 ”
vindt mag ik dan bij jou van claudia de breij leuk op ping
ik word er nog altijd stil van..#imagine
alles draait tegenwoordig om geld. behalve de aarde, die draait om de zon”
“@4positiviteit als je niet terug kunt, hoef je alleen maar te denken aan de beste manier om vooruit te gaan.
het leven is wat je overkomt terwijl je druk bezig bent met het plannen ervan.
“@allemaaltaal iedereen wil de waarheid, maar niemand wil eerlijk zijn.”
“@allemaaltaal echte vrienden maken slechte tijden goed en goede tijden onvergetelijk.”
woning te koop geerhoek 18, scherpenzeel