trots op de eerste uitwedstrijd met inzet, passie en strijd!
ik heb een nieuwe video op facebook geplaatst
bier, freundschaft en een heerlijke pot in osnabrück. de bekerwedstrijd eindigde in een 23 voor fc nürnberg!
iedereen onze excuses voor de gebrekkige livevideo bij opkomst. op het moment dat we live wilden gaan werd de...
ik heb een nieuwe video op facebook geplaatst
ik heb een nieuwe video op facebook geplaatst
nog een paar minuten, dan gaan we weer live voor de opkomst. stay tuned!
wie zijn erbij zondag?!
fc twente speelt op zondag 24 september om 14.30 uur de uitwedstrijd tegen fc groningen. de verkoop loopt...
ik heb een nieuwe video op facebook geplaatst
de laatste aanvragen van kaarten voor aankomende zondag moeten nog verwerkt worden maar fc twente heeft ons...
kaartverkoop sparta uit gestart ! fc twente speelt op zondag 10 september de uitwedstrijd tegen sparta...
ik heb een nieuwe video op facebook geplaatst
let op! er zijn al ruim 400 kaarten verkocht! je kan tot morgen 1200 nog kaarten halen! wie zijn er weer bij?!
fc twente speelt zaterdag 26 augustus in zwolle tegen pec zwolle. kaarten voor deze wedstrijd zijn vanaf woensdag...
met 11 gaan we de rust in. wat een heerlijke goal van fredrik jensen. durft iemand nog een voorspelling te doen voor de 2e helft?
we gaan weer beginnen
fc twente heeft zojuist bekendgemaakt dat er aanstaande zondag 625 supporters meereizen naar rotterdam voor de...
zondag 13 augustus begint voor fc twente de eredivisie weer met de immer beladen uitwedstrijd tegen regerend...
fc twente on tour! wij zijn erg benieuwd waar jullie deze vakantie uithangen. natuurlijk met iets van twente...
zoals beloofd het foto/video verslag van het tripje naar stranraer. een geweldig weekend dat bol stond van...
ik heb een nieuwe video op facebook geplaatst
help! wie kan onze mede supporter helpen met zijn verzameling? hij heeft nog een paar shirts nodig om zijn...
we zijn gearriveerd, meer mooie fotos zullen volgen.
het concept betaald voetbal seizoen 20172018 is eerder deze avond uitgelekt via de site van de knvb. dit...
ons heeft zojuist het bericht bereikt dat op 30jarige leeftijd onze oudmiddenvelder cheick tiote is overleden....
alles is beslist. nac breda keert terug in de eredivisie. dit betekent dat we weer naar breda mogen! ook mogen we...
update de teller van de veiling staat inmiddels op €50,.
zojuist hebben bericht gekregen van een groep jongens die binnenkort mee gaan doen aan de alpe duzes, met deze...
trots op onze geweldige uitsupporters! een mooi stukje geschreven door voetbalultras!...
ja dat is... jos, jos hooiveld het leven dat is een groot feest jos, jos hooiveld zoepn als een dolle en...
wederom uitverkocht uitvak, ditmaal met 650 man aanwezig om onze jongens naar de overwinning te schreeuwen. wie...
vandaag speelt fc twente haar laatste uitwedstrijd van het seizoen tegen sparta rotterdam. we zullen aanwezig met...
kaartverkoop sparta uit gestart! fc twente speelt zondag 7 mei 14.30 uur de uitwedstrijd tegen sparta...
750 man sterk gisteravond in alkmaar, oftewel uitverkocht. wie gaan we terugzien op het kasteel bij de laatste...
we zijn er klaar voor! come on twente!
supportersbus hengelo ingehaald, nu vol gas door naar alkmaar, welke 750 supporters zijn er vanavond allemaal bij?
het uitduel tegen az is uitverkocht! we gaan dus met een vol uitvak naar alkmaar om onze trots fct te steunen!...
na een 12 overwinning in waalwijk is vvv venlo kampioen van de jupiler league! na 4 seizoenen afwezigheid keren...
kaartverkoop start vandaag 1300 zaterdag 22 april speelt fc twente de uitwedstrijd tegen az, aanvang 19.45...
nog een half uurtje dan gaan we weer beginnen. wie zijn er allemaal bij? cote!!!!
na net contact met fc twente te hebben gehad kunnen wij melden dat er zondag 567 supporters meereizen naar de...
update zojuist hebben wij te horen gekregen dat er voor de wedstrijd van aanstaande zondag tegen fc utrecht al...
ook in het nieuwe overzicht van awaydays nl staan we er goed voor! met een bezettingsgraad van maar liefst...
kaartverkoop tegen utrecht start vandaag! zondag 9 april speelt fc twente de uitwedstrijd tegen fc utrecht,...
beste volgers, we zijn achter de desbetreffende persoon gekomen die ons account even had geleend zonder...
we zijn zojuist op de hoogte gesteld van het feit dat ons youtubekanaal en twitteraccount is gehackt. wij weten...
het uitvak stroomt vol, de trommels klinken, het gezang zwelt aan. 19 minuten tot kickoff, we gaan beginnen....
zojuist is dr kaartverkoop voor roda jc fc twente van aankomende vrijdag gesloten. de laatste kaartaanvragen...
we zijn onderweg, op naar een uitverkocht uitvak! twente komt dr an!
trots! zondag zullen er 1200 supporters aanwezig zijn in het uitvak! wie is het gelukt om er toch bij te zijn?
let op! kaartverkoop roda uit start over een uur! vrijdag 17 maart 20.00 uur speelt fc twente de uitwedstrijd...
uitverkocht de uitwedstrijd tegen ajax 12 maart aanstaande is voorlopig uitverkocht. wanneer er kaarten...
wederom een boete ontvangen vanuit zeist, en waarvoor? een spandoek met een knipoog en een tekst uit een lied dat...
de meegereisde supporters!
aanwezig in den haag, nog klein uur tot de wedstrijd. wie zitten er straks bij ons in het vak? come on twente...
zondag 12 maart speelt fc twente de uitwedstrijd tegen ajax, aanvang 16.45 uur. de kaartverkoop start maandag 27...
goed nieuws! laten we zorgen voor een vol uitvak, 1.200 tukkers in amsterdam!!
er zullen vrijdag 327 supporters aanwezig zijn in het uitvak! wie zijn er gewoon weer aanwezig?
zojuist is ook bij ons het nieuws binnen gekomen dat fc twente door de knvb gestraft is met een geldboete en een...
nieuwe sfeercompilatie van de wedstrijd excelsior fc twente
vandaag om 1300 start de kaartverkoop voor het uitduel tegen ado den haag. kaartverkoopinformatie vrijdag...
deze jonge trommelaar kreeg gisteren bij de wedstrijd excelsior fc twente zijn vuurdoop en mocht voor het eerst...
vrijdag 24 februari speelt fc twente om 2000 de uitwedstrijd tegen ado den haag. maandag 13 februari om 1300...
fc twente heeft ons zojuist laten weten dat er 329 supporters zullen meereizen naar rotterdam. helaas niet...
zondag speelt fc twente wederom een wedstrijd tegen rotterdammers, ditmaal is excelsior de tegenstander, er zijn...
kaartverkoop excelsior uit gestart! fc twente speelt zondag 12 februari de uitwedstrijd tegen excelsior, aanvang...
zondag mogen we weer! cote!
er zijn enkele kaarten teruggekomen van de supportersverenigingen, uitsluitend kaarten voor de autocombi!!!...
update deze wedstrijd is uitverkocht, 29 januari zullen er 500 twentesupporters afreizen naar zwolle om de...
fc twente speelt zondag 29 januari de uitwedstrijd tegen pec zwolle, aanvang 14.30 uur. deze week is de...
kaarten zijn binnen, arnhem here we come!! cote!!!!!
de wedstrijd vitesse fc twente voor aankomende zondag is uitverkocht, we gaan met 1.000 supporters naar arnhem...
ondag 15 januari speelt fc twente de eerste uitwedstrijd van het nieuwe jaar. de ploeg gaat in het gelredome op...
alvast een gezond en sportief 2017! come on twente! dit is tevens onze mooiste awayday van afgelopen jaar. wat...
we zijn binnen! come on twente!
kaarten zijn omgewisseld. op naar tilburg.
en we zijn onderweg! wie nog meer? twente komt dr an!
na een maand zonder winstpartij trekt aanstaande zondag de twentse karavaan naar het zuiden des lands, willem ii...
na een maand zonder winstpartij trekt aanstaande zondag de twentse caravaan naar het zuiden des lands, willem ii...
met de tribunes aan de overkant amper zichtbaar bereiden wij ons voor op de wedstrijd. wie zijn er allemaal nog...
de wedstrijd tegen willem2 is volledig uitverkocht! weer een vol uitvak! klasse!
respect! vandaag wordt fc twente ondersteund door de leden van de voetbalvereniging tvv en barbaros. wij wensen...
fc twente heeft ons kunnen melden dat op het moment dat onze svs alle kaarten in het uitvak afnamen, contact is...
de uitwedstrijd tegen nec is voorlopig uitverkocht! er bestaat een kans dat supportersverenigingen nog kaarten...
zojuist hebben wij contact gehad met de afdeling veiligheidszaken van fc twente, hier hebben zij ons kunnen...
attentie!!! helaas is het nodig geweest om tientallen autos van twentesupporters te vernielen op de...
ik heb een nieuwe video op facebook geplaatst
ik heb een nieuwe video op facebook geplaatst
dik verdiend punt meegepakt uit eindhoven! hulde voor deze toppers!
het vak stroomt vol, de spelers ronden hun warmingup af. het gezang zwelt aan, we gaan beginnen!!!
matchday! fc twente wordt vandaag gesteund door maarliefst 1045 uitsupporters! autocombi supporters die met de...
1.030 kaarten verkocht, nog 3 dagen om de laatste 170 kaarten te kopen!! zorg dat je erbij bent en koop snel de...
fc twente maakte zojuist bekend dat er al 700 kaarten zijn verkocht! wie heeft er al een kaart en wie moet er nog...
afgunst en jaloezie, tot nu toe nog steeds 01!!
wij zijn fc twente twente enschede we komen uit het oosten twente enschede hier is jullie hel de hel van...
wij zijn binnen! cote!!
we zijn onderweg! twente komt eraan!!! cote!!
natuurlijk doen wij hier aan mee. rust zacht giovanni
weer een vol uitvak! met 400 man naar deventer! wie zijn er bij?
gezocht zoals jullie allemaal gemerkt hebben verschijnen er de laatste tijd minder compilaties van...
zaterdag 22 oktober speelt fc twente de volgende streekderby van dit jaar uit in deventer tegen go ahead...
zelfs met uitwedstrijden als heerenveen en groningen achter de rug met een uitvakcapaciteit van respectievelijk...
vandaag maakte awaydaysnl het uitsupportersgemiddelde bekend! trots!
nou, ook het laatste cluster is dan eindelijk vertrokken. onderweg naar almelo, wie zijn er allemaal bij vandaag?
zondag is het zover, de derby tegen de kuikens uit almelo. zij vonden het nodig om hun triestheid blijk te geven...
met een vol uitvak naar almelo! het duel tegen heracles is dus uitverkocht! twente komt dr an !
zondag 2 oktober speelt fc twente om 1430 de streekderby tegen heracles almelo. de kaartverkoop voor deze...
dit filmpje kwam bij ons binnen na de uitwedstrijd bij heerenveen, wat een heerlijke sfeer was er ondanks de...
wedstrijdkaartje
vanavond onze vrienden van schalke maar even helpen. schalke und der fct!
610 uitsupporters zijn er bij het duel in en tegen heerenveen! wie zijn er weer bij? come on!
fc twente maakte zojuist bekend dat er al ruim 500 kaarten zijn verkocht voor de uitwedstrijd tegen heerenveen!!...
update, de uitwedstrijd tegen heerenveen op 10 september aanstaande is verplaatst naar 2045. aanvankelijk was...
pff wat een wedstrijd en sfeer!
unal!!! unal!!! unal!!! 3 goals in 15 minuten, wij hebben onze spits gevonden!!!
we gaan beginnen! come on!!
een goed gevuld uitvak. wij zijn binnen!
wij zijn onderweg. wie nog meer? twente komt dr an!
zondag staat de uitwedstrijd tegen groningen op de rol, omdat er 450 man meereizen naar het noorden zullen we er...
er zijn zondag 450 supporters aanwezig in groningen! een mooi aantal! wir sind wieder da!
wat een heerlijke foto blijft dit toch! laten we tegen groningen weer vol op aanwezig zijn! de kaarten zijn...
gratis naar groningen zondag 21 augustus speelt fc twente in het noordlease stadion de uitwedstrijd tegen fc...
eerste awayday van dit seizoen. wij zijn onderweg, wie nog meer?
voor diegene die geen mail van twente krijgen of hebben gehad, hierbij de laatste info voor de wedstrijd van...
bij onze eerste awayday reizen er 575 supporters mee naar rotterdam! wie zijn er bij? come on!
ja, je raad het al!! dan heet je mascotte ook nog eens bultje!!! vandaag schijnen ze weer doodsangsten te...
nog een paar dagen en dan stopt de kaartverkoop voor feyenoord twente. er zijn nog steeds kaarten te koop, dus...
fc twente speelt zondag 14 augustus in de kuip tegen feyenoord de eerste uitwedstrijd van dit seizoen. de...
dat blauwe shirt wennen we wel aan, maar dat ook het logo blauw is.... wij moeten er nog wel erg aan wennen....
en terecht... de graafschap degradeert! ajuus
ondanks dat ons geliefde fc twente alweer is begonnen met de voorbereiding op het nieuwe seizoen staat voor heel...
ons fc twente is ook dit jaar weer te bewonderen in de eredivisie, en natuurlijk kunnen wij nu al niet wachten op...
ook wij zijn aanwezig!
ook in newcastle kennen ze ons nu, een indrukwekkend stadion met plek voor ruim 52.000 supporters en een uitvak...
vanochtend heeft de het speelschema bekend gemaakt voor aankomend seizoen. dit zijn de awaydays voor ons in...
nou was dit het dan? is dit het einde van 50 glorieuze jaren, of het begin van het nieuwe fc twente? wat is er...
terwijl we ons bevinden op de meest zwarte bladzijde uit de historie van fc twente staan wij met zn allen als 1...
awaydays nl maakte vandaag de uitsupporters aantallen van dit seizoen bekend. fc. twente eindigde hierbij op een...
ondaks deze geweldige pyro en meer dan 1.000 meegereisde fans, mocht de laatste uitwedstrijd van dit seizoen...
de uitslag is bekend, helaas hadden gigantisch veel mensen het fout, uiteindelijk waren er toch 2 personen die...
matchday! vandaag kunnen wij met meer dan 1000! supporters een amsterdams feestje verzieken! na al het mooie...
fc twente heeft ons zojuist kunnen melden dat er aanstaande zondag ruim 1.000 supporters meereizen naar amsterdam...
een kleine update betreffende de kaartverkoop tegen ajax. fc twente heeft zojuist gemeld dat er 1.200 kaarten...
twente on tour. omdat twente dit weekend niet in actie kwam, was het de uitgelegen mogelijkheid om maar eens...
fc twente kan ons melden dat er van de 1.000 beschikbare kaarten voor ajaxuit al ruim 850 verkocht zijn. wees...
zondag 1 mei om 1430 speelt de trots van het oosten de belangrijke uitwedstrijd in amsterdam tegen ajax. er zijn...
ooh hakim ziyech, hij is de beste hij is de beste, en dat kun je zien. hij is veel beter, ja veel beter, dan de...
ooh hakim ziyech, hij is de beste, hij is de beste en dat kun je zien. hij is veel beter, ja veel beter, dan de...
we zijn binnen! kom op ta
wij zijn onderweg! wie nog meer? laat het ons weten! come on twente!
geef gehoor aan de oproep van vakp, laten we op de dag des oordeels aan iedereen zien waarom deze prachtclub wel...
omdat deze pagina bijna 3.000 likes heeft bereikt willen wij wat terugdoen voor onze volgers. na overleg met fc...
er komt volgend seizoen een hele mooie awayday aan! we mogen weer naar het kasteel! sparta is zojuist kampioen...
na de geweldige overwinning tegen willem ii gaat, ondanks de aftrek van 3 punten, de competitie in volle gang...
alle 550 kaarten zijn verkocht! dit betekend vol uitvak in doetinchem ! wie zijn er bij?
de winnende goal van ziyech... in 2 woorden heerlijke ontlading!! stuur alle gemaakte fotos en filmpjes naar...
inmiddels is de stand 22 geworden. nog 20 minuten voor de overwinning.
ook voor de wedstrijd zit de sfeer er al lekker in, net als vorig jaar kunnen we waarschijnlijk wel weer een pyro...
wij zijn weer aanwezig, nadat we koppies geteld hebben kunnen we zeggen dat er geen 600 maar 599 man aanwezig...
net als bij az wordt de pyro deze week door hengelo verzorgd󾮗
vanuit delden zijn we vertrokken naar tilburg. straks met 600 man onze trots toejuichen. cote!!!
fc twente speelt vrijdag 15 april de uitwedstrijd tegen de graafschap. het duel begint om 20.00 uur. de...
zo vlug als een paashaas is dit interlandweekend weer voorbij, en kunnen we weer verder met de competitie. namens...
na alle kritiek en onvrede over de kaartverkoop van willem ii te hebben aangehoord, hebben wij contact gezocht...
fc twente heeft ons kunnen meededelen dat alle 600 beschikbare kaarten voor de wedstrijd willem ii fc twente...
zaterdag 2 april speelt onze trots zijn eerstvolgende uitwedstrijd om 2045 in tilburg, vorig jaar werd het een...
tijdens de mars ter hoogte van rigtersbleek is deze seizoenskaart gevonden, wil de eigenaar ons een berichtje...
vanuit heel het land komen ze hier om hun supportersplicht te vervullen! wij van awaydays zijn er uiteraard ook...
om onduidelijkheid bij onze volgers te voorkomen, de twente leeft mars die vakp aankomende zaterdag organiseert...
om onduidelijkheid bij onze volgers te voorkomen, de twente leeft mars die vakp aankomende zaterdag organiseert...
om onduidelijkheid bij onze volgers te voorkomen, de twente leeft mars die vakp aankomende zaterdag organiseert...
vandaag is het precies 4 jaar geleden dat fc twente haar europa league wedstrijd tegen schalke 04 speelde. de...
zaterdag allemaal komen en meelopen, wij laten de knvb en heel nederland zien waarom deze club niet kapot mag gaan!!
zegt genoeg naar ons idee...
wij zijn gearriveerd!! en de stoelendans is zoals gewoonlijk begonnen bij ado.
kaartje is binnen! twente komt er aan! hoeveel maken we er dit keer? come on you boys in red!
matchday! wij zijn alweer een tijdje op weg naar ooievaarsstad! tijd voor de zesde driepunter op rij met de 360...
wat een achterban! wij kunnen melden dat er morgenmiddag gewoon 360 tukkers zullen afreizen naar den haag!...
deze club gaat nooit kapot, of we volgend jaar nou eredivisie of 5e klasse spelen. wij blijven de club steunen....
we weten het geen uitwedstrijd. maar deze panenka van ziyech is wel heel lekker hoor!!
beste volgers van awaydays fc twente, bij deze wat meer informatie over de videos van awaydays fc twente in de...
2.500 likes gepasseerd, op naar de 5.000 samen krijgen we de uitvakken weer vol.
tegen roda hebben we gezien wat voor boost wij de ploeg kunnen geven. tegen ado willen wij het uitvak opnieuw...
een aantal fotos van gisteravond, heb jij nog meer beeldmateriaal van tijdens de wedstrijden, de goal of de...
volle bak in kerkrade, met een geweldige pyroshow staan we op supportersgebied al met 01 voor.
kaartje is binnen! come on!
wij hebben goed nieuws voor jullie... er gaan morgen 750 supporters mee naar kerkrade en is dus uitverkocht!!!...
twente heeft zojuist bekend gemaakt dat er nog maar 90 kaarten beschikbaar zijn voor het uitduel tegen roda jc!...
afgelopen weekend was ik robin, mede beheerder van deze pagina weer te gast bij mijn vrienden uit duitsland ...
van de 1.000 beschikbare kaarten voor de wedstrijd roda jc fc twente zijn er ondertussen al 600 verkocht, nog 4...
met ruim 400 man schreeuwen wij vanavond onze trots naar de overwinning... cote!!!!
fc twente heeft ons kunne melden dat er morgen ruim 400 supporters naar heerenveen mee gaan.
wij geven gehoor aan de oproep van vakp, en roepen ook iedereen op om mee te gaan naar kerkrade, laten we zorgen...
zaterdag 6 februari 19.45 uur speelt fc twente de uitwedstrijd tegen sc heerenveen. de kaartverkoop voor fc...
getoeter op de parkeerplaats na de wedstrijd nec fc twente
wij hebben ons best gedaan...
beter laat dan nooit, zijn wij ook gearriveerd bij nec!! kom op taaan!!!
kaartje is binnen. come on
fc twente heeft ons kunnen melden dat er morgen 230 supporters meegaan. wat vinden we hier van? come on twente!
zaterdag 6 februari om 1945 wordt de uitwedstrijd in heerenveen tegen de plaatselijke sc gespeeld. de...
de meegereisde supporters van vandaag. helaas konden ze de punten niet meenemen.
we zijn gearriveerd... nog 3 kwartier until kickoff. cote!!!
nog een kwartiertje dan kan het omwisselen beginnen.
na contact te hebben gehad met fc twente kunnen wij melden dat er aanstaande zondag een kleine 300 man meereizen...
woensdag 27 januari om 1830 speelt onze trots de doorgaans doelpuntrijke uitwedstrijd in nijmegen tegen nec....
24 januari om 1430 is de winterstop dan eindelijk afgelopen voor ons en beginnen we weer, dan reist onze trots...
misschien een beetje laat, maar hier is dan de sfeercompilatie van vitesse fc twente! geniet nog een keer van...
wij stelden de vraag wat was volgens jou de mooiste uitwedstrijd sfeer, uitvak, passie van de eerste...
wij van awaydays fc twente wensen iedereen fijne feestdagen en een gelukkig nieuwjaar. voor het maken van een...
fc twente sluit het eerste seizoenshelft af met een gemiddelde van 363 uitsupporters. dit betekend dat wij op...
fc twente kan ons melden dat er morgen rond de 380 supporters meereizen naar de laatste wedstrijd van het jaar....
kaartverkoop loopt tot woensdag 16 december 1200! fc twente speelt vrijdag 18 december de uitwedstrijd tegen...
bij deze de sfeercompilatie van de afgelopen wedstrijd tegen excelsior filmpje
r.i.p erik lassche erik was de eerste nederlandse voetbalsupporter die is overleden bij voetbalgeweld. dit...
wij zijn weer onderweg naar huis. twente enschede, altijd en overal!
wij zijn binnen! kom op taaa
en we gaan woudestein om even 3 punten op te halen. come on!!!
fc twente heeft ons kunnen melden dat er ruim 200 supporters meegaan op de mooie sinterklaas avond. wellicht nu...
vrijdag 18 december speelt onze trots om 2000 de laatste wedstrijd van 2015 in arnhem tegen vitesse. voor deze...
vergeet nooit die mooie tijden, wie stoat achter twente, toen, nu, altijd en overal! never forget our history!...
nou dan is het in een keer allemaal over, de droom, de ambitie..... we moeten met fc twente een stabiele factor...
oproep van vriendenkring fc twente oproep vrijdag willen we zoveel mogelijk supporters bij de training zien...
de sfeercompilatie van afgelopen zondag staat op ons youtubekanaal! geniet nog even van de aller beste...
helaas opnieuw geen 3 punten in een uitwedstrijd..... de sfeercompilatie zal morgenavond worden geüpload.
wij zijn aanwezig! kom op taaaaaaaaa! 󾭞󾭞
we zijn binnen!! come on!!
en we zijn, samen met ruim 850 tukkers, onderweg naar rotterdam! wherever twente needs us!
fc twente kan ons melden dat er aanstaande zondag ruim 850 supporters meereizen naar rotterdam. supporters die...
zondag is het zover! met een goed gevuld uitvak spelen we tegen feyenoord! om alvast vooruit te blikken kijken we...
fc twente speelt zaterdag 5 december de uitwedstrijd tegen excelsior. het duel begint om 18.30 uur. de...
met ruim 850 verkochte kaarten in de uitwedstrijd naar feyenoord bijna uitverkocht. er zijn nog enkele kaarten...
in aanloop naar de komende wedstrijd in rotterdam en weer eens een goed gevuld uitvak, kijken we terug naar een...
tussenstand! er zijn nu al 700 van de waarschijnlijk 850 kaarten verkocht voor het uitduel tegen feyenoord!...
de sfeercompilatie van afgelopen zondag staat na wat technische problemen op ons youtube kanaal! een ieder die...
vandaag werd er met 42 verloren van fc utrecht. de 300 uitsupporters konden er niet voor zorgen dat de eerste...
300 man sterk vandaag in utrecht. come on twente enschede!!!!
wij zijn onderweg naar utrecht. wordt dit dan eindelijk onze eerste uitoverwinning van dit seizoen?! kom op...
na contact met fc twente te hebben gehad kunnen wij melden dat er aanstaande zondag +/ 300 supporters meereizen...
fc twente speelt zondag 22 november de uitwedstrijd tegen feyenoord. het duel in de kuip begint om 14.30 uur. de...
voordelig mee naar de eerstvolgende uitwedstrijd van fc twente in utrecht?! bestel je kaarten voor maar 20...
morgen is het dan zover, na een midweekje europees voetbal is ook ons fc twente aan de beurt. een leuk affiche in...
kaartinfo utrecht uit fc twente speelt zondag 1 november de uitwedstrijd tegen fc utrecht. het duel in de...
de uitsupporters van vandaag! come on twente!
wij zijn gearriveerd! come on twente!!
de pyro wordt vandaag verzorgd door hengelo!
wij zijn onderweg! de punten gaan mee naar enschede!
matchday! vandaag gaan we naar alkmaar, voor het cruciale duel tegen az! volgens fc twente zullen er zon 350...
nadat we net contact hebben opgenomen met fc twente, kregen we te horen dat niet 600, maar slechts 350...
ondertussen zijn er al ruim 600 kaarten verkocht voor de uitwedstrijd tegen az aanstaande zondag! wil je er ook...
gisteren beleefde de winnares van de kaartenactie doinja een hele mooie middag. ze zag haar fc. twente voor het...
de sfeercompilatie van gisteravond het filmpje wordt zo snel mogelijk geüpload...
net als in 2007 zijn we in de tweede ronde van het knvbbekertoernooi uitgeschakeld. vannacht/morgenvroeg komt de...
01 voor onze trotst!
wij zijn binnen! come on twente enschede!
het bekeravontuur begint voor ons vanavond in het hoge noorden. wij zijn onderweg. come on twente!
matchday! vandaag zijn we met 175 supporters aanwezig tegen fc groningen. er zal vannacht/morgen vroeg een...
woensdag zullen er 175 supporters meereizen naar het hoge noorden voor het bekerduel tegen fc groningen.
supportersinformatie bekerduel tegen fc groningen woensdag 23 september speelt fc twente in de tweede ronde van...
winactie! de winnares van onze like en deelactie voor twee vrijkaarten is bekend! gefeliciteerd doinja...
het uitvak van vanavond! vergeet niet jullie mening te geven op
informatie voor de ± 300 uitsupporters zaterdag 19 september speelt fc twente in leeuwarden de uitwedstrijd...
beste supporters, jullie kunnen nog tot en met zondag 20 september kans maken op de 2 kaarten voor de...
kaartverkoop az fc. twente fc twente speelt zondag 4 oktober in alkmaar de uitwedstrijd tegen az. het duel...
kaartverkoop knvbbeker duel tegen fc groningen woensdag 23 september speelt fc twente in de tweede ronde van de...
yes! de 2000 likes zijn bereikt! allemaal bedankt voor jullie support! om deze mijlpaal te vieren hebben we een...
fc twente heeft een fout bericht op haar website staan de kaartverkoop voor het uitduel tegen sc cambuur startte...
nadat we het goede nieuws over het vertrek van schreuder hebben ontvangen, is dan hier de sfeercompilatie van...
nadat we het goede nieuws over het vertrek van schreuder hebben ontvangen, is dan hier de sfeercompilatie van...
en we zijn los
zaterdag spelen we tegen heracles almelo, wij zijn aanwezig met een uitverkocht uitvak! wij roepen jullie op om...
zaterdag spelen we tegen heracles almelo, wij zijn aanwezig met een uitverkocht uitvak! wij roepen jullie op om...
vertrektijden clusters uitduel heracles zaterdag 29 augustus speelt fc twente in almelo de uitwedstrijd tegen...
uitverkocht! zaterdag 29 augustus speelt fc twente in almelo de uitwedstrijd tegen heracles. het duel begint om...
de winnaar van onze fc twente on tour foto actie is wout olthaar! hij stuurde ons deze fantastische foto! van...
en vanaf minuut 1 zit de sfeer er goed in! come on you boys in red!!!
het wedstrijdkaartje voor deze morgen
nog even en dan zijn we in zwolle. come on twente! wat zijn jullie voorspellingen?
beste vakantiegangers, waarschijnlijk zit er voor de meesten van jullie de vakantie er bijna op. zoals jullie...
beste vakantiegangers, waarschijnlijk zit er voor de meeste van jullie de vakantie er bijna op. zoals jullie...
beste supporters, wij hebben jullie hulp nodig. er is iets mis gegaan met het filmen gisteren. wij zelf hebben...
helaas kunnen we de 3 punten niet meenemen naar enschede... de wedstrijd eindigt in een 11 gelijkspel tegen...
het uitvak van vanavond! wie stoat achter twente!
nog even en het gaat beginnen! maar wij zijn in ieder geval binnen! come on twente!
uitverkocht! er zijn geen kaarten meer beschikbaar voor fc groningen uit! er zullen zon 500 tukkers plaatsnemen in het uitvak!
kaart omwissel bij het stadion woensdag opent fc twente het eredivisieseizoen tegen fc groningen. de...
alsof het aflassen van de wedstrijd nog niet genoeg was, komt nu het nieuws naar buiten dat de aftrap tegen fc...
nadat we net te horen hebben gekregen dat de eerste uitwedstrijd van dit seizoen aanstaande zondag niet door...
het was een warme, dorstige en gezellige middag in gelsenkirchen! wat vonden jullie van de wedstrijd/ sfeer?...
matchday! vandaag is het dan eindelijk zover. de uitwedstrijd tegen onze vrienden van schalke. laten we er een...
zondag 23 augustus staat de uitwedstrijd tegen pec zwolle op het programma. de aanvang van de wedstrijd in het...
dit shirt zullen we dit seizoen vaak tegenkomen. wat vinden we van het uitshirt van dit seizoen?
goedemorgen! vandaag begint dan eindelijk de kaartverkoop voor de uitwedstrijd tegen fc groningen! let op de...
het is zomer en dat betekent twentse vakantiegangers on tour! wie kan de allermooiste, meest trotse, of originele...
brekend! vandaag zou de kaartverkoop starten betreft de wedstrijd tegen groningen. dit is nu niet het geval!...
de knvb heeft het bekerduel tegen fc groningen vastgesteld op woensdag 23 september. het duel tegen de regerend...
zondag 9 augustus staat de eerste wedstrijd van het seizoen op het programma, uit tegen fc groningen. om 14.30...
fc twente heeft vandaag haar oefenwedstrijd gewonnen met 016! fc twente speelde in vriezenveen tegen team...
voorlopige kaartverkoopinformatie fc groningenuit we kunnen melden dat fc twente tegen fc groningen heeft...
de eerste tegenstander van fc twente in de knvb beker is bekend. het wordt een uitwedstrijd naar groningen!