mst zoekt nieuwe communicatiemanager
hij bloeit mooi hoor!
benieuwd wat er allemaal waar is van de geruchten die elk jaar weer de ronde doen
in 1988 hadden we de eerste en enige shaorma tent 😂
ja lekker
de fanzone is zo goed als gereed! is er klaar voor
op een enkele plaat na all itwt releases in een playlist
ik was dus niet enige
de timing van je tweets was gisteravond perfect
prachtig dat je je naam eer aan doet
perfecte timing van ajax.. precies scoren tijdens de 3 minuten van
echt iets voor jou dit
klaver heeft niet alleen de speech van obama gekopieerd, maar zijn hele charmante aanpak. slim gedaan!
herman de scherman we missen je!
onitaliaans voetbal van napoli vanavond.. prachtige pot!
op weg naar berlijn! vanavond
tegenlicht meetup woensdag 8 feb. enschede uitdagers van de democratie
interessant interview met hoofd rvd stephan schrover in magazine van
die keeper heeft ons al zoveel punten gekost
leg er maar vast 1 klaar
jij weet vast wel iets meer
gefeliciteerd wilmien met deze geweldige uitdaging!
bij deze
en hoe zit met jullie huismerk
2doc in tweets het laatste jaar van fc twente
ik heb je gezien
prachtige docu, mooie gesprekken en mooie beelden! alleen dat calimerogedrag moet eens ophouden
bedankt voor de eer, maar waarschijnlijk bedoel je
als het bij een mug blijft
ik heb het ook gezien! dat is een beste meneer geworden
typisch voorbeeld van systeemwereld kamp nieuwe kolencentrale past binnen de regels
wat houden de panama papers in, uitgelegd aan een 5 jarige volgens
in de trein via twitter aan het volgen. best grappig.. krijg het idee dat die luckassen van az er geen pepernoot van bakt
ik heb genoten!
interessant! afgelopen zaterdag in rtl nieuws ook nog een mooi item
meest beroerde scheids in tijden
gefeliciteerd eelco nog gespeecht?
wat een partij! gefeliciteerd
op nr.1 in mijn op spotify
gefeliciteerd met de prijs voor meest ondernemende universiteit!
de website van ziet er weer spik en span uit! gefeliciteerd!
gefeliciteerd met de tweede plaats! mooi resultaat!
zoiets zou je er inderdaad bij denken
het moet niet gekker worden.. isis has help desk for terrorists staffed around the clock via nbcnews
heel graag
toch niet op zoek naar een alternatief sorry. | spotify blog
my top 3 artists armin van buuren 2, goldroom 2 &amp guy j 2
my top 3 artists armin van buuren 27, drdr 3 &amp 16 bit lolitas 3
genoten van je show in de ziggo. benieuwd wat je gaat doen! geniet van de time off! fijne feestdagen samen met de familie
als je zo wisselt, wil je ook niet winnen! hij lijkt mclaren wel.
zit silver bath er nog in vanavond?
jullie zeggen alle cds, maar als ik bepaalde armada cds toevoeg aan mn cart gaat er geen 20% af
ze hangen ook in enschede. check tweet van
leuke lezing van over het voortschrijdende inzicht in het communicatievak op bijeenkomst
inderdaad van ajax naar barcelona
zie kl0682 yvr ams, van vandaag is gecanceld. die van morgen gaat wel door?
gelukkig wel maar wat een gedoe!
problemen op het spoor.. nu bij ams zuid.. nog op tijd voor bagage drop off. voor kl0681?
dank voor het antwoord! begrijpelijk dat veiligheid voorop staat. wat houden passende maatregelen in? verleggen van vliegroutes?
wat gebeurd er als de vulkaan op ijsland tot uitbarsting komt met de vluchten richting canada en amerika?
en toen was ik er toch ineens doorheen 2 kaarten voor de vrijdag
al een kwartier in de wachtrij voor de afsluitende show in de er lijkt weinig te gebeuren
ok! mail me even, dan maken we het in orde
voor de vakantie nog op zoek naar een autovignet voor zwitserland? ik heb er één te koop
nederland houdt op na utrecht?
bullit van watermät gevonden met
wel een back up van je spullen hoop ik? wel onwijs irritant lijkt me
rené van der gijp legt bom onder vi via
link doet t niet.. privé zegt ie
in ieder geval niet matthews van orica greenedge. trainingsongeluk gehad. ik heb m er wel in staan
heb je een link? stuur ik m hier ook even door
ja goeie vraag.. ik heb m al ingeleverd, maar heb niet echt verassingen
nog geen dropboxaccount? gebruik deze link en je helpt mij ook aan wat opslagcapaciteit! registratie is gratis!
ok dank! dan zal ik dat gaan doen
dat is inderdaad service, echter moet ik dan nog steeds weten wanneer ik die batterijen gekocht heb..
2/2 ik kom regelmatig bij ikea en die bonnetjes bewaar ik niet allemaal vooral als het gaat om een paar batterijen etc
1/2 bedankt voor de reactie, maar ik kan echt niet vertellen wanneer ik die batterijen precies gekocht heb.
baal behoorlijk van jullie batterijen. een lekkende batterij heeft mijn apple muis om zeep geholpen.
ok, mijn nieuwsgierigheid is weer gestild succes en goed weekend!
hoe kan ik online meerdere eindcijfers aangeven als ik meerdere loten wil kopen? lijkt dat ik maar 1 eindcijfer kan aangeven
en toen was ik zomaar ff in de uitzending bij om mijn commentaar te geven bij dat mooi album van
merci beaucoup
bekende werkwijze om tot een goed lopende site, app of webfunctionaliteit te komen.
leuk overzicht waar op de wereld welke media diensten verkrijgbaar zijn
apple staat op het punt on beats by dr. dre over te nemen via
iets stijlvoller
karig lijstje waar je uit kunt kiezen en dan slechts 5 eigen keuzes
hahaha hebben ze nog niet gevraagd naar je id kaart? p
ok dank!
jullie info over abos van telfort met iphone 5s klopt niet. jullie zeggen 20e, maar link naar website en ineens 42e.
check deze
google zet sociaal netwerk google op laag pitje de zoveelste poging die lijkt te stranden
nee van gister idd.. grappig want die heb ik nog niet gekregen
ik heb je een berichtje gestuurd op je discogs account
dat wordt m niet.. ik mail je wel een paar data
lijkt me goed dat beide webredacties eens kennis met elkaar maken. denk dat we veel van elkaar kunnen leren
en de gaat naar publieksprijs rijkswaterstaat, juryprijs briders.. helaas niet gewonnen
collegas en houden korte pitch voor goed gedaan!
op een mooie historische locatie stadhuis gemeente utrecht
richting utrecht voor de en uitreiking van de 1 van mn projecten is genomineerd!
thanks! hebber erg veel zin in!
erg genoten van je energieke voorstelling gisteravond! humor zit in kleine dingen
waarom is het toch altijd weer de grote als hij in de grolschveste moet fluiten
en weg is ie
als medebedenker van erg trots op de nominatie voor de 2014
ik ken wel een cartoonist / illustrator weet neit wat je zoekt, anders misschien
sinds ik gisteren een update heb uitgevoerd voor de desktopversie van chrome voor mac, werkt jullie site niet goed meer
ja dat deed ie mooi
heeft t moeilijk met
ook een link naar desktopversie vd site? of site zo aanpassen dat ie detecteert met welk device je benaderd
dat liedje gaat m niet worden
thanks! ik zal het vanavond even uitvoeren
nee. doet het al dagen niet meer
ik bedoel idd zender 18. ik kreeg geen foutmelding, alleen de melding geen signaal
is national geographic hd geen onderdeel meer van het standaard pakket?
pilsje bij kaarslicht
zou fijn zijn als ie t ook deed 😒
schiet ik daar iets mee op denk je
enexis enig idee hoe lang de stroomstoring in west gaat duren?
hier ook kaarsjes aan en de houtkachel
naast stadsveld, ruwenbos en boswinkel, nog meer wijken getroffen door een stroomstoring?
iets voor jou?
wel ff naar boven gaan hè? aapjes kijken
dat ga ik niet redden, maar kom zeker snel even proeven
de ijsmachine
in groningen.. een keer geen hosanna verhalen, maar waar loop je tegenaan bij ontwikkeling en implementatie, etc
lijkt erop dat klaar is met strooien en tijd heeft om te versturen
enig idee wanneer in nl?
het is communicatief beter dan zeggen dat je niet weet hoe het werkt
goed bezig! ook impact op interne processen en kosten
ja zo heb ik ook wel eens dingen gevonden! dat zijn de mooiste aankopen! is jou marketplace op discogs actueel?
daar moet je toevallig eens tegenaan lopen op een rommelmarkt of op een platen/cd beurs
interesting! deze kende ik beide nog niet!
heb ik ook wel een beetje last van.. vooral early trancecompilaties van en
echt respect voor je collectie! zitten hele mooie dingen tussen zag ik op discogs
nederland van boven
gisteravond nederland van boven gezien? aflevering die ook over dit thema gaat. voor jou zeker het kijken waard!
mooie verwijzing naar oude werk
op zoek naar een nieuw onderkomen?
kun je niet gewoon een heel uur dance requests doen
mooie beelden van goede herinneringen aan vorig jaar hier in
verschrikkelijk dat callcenter vd niet eens een lot kunnen opzeggen per 1 feb. en totaal niet luisteren!
afscheid van geniet van je pensioen café sprakel
nu maak je me nieuwsgierig
3 dagen
samsung ontploft in de hand
leuk idee om een hashtag te gebruiken tijdens je afstudeerpraatje
het afscheid van valt sommigen zwaar
t vreemde is dat ie bijna in rotterdam woont
opmerkelijk dat makkelie fluit...
wat een geweldige track! ♫ oblivion – cut glass
mooie overzichtsfoto!
jazeker! het winkelgebied gaat er steeds beter uit zien!
zo dat is snel gegaan zeg! goed bezig daar!
gefeliciteerd!
leuk dat je tijdens die 303 achtige track al die enorme smileys gebruikte
begint weer.. fenomenaal gefilmd!
zometeen met en naar maar eerst pizza bij
lidl haalt leuke stunt uit met neprestaurant
my top 3 artists cosmic gate 4, deadmau5 4 &amp armin van buuren 3
volgens mij kan dat niet eens.. ik zou de site van t cbf ff checken als ik jou was
amuserende presentatie over generatiegerichtte kanaalsturing door op t
leuk dat je spreekt op t ben je er de hele dag bij?
dus dat was het niet?
maar dan zouden de microfoons het toch ook niet meer doen en de cameras ook niet.. toch?
philips is niet blij met het commentaar over psv
wedstrijd in de tas denk je na 45 min. de tweede helft was stond erbij en keer ernaar...
bedankt voor jullie reactie, ik stuur jullie nu gelijk een dm met de gegevens
ik surf naar voor wijzigen van foxsports abo. ik log in en krijg dan foutmelding
gerucht ‘tmg staakt hyves’ via
toch de nieuwe ipad aanschaffen?
die tweede denk ik ook niet
wat een pegel inderdaad! dat was echt jonguh!
zaterdag ben ik daar weer voor wat meestal een van de mooiste wedstrijden van het jaar is
ga je nog iets doen met asot 666? dat wordt vast een duivels mooie uitzending
dat mag ie volgende week zaterdag ook wel doen
is dat de opvolger van ?
het logo van enschede is ook bijna compleet
my top 3 artists armin van buuren 2, meridian 1 &amp macklemore &amp ryan lewis 1
even mn cd en vinyl collectie digitaal bijgewerkt
wanneer hengelo?
het werkt! thanks!
sinds ik ios 7 heb geinstalleerd werkt jullie app niet meer. is er oplossing of moet ik wachten op een update?
ja dat is waar.. maar blijft vreemd zo middenin de woestijn.. antelope canyon ook gezien?
ben je daar geweest? super! ik vond vooral cesars palace enorm indrukwekkend
9 van de 11 goed! quiz | wie weet de betekenis van het twentse woord? via
top! kan ik reserveren voor zaterdag 1800 uur, 4 personen?
bedankt! waarom eigenlijk niet eerder?
hoe ver van tevoren kan ik online inchecken op een europese vlucht?
wat heeft hij met zn oog?
iphone kopen
nog steeds in gebruik
nee was niet het geval, maar is via andere website opgelost
tijdens het boeken van mijn vlucht wordt de prijs gewijzigd.. lijkt me niet de bedoeling toch?
volgens mij de boosdoener ook opgespoord.. twitterde namelijk exact hetzelfde vanuit zijn eigen account 2min. later
leuke reactie van de toch wel een kleine
zou je ff willen volgen? ik wil je graag een dm sturen..
ik hoop voor dat ie daar blijft.. ook moeilijk om nog aan te sluiten bij een team dat al +/ 2 maanden bezig is
had ik misschien ook moeten doen
wint met 60 en wil het alleen hebben over het spandoek?
hehe.. die iemand is goed bezig
sinds wanneer kijk jij voetbal
voor jullie is de weer app druppel wel geschikt p
sluit goed aan bij ios 7
ja dat is mooi
daarnaast als de rest in huis ook van dezelfde fabrikant is, werkt het wel zo makkelijk
haha..waar! uiteindelijk is het concept met een touchscreen en apps begonnen met een iphone. android was een reactie daarop 1/2
nooit!
de nieuwe kan me nog niet echt overtuigen.. enorm veel laadtijd en irritant waar verborgen zit
ik denk niet dat je daar op hoeft te wachten als je ziet waar je pasfoto allemaal aan moet voldoen
bedankt voor de tip
my top 3 artists armin van buuren 6, coldplay 3 &amp giuseppe ottaviani 3
nice! veel suc6 en fijne vakantie!
youtube oprichters komen met nieuwe video app om samen filmpjes te maken helaas alleen in us appstore
had ik nog niet gehoord.. gefeliciteerd! nieuwe uitdaging altijd leuk! wat ga je precies doen?
welke webcarestrategie werkt het best? eerste wetenschappelijk onderzoek! via
goeie actie in
gefeliciteerd met je stekkie in het nieuwe programma van ik hou je in de gaten! veel suc6!
handig dat je je auto zo naast het bad kunt parkeren
het grappige is dat die auto vorige week nog op marktplaats stond van deze verkoper
erg grappig en wel weer goede marketing ook
de nieuwe goedkope schijnt de 5c te gaan heten. de c van colour... jaja
en verliest al weer een oefenduel. erg benieuwd wat dit seizoen gaat brengen
zoiets als deze misschien?
ok bedankt! ik hou het in de gaten
volgens de franstalige belgische website sudinfo.be gaat nacer nu echt verlaten voor tottenham hotspur
begint zo langzamerhand wel een handelshuis in keepers te worden...zucht..
maar dat is geen antwoord op mijn vraag
komt toevallig de pioneer xw sma 4 binnenkort nog weer in de aanbieding of als hotdeal?
ik heb nog een lampje te koop.. iemand interesse?
wat is volgens jullie de twitter client die het snelst updates weergeeft?
niet naar de open dag van
via
apple komt met leger aan nieuwe producten
de hashtag net toegevoegd aan mn tweetdeck. vervolgens werkte die kolom als een soort gokautomaat. om vervolgens te crashen
eens
leuke sessie met onze afd. communicatie onder leiding van
volgens mij is dat goed gekomen
omdat ze bliksemsnel voorbij gaan
van suiker?
slijmbeurs?
ja kan ik me iets bij voorstellen.. en daarna nog 1 voor panoramafotos
goed dat de camera daarna ook uitzoomt
ik mis toch eigenlijk wel hipstamatic in je artikel op
het ging me inderdaad om trends..
twitter opent eindelijk zijn statistieken! daar zat ik al een tijdje op te wachten via
kan ik die presentatie online bekijken?
maar waar maken jullie je nog druk om..? ik neem aan dat jullie wel iets beters te doen hebben..
conceptprogramma voor t nieuwe seizoen is bekend! begint zaterdag 3 augustus thuis tegen rkc
en op deze manier ga je die niet krijgen. wat is de meerwaarde? tov bijv twitter?
grappige mockups van de nieuwe
erg mooie kartbaan. je kunt vol gas vanaf na de laatste haarspeldbocht tot na de tweede bocht na het rechte stuk
was een goed gesprek!
jullie zouden vaker polls op bijv. facebook moeten doen welk soort speciaal ijs men de volgende dag wil
ik dacht the nighttrain van kadoc
de grappen over bakeoff bakkerij die in brand staat liggen erg voor de hand
enigzins verbaasd was ik ook wel eén scène en game of thronesfans wereldwijd zijn volledig overstuur
ook iets voor
dat geeft elk ander biertje mij ook wel
in het rijksmuseum werken prachtige hertjes. en ze zijn nog intelligent ook via
lijkt en bijna haha
laten we het niet hopen
vliegen in een darth vader luchtballon
vanaf nu gratis 1 terrabyte!! voor je fotos op flickr via
gefeliciteerd man! suc6 met klussen en verhuizen!
gefeliciteerd met weer een mooie prijs!
den haag uit, altijd lastig
kaarten voor enschede al binnen
ios 7 komt eraan
tennisser promoot galaxy via zijn iphone via
iets voor jou?
alleen nog maar beschikbaar voor ontwikkelaars, maar google glass heeft nu al een jailbreak
zonder hulp gaat dat denk ik ook wel lukken
gevaar is natuurlijk wel dat je iemand een stempel opdrukt die misschien wel niks gedaan heeft
crowd achterhaalt daders bomaanslagen marathon boston via
mis bij de filmpjes over de aanpassingen van station eigenlijk een voiceover die vertelt wat er allemaal gaat gebeuren.
je imitatieestaffette bij de mike en thomasshow!
gefeliciteerd! ga je wel verder met je werk op het gebied van social media?
door de hashtag in een url te plaatsen doet de url het niet meer.. dus apart hashtag en url vermelden
facebook lanceert eigen androidaanpassing home via
koningspaar op riooldeksels via je zou haast denken dat het een 1 april grap is
facebook komt met hashtags
dat doen we zeker erg amusant filmpje van
haha ik hoorde dat je nog sjans had
leuke avond gehad gisteren?
ik help je hopen! maar t is teveel van hetzelfde, geen leider en te weinig verschil in leeftijd zoals in 2010
en nu zal het denk ik ook incidenteel zijn.
van marwijk en jans zou ik geen optie vinden.. veel te behoudend. verbeek zou het wel goed kunnen denk ik!
helemaal mee eens!
jou account is ook gehackt. even je wachtwoord wijzigen!
ik moest erg om je lachen vanmiddag op de radio! wat een schema trouwens! respect!
uitzending gemist! altijd handig
klopt idd heb m ook gehad
volgens mij is je account gehackt. krijg van die rare dm berichten van je. wachtwoord wijzigen en probleem is opgelost
geweldige muziek maken die gasten ♫ running back to you original mix – perseus
je behoort nu tot het goede volk..
dat is goedkoop! weten jullie dat wel zeker?
ook zon interesse in het scorebord van
en dan doe je gewoon je werk...
die gasten denk dat ze boven de wet staan of zo? &gt verzet in sgp tegen vrouwenplan via