dit lijkt me geen bericht van jullie?
goeie tijd van twitteren wel!
dit is het fc twente zoals wij twente graag zien voetballen, aldus schreuder! eruit met die man
feit is ook dat van alle 11 basisspelers er nu nog maar 1 is zonder contract.
op oons fred!
chef klootzak wat moet je doen om dat te worden?
het nieuwe stadion zal wel afbetaald moeten worden!
kom er bij !
wat een team stevo d4, super seizoenweinig punten veel plezier met een super afsluiting!
had je dat gisteren al even uitgedacht om dat te gaan zeggen?
je zult maar 7e staan met die strontboereuhhh!
mond houden! hij is een held he! fast and furious!
wanneer krijgen wij een afscheid van douglas?
juichen op de tribune! moet kunnen, huilen is ook al zo wat?
ga zo door, ga zo door!
corona in de wedstrijdselectie?
zorg dat je een bondscoach krijgt die zich normaal gedraagt. ipv te zeuren over een prachtig mooi spandoek!
kan toch niet waar zijn dat je naar ajax gaat of wel?
ja ja corona al bij ons aan de tafel in
prachtig doek toch? en maak er niet zon drama van man.
eindelijk een scheidsrechter met ballen! liesveld man naar mijn hart!
en is ook jarig! gefeliciteerd kerel!
even naar het circus met leeee!
opdracht verover noordamerika en afrika voltooid! dankjewel heren!
amsterdamed! paniek
geermanstraat, geesteren
halve komt eerst thijs! en dan moet je nog in de halve finale tegen het kempke!!
“@vinl vandaag over precies 1 jaar gaat het wk in brazilië van start! ” en ik ben erbij!
prima interview in de vi. pak ze!
beetje sonder. al weer met lege handen!
voetbal dramatisch, sfeer dramatisch, en echt letterlijk deed vak p niet meer mee! kom op is man! de hel van enschede moet terug!
morgen gaan de enige senioren kampioenen van fietsen!
maakt een wereld doelpunt vanaf de middellijn kapt hij 2 man uit en knalt vanaf 35 meter de bal snoeihard in de kruising! stevo
wat een held!
een fc twentefan ben je niet voor even, maar voor je hele leven! via
is niet waar heren, 3 weken geleden is stevo futsal 1 kampioen geworden in de zaal!
“@tubbergennl kou krijgt geen vat op gezelligheid nk eiergooien ” laatste zin heeft veel invloed!
film even, wil ik wel zien!
haha, zeker niet! jullie dan?
nee ze bracht ons netjes naar huis!
we hadden het wel lekker gevonden als je dat even langs ha gebracht!
eens!
volgensmij is het nog steeds carnaval in twente?! inzet 0,0!
nee maar mijn stoptrein zou 31 gaan en die ging veel later!
hoere zit al een half uur te wachten in deze kut trein. nu mis ik de bus ook nog!
sixpack bier voor 12 uur een feit!
dramatische sfeer jo, schandalig dat je psv meer hoort! alo jo!
wil ook nog wat vertellen over zijn sterrenteam stevo 3.
bende op de snelweg
contract getekend bij zondag beginnen!
wat schuift dat?
ik voel me geroepen schatje
van gerwen held!
tuut, lena is er ook en kijkt de hele tijd naar jou! groetjes alle kroegtijgers!
hahah dat dacht ik al. misschien wel, had het er net over!
je school zit toch ook in enschede?! hahah
oke hou ik je aan!
heerlijk wakker worden
daar gaan we weet met
mart arkink en danny huzink psv uit? mobiele nummer kwijt van jou!
lekker gebakken eitje van de buurman
alles naar de klotennnnnnnn
wie heeft mijn fiets gejat uit het fietsenrek bij kottink? graag een terug brengen!!
gek moet nou al naar school jo.
relax plekje hoor
even mc tentamen en dan richting ootmarsum.
ahah hij is wel lekker he! plus geeft meer.
zondag de speciale europa league mix weer voor de wedstrijd lijkt me een goed begin!
heerlijk doelpunt ruiz trouwens!
belgië met de jongens van elferink! nickieb en markies.
alle vlaggen van de wedstrijd bij de zweef tegen wijhe moeten weer bij stevo komen. hebben er toen 50 gemaakt.
ga er wel langs. maar niet aan he.
mis gewoon voor de 2e op rij op 10 seconden na de intercity.
winnaar is eigenlijk al bekend.
haha jij ook. winnaar doet er een paar in.
ja zeker. de 21 in de 2e helft.
lekker potje zaalvoetbal gehad. debuut bij het 1e haha.
net niet dus.
lekker liedje om te gaan slapen.
bel een keer naar henry elferink en vraag ernaar. staat niet op de site!
schande dat je dat niet weet
je zult zelf de tuin doen jo! haha
gemeente tubbergen laat de met 14,9% groeien ten opzichte van de vorige keer. goed bezig!
ben net overtuigd door iemand om ook te stemmen.
vvd. beter voor studenten.
hahah eindelijk beneden?
die muziek moet altijd voor de wedstrijd. elke wedstrijd is toch belangrijk en willen we toch winnen met een troposfeer!
heldenfilm man!
twente leuke voetballers gehaald. allemaal linksbenig!
0 er bij achter en dan x 2 is het voor weg gegaan. haha
2 dacht ik!
tekoop voor weinig!
ik ga zo groningen in, als ik er weer ben bel ik wel even.!
kutbus gemist. wat een mongolen zijn wij ook.
jaja, ik hoop dat ke nog een x gezellig langs komt broodje eten voor je verjaardag.
hahah moet je finkers zeggen aap hahaha
de guut was er op geweest hoorde ik van colin f.?
chill filmavondje met morgen weer
even naar het feestje in vriezenveen!
met de vip bus richting breda!
is dat nodig voor in de bus? en daar moet el op zitten?
onze bouw, en mijn spanbanden.
schans arkhuz in combinatie met loewie!
lekker naar bruins met loewie!
5 uurtjes werk erop zitten. nu de dag volmaken bij
jij betaald ticket en dan komt bezorgsdienstboom
doe hem de groeten he. haah
nog 5 dagen alleen thuis. chilln met
heerlijk ontbijt
wat baal ik dat ik vnv niet in mallorca ben. wederom in de
ga er zelf maar staan met je grote waffel. hahah
loewie kwijt bij bruins. nu slapen morgen supercup!
ook in het vliegtuig werd gezopen!
61 en 72
wat een leven
ben de europa wedstrijd er niet bij.
gaat lekker hier!
komt goed dikket. nog chiks overgelaten daar?
ja in wierden zijn we!
lekker beginnen
lekker avondje morgen zwaar,zwaar.
wijfff, in mallorca zijn ook wel vrouwen!
ik zeg van wel!
retteketet az.!
luc luc luc luc kan gewoon blijven!
ja ik dacht ook nummer 10 plet. maar is veranderd
tadic gekkkk
wij zijn de kampioen! forza kornuiten
bruins volleybal toernooi gaat lekker. alleen smaakt de bier niet!
vanavond is het dan zover geesteren! de laatste lootjes worden gelegd.
je vergeet 1 ding!
feestje coen h. kan doorgaan!
potje biljarten met de kes even afgemaakt met een driebander!
nog wel leuke voor jou mr dropz laat me begrijpen!
poultje gewonnen! 100 euries erbij
mijn buik ook!
jo chiel. nee was er zat van ga naar stevo 3. wattan?
eten met de jongens
ook niels wigger was bij bruins!
heledag bierdrinken en dan in de rust van theeee
en hier geniet ik nou van!
jaja daarvoor ga je naar de huttenheugte. knallen met euphoria en dan optreden van fransje duits!.
anderhalf uur werken. dan even tentje opbouwen in manderveen en dan lekker even ballen!
in de rust niet het belangrijkste vergeten hè.
euphoria! meer zeg ik niet!
hup yoeri mulder!
geslaagden gefeliciteerd! tent nodig?
afspraken dagje vandaag. eerst albergen dan almelo.
leuk man dat je mij nu volgt hahah
creatief aan het werk
slagharen, daar kun je veel beleven!
hap hap
leuk kermis geesteren. gewoon hele avond geslapen.
leuk woord
haha late reactie. die vrouwen kunnen er niets van ja.
kom ik even bakkie doen! 9 uur
lekker potje gezaalvoetbald met de veteranen. nu slapen en om half 4 weer aan het werk bij de kraai.
even 4 dames hier laten zien hoe je duizend punten kaart.
zo maar eens even weer naar enschede kijken of kb alweer ontwaakt is.
jaa echt he. nieuwe maatjes he.
de maatjes!
paar biertjes met de jongens.
bom in mijn hoofd. albergen uit
altijd gedacht dat alles meegaf. nou behalve de straat.
na de eerste minuten 6x kansen te hebben gehad loopt het over naar 2x in 10 min.
op naar albergen. en er is nog wijn zag ik.
geen chicks daar. hahaah
toch maar albergen.
de ultime genieters
mooi weertje. kottink terras voordat die vol zit?
ja man. dat doen ze.
bij arkink is de kelder is nat, natnatnat.
samen met de buurjongens vermaken. haha
lekker weertje op de vroege morgen.
even met nick naar het ziekenhuis.
gedaan en moest je even bedanken.
mam kampioen. wat een feest hahah.
als jozef niet naar de berg komt, komt de berg wel naar josef.
feest bij stefje. jij ook uhitgendigd op deze voetbalavond!
zeg maar jaaaaaaaaaaaaaaaaaaaaaaaaaaaaaaaaaaaaaaaaaaaaaaaaaaaaaaaaaaaaaaaaaaaaaaaaaaaaaaaaaaaaaaaaaaaaaaaaaaaaaaaaaaaaaaaaaaaaaa
afsluiten bij bruins
morgen met 2 bussen hoeveuit! leuke wedstrijd.
heerlijke vakantiegevoel op de huttenheugte met
yesssssssss fock gek yedssssssss
balotellie hahahahah. niet eens in de basis en toch nog even rellen.
haha was gewoon een wijvenhuis. gaat hij met zijn kale janes op de bank liggen haah
ontwaking hier
enschede de gekste.
eindelijk slapen!
nog 1 uurtje werken en dan 24 uur wakker waarvan 19 uur gewerkt.
moet er nog iemand mee vanaf station?
word het bier ook betaald?
ben je in azelo krijg je een auto vol dorpsgekken.
ja ik hoorde dat er heel veel wouden. bram braakhuis enzo die groep gaan ook allemaal
wij zijn er bij. lekker
klinkt wel lekker in de auto hoor haha.
call me maybe. lekker plaatje niet.
klopt
lekker biertje met
koffie klaar?
heb de auto ingereden voor marijn. hahah.
gezien en al gelezen hahah. hahahah
gaan we weer. en danny gaan weer naar hengelo. was zo gezellig gisteren.
wat een dranklustig weekend.
niets te danken
aardig
leg het woord gerechtigheid eens uit colin? snap het even niet.!
reempie erbij. zuipennnnn.
3 uur slaap en alweer aan het werk en vnv karpaten.
zusje van nina is de stalkerrrrr amyyyyy. lekker vooruit kijken.
leuk en super gezellig feestje van jan arkink.
lossen in zwolle en dan 1 streep op huis aan.
alo recht op de plaat.
joeri poeri
lekker wakker worden met de ringtones van gustaffo lima. haha
donderdag weer relaxt meetrainen met de kampioenen?
fijn plaatje man hahah.
komt goed uit mirte, ik ga nog meed met wilco 1 drinken bij jullie. haha
zuipen bij mvv
daar gaan ze weer de kampioenen.
handelsonderneming huzinklohuis sponsort heel stevo 2.
kijk ze gaan.
912 nog 1 uur en 48 minuten voor misschien wel de kampioenswedstrijd. stevo rood zwart.
bob hier cdtje maken en dan werken bij de vogel.
fantastisch arbitraal trio!
slapen. morgen ziekenhuis voor mijn tandjes als er nog iemand naar het saxion moet op tijd kan zo mee rijden.
ja doen we. zeg maar hoelaat?
gaat er moeilijk in!
dichtbij maar net 30. had meer in gezeten.
ga niet groot dorn jo. met je twente koelbox.
was een makkie, kwart voor 6 alles gesneden.
aan het werk nu bij kraai. en aflossen.
oldenzaal met
op wie ben je nu verliefs? theo? of iris? 2x hartje gezien vandaag. haha
waarom altijd zo fucking veel reclame bij zon topfilm.
jammer zo laat. maar het kan nog.
hahah forza milan. ik ben het eens met jan en ron. haha
ja stomme koe. maar we zullen zien.
en ik kijk door een milan bril he. haha
vond het nog wel een beetje ligt hoor. bal was nog niet genomen. dan kun je er gewoon wat van zeggen haha.
bedoelde ik ook sarcastisch
een feit nog wel. haha. uit naar twente en heerenveen. kom ke 6 punten tekort vriend.
oke als het goed is heeft je zusje het nummer wel. en harry m de held woont 30 meter hier vandaan he. haha
moet je even mijn zakenwaarnemer bellen. ik heb aflopend contract dus geen transfersom.
hahah die staan nu ook bij ons zag ik net. felicitaties aan lohuis met zijn wereld doelpunt. !
en dat in een stevo familie
nog 1
wel de kraai toch? dat is beter voor het kleine fasandje
lekker dagje alkmaar net timmetje en straks werken bij de kraai.
genieters
onderweg naar de alkmaarderhout
slapen. morgen kwart over 5 ophalen en dan richting alkmaar.
beetje potgrond bij ophalen en weer aan het werk bij arkink.
mijn bedrijf vergroot. danny dakgoot,potgrond en tuin
haha is verwilderd jo
dit is maar een gedeelte
even kleine pauze. dan weer door met mijn tuin project.
nu ben ik erbij, nu ben ik de klos. de politie komt eraan en ze laten me nooit meer los.
leuk berichtje op de stevo site. volgensmij was er niemand van het bestuur bij de wedstrijd van stevo 2? haha
lekker chillen in oldenzaal met de boys.
top schoentjes ofniet? wanneer heb je een x rendement?
onderweg naar den haag.
nog uurtje werken dan naar huis en vnv naar den haag.
nieuwe trend om te gaan zeggen met wie je de hele dag aan het werk moet? hahah
zo dat is even nodig!
slapen na druk avondje bij de kraai. half 8 weer aan het werk bij horecagoederen
net lekker met jou broeder bij kottink gezeten. kun je ook goed zitten hoor!
gezocht ene m uit g.
haha naudje ik hoop daj um wint. overwinning was duidelijk verdiend.
ach die beker vorig jaar al gewonnen. gunnen de buurtjes ook wel iets.
de meeste dromen zijn bedrog
met dat domme zwarte mutsje.
zag jullie wel. hahah holten bij de mac.
ook nog grolsch ook. haha
fijn dagje gisteren, nu op weg naar aalkmaar.
danny komt der aan. tututu.
op weg naar de graafschap met de
nee moet je wel hot doen. zeer fijn.
dan de spareribs bij de grieks.
vandaag is het de dag om out of the box te gaan tommy.
zware morgen. maar nu lekker aan het werk tot 3.
slapen. morgen half 8 er weer uit.
van het ene werk door naar het andere werk. druk daggie.
onee de zijn weer helemaal van de party!
ze kunnen het niet meer aan!
lekker zonnetje hier in donderse genietos
op naar gelsenkirchen!
heb je ze koud? gefeliciteerd hek.
ik denk het niet. oohohoooh. ipv. tedudududu.
zombie nation bij bayern.
iemand mee van het station? ben in almelo.
teken is wat!
jaaaa lena, kijk maar even in de papiercontainer!
nieuwe uggs!
haha. collega van jou papa geworden jaa? haha
hahaha nieuwe baan rutten.
eten ribhouse. daarna steggink? bruins? kottink?
de rest van twente ook trouwens!
ola john moet meer de hemel in geprezen worden. valt totaal door de mand vandaag.
even broodje eten en dan misschien wel belangrijkste wedstrijd van het seizoen neo stevo!