❤netflix op toneel! mega trots op al mijn collegas die deze briljante voorstelling gemaakt hebben!
alleen van de terugreis
wintertijd, dus alleen nog maar herten spotten op de heenreis.
wat een totaal unieke, chaotische, indrukwekkende avond gisteren!! dank optimisme is hot
zondag in den haag met paul, taart en champagne. het kon slechter.
taalfout, pijnlijk! en is grensoverschrijdend
ontwikkelde een onwijs toffe nieuwe strategie &amp branding voor in deze case zie je hoe!
ik zal het eens overleggen
whooop! nieuwe stappen met
waar is die plensbui als je m nodig hebt...
boehhh! en gefeliciteerd!
en na zon weekend, rest nog één vraag...
yes ons eerste haags uitfestival als het nationale theater!
waarom online als het offline kan? wordt woord van het jaar 2017
24/7 genoeg inderdaad
300 uur toneel geperst in 2, geperst in een super lekkere teaser. de beste 15 seconden van de dag.
oh oh wat was dit goed! den haag kan zich tot 11 okt volle bak verheugen op deze voorstelling
gefeliciteerd!
interessante ontwikkeling... benieuwd of het alternatief een fusie, samenwerking of overname betrof.
nieuw in onze theaters brouwerij scheveningen ontwikkelt speciaal voor een biertje shakesbeer! iedereen naar den haag!
natuurlijk niet!!!!
trots ga zien hoe romana vrede the nation naar het hoogste plan trekt. deze week dus in amsta
mijn nieuwe plant...eet niet mee met de pot?
4.3.2.1...binge time!
zon avondje gelegenheidssupporter voelt tot nu toe best vertrouwd.
yes, zin in!
tof hoor !!
ja hoor hnt.nl is live! dank aan op naar de start voorverkoop zondag 7 mei
het vervoer in den haag wordt steeds leuker!
leesvoer! hij is er, de allereerste het nationale theater seizoensbrochure!
ons 1e seizoen als het nationale theater gaat eindelijk van start! en déze voorstellingen maken we zelf
in mijn eigen eens kijken of we die regenachtige amsterdamse bos sessie kunnen toppen.
dat is leuk linc jong utrecht start oktober 2017.
hardlopen naar het station, naar huis fietsen, douchen.
spannend! een helse komedie, de bekentenissen van een seriemoordenaar. alleen in mei in te zien!
de treinen rijden vandaag zoals twente gisteren speelde...#hetbegonzogoed
een soort van social media droste effect
geen vraagstuk dat niet met wijn&amppizza kan worden opgelost!
aflevering 1 van the nation smaakt naar meer! netflix met cultuurkarmapunten, wat wil je nog meer... deze week nog te zien in den haag
maar geen speecht zoals john malkovich deze avond in gelukkig.
netflix op toneel, vanaf volgende week! het nationale theater steekt trailer den haag in house of cardsjasje
wat een dag! in om 15u het verkiezingsdebat, fc twente verslaat aansluitend ajax ín amsterdam en...de zon schijnt!!
tijd voor een échte upgrade van je tijdlijn? volg boswachter
wij voelen de lente en borrelen dus met de deuren open vanmiddag, wees welkom!
en door die mist kon je ook al niet uit het raam kijken!
oud &amp nieuw nog heel even naast elkaar...geveldoek voor the nation in hnt huisstijl! door
je zat op de beste plek zag ik vanuit de zaal! heb ook genoten!
nieuw! 12/3 het grote improvisatiedebat de scherpste, meest onvoorstelbare én grappigste verkiezingsshow in den haag
ziet er chic uit!
persconferentie hf eric de vroedt over 6delige theaterthriller the nation, afl 1 t/m 3 te zien d…
gefeliciteerd met de overwinning, was zeker spannend!
die punten blijven in enschede!
vanavond even uitlezen...of wachten tot zijn college op 25 maart?
nieuwe plek, nieuw uitzicht, nieuw team, zelfde smaak. dit wordt wel wat.
voor wie wil weten waarom ik alleen in een zeeman jurk zou trouwen.
ik was gisteren meer te spreken over het optreden uit arnhem...@oostpool
marketing voor het nationale theater, mooie nieuwe uitdaging!
nieuw jaar, nieuwe baan!
help zaal 3 aan een keuken! etenliefde!
i can build a castle from a single grain of sand. overhandiging ring met gewicht data
pop up schouwburg, eetbare schouwburg en zelf op het podium kunnen staan in de haagsche bluf. wat een toffe laatste ks kerstcampagne!
bevlogen betoog van 82! voor een volle zaal
wat was het fijn! en morgen nóg een avond in die mooie
op zoek naar marketing of pr specialisten per jan voor de marketingafdeling van het nationale theater. bij voorkeur uit den haag.
klaar met en natuurlijk als eerst vieren met de leukste collegas van
freedom! symbolisch einde in gevangenis
zaterdagavond in de trein heeft toch altijd iets feestelijks...#premièretijd
eindelijk ook in den haag!!
internet is niet te vertrouwen! zon foto blijft je je hele leven achtervolgen
zon dag waarop je er pas op je werk achter komt dat je outfit een wel erg hoog harry potter gehalte heeft...#nietgoed
nieuwe, spannende dingen. 17 nov in hot#1. een gevarieerde, niet politieke avond over racisme. check
oeh la la!! dit wordt te gek!
klaar voor onze interventure, de expertmeeting
weer iets nieuws onder de koninklijke horizon een interactieve workshop waarin je op zoek gaat naar je droombaan
hagenezen! ik zou maandag 3 oktober gewoon lekker gaan cabaretontbijten in , goed initiatief!
super trots!! zaterdag en zondag weer het leukste bierfestival!
fietsen met youp en herman in twente ❤
ken of ben je een appartement in utrecht, neem contact op met !
chai met een shot espresso 😋
er gaat niks boven...een regionale krant.
maar nog nooit zoveel buren leren kennen.
het is zover een 1e versie van brainwash.nl staat live. dagelijkse inspiratie door een nieuwe generatie denkers.
ai. ik heb geloof ik onbewust aan de amerikaanse stroopwafeloorlog meegedaan...
nog een strateeg met handsonmentaliteit en een visie op de cultuurpolitieke situatie in nederland in mijn netwerk?
kim zoekt hulp! en mijn karaoke keuzes komen niet in aanmerking.
het giet zoals het giet.
weinig avonden in de ks waar ik zó van geniet als de alletheaterregelsontwrichtende suritoppers.
dan zien we elkaar in september!
wat goed! ik moest m helaas missen dus ben blij met de herkansing komend seizoen!
tip voor iedereen die ook via utrecht moet omreizen check de performance art in de stationshal.
dank, zelfs de zon is ervan gaan schijnen!
waarin verantwoordelijk voor de clowneske identiteit.
culturele diversiteit vs regionale profilering? na een blijven de radars zelfs tijdens de borrel draaien.
de spanning geen kracht kunnen bijzetten met vuvuzela en brulshirt voelt toch niet hetzelfde.
er werd wat afgehandeld op de zwarte markt voor kennis...@brakkegrond
voor de luisteraars dan ook een aanrader
ik ook!
soms komt een nieuw levensdoel ineens op je pad.
vergeet het traject amsterdam den haag niet!
maandag 3 okt ben ik onder de pannen!
dat was een mooie avond met het robot college! dank &amp
its a wrap! de allerlaatste sessie van leerzaam project online publieksbinding.
mijn outfit voor vanavond ligt klaar hoor!
fijn!! een van mijn favorieten komt terug naar de ks shakespeare by heart door pierre bokma en
mooi initiatief
ik heb wel echt met een big smile genoten van deze.
en lekker gephotoshopt
wat een avond!!
zie je die indrukwekkende rij sprekers? ik praat je wel even bij.
hoe moet het verder met toneel in de grote zaal?
groetjes uit de 1e klas! compleet met stopcontact én de hendel.
ook de raad voor cultuur oordeelt positief over datamarketingplannen van het nationale theater!
alvast drinken op het aanstaande kampioenschap dan maar. jopenkerk haarlem
het succes van klussende mannen. das logisch.
mensen die dít verzinnen. en dan ook gewoon gaan organiseren. briljant.
ik projecteer al mijn patriottische gevoelens op het vanavond. ben ik die alvast kwijt voor deze zomer.
laat die tennisarm maar komen! mijn eerste jeu de boules toernooi deelname is een feit!
mooie ochtend voor een emtioneel draken tweetje vandaag 5 jaar geleden zag ik mijn allereerste voorstelling
ha ik zou graag met je in contact komen. als je me volgt, dm ik je!
marathon op hakken.
geen overlast he! waarschuwde de conducteur me...
zon, lege trein en .... het universum wil me duidelijk maken dat dit een vakantiedag had moeten zijn geloof ik.
theater als plaats om samen te gedenken op 4 mei, mooie traditie om in stand te houden!
het kon erger dit weekend.
zelfs een analoge wachtrij vandaag bij start het is nu al een top seizoen.
mijn rustgevende kleurcorrectie app zorgt er dus ook voor dat ik na zonsondergang niet meer in mijn bankapp kan. vind ik leuk.
leuk je gesproken te hebben! ik zit alleen voor deze week aan mn theatertax
het voelt een beetje als de intocht van sinterklaas voor volwassenen in de ks vandaag. ik hou ervan.
stukje codesignen voor de linc interventure vandaag! dutch design week
rennend de schouwburg uit! 3 juli kan het tijdens de 1e haagse urban trail. inschrijving 10km start om 12u.
verleiden, opschudden en innoveren nrc over onze aanstaande fusie
slimme zet van en
ouwe goeroe!
eigenlijk hoort die foto zo...
de dame lag er mooi bij, maar de zon won het toch. koninklijk theater carré
en we krijgen een ...terras!
de golfclubs worden deze zomer ingeruild voor jeu de boules ballen.
kijktip! over de maakbaarheid van menselijk geluk en of dit geluk economisch kan worden ingezet.
kiekje uit de coulissen. buiging voor deze dag!
yesssss! tot zo!
een dag niet getreind, is een dag niet geleefd! op naar een hopelijk zonnig den haag!
dit is écht heel leuk!!
presentatie wat kun je doen met 1,4 miljoen? staat klaar voor morgen!
waar oefenen we eigenlijk voor?
geen paaseieren, maar spelfouten en slecht lopende zinnen zoeken vandaag
als dit geen hit wordt, ... gaat samenwerken met woedy woet horror voor dr. miracle. nu al fan!
om naar uit te kijken vandaag vanavond speelt in
wat tof, een persoonlijk aanbod in jullie nieuwsbrief! verrassende uitkomst ook wel sesamstraat en hans klok!
nieuw bijgeboekt! vertelt 6/6 of we straks met een robot aan de bar zitten. kaarten
wie zegt dat het publiek van tegenwoordig geen anderhalf uur concentratie kan opbrengen? kaarten voor 9 uur! gaan als een raket!
trots als een aap! de aftermovie met een sfeerimpressie van ons allereerste brainwash festival staat online!
het integratietraject is voltooid geloof ik.
en zelfs bij financieel management draait het uiteindelijk om taal.
weer een vijand!
een recept kunnen uitvoeren, betekent nog niet dat je kunt koken!... en andere mooie wijsheden bij vandaag.
ik stem voor ellie lust als vervangster van martine bijl bij beetje caterdiscipline.
primeurtje vandaag! nederlands boventitelde voorstelling, speciaal voor slechthorenden
karaokebar of razende reporter...gelukkig hebben we de aftermovie nog.
we zijn begonnen!
morgen brainwash festival in de koninklijke schouwburg! tot de laatste kruk uitverkocht!
ik krijg toch altijd een beetje de titanicvibe als ik door de eerste klas loop.
uitverkocht theatercollege van dick swaab koninklijke schouwburg
mooi stel!
ik vind het lef, van mark. toi toi toi dus.
mijn naam werd nog nooit zo mooi aangekleed op een naambordje. staren maar!
mijn agenda doet me denken aan tetris, dat moment dat je bijna af bent...
ik dacht nu komen de nep spice girls en nu is de avond gered...! desillusie in de nachttrein
crap, dan moet ie echt gaan
wat is de uiterste datum ook alweer dat je je kerstboom moet opruimen? iets met witte donderdag?
alleen groningen.
ga jij die vrouw bij de receptie eigenlijk zoenen of niet? eerste maandag van januari overleg in de trein tussen twee collegas.
lucky you! ik zaterdag
vandaag vandaag t/m zaterdag een beetje starstruck. mijn twentse held herman finkers in the house!!
reusachtige stijging bezoekersaantallen koninklijke schouwburg den haag
mag ik er dit weekend wel in?! heel erg lekker op dreef deze aflevering, de
klaas gaat door de maag
halleluja , de stoomboot is nog niet koud uitgevaren of jullie gooien chris rea er alweer in?
de baarsjes
1+13! de clichés van samenwerking vanavond centraal tijdens babel bij het
ondanks de vogelpoep op mn hoofd en vertraagde trein, gaat het goed komen vandaag. vanaf deze minuut!
die is wel van mij ja, maar heb al heel lang een nieuwe! waar heb je m gevonden? en ja, graag, dank!
herman van veen gaf de louis davidsring vanavond door aan claudia de breij. koninklijke schouwburg
haha! morgen wordt een bier en burgers feest, ook een favoriet!
zondag alsof het iedere week kerst is.
genoeg te herkauwen en verwerken na lab2 van vol nieuwe inspiratie en energie morgen weer aan de slag!
niet te vatten...
crossing border 2015 in de koninklijke schouwburg koninklijke schouwburg
een dag interventure afsluiten met een onvermijdelijk theatergesprek als ik niet geïnspireerd droom vannacht...
kan ik niet ontkennen, maar daarom komt er vast nog wel een herkansing
vanavond hoorde ik in de ks de zing/vecht/lach/bid van die luidt reis ver, drink wijn, denk na, lach hard, duik diep, kom terug.
marketing stagiaire gezocht! per januari, omgeving den haag.
zou soldaat van oranje zijn laatste kaarten niet verkocht krijgen?
heerlijk hè, s middags naar een voorstelling!
over de omroepinstallatie dames en heren er mag gezongen worden!. ik werk definitief in de vrolijkste organisatie, ever.
spqh wordt in kindertaal uitgelegd in de rij achter me de schouwburg is voor iedereen, arm en rijk, jong en oud!.
schapenfeestje ! koninklijke schouwburg
toffe vacature programmering, beleid en planning van enkele programmas bij het van gogh!
en....heb je nog tips voor de verse linc3ers? succes met de afrondingsloodjes!
voor als je je project een positieve beuk wilt geven
de zwarte doos, sneeuwwitje, eline vere &amp richard iii het was een kei lekker première weekend! en allemaal te zien
ik heb hele grote bloemkolen, oh wat zijn ze....paars? de baarsjes
de papaya vergelijking strikes again...
een moment voor bier na paul van vliet theater pepijn
wat een top sfeer en fantastische eerste editie van volgend jaar vast nog veel beter, nu al zin in!!
fish&ampmeat in den haag uitgespeeld als laatste uitdaging van deze week. komend weekend duik ik lekker onder de hordes door.
wie weet, lees de vacature even door op ks.nl en misschien tot binnenkort?
wie kent een goede freelance
zo blij met onze nieuwe campagne door koninklijke schouwburg
dit weekend tijd voor een niettheater uitstapje! eens kijken of ik iemand zo gek krijg om zat ajaxfc twente mee te gaan kijken in de kroeg
super weekend!
de vrouw van middelbare leeftijd met nijntje oren op terechtwijzen toen ze de nog gesloten zaal in wilde
hij smaakt vast ook goed bij het eindvandemiddagbiertje tot morgen!
zeker! lunch in de ks dus!
benieuwd wat de bezoekers van de haagse vanavond vinden van onze artist experience. en hoe de schouwburger smaakt natuurlijk!
indrukwekkende door met warme reactie van de zaal. én het seizoen van start!
er werd gisteren door het team van de én gelasergamed in eigen schouwburg. volgend jaar een nationaal parcourtje.
bijna! tot het nationale theater rt nos 3 haagse theaters, waaronder de ks, fuseren volgend jaar tot het nationale toneel.
ik denk dat sail dit jaar door mijn straat komt. morgen dan maar met de boot naar den haag.
de tip van opgevolgd, en 18 euro gewonnen!
zaterdag naar de natte cross met en !!
wat zou het leuk zijn om met al die tinder mannen die met dolfijnen op de foto staan, een keer een groepsuitje naar het dolfinarium te doen.
de aandacht trekken kan hij alvast! opvallende sollicitatie van jeremy husmann
de met zn allen kroeg versie van mag ik dan bij jou van jeroen vd boom snap ik echt voor geen meter.
ik zie door de bomen het bos niet meer in de wie heeft een tip?
genoten van voorstelling en debuut op het next stop de parade!
slaan we nu niet een beetje door, lieve hipsters?
zon dag waarop je je naam eer aandoet...
in de bijlmer achterop! wat een toffe indrukwekkende verhalen &amp bijzondere ontmoetingen
bowlen in de sol lewitt, abseilen van het dak en boomknuffelen in de damesfoyer van brainstorms in/over word ik blij.
hoe maak je duidelijk dat die stagiaire echt heel welkom is....
nog twee uur om een briljante lunch te bedenken.
eindelijk in leven de lijve in actie gezien door mijn tafel in ieder geval als topper van de avond gekroond.
ah, ik hoopte op een iets andere foto. misschien later.
werken in den haag is ook haring happen bij en eten met uitzicht op zee in scheveningen
en wat te doen met die zalen met een gemêleerd publiek? interessante discussie
ik mis alleen nog het mooiste theater van den haag in het rijtje...#ksdenhaag
wow! goed en variabel programma nog voor de boeg enjoy!!
haha niks aan de hand! ben je al klaar met het theaterseizoen of zien we je nog?
begluurd worden door het hoofd marketing van ajax op linkedin brengt op mijn gedachten op de grote principiële dilemmas van het leven...
buitenkansje!!! per augustus zoek ik een stagiaire voor onze marketingafdeling 6 mnd/hbo+.
met &amp het nieuwe seizoen ingeluid met kijkje in de keuken voor bezoekers. een feestje!
avondje luisteren naar het denkbeest uit ljubljana in de
had het liever in de beleefd, maar dit is een goed alternatief
genesis, medea of the fountainhead mijn persoonlijke favorieten voor de titel! gefeliciteerd en
meeleven met het wel en wee van tien jaar met soms publieke belangen vs artistiek grootmeesterschap
geluk bij een ongeluk er is nog plaats bij de engelstalige stiltesessie in juli ?!?
geen stoel meer vrij, prachtig en indrukwekkend om met ruim 600 mensen te herdenken bij verhalen van
ha! keep me posted over jullie bevindingen
dat is een hoge notering in die lange lijst voorstellingen. ben erg benieuwd naar de top 3!
en gaat zie de mens me nog boeien na de helemaal ondersteboven indrukwekkende ervaring van genesis?
stadsgesprekken met bezoekers leerden me dat ook het échte gesprek nog springlevend is, leuk om die tijd te hebben om de diepte in te duiken
goedemorgen! ladies nights succesvol concept voor haagse schouwburg via
10 uur achter elkaar borgen in het theater. seriekijkervaring maar dan in een zaal met elkaar. en eten! kijk ik naar uit!
wat een mooi compliment, dank!
die trend teruglopende voorverkoop is geloof ik achterhaald. met rode wangen zien we de kaartverkoop in dit eerste uur alle records breken!
dday! 13 uur start de voorverkoop voor seizoen 15/16!
eerst me even opwinden over het feit dat mn trein niet gaat rijden
en iedereen heeft de hele tijd een mening, over dingen enzo, super irritant!
uiteraard! ze willen alleen wel meebeslissen over het einde. overleg jij even met johan?
de ideale theateravond bevat o.a. actualiteit, locatie en vooral eten! toffe brainstorm met young professionals gedaan
zeker
wat een rij!
een v/d leukste evenementen van het jaar start voorverkoop voor de vrienden, theu en oscar benoemen de smaakmakers van het nieuwe seizoen.
maakt de hooggespannen verwachtingen meer dan waar, ik ga mensen naar scheveningen sturen voor deze voorstelling.
weekend vol toneel voor de boeg, maar eerst een bowlingfeest. omdat het kan.
die zomerjas was nog een beetje optimistisch...
leuk, zondag praten we verder
benieuwd wat je ervan vindt!!
hahaha klopt zeker....gelukkig ben ik geen mooi weer supporter
wat is erger? het natte pak vd fietstocht door de regen of luisteren naar de analyse van feyenoord fans naast me in de trein
een dag van aankondigingen, nu luisteren naar paul van vliet bij opium.
mannen en vrouwen en alle ellende die daarbij komt kijken vanavond verwelkomen in een uitverkocht
zijn jullie alwéér in
verstreken deadlines maakt de stalker in ons los
zon raar beeld mensen die opgepropt in de 2e of zelfs1e klas staan terwijl er in de 1e klas genoeg zitplaatsen zijn
dankzij een uur vertraging mijn 90s hits geheugen kunnen opfrissen, het wordt een mooi weekend.
klopt! en het was heel leuk!
welke 8 spullen ik zou bewaren? ik sluit me aan bij de laatste outburst om me er vooral niet te druk om te maken! dank aan
ja, ik wil! win vrijkaarten met bungalow voor where the wild things are voor jou en vier vrienden! via
vastzitten op schiphol, toch een beetje het vakantiegevoel.
met fc twente liep het deze avond gelukkig beter af dan met maria stuart
buitenkansje! paar kaarten vrijgekomen voor shakespeare by heart van &amp pierre bokma.
vanmiddag naar in de enige voorstelling die al bijna een jaar in de agenda staat
bepaalde reizigers?
vakantie in eigen land, een poging tot...
zat inderdaad een lekkere lading sarcasme over de theaterversie, was leuk!
vanavond met &amp op zoek naar zieleroerselen op t gebied van liefde, carrière, status &amp vrienden. maar eerst koffie.
2015 start met een campagne die nu al het dubbele van ons target haalt! dat verdient taart! trots op collegas van
alles omkeren en erachter komen dat het ook dan kan
driving home for christmas met op de tomtom, we gaan als een kerstspeer!
even op tinder vandaag om mijn merry christmatch grap te kunnen maken
fantastische as you like it van het gezien! na voorstelling wild in de benen, dat wil wat zeggen!
morgen start de 1e pilot van gezamenlijke ticketing in den haag op de royal christmas fair, hopelijk de kers op de 2014 implementatie taart.
toch een momentje hoor, de dag dat ik uit de tinder resultaten van 80% van de mannen val....#30
misschien moeten wij eens sleutels uitwisselen
hi ik heb ook werkoverleg, in den haag...
paul van de vliet de sleutel van de ks, herman van veen die van carré, whos next?
snap ik. stuk over toneelklassiekers schrijven voor oscar, magazine soms ben ik jaloers op mezelf.
als de boodschap maar duidelijk is
wie oh wie?@filosoof de koninklijke schouwburg in heeft n educatie