bijzonder 😡 je thuis met 4 x mobiel willen verlengen met 2jaren geen extra aanbieding. wat zou vinden.....
kijk, het wordt steeds minder erg om achtervolgt te worden. blijft gewoon vet 4ringen in je spiegel …
kantoren als grondstofdepots mooi voorbeeld van en waar aan deel neem…
relevant onderzoek naar de invloed van het binnenklimaat op productiviteit. bij testen we nu met klimaat op…
nou ik zeg, gas bij en het schiet lekker op richting fijn weekend alvast vanuit de
michel landel, ceo van over de essentie van onze organisatie wij geloven dat als we impact willen hebben o…
bedankt vanaf vandaag kan ik in ieder geval een hele race van de genieten!
hoe mooi is dit begin van het weekend. wie had dacht gedacht van onderuit het rechter rijtje bleek “appe…
leuk uitzicht op op m’n tijdelijke werkplek vanmiddag op oost vliegtuig.
interessante vraag!
zet je mobiliteits carriere internationaal op “de kaart”.
gisteren 21 september was het wereld alzheimerdag en lanceerde stichting alzheimer de campagne held op sokken. so…
indirecte schuldbekentenis van aan het adres van .
na het debacel in feest in . wat kun je hiervan genieten en niet verwacht. ⚽️💪👊
dank dat jullie de zender ook open hebben voor kijkers. kunnen mooi op widescreen kijken!
agrarische variant van niet alles gevallen maar wel genoeg voor een eervolle vermelding in het…
mooie ontwikkeling van vitoz b.v. de ticketverkoop, bezoekersregistratie, toegangscontrole evenals de beveiliging v…
ofwel sensatie by sukkels. onveilige situaties creëren in woonwojk met kinderen in omgeving.…
whawha je kan maar beter duidelijk zijn
samenvatting na de laatste wedstrijd ❌#johancruijffschaal2017 ❌#championsleague2017 ❌#europaleague2017
zijn er vanavond nog voetbalwedstrijden geweest. het is zo rustig op fb &amp twitter. ik dacht toch echt dat en vanavond was.
mooi en trots dat we michael van der meer en ik vanuit hier onze bijdrage aan mogen leveren. improve
herken jij de 6 fasen van technologie c.q.
mooi artikel van heijmans, hoe het voor hen naar een nieuwe dimensie tilt. wellicht eens sparren om…
gaaf hoor het nieuwe concept jazzmans brew &amp bakery. zo wordt studeren wel heel gezellig. improve swinging…
spreuk van de avond ga van het en het liefst
mensen zijn die videos in het openbaar delen van de gewonde misschien wel overleden slachtoffers in
wederom een concreet innovatief voorbeeld van onze collegas in israël nu in cocreatie kijken…
bam sneakpreview van onze we ontwikkelen door! volg ons via twitter, linkedin en facebook via de
haha daar wordt toch even geknact door leuk clubje, wordt genoeg bier gedronken. en fijn weekend!
wederom schandalig. het lijkt wel een doolhof toelichting. ben benieuwd wat na 3 jaar uit de ev…
schandalig hoe de handen aftrekt van de gate. wat een puur en geweldig statement.
wil ook graag helpen de afdeling bij op de kaart te zetten. kijk voor de actuele vacatures en…
workplace experience? wanneer gaan we deze bureauset zien? goede nieuws in tijd van digitalisering kan het papie…
interessant artikel over innovatie in de bouw. sinds het gebruik van bim bij dura vermeer zijn de uitgeprinte a0 pla…
waarmee verhogen we en maken we elke werkdag aantrekkelijk. improve
hoppa, eerste maandag van de maand. thuis hebben wij ons eigen
concreet voorbeeld waar en samen komt. improve innovative and
hoezo technologie voornamelijk voor millenials? wat een gaaf artikel over de inzet van improve
na best value procurement bvp en concurrentie gerichte dialoog ggd is nu het tijdperk van rapid circular contrac…
mooi artikel over het bepalen van de innovatie strategie. improve qualityofinnovations
10 manieren om te innoveren
6 redenen waarom innovatie belangrijk is voor iedere organisatie.
mooi artikel als je elke dag fluitend naar het werk gaat voel je je veerkrachtiger, haal je meer voldoening uit je…
en gewoon belachelijk dat met deze temperaturen restafval containers eens per 4 weken word…
mijn eerste artikel uit mijn collectie gesneuveld. schop en wortels blijken geen goede…
prachtig artikel over specifieke aproach binnen het specifieke marktsegment. improve
whawha bij mapping natuurlijk wel obstakels op en in de grond identificeren. improve…
nee hoor. telefoon staat voor de tellers zie flitsmeister. beelden vanuit 😜👍
hartelijk dan voor de scheelt 30minuten in de ocht…
kan niet wachten. als alles doet waar het voor bedoeld is wordt het per maandag en over…
wow wat een impact. de is te downloaden en voor gebruikers straks de app in ios11. maar eigenl…
voor het geval de toegevoegde waarde van customer experience nog steeds het stempel geitenwollen sokken of knuffe…
interessante blog van marc dijk over de parallel tussen key account management en coureurs.
wordt jij onze nieuwe collega? binnen zijn we op zoek naar een managing master
weer een concreet voorbeeld van improvement services. binnen embedden we voor nederl…
fantastisch voorbeeld dat innovaties tevens ingezet kunnen worden ingezet om levens te redden. improve…
het kan maar duidelijk zijn het verschil tussen agile &amp lean. veel belangrijker, waar zitten de overeenkomsten. waar…
interessant en informatief. het kan maar duidelijk zijn de verschillen tussen virtual en augmented reality. improve…
ajb hou die boel eens in control. hou je mening voor je. je bent zelf niet te gast. laat gasten uitpraten!
begin dit jaar toonden we met trots het partnership van bij dit weekend is het volgende grootse…
gaaf via bewonder de aftermovie van improve by driving
mooi artikel over eerst de werknemers en de rest wordt een logisch gevolg. waar heb ik deze st…
checken jullie ook route twickel aan snelwegkant op
wellicht is het handig om ook even de check op te doen langs parcour het deel aan snelweg
hoe mooi is dat rock &amp rollator. fantastische innovatie voor de revalidatie en seniors markt!
hoe gaaf is dit, zelf aan de basis kunnen staan aan improvement jij wilt toch ook een actieve bijdra…
ben jij op zoek naar een baan die gegoten zit als een maatpak? wij zoeken een manager workwear! improve qualityoflif…
mooi artikel vandaag in dagblad van wederom een mooi voorbeeld van improve qualityoflif…
kijk dit zijn pas apps waar iedereen op zou moeten zitten te wachten. kan niet wachten. eerlijk gezegd betrap ik…
wil jij jouw communicatieve skills op de kaart zetten? improve
wauw, beelden zeggen meer dan 1000 woorden. deze film toont improvement en de veelzijdigheid van
dataintegratie &amp analyse wordt/is de motorolie van onze economie. in dit artikel staan prachtige internationale n…
mooi artikel van een bedoeling is intrinsiek, vanuit het hart en met energie en passie. ee…
als je de klant en de behoefte echt centraal stelt, kies jij voor of
bedankt martin vet en proactieve communicatie tijdens de onderhoudsbeurt van mijn bij
sodexo hoe gaaf is dat. we hebben collegas die gewoon met de helicopter naar het werk gaan. improve
fantastisch en wat een echt oprecht gaaf!
ben jij ook nog op zoek naar een mooie job waarbij je jezelf opdekaart kunt zetten? improvequalityofmobility!
wil jij ook werkzaam zijn in een wendbare, dynamische en ambiteuze omgeving. bekijk deze vacature voor agile servic…
kijk met dank aan hengelo is hij weer strak zwart!
beelden zeggen meer dan 1000 woorden.
hoe gaaf is dat. stage lopen bij hét bedrijf die elke dag weer een betere dag laat zijn. improve serv…
weer een mooi concreet voorbeeld hoe de strategische visie van improve services op een innov…
de services van leveren een belangrijke bijdrage aan de strategische doelstellingen van onder andere o…
ik heb de oplossing gevonden om van al die pasjes in mijn portemonnee af te komen
daar kun je ruim een week mee aan het stoeien zijn. na lang speuren gevonden fout in het aangifteprogramma van#belastingdienst
een dag geen vlees draagt bij aan een duurzaamheid zoals waterverbuik. improve &amp# qualityofenvirionme…
mooie vacatures om op de kaart te zetten. improve
introductie en lancering van het in nederland is een feit. vanavond hebben we in de k…
agile is zeker een modewoord en hip. echter tegelijkertijd ook onlosmakelijk verbonden met de huidig snele verandere…
mooi artikel en waarheid als een koe. is geen doel of bestemming. het is een flexibele reis die je samen on…
voncreet voorbeeld van onderscheidende samenwerking tussen en bij facilitaire waarde toevoe…
toch een geluk dat &amp zich hebben afgemeld i.v.m. een kinderfeestje.
whoppa we zitten er weer klaar voor. dag winterstop, welkom seizoen 2017!
innovaties worden internationaal gedreven en tevens absoluut geloof in natuurlijk doet ook neder…
concreet cocreatie voorbeeld hoe eenvoud, uitstraling, functionaliteit en innovatie samenkomen. samen met onze busin…
concreet voorbeeld van samenkomst cocreatie, innovatie en improvement …
ach geert toch, weer slachtoffer? toch knap zo weinig inhoud en zoveel aandacht. nu nog iets volwasener geertje.
breaking news doellijntechnologie gehackt door russen of team trumph volgens betrouwbare bronnen uit eindhoven.
vandaag ging definitief het licht uit voor psv in rotterdam om het kampioenschap.
daar is ie dan, incluis link naar presentatiefilmpje. de laatst maar mooist gepresenteerde f1 wagen voor seizoen…
loslaten is het nieuwe vasthouden wil je écht agile worden, dan is het dus niet voldoende om alleen scrum bij je…
leegstand heeft vanaf nu waarde! staat uw afgesloten parkeerterrein ook leeg buiten kantooruren? zet deze leegstand…
mooi weergegeven van inperson. de 11 dingen waar je geen talent voor nodig hebt. improve &amp
wie wil er nou niet als programma manager op dè mooiste a1 locatie, bij de mooiste werkgever van nederland werken? t…
breaking news vanavond massale vechtpartij met in hotel grotendeels gesloopt.
na nu de volgende held.
heerlijk midweekje in de drentse bossen. gezelligheid is niet ver weg 🎉🍺👍#landal
niet alleen de ziekenhuizen van de toekomst zijn een netwerk. as we speak wordt dè fmoplossing voor het digitaal ma…
duidelijk.
mooie weergave van het symposium van bij improve services by
prachtig artikel en report over hoe we bij improvement services concretiseren!
goede voeding draagt bij aan improving qualityoflife!
kadootje net op tijd binnen. nu nog ff op zoek naar sleuteltje8 of schroevendraaier ❤😂👍#happyvalentine
klantvriendelijke service donderdag gekochte laptop komende week in reclame. u krijgt keurig €50, retour!
verkiezingstrijd op aanplakborden in in volle gang. leuke woordspeling van naar over
zoals bekend, komt klimaatverandering in ieder geval voort uit menselijke activiteiten, waarbij energieverbruik en v…
zet je talent op de kaart. mooi functies bij een dynamisch bedrijf. improve and shaow your…
nu officieel coalitiepartner van circulaire coalitie. een belangrijke stap in inprovement
mooi om tijdens deze middag diverse invalshoeken te horen en de verbinding te leggen met strategische vis…
de vierde revolutie wordt mede bepaald door robotisering en internet of things. de grootste doorbraak voor facilit…
lovende woorden van minister edith schippers volksgezondheid over het voedingsconcept van
vandaag tijdens het symposium van de relatie tussen bigdata en de strategische visie en de veel…
focus op zodat mensen én organisaties beter presteren. ruim 120 facilitair managers en experts hadden…
zet je ook dit jaar weer op verkeerde been bij actie voor actie € 749 / tijdens actie € 899 naa…
is jouw passie ook ontwikkelen van naamsbekenheid en onlinemarketing? kijk, wellicht kun je dan aan de basis staan…
is jouw passie ook ontwikkelen van talent? kijk, wellicht kun je dan aan de basis staan van de inprovement qualityo…
deze week samen met michael van der meer ruim 30 collegas mogen verrijken met onze agile scrum mast…
het is fantastisch hoe uitzonderlijke mensen uitzonderlijk werk leveren. stem mee voor de european business awards!…
improves also in cocreation prachtig voorbeeld waar technologie en persoonlij…
in de vierde industriele revolutie is kostenbesparing niet meer het hoogste doel. de impact van nieuwe technologieë…
er is dus nog een wereld te winnen. aandacht voor circulaire economie is ook aandacht voor improving
ludieke actie. deze is wel te waarderen. in tegenstelling tot
wil jij meehelpen aan een eenvoudig, flexibel en mobiel nl. draagt tevens bij aan van gebruikers!
oudtopman van gansewinkel richt investeringsfonds op
een mooi voorbeeld improving citaat nxp de dagelijkse dienstverlening van de teams van sodexo draa…
techniek is leuk, persoonlijk contact en complimenten is beter. typisch sodexo, ofwel
en maakt je werkdag weer een stukje leuker, ofwel improvement
wie wil dat nou niet. geluk draagt toch positieve bij aan. van medewerkers!
zo, het sneeuwt lekker in twente. wij hebben de sneeuwpop sorry auto klaar.
toegevoegde waarde en
deze sprekers wilt u toch niet missen bij tijdens
toch gaaf dat we bij een servicemodel hebben kunnen ontwikkelen waarmee we middels positieve stimulering cr…
........ ik wist dat het wel goed zou zitten 😂🍷👍
mooi artikel van over de vergelijking tussen servicedienstverlening zoals schoonmakers, hoveniers en tops…
erg irritant de computergestuurde nasychronisatie.
sodexo op 19/01/2017 organiseren wij het tijdens onder andere deelt zijn v…
ook tijdens draagt weer zorg voor de qualityoflife van de coureurs!
waarom het beter is om out of the box te denken? de gloeilamp was ook geen doorontwikkeling van de kaars!
een fantastisch en succesvol 2017. dat er maar weer slimme verbindingen en nieuwe businessconcepten gerealiseerd wor…
en ja hoor, ook al is het nog geen 930uur zijn de eerste bollen uit de pan, gaat de drank in de man.
traditie gestart. de eerste emmers beslag staan te rijzen!!!
voorbeeldgedrag is de enige topdownstrategie die werkt!
hecht jij ook zoveel waarde aan improving quality of life?
toch met nog onverwachts met fijne dagen!
jij komt toch ook? meldt je net voor de gratis aan. alvast gezellige en veilige dagen.
bam 2016 in nederland alvast het gevoel van wereldkampioen. op naar 2017f1
zo de kerstverlichting doet het weer. alle social media vrienden fijne feestdagen!
weekend afsluiten en de week voorbespreken. 👍
gaaf om hier vanmiddag met ons team &amp een bijdrage aan hebben kunnen leveren!
de uitreiking van de innovation awards16 gaat starten. wenst de genomineerden succes!
draagt zorg voor food&ampbeverages gedurende innovation awards16
na het inspirerende nu de laatste voorbereidingen voor de aanwezigheid van tijdens innovation awards1…
fantastische ervaring om met sodexo deel te hebben genomen aan de dutchopenhackathon16. met team cleaners semi…
potjandrie met alle focus op bijna vergeten dat je toch ook wel kunt genieten van 020 😂. tukkerrules t…
vandaag om 1200uur endcoding tijdens dutch open hachaton 2016. het team cleaner heeft enorme inspanningen en progressie geleverd om te…
mooi om onderdeel te mogen zijn van dit team.
wauw gaaf ook met ons team aanwezig als
heerlijk knallen voor de arena tijdens
heerlijk lang weekend. het duurt in ieder geval 1 uurt langer.
haha ik ga steeds meer van het koninklijk huis houden .......
tsja ik wist niet dat ook op de kleintjes let. ik vraag we wel af ok de slagroom daarvoor bedoeld is.…
het lijkt een hype te worden. inmiddels ook in …
op 4 oktober viert sodexo haar 50ste verjaardag. een unieke moment om samen de toekomst van ‘quality of life’ te ont…
heerlijk kunnen raggen door de bossen. was wel manouvreren tussen de fietsers door 👍
bam gaat echt weer lekker dat twickel. die 40km route lijkt de standaard te worden. 👍
als de storing heeft kijken we maar via de duitse
goedemorgen momenteel ook internet in postcodegebied 7623 kunnen helaas 😂😂
start november oriëntatietraject charge your career. maak werk van je talent!
bam onwies wat bun ik bliede. doelstelling gehaald deze vakantie. inmiddels de gewenste 50km weer gereden!
vandaag, na een jaar, weer 26km route evenwicht en tempo ok. nu conditioneel aan de bak.
ik heb begrepen dat we bijna hebben. meeste vakjes zijn afgevinkt bij
prachtig seizoen 20162017 eredivisie gestart.
heerlijk verfrissend ijs van ook onze is er dol op.
wordt het ook in hongarije een stralende zondag voor onze max op de kartbaan hungaroring?
mooi artkel, waarom de huidige economie vraagt om werken.
mooi artikel. absoluut en mooi dat we ook als mogen meedenken!
de nieuwe etiketten van zijn wel mooi. alleen jammer dat de temparatuur indicatoren niet meer functioneren.
gezocht electrotopper die oorzaak van de kortsluiting in onze tuinverlichting verhelpt!
en eenvoud. vandaag kennis gemaakt met en een echte hit in bloeiende
wij hadden de sneakpreview. bijna twee jaar geleden op de deurmat en vandaag in de krant.
pas op voor glassplinters er is wellicht een of doorheen gemixed. bij de
z3 1.9 verkoopprijs € 4.250,
van mij mogen ze vaker of oranje afgeven. heerljjk genieten. groeten uit een zonnig 🍻😂👍
mooi voorbeeld van een dynamische en gezonde werkplek!
snelle service bij storing koelvloeistof van mijn storing verholpen, als kers op de taart gewassen
mooi voorbeeld van toegevoegde waarde en quality of life bij sodexo!
een nieuwe parfum van joachim op de markt!
met dank aan mn skybox voor vanmiddag.
als fan waardering creativiteit van de buren. spelerbus van proficiat europees voetbal!
mooi weer, dus lekker buiten een genieten met guus. 😎👍🍻
al worden we laatste, degraderen we. al spelen we bij amateurs. de club blijft en liefde veranderd nooit!
hoppa, we zitten er klaar voor combi met foxsports maar krijgt bij ons de voorkeur.
prachtige en actuele marketing campagne door tijdens de
tsja weinig files. ook weinig files zijn ruk 😇💤💤 goede nieuws ik bent niet alleen 😂💪
gezocht stage of afstudeerder van of svp reageren pb
en ja hoor, wij hebben het zomer perkgoed ook weer geplant.
bmw z3 1.9 verkoopprijs € 4.250,
veilige door i.s.m.
daar zijn we weer. vandaag chinees. doe mij maar nr 33.
wauw, goed advies en privacyglass.
in de tuin genieten van mooie en speciale nachtrit dus vonken vliegen er letterlijk weer af
actie save the frog geslaagd. inmiddels weer lekker vrij zwemmen in de vijver.
tsja via algoritme, die mijn smaak, persoonlijkheid en dieetwensen kent, tot het beste menu komen. vervolgens uit…
traditie
tsja om bij de uitspraken van te blijven elk voordeel heb zijn nadeel en andersom
strak gepoetst. er weer onder.
goed gereden. plek 10 niet representatief. monteurs deze week spoedcursus
koffie, croissantje, jus d orange. ik zit er klaar voor
toegevoegde waarde van binnen onze innovatie hub in beeld.
bij hanteren we scrum bijvoorbeeld binnen onze hub!
realiteit of fictie.... zo jij zomaar 123 de lift in wandelen?
vandaag fmworkshop presentatie over hub bij tevens mooie creaties van
verkleedfeestje. dan mag ik als supporter ook bij de buren kijken.
naast klein ook in de optocht in nu eerst en 🍻
wauw, vandaag proefrit mogen maken in wat een mannetjesputter
nou of de slogan nu wel helemaal correct is ik ben toch niet gek .... helemaal 100% zijn ze ook niet!
vandaag in vannacht meer dan 80 cm sneeuw gevallen.
wow wat vet. daar krijg je het koud van !
prutsers. wat een staaltje slechte en teleurstellende communicatie. hoezo heel normaal?
hoppa we zijn weer live
helaas verloren onze mooie powerbank. wie heeft er nog 1 voor ons?
tsja, je zal zon hebben gekocht van €1.000, dan hoop je dat er ook takeldrones zijn
mooi strak is niet lelijk en voorkomt modder en sneeuw vervuiling deze rubberen vloermatten. special offer
zeker een groene hoe mooi is dat gewoon 2e helft december met 15graden nog lekker grasmaaien 👍😂
nu maar hopen dat alles goed gaat dit pakjesweekend. veel plezier!
dank voor deze prachtige avond. heerlijk muziek, prachtige wijnen, goede gesprekken en initiatieven
bmw z3 1.9 verkoopprijs € 5.000,
laat de bladeren, regen, sneeuw maar komen de liggen er weer onder
tsja... vaak zie je de oorzaak van een file niet. vandaag wel 😂👍
verkeer en gaan niet samen.
wauw, gaat het vandaag dan echt gebeuren? on stage?
mede dankzij whatsapp groep 5c bromfiets getraceerd en teruggevonden
rt vanavond ontvreemd. een snor bromfiets tomos quadro grijs witte velgen zwart voorspatbord erve jenneboer f031bx
grandioos, wat een onvoorstelbare creativiteit die en zijn team en natuurlijk
vanavond mooi initiatief van samen met
hij rijdt weer. positie 20 op 1 ronde achterstand......
grote prijs van vertrekken van positie 8. hoe vergaat het onze max bij de by candlelight via
hoe mooi kun je een weekend in twente maken zojuist echt door het twentse land!
wauw een gave gekregen vandaag van haha nu de uitdaging wie het mag gebruiken
wie had dat gedacht....
ieder nadeel heeft voordelen prachtige combinatie tussen natuur en sportiviteit.
wie had dat gedacht van mooi voetbal nr 5 naar spelen als slappe krant en een oud wijf.
toch blijft het bijzonder. heeft weer massale storing en ze zijn wederom op social media. hoezogeeninternet
te gastvrij “@borneboeit offensief tegen de inbrekers. lees meer op ”
tijdens de mooie woordspeling op de tekstkar. het had de redacteur van kunnen zijn
zo, nog even een biertje pakken en een duikje nemen in de !
voor alle vakantiegangers een echte aanrader. de nooit meer wachten voor tolpoortjes
van pech met ons maagdelijk wit naar een luxe gitzwart sline dsg waar veel luxe op en in zit 😂👍
das mooi balen. vervangend vervoer niet op tijd geregeld kunnen krijgen door hele dag aan huis gekluisterd. morgen wel een auto????
in het kader van pech achtervolgt ons dit jaar, nu hoofdstuk 8 depannage voiture
absurde regelingen. je kunt niet eens het abbonnement een half jaar stop zetten. nee na 3 maanden wordt uw telefoonnr weggegeven
hey jow ouwe baas. schiet eens op. ik heb honger!!
de talon hangt in de bomen. dankzij is de nieuwe 29 gekomen. twickel
voor waarom 5 mnd oude decoded hoes blijft niet mooi. das niet de bedoeling, u krijgt een nieuwe!
bij in hoogcatherijne. met grote herdershond voor de toegangpoortjes. ik ga wel naar een andere
op de lijst van heeft nog steeds de vanavond ook o.a. op
soms zit het mee......, soms zit het tegen ......
heeft iemand in mijn omgeving een account?
jij hebt je toch ook al wel opgegeven?
na een spetterende kwalificatie, 6e plek voor onze max! dit weekend nederlandstalig via het speciaal eventkanaal van
wat een maf cq smeerkees. oppakken en afvoeren. i.p.v. een
als je qua tuingereedschap ook weer opnieuw moet beginnen doe je geen consessies aan dus !!
via wie kan ik het beste, goedkoopst en eenvoudigst en laten lopen?
wel gaaf al dat vuurwerk bij de in baghrein 😂👍.
prachtig weer en knetterdruk bij het beste van hoogtepunt altijd de
wie had dat gedacht. van prachtig tuinhuis strak in de lak, naar uitgefikt, volledig gesloopt in de afvalbak.
weer onder de geplaatst, tevens wassen van auto en velgen.
het blijft gaaf.
vandaag genieten blauwe lucht en 20 graden op de 9e golfdag op
bam heerlijk zo op zondag middag een plakje deventerkoek 13😂
heerlijk chinees op zondagochtend. onze torro gaat weer als een dolle 👍😂
mooie samenvatting van de huidige situatie bij ons cluppie op één tegeltje.
zit je in de wat een profileringsdrang ik heb ik8 oh ik 10. gelukkig blijf ik trouw aan
en ja hoor eindelijk. heb de verstopte paaseieren gevonden. heerlijk aan de paasbrunch.
1e paasdag, twentse traditie weer gehad. de fik weer vol in het paasvuur.
greep uit de collectie van stoet tijdens de viering van the final push 70 jaar geleden in
oost nederland staat dit weekend in het teken van 70 jaar bevrijding final push ”
prachtig begin dito comment op dus zonder betaalzender genieten koningsklasse in maleisië in de autosport.
elk nadeel heb zn voordeel en andersom.
kanonnen nog aan toe. na de insluip ellende van afgelopen weekend, vanavond lars zijn slot staande fiets onder de carport gestolen
onze bikkel “@112twente zoon des huizes ziet insluiper in tuin staan in borne ”
moet niet gekker worden. op klaarlichte middag politie zoekt man na insluiping in woning borne
zo vader zo zoon “@nunl max verstappen valt uit bij formule 1debuut, hamilton zegeviert ”
europrijzen gouden vanaf 11.000 euro, stalen vanaf 649 euro, sports va 399 euro
yeah..... is in the air! tuin voorjaarklaar, eerste lunch buiten en daarna heerlijk toeren met de cabrio!
als de verspreider van de gebakken sponsjes zich meldt, gaan wij ook graag een menuutje koken bakken.
vakantie 2015 geboekt. gassin here we come! heerlijk genieten van zuid franse klimaat en cultuur.