jullie kunnen zaterdag om 1230 uur in nijverdal tegen…
jullie kunnen zaterdag om 1230 uur in nijverdal tegen de zweef jo192 3e kl. spelen.
hoe sterk is de eenzame fietser..chapeu van vleuten..!!
? — gezegend
tom van harte en bedankt voor 3 weken genieten!!
blijkbaar is een onbeduidend tennispotje belangrijker dan de giro forzatom
hoezo is fc twente er mee weggekomen?
oersaaie race....zet de sproeiers maar aan..
de verwarring hebben jullie veroorzaakt.. onvoorstelbaar dom machtsvertoon.
koop samen met sporza de rechten en laat de belgen het commentaar doen.
fc twente&ampnbspman van de wedstrijd
johan van harte gefeliciteerd!!
hij is er al..
van de 23 geplande thuiswedstrijden worden er dit weekend maar 7 gespeeld. knvb weet blijkbaar niet, dat het nog vakantie is
je vergeet voor het gemak de straffen die twente al heeft gehad en de nieuwe boete van 181.000 euro.
goed lezen van hooijdonk!! advertentie is betaald door sponsoren.
stem voor twente en tegen de knvb
geen moeilijke keus toch?
joost morsink
de zweef d1 komt 100% zeker. wedstrijd tegen losser is geannuleerd.
zaterdag 30 januari spelen jullie al tegen de zweef d1. zie jullie website.
schandalig!! het hele weekend live schaatsen op tv en maar een samenvatting van 7 min.van
7 daarom dus die baaldag. succes mannen!!
kloten dat is. weet nu niet wat de buren vanavond hebben gegeten.
oost wanneer plaatsen jullie de exceldocumenten op de website?
god wat missen...
ajax, een vermogen op de bank..maar pure armoe in het veld..
sander bij sallands mooiste met haarles mooisten..
goede training voor het nieuwe 6e!
1210 melding gedaan van geen krant ontvangen.. binnen 30 minuten beloven jullie te reageren. kom op dan..
2e zaterdag binnen 1 maand geen tubantia op de mat. bellen kan niet op melding gedaan. geen reactie??
ik heb een nieuwe foto op facebook geplaatst
ik heb een nieuwe foto op facebook geplaatst
het laatste fluitsignaal heeft voor jou geklonken sepp.. de voetbalwereld juicht je vertrek van harte toe. 40...
ik heb een nieuwe foto op facebook geplaatst
jullie zouden toch op kunstgras spelen?
wij wensen ons 12e en 13e elftal veel plezier bij des...
mountainbiker waagt leven op steile bergwand national geographic traveler nederland/belgië
zondag 22 februari zijn alle thuiswedstrijden bij de zweef afgelast.
zaterdag 21 februari zijn alle thuiswedstrijden op natuurgras bij de zweef afgelast.
laat het rondje langs de tribunes maar achterwege, dit twente verdient geen enkel applaus..
prima besluit, bij de zweef ook nog volop sneeuw.
zondag 1 februari zijn alle thuiswedstrijden bij de zweef afgelast.
heerlijke 1e helft...
mooi spandoek in de veste, jammer dat er geen tukker in de selectie zit die de betekenis daarvan uit kan leggen.
klasse kjeals!! klusploeg vrijwilligers van het jaar. de mannen van de klusploeg van de zweef werden...
gert met een speciaal nummer voor bruce de pasgeboren zoon zoon van mieke dijkstrahoogsteder en niek dijkstra.
de zweef 7 feliciteert mieke dijkstrahoogsteder en niek met de geboorte van bruce.
eindelijk is de kleine prins verstandig geworden
42 winst op de zweef 8. een felle strijd binnen de lijnen en nu gebroederlijk samen in de kantine.. vanaf...
de bank van de tegenstander...
de derby is begonnen..
ik heb een nieuwe foto op facebook geplaatst
als je als moeder, je kind van 5 exploiteert dan moet je ook instaan voor de gevolgen. lateniight
weer niet verloren!
balletje breed, balletje terug, balletje naar voren en castaignos staat weer buitenspel..
prachtige fotos van voetbalvelden bij onze zuiderburen.
wat is het emailadres van de wedstrijdsecretaris van jullie jeugd?
suggestieve berichtgeving over schuld en optreden hulpdiensten lijkt me nu nog niet op zijn plaats.
jammer, dat de voorzitter van des een verhaal de wereld inbrengt, wat niet klopt.
wees blij dat er weer eens wat gebeurt in t dorp. hellendoornrally is gewoon traditie.
de zweef 7 zoekt voor morgenavond nog een scheidsrechter. aanvang wedstrijd is om half 8. wie heeft zin om ons te fluiten?
is dit facebook of face bucket.. doneer gewoon, zonder dat flauwe gedoe. een bak lauw water, zoals de meesten...
i.v.m. het doorschuiven van teams binnen de vereniging is vanaf dit seizoen, de zweef 6, de zweef 7 geworden.
morgenvroeg om 9 uur aanwezig en geen excuses !!!
wat is er mis met zwevers?
wij gaan voor de titel??#camtwe
niet te bevatten
nog liever 4e als een hand van blatter..
van persie wereldspits in buitenspel staan
oranje in ieder geval langer in het toernooi dan de belgen.
liverpool??
jordin van harte gefeliciteerd..klasse !!
oefenwedstrijd vanavond tegen on c2 begint een half uur later n.l. om1930 uur. aanwezig 1800 uur.
ik heb een nieuwe foto op facebook geplaatst
pinkpop eist zijn tol.
ik heb een nieuwe foto op facebook geplaatst
ik heb een nieuwe foto op facebook geplaatst
ik heb een nieuwe foto op facebook geplaatst
ik heb een nieuwe foto op facebook geplaatst
fantastische toertocht. organisatie een dikke tien!!
de belastingdienst maakt het steeds leuker.
sjoerd heel veel succes!!
giel je hebt vandaag nico engbers als getuige in de studio.hij heeft op 26 april 3x de alpe dhuez beklommen voor een goed doel!!
twitter / hanssierra kampioenswedstrijd de zweef ...
kampioenswedstrijd de zweef ph trekt veel publiek.
de zweef 6 wenst het eerste veel succes!!
ik heb een nieuwe foto op facebook geplaatst
ik heb een nieuwe foto op facebook geplaatst
ik heb 5 fotos op facebook geplaatst in het album alpe dhuez 26042014
ik heb 52 fotos op facebook geplaatst in het album alpe dhuez 3e beklimming 26042014
ik heb een nieuwe foto op facebook geplaatst
ik heb een nieuwe foto op facebook geplaatst
ik heb 19 fotos op facebook geplaatst in het album alpe dhuez 26042014
ik heb 10 fotos op facebook geplaatst in het album alpe dhuez 26042014
ik heb 12 fotos op facebook geplaatst in het album alpe dhuez 26042014
ik heb 11 fotos op facebook geplaatst in het album alpe dhuez 26042014
een onvergetelijk weekend met een lach en een traan..!!
ik heb een nieuwe foto op facebook geplaatst
ik heb een nieuwe foto op facebook geplaatst
ik heb een nieuwe foto op facebook geplaatst
ik heb een nieuwe foto op facebook geplaatst
ik heb een nieuwe foto op facebook geplaatst
ik heb een nieuwe foto op facebook geplaatst
ik heb een nieuwe foto op facebook geplaatst
ik heb een nieuwe foto op facebook geplaatst
ik heb een nieuwe foto op facebook geplaatst
ik heb een nieuwe foto op facebook geplaatst
ik heb een nieuwe foto op facebook geplaatst
ik heb een nieuwe foto op facebook geplaatst
ik heb een nieuwe foto op facebook geplaatst
ik heb een nieuwe foto op facebook geplaatst
ik heb een nieuwe foto op facebook geplaatst
ik heb een nieuwe foto op facebook geplaatst
ik heb een nieuwe foto op facebook geplaatst
ik heb een nieuwe foto op facebook geplaatst
ik heb een nieuwe foto op facebook geplaatst
ik heb een nieuwe foto op facebook geplaatst
ik heb een nieuwe foto op facebook geplaatst
ik heb een nieuwe foto op facebook geplaatst
ik heb een nieuwe foto op facebook geplaatst
ik heb een nieuwe foto op facebook geplaatst
ik heb een nieuwe foto op facebook geplaatst
ik heb een nieuwe foto op facebook geplaatst
ik heb een nieuwe foto op facebook geplaatst
ik heb een nieuwe foto op facebook geplaatst
ik heb een nieuwe foto op facebook geplaatst
ik heb een nieuwe foto op facebook geplaatst
ik heb een nieuwe foto op facebook geplaatst
ik heb een nieuwe foto op facebook geplaatst
ik heb een nieuwe foto op facebook geplaatst
ik heb een nieuwe foto op facebook geplaatst
ik heb een nieuwe foto op facebook geplaatst
ik heb een nieuwe foto op facebook geplaatst
ik heb een nieuwe foto op facebook geplaatst
ik heb een nieuwe foto op facebook geplaatst
ik heb een nieuwe foto op facebook geplaatst
ik heb een nieuwe foto op facebook geplaatst
ik heb een nieuwe foto op facebook geplaatst
ik heb een nieuwe foto op facebook geplaatst
dday! helden op alpe dhuez!
bon voyage..
spinningmarathon drw groot succes..!! de 5 uur durende spinning marathon die vanmiddag werd georganiseerd door...
ik heb een nieuwe foto op facebook geplaatst
ik heb een nieuwe foto op facebook geplaatst
ik heb een nieuwe foto op facebook geplaatst
ik heb een nieuwe foto op facebook geplaatst
ik heb een nieuwe foto op facebook geplaatst
eerste 2 uurtjes zitten erop! bezwete koppies en veel enthousiasme. met dank aan drw fitnesscentrum, wings sushi en sportvoedingwebshop.nl
dday..!! om 1300 uur beginnen de eerste spinners aan de 5 uur durende spinningmarathon bij drw fitnesscentrum...
geweldig leuke avond met bas nijhuis en coen droste bij de zweef. scheidsrechters zijn net mensen
we hebben nog enkele plekken over voor de spinningmarathon van a.s. zaterdag en je mag nog kiezen ook! 14.00 ...
in deze verkiezingstijd ook nog wat aandacht voor leuke dingen. we hebben nog 20 plekken open voor onze...
geen dure adviesbureaus inhuren. gebruik kennis die bij bedrijven en burgers in de gemeente ruimschoots aanwezig is.
zaterdag 29 maart 2014 wordt er bij drw fitnesscentrum in nijverdal een spinningmarathon georganiseerd voor kwf...
namens vanuit het nijvere dal naar de top willen we alle vrijwilligers bedanken die hebben meegewerkt aan het...
ik heb 11 fotos op facebook geplaatst in het album benefietconcert the sofa rockers
benefietconcert the sofarockers groot succes!! het benefietconcert voor de kwf actie ‘vanuit het nijvere dal...
ik heb een nieuwe foto op facebook geplaatst
ik heb een nieuwe foto op facebook geplaatst
ik heb 9 fotos op facebook geplaatst in het album benefietconcert the sofa rockers
ik heb een nieuwe foto op facebook geplaatst
ik heb een nieuwe foto op facebook geplaatst
benefietconcert in het zinin theater voor de groep vrienden waaronder 11 zwevers en 1 van des die op zaterdag...
onderstaande kavels worden tijdens het benefietconcert geveild. 1 4 toegangskaarten artis t.w.v. 80 euro 2 4...
bekijk de actie vanuit het nijvere dal naar de top voor kwf kankerbestrijding
twentejournaal samen fietsen tegen kanker
zaterdag 8 februari zijn alle thuiswedstrijden bij de zweef afgelast.
twentejournaal samen fietsen tegen kanker 15 februari benefietconcert in het zinin theater vanaf 2100 uur
mooi artikel in de tc tubantia over onze actie.
zaterdag 15 februari geven the sofa rockers een benefietconcert in het zinin theater voor de groep vrienden die op...
bekijk de actie vanuit het dal naar de top
gewoon een keepersfout jan..
als die vink fluit valt er voor twente weinig te halen..
liam meenhuis scoort uit een vrije trap de gelijkmaker 44
liam meenhuis scoort met een heerlijke omhaal de gelijkmaker 33
tijd voor een corona ?
het is al snel duidelijk dat twente weer niet goed uit de kleedkamer is gekomen..
wederom een wanprestatie
erger me kapot aan dat objectieve gelul van die foxsport commentator...
onvoorstelbaar.... wat slecht verdedigen
....psv..ajax..feyenoord...de grote ploegen?? verdomme jack, twente staat bovenaan..!!
t is stil aan de bosporus...#turned
indrukwekkend moment van stilte voor niels kamphuis bij de zweef
kon. ud a1 de zweef a1 04
kon. ud a1 de zweef a1 ruststand 03
accijnsheffing op zonneuren.? prima.!! als de regenuren dan maar aftrekbaar worden...#begrotingstekort
ik ben er weer bij..
een fantastisch evenement...18 km, 31 hindernissen, 20x kapotgaan onderweg..en heel veel lol..
2013.. wordt heel gezellig...maar ook giga afzien...
niveau is te vergelijken met lemele a1...
haha het was een hele leuke wedstrijd, 2 penalties, stuk of dertig overtredingen, zaterdag fluit ik ze weer.
vader van joey
als redacteur van elf dien je zijn naam wel goed te spellen..
de servicedesk van sportlink is alleen op werkdagen te bereiken, terwijl de storingen zich altijd in het weekend voordoen??
heb niet de illusie dat jack van gelder hier op terug komt.#amsterdamse arrogantie
..joey wordt om 10 uur geopereerd...
cavendish wat een randdebiel..!!
wat een fantastisch optreden van merel.beter dan het origineel.
herexamen arabisch zal voor de meesten op ibn ghaldoun geen probleem zijn..toch? ghaldoun
je tweet kwam gewoon voorbij..en het was ook geen schietpartij maar iemand die zelfmoord wilde plegen met een pistool...
wat een zielige opening...
namens de zweef 6 van harte gefeliciteerd met het behaalde kampioenschap..!!
je hoeft me niet te volgen...haha
gedraag je..koelman..
bij worden morgen alle e en f wedstrijden afgelast. alsmede de minis en de zweef d4 heino d4.
nieuwe sponsor?
nieuwe sponsor?
wat is er maandag?
telkens dezelfde kinderachtige flauwe grappen..
gaat het nog jordin?
wanneer ga je nu eens echt kritische vragen stellen aan de spelers die het nu al maanden af laten weten..o.a. een braafheid
hoezo moeilijk voor fer?? dat hij die audi r8 af moest bestellen omdat die transfer niet door ging? wees eens kritisch..
je doet er lekker aan mee fardau en wss geniet je er ook nog van...
hoeveel krediet krijgt die dramatisch verdedigende braafheid nog?
wanneer investeren jullie eens in goede commentatoren?
wil praten over respect de knvb wil alleen maar..!!!
als dat de kern van het probleem is, dan moet de oplossing toch ook niet zo moeilijk zijn..
benieuwd wie zo als eerste met nieuws of geen nieuws over twente komt..
en als er toch wat is heb jij de primeur...
er komt geen officiële pc alleen een bijeenkomst met joop
haha..wat een lol...maar niet echt..#ponygate
indrukwekkende actie van vak p tribune bleef 10 min.leeg..
ik heb nog wel een ideetje waarmee we de krant kunnen halen..
laat lekker naar benfica gaan. we hebben bij twente iemand nodig die de kar kan trekken..
zonder gat kom je er ook niet in..
zlatan een grootheid? ja, groots in achterbakse en smerige geniepige overtredingen
tijd voor een rectificatie jack?
gaat jan van h vanavond ook even het ware verhaal omtrent de jaarkaarten van twente vertellen?
moet je de sieros ophalen?
jan, vertel nu gewoon even het ware verhaal omtrent de jaarkaarten.
als je braafheid de supporters te woord laat staan dan wordt je als supporter toch niet serieus genomen??
als je braafheid de supporters te woord laat staan dan wordt je als supporter toch niet serieus genomen??
fans fc twente wachten spelersbus op in hengelo via
rt oproep aan alle twente supporters 20.00 uur aanwezig bij trainingsconplex fbk stadion! groet vak p
joey dit was je laatste uitwedstrijd...
braafheid zoveel ervaring, zoveel fouten..#pectwe
wat zet twente zich zelf weer te kijk..slap en laf...#pectwe
ga lekker carnavallen geert..
hetzelfde geldt ook voor kerstmis, pasen en pinksteren. ook veel mensen kennen daar de betekenis niet van..
carnaval vaag feest?
wat een zieke en domme reactie en zo lekker laf anoniem...
omvoorstelbaar dat die gast commentaar mag geven..haagse blufbal
twente creëert totaal niets...en moet tot overmaat van ramp verder met 10 man
..borgen is geweldig...maar lyvagterne..is nog beter. .
ik heb hem ooit geholpen toen rita verdonk met gerechtelijke stappen dreigde. cont
vanaf 1 feb zijn verenigingen verplicht om met hun eerste elftal uit te wijken naar kunstgras. kustgras?
twente en everton opnieuw in gesprek over
ik heb een verjaardag.
het zou sieren om iets meer loyaliteit richting fc twente te tonen.
haha welterusten jordin..ik vind het geweldig dat je voor twente bent. mes que un club...
xabi held...!
van harte gefeliciteerd..!!
everton wil nu ineens in termijnen betalen, twente gaat niet akkoord fer
bron is in het verleden altijd heel betrouwbaar gebleken..
jongens, succes met jullie laatste toets.!
lieve landgenoten, er is een tijd van komen en een tijd van gaan..leve de koning!
nu ga je een stap te joop!
een uur gevoetbald, zonder 1 kans...come on twente...
rt om de druk op te voeren advocaat verdachte eindhoven justitie moet ons niet zo onder druk zetten
alle amateurvoetbal komend weekend afgelast..
je laat je je toch niet censureren door de knvb
...het is de focus leggen
vanavond playbackshow de zweef aanvang 1930 uur, 16 acts..!! kantine de zweef
vraag waarom worden er dit jaar zoveel navigatiefouten gemaakt. is het roadbook niet duidelijk of zijn er andere oorzaken?
....idd jammer maar do your job...succes..!!
adverteren doen ze maar in andere media, maar niet op twitter...
wat jij doet heeft niets met te maken...
stop eens met dat gespam..
op eredivisie live gewoon die wedstrijd uitzenden..!!!
nice jan....
demo van de dag... bij door uit nijverdal geweldig nummer..!!
hij heeft me geblokt.. de grote nico...haha..
hahaha...nu val je helemaal door de mand.. sneu mannetje..!!
dit boek als kerstcadeau voor mijn dochter gekocht maar denk dat ik het zelf hou zo grappig!! beetje sneu, zelfverheerlijking
denk je nu werkelijk dat leroy dit doet om extra volgers te krijgen? kom op zeg....
van harte...!!
ibrahimovic messi is de beste speler ter wereld en diegene die zegt dat dat niet zo is snapt niks van voetbal. en hijzelf is de smerigste
als we winnen gaan we los, als we verliezen blijven we trots..
geweldig...heerlijke nostalgie
johan derksen noemt man en paard..#marrokanenprobleem
normaal kun je gratis naar de beloften.. vanavond vanaf 25 euro
prima beslissing, alle amateurvoetbal eruit komend weekend..
als van boekel psv mag fluiten, mogen braamhaar, nijhuis of kuipers dan binnenkort een keer twente fluiten?
30 de zweef ajc
20 de zweef ajc
10 de zweef..
woensdag 2811, forum heracles in kantine de zweef aanvang 20.00 uur. met peter bosz, jan smit en nico jan hoogma.#heraclesontour
persoonlijk ben ik er op tegen dat er in de winterstop spelers bij andere clubs worden weggehaald.
de namen die rondgaan zijn duarte en armenteros.
oke, 2 miskleunen castaignos en bulykin. de namen die nu rondgaan bieden veel perspectief.
martin h. ??? kom gewoon met een naam..
onderschat de scouting van twente niet, ook volgend seizoen staat er weer een topelftal
psv en fc twente zijn een schande in de el ..en jullie waren gisteravond de lachertjes van de cl
el levert niets op, volgend jaar spelen we weer cl..
wij snappen wel dat geen zin heeft in de europa league. jullie hadden er gisteravond ook veel zin in.!!
wederom gehacked...excuses voor de spam die onder mijn account is verstuurd. blijkbaar gehacked. wachtwoord is inmiddels gewijzigd.
excuses voor de spam die onder mijn account is verstuurd. blijkbaar gehacked. wachtwoord is inmiddels gewijzigd.
wat ga je bij sony doen?
plan zorgpremie is van de baan, nu heb ik me daar ook geen moment zorgen om gemaakt.