kom maar terug luuk..#psv
onvoorstelbaar dat er nog aandacht wordt besteed aan de mening van oude zuurpruimen zoals ronald waterreus en van hanegem
dit is de wraak van als je een jinek schrapt krijg je dit de volgende dag......#bagger
wat een fantastisch diepteinterview met wilders
het wordt tijd dat ik op vakantie ga. dut volledig in.
het succes is niet alleen van vandaag de dag. er wordt al vele jaren met succes door vrouwen gevoetbald…
wil nu plotseling en maar wat graag meeliften op het succes van vrouwenvoetbal
het is totaal niet interessant en het boeit niemand wat van vrouwenvoetbal vindt.
de nieuwslezers blijven maar praten over mooi weer daar is volgens mij nu geen sprake meer van.#hitte
straatverlichting nog steeds niet aan.
toch blijft het jammer dat het op deze manier toegestaan is en getuigt van weinig begrip voor de filatelist.
meer kans dan met deze warrige stadionspeaker.
toen hadden al duizenden mensen onnodig het stadion verlaten.
belangrijke mededelingen niet meer overlaten aan stadionspeaker, maar aan politie of directeur man zorgt voor enorme verwarring.
het is weer eens zo ver......#pauw zakt volledig door de ondergrens. verlang op zon avond ontzettend naar
heel graag gedaan!
waar zijn toch die fanatieke supporters achter het doel bij gebleven? zie ze al weken niet meer.
10 zetels verlies, en toch zo blij als een kind. je moet maar durven.
stop maar met tellen....uitslag is al bekend.
mis mijn nu al
for president!!
hij deed het tot nu toe redelijk goed, maar nu valt buma toch lelijk door de mand.
geen plan a c of d maar plan b. stem de planeet heeft u nodig!
na lang wachten is het dan eindelijk zover..... in
ijskoude douche wat een antireclame!! ....#radar
nou, die roos kan wel inpakken na vanavond.
wat vliegt er nu allemaal weer de lucht in? enorme knallen
als tafelheer bij jinek doet pauw het best wel aardig.
zie een paar leuke spelers die ik volgend seizoen wel bij wil zien spelen .
red overijssel aanvliegroute naar lelystad kan hoger, móet hoger
alles werkt weer!
drank en druks maken veel kapot. jules
volgens mij is jules deelder te vroeg met verlof gegaan
wat is een irritant ploegje geworden zeg.
is hero brinkman nu de tafelheer van ? wel een slechte trouwens
plasman is rijp voor opname in een verpleeghuis
meeste automobilisten kiezen er zelf voor om in de file te staan. niets aan doen dus, dan lost het probleem zich vanzelf op.
100 uur taakstraf in een azc lijkt mij zinvoller voor dan een geldboete.#pauw
dit is nu wat ze noemen......een kolkende arena.
indrukwekkend slot
er zitten op dit moment opvallend veel hufters op twitter.
een wild zwijn heeft nog een knappere kop dan jager pauline de bok. ze is gewoon jaloers.
wat een zielig beest!!
wie neemt halbe zijlstra nu nog serieus?
kinderen begrijpen het wel en hebben er geen probleem mee. de ouders zijn het probleem.
gezien de reactie van de nec supporters moet het bier niet te zuipen zijn.
antonia per direct opgenomen in tbs kliniek
maarten t hart.......meest gewaardeerde en gelezen nederlandse schrijver in duitsland.
een jaloerse, door drank aangetaste vrouw,
begrijp heel goed dat maarten hart een grote hekel heeft aan drankorgel maarten schrijft ook vele malen beter.
kan nu mooi het veld van gaan schoonmaken.
twee kee gelijk spelen tegen de fransen is uitstekend...............moeten we wel alle andere wedstrijden winnen. co in
zelden zon verkeerstechnisch gedrocht meegemaakt als het in asos kunnen er zich naar harteloos uitleven.
heeft jeroen nu ook al een vaste tafeldame?
een tafel met alleen kees jansma was nu meer dan voldoende geweest.
pensioenleeftijd binnenkort naar 300 jaar
dank je wel. groetjes en tot zondag. hans
heeft weer een echte spits!!!
waar zijn we?
slechts 3 punten achter op koploper ......er is dus nog van alles mogelijk.
hoor en lees niets over de fietsvierdaagse in is het wel doorgegaan?
lekker hoor om op ziggo sport uit te zenden. volgend seizoen cl waarschijnlijk op groenland sport kanaal 3
enorme onweersklap
wat doe je nu??
doet helemaal niet mee en toch zingt willeke een lied van haar. ze zingt het mooi, maar geef mij toch maar claudia
jan slagter ik irriteer me kapot. iemand die zo praat kun je toch niet meer serieus nemen.
zag er best indrukwekkend uit 3 conducteurs in de trein tussen utrecht en amersfoort met handboeien, wapenstok en kogelvrij vest.
even een hoofdje pikken
frankrijk lijkt er niet op. zeer slechte imitatie
oplaten van een paar honderd ballonnen kan echt niet meer. waarschijnlijk niet over nagedacht niet meer doen
en nou achteraf niet lopen te klagen dat strafschoppen nemen een loterij is.
van frank snoeks naar de belg is maar een kleine stap, maar het verschil is enorm.
het is niet te hopen dat een van de deze ploegen doorgaat.#kropor
begin maar vast met die strafschoppen.
waarom doet ronaldo eigenlijk niet mee?
geef mij maar een damwedstrijd.#kropor
.......en een dambord heeft ook 50 zwarte en 50 witte vakken
dat is geen dambord arno, maar de kroatische vlag.
.......superbedrijf!!
daar staat ie dan.
schitterende voorstelling
morgenmiddag rond 14.48 uur vliegt de over twente.
elke gemeente krijgt de gemeenteraad die het verdient, maar........dit verdienen we toch niet??
vind het knap gedaan. kan ook niet genoeg krijgen van jouw eerste vertolking. beluister het elke dag in de auto. 😍😍 groeten!
heb ik net een nieuwe bel gekocht, lees ik dat bellen op de fiets mogelijk verboden wordt.
kunt u mij helpen aan 1 of 2 muntjes van jongerenwerk mz? h.scheepmaker de putter 11 7609tx almelo hartelijk dank.
afgegleden naar zeer bedenkelijk niveau. abonnement onmiddelijk opgezegd.
ik heb mijn jaarkaart verlengd en ben er volgend seizoen dus gewoon weer bij.
wat een beroerd veld zeg bij hopelijk geen eredivisie.
pretenderen een kwaliteitsprogramma te maken en dan bram moskovisch uitnodigen
ze maken er tot nu toe een potje van.
het prachtige station van 2
het prachtige station van 1
het wordt pas een echte als we ons niet zo massaal zouden verzetten tegen al die mensen die ook op zoek zijn naar vrijheid.
veendam.....prima zaak!!
station .....het is voorbij
laatste dag station 3
laatste dag station 2
het station met de minste reizigers per dag, station is gesloten. 1
fantastisch optreden gisteravond van in
goede reis morgen naar almelo. we verheugen ons er op je weer te zien en te horen. tot morgen
de weergoden zijn in ieder geval zeer koningsgezind
iedereen een fijne gewenst vanuit
zo goed als gisteren was, zo slecht is het vandaag. ......tot nu toe.
kan iemand in de straatlantaarns even aansteken?
bedankt voor 3x zoveel verkeersdoden op snelwegen km. bij invoering werd nog uitgegaan van 7 extra doden. was acceptabel....tja!
toename verkeersdoden in 2015.....was dat al niet voorspeld??
naast 4 leerlingen zou het ook goed geweest zijn om 1 leraar uit te nodigen. zo was het een flutdiscussie en zo 1990
nog nooit de planeet gezien? nu kan het. hij staat links van de maan. kan niet missen
wie hoort niet in dit rijtje thuis? .......pierre van hooijdonk.
door het verlies van willem ll is officieel veilig. weer een zorg minder
straks lekker op de fiets naar daar schijnt het vandaag heel gezellig te zijn.
uitvak weer bomvol twentesupporters. de beste supporters van nederland!!
hoe kan het toch dat het woord gelukszoeker zon negatieve klank heeft? zijn we niet allemaal op zoek naar geluk?
ik zou nu toch veel en veel liever real madrid wolfsburg zien i.p.v.
het aftellen is begonnen
weer terug kan er nu wel uit.
gezellig met z`n allen bij elkaar
geachte mevrouw/mijnheer, heeft u voor mij misschien een muntje van sticky rice? h.scheepmakerde putter 117609tx almelo hrd
ons nationale dier is vanaf vandaag de angsthaas
dat vraag ik mij af. referendum was gedrocht.
met overgrote meerderheid heeft nederlandse bevolking laten zien tegen dit te zijn. dit referendum is dus fiasco geworden.
opkomst dramatisch laag. veel mensen hebben het goed begrepen en nemen dit referendum niet serieus.
ben voor, maar initiatiefnemers zijn onbetrouwbaar en hanteren onjuiste argumenten. boycot dus dit referendum en stem niet!!
maakt zich wederom schuldig aan ernstige competitievervalsing.ik beraad me nog over een passende straf
kijk ik voor het eerst naar blijkt esmee mijn buurmeisje te zijn.
kunt u mij helpen aan een muntje van de gemeente zaanstad? hans scheepmakerde putter 117609tx almelo alvast mijn dank.
dank voor uw reactie. ik weet nog niet wanneer, maar ik kom zeker. hopelijk bewaart u hem voor me. hs
heeft u misschien voor mij een muntje met het mooie logo van pijnackernootdorp? h.scheepmakerde putter 117609tx almelo hd!
kees dekt van basten.....ook dom.
marco van basten was een fantastische voetballer, maar verder heeft hij weinig tot niets gepresteerd. domme jongen!
heel erg genoten van in
beperkte capaciteit is wel erg irritant.
hij gaat gvd die oplichterij ook nog verdedigen
prachtig!!
schurken zijn het e.v.a.
de is in aantocht.
het muntje is goed aangekomen. bedankt! hans scheepmaker
het wordt daar steeds erger!!
dat gespeelde cynische van staat me behoorlijk tegen.
indrukwekkende wolken 2
natuurlijke kunst
uitzicht op de vanaf stuwwal bij
sta je zo maar onverwachts bij de dikste boom van nederland.
....een bezoek meer dan waard!
gisteravond theaterdiner + ....wat een fantastische combinatie!!
het is natuurlijk erg voor die boer, laat dat duidelijk zijn.
hopelijk in de toekomst duizenden varkens. ben je het met me eens dat dit geen incident is? er moet wat gebeuren.
als dat wel het geval was geweest, had de desbetreffende boer dat zeker vermeld. nu zegt hij niets en dan weet je het wel.
varkensboer uit albergen had de zaakjes natuurlijk niet goed voor elkaar. onvoldoende aandacht voor brandveiligheid!!
nog steeds jammer dat bij zit.....doodziek wordt ikvan al die reclame.
prachtige samenstand planeet en de
arsenal is een prachtige club met een schitterend stadion, maar oh oh, wat zijn ze zwak
baggerwerkzaamheden twentekanaal
de eerste bewoner is er al, wachtend op betere tijden.
ook vanavond te zien. wassende hele maan te zien door weerkaatsing van het zonlicht via de aarde op de maan.
dit alleen al is een goede reden om er voor te zorgen dat nooit premier wordt.
een verlate oudejaarsconference dolf jansen
ja natuurlijk, bedankt voor de correctie. ik ga de tweet niet weer aanpassen
eerste kwartier met weerkaatsing licht van de aarde op donker gedeelte maan. herstelde tweet
nieuwe natuur
nieuwe natuur .
70 jaar...lang zullen ze leven......nou vergeet het maar. het is voorbij.
het aantal zetels van de zal na vandaag wel tot het nulpunt dalen.
lopen met je benen bij elkaar?? dat is zaklopen bert.
ook supporters hebben zich schandelijk gedragen
ja, dat zal het wel zijn.
matig bezet polmanstadion. toch opvallend als je 4e staat.
is het nu al komkommertijd bij het
stoere nieuwe loc
de markthal
kunt u mij misschien helpen aan een muntje van het reinier de graaf ziekenhuis? h.scheepmakerde putter 117609txalmelo h.d
wanneer heeft heeft elinkwijk voor het laatst van psv gewonnen?
slagers produceren zelf vlees in de slagerij. blij dat ik daar nooit kom.
woord van de dag....windvlagen
sterkte vandaag!
het woord van de dag....hemelsluizen
leeft als nooit tevoren.........15 supporters uit aanwezig in amsterdam bij
hoe vaak moet ik het nog zeggen......pierre van hooijdonk is ongeschikt als analist.
bij twente ook niet. we zingen de hele wedstrijd.
het gebeurt niet elke week in elk stadion!!
me dunkt dat 40 toch wel duidelijk is
welke kamerleden zitten de boel zo te saboteren? heb wel een idee.
peter r. de vries heeft echt teveel gedronken.
voor de zoveelste keer een zinloze bijdrage van peter r. de vries.
teken de petitie voor het sluiten van alle kolencentrales
veld fc twente krijgt handen op elkaar in eredivisie, alleen kuip heeft beter gras
we kunnen nu wel stellen dan maarten van rossum een cultuurbarbaar is.
zoals gebruikelijk is ons land weer verdeeld....#sneeuw
een goede kop maken is echt een vak!
wat mooi, wat mooi!!
kunt u mij helpen aan een winkelwagenmunt van vanquard? hans scheepmaker de putter 11 7609tx almelo hartelijk dank!
feijenoord naar volgende ronde dankzij hulp scheidsrechter ed janssen
ook de nederlandse vereniging van koikarpers en de vereniging van dahliakwekers beraden zich nog over de aan op te leggen straffen
deze 2 kunnen zo in de volgende druk van daar schrik je toch van ...de eerste duizend gedichten.
als pierre zijn mond houdt, is hij op zijn best.
scheidsrechter ed janssen volgende week ook maar naar de jupiler league. zijn ze mooi klaar mee.
het wordt de hoogste tijd dat alle scheidsrechters eens naar gaan voor een uitgebreide oogmeting. zo kan het niet langer
aan advocaten in praatprogrammas heb je per definitie helemaal niets.
zo mooi was gisteravond de zonsondergang in 2
zo mooi was gisteravond de zonsondergang in 1
waarom kletst paul de leeuw zo door die prachtige muziek heen?
er is een tijd geweest dat paul de leeuw leuk was, maar die tijd ligt al ver achter ons.
mooie samenstand vanmorgen en
hoe krijgen ze het voor elkaar om uitgerekend de domste inwoner van naar te halen.
beste man, emiel roemer, maar daar hebben we nu niets aan. staatsecretaris van rijn had hier moet zijn. zo schiet het niet op.
als morgen staatssecretaris van rijn niet bij zit, kijk ik niet. dan heeft de uitzending van vandaag geen zin.
je bent een rund als je met kiloknallers stunt.
wat was ze weer goed!!!
mensen die bijna nooit met de trein reizen klagen het meest.#ns
peter r. de vries kijkt alsof hij parkinson heeft. hij probeert stoer te kijken, maar dat lukt hem dus niet.
jan mulder begint nu toch tekenen van dementie te vertonen.#studiovoetbal
straatlantarens gaan nu aan.
is er een stroomstoring in almelo? straatlantarens nog niet aan.
beter ten halve gekeerd, dan ten hele gedwaald. diederik samsom
langzaam, heel langzaam, maar zeker, staat de echte diederik samsom weer op.
er zitten opvallend veel kinderen in het publiek
kijk, zo ken ik diederik samsom weer. ga zo door!!
vuurwerkgeluiden in de kuip. legioen schijnheilig en respectloos.
nederlanders de grootste vervuilers van europa. het zal je maar gezegd worden. bedankt
prachtige kleuren vanavond2
prachtige kleuren vanavond 1#twente
vandaag opening prachtige station
mijn dag kon niet meer stuk
als de windmolens het maar houden.#storm
smit weet natuurlijk donders goed dat hij tot 2019 vastzit aan het contract met
de meeste wedstrijden in de eredivisie zijn inderdaad ook niet geschikt om 90 minuten uit te zenden.
die vrouw aan tafel heeft meer verstand van voetbal dan menig analist
spooren......een passende naam voor een forensisch analist
woensdagavond barcelona. ook supporters uit almelo zullen aanwezig zijn.
wat een stemmingmakerij.....ziyech is helemaal niet uitgefloten. integendeel.....hij werd toegezongen!!
wat een ongelofelijke klunzen bij alsof het kijken op een ipad hetzelfde is als kijken naar een tv.
geen spoortje blijdschap bij scorende arjan robben.heel, heel erg vreemd.
dank voor je reactie. het duurt nog even, maar ik heb geduld. gelukkig heb ik je cd nog. groeten.
ik zal er bij een volgende tweet van u rekening mee houden.
uit jouw profiel spreekt een zekere intelligentie, maar uit jouw tweets blijkt daar totaal geen sprake van te zijn.
je mag je profiel wel eens aanpassen.
robin van persie heeft het nog best lang volgehouden.
de enige echte wilmink zou het heel anders verwoorden.#pauw
wanneer kom je naar twente? genoeg prachtige locaties
het is nog maar sinds kort dat het op de noordpool in de zomer dag en nacht licht is.
die vergelijking met een bus slaat nergens op.
dirk kuyt begint een naar mannetje te worden
nvu leden het land uit en vervangen door vluchtelingen.
wat een onduidelijke en verwarrende informatie over de relatie vlees en kanker.
spannender dan de meeste wedstrijden in de champions league
in gedachten applaudisseer ik 1 minuut voor martine.
hallo lisa, iedereen zegt buizerd, dus dat zal wel goed zijn. ..........ook een leuke foto!
dank voor uw reactie. ik meen pluimpjes op zijn kop te zien en daarom dacht ik niet gelijk aan een buizerd
dank voor uw reactie.
deze roofvogel gespot in de hollandsebiesbosch. denk dat het een ransuil is, maar weet het niet zeker.
daarom sla ik de ook nooit open johan.
als zijn snor te zien moet johan derksen zijn sigaren eerder uit doen.
pvvers blij dat vluchtelingen direct de gevangenis in gaan.
en weer staat er een minister, kamp in dit geval, met beide handen in zijn zak de vragen van kamerleden te beantwoorden
uitstekende service winkel
bedankt fijne dag verder
laat je me dat dan weten?
is deze dag eigenlijk al begonnen?
eigenlijk is het helemaal nog niet zo slecht om met dit zeer zwakke team nog 4e in de poule te worden.
ik denk dat halbe zijlstra een hele goede buikspreekpop zou zijn.
van goede pr hebben ze bij geen kaas gegeten. laten kans op gratis reclame schieten.
dank je wel josé, ik zal het doorgeven. groetjes, hans
hulde voor deze man. dit is oranje boven.#barbecue
peter jan rens als clown om de inkomsten te verhogen........ .???
rappers zijn per definitie niet de slimste mensen.
mijn tuin is 90 meter lang .....daar kunnen wel wat huisjes staan.
een schets spelen???
over 10 jaar kan ook niet meer.......te langzaam.
belastingdienst legt beslag op ........leuker kunnen we het niet maken.
nieuw parkeerbeleid mogelijk doodsteek winkeliers centrum. in en gratis parkeren. tel uit je winst.
wat ben ik blij met mijn nieuwe geurtv
liever 3 hele lelijke doelpunten dan 1 hele fraaie
volgens mij iphone is het 2 graden, maar voelt het als 3. dacht al......hier klopt iets niet.
nieuwe natuur in wording
die peter r. de vries begint me toch zo langzamerhand de keel uit te hangen.
oké, bedankt voor uw reactie.
dank je wel. als treinliefhebber ben ik toch wel benieuwd naar de reden. is dat te achterhalen?
weinig katholieke mensen in het publiek
ja, dat is gelukt, maar het is een rare gewaarwording. volgens het informatiebord had hij ook moeten stoppen.
18.50 uur. station drienerloo. lege trein rijdt rijdt gewoon door langs honderden verbaasde passagiers. niet meer doen ns!!
ja, sorry dat ik dat nog niet had doorgegeven. het is nu hans.scheep@gmail.com hoe is het met jullie? groetjes, hans
maar het jaar daarop gaan ze toch weer.
vele duizenden nederlanders vluchten iedere zomer wel naar frankrijk
ik vertrouw alleen nog maar mijzelf en verder niets en niemand meer.
het wordt tijd dat er bij een spellingcontroleur wordt aangesteld.
leuke vergelijking, en daarom blijf ik bij mijn keuze.
je kunt nu toch niet langer volhouden dat beter is dan kom maar gauw terug eva!
de vluchtelingenhaters kijken toch nog steeds naar .....dacht dat ze al lang weg waren.
sterkte en een voorspoedig herstel gewenst.
........fantastisch gedaan!!!
nou ja zeg leren onze wijkbewoners het dan nooit??
de kuip het mooiste monument van nederland???
vast en zeker het laatste optreden van bert van marwijk in en terecht!
bert van marwijk valt nu toch wel heel erg door de mand
iets om trots op te zijn!
er zijn zoveel nederlanders die zich niet aan onze normen en waarden houden. kunnen we die niet inruilen voor vluchtelingen?#degrensbereikt
vvders en vluchtelingen .......een onmogelijke combinatie
hoe wordt een ziekenhuis of verzorgingshuis ontruimd als er brand is en je geen uren de tijd hebt om mensen te evacueren?