arme vogels die roepend over mij huis trekken. terwijl er kermisvuurwerk is
gisteren mijn tas verloren met geld werd terug gebracht door een hij was net zo blij als ik. ontroerd daarom kreeg hij
aan alles zie je geluk, mooi...
de schaduw van de linker vleugel verdwijnt in de binnenring/bocht.....
wat een blij hoofd en een toepasselijke naam
sterkte ook voor de pers. moet voor hen ook verschrikkelijk zijn.
voor anne, haar ouders en haar vriend.
voor anne, haar ouders en haar vriend
dat betekend dus ook dat er vanuit wordt gegaan dat anne dood is.....zoals de meesten van ons al dachten.
in de loop van de middag las ik zojuist...
het is natuurlijk ook heel erg emotioneel hè. mensen willen soms wat kwijt, er is veel verdriet en onmacht gevoel.
ook dat is niet voor altijd.
nou het is zeker geen domme man...was heel goed onderbouwd, zijn kijk op......
vlgs mij had hij al een tijd vastgezeten, vandaar...
mijn grootste wens is dat de cams daar ooit terug zullen komen 🤣
links boven het groene blaadje ligt een minder groen blad, daarnaast ligt de slang
zo mijn burgerplicht gedaan. een eer....
dat bankje...wat zou ik daar graag willen zitten
respect voor dat koninklijk hoofd, die mooie kleur en die prachtige ogen. dankjewel
groene specht
watersnip
´t oale manneke de blauwe reiger staat te blauwbekken ♥
ooooh wat mooi yvonne, moet vaak aan je denken als ik zon kolos zie op plaatjes vooral zo met die oren. pracht beest ♥
sterkte!
gecondoleerd. verschrikkelijk.
ontroerend prachtig. ben een groot fan! zag laatst 3 hindes voor mijn vogelhut langs rennen, adembenemend.
daar waren ze weer. ijsvogel en watersnip
groenpootruiter 1e kalenderjaar
watersnip bij de oelemars
heb het een keer meegemaakt met en met nog iemand naam kwijt wat kunnen die jongens dat......
aalscholver met een tros waterplant aan zijn poot....kreeg het er gelukkig wel af.
na 3 jongen groot te hebben gebracht genieten ze er samen nog even van....
wat leuk! ze hebben groot gelijk d
dommelen in het september zonnetje
zo met jullie te doen...x
kwam dit onderweg tegen...zon lief gebaar d. heb er dankbaar gebruik van gemaakt....
deze is beter...de vorige foto was te groots
hij ziet dan wel heel mooie plekjes miek d
ach carola, wat een verschrikkelijk leuk hebbeding
lijkt me een taaie rakker.....
poeh...die is echt mooi...schitterend....dat hoofd en die manen.&lt3
hahahaaa ik zou helemaal uit mijn dak gaan
kwam ik vanmorgen tegen
hahahaaa jij wel weer wat ontzettend mooi!!!
de eenden hebben me geholpen de tuin opruimen
bij mij mislukken dan alle fotos, verlies onmiddellijk mijn verstand en bekende nuchterheid. schitterend!
wat een pracht! miek
leuke herinneringen
kraa heeft het warm.
ijsvogel weer gezien
wat kun je toch van je dieren houden hè♥
idd. sterkte ermee x
mijn lodewijk loodje is alweer 10 jaar
13 mooi getal voor prachtige fotos
ooooh, wat een poppeke
ik moet zo vaak aan je denken, vooral bij mijn mislukte fotos. genieten en lachen is het wanneer ik je fotos zie.
erg hoor die machteloosheid.
nou die foto is wel kwalijk hoor!
nest koeien
geringde en ongeringde ooievaar in losser
nijlganzen
oeverloper bij de oelemars
ze zijn zo ontzettend mooi! dan mensen hen kunnen schieten. niet te geloven. hoe wreed
afschuwelijk!!
jaaah dat hoop ik ook. ze krijgt al echt een oud koppeke.
ze was achter gelaten in een bos, ik nam haar mee. nu is ze helemaal gek op mij, en ik op haar. ze legt ei net niet in de pan
mooi dat je hem op de kiek gekregen hebt
ooievaar in beckum
parelhoenders in de wei
mijn kippie ligt weer naast me te chillen. ze wordt oud mijn meissie.
waterturen bij de oelemars
lol genieten hè
echt lekker ook, proeft vol en rijk
vreschrikkelijke vent, brrr
proost, hier ook in huis
geweldig dit, wordt slapen met een grote grijns d
heb er ook zo om gelachen, dat kon allemaal..........
coen! hier sta ik wel op, met die rode broek. mijn kleindochter vertelde me zojuist dat ik niks veranderd ben hahahaha ♥
hahahaaa dat was in 85 ik sta er niet op, wel mijn 2 zonen. en mijn moeder in het rood. ik lijk wel op haar.
zal vast wel. vond ze alle drie vier prachtmeiden. trouwens jij ziet er ook prachtig uit!
wat een schoonheid onze prinses ze zal haar moeder nog overtreffen wat schoonheid betreft. mooie prinsessen alle 3! trots d
van jou schrikken? echt niet!!!
hoi josé zit er net noar te kiekn. wat was ik daar graag bij geweest. indrukwekkend!!
geweldig, geweldig!!!
schiet hier knetterhard in de lach ♥
enschede krijgt wielercafé aan noorderhagen dankzij crowdfunding
wat ontzettend walgelijk!
herman, kun je daar ook met de auto komen? ben momenteel niet meer ze mobiel.
is die dood?
denk dat het zo is bedoeld. wat mooi richardt. ontroerend haast ♥
verrukkelijk heb ook pups gehad bij mijn honden. gelukkige tijd was dat ♥
in de telegraaf staat een link ernaar toe. bij dat hij zijn excuses aanbiedt
mooie wereld
vanavond ook heel erg genoten van jou. dankjewel.
woei, echt kerst woord mooi xxx
ja zojuist gearriveerd, de jongens
oooh miek wat een mooie foto!!!
ontroerende foto richardt. mooi!!!
dode vinvis spoelt aan op razende bol via
ik zou je toefluiten
hahahaa die zullen het wel weten y
otter? bever? waterrat, ik zou het niet weten coen, maar wel heel mooi om te ontdekken.
wat een knapperds ♥♥
wat mooi het lijkt wel een knuffel, zo àf!! ♥
mooi richard. je ziet de wind. kunst!!!
wat jammer van zon mooie gans. gerhard wat heb je hem weer vorstelijk op de foto gezet ♥
wat leuk herman. lijkt of die een stropdas om heeft.
gefeliciteerd leukerds, in enschede waren jullie toppers. leroy, je was een lieverd hier. veel geluk met jullie kindje
bedankt burgemeester en politie enschede
bij het handvat pakken en er een slinger aan geven. grapje denk bij het afval brengpunt.
respect. sterkte burgemeester.
tuurlijk en dat terwijl ze uitdrukkelijk gevraagd zijn niet te komen.
verschrikkelijk die antidemonstratie in mijn mooie stad terwijl de meerderheid begaan is met hun lot.
en of je gelijk hebt. helaas....
oleeee!!!
ijs zal het niet zijn.
lol toch maar liever de bosjes. heb het niet zo op dixies
das toch een eerpel bie die moes ?
verschrikkelijke knappert is het. ♥
wat afschuwelijk!!
dat koppie lees ik als maakt me niks uit
wat een poepedoossie, en dat hoofd! lol. geloof er niets van dat ie onverschillig is. ♥
wat leuk dat kleintje onder dat eikenblad ♥
wat leuk coen. ook ik ben in zon huis geboren. waren noodwoningen in arnhem
ventilator met batterijen op je schoot zetten. blaast het zo zijn kant weer op.
gedaan
je zal zon stuk ledigheid maar voor je kop krijgen
ik ook nog steeds wt
leuk !! zo wil ik de tel ook wel kwijt raken. toch maar welterusten
mooi uitgedrukt dat tere zwammetje ♥
mooie vuurtoren
sowieso een schitterend grietje
wat is ze mooi als ze deze kant op kijkt ♥
bedoel je in de tuin van het ziekenhuis
vuil wijf. moet je doe agressie zien bah
hier wat dichterbij. daffy, mogwai en debile.
dankjewel miek, ze zijn net zo leuk!!
even voorstellen mijn loopeenden de gremlins daffy, mogwai en debile
wat mooi coen, die druppel en de wereld op zn kop
echt een mooi beeld, paar keer verplaatst. kende iemand in amsterdam die er net zo uitzag
ja zo zie je maar weer soort zoekt soort
niet voor kinderen
beetje lastig met stofzuigen
als ik dat bij die van mij zou doen...#kattekop
lol, en leuk je te zien
volgens mij zie ik je ♥
totaal geen moeite met en dan kan ik gerust praten namens heel veel kinderen.
sterkte voor jou en je vriend. kus voor jullie x
zo zielig dit
wederzijds. maar moet nu weer verder y tot ziens maar weer
ja bah is ook een stukje afzien hè, maar gelukkig dat hij daar terecht kan xxx
ja hè. erg druk de laatste tijd
ja die buren hè . maar schitterend hoor, mijn complimenten y
schitterende rustgevende prachtige tuin. wat goed vertoeven
verschrikkelijke wantoestanden zijn het.
die ken ik van curacao volgens mij, ook leuke zang
sterkte jongen. hoop dat je je centjes terug krijgt, kun je veel leuke dingen mee doen
mijn maag draait om. walgelijk!!
t is een meiske, zou dr best willen hebben &lt3
100%, kijk maar naar de eerlijkheid in de ogen van de mus
natuurlijk!!!
ik wil en kan ze hoe dan ook niet zien. ulgh
niet doen!!!
oooh jammer hè, scheelt weer vogeltjes, was bij mij ook zo. heb er echt om gehuild
dit is buiten hun macht. zelf heb ik heel goede ervaring met
nee ik wordt niet agressief maar voel me dan wel ongelukkig pffft
geweldig helpt echt. je hebt me gered !!! txs
bedankt voor deze tip. het werkt echt xxx
ontroerend
schoften die dit toestaan voor met de neus vooraan. respect voor het meiske, die opstaat voor het recht.
ja ik ook, zelfs al heb je weinig contact, toch een beetje vertrouwd
van harte welkom, alle verdrukten en aangespoelde ook.
prachtig
scream met je mee
dit is zo mooi
schiet ontzettend in de lach
ja de arnhemmer heb hem steeds gevolgd eerst met walging toen met verbazing hoe wordt je zo in nederland
dank voor je mening openbaar over
kop in t zand geval
wat een pracht!! sterkte richardt
mij is t wel geleerd, had het lef daarna niet om ze aan te raken.
idd. gewoon met je klauwen van afblijven
ja zou ik ook doen met tranen in mijn ogen dat dan weer wel
hahaha verschil moet er zijn. niets voor mij dat biechten. bestaat dat eigenlijk nog wel?
had toch ook wel iets. heb er niet zoveel verstand van maar deze is wel mooi.
aaah richardt wat een respect voel ik voor die mooie zilvermeeuw. doe je er nog wat mee?
hahahaha, ik ga voor hartog 1 + 1 altijd 2
dank voor de tip
ooooh. ook zon foto die raakt!!!
woehoehaahahahaaaaaaaaaaa. zie mezelf al fietsen hetty in trafestie. draag altijd in spiekerbox &ltspijkerbroek
sterkte en beterschap. afschuwelijke reden !!!
ries073 enge wereld soms, griezelig hoor en dat in deze tijd. echt
wat erg, ben er misselijk van.
lijkt me een frisse leuke vent. open en vrij gezicht ♥♥♥
de kiek kiekt scheel d
echt niet
nou, verschrikkelijk is het bah.
prachtig gerhard deze buizerd met smaak
wat mooi, wat mooi, wat mooi. en dan die tedere vleugels. ontroerd
wat schattig richardt en dan die moeder kloek
wat een aandoenlijk plaatje
ja idd haaksbveen zitten ze en in beckum/haaksbergen ook. mooi hoor, als klein kind al door meester stulp
oooh coen ik wens je succes. zelf 1x gezien, viel mijn oog erop. wel vaak gehoord. hoop op een foto y
hij zou geholpen moeten worden. tbegint griezelige vormen aan te nemen.
nee, ik schiet er wel om in de lach. alleen dat oplichten vind ik erg! dat is zo tegengesteld aan het geloof
gewoon omdat het een sul is die maar wat blaat met zn mislukte liefdes en boek
is wel geinig hoor, vooral dat geklok als je in de buurt komt
lol maar laatste zin zei hij tegen mij hahahahaaa
ja weer 2 loze
mooi !!! zon foto kan je zomaar raken hè
er kwam vlgns mij vuur uit zijn orn ik zei dat ie van de stoel van god most komen.zei ook dat ie een splinter had en ik een balk
8 punten om mij te veroordelen haalde hij eruit. over de oplichting geen woord. tsja
hij is erg kortzichtig helaas
ik zag je op zijn fb lol. heb hem nu een mail gestuurd, zal mij benieuwen dan. denk niet dat hij terug reageert, dhr eerlijkheid
goedemorgen. hij heeft mij ook geblockt, onze weergaloze zwerver lol. maarrr er zijn vele wegen die naar rome leiden. lol
voor rienk is het normaal en het kan allemaal in vernederland dusss
ja klopt, staat daar wel ergens
ja hahahaa, hang er vaak voor al heel wat jaartjes ondertussen dankjewel x
politie is gebeld, ik kreeg net geen grote mond. maar 10 min geleden beloofde ze te komen
een paleisje
echt gezellig
afwassen? welnee lekker koffiewater drinken. tis ook haar moederdag
gisteren is mijn kleindochter haar het glas was beschadigd.ze heeft er veel verdriet van.graag r
gisteren is mijn kleindochter haar smartfoon kwijtgeraakt station enschede. het glas was beschadigd.ze heeft er veel verdriet van.graag r
gisteren is mijn kleindochter haar smartfoon kwijtgeraakt station enschede. het glas was beschadigd. ze heeft er veel verdriet van.graag rt
en je ziet de gelukkige uitdrukking op zn snuitje
goed gedaan geweldig. je bent een held!!
nee, niks voor mij. bah al die kijkerts
niks eigenlijk hahaha kijk soms naar utopia
sterkte vandaag jongen
jammer dat de cams uitgaan bij dag mooie vogelgeluiden
mooi !!!
oehoeen op
een muis op nest van de op
de oehoe laat zich bij niet zien. maar de vogelgeluiden in de groeve zijn schitterend. gisteren wel een de oehoeroep gehoord.
geweldig mooi vogelconcert
schitterend!!!
is die grijze vlek in het midden nou een oog? in kop of staart ?
oude stek van de oehoe in beeld
ben gelijk wakker goedemorgen
hoor de weer roepen
met appelstroop deze ronde
zijn van die doe aan de lijn figuren maakt een beetje zuur
ze bleven maar in mijn hoofd. p
gedaan!!! afschuwelijk barbaars is het
wat een kracht moeten die mooie vogels hebben hè coen.
bah bah bah. hoe ziek moet je dan zijn
gelukt!!!
kun je zien
ooooh lakkaah, mijn lievelingseten ♥
ahhh, dat lieve koppetje.
hahahahaa, een mooi stadhuis hebben we. nu de burgemeester nog
dan kan er niks mis goan. met melk meer mans
dacht ik al
goedemorgen. burgemeester van enschede misschien wat?
o ja en de regering dan de grote boze wolf.
bah wat een misselijke figuren
wat een leven
denk dat hij ons wel mag op de vroege ochtend
mooi zo tussen de takken ♥
stoertje is het zo
mooi hoor zelfs de grote mond
hahahahaaa, zag de foto niet. wat een luiwammes, of zou t een braakbal zijn
deze is heel bijzonder, spreekt aan met die mooie ogen in de boom
eens, weg met die ongein
ja heb er ook 1 als achtergromd op mijn tablet. ze ontroeren me. gister dat kleintje ook ♥
prachtig, deze doet wat met je heh
kijk heh, dit moest niet mogen. verschrikkelijk geweldig
hahahahaa, maar ik ga weer even verder ben met een tablet aan de gang. val je van teen in tander x was gezellig
ja ze hadden geweldige gesprekken,ik hing aan hun lip, ook aike+ emiel waren heel slim. de rest niet zo boeiend
hahahahaaa en gelijk heeft ze. wil ik ook wel eens, gewoon om me af te sluiten
moest wel een traantje wegpinken toen nico weg ging, die anderen vond ik niet zo bijzonder
er is ook niet veel meer aan, erg achteruit gegaan sinds nicoline er uit is gewandeld
ja nog steeds, vind de krant ook nog wel gezellig
in het heetst van de strijd jan, nogmaals sorry
ik ook, de grootste ruzie van dat ik ook maar eens verkracht moest worden, of dood mocht vallen
o ja, maar ook dat blijkt dus klatergoud
nog 1 het is een pieldebiel, zit er nog 1 van in utopia
ja precies, met zijn glijhandjes
hahahahaaa lekker houden zo xxx
ach, ik was ook zo stom. heb heel wat over me heen gehad toen ik voor hem opkwam na die ene nacht
misschien omdat hij op het juiste moment wachtte? hoop dat je het straks los kan laten.
wat ik al zei. vluchtig.....voor sommigen ben je een wegwerpartikel
ach het zijn maar van die vluchtige figuren. de eendagsvliegen. zo gaat dat vaak.
die had hem al snel door. is een hoogstaand mens. tenminste... begin nu overal aan te twijfelen
als jij geblokt wordt lijkt het me sterk dat dat jouw schuld is. laf vind ik het. zeer laf!!
ik ben ook boos om het oordelen woord. moet hij zeggen
zeg dat wel. de moeite niet meer waard, tis als de otto aan de straat. geen woord meer aan vuilnis
dat hartje dat hij beloofde had voor mij ook een dierbare herinnering.maar daar zit meneer niet mee
droevig hoor, zo kom je er achter
ja ik ook was zijn grootste fan. desillusie dus. ergste is het gooien met zijn zegen
nee laat maar zitten, kreeg mail met loze belofte en zegt dat ìk oordeel. daar gooit die dan mee. bah
ik heb net zijn boek besteld maar ja, weet dat jij geen kwaad mens bent.
nou rienk eerst de balk uit je eigen oog. heb nog een mail van je waar je me een hartje beloofd
ben jij geblokt. nou dan zijn ze niet tof
wat een pracht hè xxx voor jullie dames d
is altijd weer genieten
steenuil in de kast m. v kwam ook even kijken
bah en dat krijgen de mensen gewoon voorgezet. ranzige klieken, helemaal doorgekookt