super mooie woning te koop in amsterdam
hier kijkt toch niemand vrijwillig naar 😂😉
by far john! tijd om echt door te selecteren nu...
leon, op fox is een mooie docu over maria sharapova 😉 leuker aanzicht 😊
matchfixing 😅 maar doe mee john!
ja zie idd politie die stembureaus leeghalen op agressieve wijze. knap dat veel mensen nog rustig…
is het nog rustig bij jullie in de stad dries? geen rellen oid?
ik teken voor dezelfde uitslag jeroen 😊💪💪
goede opleiding in leeuwarden gehad 👌👌
heb je die vorige tweet nou echt weggehaald dat je uit de bocht vloog ? 😜 ondanks dat toch proficiat!!
zat je in de hekken joost ? 😬😬
succes dan maar want het gaat nachtwerk worden 😬
leon, voor een leuk interview kun je terecht bij ons speler zoon van oud cambuurspeler d…
🙈🙈😂 dat zou jij wel willen...... 😬
😂😂kan ik me voorstellen! volgende week psv maar over de knie 👌fijne avond nog!
ben je na het zien van studio sport weer beetje bijgekomen van de schrik 😊😉
utrecht kent al sinds jaar en dag slechte resultaten in eanske 💪💪😊 hup fct
mooi zwaar bevochten puntje op wembley!
ga je voor de nieuwe voorzitterspositie ? 😬😂
welk vak kunnen we je spotten joost? vorig jaar hadden we je in het vizier 😜
had beter de geel/blauwe glijbaan kunnen pakken 😜 veel plezier nog!!
is chadli nog een optie voor swansea john ?
heel veel succes sjoerd! ga je voor assist of goaltje ? 😬
hallo, even een vraagje m.b.t. meenemen powerbank in het vliegtuig, is dit toegestaan ?
toch weer een europees tripje leon 😅 het kan niet op 😊
geintje natuurlijk! 😉 hopen dat ze aanhaken in de cl 👍
vrees een zwaar seizoen met dit elftal juryan 😬
ik maak me wel ernstige zorgen om je collin slaap je wel goed ?
of een ernstige ziekte 😂
lijkt mij wel een enge ziekte als je dat soort dingen doet 😉
veel plezier niels! ik bezoek de blauw/gele trots op een ander moment 😀👍
toch nog een mooi europees tripje leon veel plezier morgen!!
was alleen niet na de eerste training stef 😉 maar interview is goed!! 👌
dit is wel een nostalgisch plaatje!! 😀heit staat er ook nog mooi op. 🚒🚒
hij past ook niet op de tramrails 🙈🙈😂
dit zou wel iets zijn voor in de specialklasse op de 😂😝
proficiat met de periodetitel !! 🎉🎉op naar de eredivisie 😀💪
feest! van imu.nl wordt 30 jaar en geeft een marketingcursus t.w.v. 275 euro gratis weg!
wij hadden een prima feestje voor en in de pauze 😀👍🍻
poeh poeh kelder, zullen we de overige 37 clubs ook een bezoekje brengen vriend ? ze maken het…
zo te zien hebben jullie er vertrouwen in
ook in borculo zitten we er klaar voor 💪💪⚽️⚽️#azcam
dat liedje is en blijft toebedeeld aan kenneth goudmijn 😜mag peersman niet aankomen 😬
beste peter, zou je ons plezier kunnen doen en van der heyden transfereren? hebben wij als supporter een alibi 😬
mooi hé de achterhoek de wâldman heeft het wel naar de zin volgens mij
het is echt treurig gesteld met de arbitrage in dit land. ze zien een hele hoop behalve wat ze moeten zien
echte voetballiefhebbers vergeten dit soort goals niet sjoerd 😀⚽️
daarom acteer jij ook niet op eredivisie niveau bas
maak maar definitief,nac 20 achter 💪
haha rein kan echt met pensioen
wie heeft er nou gelijk
hey jacko, wil jij mij volgen voor een dm. alvast dank!
potverdikke wat een mooie avond was dat!! en dkv er mooi uit 😝😂
daar kun je ook vervelende blessures aan over houden joost 😬
ziet er nog niet heel goed uit vanavond 😕
zelfs op trainingskamp kwamen we nog kijken 😀👍 moet je maar eens vragen aan heit 😬
proficiat juryan!! 😀🎉🎉 mooi om je vader destijds te zien spelen 💪 vaak mee geweest 😀
vakantieplannen? informeer voor uw reis eens bij tui at home sabine ter maat delen wordt gewaardeerd
kiek ze daar eens staan 😜 check fotos
kwartiertje italiaans gekeken, wat een sfeerloos en bedroevend niveau daar. ben ik toch blij met de mickey mouse league in nl 😂
zou een klacht indienen bij de reisleiding, krijg je vast compensatie 😉😅🌞
net zoals jou in het spaanse zonnetje
hoe oogt assaidi de voorbije dagen op de trainingen ? hebben we daar een pareltje aan 😋
leon, weet jij die deze speler is ? wij gokten op zoon van hooijdonk of kluivert 😬
voor al uw vakanties bent u bij aan het juiste adres!
mooi nieuws!! speelde voorheen ergens bij een lokaal clubje in het noorden 🤐
vacature planner bij een mooi bedrijf!
delen wordt gewaardeerd 😊
vanmiddag nog tijd ingepland in de mooie grolsch veste? vandaag houden we de punten in enske 💪💪of niet
klopt, maar als kleinste van het veld mag hij ook wel keertje opstandig zijn
uiterst dubieus tweetje jeroen! had je als objectieve journalist hoger ingeschat. de jong is de enige schuldige in deze!
gaan ze nu elke week bingo doen wie er mag spelen
zeker interessant collin! het is een ingewikkeld systeem dat slapen
over het hoofd gezien
bedankt voor het interessante online seminar van vanavond! , en rein.
gefeliciteerd !! nog hoeveel potjes tot de finale ? 💪 greetz uut borkloo
rené, is het succes van fc twente puur te danken aan het trio city spelers of doen we de rest van het elftal dan tekort ?
en dan te bedenken dat fran sol van willem 2 er maar liefst 4 duels tussenuit mag 🙈
die niet wint van de nr.6 van spanje hoop dat vanavond meer spektakel kan brengen....#rtl7
en jij denkt dat straks alles is opgelost met glasvezel in het buitengebied met deze aanbieder? 😂 blijft een drama met
mooi doelpunt van het elite team deo driete 󾰬󾌴
pinokkio is de clown van de wat een stelletje dwazen in den haag 🙈
is dit nou het fred grim effect bij oranje? trouwens best veel keepers op de reservebank
prima co host bij in de 👍
succes vandaag! zijn toch betere wedstrijden dan telstar uit sjoerd 😜😄
mooie jvc home cinema set voor de film of muziekliefhebber!
caiway service dateert uit de oertijd, versturen alles nog met paard en wagen 😜
proficiat sjoerd! bekerwinst staat nog niet op je cv 😉
vakantieplannen spanje voor 2017? lees hieronder belangrijke informatie!
wanneer mag sabine voor jou een reis boeken
heeft u al kennis gemaakt met reisadviseur ?
kijk met jullie mee sjoerd! heb je van het weekend gemist in borculo ik hoop 01
fantastisch interview ook, lijkt toch nergens op 🙈
iets wat je nu niet hebt mis je ook niet
tot zondag leo! gaat een mooie race worden 🏎🏎💪
tot nu toe gaat het goed sjoerd! 💪 zo te zien bevalt het goed in hongarije of niet ?
haha ik was vanmiddag gewoon in en om borculo 😉 dacht eerder aan jou 😜
ik heb ook kpn maar nooit problemen 😄 een seizoenkaart van utrecht is passende oplossing joost 😉
had dan ook in borculo komen wonen 😉😜 hier ook nooit problemen.
echte fans zitten in het stadion! 😜😂
dan moet je naar het stadion bas 😉😂
spijker op zen kop! trainen is inderdaad niet voor jou weggelegd 😜
net geen 30km gemiddeld vanavond 😉
zeker buur! toch een rondje 34.5km 😁👍
zozo 😀👍
hele wedstrijd gespeeld sjoerd?
veel succes sjoerd!! mooie start van de competitie!!
correctie in score! ik mis de punten van izagirre in mijn lijst en waarschijnlijk van meer lijstjes
kan ik vast eentje reserveren voor uitbreiden collectie 👍😁 kom ik hem persoonlijk halen!
gaat onze burgervader nu ook meespelen als kenner in ?
proficiat sjoerd! we komen vast en zeker een keer logeren in hongarije 👍
👍 op naar de eerste aanwinst!
gaat morgen bij cambuur gepresenteerd worden volgens de bronnen.
ik had ook een heel mooi plekje in lagos afgelopen week 😜
zal vast wel weer een clausule in zijn contract gestaan hebben 😂😁🎉
voor het beste reisadvies informeert u bij
ben al weg! 😊 misschien kan bert zich hier ook melden in lagos bij nl elftal 😉
hoelang duurt het trainingskamp in portugal nog ?
die hadden we ook nog niet gehad inderdaad 😖
machtig om te zien! geef hem een mercedes en hamilton &amp rosberg winnen niks meer 😂😂
kan een mooi weekend worden biense !! 💪
hier afgelopen week ook gebeld met een +235 nummer. nummers gelijk blokken en zeker niet terugbellen!
voor een leuke trip in binnen of buitenland moet u bij zijn!
deze club gaat nooit kapot! 💪
zijn ook mensen die overdag werken collin 😜
kaapverdië iets voor u? check link of voor meer info
nieuwe naam maar zelfde service en kwaliteit!
het enige wat ik mis zijn buitenspelers....er is totaal geen snelheid voorin juist nu er telkens ruimte ontstaat!
q1 &amp q2 valt nog mee daarna is het zeker saai aan het worden! verstappen is goed bezig 💪
heb je met file lezer japie kat nog wat gemist wilfred 😂😂
snel geregeld joost 😂 hij doet het weer...
geen straatverlichting vanavond op plan schollenkamp borculo, alles is uit.
reis naar cuba iets voor u ? check de link.
vandaag nog darts gekeken robin ?
bij hem is niks te gek heb ik het idee!! had het nog wel willen zien bij nog een paar legs.
eens maar met deze green machine weet je het nooit 💪
zou mvg het gemiddelde nog verder omhoog kunnen brengen na vorige week ?
zou mooi zijn voor mila!
winterstop heeft fct goed gedaan! eet smakelijk vanavond en wie weet is er nog een klein stuntje mogelijk...👍
vanavond nog aanwezig in enschede ?
prima plek joost! ik zou zeggen welkom in de dijkhoek, cc coach
we zoeken nog een scorende spits bij deo 3 joost ... 😉
klopt die is er ook bij volgens mij.
correspondentie diner met waarschijnlijk ...
voor al uw in binnenen buitenland
indien deze instelling/mentaliteits kwestie zich blijft voordoen een absolute nee! er ontbreekt pit en lef op dit moment.
één zwaluw maakt nog geen zomer voor the machine maar hij gooide wel strak!
verbeek ontkent het niet bij vi ....😉 misschien wel zegt ie....#waarishenk
heb je enig idee of ze in binnen of buitenland zoeken ?
voetballiefhebbers opgelet!! arsenal swansea city aanbieding
niet best dries, ik pleit nog steeds voor een algeheel transfer verbod in de winterstop!
viel mij ook gelijk op 😂😂
ideale reisadviseur voor en !
kunnen jullie simon belderok in beeld brengen? tafel helaas onbekend. rest borculose spelers al gezien &amp edwin tragter
heerlijk diner cadeau bij uw reis!
lekker avondje idd, hopen op mooie lange wedstrijden!! 💪
morgen nog aanwezig bij carbidschieten dijkhoek ? 😀 cc
veel plezier op vlie! maak er mooie dagen van.
winnaars van peri duurzaam | periduurzaam
worden de snelheden ook gemeten tijdens het darten ? en wie zou het hardst gooien ?
tijdje meegemaakt bij twente maar als hij de kop goed heeft staan zoals zijn tijd bij zwolle is dit prima aanwinst!
prachtig initiatief!
kunnen jullie mij volgen voor dm ?
wij hebben 3 jaar zakelijk abbo op ons adres, komen wij in aanmerking ethermosstaat?
zit je niet aan de verkeerde zijde henk? 😀
😂 plezier is er niks minder om 👍
kan ik mijn round modulation wijzigen in opc comfort stand? via handleiding lukt het niet..kan er een defect mogelijk zijn?
wanneer gaat de arbitrage een keer geschorst worden voor een wanvertoning.... ed jansen en consorten zijn bedroevend....
was maar grapje vriend 😉 3 punten wederom keurig gedaan!
kon het niet laten 😉
handig en perfect verzorgd!
inderdaad stabiele verdediging is broodnodig! overige linies staan redelijk en krijgen altijd wel kansen.
mee eens dries! tijd voor winterstop en de juiste mensen huren die al de nodige ervaring hebben in de comp.
ik zou niet een heel elftal te grabbel gooien dries. vastigheid is elftal bij gebaat lijkt me in deze fase
leuke actie in samenwerking met
game on! leuk uitje voor de dart fans onder ons.
beterschap en hopelijk snel weer fit op het veld!
ik denk er met de vandoor gaat
we zijn hard toe aan een mooie driepunter !! succes vandaag!
korte lijnen, één contactpersoon en vertrouwd zaken doen onder anvr/sgr voorwaarden.
best lastig dat fries aan tafel bij sport haha zondag gewoon +3
is er misschien nog een hoogtepuntje van grensrechter te melden? ik kon vanavond helaas niet met hem mee
christmas shopping londen!
leuk voor oom hans en oom toon
haha op zondag is er geen belangrijke match
je moet gewoon in het stadion zijn collin!! fox off cc
toch een klein compliment voor dwight dat hij dkv naar de kloten heeft geholpen
succes en zal bewonderen of de styliste haar werk goed gedaan heeft
goed begin van de week succes vanavond!
vanavond de witte chinees niet teveel aan het woord laten p.s. neem aan dat je wel een goed jasje hebt gevonden ?
kom helemaal ut veenwouden nou godverdomme hahaha wat een gast!
je staat er goed op niels! veel succes met het nieuwe systeem.
betoverend bali voor een superscherpe prijs!
stedentrip berlijn? vraag naar de voorwaarden.
zo oud is heit al haha
eentje uit de oude doos, mooie tijd was dat toen! heit staat er ook op
bekijk de link en informeer vrijblijvend
danny blind weet hij waar hij het ek 2016 gaat kijken
heb je hier ook een rs6 versie van ?
beste johan, zou dijkhuizen een serieuze optie voor fc twente kunnen zijn na zijn ontslag bij brentford ?
new york of toch een andere leuke stad? vraag vrijblijvend informatie op.
mooi nieuws! nu snel weer mooie plaatsjes schieten langs het veld
ijshotel in zweden! waanzinnige locatie
moet toch niet gekker worden zeg! blijf van een andermans professionele spullen af. retweet is geplaatst!
toch jammer dat de gehele reisbranche negatief benoemd! de low budget partijen hebben de zaakjes vaak niet in orde!
bedankt voor de goede service van vanavond! wedstrijd viel helaas tegen maar dat mag de pret niet drukken!!
snel,vakkundig en plezierig om mee te werken!
beste johan, bent u bereid uw mening inzake twente supporters en trainer te herzien na afgelopen zaterdag ?
tijd voor een rotonde collin !
nog wel vastgelegd op foto ? omas cake smaakt altijd goed !
morgenvroeg veel plezier bij opa en oma ter maat! oma wil niet op de foto maar verwacht wel een foto tweetje van u
prachtig sfeertje daar in schotland !! en wat een kabaal in de rust!
leuke aanbieding voor de londen liefhebber!
reisplannen scandinavië ? bel, mail of whatsapp reisbureau at home voor meer informatie!
de obers brengen je nu vast en zeker met een lach een drankje haha
leuke aanbieding ! informeer via sabine.ter.maat@reisbureauathome.nl of whatsapp 0647554580
toch het verkeerde reisbureau gepakt henk heb mijn persoonlijk reisbureau hier in huis en betaal nooit
ook vandaag hier het mooie artikel gelezen! ziet er goed uit
zijn ze om in mooie woorden te spreken bij de ts nederlands elftal ? anita kan echt niet meer .....
haal het reisbureau in huis! waar en wanneer het u uitkomt!
zin in een voetbaltrip met vrienden of voetbalteam? check de link!
beste rené, de spelers van fc twente ogen ongeïnspireerd en kunnen geen fatsoenlijke aanval opzetten... waar ligt dit aan ?
heerst niet echt een jasjes cultuur bij fox
morgenavond debuut bij fox sports leon ?
succes niels! wij komen over 4 weekjes gezellig avondje langs!!
grensrechter staat ook op ruim 5 meter van de achterlijn en kan het dus niet zien loopt niet mee met de laatste spelers
heel veel succes en hou de punten in leeuwarden!!
helemaal mee eens !! we ergeren ons wekelijks aan deze grabbelaar. gelukkig nog een topkeeper op de bank
probeer dan een clausule die qua bedrag hoger komt te liggen! &gt500k cambuur presteert ook beter en kan meer eisen.
dit is al de zoveelste speler waar een clausule aan hangt! cambuur zou hier beter mee om moeten gaan in de toekomst!
toch een flinke aderlating zo vlak voor het weekend! erg benieuwd wie ze deze keer uit de hoge hoed gaan toveren.
de late gelijkmaker van sjoerd overgoor in beeld#cambuur via
succes sjoerd! kan ik weer juichend door borculo
niet alleen het voetbal is mickey mouse competitie helaas ook de arbitrage
droste vergeten ? tis nog wennen met al de namen
is inderdaad erg rap henk
in hoeverre scc hierin meewerken als groningen belt ? heeft reijnen een clausule in zijn contract opgenomen voor zover je weet?
leuke motor voor de sportieve rijder! check de link voor meer details!
check zijn kraagje van de blouse collin
holland international reisbureau at home sabine ter maat heeft de beste last minute deal voor u!
ben je veel te laat collin
veel plezier! helaas dit jaar niet aanwezig i.v.m vakantie
ik ga vandaag voor boasson hagen!
ben ik nog op tijd thijs ? ga voor meintjes
nieuwe gestuurde bij v.v. deo om het gras v/h hoofdveld en veld 2 kort te houden via
ik ga vandaag voor arredondo alleen vanwege de naam al
vandaag een lange ontsnapping en hopelijk sam bennet als winnaar!
rt@broeksterboys staat niet stil de voorbereiding voor de verbouw van de bestuurskamer zijn getroffen
henk, wat zijn tot nu toe je indrukken van de nieuwelingen ? en voornamelijk van plaatsgenoot
2/2 er is nu een 2e mobiel wat niet in dit abbonement zit wat misschien wel handig zou zijn. kan ik lager qua totaal abbo?
voornamelijk veel vast telefonisch contact met duitsland, en veel internet gebruik. 1/2
hallo, wat voor abbonement kan ik aanschaffen als zzper werkende vanuit huis als ik nu thuis kpn compleet heb ?
ik ga voor greipel
check this!
is er volgens jullie een renner die vandaag kan verassen buiten dumoulin en consorten ...?
noteren we voor volgend jaar! ik zeg hou de website in de gaten van tour de marienvelde, subleague borculo
lijkt me dat onze burgervader en wielerkenner niet kan ontbreken in dit spel!
we hebben genoten lieuwe! veel succes de komende weken !
ter hoogte van ijsboederrij dommerholt borculo in het weiland geland.
op deze zomeravond ! veel plezier vanavond!
nee de standaard kanalen niet ! heb eagles prima kunnen volgen ....
gewoon op het normale kanaal kijken collin !
welke onbekende renner gaat volgens jou in de bergen verassen ?
ik denk dat jack fysiek sterker en volwassener speelt dan rusnak en bytiqi, hoe denk jij daar over ?
kan toch niet anders zijn gezien de eerdere successen met spelers van city bij cambuur....? zou gek zijn als hij dit niet klopt!
gezien zijn documentaire op youtube is dit een zelfverzekerde jongen die weet wat er gevraagd wordt, lijkt mij prima voetballer!
zou de jonge belg dit 3 weken vol kunnen houden in dit geweld ? verwacht je hem aantal keer top 10 ?
even een vraag aan de kenner welke niet standaard renner denk u dat deze tdf ons gaat verassen ? cc
via welk emailadres kan het gestuurd worden ?
nog geen vakantie geboekt? vraag vrijblijvend naar de mogelijkheden.
moe van al het zoeken? sabine helpt u verder
hele kleine wereld leuke weetjes en feitjes ben benieuwd naar de interviews !
gerard is mijn oude overbuurman en heb ik nog mee gevoetbald hij is zwager van oud grensrechter adriaan inia
grappig dat je daar interviews hebt afgenomen, daar is mijn carrière vroeger begonnen wie heb je zoal gesproken ?
laatste avond voor deze winactie y morgen is er een winnaar!
mooi stukje in de lokale krant in borculo
dit is inderdaad een tripje wat hebben jullie ook een vervelende baan y
ze zijn goed bezig met zowel eredivisie routine als jonge talenten aantrekken! zijn gericht aan het scouten iedergeval y
deel, like en win 2 vliegtickets!!
veel plezier heren! zal een mooi dagje worden game on!
leuke actie! y
mooi dat plaatsgenoot voor cambuur gaat spelen! mooie club en stap voor hem.
ja is zeker ander type meer voetballend vermogen en goede steek pass in de benen! zal de kwaliteit zeker omhoog stuwen.
wat vind je van deze aankoop van mijn plaatsgenoot ? lijkt mij prima aankoop met genoeg ervaring en een linkspoot die ontbrak!
indien het zo blijft heb je weer een uitje hier in de achterhoek
geen straf om dit live mee te maken lijkt me ! veel plezier in de 2e helft
zwemmen met ....varkens! op de bahamas is dit werkelijkheid
iets voor u ?
profiteer van deze mooie actie!
mooi in beeld gebracht henk jan! dit is de jongste zoon van voormalig cambuur speler jouke dantuma!
ook s avonds en in het weekend gewoon bereikbaar !
koffie en hapjes al gehad van de oude heer
2/2 die hem de groeten als je hem ziet / spreekt ! veel plezier alvast !
mijn vader zal jullie vanavond bij broekster boys weer goed voorzien van hapjes en drankjes 1/2
mooi nieuws vandaag! breng engelse sfeer in het stadion met tribunes tot aan het veld! weg hoge tribunes!
haha sterkte en beterschap ! warm bad doet wonderen...
haha waarschijnlijk genoeg spierpijn na deze actie/wedstrijd
had je de kicksen niet toevallig verkeerd om aan ? maar wel een mooie actie foto !
wat een pracht kerel raakt cambuur kwijt! het moest er een keer van komen materiaalman ‘siepie’ gaat na zondag officieel met pensioen!
gebrek aan ervaring in dit zeer jeugdige elftal! de spelers hebben klasse maar is niet voldoende. benieuwd naar je verhaal