blijkbaar mag je niet racen in de
scheelt natuurlijk ook dat ze natuurlijk nergens om spelen... denk dat dat ook onbewust meespeelt
klopt... maar hij komt wel met dat vlut materiaal aanzetten
gaat hier ook niet vrijuit
ja helaas... hopelijk kom ik duitsland nog in vanavond
zo nu volgas naar huis
foi wat een hebberig volk hier... ze wilt
iets met in het begin en wekke
plus het rubber van de tt van assen
net thuis na een super vet concert van 🤘🏻🤘🏻
soms.... 😫😫
minimaal anders klopt er iets niet 🤔
je kunt het hem niet kwalijk nemen met zon selectie.. beetje vertrouwen houden! dit jaar wordt toch overleven
nog niet helemaal nuchter?
duidelijk! voetbal speel je op echt
is er een storing? kan mijn team namelijk niet wijzigen
buiten die alpenturken om is het best mooi 🙈
geen last van 😉
je wordt er echt kotsmisselijk van hier
het laatste.. maar gaat toch nergens over?
11min te lang gereden en 4u teveel gewerkt in de afgelopen 2 weken
in zijn ze echt helemaal gek! 3 overtredingen in 28 dagen en een boete van €1100,
net in rotterdam en de 1e al gezien
meerendeel was minderjarig dus verwacht er ook niet veel van
das nou jammer... had gehoopt dat het meer zou opleveren
enig idee wat aan het heeft overgehouden?
hoeveel zijn er zondag in rotterdam aanwezig?
ja die mis ik ook al? misschien weet meer?
staat de deal?
ga je ook een x mee naar daar is de sfeer ook super.. ik regel de kaarten 😁
“@transportonline schultz over eerste calaisdode nog geen reden tot verdere actie ” 🖕🏼
levert het fc twente nog wat op dat de halve finale en de finale in de veste worden gespeeld?
gaat lekker in nederland. ze kozen er toch zelf voor om niet op de foto te gaan!
hoeveel brengt hij op?
genieten van de pauze! 1/2
dat was eerder velvet underground toch? nieuwe eigenaren dus?
gezocht voor rock werchter
heeft er iemand nog een te koop voor
net gelost in zo via de richting 💪🏻💪🏻
en nu doorpakken!
jij ook bedankt voor alles! hopelijk plak je er nog 1 seizoen bij aan!
dit beloofd wat voor volgend seizoen
kom gvd eens een x tot een oplossing dit maakt de hele club kapot
zijn er wel 3! de onderste is een beetje weggemoffeld op de foto
een dag om nooit te vergeten
genoeg nederlanders daar of zijn dat de clubkleuren?
vnaamd paar drinken! kon het niet redden vandaag..
gaat niet sneller 🐢💨
wat is er gebeurd?
gefeliciteerd jan!
bedankt voor de steun
en zo is het!
een onderzoek naar drugs...
op naar
dikke auto rene! veel veilige kilometers gewenst
tickets hebben we al dus we kunnen niet meer terug 😂 we houden het in de gaten! 👌🏼
is de line up nu compleet?
polski?
ik heb mijn stem laten machtigen ivm werk! maar allebei de stemmen gaan naar
wij hebben bijna geen weekenden! wel heel veel zaterdagavond thuis of zondagmorgen! goed weekend piet
weekendje te pakken?
morgen thuis! beetje druk onderweg
mooi weer dus in het oosten 👌🏼
mijn stem gaat naar tijd voor vernieuwing
ach we zijn nu 2 punten ingelopen op de amsterdammers en 3 op de rotterdammers 😜🙉
de r is in de maand! de r van mistbank 🤔
jij ook succes! idd hopen op een mooi pot! heb je een bericht gestuurd! dan heb je mijn nr weer
volgens mij gaat er iets mis in het begin... het is toch echt held en niet bunjaki
hoe staat het ervoor met de kaartverkoop zondag?
we zitten achterin de bus... en iets met de beckham van het oosten
net gegeten bij een aanradertje
thnx! ja ben wel op tijd terug! daar houden ze gelukkig wel rekening mee
daar gaan we weer richting 🇮🇹&lt🚚💨💨🍃🍃🇳🇱
oooooooh heuj heuj! zo doorgaan dan komt alles goed
hoezo uitverkocht?
nu moet nog ff zien te scoren en dan ga ik heel blij worden!
lekker lineup tot nu toe wij zijn erbij
de laatste ronde! 😤🙉 over 5uur noar huus
en kijk op het spel! dat heb jij blijkbaar niet... zeker een teletekst supporter
om te schamen! wat een uitzicht
volgens mij begrijp jij het spelletje niet
hier het uitzicht
weer een mega goed uitzicht in het stadion
neem jij muziek mee?
en vanmiddag ook naar de lampjes?
al bekend hoeveel er zaterdag naar eindhoven gaan?
viel spass nog! zaterdag boh foi toch?
t is hoast t begin van de wekke
het is alweer zo rustig op duitse snelweg! 🚚💨💨🍃🍃
en wij waren erbij! 26 toch
volgens mij begrijp je het niet helemaal??? oh ik zie het al een meisje
as ze int begin van de wekke now een betjen deur dddooooeeet
gefeliciteerd!
klasse john! succes met ado en swansea....
waberer probeert het nu in de luchtvracht
is dat de luchtvracht afdeling van waberer 😂
aan het klimmen richting de
misschien vanavond bij het restaurant in meolo
ik ben in de buurt van treviso
thnx kerel! waar vanavond?
an de kant of in de 📰
ideaal die op zaterdag in duitsland! 🚚💨💨🍃🍃
waar zit jij ergens?
kom jij nog deze kant op in de vakantie?
we gaan de zon weer tegemoet
gefeliciteerd! mooie tijd om erin te stappen!
ook doet volop mee met de actie
goedemorgen! mooi wakker worden met deze lucht en achtergrond
bedankt voor de steun!
de muziek staat hier een tandje harder… 👌🏼
gerechtigheid! dat wordt zuipen dit weekend..
ook in italië staan we achter
net wat voor jou ullie
aschaffenburg kom ook die kant op… duurt alleen nog ff 😂
doe de groeten! hij staat er ook vananond
thnx! jij ook een goed weekend
waar ga je heen? staan er iig 2 op cislago
beetje laat maar ging jij op via zwitserland?
berkelland laat kulturhus t spieker in eibergen vallen ”
is het kort geding ook live op de radio te volgen?
vandaag vs dit zal een hele lastige uitwedstrijd worden!
we hebben het nodig!
z’n natte droom
hier ook 2 maal verlengd! juist nu met z’n alleen achter blijven staan!
sinds de start of sinds het slechte nieuws woensdag?
gaan ze nog wat aan de prijzen doen?
een zwarte dag voor mij en iedereen die twente een warm hart toedraagt! 😢
de maakt zich steeds belachelijker! is toch niemand die nog serieus neemt!
ook live op radio oost?
en als dat niet zo is? misselijk mannetje
is er ergens een definitief plan te lezen?
oja nog helemaal niet aan gedacht 😂 prutsers daar
ze mogen nog een paar x in de fout gaan en dan wordt de licentie ingetrokken van die malafide knvb
en dan komt de de niet na! wat een instantie is het toch ook! ik zeg 3 jaar geen europees!! oooh nee wacht…..
is onderweg
gedaan maar er kwam niet veel uit 😂
goed bezig! nu alleen die 12 miljoen nog
driving home for kermis! part 1
op naar vanmiddag gaan we los tegen de
kan er helaas niet bij zijn vanmiddag met de succes vanmiddag!
?? waar komen jullie vandaan dan?
klopt! en ook nog met de trein! waar gaan jullie heen?
ik zoek al een paar jaar naar de docu over ‘il grande torino’ weer u zo waar ik die kan vinden
snel afronden dat crediteurenakkoord!
dat is wel het minste wat ze kunnen doen!
yeah tickets voor zijn besteld! 4 dagen knappen op de camping
geweldig nieuws! knappen met die zooi
gefeliciteerd!
meteen vastleggen voor de komende seizoenen!
natuurlijk meteen ff lid geworden van
net op tijd de container erop! weet niet of ze gaan staken?
lekker aan de wijn in valencia! gezellig bij little brother op bezoek
ik heb er zelf nooit gestaan omdat ik uit eibergen kom maar ken de eigenaar wel!
ja klopt! camping het eibernest zit erachter
ze houden elkaar allemaal een hand boven het hoofd!!
ook hij rijdt met dat soort volk! 1 pot nat
jammer genoeg maar een paar dagen! ach ja laten we er maar van genieten 😂
medeweggebruikers laten we het daar op houden 🙉
een klein stukje! straks nog ff naar de maasvlakte!! ook aan het werk?
wat een genot om te rijden nu over de snelweg! alle platkoppen zijn thuis ivm de kerst..
en dat noemt zich analist????? wat een achterlijke reactie! ach ja je weet wie het zegt!
wij hebben toen betaald met paypal andere mogelijkheid was er toen niet volgens mij
mijn broer heeft ze toen gekocht via de site van atletico zelf!
ja helaas! die strijd hebben wij verloren
als die heel blijft wel ja!
ook op radio oost?
ben er aardig kapot van! morgen weten we meer
een rat…. en dan nog zeggen ‘ik doe het in het belang van de club’
dat hoop ik ook! ben er bang voor 😢
nu de rest nog! alle rotte appels opstaan en opdonderen
lijkt erop haha
niet verkeerd!
het is niet de vraag of het gaat gebeuren in nederland! maar vooral wanneer.
dat is vragen om problemen wat nou democratie?
op naar
en dan raar opkijken als ze “knvb maffia” zingen? wordt met 2 maten gemeten bij jullie
gisteren in oostenrijk en nu weer hier… het wordt er niet veiliger op met al die oostblokkers achter het stuur…
tickets binnen voor volgende week dinsdag gaat het gebeuren vs met
knipper momentje met op de
bij oma afslag quattordio?
komt goed! fijne vakantie
ik vertrek zo richting italië… als ik daar in de buurt kom is het wss donderdag! laat het wel ff weten
dat zeggen ze maar van bruine boterhammen krijg ik geen nadorst
er staat duidelijk “eten” 😂
grande corona! succes bij porto
transfervrije spelers kunnen de hele week nog gehaald worden… verder ben ik het redelijk met je eens
er is geen geld… dat is de harde realiteit op dit moment! ome joop en co hebben er een mooie pröttel van gemaakt
nu is alfred afgekocht dus ‘t geld is op! wij moeten het hebben van transfervrije spelers.. zo staan we ervoor
daar ben ik ook benieuwd naar! zou wel mooi zijn als ze vandaag 500 jaarkaarten verkopen
zit ie weer te profiteren van jullie abonnement?
proost moatie! 12 september gaan we er feest van maken
ben wel benieuwd of die supporters die zeiden dat ze niet wouden verlengen om nu massaal verlengen!
ik had geen zin aan bier maar, met zo’n goed nieuws op de zondag met er gedronken worden
marsman is het 1na grootste probleem van op 1 staat niks geen lijn te bekennen oprotten met die vent
volgende week nieuwe kansen
de voornemens waren goed gisteren…
“@frigoamigo ff een truckertref met ene was gezellig! een italiaans gevoel zo dicht bij huis
arme
is het verstandig om van te voren tickets te bestellen voor atletico vs getafe of zijn er op de wedstrijd dag nog genoeg kaarten?
zo druk dus! 😂
druk met de schadeformulieren
altijd al gezegd 😓
wij hebben ook geen kermisboekje ontvangen… sleedoornstraat 4
het rooie goud
in de pendel?
dat is mijn oude oude…
de scania is naar het binnenland gegaan! ik rij hier al vanaf februari op
koets vol! op naar huis….
ja dat klopt! maar het halve vak is vol menner roggeveld
wat een tijd! zo wordt dus de 1e competitie wedstrijd door de neus geboord… een dikke voor de
hoe kan de nou op een woensdag een wedstrijd om 18.30u laten beginnen! denk ook eens aan de
crisis aantal boetes voor in vrachtwagen in grootbrittannië verdrievoudigd
zo mag ik het horen… laat de media maar lullen…
ik heb er een goed gevoel bij! 💪🏼💪🏼
hoelang duurt het voordat je het shirt thuis hebt als je online besteld?
hallo, wij willen 23 sept naar atletico! heb je nog tips restaurants/bar/hotel rond het stadion? alvast bedankt
maar zondag mag jij wel biertjes drinken! 🍻😋
goh waar zal die vandaan komen?
nog een uurtje naar ransbach! daar ff fruhstucken! volgende week naar
voor mij wordt het montebello heb er nog een adresje bijgekregen 🙉
hoe kun je dat nou zeggen? 😂
mooi! ik ben er 19.30u ongeveer… komt je collega ook mee? kwam hem net tegen
waar vanavond? avondje rovereto bij kees?
is nog vrij
het rijdende zonnetje! amateurs zijn het ook
goh een litouwer… wat verrassend weer
vandaag weer zien thuis te komen! opdracht 809km y
thnx! jij ook
geen van beide! brunnerhof bij de rotonde
geef mij italië maar! behalve vandaag dan! beetje druk in oostenrijk
hij heeft ook alle tijd 😂
en of! 🍻
gefeliciteerd we komen eraan
mooi docu van op
eetse! doe john de groeten!
kalm an en rap een beetje
nog 819km te gaan! hopelijk is het bij ons beter weer!
lekker een half uur lang op ✌🏼🎸
thnx! komt goed! ook verlengd trouwens voor volgend seizoen?
zo ik mag gaan laden in mijn eigen plaats voor italië
met bij de we zijn klaar voor de finale
dan ga ik maar naar kees heen! morgen 10.50u trein dus heb wel een beetje speling 😏
waar sta jij? ik nu net vol… morgen treintje!
ik zou het niet weten… heb er nu nog 3 te gaan en ben te zwaar… dus treintje maar wanneer???
volgens mij hebben de nederlanders nog geen zin!
alweer 1,5u aan de gang! nog 535km te gaan! kijken of we de filevrij door kunnen komen!
komt goud! jij ook… wordt weer tijd voor een sappie ergens
we gaan het zonnige weer verlaten… op naar de bunker
is die infoavond nog ergens live te beluisteren vanavond?
nee volgens mij kan ik er dinsdag of woensdag weer uit!
komt goed! thnx werkse
op naar almere met
kijk aan! mooi optijd terug dus…
daar ontbreekt het niet aan waar zit je ergens?
nice! mooie kleuren voor een demo
dat zijn er een hoop! 8 in heel nederland dat wordt uitkijken
onderweg naar voor weer een middagje
nog ff het laatste stukkie en dan gaat de party modus aan!
dat heb jij goed gedacht
thnx! maandag volgas naar landgraaf hé! vanaf 10u bier harken cafe dranco
dat wou ik zeggen! zeker ben ik er met part 1
en gered!
we zijn begonnen aan de klim.. op naar de 2000mtr
nee das net iets te gek… morgen laatste stukje
ja haha! verschil moet er zijn
het enige voordeel van vroeg beginnen is dat het lekker rustig is! milaan
weer lekker aan het italiaanse eten! prosciutto e grana
thnx! komt goed… fijn weekend
koets vol in de op naar huis 😀
ik rij ook net weg uit de tegelbuurt
tussen het slapen door moet er gewerkt worden zo beter 😂
er moet ook nog gewerkt worden hé 💪
en ik hebben de kaart ook verlengd volgend seizoen met een schoon schip beginnen!
toch nog een stukje nederlandse muziek in italië! net op
ff de schouders eronder… nog ff afzetten daarna afwachten of ze voor morgen nog wat in het vat hebben zitten!
goed nieuws! dan is er nog kans dat ik over een aantal jaar nog aan het rijden ben…
terugreis! morgen ff bunnik lossen en dan weekend 👍
daar hebben ze machines voor! morgen mooi vrij als ik thuis ben 👍
de auto maar eens lekker laten badderen!
kut voetbal en een laffe coach die met de handen in de zak staat! opstappen met die
sta je dan als enigste nederlander tussen 120 vrachtwagens…. lang leve de open grenzen!
die komt straks in een andere mooie auto te hangen! foto’s volgen 😀
binnenkort rijdt hij met de mijne.. 16bbj7 dan wordt het nog lastiger
nee dat moet zijn… die moest erheen en is nu ongeveer daar!
zitten er 3! die blonde links spreekt goed duits en frans
t’is mooi wit in de tegelbuurt…
jammer! dacht eindelijk dat er wat gebeurde met die stinkers…
dat was een lekker bakkie koffie! bedankt maar weer voor de gezellige avond! 👍🍷
“@dennishofste heren spelers!!! dit spel kan ook in de competitie gespeeld worden!! +1
en zo is het!
koets leeg! op naar ristorante
“@nunl a58 bij moergestel afgesloten na ongeluk met vrachtauto ” tja roemeen hé
na de winterstop vlammen
niet verkeerd! collega staat van het weekend op poleggio! goed weekend
goeie reis! waar sta je dit weekend?
de laatste paar colli erin gooien voor dit jaar!
na de zoveelste slappe hap
ik zou het niet weten! das al wel een paar maand geleden dat ik op de maasvlakte ben geweest