mn lieve omaatje in de z 😎 vandaag zou ze 90 zijn geworden... 😢 oma &amp ome jan
het was weer een fantastische editie van carsandcoffeetwente vandaag met super mooi weer en veel…
voor zakjapanners misschien een bus, voor een nederlander een ienieminie busje... 😂
toch nog maar even een meeting meepakken dan op deze zonnige zondag 😎 creativquartier fürst…
het schijnt broer/zussendag te zijn... trots op mijn grote broer! 👊🏻
super leuke dag gehad vandaag met de vele collegas, aanhang en kids van safetyservice…
hoeveel races had toen hij dat pole record haalde? hij heeft daarna toch meer gereden met minder successen
fantastisch weekend gehad met de 35 jaar oude corvette, camaro en firebird club in…
op het laatst nog even het gemaal in bedrijf gezien 👌🏻👌🏻#wouda
ik heb zojuist een bestelling geplaatst met de twitter kortingscode c0314g0 op via
hoi theo, reactie op een oude tweet, maar waar zijn de originele shirts verkrijgbaar? webshop? mn oren…
grappenmakers daar bij youtube... 😂 🛎📯
ik had een paar reacties gemist blijkbaar
stalen bal aan een ketting... zoals vroeger...
is het bekend/kan het kloppen dat de overige streams 60&amp70s bijv. niet werken? niet via app of andere radio sites...
oke en wat wordt het?
vandaag lekker en gezellig uit eten geweest voor oma haar 91e verjaardag! 🎉🎊🎁🎂
vandaag nog even met de naar de kingcruisenl bij de in…
mooie foto van afgelopen zondag classicparkboxtel 😎🚙 corvette
leuke dag gehad vandaag in boxtel classicparkboxtel corvette classic park
hoe laat zal dat ongeveer zijn??
die porsche reed net ook nog over een slang na wisselen van die voorband. misschien volgt nog straf??
weer een leuk lampje erbij... corvette
wie weet waar ik kunststof platen/planken kan kopen van +/ 250x20x2cm of ander formaat waar dit uit kan? kleur niet van belang
keus genoeg voor die ballen... 🎱 house of billiards
gezelligheid gisteravond update update meppen
best frisjes vanmorgen scheveningen
mooie vak.p ⚽️ de grolsch veste
weer een keer op pad geweest vandaag
waarom is de beeldkwaliteit/resolutie nog altijd zo slecht of laag anno 2017?
tuurlijk... moest je wel heul lang stroom afnemen bij zeker 😲
je vergeet duur... heel duur... om een lamp aan te kunnen doen...
hoi, jullie hebben een probleem met de reclame tijdens series ncis geluid loopt door, beeld staat stil met andere reclame
als de oorlog uitbreekt geef ik me gelijk over...
hoe heet die bekende schilder ook alweer??
weer lekker lachen met
te laat...
toen had je nog geen spiegels... toch? en je kan niet model zitten en jezelf schilderen...
waar ik nou weer beland ben... 🍔🍟🥃🍦 mcdonalds enschede woonplein
haha was zeker n mooie avond. gaat verder prima. tegenwoordig meer een radio10 luisteraar helaas. leeftijd hè 😂 hoe ga jij?
3 jaar geleden... het einde van
een erg leuk weekend gehad met mn ouders en broer
u rijdt hier 140+... met uw aanhangertje... zonder kenteken...
sta ik op een vrijdagavond gewoon een bandje te bekijken en luisteren 👍🏻
weer heeeeeerlijk gegeten! 👍🏻😋 het middelpunt
blijf nou op t circuit! dat willen we zien! ik tenminste wel 🏎
is ook al weg?? luister al tijden geen meer eigenlijk....
je vergeet en
even usb stick eruit en op een knop drukken 😉
was eem lekker rebbeln gister! 😜reblcityenschede reblcity
bijzondere wolken vanmiddag... ☁️🌥 utrecht province
hallo, gisteren een niet thuis briefje met kg code in de bus. als ik hem invoer of scan en postcode invul krijg ik geen resultaat
weer een fantastische dag gehad vandaag 🚙💨💨💨 van
doe maar eens...
corvette
zo, vanavond weer nieuwe bandjes aan de voorkant gekregen... nu rondom michelin voor en…
heerlijk relaxed bij het
zoeken in
zijn er problemen met programmas van cesar milan? nu al zoveelste keer dat er een ander programma op is ook replaytv
zijn er problemen met programmas van cesar milan? nu al zoveelste keer dat er een ander programma op is of via replay tv
succes en veel plezier vanavond!! ⚽️👍🏻
nope, wat zou ik daar kunnen horen?
corvette wezep
kunnen ze dan helemaal niks alleen??
onderaan helaas... maar eens in verdiepen binnenkort 👍🏻
hallo die film was volgens mij nog niet afgelopen hoor...
foto van reno6r
die ford gt is nog geen bekende auto, aangezien hij nog niet te koop is... dus alleen op autoshows te zien...
probeer en kom erachter 😛
afgelopen week de velgen van de laten stralen en poeder coaten... erg tevreden met het…
vandaag weer een boel fotos gemaakt not... was wel weer gezellig en hartstikke druk!…
4 uur 🍵 opgeleid persoon bv
vandaag weer een gehad! 🐸 weer veel blije gezichten gemaakt en gezien!!…
zo, de tank weer vol met kunnen we morgen mooi 🚙💨💨💨 😛 ahaus
misschien een idee om de medewerkers eerst uit te leggen wat nee betekend?
hij zou vandaag 98 zijn geworden... westerbegraafplaats
zekers!!! 👍🏻 accupool schakelaar heeft zn werk goed gedaan 😃
ik ga het in de gaten houden vandaag
geen van beide het geval... met 10 of 15% accu aan de lader gehangen. toestel is niet uit geweest
helaas is het resultaat bij mij na een nacht alweer verdwenen
ja typefoutje... kan je op fb en ig wel aanpassen maar hier niet
binnenkort mn corner lights maar eend vervangen voor deze nieuwe units met helder glas en met…
de kipjes en de eitjes 😃
corvette…
en ik ben helemaal niet van de 😮
oh leuk! samenwonen gelijk? waar ga je heen?
wel mooi dat op donderdag een laat zien...
de in ging vreemd vanavond
das best een dure
yes, nog een heel voor de boeg!! 🎉
ja was behoorlijk afzien... fatsoenlijke hartige pannenkoek met shoarma en zon bak ijs na is best heftig! 😃
heerlijke gehad en afgesloten met dit meesterwerkje
ik ben net wakker... kan je lang wachten! hahaha
fijne kerst allemaal! mn ouders thuis
vriend! stuur je me dit bewust??
weer heerlijk gegeten met mn grote broer bij hetmiddelpunt het middelpunt
die kans hebben ze gehad... gewoon verplicht altijd aan, uitschakelen handmatige actie...
ja daarom altijd aan. hebben we ook geen probleem meer.
kunnen we niet gewoon verplichten om dag en nacht verlichting te voeren? altijd aan, en bij uitzondering handmatig uitschakelen ofzo?
en zelfs met deze dichte zijn er nog zoveel mensen die zonder rijden. zelfs de denkt dat stadslicht voldoende is
weer mooi schoon na de toerrit van vorig weekend... die dijk en boeren weggetjes waren best een…
lekker handig die test van tijdens
was gezellig vandaag grolschbeer 🍻 koninklijke grolsch n.v.
een brouwerij tour afsluiten met het heerlijke koude zwarte goud cocacola 😃
ik altijd maar denken dat ze van moorsel heet...
2 jaar geleden op haar laatste verjaardagsfeestje... ze zou vandaag 88 zijn geworden... 😢 sanders…
wie bepaalt bij jullie wat is??
vandaag weer bij mogen dragen aan een
last meeting of this season fort bij spijkerboor
vanavond in zwarte kenteken 8tvp78 / gezien?? bel
afgelopen zondag op de terugweg vanuit brugge... ergens op een snelweg in belgië... tussen bryan en…
1x raden waar ik ben 😂 cocacola mn oma
nosejob gehad... zit weer mooi strak in de lak... 👍🏻 autobedrijf…
verbinding viel hier even weg. gaan bestaande abos omlaag?
volgens mij komt er zo nog een buitje ☔️ koens place
je kan zeggen van die wat je wilt, maar synchroon lopen doen ze in ieder geval niet
familiedag met het werk gehad dierenpark…
voor het geval dat iemand zoekt...
het lijkt bijna weerlicht ⚡️
live op donder en bliksem in enschede ⚡️
lekker eten bij olbertz73 ronnies place
vandaag meeting gehad
vanaf 14u bedoel je zeker? alle collegas en diverse vrienden al uren onbereikbaar via gsm...
hoi, iets bekend over een toevallig? kan niet bellen/gebeld worden
holterberg, sallandse heuvelrug
speciale aanbieding bij de
en ik maar denken dat ik me die dip had ingebeeld... rond 18u dus...
zo, deze toko weer achtergelaten... tijd voor het 😛
20 😢 westerbegraafplaats
van mij mag van en een half uur op repeat hoor
mijn cupasoup is denk ik... hij doet niks... of werktie echt alleen maar om 4 uur??
live op ontbijtzaal...
ik zie kleine druppels op het raam van bij
weer even heerlijk gegeten en gedronken met mijn grote broer 😉 🍴 👍🏻
en de salade zeker?
een jaar geleden alweer... piazza dei…
en zondag weer een heel ander feestje
hopen dat het mooie weer een beetje doorzet de komende dagen... zaterdag weer eens een feestje bouwen…
een beetje happy hardcore doet het altijd goed in 😛
hahahhahahaahhaahahh
als niet drinker zaterdag wel gezellig een feestje vieren
zojuist een foto geplaatst
nog circuit park zandvoort
doe jij weer commentaar bij de tudor race op ?
dat was het zeker!!!
goed spul... waterdichte paraplu... ☔️ circuit park zandvoort
zo maar eens droog gaan maken en op naar de droge openingsmeeting van de de…
live on naar huis...
lager omdat het kan corvette
op cocacola rijssenholten
iemand toevallig een a4 stoel in zijn/haar auto? zou graag even proefzitten
jazeker! waarschijnlijk
|live now|
hahahaha
iedereen kijkt naar maar de lezen ho maar...
hahahah had je rustig kunnen doen... had wel om kunnen lachen 😛
kan het zijn dat er een is in de internet verbinding
morgen rond deze tijd mag ie weer van t daglicht genieten!! ☀️ corvette
zojuist ook gemaild kunnen de agenda kleuren in de widget hetzelfde worden als in de app zelf?
ik weet niet zeker of dit wel voor alle leeftijden is hoor
dinges van had moeilijke en lastige verhalen... ik heb voornamelijk gelachen! hahahah
eetcafe de blauwe engel
gezellig een kopje met een met ome jan 👍 oma &amp ome jan
tussen en thv cafe halfweg
succes en veel plezier!! ⚽️
goedemorgen woensdag, goedemorgen zon! ☀️ fijne dag allemaal!! oldenzaal
type foutje in artikel over de trein in ny een van de doedn is de vrouw die in de auto zat.
ach meisje toch... zenuwachtig voor vanmiddag zeker? hihi.. slaap lekker en beterschap xx
het is weer ronnies place
de is weer geslaagd
goeie reis, doe voorzichtig!!
zag er professioneel uit in ieder geval... vond het wel relatief simpel gaan... meneer had geen blijkbaar...
?? 😛 opgeleid persoon bv
en lekker voor de 🔥 mn oom en tante
wat is het grote verschil tussen lmp1 en daytona prototype? zijn allebei gesloten autos toch? motorisch misschien?
misschien een domme vraag, maar waarom praten jullie door de interviews heen?
de winkel naast het onbemande tankstation bedoelen jullie zeker?
jou staat alles blijkbaar
heeft alleen rechts voor gewisseld. waarschijnlijk lekke band?
waarom duurt deze zo lang?? stond toch maar 1 audi een beetje onhandig??
die kerel is geen ei hoor, gewoon een idioot!!! gelijk van de baan halen!!
gaan jullie alle tudor races weer live uitzenden? en de wec races?
ook weer van de partij trouwens?
lekker dan... de livestream op doet het ook niet...
ik ben echt hoor 😛
het is weer
hij zit er weer in! visgilde…
en het is niet eens visgilde kötter
breaking news de vrouw des huizes gaat zo horizontaal...
nu kan het beginnen!
hij zit er weer in!! visgilde…
another mn ouders thuis
die zit er weer in... 🐟 visgilde…
gefeliciteerd kerel!! fijne dag vandaag!! 🍻🍻
hartelijk eerste van de week, maand en jaar!
gaat het nou over ola of joshua... beide worden genoemd 😉
het volle pond natuurlijk... €50 dus...
op die laatste dag van het jaar mocht ie toch nog even naar buiten
het is natuurlijk wel gewoon ronnies place
goeiemorgen deze morgen 😛
heerlijke kerst maaltijd gehad! 😋 kip cocktail, soepje, carpaccio, varkenshaasje met pepersausje,…
heel veel succes de komende week mannen!! groeten ook aan 😃
langs deze weg ook nog gefeliciteerd met je verjaardag 🎉 groeten uit
vandaag alweer een jaar geleden dat mn lieve omaatje is overleden... 😢
bij &amp kings &amp queens zutphen
nog zon mn ouders thuis
de visgilde kötter
weer even op oma &amp ome jan
prevrijdagvisje visgilde kötter
ik mis het zooooooo!!
ons mooie logo opgeleid persoon bv
weer gegeten! het middelpunt
gezellig even bij op visite mn oma
is dit geen nieuws voor jullie??? regionalbahn prallt gegen autotransporter
het is weer zover... visgilde kötter
doe mij de versie maar!
iemand met in gebied
cool... wie rijdt er op de kawa?
beetje wel.... maar ja, beetje vreemd hoeft niet slecht te zijn toch... 😉
zal ie blij mee zijn! haha
succes vanaaf!! 👍
de zit er weer in mensen! bijna visgilde kötter
weer een dagje onderweg vandaag
dat inhaalverbod geldt zeker niet tussen hengelo en de duitse grens of wel😞
weer even gezellig op 😃 cocacola oma &amp ome jan
geweldig! chantal janzen roept boe tegen een zojuist gekookt ei om hem te laten schrikken hahahhahahaha
een dag te laat, maar de zit er weer in! visgilde kötter
aanrijding meerdere autos a35 enschede ri. hengelo vlak voor hengelotwentekanaal
ik zal hem morgen eens een paar pepernoten afhandig maken
das met malle pietje of niet? 😉
op oma &amp ome jan
auto over de kop op de afrit westermaat
afslag hengelo westermaat auto op de kop
gelukkig staat er weer file op de a35 en a1...
wat zijn er aan het doen?
hoi, is er al iets meer bekend? nr 3446731
die verwachting wordt dan niet waargemaakt gok ik zo... nu nog steeds status 2 en het is weekend 😌
zo kom je nog eens ergens... binnenhof den haag
zoiets
zit er soms wel aan te denken... zon ding voor het raam is makkelijker
en als je al bij kootwijk bent mag je gewoon aansluiten denk ik?
hoi enig idee hoe lang de levertijd is van een iphone 6 plus 64gb silver? maandag besteld
chiq met freak begint ook bijna hetzelfde toch??
wat een fantastisch programma
best donker hier op straat in enschede
het is weer visgilde kötter
zie het nu pas... maar heb zaterdag helaas al wat...
yup... vrijdag atv, maandag er maar bij gepakt...
zo, die maandag zit er alweer op... nog 3 dagen tot het lange weekend slaap lekker allemaal
hij zit er weer in mensen... 🐟 de
hahahhaha
was cool om te zien!
nu kan het echt beginnen!!
just completed a 5.79 km bike weer een fijn stukje
de zit er weer in visgilde kötter
hahaha soort van... ik doe alsof... 😉 kan ook best nog wel een uurtje liggen hoor... 💤
goedemiddaaaaaag! 😛
helaas geen radio op kantoor. niks van meegekregen
zal eens kijken...
gefeliciteerd!! 🎉💐
indruk van de aanwezige corvettes op de laatste hcc meeting van het jaar in almelo 2809201 via
wat vieren we??
het is weer zover! visgilde kötter
snap ik wel, en kan er ook wel om lachen, maar kan ook anders zonder zelf schade te maken natuurlijk
weer even op bij ome jan... cocacola oma &amp ome jan
vanmoof
vanmoof
doet ze leuk... 👍
welkom in twente heren 😉
wel jammer dat en in de commercial meer schade aanrichten dan de dame in de bibliotheek kan besparen...
top, morgen al wat te doen?
het is weer mn ouders thuis
daar zijn we weer... visgilde kötter
ik zeg, punt erachter.
just completed a 8.16 km bike zo, weer even sportief 🚲 doen na 2 weken in de auto 😛
zo, weer mooi schoon na een geweldige vakantie 😎👍
zojuist een foto geplaatst
gezellig op visite bij oma erbij en natuurlijk een cocacola 😃 twekkelerveld,…
whahahahahaha de video van
op straat!!
zwaar fucking belachelijk!!!! file op de singels in door een optocht van e.o.a. studentenvereniging op
had je honger? beste tijd
nee was via via. reden onbekend.
zag op fb een filmpje met verzet bij aanhouding door motoragent. pellerspray gebruikt en daarna versterking
die jongen even plakken die band profile tyrecenter…
veel bij winkelcentrum geen idee waarom
thnx! 👍
enig idee waarom we langzaam rijden tot stilstaan op de tussen deventer en rijssen??
doe eens wat aan deze kruising!! gebeurd te vaak wat! twee autos betrokken bij ongeluk in enschede
lekkere oude liveset van 2006 van erop!
nieuwste toevoeging aan ons wagenpark
waarom?
net even over water gelopen 😉 zaandam
goeie vlucht mannen!! 👍