nieuwe collega gezocht commercieel medewerkster binnendienst by on
kleine moeite, hopelijk grote impact! iedere euro kan helpen, dus steun justin.
interesse in een leuke vakantiebaan? gezocht assemblage in
wil je meer weten over onze vacature? vacature assemblage/ productiemedewerker by on
zwijnen bij fc groningen. heerlijk.
nee, dergelijke besluiten worden ondertekend door de directie zij zijn tekenbevoegd. de rvc houdt toezicht op de directie.
goede zaak dat movin train na vele jaren weer in ere is hersteld als goaltune. verder erg moeizaam, maar 3 punten.
zeer goede 1e ledenbijeenkomst gehad. super om de betrokkenheid te zien. dank voor alle steun en vertrouwen.
sorry voor de late reactie. ral 3020, verkeersrood, gebruikten we bij de ultras altijd.
betrokkenheid fans bij opzet nieuw bestuursmodel
alsof dat gat groot genoeg is voor zon enorm voorhoofd.
kinderen kampen met tekort aan vitamine d vanwege gebrek aan zonlicht ad.nl via
vanavond opening van het nieuwe restaurant bistro de stadhouder in hengelo tegenover het…
na new york jfk, la guardia, indianapolis en detroit nu terug naar schiphol. prima trip gehad. morgen weer gewoon in hengelo aan het werk.
er was er maar 1 wedstrijd nba all star match. kaarten tussen 800 en 14000 dollar. het was dat de wisselkoers ongunstig was
vliegtuig in, vliegtuig uit, nieuw vliegtuig... gaat lekker vanavond. verwachte aankomst 2 uur vannacht.
new york was geweldig. zodirect een domestic flight naar indianapolis voor het zakelijke gedeelte van deze reis.
waar in new york kan ik ergens ajax fc twente bekijken? iemand bekend met een leuk sportcafé?
onderweg naar de verenigde staten voor 6 dagen new york en indianapolis. prima combinatie werk en privé.
goed dat die vuurwerkgeluiden flink worden afgestraft. dordrecht ligt ook veel te dicht bij rotterdam.
donderdag 30 oktober hebben we een feestje op het ribbelt van iedereen is uitgenodigd. komen jullie ook?
verplichte autocombi naar achilles uit?! in plaats van rustig na werktijd die kant op te gaan moeten we weer vrij nemen
een bezoekje aan de bouw wordt almaar leuker nu het steeds meer vordert.nu 3 man van aan het werk. erg tevreden tot nu toe!
na een gezellige voetbaldag gisteren nu alweer op vliegveld norwich om op tijd terug te zijn voor de wedstrijd van het jaar.
na het zakelijke, het toeristische en het culturele deel van deze trip nu in de pub voorbereiden op norwich city bournemouth
na de kater van gisteravond nu onderweg naar norwich. ook voor een buitenlandse wedstrijd, maar toch anders dan gehoopt.
dat dan wel weer inderdaad. van dit geld kun je als je geluk hebt alle drie de uitwedstrijden in de poule betalen.
risico valt serieus wel mee. zeiden ze 5 jaar geleden ook, maar niets aan de hand daar. alleen veel militairen.
dat is het, vooral omdat ik er al een keer geweest ben. ga jij die kant nog op?
weer naar baku? vorige keer was geweldig, maar of het me wederom het geld waard is? sterke twijfel.
we hebben het een jaartje moeten missen, maar eindelijk is het er weer lotingspanning!
jazeker. met de auto zelfs. 2x 30 uur. geweldige reis, fantastische boevenstaat, maar chisinau zelf vond ik niet heel bijzonder.
het wordt sowieso een duur geintje. finland of roemenië heeft ook mijn voorkeur. nog 4 uurtjes spanning...
fk rostov wordt een haast onmogelijke opgave. ligt aan de oekraïense grens, vlakbij oorlogsgebied donetsk. tevens visumplicht en duur
twente kan loten tegen qarabag, petrolui ploiesti, zimbru chisinau, helsinki of fk rostov vanmiddag
bekend tegen welke 5 ploegen kan loten. niet bepaald gunstig qua bereisbaarheid
voor die tijd is er nog een voorloting, waardoor er nog slechts 5/6 mogelijke tegenstanders overblijven.
staat altijd onaangekondigd ineens op meestal vlak voor elven, maar het is ook al wel eens eerder bekend.
lijkt me dikke prima! belgië, zweden en polen zijn ook nog te doen. verder vrijwel alleen maar vliegtuig bestemmingen.
normaal is het hoe gekker hoe beter, maar nu steek ik mn geld liever in de bouw. doe maar belgië of hongarije. jij voorkeuren?
eindelijk is het er weer lotingspanning. grote kans op een rotland helaas. hopelijk wordt het een autotripje.
eindelijk lopen de spelers weer gewoon tussen het publiek op de open dag. zoals het hoort. goede zaak!
marian damaschin
vorig jaar zat ditzelfde terras vol tukkers voor de oefenwedstrijd aberdeen fctwente
weekendje mallorca met zuideschmarke 8 vanwege het 10 jarig jubileum. op naar brussel zaventem hopelijk vanmiddag geen stakingen
je vergeet het cricket elftal van gibraltar. dat verloor in 1990, 2 dagen voor dday, van usa. in haarlem nota bene.
bas nijhuis maakt niet zijn debuut in de grolsch veste. in 2008 floot hij het competitieduel fc twente willem ii.
let op politiecontrole aan de j.j. van deinselaan in enschede ter hoogte van cc
mijns inziens absoluut niet.zeer goed positiespel en m.n. barkley is een geweldige voetballer. sterker team dan lfc
heb everton afgelopen week live mogen aanschouwen en was positief verbaasd over het voetbal daar. grote stap vooruit voor tadic.
mooie wedstrijd op anfield road vanmiddag tegen oldham. voetbal was slechter dan gisteren, maar de sfeer veel beter. ook door 6500 away fans
maak je nou liverpool belachelijk? de vrouwen hier zijn wonderschoon. vanmiddag liverpoololdham
mooi middagje gehad met evertonqpr. boven verwachting goed voetbal, prima stadion, maar erg slechte sfeer. verwend publiek.
prima eerste avondje in liverpool. op pad met lokale alcoholisten levert lachwekkende ervaringen op. morgen everton qpr.
begin januari een weekend liverpool geboekt met mn vader. na al die jaren europees voetbal met twente kon het er eindelijk eens van komen.
al bekend hoe laat liverpool die zondag speelt? op internet kan ik het nog niet vinden.
niet bij mij in de auto. alleen mag bij ons in de auto. kaart is wel over, maar zit geen vervoer bij.
nac fc twente in 1996. boerebach vervangt in de 90e minuut westerveld in het doel die met rood is weggestuurd.
24 overwinning bij pw. matige wedstrijd, maar hard gewerkt. doelpunten van domi, kuis, koen en jibbe.
oke. die functie ken ik niet. heb helaas geen idee wat ik tegen dit soort misstanden kan doen.zal hem een mail sturen om te stoppen
heel bijzonder. vraag me af wat ik er tegen kan doen. hoe wist jij dat hij mijn foto gebruikte? volgens mij kennen we elkaar niet.
ik ken geen olaf verhaar. waar kwam je dat account tegen? vreemde zaak. bedankt voor het informeren.
de military was weer gezellig! natuurlijk weer traditiegetrouw geëindigd met flinke buien, maar had het weer goed voor elkaar!
gisteren, bij gebrek aan europees voetbal voor twente, weer eens bij schalke04 wezen kijken. het lekkere eten vergoedde veel, zoals meestal
ik zou vragen. veel goede verhalen over gehoord. en persoonlijk gun ik mijn geld eerder aan een bekende.
slecht@fctwente ontneemt fans de kans om naar het duel tegen te gaan door simpelweg geen kaarten aan te bieden.te veel moeite?
snelweg a35 voor enschedewest even helemaal plat gelegd voor de zoektocht naar, volgens mij, een hond
teleurstellende 00 bij jong twente. leugers, als invaller, positieve verrassing. hölscher behoorlijk tegenvallend. martina matige 1e helft.
wedstrijd afgelopen. 21 nederlaag. ajax was met 10 man sterker dan daarvoor. bednarek sterk, verder weinig bijzonders helaas.
enorme kans voor mannes. knap gered door de doelman.
wedstrijd is nog gewoon bezig hoor. zitten 2 minuten in blessuretijd nu.
twente wordt een 100 procent penalty door de neus geboord. kuiper protesteert terecht, maar krijgt daar zijn 2e gele kaart voor. schandalig!
twente wordt een 100 procent penalty door de neus geboord. kuiper protesteert terecht, maar krijgt daar zijn 2e gele kaart voor. schandalig
21 in de 84e minuut. knappe schuiver peters.
20 achter. doelpunt van lazic.
rode kaart de kamps. twee keer geel. 10 nog.
jong twente 10 achter. terechte achterstand helaas.
na mvv uit nu ook naar jong ajax uit. eigenlijk alleen vanwege het mooie nieuwe poolse cult uitvak
geweldig he. prachtige uitdagingen. ook psv heeft niets te klagen. 6 landen waar we met twente nog niet zijn geweest
wie zet dit soort troep op twitter? om je dood te schamen.
prijs bestaat bijna geheel uit buskosten de combi heeft helaas een legitieme reden.eens met maar gaat nu niet op
heerlijk terugkomen van vakantie dit. seizoen geslaagd.top wedstrijd met uitblinkende castaignos, ebicilio en eindelijk een normale scheids
nope, ik en rotterdam is niet zon geslaagde combinatie. uit zelfbescherming blijf ik dus thuis. derhalve vandaag wat goedmakertjes
bij cercle brugge speelt een alleraardigste linksback. misschien iets voor
bij jong twente neem ik aan? behalve een achttal dat in de buurt een weekend weg was leken wij de enige twee
na mvv jong fc twente nu ook lierse sk cercle brugge meepakken met prima stadion met een aanzienlijk leukere sfeer dan bij mvv
gezellig middagje mvv met dankzij jong twente. de protesten van andere clubs zijn terecht, maar voor ons zijn dit leuke uitstapjes
toch nog een vakantie geboekt. morgen voor 8 dagen naar carvoeiro algarve met even relaxen voordat de nieuwbouw echt start.
het is weer een typische europese trip. prachtige dagen tot nu toe,behalve de wedstrijd. moet nog een hoop veranderen in 1 week tijd
00 is het maximale resultaat. speelden de eerste helft best redelijk, maar creëren te weinig en benutten nog minder
moet jij niet eens slapen als je morgen op vakantie gaat? wij zijn weer in een casino beland aangezien de rest gesloten is.
het ergste is nog.zoveel beter was malmö niet.lui krijgen 9 kansen en schieten er 7 in. onnodige nederlaag
thnx. net een vette wedstrijd meegepakt.hibernianmalmö. prachtige sfeer aan het begin van de wedstrijd,maar 07 nederlaag d
avondje groundhoppen in edinburgh. hibernianmalmö. het begon hoopvol,maar het wordt de grootste nederlaag ooit07
aan het begin van de wedstrijd was er nog hoop. prima stadion en sfeer, tot de 01
geland in edingburgh. winderig en nat,zoals het hoort in schotland. vliegtuig vol voetbalsupporters. vooral gladbach naar celtic en twente
lijkt me een goed plan.goedkopere tickets en een goede voorbereiding voor de 2e seizoenshelft waarin we traditioneel goed presteren
onderweg naar schotland. bij gebrek aan europees voetbal zijn dit soort tripjes perfect. oefenpotje tegen aberdeen
vlag kan uit. fer naar norwich en er nog geld voor gekregen ook. vanaf het begin een belachelijke aankoop gevonden.
voor jou is elke plek in het stadion toch een slechtzichtplek? dacht dat die altijd voor de helft van het geld waren
van persie staat niet alleen bij the times op de voorpagina van het sportkatern via
helaas geen treinreis langs alle geweldige lower league dorpjes als petersborough en cambridge, maar rechtstreeks naar norwich
nu al bijna 2u vertraging op een vlucht van 50 minuten. volgende keer maar gewoon weer lekker cheap met ryanair of easyjet ipv klm business
ga je om 5u uit bed om ruim op tijd voor de vlucht naar norwich te zijn,wordt het boarden halverwege gestopt vanwege een technisch mankement
kaarten voor jurk morgenavond in het wilmink theater zijn verkocht. iedereen bedankt voor het retweeten. veel plezier!
2 kaarten over voor de uitverkochte voorstelling van jurk dinsdag in het wilmink theater. te koop voor €25 per stuk. iemand interesse?
wat een eng mens die thieme.normaal discussiëren is onmogelijk met zon zelfingenomenheid. haast een reden om juist meer vlees te eten
je laat hopelijk wel je ijsbeerpak thuis? leuk voor tijdens de optocht of een feest,maar hoort niet thuis in een voetbalstadion!
is het al duidelijk wanneer het overzicht door dhr. plasterk verstrekt wordt?
nieuwe collega gezocht. bij ultrasun in medewerker internationale verkoop. please
sir alex ferguson plaatst zonnebanken om het vitame d niveau ook in de winterperiode op peil te houden via
43 in sets voor van gerwen. 22 in legs. van gerwen nu aan de beurt.
gezellig zaalvoetbaltoernooi van ultras gelsenkirchen achter de rug. helaas kwartfinale nipt verloren van latere winnaar gelsenszene
edwin vurens, marco van vuure, marcel brands, kevin brand, timo hildebrand en natuurlijk de gehele selectie van chicago fire
een avondje dineren in het frans is een uitdaging, maar het was een erg gezellige avond bij umami. voortreffelijk gegeten wederom.
nostalgie! de keeper van rvvh is niemand minder dan jacob van den belt. cultheld vanwege doto fc twente in 2006.
volgt in de loop van de middag. over het algemeen als eerst te vinden op de website van de uefa. fcwente.nl enz. volgen later.
prima loting. ik kan er weinig anders van zeggen. goede herinneringen aan zweden, duitsland mooi goedkoop en levante is ook geen straf. top!
top. hannover. goed voor de portemonnee, de vrije dagen en ook sportief niet de allerzwaarste tegenstander. nog 2, duimen voor autotripjes!
leuk dat ze al die spelers voor ons opleiden en ons kleine broertje lijken te worden,maar het is wel een enorm kutbroertje!
de kans op een gunstige loting is er zeker. veel autotrips. hopelijk geen oekraine, rusland, turkije, portugal en azerbeidzjan
iedereen is blij behalve hij.wat een avond en wat een sfeer.het best mogelijke antwoord op de sfeer die er in bursa was
thnx.jij ook. als je vraag was of ze er zijn weet je het nu,maar blijkbaar hebben ze zelf geen behoefte naar buiten te treden
wat heb je er aan om te gaan pronken met je netwerkclubs bij mensen voor wie ze verder niet interessant zijn?
typisch twents om te veronderstellen dat wij achterlopen ten opzichte van andere gebieden. we onderschatten onszelf onnodig.
mijn conclusie ze zitten er niet op te wachten om in de openbaarheid te treden.houden het mooi intern. zijn er wel namelijk.
waarom heb je jezelf nog niet vastgeketend bij het stadion om de teneergang van kufo te redden?
opmerkelijk ed janssen, 8 jaar lang jeugdspeler van vvv venlo, fluit komende zondag fc twente vvv
leuk die europa league, maar deze trip speelt zich toch echt in azië af. nu geland in istanbul. nog 2 uur met de bus en een uur met de boot.
onderweg naar turkije waar we rond 5 uur vannacht landen, maar na 1,5 uur in de auto wanen we ons al in turkije
samen met de nacht van woensdag op donderdag vliegen we om 2u richting istanbul, daarna met bus en boot naar bursa
zijn we er toch weer ingetuind. volgende week toch maar naar bursa voor alweer de 4e europese trip dit anderhalf maand oude seizoen.
huis van mn opa. ideaal voor mensen die graag klussen en in lonneker prachtig in de natuur willen wonen
wat een rotloting. er zaten zoveel mooie bestemmingen bij, maar helaas. wordt tijd dat twente wat minder europese uitwedstrijden speelt.
avondje stappen in dresden. tegen de verwachting in een behoorlijk linkse stad. morgen door maar mlada boleslav en stappen in praag.
neem aan dat je m inmiddels ontvangen hebt? de passen zijn verstuurd en zelf heb ik m gisteren ook ontvangen.
nee, derde race inderdaad gewonnen, maar zonet op plek 3 geëindigd in de vierde race. in de tussenstand nog wel vrij ruim aan kop.
dramatische olympische dag voor nl tot nu toe. bosch, verwijlen, holland acht en vos stellen teleur. ook van rijsselberge nu slechts derde
prima begin zo. 10 fer en 20 plet. altijd weer die negers.
na 2 dagen andorra,2 dagen barcelona en 8 dagen calella nu nog even twee daagjes parijs. heerlijk zon vakantie.helaas morgenavond naar huis
eerder deze week de trip naar turku geregeld en zonet ook een hotel in boreslav geboekt. qua hotelaanbod net zo dramatisch als enschede.
tsjechië of ijsland dus. perfecte loting! lichte voorkeur voor ijsland. hup twente!
lotingspanning, ook in calella. zitten wat geweldige tegenstanders bij. vooral natuurlijk israël en ijsland, maar ook noorwegen en tsjechië.
aangekomen in andorra na 3 mooie uren door de pyreneeën. best flink stadje nog. flink decadent ook, net als ons perfecte hotel.
na een voorspoedige reis nu een terrasje pakken in beziers. ruim voorbij montpellier, dus morgen nog maar een klein stukje naar andorra.
na een positief gesprek met de architect en het pakken van de koffers zijn we klaar om op vakantie te gaan. andorra here we come
kaarten voor donderdag zijn binnen. thnx to voor de service. wel best prijzig voor een amateurclub.
jups. 20,20,10,00,31 in de poule. 1/4 fin 20, 1/2 fin 00 w.n.s., finale 11 v.n.s.. zon klein goaltje gaat me beter af
ik mocht het doel verdedigen. 6x de nul gehouden en de halve finale tegen uge gewonnen na penaltys. meesten zijn nu nog in dld.
weer thuis na een erg geslaagd voetbaltoernooi van de ultras gelsenkirchen in arnsberg. knappe 2e plek. finale verloren na strafschoppen.
heb je die zelf thuis? of neem je m mee richting de us of a komende weken?
vanwege de elloting ga ik woensdag al op vakantie, dus dit weekend nog snel op zoek naar wat interessant/leuk leesvoer. wie heeft er tips?
wanneer je iets communiceert,zorg dat voor kloppende info. net langsgeweest,maar de kaarten voor santa coloma uit zijn er nog niet
25 euro ! kosten de kaarten voor de uitwedstrijd in andorra. als we met 300 man gaan hebben we dus hun hele stadion betaald.
breukers is toch ook pas officieel per 0107 in dienst toen liep zijn contract af. verwacht overigens dat je gelijk hebt.
is twente vergeten dusan tadic in te schrijven voor de voorronde europa league of is de lijst van de uefa onvolledig?
onderweg naar nunspeet voor een dagje op de golfbaan. ben benieuwd welke auto er voor me klaar staat wanneer ik een holeinone sla.
uitgaande van de uefawebsite lijkt het er op dat 19/07 thuis speelt tegen inter turku en 26/07 uit.
5 juli is thuis, 12 juli in andorra. tweede ronde is nog niet bekend of het eerst thuis of eerst uit is. wordt morgen pas bekend.
nog niet. eerste de data even afwachten en kijken hoe ik mijn vakantie,die ook in juli moet vallen, er in kan passen. mooie puzzel
valt mee toch. 2 uur rijden vanaf helsinki. tallinn zou wel een leuke optie zijn. die boot schijnt bijzonder gezellig te zijn.
finland, ook een mooie bestemming! wederom een tegenstander waar ik met twente nog niet geweest ben. hopelijk eerst uit.
wachten op de loting voor de 2e ronde. hopelijk eerst de uitwedstrijd. of een tegenstander waar ik direct een vakantie van kan maken.
beide. je moet de volledige route soleil af. veel tolkosten. denk dat vliegen handiger en goedkoper is.
vliegen kun je denk ik het beste doen op girona. over het algemeen goedkoop en vrij dicht bij andorra. auto is 15 uur en duur.
veel meer dan 899 zullen er ook wel niet gaan weinig uitdagend dit keer, maar iig een goedkoop begin van een lang seizoen
andorra it is. niet de uitdaging die ik gehoopt had, maar prima mee te leven. sowieso prachtige tegenstanders in deze rondes. love it!
hij is er weer, de lotingspanning. heerlijke tegenstanders! gaan weer mooie uitdagingen worden. mijn voorkeur 12 juli uit naar malta.
in rotterdam geweest om te kijken bij het nk waaraan kim meedoet. direct de stad maar een beetje opgeknapt.
onderweg naar een bespreking bij onze uk vestiging.mooie treinreis langs voetbalbolwerken petersborough, leicester en cambridge
dagje naar engeland voor het werk. absoluut geen vervelende tripjes natuurlijk, maar een wekker om 315 uur is toch niet heel fijn.
over 2 weken begint het weer. oefenwedstrijdje enter fc twente, eindelijk weer echt voetbal en een eind aan deze voetballoze periode.
nu nog even de ze8 ek pool invullen en je kunt inderdaad starten met een mooie sportzomer!
hij is er weer.de ze8 ekpool! kijk op voor meer informatie en meld je snel aan!
henk jonge poerink toernooi was weer erg geslaagd! thnx to alle vrijwilligers, deelnemers en bezoekers! op naar de 6e editie in 2013.
phenix wint voor de derde keer op rij het henk jonge poerink toernooi. gefeliciteerd! nu tijd voor een gezellig feestje.
op naar zuideschmarke. over 2 uur start de vijfde editie van het henk jonge poerink toernooi. wederom onder tropische omstandigheden. top!
door late afmeldingen nog 2 plekken vrij voor het hjptoernooi komende zaterdag bij zuideschmarke.wie vult ons deelnemersveld aan?
niet getreurd bart. mocht je geen andere club vinden kun je altijd bij ze8 linksback worden. of spits, als je dat liever wilt
massaal onder de zonnebank. voor een gezond kleurtje en de vitamine d. via
laat de spelers die komend jaar nog bij twente spelen nu mooi met vakantie gaan en speel de playoffs met jeugd en spelers die toch weg gaan.
old skool voetbal kijken in de regen.
1 kaart over voor vvv uit vanmiddag. 11 uur vertrek vanaf grolsch veste. wie o wie? please rt.
rust zacht heel veel sterkte toegewenst aan alle nabestaanden. ontzettend veel respect voor de wijze waarop ze heeft gestreden.
na noordhollander vink bij azfc twente mag nu liesveld, geboren op 10 km van de arena, zijn best doen twente punten af te snoepen
wanneer je in rotterdam komt besef je direct waarom je hier het liefst nooit komt. laat excelsior maar snel degraderen.
helaas geeft de uefa na de winterstop geen nieuwe tussenstanden. in nederland stonden we onlangs nog altijd eerste.
als ik zie tegen wie fulham vorig jaar allemaal voetbalde hoop ik dat fc twente via de fair play cup europees voetbal haalt.
aanwezig bij de extra ingelaste ledenvergadering van zuideschmarke. niet verwacht, maar erg positief. hulde!
fox, waar is het mis gegaan? 10 jaar geleden nog bestuur ultras, nu reclame maken voor gedrukte doekjes?
waarom hoor ik niemand over vink? deze scheidsrechter uit noord holland kost ons wederom 2 punten. bedankt knvb.
let op alkmaar gangers. flitser op a35 bij hm paal 64,8. net voorbij de grolsch, richting hengelo. uitwedstrijden zijn al duur genoeg
adriaanse haalde 33 punten uit 17 wedstrijden 1,94 p/w, mcclaren 22 uit 11 2,0 p/w. misschien moet verbeek zelf eens op rekenles?
elke keer dat ik naar universiteit nyenrode rijd prijs ik me weer gelukkig dat ik niet in de randstad woon/werk.wat een ellende al die files
waarom heeft bosz zn team niet gewoon wijsgemaakt dat ze tegen speelden?dat zijn de enige wedstrijden waarin ze gemotiveerd zijn.
laatste 37 kaarten voor az uit moeten vanochtend toch verkocht kunnen worden? kaartverkoop nog tot 12 uur zorg dat het vak vol komt!
nog 73 van de 750 beschikbare kaarten te koop voor komende woensdag. haal je kaart vandaag of morgenvroeg uitvak moet vol!
vink uit noord holland fluit azfct van boekel uit brabant fluit bekerfinale. waarom mogen kuipers/nijhuis fc twente dan niet fluiten?
nee, ging bij mij wel goed, behalve dat ik eerst het volledige relatienummer invulde. de laatste drie cijfers moet je weglaten.
ik heb mijn fc twente seizoenkaart verlengd en ben er weer bij. ondanks de schandalige algemene voorwaarden!
seizoen verloren. hopelijk voor mcclaren worden we 6e, hebben we al die zware europa league potjes ook niet meer.
dat zie ik als wiedergutmachung. voor de oorlog. bovendien tellen voor mij maar twee wedstrijden écht feyenoord uit en thuis.
vriendschap met schalke04 dikke prima, maar tijdens en direct na de wedstrijd kan ik het echt niet opbrengen hoor. nu op naar düsseldorf.
excuses zijn niet nodig hoor. zie het als een gratis tip voor een volgende keer. hopelijk dan ook met 3000 man op pad.
geef die stagiaire even een pak slaag. mclaren kan écht niet hoor op de officiële website.
raar dat zoveel mensen er morgen een dagtrip van maken.iedereen weet toch wat de europese tripjes écht leuk maakt?
iets voor jou? collegas gezocht bij hbostudie afgerond en werken als intercedent?laat het me weten
helaas, psv 31 achter, dus einde rutten. helaas 10 duels te vroeg. heeft als psv trainer veel voor fc twente betekend.
waarom de kaartverkoop niet ook morgenavond? zal voor velen een extra ritje richting stadion schelen
meer dan 8 uur reizen voor een potje voetbal.dat lijkt haast op een europees tripje. hopelijk is nu niet de wedstrijd het dieptepunt
de schoonfamilie overtuigd om toch maar wat eerder naar huis te gaan. rechtstreeks vanuit sölden naar eindhoven voor psv fc twente
meen je niet. wat zuur zeg. ik heb mijn laatste afdaling er net opzitten. hoe ga je naar huis? sterkte ermee.
succes gewenst vanuit oostenrijk. wordt tijd de negatieve reeks te verbreken
je ziet ze ook overal
haha. wie zijn er allemaal dan? al 11 man?
wie van ons hebben allemaal kaarten?
mooi weekje schnitzels eten, potje kaartje, biertje erbij en tussendoor een beetje skiën
ik heb u een email gestuurd en ga de discussie natuurlijk niet uit de weg. complimenten voor het snelle antwoord.
mooi staaltje symboolpolitiek. het falen van je pvda collega proberen te maskeren door mensen te veroordelen zonder proces
dames, wat zou er geloot moeten worden als je al weet wie de tegenstander is?
voor een derde helft heb je wel eerst een 1e en 2e helft nodig. dat gaat lastig met zon opkomst als dit jaar.
alweer op het vliegveld voor de terugreis. opnieuw ruim op tijd. als je niet beter wist zou je denken dat we verstandig worden.
rustig middagje in boekarest. uit zelfbescherming nog maar niet de kroeg in. 10 uur is ook veel te laat voor een wedstrijd
bubbelbad, massagedouche, 3 slaapkamers, grote woonkamer. en dat voor 15 euro. dan is 5 uur vertraging snel vergeten. mooi land dat roemenië
bij meer dan 5 uur vertraging 1930 uur krijgen we het geld terug. ik gok dat we op papier om 1929 uur vertrekken. op naar boekarest.
kroegje in charleroi opgezocht aangezien er op het vliegveld weinig te beleven was. wat een pauperstad, maar wel bier voor 1,60.
zijn we eindelijk eens op tijd op het vliegveld, blijken we maar liefst 4,5 uur vertraging te hebben. flink balen. achtergesteld rotland.
hehe, ik test gewoon graag hoeveel km ik nog kan rijden als de meter 0 aangeeft. gaat tot nu toe nog altijd goed.
ik zie het anders. aangezien de wedstrijden vaak het dieptepunt zijn van een europees tripje gooi ik ditmaal slechts 8 euro weg.
waarom maakt iedereen zich zo druk over het wel/niet door gaan van steautwente donderdag? dit soort zaken maken tripjes juist leuk
waarom geen cu2 of dreamcommunity? we like it oldskool was het toch?
instellingen en dan naar meldingen. waar ik gek van word is mensen die hun priveberichten melden via een algemene vakp account
ik heb het geluk dat ik alles van de schoonfamilie kon lenen. hoefde alleen schoenen te huren. kostte 24 euro voor 3 dagen.
terug van een erg gezellig lang weekend flachau. nu 3 weken herstellen en dan weer 8 dagen op de skis. tussendoor nog 3 dagen boekarest.
jazeker. nog een uurtje of 3 en we zijn thuis. nieuwe skis gekocht? duur geintje?
ga ik regelen. goede zaak dat ze wedstrijden aflasten wanneer ik een keertje niet kan.
ze weten wel welk flesje bier ze mij moeten geven
alleen al om mn pa jaloers te maken bestel ik elke keer de riesenschnitzel. skiën is mooi,maar alles er omheen zeker net zo
als ik iedereen zo naar beneden zie gaan lijkt het echt simpel,maar viel aardig tegen.gelukkig begin ik het nu een beetje te leren
gewoon gaan met die banaan. vind het al erg genoeg dat kindjes van 5 jaar beter skiën dan ik, haha. en zo gaat het nog best.
vanochtend was ik het helemaal zat. ging voor geen meter, maar inmiddels gaat het gelukkig boven verwachting.
pow, dat valt best tegen zon eerste dagje skiën. gaat letterlijk met veel vallen en opstaan. positief nog steeds niets gebroken.
onderweg naar flachau. over een uur of 8 op de piste. voor het eerst in mn leven op skis, dat gaat wat worden.
mooie maand voor de boeg 3 dagen flachau, 3 dagen boekarest en 8 dagen sölden. overigens wel na 38 dagen achtereen gewerkt te hebben.
almelo niet ver? als fctsupporter zijnde is 4u reistijd voor een duel in almelo heel normaal, dus waarom zou plet het beter hebben
vroeger speelde hij onder pseudoniem bep bakhuys, nu komt hij er eerlijk voor uit.
mijlpaal in de historie van de eerste gekwalificeerde mongool deed vanmiddag mee. helaas zonder succes. nipte nederlaag tegen phenix
eindelijk weer eens echt zin om naar te gaan. hopelijk weer strijd en passie op het veld,wat over zal slaan op de tribunes
slimme actie om het stadion vol te krijgen.hopelijk komen dergelijke acties er ook eens om bezoek aan uitwedstrijden te stimuleren
benieuwd naar de ontvangst van janssen zo. te enthousiast hoeft wat mij betreft niet, maar uitfluiten zou jammer zijn
goed lezen jelle. het gaat om het aantal doelpunten in een kalenderjaar, niet in een seizoen. van persie heeft dus nog 4 duels.
bij zon realbarcelona worden meer fouten gemaakt dan bij n twentenec. en dan hebben ze ook nog geen janko om de wedstrijd open te breken
ga jij die kant nog op? ik wacht eerst op een voorstel van kleine kans dat ik naar de wedstrijd zelf ga.
wanneer zal met een fatsoenlijke reactie over polen komen? tot nu toe steken ze de kop in het zand en laten ze 80 man mooi stikken
enig idee of de wedstrijd van vanmiddag door gaat?
thanks! vanavond de fanshop maar even leeg kopen voor een goede start.
trots! zusje bevallen van zoontje, duuk. aanmelding kidsclub fc twente is geregeld,helaas mag hij vanavond nog niet mee naar fulham thuis
ik gun ruiz een prachtig afscheid,maar die gesponsorde handjes zijn echt niet om aan te zien.whats next? klappers?
de ongeïnteresseerde houding van co adriaanse slaat over op zijn spelers en helaas ook op het publiek. tijd voor passie en beleving!
vanavond vanaf 8 uur 90s party bij zuideschmarke. terug naar de tijd van captain jack,de spice girls en natuurlijk de happy hardcore!
zonet een optie genomen op een kavel voor wonen aan het park op boddenkamp. kijken of we de uitdaging aan kunnen en willen gaan.
75 overwinning op bwo. dat was dan direct ook het enige positieve van deze middag.
okee okee. ik zal mezelf vragen of ik vrij kan krijgen. denk dat ik maar eens een keertje coulant moet zijn. hopen op israel.
overwinteren in europa, daar zal de baas blij mee zijn.
dat was inderdaad het jaar van boekarest, maar de reden dat ik het zei is omdat ik er zelf met 2 volledige paginas in sta, haha.
netjes dat je nog een verlaat verjaardagscadeau stuurt! overigens is het boek in europa 2009/2010 aanzienlijk mooier
adriaanse, leuk zon spectaculaire wedstrijd, maar ik zie echt liever 3 punten. tijd voor evenwicht en vastigheid in de opstelling!
42 winst op koploper wilhelminaschool. heerlijke wedstrijd. natuurlijk is vanavond nóg belangrijker.
dat is super. zal ik zorgen dat één van ons bij jullie fluit. we spelen tegen de koploper, dus wordt een leuke wedstrijd. 1230 uur
thilo leugers bewijst vandaag het zoveelste ongelijk van co adriaanse. aub snel op linksback en leugers gewoon op het middenveld.
helaas geen trainingskamp naar dubai/qatar, maar gewoon naar gran canaria. ook niet verkeerd natuurlijk, maar niet waar ik op gehoopt had.
wederom onbegrijpelijke keuze van co adriaanse.leugers hoort niet op linksback en buysse is minder slecht dan tiendalli
mooi dat scoort voor jong twente. hoop dat hij weer net zo snel in de basis verschijnt als dat hij verdween bij het eerste elftal
mooi, 11. houden zo.
kut, 01 in de arena. hup ajax!
een wedstrijd tegen voormalig aartsrivaal groningen, maar tegenwoordig is meer dan 25% van het uitvak vrouw. tijden veranderen..
keurig! prima oplossing voor beide partijen. bij ons liep het ook storm.had er nog 200 kunnen verkopen,maar helaas uitverkocht
sjaals voor bibi vanmiddag rond 3 uur al uitverkocht bij de albert heijn in het miro centrum. totale opbrengst € 4.014,70! iedereen bedankt!
de laatste doos 125 stuks is aangebroken. bijna 700 stuks al verkocht. kom dus snel naar de miro in enschede voor de laatste bibi sjaals.
vanaf 10 uur gaan bij het miro centrum in enschede de laatste 300 twente sjaals voor bibi in de verkoop. gisteren ruim 500 verkocht! opop
ter herinnering vandaag en morgen zijn bij het miro centrum in enschede albert heijn de twente sjaals voor te koop. please rt
de mooie tenten niet in kunnen doordat er nu ineens 2000 man mee is,maar toch een erg gezellige avond gehad. gelukkig ook veel goed volk mee
het wordt tijd dat twente zijn supporters een cursus hoe gedraag ik me buiten het dorp aanbiedt. verder erg gezellig,maar sommige mensen..
zit je rustig een biertje te drinken, komt de me volkomen onnodig provoceren. ook hier snappen ze niet dat ze zo enkel onrust uitlokken.
tip blijf van het odense bier af. weliswaar het goedkoopst, maar het is niet te zuipen.
denk je aan te komen op een tijdstip dat de gezelligheid op zn hoogtepunt is, blijkt de hele stad dood te zijn.
ruim 12 uur na vertrek aangekomen in odense. sommige mensen passen de hoeveelheid drank aan aan de reistijd, wij de reistijd aan de drank.
schiet mooi op deze reis. ruim 7 uur onderweg en we passeren net bremen. in dit tempo redden we de wedstrijd net verwacht ik.
zolang je niet bij elk casino stopt gaat het goed. inmiddels de 5e gokhal na 169 km. qua drukte heb je weinig te vrezen.
bijna 5 uur onderweg en nog geen 150 km van enschede. waarom hebben we in vredesnaam een hotel in odense geboekt voor vannacht? d
odense gaan we nooit redden vanavond. inmiddels heeft iedereen winst en wordt het meer en meer. zal al blij zijn wanneer we hamburg halen.
en ook de tweede gokhal verlaten we met winst. soort van wiedergutmachung. alleen onze duitser 4045 euro verlies.
een half uurtje onderweg en het eerste casino doemt op, dus het wordt laat voordat we in odense aankomen vannacht.
ook all stars 2 old stars is een topfilm. kan natuurlijk niet tippen aan deel 1, maar zeker een film die je gezien moet hebben.
vanavond met en naar all stars 2 old stars. deel 1 is natuurlijk niet te overtreffen, maar ik heb er zin in!
fulham verliest met 20 bij stoke city. bryan ruiz niet eens ingevallen. schwarzer erg slecht bij voorzetten, moet twente gebruik van maken.
match of the day kijken op bbc als overbrugging, daarna wk rugby. mooi zon nonstop sportnacht en ochtend. beetje olympische spelen gevoel.
en ondertussen wint wereldkampioen vettel nog even een gp bij de formule 1. maargoed, daar doen geen nlers aan mee, dus dat volg ik niet.
ook epke zonderland maakt 1 grote fout waardoor hij directe plaatsing mis gaat lopen. waarom is het bij nlse turners toch altijd net niet?
jeffrey wammes 8e van de 8 bij de wk finale sprong. persoonlijk vind ik het feit dat ik nog altijd wakker ben een knappere prestatie.