ik las een klein stukje over uw column over twente maar rutten won de beker met twente in 2001 en dat was de tweede prijs na 1977
gewoon een correcte actie van castro. zeker geen penalty
geel meer dan terecht voor propper.
gewoon een terechte penalty
ik verbaas mij dat er op de app staat dat ik mijn pakje ontvangen heb terwijl dat niet zo is. en ook geen kaartje van de bezorger.
vraag ik me ook af maar in de periode dat hij bij twente speelde hielp het niks want ziyech werd er alleen maar beter van.
trouwens wel een onsportieve actie van neres om geel te gaan vragen
de heerenveensupporters leren ook niets. ziyech wordt juist alleen maar beter als je hem uitfluit
wat bezielt die van weert zeg. terechte rode kaart.
de speler die scoorde stond geen buitenspel. en die andere nam geen deel aan de aanval dus gewoon een terecht doelpunt
rood niet nee maar geel had wel gemogen. hij komt wel wat lomp in.
wat een begin voor heerenveen
wat een bende in dat huis en in de tuin.
zou wel mooi zijn
klopt, maar nou is manchester city en napoli toch wel van een ander caliber dan willem 2.
dat wordt een flinke afstraffing voor willem 2
geel was voor chirivella
terechte gele kaart
en zeer terecht ook. belachelijke actie
schandalige actie hadouir. gewoon een doelbewuste tackle op de man
kijk eerst naar de verdediging. die laat mohktar ook zo lopen.
jammer dat je weggaat k zal je missen. veel succes voor de toekomst 👍👍
was geen buitenspel. horsfield heft buitenspel buiten de cameras
nee hoor buiten de camera stond horsfield nog en die heeft buitenspel op
tuurlijk was de gele kaart van te wierik terecht maar dan moet je ziyech ook geel geven
zeker geen buitenspel
lijkt op geen buitenspel
ado was nog wel een tikkeltje erger
wat een goal van jensen
moeten ze natuurlijk ook de andere kunstgrasvelden aanpakken
gewoon belachelijk dat kunstgras nog mag in de eredivisie
snap je wel maar je kunt beter al het kunstgras verbieden. voetbal hoort op echt gras.
schandalige actie gustafson
kom op zeg. een keeper die kramp heeft. serieus
pec begint goed aan de tweede helft
stond ehizibue vorig jaar niet in de aanval?
wel dramatisch verdedigt bij roda. marcellis kan zomaar vrij lopen
dat heb je met kurk. het ziet er echt waardeloos uit
dat kurk maakt het veld bij pec wel heel lelijk
ben ook geen voorstander van kunstgras maar daardoor hebben ze niet verloren. slap excuus
een ding is zeker heracles heeft een hele goede keeper. die is vandaag zeer belangrijk geweest
heb je het veld van vvv nog niet gezien nog slechter met al die opspringende korrels
fout van bizot
ik zag de herhaling maar ik schrok ervan.
denk wel meer dan alleen die kruisband
douglas costa speelt voor juventus niet voor inter
krankzinnig dat gorter geen kaart kreeg. slaat werkelijk helemaal nergens op.
lijkt me een wonder als er geen rode kaart gaat vallen in deze wedstrijd
kan meijers wel boos doen om zijn gele kaart. maar is gewoon een oliedomme actie en ja dan kan je die kaart verwachten
het is wel buitenspel van dessers
ja alleen die speelster van denemarken had hem ook 100% verdiend
schandalig dat hier geen kaart voor gegeven wordt
geen twijfel over mogelijk 100% penalty
tja als belgië scoort gaat er een fout van een keepster aan vooraf want de noorse keepster zag er tegen belgië ook al niet goed uit
tja dat kan iedere voetbalster of voetballer overkomen
ja dat is het maar die belgische was gewoon te laat en dan is het een penalty
het is gewoon een 100% penalty heeft niks met dat geklaag te maken van jou
ach joh die belgische verdedigster was gewoon dik te laat.
wat zouden de belgen doen in dezelfde situatie? ik heb trouwens dat tijdrekken nog vele malen erger gezien.
dit was absoluut geen schwalbe die verdedigster was absoluut te laat
laat staan dat de 01 buitenspel was is het de tweede fout van de keepster.
kvasina is van fc twente en gjorgjev is een huurspeler
neem aan dat je de reden ervoor weet?
ado is groen/geel dus lijkt totaal niet op elkaar
lijkt totaal niet het shirt van ado
verschrikkelijke beelden om te zien.
jij hebt zeker heel wat gemist
al sinds een tijdje toen sjoerd terug kwam had hij teddy mee
geen twijfel over mogelijk. terechte rode kaart
waar heeft ziyech last van
wat een geluk voor roda. maar met dit voetbal verdiend roda het niet om eredivisionist te blijven.
ja dat klopt. maar die tweet was niet lelijk bedoeld hoor
niet lullig bedoeld hoor, maarja ik heb het nog gezegd en je noemde me een grapjas. nou ik had toch gelijk.
en toch liep het even anders dan je had verwacht.
ja dat wel maar utrecht dan?
maar moge de beste winnen en europa in gaan
ik vind het gewoon gek dat een club wat 19 punten minder heeft dan utrecht alsnog europa in kan. is niet bepaald eerlijk
ja er is maar één club die het over het hele seizoen verdiend en dat is fc utrecht
terechte zege groningen. maar in de play offs zijn ze kansloos
maar ik snap de irritatie over de haan wel.
wtf unal maakt helemaal geen hands. belachelijke beslissing van de arbitrage.
den bosch supporters gooiden enkele jaren geleden ook vuurwerk in een vak met kinderen bij twente in de beker.
als club moet je je toch doodschamen voor je eigen supporters. krankzinnig gedrag
voor een paar jaar geleden in de beker tegen twente gooide ze ook al vuurwerk en in een vak met kinderen.
handje aan 1 stuur doe ik ook wel eens maar heb dan geen mobiel in mijn hand.
ik heb respect voor de fans bij gae. die blijven gewoon achter het team staan iets waarbij…
go ahead moet wel winnen aan een puntje heb je niks aan.
az wint wel maar terecht is het niet. maar als ze spelen als vandaag wint az de beker niet.
eigen schuld dikke bult is het zeker
havenaar stond bij lange na geen buitenspel. arias stond daar nog. gewoon een geldig doelpunt
het enige wat hij zei was dat hij het rot voor de supporters vond. maarja als supporter heb je daar niks aan
munsterman wil alleen maar zieltjeswinnen want hij heeft zogenaamd helemaal niks fout gedaan
nee ik had al begrepen dat hij in zijn boek de schuld aan anderen gaf en hij wist niet aan wie hij zijn excuses moest doen
ik kijk puur omdat die munsterman er zit. ben benieuwd wat hij te vertellen heeft. ik denk dat het een soort zieltjeswinnen wordt
ik ben tegen hem omdat hij het normaal vindt om ff te gaan dreigen om iemand over de reling te gooien.
die man is psychisch echt niet helemaal in orde. je krijgt het gevoel dat die man tot alles in staat is.
volgens mij spoort die man niet helemaal kan best geloven dat gestamp vervelend kan zijn maar om nou zo…
vraag me af wat voor nut het heeft gehad om de koning te ontslaan en maaskant aan te stellen.
en ik wil daar helemaal niks mee te maken hebben. 2/2
ik ook niet ik zit op de tweede ring maar ik moet het stadion links naast de hoofdingang verlaten. en…
ik heb al jaren een jaarkaart maar dit heb ik nog nooit meegemaakt.
sorry daarvoor ik lees nogal vervelende reacties omtrent het gedoe in het stadion. ik begreep het ff ve…
twente heeft zich in ieder geval al versterkt met die keeper van nac jorn brondeel ben benieuwd wat hij kan.
das wel lullig. maar zat zondag in het stadion maar je vreet je gewoon op als je marsman ziet keepen.
ja tegen twente hadden ze de punten ook al absoluut niet verdiend dat kwam gewoon door twee fouten van thesker en marsman.
weer met beide benen op de grond
ik had hem nog eens stuk jonger ingeschat dacht echt dat hij in de tachtig was
en zo saai is het niet want twente had allang op 10 moeten staan
ik hou af en toe de tweets in de gaten ja maar niet de hele tijd hoor
ik heb nog nooit wat tegen jou over vitesse gezegd dus
dat jij je druk maakt omdat liedje en dat jij daar zo om jankt is al lachwekkend ga voetbal kijken joh
ik irriteer me er ook al aan.
bemoei je lekker met je eigen club. dit zeg je alleen maar omdat het twente is
kansloze reactie weer hoor
sorry hoor, maar die zogenaamde azijnzeikers daar vraag je zelf om. straks is het nog verboden om hetero te zijn....
tja dan haal je zelf stront voor je tuin ga je klagen over de stank. tja wat moet ik daar van zeggen.
en misschien nog een cursus wonen op het platteland erbij 😉
zal een prima uitspraak zijn.
en bij ons wordt daar ook niet over geklaagd.
het is wel zo dat die man een beetje kan minderen op de wijze hoe hij zijn buurmannen noemt. niet echt netjes.
ja dat weet ik zelf ook wel maar je woont buitenaf en ja dan heb je weleens last van stank. ik kom zelf van het platteland
het enige waar ik de twee mannen geen gelijk in geef is het zeiken over de stank van de paarden en de andere dieren.
maar over dat spandoek hebben ze wel gelijk. maar ze moeten niet zeuren over die paarden. want ze wisten dat die er waren.
die twee ook hoor als je buitenaf gaat wonen kun je verwachten dat je buren dieren hebben en dan moet je niet klagen.
je woont in het buitengebied.. tja dan moet je niet gaan zeiken over de geur en geluiden van dieren.
raar dat mohktar protesteert bal wordt totaal niet gespeeld.. terecht geel dus
knvb beschermt de topclubs das altijd al zo geweest en de clubs daaronder hebben er maar mee te doen
de hele knvb draait op feyenoord ajax en psv de rest bestaat niet. dan nog net of de knvb ajax nooit geholpen heeft
geflatteerd of niet maar ik ben tevreden 👍🏻
tuurlijk wint twente geflatteerd en dat ontken ik ook niet.
mag wel een gele kaart zijn voor el makrini
is altijd zo nu wint twente geflatteerd hoor je iedereen mopperen. wint roda geflatteerd hoor je niemand
unal 03 roda krijgt ff een lesje in effectiviteit.
echt schandalig gewoon twee overtredingen en hij fluit niet eens. lachwekkend.
sjonge tot twee keer toe een overtreding in de zestien van roda. wat een slechte scheids.
ach man ik zeg toch ook niet dat limburgers moeten uitsterven. doe gewoon ff normaal.
kinderachtig
wel een domme actie van thesker, maar vergeet de handsbal van ananou niet, daar kwam roda weg
handbal overduidelijk buiten de zestien gemaakt
marsman met de 2de knappe redding.. ik weet niet wat ik zie
in ieder geval een onervaren scheidsrechter heb ik gelezen
of ze rijden gewoon op de rijbaan terwijl ze op de fietspad horen, worden ze nog boos als je er wat van zegt.
maar om de andere redenen. maar je hebt gelijk
de grond in twente bedoel je?
hoe moet ik dat opvatten?
mag hopen dat het niet om herman finkers gaat.
nederland moet meer aan het klimaat doen, maar wel afvalwater in de twentse gronden stoppen. nou lekker milieubewust ... dus niet
en ik snap niet waarom jij je zo druk kan maken om een paar handschoenen, laat staan dat ik het wel overdreven vind
met een staartje voetballen is net zo gay
als het om roda ging had je waarschijnlijk niks gezegd
wat doet marsman nou
zeg je zeker omdat het twente is
wtf in dat geval schors traore dan ook maar voor het leven met dat gekke staartje. man dat moet hij toch lekker zelf weten.
is het niet verstandig om ede eruit te halen?
dit mag gerust de wedstrijd van het seizoen worden genoemd. wat een avond zeg.
weet ik maar ik kan het mooie twente niet verlaten. ik denk ook niet dat een echte groninger zou gaan verhuizen.
maar ik begrijp absoluut de emoties van de groningers
hier in twente begint het straks ook, de nam wil hier afvalwater opslaan in de oude gasvelden en dat gaat ook nog een keer goed mis
heb zon gevoel dat meester frank visser er nu al helemaal klaar mee is
kan me moeilijk voorstellen dat iemand een huis koopt en zonder de buurvrouw te kennen diegene de dood te wensen.
krol weet hoe hij het moet aanpakken
ja maar om dan zo van het onderwerp af te gaan wijken is niet nodig.
hoop dat die diana henk krol wel laat uitpraten. heel vreemd dat ze niemand laat uitpraten
marianne thieme week wel heel erg af van het onderwerp over cultuur. leek wel alsof ze het ingestudeerd had.
ja dat wel
klopt, maar vindt hem het hele seizoen bij ajax niet top. hij kan veel beter
wtf? gewoon terecht. komt met een gestrekt been in.
koppers trap eigen na tegenover ter avest en er is in ieder geval totaal geen intentie om de bal te spelen
t is natuurlijk een overtreding. vraag me alleen af waarom er amper of niet geprotesteerd wordt
scheids van gister bij twente mag dan ook wel een jupiler league wedstrijd fluiten
vergeet twente willem 2 niet. koppers had rood moeten krijgen.
klopt maar blijft gewoon een fout van onana als hij die bal gwn wegtrapt is er niks aan de hand. gewoon heel nonchalant
feyenoord verdient absoluut een punt.
k denk dat alleen de liggende kortsmit ervoor zorgt dat de grensrechter het niet goed ziet. maar het blijft lullig voor feyenoord
kan geen twijfel over zijn dat dit 100% een doelpunt was.
wat een drama die keeper van vitesse, maar een terechte 20 voorsprong voor pec
terwijl ik helemaal niks tegen willem 2 heb hoor. heb er ook nooit geen slecht woord over gehad
kreeg een beetje een vervelende tweet van een andere willem 2 supporter die meteen die situatie van twente er weer bij haalde
de scheidsrechter heeft dat van koppers toch niet beoordeeld of heb ik wat gemist
koppers dan. doelbewust een smerige trap uitdelen. zuiver rood, maar niet gegeven
ben benieuwd of de nog gaat ingrijpen bij koppers. zal 100% terecht zijn dat hij voor 3 a 4 duels geschorst wordt.
de scheids is echt pro willem 2 4 minuten blessuretijd. belachelijk
eigenlijk gewoon natrappen van koppers tegenover ter avest totaal niet de intentie om de bal te spelen en dat mag volgens jou?
vind je het gek als koppers gewoon met rood eraf had gemoeten. dat is onsportief gedrag !!!
treffer waar ze totaal geen recht op hebben en ze hadden met 10 man moeten staan. echt een achterlijke overtreding van koppers
eigenlijk is het gewoon natrappen. totaal geen intentie voor de bal.
dat had zeker rood moeten zijn bewust een trap uitdelen. belachelijk dat dat totaal genegeerd wordt
daar is de verdiende voorsprong
mulder alweer met een marsmannetje
terechte winnaar az. en die penalty van barto had wat was die slecht ingeschoten zeg.
mooi. hopen dat er straks er geen tegenstanders stappen gaan nemen. maar dit is super mooi nieuws voor de regio
maak je daar niet druk om de stentor is geen krant uit de regio. fout is te verklaren.
eindelijk weer werkgelegenheid in ons twente. er wordt trouwens elders ook natuur kapot gemaakt in de regio.
bij ons hebben we het gedoe met de snelwegen das minder erg dan dat vliegveld. ik ben er juist blij mee.
lang al het natuur hoef daar niet weg. en over gezondheidsgevolgen moet je helemaal niet druk maken. kijk bijv. naar borne 1/2
vliegveld twente blijft👍🏻👍🏻
eindelijk goed nieuws voor onze regio. airport twente wordt weer een echt vliegveld. nu hopen dat anderen niet weer gaan dwarsliggen.
is dit 100% zeker of kunnen de bewoners weer dwars zitten? ik ben juist heel blij met het besluit.
nou dat moet de jong ook niet praten over als het de volgende keer in hun voordeel is. niet echt bepaald een sportieve reactie
nu maar hopen dat feyenoord kampioen wordt. mag ook wel een keer nu elke keer psv of ajax kampioen wordt is een beetje eentonig
klopt, maar over dit doelpunt kunnen geen twijfels bestaan en ik lach al om de reacties van dat het beinvloed is😂
ook veel supporters geloven al niet in dat systeem. wat ook ronduit belachelijk is
die beelden komen altijd wat later!!!!!!!
nu is er zon hawk eye systeem en niemand gelooft er in. dus zullen we er dan maar weer mee stoppen en terug gaan zo het was?
die psv spelers zijn ook gek dat ze protesteren. nu heb je dat hawk eye systeem werkt gewoon goed.
die man komt niet eens uit de regio. en heeft niks met twente te maken!!
en dan ook nog wijzen dat hij voor de bal ging, maakt het nog erger
het walgelijke van bacuna is dat hij wijst dat hij voor de bal ging. en naderhand ook nog klagen. walgelijk
begrijp ik
hij vliegt er met twee benen in en totaal geen intentie om de bal te spelen.
en terecht ook dit keer.
nu is het 100% terecht. hij komt nu keihard met twee benen in. totaal geen intentie om de bal te spelen
de meer dan terechte 11
mooi dat heracles op 30 komt tegen excelsior.
wat een schandalige beslissing die penalty lewandowski wil de bal wegschieten die kan toch nooit die speler zien
kan het kloppen dat er een f16 in de lucht vliegt boven borne
niet alleen thuis. feyenoord had vorige week ook geluk dat twente 2 x onterecht werd teruggefloten voor buitenspel
wat een matige pot voetbal zeg van beide kanten
beetje nutteloos om bier naar de keeper te gooien.
wou je nou echt hier rood voor hebben dan was dat van elbers ook natrappen want daar was ook geen bal in de buurt
was wel een overtreding maar van duinen moet niet zo reageren alsof hij wel een been had kunnen breken.
kom op twente jullie verdienen de 12
snap ik maar komt ook wel een beetje door het spel van excelsior
tja en nu kun je verwachten dat excelsior niet meer gaat voetballen
zit je in het stadion? op tv beelden valt het niet te zien namelijk
vraag me af waar marsman mee bezig is
slimmigheidje dat lijkt me het juiste woord hiervoor.
die speler is toch doorgebroken en het is duidelijk dat setkus niet voor de bal gaat. maar die penalty was ook niks
denk niet dat die geseponeerd wordt dit kun je niet vergelijken met castro vorige week
je kunt beter twente feyenoord kijken daar gaat veel meer mis
zal diegene puur zeggen omdat het om twente gaat bij een andere club hoor je hem niet
niet zeuren jullie hebben de grensrechter al mee
goh zowaar heeft de grensrechter een keer gelijk wat een wonder
klopt maar je kunt je beter druk maken om die grensrechter
dus omdat 1 iemand zo dom is om zon spandoek op te hangen is de hele regio duitsland? kansloos
das nou al de tweede keer dat twente wordt teruggefloten voor buitenspel. belachelijk
kan iemand die evert ten napel stoppen met dat onnodig geklets
en dat mag wel? en wij mochten toen niet klagen en jullie wel?
wat deden jullie in enschede na de 22 hetzelfde
omdat hij op de grond ligt? pec deed dat in de vorige wedstrijd na de 22 ook vaak. en toen mochten wij ook niet klagen
vind dat holla ook smerig bezig is maar dat mag blijkbaar tegenwoordig
had gehoopt op een sportief duel van beide kanten maarja
kan ook op een andere manier. maar maakt niet uit we hebben assaidi nog
hoppa assaidi. zwolle dacht nu een makkie te hebben
rood is terecht maar op beelden is wel te zien dat holla doelbewust op de voet gaat staan van celina.
ik geef je wel gelijk dat dat volkslied irritant is.
laat staan dat ik me ook irriteer aan dat volkslied
ik mag mijn mening hebben hoef je me niet voor aan te vallen. heb gelukkig niks met beide clubs
alhoewel als heerenveen moet stoppen met het volkslied moet groningen dat ook doen bij hun thuiswedstrijden als ze scoren net zo erg
beetje misselijk het gefluit en gezang van de groningen fans tijdens het volkslied.
walgelijke actie van guardado
zal niet goed zijn dat de veroorzaker van de penalty de penalty neemt.
tja rood of geen rood het is en blijft oliedom alhoewel van de maarel het niet moet uitlokken.
wat een fout van mulder
mooie goal maar dit verdiend utrecht niet.
zon tackle is gewoon gevaarlijk als hij die groningen speler vol had geraakt had er wel weet niet wat kunnen gebeuren
het is geen normale tackle om voor de bal te gaan. kom op hij vliegt er als een bezetene in.
overbodig? hij vliegt er gewoon als een idioot in. gewoon te lomp voor woorden
je kan ook normaal voor de bal gaan dan er lomp invliegen. die tackle is gewoon gevaarlijk kan me de kaart wel indenken
had je ook rood voor kunnen geven aan breuer. smerige overtreding
wat is het nut ervan om als de bal allang weg is nog een trap uitdelen. gewoon natrappen
sneeuw in borne
raar wakker worden met het bericht dat george michael is overleden. nu maar weer de luisteren.
zometeen kerstdiner met de op tv
genieten van de
zijn jullie de rode kaart vergeten bij utrecht heracles?
nou wel? paar maanden geleden moesten we nog kapot en weg
was nooit een overtreding. higler ontneemt twente een grote kans
morgen nog ff nagenieten met de bovenste 100.
daarom hebben we ook zon hekel aan ajax in nederland.
ajax per direct uit europa halen. schande voor het nederlands voetbal.
mooie assist van kardorp.
had het artikel niet gelezen. dan nog hoef je er niet op te reageren op mijn tweet!!!!
weet niet wat de arbiters tegenwoordig hebben maar van boekel floot ook al dramatisch bij ado utrecht
wederom gewoon een schwalbe van een willem 2 speler
vd lely raakt hem niet eens. 100% schwalbe
werd omgekegeld? haha vd lely raakt hem niet eens
schwalbe van het jaar tot nu toe. van der lely raakt hem helemaal niet eens. croux vloog al van tevoren
gewoon met 2 benen inkomen. slaat nergens op. geel is een lichte straf. rood was op zijn plaats geweest
zeker een overtreding op unal. hij werd duidelijk gehaakt
daar zijn ze weer vuurwerkgeluiden. hoe sneu ben je dan
toch raar eerst complimenteren en daarna alsnog een onderzoek instellen. kennen jullie het begrip respect ni…
ja oké je hebt gelijk maar ik zou zo n reactie nooit hebben gedaan
zon opmerking maak je nu niet ook al is het sarcasme.
dat weet ik maar ik zon situatie moet je niet zon kt opmerking maken. respect is ver te zoeken
doe gewoon normaal joh. ruiter viel verkeerd en jij maakt maar ff zon rotopmerking.
zal wel sarcasme wezen maar ik vind het totaal de verkeerde moment om zon misplaatste opmerking te maken. walgelijk
foutje van elia maar een blunder van jones
ik vind ook wel dat de clubs daar een bijdrage aan mogen hebben.
dat snap ik.
ik kan me wel heel goed voorstellen dat hij goedgekeurd is
bal was over de lijn hoor
wauw wat ben jij een mooie meidxx. je zag er top uit ❤️
ik heb liever geen van beide, maar alles beter dan die trump.
wat was er bij psv twente dan
kuyt legt het beter uit. je moet ook naar feyenoord zelf kijken niet alleen naar de arbitrage. handsgeval was idd wel een twijfel
zielige feyenoord assistent met zijn stopwatch. top van go ahead.
peter bosz won wel in alkmaar met heracles in de halve finale van de knvb beker van az in 2012
de huurlingen van manchester city waren er al. alleen klich kwam na het vertrek van ziyech. en die is niet gehuurd
klopt maar veel mensen zeiden twente is niks zonder ziyech. nou ik denk dat het tegendeel bewezen is.