was je er wel daan? 😂😂
klaar voor
we mogen weer
heb vanavond geen slaapmutsje nodig bij het kijken van deze wedstrijd
wist niet dat de naam brein nog aan verbinden was
ben je nou zo dom rund of praat je als een kip zonder kop
vreemde opmerking van jou
zorg eerst eens voor een fatsoenlijk beleid
weet er iemand of er in een nederlandse kroeg is waar zondag de finale wordt uitgezonden
volgens mij doen er 18 clubs mee ipv 3
er is er 1 blij hier
kan die snoeks niet beter gaan vissen op snoeken. wat een waardeloos commentaar
ben abonnespeler maar heb helemaal niets gewonnen.
tickets in de pocket duurt nog even
dat jullie de regionale zenders gaan verwijderen
paul bedankt voor je inzet
pas overgestapt naar en nu waarschijnlijk alweer de verkeerde keuze
op naar de laatste wedstrijd van dit seizoen. zo met de bus van
afgekeurde goal bij twente dan, ook terecht?
zaterdag 4 uur. tijd voor een koele groene
hebben jullie nu echt niets beter te doen. beleid
vorige week de jaarkaart weer verlengd met de rest uit haaksbergen.
en wat doen jullie? of gewoon selectief blijven met straffen zoals altijd
en nu jullie nog met het wanbeleid
rutten wordt de nieuwe bondscoach
jammer dat het nivo van het arbitrale trio niet mee kan komen met de wedstrijd
jammer dat de alleen aan zich zelf denkt en niet aan de supporters
wel een grote bek en nu dan
wat zijn jullie slecht bezig op tv
laatste match van een mooie avond
ik snap niet waarom al die turken demonstreren. als ze het hier niet goed vinden gaan ze toch naar hun lijder
waarom wel discussie over de penalty bij en niet over die van
durven de jonkies niet tegen de oudjes 😂😂
heeft lang geduurd voor ze inzien hoe dhr van vlaanderen is
was een gezellig dagje met
hier een filmpje van de door ons ontwikkelde machine om minerale steenstrips te plakken
omdat ze geen ruk geven om de leden bij het amateurvoetbal. ze denken alleen aan zichzelf met hun goed betaalde baan
ga lekker wat nuttigs doen ipv dit soort onzin uitkramen
proficiat met deze prestatie
zo ff een potje risk met de kids.
heerlijk begin van het weekend. dat clubje uit almelo zonder punten terug nar huis 😂😂😂💪💪
😂😂😂😂😂😂
tja. voor wie moet je nu zijn
waarom allemaal steden in juliie nieuwe reclame en twente als streek
toch nog steeds respect voor nog steeds hoog niveau
vakantie voor de hond
wat zullen jullie straks ontzettend trots zijn. bouwen voor leegstand
😂😂 met van vlaanderen voorop. heeft hij toch zijn zin doorgedrukt
koningsplein enschede. 1e fase gevelisolatie is klaar. het steiger kan weg
kunnen jullie je niet beter druk maken om de arbitrage dan om het pupillen voetbal
denk dat het een goede trainer kan zijn, denk alleen dat hij vandaag een bokbiertje teveel heeft gehad met zijn analyse
ze kunnen beginnen. we zijn er
tickets binnen. nog even geduld
niet goed, maar ben blij dat ik geen supporter van roda ben. wat een antivoetbal
trots op , blij met het voetbal dat ze laten zien ipv dat laffe voetbal van
de gevelisolatie met spachtelpleister komt mooi tevoorschijn zo
nieuwbouw kindercampusnoord gevels voorzien van gevelisolatie met keramische steenstrips
en zo is het!!
wat zijn jullie hypocriet met van vlaanderen voorop. nu ligt het aan de ondernemers. .
groningen is de bakermat van fraude
van vlaanderen was toch altijd voor transparantie. behalve nu hij zelf wethouder is. schijnheilig
dit is ook mooi
goed om te weten. hebben jullie nu echt niets beter te doen
vakantie
bij hart van zuid minerale steenstrips aanbrengen op prefab betonnen elementen iov
mooi uitzicht op de weg😃
kaarten besteld 💪@volbeat
ja maar niet in de betere vakken
net kaarten besteld voor heb geen american expressie kaart dus moet mij aanpassen mbt vakbeurzen 😠😡
ach, het interesseert jullie toch geen bal hoe wij ons voelen
kan ik lid blijven van de plaatselijke voetbalclub zonder ook maar 1 cent aan jullie hoef af te dragen?
het kan beginnen
wordt tijd dat pepe eens in de spiegel kwijt
nog een week en dan
veel succes vanmiddag op naar de tweede divisie 💪💪
denk niet dat de komt mochten de twente vrouwen kampioen worden. schijnheilig volk in zeist
wat doe je op een regenachtige dag. formule 1 kijken. go 😆😆 super
a2 gefeliciteerd met de beker
ik zeg per direct mijn abonnement op. geen op regulier kanaal
kan dennis dat wel volhouden 😅
in de startpositie
complete afbouw gereed 7 woningen in meppel iov
zit dat stadion alweer niet vol
heb je daar ook al klanten?
jongens proficiat met jullie kampioenschap
nieuwbouw woningen meppel volop bezig met de afbouw
het betreft deze boom. veel vallende takken en beschadigingen stoep/straat
kap dan ook even die boom op de stiegert
bevalt netflix. wij proberen het nu ook uit
kleine aanvulling op de collectie
akoestisch spuitwerk plafonds bij javatoren almelo
binnenkort starten wij met de afbouw van woningen plan prinsenpoort te zwolle
nieuwbouw woning diepenveen voorzien van gevelisolatie sto therm classic
veel plezier en neem de 3 punten mee naar huis
wordt de tvstoring nog opgelost, duurt nu wel heel erg lang
nieuwbouw woning te harbrinkhoek cementdekvloer aangebracht, volgende week stucwerk
volop bezig met afbouw villa te oldenzaal
zo maar eens naar
blijft toch legendarisch concert
denk dat 17 januari de cameraploeg van in haaksbergen is
renovatie 110 woningen eerbeek gereed
nieuwbouw woning te zwolle bijna gereed
ter woerds afbouw is volop bezig met de afbouw 7 cpo woningen te zevenaar
wederom een mooi project voorzien gevelisolatie sto therm classic
renovatie doetinchem, koudebrug onderbreken mbv gevelisolatie
voor de verandering kijken
akoestisch spuitwerk plafond turmac gebouw te zevenaar
heb volgens mij een paar doelpunten gemist
ligt het aan mij of is er zoveel uitval bij de straatverlichting. oja domme tweet, reageert alleen maar op hun eigen
binnenkort starten met de afbouw van 5+7 woningen meppel
even een avond muziek
ze hebben last van de vallende ziekte in amsterdam
renovatie 112 appartementen doetinchem, laatste loodjes gevelisolatie 👍@terwoerdsafbouw
nieuwbouw woning te laren gld starten met stucwerk
voetbal bij lijkt wel dat ik naar een praatprogramma kijk met reclame
ytong panelen staan klaar voor woningen te meppel. deze worden door geplaatst iov
hoe zeggen ze dat ook alweer? van de wal in de sloot
we kunnen weer!
wordt haaksbergen nog leefbaar?
wordt er dit jaar nog meer afgelast!!!!
gevelisolatie tbv 112 appartementen doetinchem schiet mooi op
wanden gereed, nu spackspuiten plafonds nieuwbouw 15 woningen almere
lekker weer dus op de radio en de bbq aan
weekend!!
nieuwbouw het schepers te ootmarsum
complete afbouw nieuwbouw 6 woningen denekamp door iov bb kuipers langeveen
gestart met stucwerk vrijstaande woning te bennekom
zie eerst eens dat ze opgehaald worden. er is weinig leefbaar meer hier
volop bezig met renoveren van gevels eerbeek
toch maar wat gekocht bij
renovatie 70 woningen eerbeek. gevelisolatie, stucwerk en schilderwerk door
nieuwbouw villa te zwolle voorzien van gevelisolatie door
gefeliciteerd
uitbreiding graafschapcollege te doetinchem, volop bezig met iov
400 jaar in enschede
alleen maar bezuinigen en niet meer goed communiceren
halen jullie de groene otto even bij ons leeg deze zijn dinsdag niet leeggemaakt
renovatie 70 woningen eerbeek isofacade gevelisolatie met keramische steenstrips door ter woerds afbouw
vanmiddag maar eens kijken of dat beest in het juiste vak schijt
nieuwbouw villa te zwolle voorzien van werkzaamheden worden uitgevoerd door
kom al jaren bij twente, en nog steeds vuurwerkgeluiden. dat vinden jullie wel normaal in zeist!!
, nu zullen de amateurleden wel weer een contributieverhoging krijgen om de afkoopsom van hiddink te betalen
denk dat de volgende wissel jaap stam voor huntelaar is
wat doe je als je achter staat. je brengt een verdediger in!!!!
nieuwbouw appartementen ootmarsum, wanden gereed nu de plafonds
nieuwbouw te enschede, stucwerk tpv entree parkeerkelder
stucwerk voormalig batgebouw te zevenaar. industriële look
nieuwbouw woning te varsseveld voorzien van
renovatie politiebureau enschede gestart met stucadoorswerk
ook betoncire wordt door ons aangebracht
ze zijn er klaar voor
het wordt mooi aan de kloosstraat te doetinchem
renovatie 112 appartementen doetinchem, de gevels worden steeds meer zichtbaar
bijna jarig en al een mooi kado gekregen, cd van en 👍
en zo is je auto ineens voorzien van nieuwe striping
graag gedaan
renovatie 112 appartementen te doetinchem, de 1e gevel is zichtbaar gevelisolatie
bedrijfspand te haaksbergen voorzien van siergrindvloer, uitgevoerd door iov
, wordt tijd voor nieuwe presentator
de 1e gevel voorzien van gevelisolatie wordt zichtbaar in doetinchem
verbouw appartement enschede, diverse wanden voorzien van spackwerk
nee, philips. maar nog steeds geen geluid
wij ook niet
nieuwbouw brede school te losser, wanden afwerken met dunpleister
ben benieuwd of ik een reactie krijg van de knvb, of dat ik alleen goed ben voor de contributie
wanneer treedt de op tegen
loop jij of de hond?
renovatie 112 appartementen te doetinchem. 1e kopgevel voorzien van spachtel
hsbwanden bekleden met steenstrips door
volop bezig met stucwerk nieuwbouw mrc te doorn in opdracht van
leansessie vandaag nieuwbouw 38 appartementen almelo
genieten van de
in opdracht van heeft het voormalige lunatic in enschede een nieuw uiterlijk gegeven
gewoon lekker muziek luisteren/kijken
indrukwekkend concert aan het kijken op van
nieuwbouw te enschede. stucwerk ronde hoeken met door
ter woerds afbouw start met het aanbrengen van gevelisolatie renovatie 112 appartementen doetinchem iov
vanmorgen de 1e sessie gehad tbv 38 appartementen te almelo
bekijk het maar
aanpassen of oprotten
zoek eerst maar eens de miljoenen die jullie tekort komen ipv dit op jullie leden te verhalen
in opdracht van verzorgen wij de afbouw van nieuwbouw woning te den ham
wie ben jij op de foto jeroen?
kunt u mij even de opzeggingsformulieren opsturen. 020
buitengevel pand in binnenstad enschede aan buitenzijde voorzien van nieuw stuc en sauswerk
zo, daar gaan we.
is volop bezig iov zweersbouw met isofacade systeem renovatie te eerbeek
sto facade plafond met gladde afwerking aangebracht in nijmegen iov door
nieuwbouw te enschede, een mooi project om aan mee te mogen werken
de kids lekker aan het vissen met dit mooie nazomerweer
de 1e set is binnen
nieuwbouw te enschede, plafond atriumhuisje voorzien van spackspuitwerk
druk bezig met stuc en spackwerk uitbreiding te denekamp
verbouw woning te hengelo , cementdekvloeren en stucwerk uitgevoerd door
nieuwbouw villa te enschede sausklaar stucwerk en sierlijsten tbv plafond
nieuwbouw te enschede, paul gefeliciteerd namens
vandaag de verjaardag van leonie vieren, 10 jaar alweer
druk bezig met en#digo lgmortel tbv renovatie eerbeek
gezellig gefiets in parijs met grootbedrijf en
volgende week weer starten met tbv renovatie te eerbeek
voorzetwand geplaatst nieuwbouw woning enschede
tot vanmiddag
verbouw kantoor te haaksbergen, en gereed
het was even opnieuw zoeken na de bouwvak, maar we hebben de weg weer gevonden
daar gaan we weer
de laatste papieren opruimen en dan
nieuwbouw 9 woningen terborg voorzien van gevelisolatie met spachtel in kleur
renovatie te eerbeek, 1e blok bijna gereed
veel plezier met de vakantie
wat doe je met dit warme weer, volgen en een lekkere koude erbij
leidingwerk afplakken tbv spackspuitwerk nieuwbouw mst enschede
totaalafbouw 15 appartementen lichtenvoorde
9 woningen terborg spachtel aanbrengen
renovatie woningen te eerbeek buitenstucwerk met lg
stucwerk verbouw kantoorpand te haaksbergen
nieuwbouw 9 woninen te terborg starten met aanbrengen van spachtel op kleur
verbouw woning doetinchem, gipsplaatplafond sausklaar overpleisteren
gestart met renovatie te eerbeek
proost jan
denk dat ik zo maar eerst een biertje pak, misschien wordt de wedstrijd dan mooier
proefwoning renovatie eerbeek schuurwerk
binnenkort starten renovatie te eerbeek met aanbrengen
wat zal die scheids krijgen van
en morgen nog beter, dan wordt het voegwerk aangebracht
traditioneel cementgebonden raapwerk tussen gebinten
atrium nieuwbouw te enschede
renovatie woningen eerbeek
gefeliciteerd met je 40jarig jubileum, op naar de volgende ...
als je in de buurt bent drinken we er 1 op het terras aldaar, kunnen we onze mooie producten bewonderen
pand lunatic te enschede voorzien van gevelisolatie met spachtel en steenstrips
wonen, de eerste steenstrips zijn aangebracht
onderweg naar
nog 1 week en dan naar
de steigers worden verwijderd, de gevels komen tevoorschijn te enschede
gestart met ventec plafond voorzien van stolit mp maxplanck instituut nijmegen
nieuwbouw woningen te lochem afbouw gereed
en mooi gestucadoorde poeren eronder
de laatste poeren voorzien van spachtel van deinselaan enschede
weekend, bbqtime
rust en een schone werkplek ipv chaos, nieuwbouw
pas op met de pas gestucadoorde gevel
voorzien van steenstrips pand lunatic te enschede
authentiek gevelaanzicht dmv pand enschede
de twentetruck bij transport nav 100jarig bestaan
rijd deze ook al 100 jaar rond?
van harte proficiat met jullie 100jarig jubileum
gevel pand langestraat te enschede voorzien van stucwerk met fijn schuurwerk
van de begane grond naar de 3e verdieping naar de 4e verdieping naar de 1e verdieping en weer terug nieuwbouw
nieuwbouw woning winterswijk voorzien van cememtgebonden stucwerk en fs fijnschuur
het dak is goed afgedekt, jullie kunnen het plafond stucadoren. jahoor meneer de aannemer!
vanavond in een schone auto naar
authentiek gevelaanzicht dmv vgroeven in pan lunatic
stucwerk badkamer gelijk met tegelwerk, nieuwbouw woning haarle
vgroeven aanbrengen in gevelisolatie pand lunatic enschede
daar gaan we weer, voetballen met de kinderen. leonie uit naar boekelo en mick thuis
gipsplaatplafond voorgestreken met kontakt, nu nog glad pleisteren, nieuwbouw woning haarle
druk bezig upgraden gevel pand lunatic enschede met
gisteren bijscholing gehad mbt vandaag maar weer toepassen in de praktijk
vloercoating aangebracht kelder nieuwbouw woning haarle
zie op voetbal.nl staan hsc e1hector e1 27, volgens mij was het toch echt 21
nog een mooi aanzicht enschede
het blijft een imposant gezicht
de platen zijn er, nu beginnen met aanbrengen tbv te enschede
hadden wij vanmorgen ook last van
stucwerk 1e wanden gereed school te appingendam
stucwerk wanden gereed nieuwbouw college zevenaar
heb de ochtenwandeling erweer opzitten te enschede
scan gereed, afschilderwerk nu uitvoeren. verbouw woning te boekelo
1e blok voorzien van gevelisolatie met spachtel. nieuwbouw 16 woningen lochem
morgen starten met stucwerk school olingertil te appingedam
aanstaande week vloer beoordelen, week 13 vloercoating aanbrengen
stucwerk wanden en plafonds kelder gereed instituut
de gipsspuit draait al weer op volle toeren, verbouw pand lunatic enschede
heb geen video, ben zelf benieuwd naar combinatie vocht&ampzand/robot.
het nieuwe vloeren smeren!
ziet er mooi en strak uit
dakoverstek appartementen enschede voorzien gevelisolatie met
verbouw woning stucwerk gereed, nu scan en schilderwerk
nieuwbouw batch 6de spackspuitwerk bijna gereed
nog eventjes en we kunnen aanvangen met pand te enschede
1 wedstrijd voorwaardelijk voor pelle. dit namens het instituut die het altijd over normen en waarden heeft .
kaarten besteld , eindelijk live zien
nieuwbouw jasmijnstraat de laatste opleverpunten en dan een mooi project gereed
hopen dat de mensen van de morgen een mooie overwinning zien van
stucwerk nieuwbouw 3 woningen gereed, volgende week spackspuiten plafonds te eefde
1e blok voorzien van nieuwbouw plan te lochem
kun je beter de volgende keer weer met de relaties naar onze club gaan
mooie opdracht, voormalig pand voorzien van met steenstrips
leonie blij met haar nieuwe voetbalschoenen
weekend!!
klopt bert, mooi pand op een mooie lokatie
, zit er voor ons ook nog werk?
zo, frans kan weer een dagje vooruit. volle box
balkons voorzien van met spachtel. nieuwbouw appartementen van deinselaan
gestucadoorde plafonds bijna klaar
badkamer voorzien van
werken jullie soms niet, om kwart voor 4 voetballen op de woensdag. bedankt
gevel voorzien van met spachtel gereed walstraat enschede
schoortsteen gereed, rietdekker bijna woning winterswijk