mocht je nog ergens kaarten kunnen kopen voor de show van doen! wat een fantastische avond. geniale humor, wat een energie💪🏼👌🏼
vanavond naar in het
achter dat ik hem liever thuis had willen bezorgen. kan dat nog of ben ik te laat? ordernummer 40594922. groeten martine
beste leenbakker, vanmiddag een mooie kast besteld en hij wordt aankomende week bezorgd in de winkel. echter kom ik er zojuist
ohhh wat een start
hup swift!
hij is binnen 👍🏼
ik krijg hem er ook bij, wist je dat?
leuk verjaardagscadeau gekregen van manlief. kaartjes voor in markelo a.k.a. stokkumoost😁#dagvandeleraar
en nu kan i kent de track &amp trace code niets meer vinden. ben toch echt vandaag jarig en wil graag weten of het pakket vandaag komt
er zijn 20 wachtenden voor u... via privébericht twitter geen reactie, pakket zou door vertraging gisteravond worden geleverd.
ohhh heerlijk zulke kids😊
zooo das een goed begin. allemaal fanatiek meezingende voetballers
ook ontzettend sneu voor die duizenden fans die naar spa zijn afgereisd.
ohhhh wat ontzettend balen dit
🙌🏻ze zijn even de kløts kwijt
help! ticketnummer is binnen maar niemand kan ons verder helpen. als bedrijf al een week geen internet!
ticketnummer is binnen. maar niemand weet ervan wanneer ik bel. wij als school hebben al een week geen internet. help!
misschien goed om straks even te rectificeren, voordat mensen echt schrikken. zorgpre…
misschien goed om straks even te rectificeren, voordat mensen echt schrikken. zorgpremie +/ €30, per jaar &amp niet per maand
nou ik ben 31 en een ontzettende wielerliefhebber! het kan dus wel😀
topper die wat een heerlijk commentaar
ondertussen de wijzigen. dank aan voor de
👌🏼 wat vind ik toch een onwijs leuk programma! echt een aanrader voor sportliefhebbers
ik heb het ebook 80 dingen over kindertekeningen van eveline ruitenberg aangevraagd heel interessant!
oh wat grappig, deze hoorde ik gisteren ook heel vaak!
helaas, max gaat de finish niet halen
fantastische start van
kids in bed, huis aan kant, tassen ingepakt voor morgen en nu formel1 kijken
ik gun het buffon zo! kom op juve!
yes! eindelijk avondje house of cards kijken met
daar hoopten velen op! heel fijn!
jeeej!! de is er weer. gelukkig hebben ze het begrepen en gaan we weer terug naar de oude versie 👏🏻👏🏻👏🏻
ohhhhh wat een spanning. go
man en ajacied en ik zitten er klaar voor. samen een keer voor ajax. romantiek ten top!
wat een topper geniaal goed gereden!
had je deze al gezien🤣
max ging naar binnen en bottas tikt raikkonen aan en hij weer
zeg dat wel
ik vroeg het mij ook af en kreeg net een reactie van
bedankt voor je reactie! het is er inderdaad eentje! interessant 👍🏼
bijzonder mooi effect in de lucht. kun je mij vertellen wat dit is?
de ronde van overijssel gekeken met tijn en
wat een verfrissende manier van interviewen van onze koning door
dat is dus lekker duidelijk! goed begin van de scheids😁 zal vast uit twente komen!
hoppa p3! wat een held! heerlijke race!
jazeker☺️ we zijn in oktober verhuisd. geen nieuwbouw maar er kwam iets anders moois op onze weg…
wat is weer goed bezig!
hoppekee
serieus? ik zie net beelden dat een supporter door een paard van de me wordt overlopen. stond gewoon te bellen! absurd!
gewoon iedereen naar buiten laten gaan en bij de poorten honden alles laten checken. nu kunnen die gasten alles wegsluizen.
goed over nagedacht. maar ook met mensen erbij die begrijpen dat een supporter een wedstrijd wil zi…
behoorlijk.samenwerken staat voor hen hoog in het vaandel.ik denk dat diegene die hier v…
wie bepaald een dergelijke ingreep? waarom niet iedereen via een andere uitgang en meteen controleren m.b.v. drugshonden?
actie is goed.maar 15 min. voor tijd het stadion of vak p willen ontruimen? dat wekt meer vragen en…
supporters moeten het stadion verlaten? wat is er aan de hand?
lekker hoor
heerlijk met op de bank
top! doorgestuurd naar mijn collega👍🏼
hoppekee! 02
fantastisch!
wat had ik graag bij deze wedstrijd willen zijn met 😙
woooooooowwwww wat een voetbalavond
heerlijk kijken met op internationale vrouwendag
heerlijk! schaatsen kijken op een zaterdagavond
damn, gemiste kans
eindelijk komt ie er🤣
prachtig vs
haha! zal er eens op letten!
brekend!
waar is je onwijs leuke blouse van?
grensrechter moet in de rust even naar
ik had 38 vragen goed en scoorde een eindcijfer 7.6 met weet ik veel.
gecondoleerd. heel veel sterkte🍀
wauw!! prachtig gezegd
uit eten met mn liefste 🤗
champignons in bierbeslag &gt airfryer
man speelt fifa en nu kan ik lekker verder met de netflix serie the crown
reclame tussendoor het darten van eru kaas voor kerels. ehh oké? prima joh, ik vind smeerkaas meer iets voor kids of zie ik dat verkeerd?
heerlijk gewandeld!
zelf fotos gemaakt voor de uitnodigingen voor zn 3e verjaardag! 😍…
heel erg leuk! ze heet ein en is bijna 5 weken oud en echt een voorbeeldig kind
tsja, hopelijk geeft twente ajax vanmiddag meer spanning
heeft iemand een stream die wel werkt?
veel plezier en succes😙
wat leuk om mijn oude meester in de krant te zien! ik genoot van zijn lessen over twente, de taal&ampcultuur!
mooie reclame van ford!
go go go wat een prachtig mooie inhaal manoeuvres
woooowwww
dat zeker! en veel ferrari fans in mexico
jammer hoe de regels van f1 werken.hij komt als@3e over de finish,naar mijn mening geen fouten gemaakt en toch zon beslissing
jeetje vettel op 3, belachelijk reed veel beter!
inderdaad maar hamilton en rosberg deden ook een stukje gras
heerlijk zon boze vettel, prachtige laatste rondes en goed teamwork van redbull!
nog 6 rondes te gaan en vettel is een stuk sneller
gaaf hoor! onze jongen is meer van de autos en daarom vanmiddag de rally gekeken
vroeger vaak ingezeten! rijdt langs het huis van mn oom en tante in haaksbergen. volgend jaar nieuwe ronden,nieuwe kansen!
niet gek voor de zondagmorgen
zo doen wij dat hier ook, werkt perfect!
dat weet ik helaas niet
je krijgt 2 dagen, heb ze net van de week opgenomen
wanneer ik zelf groen bezig ben is een beetje reclame niet verkeerd toch!
overgestapt naar krijg ik nu ook een gratis twente shirt?
belachelijk. laatst een wielrenner aangesproken hierop. geen helm op, dat kan en mag echt niet meer
ken jij nog mensen daarzo
zeg dat wel! wat een wedstrijd! maar ben positief over de nieuwelingen 👍🏼
even bijkomen van de race en weer lekker slapen
zilver voor
wat een heerlijke sportmiddag voor nl
ik zeg dat het gewoon goud is voor
dat scheelt veel werk 👍🏼
ijzersterke column van
goud!!!!! wauw!!!!!
voetbal loopt qua technologie echt flink achter zeg.
hier nu groep 34, veel met ict bezig, digicoach, zoon tijn, 2e op komst verveel me niet
inderdaad ja👍🏼👍🏼 jij bent niets veranderd zeg! hoe is het? wat doe je allemaal? behalve mooie gedichten maken?
ik ga er eens op letten, nog niet gezien!
een compliment aan diegene die de nederlandse turnpakken heeft ontworpen, echt heel erg mooi 👍🏼
prachtig, eerlijk interview met
ik kan zo meejanken met
zilver voor wauw!!! met een hele grote gouden rand
inderdaad, dat zei ik net ook hier al👍🏼
o neeeeeeeee....hopelijk komt het goed met van vleuten
prachtig mooie rit om te zien
wauw! prachtig mooie foto
whahaha, ik zie het
mag ik vragen waar?
thanks, heb je daar ervaring mee?
haha, alles voor een goed huwelijk he
ik wilde graag bij jullie blijven maar hier in twente is besloten om jullie eraf te halen. zonde
ik heb fox sports, ben klant van caiway, ga niet zoveel extra kosten maken voor 1 wedstrijd
zonder kun je dus geen ajax kijken?! iemand nog een goede stream voor mn man
leuke apptip jiggle
wel iedere keer de hashtag gebruiken he
hier hetzelfde verhaal. maar wel een goede reden om nu echt kritisch alles te bekijken! succes met de verhuizing 👍🏼
haha wordt net wakker helaas gemist! en jullie? het blijft een prachtig fenomeen! maar de komende dagen gaat het door!
had je helemaal gelijk! nu heb ik toevallig gisteravond foxsports geannuleerd!
fox sports op zwart via
en hij werkt nog goed ook😅
dan maar ff een stream zoeken
nope...caiway doet ineens heel moeilijk, gaan 31 aug. pas verhuizen en nu kun je al geen wijzigingen aanbrengen. vreemd toch?
das lastig als in het stadion zit, of wil jij oppassen
nee, wil vanavond graag kijken maar heeft veel moeite blijkbaar met onze verhuizing eind augustus.
okido. moet ik de volgende keer eerder bestellen wanneer ik de volgende avond voetbal wil kijken
gisteravond fox sports online via caiway besteld, hebben jullie enig idee wanneer ik het kan ontvangen? alvast bedankt
ja klopt! ze hebben nu alles van de afgelopen maanden verrekend. ik zeg proost!
naar het oude concept, veel spannender en leuker. iedereen die ik spreek deelt deze mening
de tour is afgelopen. ik heb de eerste week de nieuwe opzet van de een kans gegeven maar wat een waardeloos spel. graag terug
gefeliciteerd!!
wat een heerlijk commentaar van
helaas niet maar die ga ik straks terugkijken!
leuk dat over rio
gaaf! zijn jullie er nog? dan zou ik met zon treintje omhoog gaan, mooi overzicht van lyon! fijne vakantie!
froome staat zn gele trui af aan
hij zegt wel steeds mama baby in de buik en soms komt hij op mijn buik liggen en zegt hallo! zo schattig.
oh heerlijk!! het is zo leuk en ik vind echt dat het alleen maar leuker wordt! uitgezonderd enkele buien
idd! gewoon doen wat zelf goed voelt!ik vond het bij tijn zo ontzettend leuk om het niet te weten. hoe gaat het met jullie meid?
ik vind gewoon dat mollema dezelfde tijd moet krijgen als bardet of froome. logisch toch?
heel erg leuk! nee, dat willen we niet weten, is haast uniek tegenwoordig
bedankt! ben alweer 23 weken op weg
echte kerel, iets afmaken waar je aan begonnen bent.
pols gebroken? tom dumoulin? oh nee, laat het niet zo zijn
ik ga niet meedoen..te druk met allemaal leuke dingen verhuizing,nieuw huis,zwanger succes met de nieuwe poule👍🏼👍🏼
en bergetappe die we hebben meegemaakt. nog in de tijd van
de tour nu langs het meer van annecy. toch wel één van onze mooiste vakanties. prachtig daar! enorm genoten, jaren geleden van de tijdrit...
die top gereden! behoud 2e plaats maar dat stoppelbaardje maakt het net wat minder aerodynamisch, toch?
dit is gewoon goed. straks in rio neemt revanche en wint goud!!
dus wel
damn wel onwijs goed gereden
gaat tom het redden? en hoe zit het met mollema
ideaal, niet sproeien vandaag
zal er vast op lijken maar weet jij welk soort dit is?
oeps! wordt tijd dat ik eens omhoog ga klimmen
veters los?
wat is hier aan de hand? niet normaal
heb de knollen op, gaan we nog een half uur
top👍🏼👍🏼 waar mag je aan de slag?
geen pitstop, is dat een optie met deze bandjes
check dit
belachelijk. waarom een goed werkend concept niet meer gebruiken 16.000 ?! mensen deden mee, het leefde overal hier.
snif snif, geen meer... jammer het was zo leuk! de nieuwe wielerpoule versie is echt minder...#zonde
regen? ik zie de deepse harmonie
een boevenstreek aldus arno vermeulen
heej! top👍🏼 nog gewoon mn oude mailadres, heb je die nog🤗 hoe is het verder met je? 😙
wie heeft een mooi rooster combinatiegroep 34 voor mij?
gewoon buitenspel hoor
zo! de russische atleten geschorst voor rio!
serieus zomaar weg tijdens de persconferentie
dan komt het zeker goed! alvast veel succes en sterkte met je herstel
half 4 persconferentie, 15 uur italië zweden! heerlijke voetbal vrijdagmiddag
de motor blijft draaien
note to myself niet reageren op tweets van van fc twente
fc twente mag in de eredivisie blijven maar krijgt wel een boete...zijn de berichten. nu wachten op
een groep 3 handschrift schoolkx new toevoegen
prima 4e plek voor max verstappen en nu kijken
van max zappen we weer even naar en daar zien we een oekraïne kenner zitten
is nu overigens reclame
lekkere start voor
hier hetzelfde. ik kan het gewoon niet voorstellen. wil het niet geloven. onze club kan toch nooit kapot gaan?
wat een spanning
gefeliciteerd!
het ging behoorlijk slecht maar bedankt voor de organisatie👍🏼 de tour ga ik beter voorbereiden!
go ahead eagles naar de eredivisie. spelers vieren feest en worden daarna gewoon letterlijk aangevallen door graafschap fans. absurd
crossen op de lochemse berg
kippenvel
jos verstappen heerlijk aan het huilen, hoe gaaf is dit?!
onvoorstelbaar goed gereden! lang leve de goede banden👍🏼👍🏼
wat fantastisch, grandioos, waanzinnig
wat een spanning....#formule1
mooie gespannen blik bij
na al dat songfestival drama ga ik vanmiddag lekker max aanmoedigen!
mag ik met mijn idkaart vliegen naar australië? ideaal, scheelt ook weer gedoe voor robbert ten brink enzo
tsja ajacieden, zo voelden wij ons een paar jaar geleden
heerlijke plaat zeg!!
wat een heerlijke plaat!
wakker worden door een zingende zoon
ik heb een team aangemaakt voor de giro!heb de afgelopen periode amper wielrennen gekeken,niet ingelezen maar we zien t wel
ach wat maakt zon peerdje oet, was gewoon een slimme investering 😭😭
leroy fer noemt hem zelfs een legend, tsja...
we wachten af..
uiteraard niet, belachelijke actie maar doordat het een eigen man is zal dit in de doofpot gestopt worden, denk ik.
klopt maar is toch één van zn eigen mannen?
gerechtigheid!!! kom op!!!
hier kan ik niet tegen
top! gefeliciteerd! succes met de zoektocht
als dat geen buitenspel is?
hoop ik natuurlijk ook
over zon 2 uur zullen we het weten..heb ik vanavond een vrolijke of behoorlijk chagrijnige man?
precies goed geschreven!
ah gossie, beterschap met je kleine meid!
gistermorgen de zomerbanden eronder laten zetten 😬
kom ze hier maar halen twente
lekker gefietst en af en toe even pauze in het bos om te rennen!
ik heb hem tot 1 1/2 jaar laten staan en vond het soms echt ideaal. tijdens koken, even een wasje aanzetten etc.
die vraag stelde ik toen ook aan vriendinnen en mijn moeder. vriendinnen hadden de box er idd na 8 maand uit,moeder tot 2 jaar!
prachtig idd
vandaag zilver cursus gehad. leuk om in budel te zijn en weer veel te leren! nu aan de slag voor het certificaat 👍🏼
zaterdag 2 april open huis van 1115 uur! kom, kijk en bewonder! delen👍🏼
gewoon gaan netflixen
studiedag
johan cruijff overleden. prachtige voetballer, geweldige quotes. wat een verschrikkelijke ziekte. sterkte voor de nabestaanden.
fantastisch! heel veel succes!
dit bedoel ik je neemt je kind toch niet mee? niet op die leeftijd
de oppas van guardado is ziek?!
zonde, dupe van zn eigen team?
man en kind slapen nog...via de caiway app formule 1 kijken!
een filmpje gemaakt van de gymles in groep 3 vandaag
ik ga het gewoon zeggen hup psv
matchfixing ?!? wat een onbegrijpelijke fouten de laatste minuten
leuk! ik heb hem doorgestuurd naar de bovenbouw collegas
buitenspeelseizoen is geopend!
ik mis onderin een t bij geflitst
prei,paprika,gehakt,kerrie
bij ons, in diepenheim! echt heel erg mooi, check
gisteravond een mooie wandeling gelopen van heerlijk licht! echt een aanrader
precies. het was een echte hockey pass strakke bal over de grond. maar die jongen komt er wel!
wauw wereldkampioen!! knap gereden!
heerlijk zon middag schaatsen kijken!
wat een heerlijke overwinning van
vieren ze helemaal nooit carnaval hier op de basisschool?
dat komt vast goed! succes
dat is de juiste instelling. ga je naar een andere school met een wat meer reguliere vorm van onderwijs?
het letterwinkeltje! blijft leuk om in groep 3 voor te lezen!!
nu kijken straks tegen psv. heerlijk zon zondagmiddag
erg interessant verhoor met heftig hoe je kunt winnen..maar toch ook niet. winnen is toch winnen,waarom twijfels?
werkt perfect👍 betaversie
iedereen zegt bij de geboorte van je kind. geniet ervan, het gaat zo hard! vond dat nogal onzin...maar t is echt waar! geniet!
ehhh niet dat ik weet? hij is toch echt twee
onze lieve vent vandaag alweer 2 jaar!
gefeliciteerd!!
marathon schaatsen helm verplicht
pfffff wat een spannende pot van
mooi van jelle klaasen en nu gauw slapen! tis al oudjaarsdag😵
hoppa!! finale voor de nederlandse handbaldames! klasse
ik vind het niet terecht
fantastisch mooie avond gehad bij de fc twente crisis revue. geniaal met o.a.
daar gaat het al mis
bedankt en nu mag je weer gaan hockeyen
krijgt van der lely nu bloemen omdat hij man van de wedstrijd is?
pfffff ik ga wel cross kijken. wat een slappe verdediging
op npo1 nu de wereldbekercross. prachtig om de mannen te zien dansen op de fiets!
deze foto maakte ik laatst in het bos en ging toen op zoek naar wat het zou kunnen zijn.
de eerste is volgens mij een tonderzwam, een soort schimmelziekte van een boom.
nu op npo3 schaatsen! met interessante tijden en verrassende uitslagen!
twitter geeft sneller en meer info bij zoiets
wat is de overeenkomst tussen diewertje blok en
sinterklaasjournaal, ik vind het verhaal en de sketches weer fantastisch!
met de opvoeding komt het wel goed bedankt voor de mooie prijs!!
mag evert ten napel nog een wedstrijd van commentaar voorzien?
lekker hoor robben
tijn vindt die groene vijver erg interessant
mooie race van podiumplek?!
en zo is het maar net!
was een penalty, wederom fluit blom in het voordeel van psv
zo biologisch dat ze hem hebben gekookt op biologisch aardgas. eigen compost kost een hoop tijd😂 en tijdgeld
gefeliciteerd met jullie mooie kerel! fijne dag!
reuzenrad is ook echt een aanrader! veel plezier