burnley lijkt me erg mooi. goede 2e optie toch wel wolves denk ik.
ben zeker geen liefhebber van boeken lezen maar heb hier van genoten ben enthousiast geworden om zelf…
altijd fijn om een beetje scorend vermogen bij de selectie te halen.. wat een selectie beleid blij d…
onderschatte speler van zeer vreemd dat hij niet opgeroepen wordt
geen verrassing al die afmeldingen elk pijntje wordt aangegrepen om zich af te melden voor deze geweldige oefenpotjes 😆😂
diks nelom en kramer zijn gewoon matige speler die bij een middenmoter nog moeite hebben om mee te komen..
onzin. komen gewoon kwaliteit tekort op bepaalde posities wanneer er blessures zijn. verder spelen z…
luuk de jong? compleet uit vorm, maakte gisteren sinds maart weer een goal.. waarom niet een andere spits de kans geven?
lijkt me een mooie kans om door te selecteren en talent de kans te geven bij
2e paal indd onbegrijpelijk dat daar niemand staat. zou de keeper zoveel schelen. 1e paal nie…
laten we het hopen. voor beide partijen een win win situatie
een 5 voor higler is veel te hoog. zat er meerdere malen helemaal naast. floot dramatisch en zou een…
gestreden maar helaas toch verloren. zure en onterechte nederlaag, maar een gezien waar ik trots op ben ❤👊👍👌
mee eens!!
volledig met je eens. support van twente aanhang is weer top 👊
ideale plek voor lam. komt beter tot zijn recht op 6 als cv.
al meer tackels gezien dan de hele periode onder hake.. het begint met passie strijd en beleving. daar win je wedstrijden mee..
combinatie van 2 uit tricots is natuurlijk een meesterlijke zet zaai je direct onrust mee bij de tegenstander 🙈😆
snap de hele hype rondom hem niet. leuke voetballer maar meer ook niet. ziyech vind ik wel jammer is…
play offs afschaffen in nl. niveau dat europa ingaat wordt als maar slechter. kijk naar belgië, ook da…
heerlijke sfeer bij dat maakt toch altijd veel goed. daarnaast passie en strijd en geen balletjes breed..
dan heeft hij er inderdaad geen bal verstand van...
livestream gevonden om te kijken. veel strijd maar voetbal niet hoogstaand. echte derby
schitterende dag gehad opnieuw bij ultras en sfeer bij s04 blijft geweldig. kunnen we in nl van leren.
verbeek gaat zeker schoon schip maken. kan me niet voorstellen dat hij deze slap goedkeurt.
op het open kanaal van ziggo?
waarom speelt hij niet? creatieve spelers genoeg in de selectie of is hij gewoon niet goed genoeg?
dat mag ik toch hopen dat die geblesseerd was was indd de gevaarlijkste man. nu was creativiteit verd…
goed gezien 👍 slagveer raakte geen bal.. die was rijp voor de wissel. zeer ongelukkige wissel.
vot dr met 😂😂😂
lijkt me de beste oplossing. dit is echt een mentaliteit kwestie bij veel te slap en zonder overtuiging.
beschamende vertoning vandaag van onze trots blijft met gemak op de been. stof om na te denken na vandaag!
zeer ongelukkige wissel van gevaarlijkste man eraf halen en slechtste man laten staan
opnieuw huiswerk niet goed gedaan door leiding hem iets aanbieden terwijl er niets is
speelt indd dramatisch. snap niet dat hij niet vervangen wordt door tighadouini
het niveau van de scheidsrechter is al net zo dramatisch als t spel van
de prijs zal ook wel veel te hoog zijn voor een nederlandse club. pl zullen waarschijnlijk…
daar hebben ze indd weer heel goed over nagedacht... er is wel wat maar zoveel zeker niet..
plus 2 ton terwijl je pusic al hebt..
ook al heeft hij destijds zijn contract niet uitgediend, lijkt me niet zo g…
heerlijke loting fc twente ajax
wanneer worden we eens wakker bij de man die aan de basis lag van de successen in de afgelope…
rashica zou ik een nog betere optie vinden. snap niet waarom hij nog steeds bij vitesse speelt. zou een aanwinst voor ze zijn.
is zeker geschikt.
ben ik niet met je eens. er zijn uitzonderlijke gevallen en daar is mp er zeker 1 van..
1 vd beste trainers die ze ooit hebben gehad.. zou ook een prima optie zijn voor fct
hier is weer fantastisch over nagedacht. goed beleid voeren blijft een lastige opgave in enschede. zo…
eindelijk! geef hem maar de tijd om te bouwen aan nieuw elftal
in italië zijn de supporters gewoon de baas.
vastgesteld moest worden ipv 1 jr. zelfde geldt voor met zn meerjarige contract zal nooit t 1e team halen
qua contracten uitdelen snappen ze t nog steeds niet bij nu moeten ze misschien wel weer uitkopen omdat die zo nodig 2 jr
wat een triest figuur!
een vader met zn zoon op de arm die slaat richting spelers wat een halve tamme ben je dan
cliche zijn ze bij bayern maar bij de tradition vereine zijn ze een stuk creativer. kunnen ze bij baye…
dan als trainer. daarbij heeft verbeek altijd aangegeven dolgraag bij fct trainer te w…
verbeek heeft in nl op feyenoord na prima werk geleverd en deze groep heeft een harde…
helemaal mee eens. amen!
hoop t niet? als er 1 man geschikt is om deze groep weer aan t voetballen te krijgen d…
haha als of die zou willen. kan de beste voetballers van nl nog niet eens aan t voetballen krijgen 😂😂
fred als td aanstellen en gert jan als trainer. hij krijgt deze jongens wel aan t voetballen. jvh met…
resultaten zijn ver onder de maat. hake kan dat niet omdraaien, vind t erg jammer dat t hem niet is g…
rutten terughalen dan keert de rust weer terug. zo simpel is het..
verwacht je fred of gertjan op korte termijn?
dat klopt maar ook nu denkt hij in t belang van de club. de chemie was weg en ik denk dat hij dat n…
bij spartak geweldig bij lpool ook top. lijkt me duidelijk dat t echt aan de kwaliteit bij ligt.
technisch gezien vele malen beter en dodelijk efficiënt. moderne voetbal. wij lopen in nl mijlen ve…
positief verrast door zijn spel. deed het als een van de weinigen naar behoren tijdens zijn debuut
niet zo gek hè.. dit is toch gewoon competitie vervalsing. beter een competitie starten voor 2e elftallen…
6 onvoldoendes is nog aan de krappe kant.. positief was t optreden van cuevas. zijn debuut was hoopgeve…
blijf ik toch maar ik wil wel t beste voor mijn club en dat is denk ik zonder hake
ricketts liendl zijn daar mooie voorbeelden van. toch vind ik dat hake meer uit deze groep moet hale…
elftal is kwalitatief echt niet minder dan excelsior vvv w2 ado roda sparta. is wel op bepaalde posi…
prachtige locatie en mooi stadion inderdaad. jammer van die mat die erin ligt..
vraag me wel af of dat met hake gaat lukken. volgende week cruciale week. geen gezeik dan en vol dr…
ik ben ook echt te twijfelen aan hem nu. dit krijgt hij gewoon niet meer op de rit. is hij geen ty…
volgende week wordt de week van de waarheid. geen excuus mogelijk. 3 wedstrijden moeten er gewonnen worden!!
koeman vandaag ook zn laatste wedstrijd op de bank bij
deed t vorig seizoen prima maar begin toch te twijfelen aan hem of hij deze groep wel kan motiveren..
verschrikkelijk niveau. degradatiekandidaat op deze manier.
nog geen paniek maar ik zou me als leiding van ernstig zorgen gaan maken als de uitslag zo blijft
bedroevend
week in week uit het zelfde liedje. op utrecht na is t elke week weer erg slecht en zonder enige bel…
slappe hap weer! week in week uit.. begint t met passie strijd en beleving. dan komen de pnt vanzelf. niet op deze manier.
moeite om de gedachten erbij te houden en niet in te dommelen
lijkt weer zon dag waar we blij moeten zijn als we een pnt mee pakken.prachtig voetbalweer maar daar heb je ook alles mee gezegd
druk zetten op de helft vd tegenstander is prima maar dan moet je dat wel met zn allen doen
in het prachtige 3e tenue ipv van het grijze fletse 2e tenue staaf nu al met 01 voor.. opstelling is goed nu de pnt nog!
beter voor beide partijen in de winterstop terug te laten keren.
klopt. celina was met name op t laatst vooral met zichzelf bezig voor de rest wel br…
voldoet totaal niet zal zelf ook graag van hem af willen en ruimte maken voor een speler…
heeft er iemand een tip hoe ik sky sports kan ontvangen? ik zit toch helemaal niet op real getafe te wachten..
blij dat hij t niet meer bij fct zat.. misschien ligt het opleiden hem ook wel beter dan het trainers…
niet terug. jij kunt wel roepen dat hij prima opleider is maar daar heb je niets aan.feiten heb je we…
pers ben je nooit maar je leid op om jongens terug te zien in 1e elftal dat is je doel. beter maken e…
welke basis speler in de huidige selectie van zwolle komt er dan voort uit de opleiding waar rini voor verantwoordelijk is?
dat heeft meer met beleid fct te maken. voorkeur lag niet bij opleiding en scouting.. is dus niet zo…
top 5 slechtste trainers ooit bij misschien wel top 3...
12 mln blijft een veel te hoog bedrag voor deze speler terwijl ze cerny en kluivert al hadden.. hadden…
zeker weten! net als nagelsmann, klopp en bosz.. tijd voor verandering bij
helemaal mee eens. 2 keer de betere geweest tegen zweden en met lege handen staan..
die gaan niet harry! zij komen de play off echt niet door. ..
gaat t wk absoluut niet halen. matige ploeg dat over 2 wedstrijden de mindere was tov toch vreemd dat doelsaldo dan telt..
gelukkig wel 😀
dikkie heeft geluisterd!
dat blijkt maar weer. vind de keuze voor fener ook niet geweldig. hoop dat dikkie kiest voor janssen
inderdaad een smet op t goede spel.. is er niet beter op geworden bij tottenham. onbegrijpelijk dat…
robbbbbbennnnnnnnnnnnn !! wat een geweldenaar! respect voor deze man.
ook gaat t wk niet halen. zeer beperkte ploeg..
deze mannen zijn trots om het shirt van te mogen dragen en doen dat met passie strijd en beleving
dit is passie tonen voor je vaderland op tribune en veld. niet zoals die clowns op de tribune en verwende…
tuchel of nagelsmann. low is onhaalbaar. goede andere opties zijn koeman en bosz.
selecteren en te lang heeft vastgehouden aan de oude garde. daarnaast is de knvb zelf ook schuldig a…
goed stuk. tactisch is nl erg zwak en ontbreekt het aan creatieve spelers in de selectie. groot prob…
ambrabat is een aardige speler maar meer ook niet daarentegen baal ik nog steeds van. zulke cr…
piet heeft wel gelijk. tuchel en nagelsmann zijn ook prima opties.
tuchel en nagelsmann zijn ook prima kandidaten net als bosz.. tijd vo…
tuchel en nagelsmann zijn misschien wel haalbaar. zijn beide ook prima opties. nl opties zijn koeman en bosz geschikt
daarna is wel vrij.. hopelijk wil hij dan nog... eindelijk een fatsoenlijke bondscoach aan t roer dan.
laten we hopen op een leeg stadion tegen zweden. dat is het minste wat we terug kunnen doen...
dat is wat anders. we hebben t over oranje.. natuurlijk gaat b…
ik ben afgehaakt kan t gestuntel niet meer aanzien. weer bedankt voor een klote kwalificatie
tuurlijk hand in eigen boezem steken maar uitslag zweden gaat nergens over! ook vanavond is t weer bagger!
wat een organisatie daar. helpen t nationale elftal om zeep en nu zijn ze bezig met t amateur niveau.
we hebben helemaal niets te zoeken op een wk eindronde! wat een triest niveau. ik neem aan dat er koppen gaan rollen bij de ?
ben t vaak met je eens maar nu niet..tuurlijk heeft de knvb verzaakt maar dit neigt…
rekik eruit. 3 verdedigers is genoeg.. dost erbij en volop de aanval.. zijn die wit russen niet om te kopen net als die luxemburgers?
waarschijnlijk hun leven lang gratis winkelen bij de ikea... dit neigt naar 1983 spanje malta..
is dit op dit moment niet weer gaande
70 !!! matchfixing of gewoon er geen kloten aan doen ?? wat een schande..
lekker 00 tegen en nu al 50 achter tegen
marcus berg pure middelmaat die de das om doet lijkt t. het wordt met de minuut gekker. i
zo zie je maar weer hoe belangrijk die onterechte afgekeurde goal bij toch is geworden voor
toch weer vervelend om te moeten constateren dat deze middelmatige ploeg blijkbaar beter is als onbegrijpelijk!!
nog steeds hetzelfde nare ventje met de vervelende maniertjes
1 klein incident had wel de volledige aandacht gehad.. jammer dat de media dit niet laat zien aan iedereen!
doorselecteren hebben ze bij oranje nog nooit van gehoord.. zelfde met het aanstellen va…
absoluut. maken helaas bij de knvb de ene fout na de andere.. dit nl elftal had wel wat…
niets mis met ambrabat maar ze hadden zich destijds beter druk kunnen maken om dat type spe…
3 verdedigers is meer dan genoeg. 343 opstelling spelen. gas dr op nu het nog kan..
zo talentvol is hij niet. komt tekort voor ajax 1 maakt zn goals tegen jong utrecht enz.
gaat nergens over die zogenaamde jong elftallen. dlpnt cassiera de jong bij ajax en friday bij az..
riedewald die bazoer vervangt bij wie had dat gedacht een tijd geleden. het kan snel keren in de voetballerij..
absoluut. enige fout tijdens transferperiode van feyenoord dat ze geen spits hebben aangetrokken..
toornstra had op dezelfde manier als larsson kunnen spelen.
die 11 gaan t zeker niet waarmaken.. waarom niet starten met dost en janssen, neem aan dat ze wille…
heeft die wel lang voor nodig gehad.. lijkt me toch dat je op de training ook ziet dat krame…
dus je hebt een fatsoenlijke 2e spits nodig... kramer als 3e of 4e keus zou kunnen.
de jong kan veel meer dan dat hij nu laat zien. kramer daarentegen is pure armoede..
lang verhaal kort te maken. zweden en wit rusland oprollen.. en hopen dat luxemburg opnieuw een goede dag heeft 😊
onbegrijpelijk dat deze jongen nog steeds bij vitesse speelt kan veel meer
ben t zelden eens met pvda maar deze x hebben ze gelijk. abnormale salarissen voor een club dat in zwaar weer zit..
wanneer je rekik veltman en de ligt boven de vrij verkiest snap je er helemaal niets van!
qua aantal mensen indd begrijpelijk. beleving zou in mijn ogen echt wel anders kunnen. zelfs in ere…
daar kunnen ze in nl alleen maar van dromen...
kan jvh zich bezig houden met de commerciële zaken en fred met het technische beleid.
met dit programma in t vooruitzicht voor denk ik dat zich echt zorgen moet gaan maken over zijn positi…
fred nog ff binnenhalen en dan heb ik er weer alle vertrouwen in 💪
hoop t niet voor koeman maar als er zulke uitspraken worden gedaan...
de vrij is pas merkwaardig. net als van dijk die zelfs met wedstrijdritme achterstand nog beter is dan…
ik ben benieuwd hoe lang t nog mag blijven proberen bij heeft voor een vermogen geïnvesteerd maar t loopt niet
daar heeft t vast mee te maken en kon gewoon niet aarden in enschede
heeft alleen maar geld gekost...en veel ergernis
inderdaad!
haha klopt inderdaad
de ene na de andere ko vanavond bij glory. hij gaat lekker 👊👍
heb het nooit wat gevonden. nu niet nooit niet. pastte destijds ook niet bij fct.
ok niet mee gekregen. verklaart een hoop.
matchwinner voor pec weer, schoot geen deuk in een pakje boter
lammers die erin komt ipv rol van luuk lijkt echt uitgespeeld bij
en wat een geweldige goal van jou! keep up the good work danny 👌👍
waardeloos beleid bij palace. lag niet aan fdb maar aan t materiaal waar hij over beschikte. 1 vd minste selecties vd pl
lekker hoor! weer naar huis waar ze horen boven alles
die mag zeker wel eens uit een ander vaatje gaan tappen. ik neem aan dat hij op de bank begint na zn wanvertoning laatst..
rekik veltman de ligt wat een dramatische verdediging zeg.. van dijk, pieters en de vrij lijken me veel betere opties
kunnen beter bij hun amateur club verder ontwikkelen tot de leeftijd van 12/13. bvos zouden veel m…
jeugd scouten 09 heeft nog helemaal geen zin. kinderen vanaf 012 heeft pas zin. je maakt meer kapot…
de waarheid komt altijd boven tafel! ik zeg ook een stadionverbod voor het leven heeft mee…
thnx. zal wel gaan lukken.
betaling via paypal zo te zien.. voor 9,95 is te doen..
dusseldorf is indd goed te doen. is de moeite waard om hen te rijden voor dit merk. ik ga eens kijken bi…
ok bedankt voor je reactie 👍
thnx 👍 zouden deze in nl ook online verkopen?
iemand bekend met het merk mastrum ? zou graag willen weten waar ze dit in nl eventueel verkopen of een goede betrouwbare site online
vol dr op kleppern en 3 pnt pakken! geen excuus mogelijk aanstaande vrijdag. come on
wakker worden! laat fred weer thuiskomen en bouwen aan iets moois zoals destijds…
as vrijdag is er geen excuus meer mogelijk. het enige wat telt is 3 pnt tegen die paupers.vol dr op en geen gezever zoals vandaag
ben bang dat hake t niet gaat redden met deze groep die fluwelen handschoenen moeten eens uit. pak ze eens aan.
een vol uitvak en goede support en je supporters dan zon waardeloze pot voorschotelen. te triest voor woorden!
bedroevend slechte wedstrijd opnieuw! wat een wereld van verschil met vorige week. hoe kan dit?
aanvaller erbij! pak dan in ieder geval een punt mee uit die varkensstal!
zakt weer door de ondergrens. tegen dit grunn en laatst sparta moet je gewoon 3 punten pakken. lek is nog lang niet boven..
te slap en in een veel te laag tempo vandaag. ik zou zeggen breng vers bloed erin..
😁😁 lijkt me wel dat hij eerste keus gaat worden. hopelijk is het een directe versterking.
utrecht in 2 wedstrijden compleet de weg kwijt.. ook maakt net als gehakt van utrecht.
ik verwacht toch wel dat cuevas gehaald is voor de basis.
dat wordt zometeen switchen tussen en de steel city derby lekkere derby 👍
toch een slimme zet geweest van om zich uit te laten schakelen in europa. werpt nu al zn vruchten af..
klasse hake! dat is ballen tonen. terechte keuze voor bijen en lam. geef ze het vertrouwen en hopelijk…
een in vorm en fit kan voor elke ploeg in de eredivisie een versterking zijn. hopelijk kan hij…
slagveer tighadouini en lam zijn directe versterkingen. ricketts en gjorgjev vallen me zwaar tegen.di…
volledig met je eens
komt op rb zeker te kort. cv is hij ook de mindere, maar zoals je al zegt zij…
dat mag ook wel een keer dan.. speelt zeer ongelukkig zowel europees als in d…
locadia en veltman? ? zijn beide hopeloos uit vorm als ze al ooit eens in vorm geweest zijn..
alleen een kwestie van goed managen.
grootste gedeelte wel. werken allemaal met het beste materiaal
een trainer is zo goed als zn materiaal is.. keuze voor de juiste tactiek en juiste spelers opstelle…
1 vd 2 kunnen ze wel opvangen maar beide zou zonde zijn.. vuckic leek ook fitter dan voorheen. van assaidi…
gelukkig hebben ze nog even tot zondag. laten we hopen dat ze beide inzetbaar zijn. deze ploeg staat eindelijk goed.
klopt. heb ook genoten van assaidi, maar vond er meerdere sterk.
feyenoord heeft aan t begin van t seizoen prima versterkingen gehaald, maar 1 ding zijn z…
sinds lange tijd weer genoten van een dagje voor de tijd in de stad daarna een lekkere pot voetbal. heerlijk 👊👍👌🍺❤
lijkt me verstandig om deze 11 een tijdje te laten staan en het vertrouwen nu te geven
beste ik hoop dat je gisteren hebt gezien dat thesker op dit moment niet thuishoort in de basis
lang leve de hollandse voetbalschool tijd dat het roer in nederland eens omgaat.
burnley leeds lekker potje
dik verdiende zege tegen 1 vd betere ploegen van nl. puike prestatie, mag ook wel eens gezegd worden
helemaal gelijk leon. stelletje slapers in enschede. genoeg goede spelers in de buurt maar ze snappen t niet bij
jij betaald?
met sowieso niet. wat een drama bij twente. lijkt daarna weer opgebloeid enigszins.
die denken dat er weer wat te halen valt. gaan gewoon weer naar huis zonder punten! einde vd rit zijn…
een goed scouting is het halve werk!
krijgt even voetballes van leuk voetballende ploeg is dat atalanta
hij steekt niet in grootste vorm maar dan is de jong nog altijd beter dan locadia
wie had hem uit de basis moeten houden dan?
bvo s moeten inderdaad op een gewoon grasveld spelen. nl betaald voetbal loopt niet voor ni…
niets kortzichtig aan. spelen op kunstgras heeft meer nadelen dan voordelen. trainen prima m…
helemaal mee eens. kappen met kunstgras in t betaalde voetbal.
brondeel ter avest lam hooiveld vd lely holla jenssen tighadouini slagveer assaidi boere stuur deze boys aub de wei in !
verrassende stand op dit moment. lufc was te verwachten en wolves. sheffield prima en erg knap. sunderla…
de verschillen worden als maar groter.. de charme van de poulefase is er af..
locadia missen ze niets aan.. is die nu echt beter dan luuk de jong? ik geloof er niets van..
rienstra muhren van hintum falkenburg waren betere opties geweest. allemaal fit en eredivisie waardig…
laten ze t clubbelang is voorop stellen en zich niet als een stel kleine kinderen gedragen dan.
waarom niet?
mag af en toe alleen wel wat meer pit tonen aan de zijlijn. beetje beleving kan geen kwaad.
mee eens. vind t een prima kerel en heeft t afgelopen jaar goed gedaan.
vind ik ook prima. hake als assistent erbij houden.
tijd dat ze rutten gaan benaderen. kan jvh zich richten op commerciële zaken en rutten td. dan heb je een goede basis.
daarnaast wordt het tijd dat hij de andere 2 petten afzet en plaats maakt voor rutten als td
van halst is verantwoordelijk voor deze selectie die voor t grote gedeelte niet fit is en wa…
de kamps en thesker wil ik wel vergelijken met elkaar, beide spelers pakken zoveel kaarten door onk…
haha mijne ook. heb er ook nog twee van huddersfield.. anders ramp weekend 😆
situatie ziet er niet rooskleurig uit op dit moment. zowel qua prestaties op t veld a…
denk jij dat er veranderingen gaan komen op korte termijn? dit kan namelijk niet ver…
ik vraag me af of ze nog weten waar ze mee bezig zijn.
haha die was ik indd even vergeten. blijkbaar kan het allemaal maar en is er niemand die ingrijpt. z…
wat verlang terug naar unal klich en mokotjo. hele andere koek dan holla vuckic en kvasina
inspiratieloos geen wil om te winnen en tactisch ook niet best. bijen vd lely en thesker zijn geen s…
dat krijg je als van halst met 2 petten laat werken en daarnaast geen scouting hebt waar je op kunt…
prima analyse opnieuw van de wolf hoe is t mogelijk dat spelers niet wedstrijd fit zijn die je haalt. je moet altijd fit zijn
met deze instelling degradatie kandidaat. het roer moet om. dit kan zo niet verder..
7 wedstrijden 0 punten!! hoe lang mag dit doorgaan?
john de wolf slaat de spijker op de kop. zulke spelers hadden we in nl ook wel kunnen scouten
geen passie strijd en beleving en totaal geen wil om te winnen. slappe hap.
hooiveld zou ik zeker brengen. ervaren en kan de verdediging misschien weer op orde brengen. ook k…
geen passie strijd en beleving. inspiratieloos en geheel in de kleur van het uitshirt. wat een aanfluiting is dit
ja klopt maar doet het niet beter.
die kan er ook niets van..
muhren mag ook nog even volledig vrij lopen. wie gaat de defensie eens organiseren? mist een fatsoenlijke lb ook nog eens...
vd lely is ook de weg kwijt pfff ongelooflijk. speelde afgelopen seizoen best aardig maar is vertr…
mocht tegen dit sparta geen punten pakken dan zie ik het wel erg somber in..
thesker in t centrum is al matig maar als linksachter is t helemaal een aanfluiting
lvg begrijpt t wel. 532 indd beste optie voor oranje. in aanvallend opzicht speel je…
selectie is veel te groot. kwaliteit wordt er ook niet beter op. jongens die bij 1e elftal niet spele…
komt dat even goed uit! ook niet.. 😀 ik verwacht 3 punten!!
is hij fit genoeg om te spelen dan?
has net zo goed direct een paar maanden geleden kunnen tekenen in enschede 😆
voetbalwereld is gek geworden
assaidi tighadouini slagveer zou mijn voorkeur hebben. holla liendl jensen vd lely bijen lam ter avest…
voorhoede tighadouini slagveer assaidi ik kan me er nu al op verheugen! snelheid creativiteit en oog voor de goal
brondeel ter avest bijen lam vd lely holla jenssen tighadouini vuckic assaidi boere zit deze opstelling er zondag al in?
verrassend.. hoog tijd dat hij vertrekt en bij een andere ploeg weer aan het voetballen komt is geen s…
voor ook een topavond geen bal goed geraakt, gewisseld worden, verliezen en dan horen dat je derde spits gaat worden..
ieder nadeel heeft zijn voordeel. die strootman zien we tegen bulgarije gelukkig niet meer terug.bedroevend slecht wat die laat zien
waarom stond strootman überhaupt nog in het veld! wat een dramatische vertoning van zijn kant
keuze voor 532 zou vele malen beter zijn. met robben en janssen in de spits.
en gullit die roept rustig maar 😂😂
onthutsend zwak tegen een ontketend duidelijk dat we absoluut niet meer meetellen met de top
haha niemand die veel beter is dan hem? kwestie van goed scouten.. psv heeft gewoon zitten slapen.
veltman is al maanden hopeloos uit vorm, als die ooit al eens in vorm is geweest.. prima beslissing van dikie!
heeft nu een aantal prima versterkingen gekregen mits ze fit zijn.
ik dacht dat ze ambities hadden om te promoveren? psv zullen hier niet om treuren. beleid erg vreemd
fout ligt zeker bij van halst maar ik vind dat hake ook niet vrij uit gaat. hij stelt ook niet de sterkste…
een trainer is zo goed als zn materiaal. 7e plek was erg knap uiteraard. alleen laat hij dit seizoen zien…
wanneer je trajkovski continu de voorkeur geeft dan snap je er helemaal niets van. helaas is hake de weg ook kwijt.
de staf snapt er weinig van. trajkovski is ver onder de maat. vd lely doet het aardig maar heeft wel een f…
begint er meer op te lijken. nu nog een linksback en creatieve middenvelder.
is hard nodig. is ver onder de maat
linksback. buitenspelers genoeg nu.
stemt mij wel tevreden nu hopen dat we nog 2 versterkingen mogen verwelkomen bij een lb en cam zou mooi zijn!
omdat al die namen niet fit genoeg zijn en niet voldoen op dit moment
ja dat weet ik zie mijn eerste tweet 😊 vind hem altijd naar behoren presteren. erg jamm…
linksback zeker hoge nood!
ik ben benieuwd dan! maak me blij zou ik zeggen. falkenburg is trouwens zeker wel een toegevoegde waarde..
ondaan naar pec en falkenburg naar ado.. iets zegt weer in me dat weer aan t slapen is. waarom zien zij dit niet
volledig kwijt zowel qua systeem dat hij wil spelen als de spelers die hij wekelijks opstelt. begrijpelijk dat dit vragen oproept
hake heeft de selectie dan wel niet samengesteld maar is wel verantwoordelijk voor de vreemde keuzes die hij maakt. daarnaast is hij de weg
td rutten, commerciële zaken v halst, trainer verbeek, hake assistent. als de basis goed is volgt de rest van zelf. actie
inderdaad! wat een beleid.. de heren die nu voor de contracten en spelers moeten zorgen zijn de weg vol…