jij weer?
ongelukken bleven uit ja? inmiddels 2 operaties verder...............
volgens mij is jan modaal wout brama vergeten
stewards van ons vak bij bedankt......!!!😠
lekker hoor danny!
wanneer wordt evt. duidelijk of er nog kaarten zijn voor ajax uit?
ma vorige week al 2 zuivere pingels niet gekregen te hebben nu weer 1 niet.. en maar zeuren over die schwalbe
jup maar dat zie je overal. zal ook alleen nog maar erger worden..
klopt maar tegenwoordig draait het voetbal om geld dus heb je ze weldegelijk nodig..
ook de clowns heb je nodig voor inkomsten. en als je kijkt naar onze sfeer. dan ben ik tevreden ja overgrote deel is puur
ja slecht voorbeeld. 😅
ja wat wil je daarmee zeggen? ikwas er bij hoor? laatste jaren gaat het slechter en zit stadion mooi gevuld. vroegerverledentijd
die clowns heb je overal ook bij zwolle en amsterdam enz enz..
kom eens met feiten. problemen zijn begonnen vanaf seizoen 11/12. bij ons veel jeugd in het stadion dus mooie toekomst!
enschede is flink gegroeid stad gaat met de tijd mee. zwolle ligt daar ver op achter.
begrijpend lezen is moeilijk hé knaap?
jij haalt nu iets heel anders erbij trut!
ken de feiten. voor de uitspraak was al meer als de helft vant stadion gevult met scc.
succes in de juup volgend jaar feestneus!
mijn punt is deze lijst is op 20 jaar. rompslomp bij twente was 3 jaar, toen werden niet beste resultaten gehaald
met dank aan scheringa!
is de hele dag al..
ruud van nistelrooij
en de uefa maar cashen!
zo te zien is hij al een tijdje inactief op twitter, even als in goals maken haha. 70min heer en meester!
die is verandert in de loop der jaren haha
tranen en kippenvel! ons gevoel in beeld.
hoi hoi. ik heb mijn nieuwe scc nog niet ontvangenheb een andere plek waar kan ik dat formulier vinden op de website?
dacht dat je de van vorig jaar weer moest gebruiken?
de goedkoopste drukkerij zeker haha
wat een goal
wat dacht je van here comes the son de accoorden
clubs zonder toekomst twente grotere achterban en meer betekent voor het nl voetbal
ja dit wachten slaat echt werkelijk nergens op zeg dan woensdag 12 uur ofzo hele dag stressen en checken of er al nieuws is..
35 jaar geleden alweer
opletten met vlaar zijn we al te laat..
strafrechtelijk vervolgen. financieel wanbeleid
zodat alle verandtwoordelijken weg zijn en dan om vergeving vragen bij knvb?
dan heb je het over twente toch? haha
we hebben volgens mij elke wedstrijd nog de scheids tegen gehad.. en dan met grote fouten die wedstrijd zwaar beinvloed..
onderzoek naar biergooien. bananenlied en vuurwerkgeluiden bij of geven jullie weer niet thuis??
ga je huiswerk doen dat is almelo
mijn grote liefde 50 jaar
pooco let op mijn woorden
he. he. eindelijk...
proficiat kerel maar mijn mooiste herinneringen blijven bij dit kampioenschap!
twente niet voor even maar heel mijn leven!
ruikt naar plagiaat kunnen we daar geen slaatje uit slaan? p
zoutman gaat weg schreuder naar jong fct en dan rutten halen
wij zijn fc twente! verzonden via whatsapptwenye br meneer de voorzitter haha!
engelaar ?
aah hier is de 60 ook gevallen nu hahaha
huh dan loopt mijn tv achter hier is het nog 50 p
ja dat zou kunnen natuurlijk p
euh lijkt me sterk int home waren ze hardstikke vrolijk was er niks aan de hand en ben ik met ze op de foto geweest
die kut schreuder zal wel weer zeggen dat we steeds beter worden...
toch scoort podolski best vaak in al die invalbeurtjes.. is wel wat voor twente p
ze wouden meer jeugd toch dus jeugdcontractjes neem ik aan... p
komt wa goed heerlijke goal van wilshire
ja hier valt zeker ook jong twente onder?
beste commentator van fox. fijn om naar te luisteren en altijd leuke weetjes!
schreuder stap op aub.... wissels te laat..
schreuder vieze lul kom eens van je reet en doe wat.....
had ik ook een x kreeg ik dinsdags een brief dat de week ervoor woensdags de school begon p
schreuder der uut.... zogenaamd aanvallend voetbal willen spelen. kontelikkertje van steve
bij stadion van heerenveen nu
komen die shirts van sanders afscheidswedstrijd ook nog te koop in de fanshop?
nieuwe shirt winnen ? voorspel volg en win! xximo ook in 2014/15 31!
blijf rten en blijf volgen! vanavond 20.30 uur verloot ik de gesigneerde brazucabal!
trabzonspor bindt in en laat oudgoaltjesdief van fc twente gratis vertrekken meteen halen fct!
rt en volg en maak kans op een gesigneerde wkbal van mij!
theo bedankt voor alle mooie momenten
me 2!
haha dylan zegt netjes hoi tegen mij dus ik zeg netjes hoi terug p
hoe is het afgelopen met dat onderzoek naar spandoek van ajaxsupporters? nooit meer wat over gehoord
6 toch willem? of ben je ons in enschede vergeten?
ik zeg nog meer geld er in pompen zodat we thuis alles winnen!
ten rouwelaar hij heeft de moeilijkste reddingen verricht
duidelijk die van balotelli deze man doet dit week na week dit is een wapen!
jup we gaan nu de auto in em zijn goed gestemt !
speelt ajax tegen zichzelf vanavond? gaat weer eens alleen over ajax....
richting danspasjes maken
zeuren bij de baas, jij moet al het voetbal kunnen zien natuurlijk voor je werk haha!
maak jezelf dan maar geloofwaardig en start een onderzoek
kai wat denk je het is ajax die kunnen alles maken en afbreken zonder problemen bij de knvb
achjaa we zien het wel he haha
heb de politie gesproken en vroeg of dat de reden was, maar dat was nieuw voor hun, het ging om iets ernstigers
haha niet mijn probleem p
haha nee, was voor de onderburen maar ik moest de deur voor ze opendoen p
ook aan de weth. beversstraat ze zijn hier 2 uur lang geweest voor onderzoek
retweet deze foto en maak een kans op dit fctwenteshirt!! winnen
maandagavond 19.00 uur maken we de winnaar bekend van het fctwenteshirt!!!
wel politie erbij gehaald voor schadevergoeding
wij staan bovenaan ja wij staan bovenaan!!
al weer 45 min onderweg om een dagje te werken in rotterdam...
wij staan bovenaan ja wij staan bovenaan!
hoelaat s de prijsuitreiking van de fifa games?
tralalalalalalal ajax amsterdam 12!!
wiens piemel is zo klein dat ie over zijn eigen ballen heen pist? p
daar gaat je fifa 14 p
ga pilsen ofzo p
ja boy ik en femke gaan mee backstage p
tijdelijke club willem, je komt gewoon weer lekker in vorm daar en dan weer lekker loopacties bij onze fc!
triesre figuren bij de knvb
aan de pilsss
waarom staat twente steeds toe om in delen af te betalen als ze zelf geen geld hebben.....?
wakker voor een spannend dagje!
nee ik zeg dat jullie zo slecht zijn dat jullie zelfs van zoiemand verliezen, ga zo door boys
wie verliest fifa van een kindje van 6 met syndroom van down? en haha
jij ook chantallie
wat heeft roc jou hier eigenlijk voor betaald? p
op deze speciale dag maar is ff terug kijken!!
ja ik za jou wel voor schopl met die grote bus
hoezo, of moet jij zijn brood nog smeren? p
jeeej geslaagd voor rijbewijs!
yaay bijna jarig
bijnaa weekend!
maar weer ff een toets maken op schooool
sluiten we samen? p
wat een vieze ongewassen snollys!
pleeeeease steve eruit nu....
achja wat is eigenlijk ook het probleem? 23 wedstrijden gespeeld en nog maar 20 tegengoals lang leve de !
lekkere bak koffie en maar een beetje huisje opruimen
steve dr uit, jans tijdelijke opvolger, en dan volgend seizoen verbeek of rutten?
hee steve! bedankt he lul! zit geen voetbal meer in! topper.
ja blij zijn dat landzaat geblesseerd is anders had steve hem weer van stal gehaald..
kom maar ff halen p
ga als je klaar bent maar bij ons verder p muziek mag zo hard als je wil p
zij zijn ajax zij zijn de beste! zij verliezen 2x van vitesse!
pfff lucky en nog eens lucky ajax
geslaaagd! met als enigste van de groep een voldoende! 7,7!!
pfff nu wachten op de uitslag... spannend.....
trein naar school voor examen meten en storingzoeken...
nog 8 uurtjes werken en dan weekend, met eindelijk weer eredivisie voetbal!
en weer naar school voor een wiskunde examen
aawh heerlijk middagdutje gedaan $
in mijn vakantie vroeg uit bed.. om 8 uur rijles..
gelukkig maar $
mijn oom ja, maar is wel zonde
ooh balen dat is ons kerkhof..
toch niet niet van glanerbrug he...?
jow ik moet free tickets hebben voor zondag p
met pa en rene van der gijp!
zo naar rene van der gijp in de grolsch veste!
asare mag vertrekken bij utrecht? dan heb ik liever hem dan de zeeuw..
die zielige ajax supporters zijn ook weer uit de dood opgestaan nu ze gaan winnen hele wedstrijd weer niet gehoord
retweet als je hier wilt zijn met je love.
zooo daar is flink gestrooid haha
jeeeujjj hij staaaat!
ben toe aan weekend
ik snap jou zeker bwn normaal degene van wie je dit als laatst verwacht dus ga ma na hoe en wat kwa pijn voor mij
iknow maar doe jij iemand zon pijn en verdriet dan verdien jij ht zelf ook.
notmaal doe ik er niet aan mee maar nu heb ik een goeie reden ...
hoppietjop 9,6 voor examen wiskunde
zozo met lieve broer.zozo is 18+ ohnee je hebt een broer met connections!
wij staan bovenaan ja wij staan bovenaan!
dankie was appeltje eitje!
examen was appeltje eitje
danku was een eitje
treintje naar school voor examen!
en nu heb jij hem mee genomen?
rijles!
mundo dat is mijn naam! haha die lui zojn niet goed
er was niks aan de hand voor roda, gooid ie wielaerd er in...
heletijx schreeuwen super joden en als roda dan scoort zijn ze stil a
maandag gaat femke gewoon naar school, hoop dat je het begrijpt p
hahaha van veel piek op de bank, naar nog.maar 1 piek in de boom
geen twente voor mij vanavond maar een avondje school, volgende week examen..
hoor ze fluiten daar in amsterdammm a
is kaartjescontrole
ja hoor was niks die vrije trap
partypeople in de huuskes! polonaise achteruit
maar weer eens een avondje school voor het eerst zins mei weer p
hop snel naar huis richting het vrouwtje, kijken of er daar nog wel wat te scoren valt p
zo lekker richting mien clubbie forza twente!
manu vs arsenal kijken
nog 6 uur en dan weekend!
wordt rustig na de winterstop zonder beker en europa league beter kan niet! hoef je je er ook niet aan te ergeren
liever verlies dan verlenging..
hb blijft het beste he?
en dan nu de klassieker 010 020 !! maar straks de echte wedstrijd
ooh alweer 21 voor hanover...
hanover 11 dus zou nog wel kunnen voor twente, maar voor mij hoeft dat eigenlijk niet meer met die el....
haha van 10 voor tegen 10 man, naar een zeer onterechte 30 nederlaag tegen 11 man. twente neem dit el niet serieus en ga voor de titel!
scheids bedankt voor het verpesten van deze avond, geweldig hoe jij zon wedstrijd hebt kunnen laten kantelen!
sjongejonge word je weer lekker genaaid
haha verrekijkertje derbij
al kaartjes gekocht voor levante fc twente morgen in valencia? p
schatje heeft me lekker naar men werk gebracht met de auto, en dan nu an die arbeid
vanavond komt mijn popje eindelijk terug uit berlijn!
met dank aan !
is handig! haha
dat je uit huis wil? p
jokkebrok
vrij van werk nu weer rijles
maar wel een ajax dat punten gaat verspelen en twente die wint, dat maakt toch alles weer goed!
zo dat was douchen en lekker naar bed!
een dag niet gewonnen is een dag niet geleefd p
even een powernap, vanavond
gewoon twente en dan met timolinho in de spits $
geen idee hou niet zo van demo s kwil de echte en lekker online spelen
kwenie ze is niet zo lief
hoop dat ik je kontje kan geven heb nog geen 13 gespeeld, femke wil niet kopen voor mij..
dat bengston hem maakt.doet me goed! deze jongen verdiend het! hik verdient het de laatste weken al om gewoon basis te spelen
mag toch hopen dat de uitsupportters geld terug krijgen van de spelers + staff?
68 min lang hoor je ze niet die zielige kk amsterdammers
onderweg naar amsterdam met stefan nick en ernest! forza twente!
krijg er een harde plasser van! $
van 4 keer seks per week gaan vrouwen er 10 jaar jonger uitzien
hahaha echt ziek, ze proberen nu voor 3 november hier in het volkspark...
haha beelden gezien op rtv noord? geweldig
de mooiste vrouw ter wereld!
is de flat achter mij was echt cool
lasercontrole euregioweg enschede thv winkels techniek
ik kan niet wachten!!
beter ga jij een beetje oefenen met fifa ipv maar steeds te tweeten dat je met iemand aan het whatsappen bent
richting de stad schatje ophalen en dan even snel langs
moest ilse niet huilen dan? aangezien de mannen en de vrouwen van ons mooie fctwente bovenaan staaan!!!
gezellig en maar watertanden bij het shirtjes ruilen zeker p
iemand voor de trein gesprongen tussen enschede en glamerbrug trein staat stil..
haha onze straat was net op rtl7 politie
ik mag het zijn, en ik ben het! trots op onze jongens! ilove fctwente !
nog even koffie en dan kijken bij dw toppers van samen met josje
hmm terug van theorie dan nu zo maar even 2e helft kijken van van persie al gescoord las ik
ben benieuwd hoe madame morgen op onze nieuwe pup reageerd!!
mocht je willen haha ze hebben er nog 3 hoor p
ons nieuwe aanwinstje...
had ik vanmorgen ook een tijdje!
hee schatje ik maak je morgenvroeg wel om 7 uur wakker! loveyou
eem lekker arsenal kijken.
vloertje in de logeerkamer ligt er in nu zo rijles
wat is de lineup voor volgende aszeszment? p
is verplicht in duitsland p
haha hebben jullie sneijdertje gezien man? psv mist manolevje
verdomme wat ben ik beroerd...
waarom duurt wachten bij de huisarts altijd zo lang....
lekker aant bier straks verder in de stad bij
en hop naar de fysioooo!
wat heb je het ook goed!
telleurstellend...
hahaha nils is geen kinderspel voor mij!
van wie zijn deze fietsen? aangetroffen bij almelose veelpleger van jou?
3 dagen efteling zijn voorbij nu richting de apenheul!
wie laat altijd stinkscheten als die net pizza heeft gegeten? en
yesssss hij is er weer!
lekker live twente kijken!
oke ga vant weekend even proberen want ga over 2 weken snorkelvakantie in egypte
8weken ben nu 2 weken van krukken af, kan kleine stukjes lopen zonder knieband, fietsen wil niet ivm vocht boven de knieschijf
jij weet dat vast wel, mag ik zwemmen met een scheurtje in mij knieband en kruisband?
veel plezier daar ! l
en op naar de fysio!
dan moet je eerst femkes tweet lezen dan.kun je zien waar het over.gaat
oeeeh jij gaat mij echt verwennen $
haha vraag ma niet hoe het nu met haar gaat p
bedankt voor het veilig naar huis brengen van mijn dronken meisje die had het zelf nooit gered op de fiets maar huis..
haha zag je die maden net in dat hoofd? haha gadverdamme
heerlijk die ziektes en enge beestjes....
im posen ivy met mijn lange rode haren
anne heeft mijn batman kleurenvideoband helemaal grijs gedraaid. im poisen, poisen ivy
zoek maar eens op, jij deed altijd of je poisen ivy was p
haha denk dat hem ook nog wel kent
je oude lievelings film is er weer op! im poisen ivy. hahah
fysio en als dat niet werkt operatie..
ja idd ma ben blij dat ze na al die weken.eindelijk weten wat het nu is..
nou heb de uitslag van de mri scan knieband en de kruisband gescheurd!
preischotel maken voor mijn schatje!
jazeker!
zo richting zwolle lekker bij mijn zusje op bezoek d
zo nu ff examentje maken
nou net mriscan gehad zal mij benieuwen
teleurstellend van haar
haha ze heeft mij nog niet getweet of gewhatsappt p
denk vodafone.. ook steeds geen internet he?
solicitatie gesprek ging lekker
vanmiddag gekocht en inmiddels geinstalleerd
denk fat vd wiel geen mooie transfer gaat maken, wat speelt die vent bagger...
yessss waarom nou niet al het hele toernooi zo spelen! klasse!
good het zal mij benieuwen, laatste kans..
hoezo eigenlijk geen 3e meer?
welkom bij de club van 21 jarigen, gefeliciteerd! d
dat meen je niet.. kut griekenland..
ja blijf je daar werken dan vast contract? p
hahaha ik heb toch gezegt torres super spits p
haha dus zo kijkt rene van der gijp als je zijn horloge vraagt haha
jow tot wanneer werk jij nog bij xtronx?
van marwijk moeten iets verzinnen tegen portugezen euh heel nederland had al wat verzonnen? behalve bert
ohja btw, c.ronaldo al 5 wedstrijden op rij niet gescoord maar zondag tegen nl wil het wel
het is bijna voor bij en dat is primaaaa viva hollandiaaa beter dan je steeds ergeren.aan zon wanprestatie
huh en nu kan hij het wel net rechts?
haha let op straks in de 70e min komt kuijt er weer in
kanker mathijsen!
en ik maar denken dat twente ons in de steek liet! nou over in de steek laten gesproken
gefeliciteerd! xx
poging 308417 tot slapen
wat eeen goaaal hahaha gritsj
en zo is in een klap alles anders...
pff voel me beroerd en slecht kan niet slapen...
wat niet?
haha het blijft een loterij
ja maybe kon ik beter niks zeggen p