klunen van heerlijk boek met korte verhalen veel leesplezier!
wat een start💪#maxverstappen
wat een wedstrijd!!!!! hoppaaaaa
een hele hele hele grote voetballer neemt afscheid!
zijn we blij mee💪🇩🇪
een drankje doen met frank! maar waar is frank? 😳
nooit te vroeg juichen😬
het was te verwachten met zon opstelling. terecht dat de trainer is ontslagen. tijd voor een duitse trainer.
tijd voor een duitse trainer!
omg, wat cool👍
prachtige advertentie op marktplaats😂
👎
bij pupillen uiteraard de thuisclub.
prachtig! wat een rit van contador💪
hopppaaaa, eerste prijs is binnen. winnaar supercup💪#supercup2017
begin jij na de zomer voor jezelf? gebruik de vakantieperiode dan om je voor te bereiden, samen met yike!…
onderweg naar met twents netwerk!
de tour is weer spannend!! knap van aru👏#tdf
jaloers🙏#tdf17
andere tijden sport nu op npo3 over wielrenner rasmussen!
heerlijke column👌#tourdefrance
wat een naar elftal is dat chili
dank je rob......het was heerlijk
indofood op kantoor. altijd lekker😋
kunsten op straat in centrum hengelo!
met een heftig einde........#senna
hoera hoera hoera👏👏👏technisch directeur van breukelen vertrekt bij knvb via
vanavond naar de nacht van hengelo. wordt een mooie avond!
wat een held💪🇱🇺 dumoulin dolblij en opgelucht na eindwinst in giro ditalia via
mooi verhaal!! veron stopt definitief als speler na korte rentree bij estudiantes via
wat een held👊
prima gedaan👍
hans van breukelen nu bij wat een pannenkoek is het toch ook😞#aftreden
weg met die van breukelen. kan toch niet langer zo!
onderweg naar groningen voor de horeca app!
goed getraind voor de mont ventoux💪#wielrennen
heerlijk aan het genieten bij klein afrika in oldenzaal. top plek voor ouders en kids👍
yike mocht alle communicatie voor jak en rock festival op touw zetten. supergave opdracht.
voor onze deelname op de beurs hartelijk horeca kregen we vandaag een prachtig boek cadeau. bedankt…
heerlijk gefietst💪#wielrennen
lijkt me verstandiger dat hans van breukelen vertrekt.
begin jij voor jezelf? samen met yike maak je een vliegende start! check
hoppa, ingeschreven voor de 2017. de grootste en zwaarste toertocht van midden nederland!
er staat in jullie bio nog steeds dat de jjc 20 juni 2015 is en de volgende editie 25 juni 2016 is. dat klopt toch niet?
dat was in de lidl op twekkelerveld.
vandaag exact 22 jaar geleden was de eerste uitzending van met toute fabienne!
geen fruit bij de enschede 😳
nu winnen van wolfsburg en dan zijn we deutscher meister 2017
kan die nu echt helemaal niets😳
wist je dat wij al een mooie, moderne en professionele website voor je maken vanaf €749,?
heerlijk weekendje weg goed vertoeven hier👍
ongelofelijk😳
ongelofelijke arbitrage. en dat op dit niveau. schande!
check de nieuwe website van uiteraard ontworpen en geschreven door
2017 ✅
succes en wie weet tot straks
onderweg naar valkenburg voor de
onderweg naar om te zien👊
zeker weten.
wat een wedstrijd😳#juvbar
kom allemaal naar in de hazemeijer in hengelo. vandaag is de laatste dag. stuur mij een pb voor gratis kaarten.
gaat goed hier op de beurs
vandaag gebarbecued met dit overheerlijke sausje op tafel
ongelofelijk.......#twepsv
op 10 en 11 april staan wij op de horecabeurs in de hazemeijer in hengelo met onze horeca app.…
wist je dat we naast onze digitale producten ook hele handige diensten aanbieden? check onze site…
voor de website van bert wesselink mochten wij alle tekst herschrijven en het redesign doen!
gestemd👍#verkiezingen
team leerkottedelwi reunited!
dé app voor winkeliers!
heerlijk duits bekeravondje
heftig hoor the missing seizoen 2
meer vaste klanten door een app😳? nieuwsgierig?
heerlijk tapas eten bij paddys enschede
weer van de partij
dankjewel voor een heerlijke voetbalavond💪
gerechtigheid!!!! 41 bayern. wat een slechte arbitrage😔
inderdaad
absoluut geen penalty. slechte scheids😡#bayars
toooooooorrrrrrr!!! wat een doelpunt van arjen robben. niet normaal👊#bayars
heerlijk avondje champions league! forza bayern!
heerlijk borrelen bij met twents netwerk🍻👍#netwerken yike.nl
vandaag de nieuwe website van twents netwerk gelanceerd. nieuwsgierig?
een netflix aanrader sneakerheadz moet je wel van sneakers houden natuurlijk🤓#netflix
nu lekker eten met de rotary
in weer en wind staan wij klaar voor onze klanten ook in duitsland
heerlijk avondje bekervoetbal
te gekke docu op
today matchday!! 3 pnt blijven in enschede!
de lancering van yike is een feit! trots zijn we op het eigenzinnige broertje van upx. bezoek onze nieuwe website…
eindelijk lente😉
hoppa! ook nog 3 pnt mee naar enschede💪#beetjemazzel
jaaaaaaaaa, winnaar
hoppa, set 3 is binnen. nu de laatste nog💪#rogerfederer
wat speelt ie goed zeg💪#rogerfederer
daar gaan we dan! finale australiën open. go king roger💪#tennis
eindelijk weer eens een balletje slaan vanavond🎾@tvwoolderes
wat een held! via
was weer een ouderwets avondje
3 punten graag vanavond
even natafelen met
dat is nog eens goed nieuws👍#fcbayern
het was heerlijk vanochtend😃#mtb
wat een einde......#thefall
heerlijk uit met twents netwerk bij in gorssel
welkom op twitter. nu nog een profielfoto en een biografie en je bent helemaal hip😉
en nu verder met seizoen 2 van the fall op wat een serie
vanochtend heerlijk gefietst in winters landschap!
de eerste km van dit jaar zitten erop💪#mtb
super gaaf filmpje over mijn fietsjaar 2016 gemaakt door 👌
eerste werkdag in het nieuwe jaar is een feit💪
ben normaal gesproken helemaal niet zon dartsfan, maar wat een wedstrijd! anderson vs wright
avondje darts dan maar! 1/2 finales
haha, nee vandaag niet. beetje brak😉
have fun, fiets ze💪
erg cool filmpje van mijn fietsjaar 2016 gemaakt door
ik heb hem al getekend, u ook?
kids naar opa &amp oma vandaag! want het is kerstmiddag🍻🍻#kerstmiddag
wat een affiche! de nrs 1 &amp 2 van de bundesliga!
rhyme &amp reason al gezien? ook een aanrader
de mosbeektoertocht was prachtig vanochtend. super georganiseerd👏#mtb
kinderdisco met en lenneke........oh ja, en natuurlijk de kids😉🍻
het is weer tijd om een balletje te slaan
geweldige avond gehad van met een erg leuke presentatie van
op bezoek bij de voor de eindejaarsbijeenkomst van
nu de release van 2 bij de platform voor ondernemend regio twente!
wanneer luisteren jullie eens naar de inwoners van hengelo?@gemeentehengelo
wakker worden met een brede glimlach😃dankjewel
today matchday! en wat voor één, twenteajax. 3 punten blijven in twente!
dat zal de klanten leren😂👌#opvoeding
nee! gewoon 32 landen zoals nu!
dit filmpje echt even kijken! het gaat hartstikke goed met de regio twente!
nu vit bijeenkomst bij twente index 2016
bedankt voor de tip👊
wereld voetballer arjen robben nog steeds belangrijk voor
het shirt van dit seizoen
hoppa bayern weer drie puntjes. en nu fc twente nog
vandaag staan wij als google partner op de digitale werkplaats.
daar gaan we!
wat een fantastische kinderfilm de boskampis
en nu de wedstrijd vh seizoen dortmundbayern
en nu heerlijk uit eten
nu op bedrijfsbezoek bij de vanuit
ondanks de uitslag toch een mooie avond gehad.
onderweg naar de fc twentebarcelona vrouwenvoetbal
als koppelpartner van salarisapplicatie nmbrs® migreren we jouw hrmadministratie naar nmbrs®. kijk op
haha, leuk man. jazeker zondag vd partij💪
goedemorgen, hoe is het met de kleine man in je buik? leuk hoor een jochie👍
pepernoten en bokbier! dat kan alleen bij en zoooooo!
wat een top avond! met of niet
vandaag te gast bij de duitsnederlandse handelsdag in het borussia park mönchengladbach
trump president.......ik heb er geen woorden voor
was een prima bijeenkomst!
net heerlijk gegeten bij
poehee, wat een weekend👌#feest
herfst party van de rotary!
het concert was bijzonder en gezellig! met
mooi bordje naast de lift
onderweg naar voor een concert van
hoppaaaaa, ik ben ingeloot voor de
daar gaan we👍
benieuwd of uw website goed vindbaar is? vraag bij mij uw gratis seo rapport aan.
kinderen en wintertijd........goedemorgen😏
een app of toch een website?
prachtige docu over bob marley op netflix. echt een aanrader!
wat was weer ouderwets goed vanavond💪#fcbayern
eindelijk niveau bij te gast👍
aanvoerder lahm hoopt op contractverlenging robben bij bayern. ik ook!
check al onze diensten op
zo lekker op de mtb het bos in, met lamp!
hoppa!! ingeschreven voor de 💪💪#wielrennen
buro &amp zo mtb toertocht vanochtend was super
klaar voor een mooi potje! derby van het oosten.
ik ben er klaar voor!
bedankt johan, voor alle mooie jaren👊
night riding in het bos was te gek👊
nieuwe muurstickers op kantoor.
prachtige column met een prachtige laatste zin😉
nu ikt college bij
op zoek naar een mooi vormgegeven, goed werkende en betaalbare mobiele app? contact mij dan!
en nu dan echt de laatste aflevering......#narcos
en een afzakkertje bij
echt werkelijk fantastisch gegeten bij
goed vertoeven hier bij klein afrika👍
vanochtend de eerste veldtoertocht van dit jaar gefietst! jaarsma &amp de boertocht!
allemaal gezellige mensen bij de kidsdisco 🍻👍
klinkt goed. ook bij de woolderes?
het winterseizoen is weer begonnen👍
ach, dat ben jij. ik ga je volgen😉
wordt steeds gekker😳 wat een serie👍
wow, net een auto open geknipt heel cool👍
innovatieve software, creatief design en doelgerichte communicatie. get connected.
leuke beurs gehad in köln. nu hapje en drankje in de stad.
de groepsfoto van de gisteren. samen fietsen voor het
vandaag ruim 200 km gefietst en daarmee meer dan €50.000, opgehaald voor het
vroeg op! vandaag is de pre ride. 180 km fietsen voor het bam!!!
hoezo moeten we allemaal maar engels kunnen! leer twents.....😉
en dat is de 2e overwinning.
60 is best wel een lekker begin.
heerlijk gefietst en een prachtige lucht
onmeunig heet!
weer heerlijk getraind vanavond! ben wel klaar voor de pre ride
hoppa, vanavond naar dortmundbayern!
je eerste volger👍
zegt wel weer genoeg over het niveau van trump aanhangers😞
veel publiek in rio zeg😳
weer lekker getraind vanochtend voor de 3 sept. is het zover. fietsen voor het en
mee eens.........!
was fantastisch. super georganiseerd👍
het moest een keer gebeuren
klopt dat is het zure aan dit verhaal.....#mollema💪
ik ben het ermee eens. anders zouden alle toeschouwers de etappes kunnen manipuleren. goed statement vd jury👍
valpartijen door toeschouwers moeten altijd positief uitvallen voor de renner, vind ik! ook al is hij geen gele trui drager.
kan niet waar zijn......#froome gevallen door een toeschouwer. wat doet de jury???
erg leuke avond gehad. sportcafé met nicojan hoogma, theo de rooij olv eddy van der ley.
zo richting hertme om een happie te eten bij en daarna metropool open air👍🍻
bam!! king roger gewoon weer in de 1/2 finale.
je zou nu maar in berlijn zijn.......😜💪🇩🇪
wat een heerlijke stad is het toch
wat een prachtig verhaal👌#wimbledon2016
nothings gonna change my love for you klinkt het vanuit de stadhuistoren. haha, dat kan alleen in hengelo
en nu een heerlijk verdiend etentje bij amigo in arnhem
bam!! jan janssen classic volbracht
klaarmaken voor de jan janssen classic
kom langs, gezellig. jullie ook fijn weekend.
nee, ben er wel klaar mee....😂😂
vers van de pers! magazine074, zie link voor de online versie
jazeker, neem al mijn woorden terug👌
bij de houtmaat nu!
trainen nu voor de jan janssen classic.
onderweg naar de haringparty van in het openluchttheater in hertme.
twente blijft in de eredivisie👍
dat zeg ik!
heerlijk uit eten bij looks in amsterdam!
onderweg naar amsterdam met memphis on tour.
heerlijk gefietst op mijn nieuwe bike👍
en toen knapte mijn derailleur op de holterberg......😁 gevalletje pech
prohengelo is bende rond stadhuis en graffiti beu
dat was een prachtige docu👏
onderweg naar de nacht van hengeloooooo
heb het ook gezien. kippenvel momentje😅
weer heerlijk getraind💪
bekijkjune gran fondo op strava. klaar voor de uitdaging?
de
op de boot door de utrechtse grachten!
en de rondleiding!
bedrijfsbezoek bij met twents netwerk! eerst uitleg!
vers van de pers! magazine074 uitgave bekijk hem hier!
wederom een prachtige visual👌@fcbayern
weer goed getraind voor de prima gemiddelde 29,5
kijk, zo vieren ze het in duitsland is wel wat anders dan in nederland hè
tranen bij mooi afscheid
kom maar op met die beker! forza bayern
heerlijke middag gehad👍🍻#ibizamarkt
lekker uit eten bij
begin in vorm te raken👍
gisteren gezien op wat een verhaal zeg........ongelofelijk😳
wat een heerlijke avond! top geregeld.
vanochtend mijn eerste ontbijt gehad met twents netwerk! erg leuke club👍
rondje hooidijk was heerlijk👍
dus daarvoor is dat zakje!
bedankt voor het antwoord👍
waarom doet onze straatverlichting het alweer niet? theodora versteeghstraat
hier gaat het vanavond gebeuren! forza bayern
andy van der meijde😂😂👍
frisjes maar toch lekker gefietst!
beentjes op de bank en bayern aanmoedigen. mia san mia!
onze nieuwe uitgave nog niet gezien? bekijk hem hier!
wow, wat een film zeg!
weer heerlijk getraind vandaag. op naar de jan janssen classic 25 juni👍
3000e tweet is een feit!
deadline voorbij. magazine074 is naar de drukker. volgende week bij u in de bus en online.
opdrukken in een bushokje is wel heel triest.......#patser
heerlijk gefietst net. prima weertje👍#wielrennen
wat een fantastische race!
de eerste keer van dit jaar weer op de racefiets. zooooo lekker.
heel knap van twente! 20 achter en met 23 winnen.
bedankt
was echt geweldig. wat een baas!!!!!
erg leuke stadswandeling gehad in het centrum van hengelo!
netwerkontbijt met de
onze nieuwe uitgave nog niet gezien? check hem hier
vers van de pers! deze week bij u in de brievenbus!
wat heb ik gelachen zeg......😂😉
zeer leuke sponsor/netwerkavond gehad bij atc65 met als spreker wim kieft
wat een fantastische voetbalmiddag in heerlijke pot!
today matchday!!!! 3 punten voor twente
begonnen aan op heel erg goed!
wat een heerlijke voetbalavond!! vielen dank bayern👍
onderweg naar voor een netwerkavond van
het was weer een heerlijk avondje in de
onderweg naar de voor de 3 punten!
zeer leuke avond gehad bij
oh echt fantastisch. net de beestieboys gekeken op
friday lunch met broodjes van de broodbode!
bij kids!
en het toetje doen we bij 🍻
heerlijk uit eten altijd goed👍
vanavond gaan we dit varkentje ook even wassen.....😉