veel plezier!
goed bezig! en vast leuk om weer eens te doen als afwisseling!
wat een kadootje dit mooie weer! 12 km vlot door kunnen rennen in het zonnetje!
wat een kadootje dit mooie weer! 12 km vlot door kunnen rennen in het zonnetje!
als je die brondeel ziet keepen de laatste twee wedstrijden denk je toch bij jezelf die marsman was toch helemaal niet zo verkeerd
nou, de hand van verbeek is gelijk zichtbaar grijze broek bij blauw shirt. beleid, verkeerde tas of
mooie hoekbank grijs / bruine stof met hocker! onze bank mag voor weinig weg! delen wordt gewaardeerd!…
voor mij alweer klaar, jij mag er nog twee..
ja nou en of! en noem eens bedragen die ermee gemoeid zijn zie me al naar de…
nou, als je als club open en transparant bent, dan kun je toch rustig het bedrag noemen dat er mee gemoeid is.#toch?
echt wel! en of een nieuwe trainer dit snel kan oplossen...#ikweethetniet
rondje voor de nachtdienst door de motregen. lekker fris! nu twee nachtdiensten er achter aan.
excelsior thuis.. 13
wie had dat gedacht... van de spelers trainen in het veld naar als steward toezicht houden op het supportersgeweld
avondronde gelopen met tijs! 10 km lanteernpoalroute gerend, ging mooi! nu lekker weekend!
ach ja, hoe makkelijk is dat, de trainer eruit..#jammer. nou, het zal me benieuwen
rondje met yannick geweest! hij op de fiets, in het donker👻 ging lekker, genieten met de kleine man
in ieder geval in het oosten nog niet. gelukkig bijna kerst, komen de wijzen uit het verre oosten, wie weet helpt het...
wat een weertje! lekker gerend met bailey! zonnetje op ons bolletje, lekker lopen, wat wil je nog meer!
lekker rondje gerend met tijs. mooi lekker door kunnen rennen, lekker kunnen kletsen
tsja, om te kunnen winnen moet je scoren zei een groot voetballer wel eens.#jc14
nou , wacht maar tot je in hengelooo bent geweest! tot over een week of wat!
jij kunt dat! ik ook trouwens 😬
lekker rondje gelopen voor de nachtdienst uit. was best warm! maar ook lekker! mooi weer gedaan!
haha ja zo kan ik het ook😬
vraag anders de leidingevende even, die heeft overal een antwoord op...
vandaag had yannick zijn eerste hockeywedstrijdjes met de benjamins van ! op bezoek bij in e…
ook mooi initiatief!
iets voor mevrouw myjer
iets met zwaluwen en zomer? woensdag gaan we het zien
jammer dat je een beter aanbod doet om je van te behouden dan wanneer je je vierde abo afsluit!#2maten
eerste rondje samen met léonie gerend! weer opbouwen vanaf 0, we gaan er weer voor! zo op haar!
lekker na de nachtdienst rondje gelopen met maatje bailey! genieten!
rondje met bailey na het eten gerend. lekker kunnen rennen met mijn maatje! mooi weer gedaan samen! ...
typisch geval van als je wint van brood en vrienten
hmmm zo gaat het me hier ook elke maand haha
is er nou niemand bij die inziet dat assaidi niet de beste koop was? je koopt een mercedes, krijgt een opel
kiek m goan dan.. zouden erbij moeten zijn
rondje slangenbeek route van 10 kilometer en een beetje! lekker gerend, nét niet in een keer. volgende kee...
mooi man! gefeliciteerd en een goed weekend gewenst!
moeizaam rondje vandaag! komt ook wel weer goed. toch mooi weer 8,5 kilometer erbij! op naar de volgende!
het nuttige met het aangename gedaan! rondje naar de mediamarkt met bailey! yannick blij, bailey blij!
lekker rondje gedaan met dit mooie weer! lekker kilometers gemaakt! 13,5 km bornsche maten en kleigaten!
whahahaha mijn eigen auto... heb jij weer
ja als je niet kunt en dan ook niets durft, kom je er niet..
ai hoop het! moeten wel hun eigen ding gaan doen, dit komt niet goed zo
soms heb je zon dag dat je even je hoofd leeg moet lopen na het werk. ! yannick mee!
succes met je nieuwe baan!
rondje gerend met bailey na het eten. héérlijk! bailey los mee geweest, ging goed!
lekker rondje gerend met de yannick op de fiets mee! uit de nachtdienst, ging lekker! yannick gezellig aan ...
nou, rustige dienst dan maar!
nou, misschien bij de julierpass?😬🙄
jij kunt dat!
rondje stevig doorgelopen! poeh, heftig maar wel mooi volgehouden. geen zin vandaag.
is wel een oudje hoor
goh wat een geneuzel over dat fietsen... hele volksstammen fietsen naar hun werk
mooi! altijd goed heel twente in vertrouwde handen achter te laten
misschien handig als de heren zich ook aan de verkeersregels houden?
nou, gaat nog niet vanzelf... voor geen van beiden... we gaan het zien.. 11 nog geen gelopen race
rondje deurningen gedaan! loopt weer lekker thuis! nog niet in een keer door, maar dat komt wel weer.
geboren of ik weer het niet
poeh moeizaam rondje... maar goed, mooi nog een keer kunnen rennen in deze mooie omgeving!
kijk, wij uit eten... drinken op jullie jubileum!
tweede keer rennen langs de kust! moeizaam! maar wát lekker! en mooi hier! langs de zee, ...
ha ja, mooie wedstrijd! feyenoord sterker bij de penalties..
nou de bal rolt weer! mooie voorsprong tegen vitesse!
poeh hee wat een wind! met de wind mee viel het mee genieten!
ben benieuwd naar je verhalen!
rondje 13 km gedaan! midden op de dag.minderslim. maar goed, liep eigenlijk wel lekker! en mooi weer gedaan...
super rondje gedaan met yannick op de fiets! genieten van zijn geklets en van het mooie weer!
dit stukje schrik ik van binnen de norm betekend wel goede zorg verleend?
lekker rondje gerend met bailey! was heerlijk loopweer, bailey mooi veel los kunnen rennen!
kind 8 belt 112 en scheldt centralist de huid vol via
heerlijk relaxed rondje met bailey gedaan! lekker gerend, gespeeld en gezwommen! relaxed!
heerlijk rondje! lekker door kunnen rennen! mooi weer erbij! kortom, op de goede weg! nu meer km gaan maken...
hoppa! weer 10 km dr bij! lekker gelopen, toch wel moeten wandelen tussendoor wel mooi gedaan weer!...
wat een regen! en wat loopt dat lekker! rondje houtmaat gedaan, lekker even mijn hoofd leeg lopen.
werkbegeleider cursus afgerond! samen met ,@ferryberg, monique, maureen en an…
haha ja nou en of!
veel plezier met elkaar! geniet ervan!
mooie avond gehad open air met ! genieten in optima forma! volgend jaar weer?…
lekker rondje uit de nachtdienst gelopen. poeh, best wel warm! ging wel goed ondanks de vermoeidheid!
heee is dit een voorteken?
ah mooi man! gefeliciteerd met niké!
lekker rondje buitenom gelopen.. smeulend vuurtje onderweg..#samdebrandweerman gebeld. heerlijk l...
samen met late dienst op de druk druk druk! als de nood aan de man is, altijd 112 bellen!
succes vanavond! zal goed op jullie passen!
haha jij kunt dat!
lekker rondje gelopen! heerlijk loopweer zo! gaat steeds beter gelukkig! ...
das niet zo mooi! sterkte voor de collegas
nachtdienst 2 van 2 er bijna opzitten met was gelukkig niet zo heel druk!
nachtdienst 1 van 2 samen met slaap lekker allemaal! bij nood bel
vanochtend lekker relaxed gelopen met bailey! was lekker loopweer! genieten dus!
mooi man gefeliciteerd!
weer een heerlijk rondje kunnen rennen! mooi beetje vóór de warmte uit.. dacht ik.. dus best wel warm al! ...
mooi moment voor en met niels! ongeslagen kampioen geworden vanmiddag huldiging bij ! mooie afsluiting v…
en zo is het!
yes! eerste 10 kilometer is weer een feit! mooi weer om te rennen hoor! weinig last tijdens en na het ...
morgen is het zo ver! dan wordt je dus 50, een hele mijlpaal!! vandaag het huis mooi versiert door de buren en mijn…
hoppa! trots op niels! kampioen geworden met de jc2 van mooie prestatie zaalkampioen en ongeslagen kamp…
rustige nacht! zal goed op jullie passen!
heerlijk gelopen! lekker rustig aan, bailey had niet veel zin. mooi relaxed rondje voor de nachtdienst!
mooi gedaan dus!
maar wel geweest! knap!
samen met de collegas van en !#dmvda
vanmorgenschoolbezoek gedaan bij de klas van yannick! mega multi brandweer, politie, ambulance én meldkamer!…
indrukwekkend concert voor manchester! coldplay speelt fix you..
héérlijk rondje gelopen samen met léonie! interval 2 minuten rennen, 1 minuut wandelen. mooi afstandje!
geen kadootje vandaag. moeizaam rondje, benen wilden niet. wel mooi weer een rondje gedaan! wat een weer ze...
tja, als hem dat bezig houdt
lekker rondje gelopen met bailey! lekker voor de warmte uit! bailey genoot ervan! ik ook!
poeh! heerlijk gelopen! ondanks de warmte! 26 graden, hoe mooi kan het zijn!
veel plezier! geniet ervan met elkaar!
vandaag goede en leerzame newborn life support scholing gehad! veel gezien, veen gedaan! leerpuntjes meegenomen!…
loopweer, dus hup, rennen maar! 7 kilometer alweer, ik hem dus op de weg terug gelukkig!...
twee lichtbruine fateuils! mooi voor erbij!
eerste zes kilometer in de benen! wat een weerthe!was pittig! twee keer stukje wandelen
vandaag goede hulpverlening kunnen doen met de collegas van patiënt met de hoogwerker uit huis g…
en dóór! mooi weer rondje gelopen samen met léonie! op haar! wat een mooi loopweer! ...
echt wel! maar oh oh wat een vertoning. als ze vanaf de eerste minuut waren gaan ballen, was het nu feest.
hoppa, weer rondje gedaan met léonie! lekker gelopen, en vooral klachtenvrij! nu op naar de volgende!...
hulsbeek?
joepie! we hebben kaarten voor we komen met het héle gezin bij je langs! eet je bij ons v…
kijk, das mooi! pa op de foto en vast erg enthousiast!
zo, dit is bijna alweer het eind van nachtdienst 2/3 op de mkaamen met het liep weer mooi door vannacht!
onze yannick, bijna 6, een maand geleden opgegeven, nog geen uitnodiging voor een training gezien, geen reactie op mail..#jammer
haha welnee peter, als er een een lintje verdiend ben jij dat!
fijne vakantie! geniet ervan met elkaar!
goed bezig! welke afstand heb je gelopen?
blije man! voor het eerst sinds februari weer stukje kunnen rennen, pijnvrij! mooi samen met leonie weer begonnen!!…
jullie ook! geniet ervan met elkaar!
hoe leuk is dat! paasontbijt klaargemaakt door en irma! das leuk binnenkomen op eerste paasdag! fijn…
gefeliciteerd! mooi man!
mooi gedaan! gefeliciteerd!
dit voelt zo niet goed...
mwah dit is niet nieuw toch? omvang misschien wel...
succes vandaag! goede reis!
tsja, en dan sta je met je foto op het jaarplan ! had niet gehoeven van mij, maar vind het stiekum…
hoop trouwens niet dat je voor elk doelpunt van een broodje hebt gegeten..#nietgezond
wij hebben bij onze ggb en psychiatrie scholing bij goede scholing psychiatrie gehad. e…
haha kiek ze goan dan... helft van het koppel en gezond eten,
pffff wat jammer! dit nederlands elftal heeft niets te zoeken in rusland.. iemand al gepolst?
eerste dag van de cursus werkbegeleider! samen met collegas ahv met en
hoe mooi is dat! groot gelijk!
goh kerel, ie werkt toch ook altijd hè!
mooi stuk op over jullie moeder !
de toppers van jc2 kampioen!
vandaag europese dag van 112 dat hebben we geweten! samen met
ik zeg gefeliciteerd! uitpakken maar!
nou het kadootje laat nog even op zich wachten! gelijkwaardige pot tot nu toe!
hieperdepiep hoera! gefeliciteerd met je verjaardag! 🍻🎈🎉🇳🇱🎁🍸maak er een mooie dag van met elkaar!
heerlijk appeltaart bij de koffie! toffe peer die
al je nog een stukje over hebt..#kannietwachtentotmorgen
precies, vol dr op!
vertel mij wat... brrrr veel sneeuw, mooie hulpverleningen!
ha jah... barre weersomstandigheden
en daar zijn we weer! late dienst tot 2300 in afwachting van het zijn ze op tijd?
poeh nou! mooie prestatie hoor!
yep, daar gaan we voor! jij lekker gelopen?
nope, dikke griep hier#balen
nou, het startnummer is binnen voor de woolderesloop! mijn hoofd zegt gaan mijn lijf zegt griep.morgenvroeg maar ee…
kiek dan heeee old school... brings back memories..
mooi verhaal !
jullie ook een fijne jaarwisseling met elkaar! op naar 2017! 🍻🍸🎇🎉
samen met en luisteren.. en kijken! hoe leuk is dat!
jullie ook fijne feestdagen gewenst! 🎄🥂🎄
keerl weer goed bezig!#trots
te laat uit bed voor de midwinterloop in borne, dus mijn eigen loopje gedaan. lekker gelopen!
ook fijne feestdagen voor jou en iedereen die je lief is!
onverwacht vrije dag, dus wat doe je dan? juist, heerlijk rennen, gewoon omdat het kan!
zonder bepakking al een hele opgave...
auto van neemt binnendoor weg over het fietspaden bij de topweg
en dóór! boerenrondje gerend, was weer lekker! weegschaal en ik waren het vandaag eens het is hard nodig!...
dit was weer een heerlijk rondje! mooi weer, lekker fris, lekker gelopen!
veel plezier!
bijzonder energiedeal als trotse supporter bij hoofdsponsor deal via fc twente per maan…
nou, dit was niet mijn fijnste rondje.. bailey geen zin en mijn benen geen zin.jammer maar goed, wel gedaan...
mooi weertje! lekker gelopen, mooi de 14 km weer aangetikt. geen straf met dit weer!
wow, wat een lekker weer om te rennen! zon en kou, hoe mooi kan het zijn! eerste rondje na de 7hl met bail...
goed bezig keerls!
7 heuvelenloop mooi uitgelopen in mooie tijd! 11759 officieus! pfff wat een wind
klaar voor morgen! de derde zevenheuvelenloop! wordt een stormachtige dag..#vaakbenjetebang
ik ook, is wel mooi duidelijk zo
zoals ze bij ons beschrijven is het een pilot, in ieder geval met de positie van de wagennummers.
goed bezig!
lekker rondje met bailey gerend! langzaam tempo, heerlijk! voorbereiden voor de zevenheuvelenloop!
het wás even zoeken, maar we hebben het voor elkaar! yannick zijn naam in chocomel pakken! hoe leuk is dat!…
dát was een pittig rondje vandaag... moeizaam, stramme spieren.maar wél weer mooi gedaan!
rondje om de bornsche maten gerend! ging lekker, tempo zit er mooi in! op naar de7 heuvelenloop!
gister de prijsuitreiking van de grote clubactie bij grote winnaar dit jaar mo111!
hieperdepiep hoera! gefeliciteerd! 🍸🇳🇱🎁🎈🎉🍻maak er een mooie dag van met elkaar!
ahhh heerlijk! drukke week, toch tijd gemaakt om te rennen met léonie en bailey! lekk...
kalm blijven en nuchter nadenken!
heerlijk meer kilometers in lager tempo gelopen! blijft lastiglangzaam lopen. toch maar mooi weer gedaan!...
en weer lekker gelopen! fris, maar wat een mooi weer! genieten! hoe mooi kan het zijn!
nou, dit was weer een echt uit de nachtdienst rondje. pfff maar toch wel mooi gedaan!
2 van 2 op de twente... we gaan het weer zien vannacht! slaap lekker, mijn collegas en ik passen op!
nou, als je nog om gespreksstof verlegen zit... ik heb ook nog een zolder...
eerste van twee nachtdiensten op de iedereen lekker slapen, wij passen op!
heerlijk rondje gerend met maatje bailey! samen genoten van het mooie weer! wat wonen we toch mooi in
altijd mooi om te zien glimlachende gezichten van bij het zien van de voetballende minis
ziet er top uit! binnenkort late dienst samen?
after dinner loopje gedaan! toch mooi gedaan! vlot rondje kunnen lopen!
gefeliciteerd! het een houdt geen verband met het ander?
na een drukke week én nachtelijke kramp in de kuit weer lekker kunnen lopen! hoofd weer leeg, nieuwe energi...
wat een geluk weer! mooi kunnen hardlopen met dit mooie weer! mooi weer 13km, op naar de
het eerste volle boekje is een feit! 25 loten ingevoerd voor de grote clubactie 2016! op naar de…
mooi groot boerenrondje gelopen! heerlijk en wat een mooi weer nog!
weer goed bezig!
kiek m goan dan!
keerl wat wordt je iedere keer toch in de watten gelegd!
volgende week gaat de grote clubactie weer van start de minis, interne competitie en de f, e en d jeugd gaa…
heerlijk rondje gerend! wat een weertje zeg, zo lekker!!13 km in de benen, ging lekker!
ehhh de link werkt niet.
blij! na een week snotteren en nachtdiensten vandaag heerlijk gelopen met moatie bailey!
heb je als bestaande klant ook een leuke aanbieding met horizon box?
menzis singelloop enschede 2016
bijna klaar voor de mooi loopweertje volgens mij...
altijd handig lijkt me
pittig loopje! voorbereiding op de na een extra dienst, voetbal en feestje was het nog wel een...
succes vandaag!
hij doet hey gelukkig weer! thanks!
ik wil horizon go kijken op mijn iphone, maar dat lukt niewil toch graag zien rijden.
sterkte!
vanmorgen was het lekker koel, dus weer eens een rondje met bailey gerend! allebei genoten onderweg!
weer 12,5 km gelopen! op naar de blijft wel een dingetje, rennen na de nachtdiensten.....
rondje in de warmte gelopen... hele opgave, maar toch mooi even gedaan! voorbereiding singelloop ✔️
naar de ikea boodschapje doen.. nuttige combineren met het ehhh aangename 😁#carpediem ...
en we zijn weer thuis! dus samen met léonie weer een heerlijk rondje buitenom gelopen! lekker hoor!
gefeliciteerd 🎈🎉🎁🇳🇱en maak er nog een mooie avond van!
hoppa mooi rondje gelopen. in het zonnetje.. jaja! 15,5 km! heerlijk!
en weer een lekker rondje gerend met bailey en leonie! steeds een stukje verder!
aan t werk jij...🚑
toch maar weer gedaan!
pffff jij praat over slecht, ik over minder goed... klinkt prettiger...#omdenken
heerlijk vakantie! lekker rondje gerend, veel wind en een heerlijke temperatuur! zin om loopjes te lopen!
yesss rondje onder de 5 min per km gerend! op naar meer kilometers in dezelfde tijd!
rondje samen met léonie en bailey gelopen! mooi rondje bornse maten! op leonie!
hey dat is ook zo! veel plezier met elkaar!
ach wie zal het zeggen? bij mij loopt t prima, op t werk xp ook nog gangs,
hey in amsterdam of thuis voor de buis?
en bijna de 15 km weer aangetikt! lekker loopweertje, best warm! maar ja, het is wel genieten!...
zooo dat was even lekker na een dag werken! heerlijk gerend! mooi weer gedaan!
kijk, daar heb je hem wel...@hebro71
keerls veel plezier! lijkt dat overwicht heeft...
gelijkuitbednadenachtdienstrondje! heerlijk gelopen, nog wel warm.. gelukkig. ...
hieperdepiep hoera! 🍻🍸🇳🇱🎉🎁gefeliciteerd met je verjaardag! maak er een mooie dag van!
lekker in de stromende regen gerend met bailey! heerlijk na al die warmte! allebei goed gelopen!
lekker avond rondje gelopen samen met léonie! top prestatie neergezet, knap gelopen!
poeh warm! wel lekker pijnvrij gelopen! de lanteernpoal route, 10 km door borne!
mooi hoor! gefeliciteerd!
lekker man! fijne vakantie! geniet er lekker van met zijn allen!
lekker eindje gelopen! heerlijk, net uit bed en dan aan t rennen! wel iets last van de lies😕
waardering voor je inzet
na een week rust weer langzaam begonnen samen met loopmaatje bailey! heerlijk gerend, weinig last van de li...
zo is het!
zo voelde het idd wel vanmorgen... weegschaal is liever voor me sinds ik weer meer loop... en minder eet
het nuttige met het aangename verenigen auto ophalen uit enschede! spier in de lies zei plop
oei oei de poule winnen is dus een
heerlijk gerend met bailey en léonie. wat een genot met dit mooie weer! gezellig kletsen en lekker gelopen!...
op jullie! rustige nacht gewenst!
oei oei das bijna in een week! go ijsland!
oei oei das alweer 13,5 km, op naar de 15! wat een heerlijk loopweer!
veel plezier! geniet ervan!
poeh 🎤hot in the city🎤 en daarbuiten! toch maar mooi weer lekker gelopen!
lekker rondje uit de nachtdienst met moatie bailey gedaan! heerlijk nat laten regenen!
hoe kritisch is de pers geweest in de mooie tijden? niet verder gekeken dan jullie neus lang was of gedegen kritisch geweest?
zo... even de uitslagstress eruit gelopen met bailey! lekker loopweer, best warm!
spannend dagje vandaag! uitslag van het examen van bart! en pas tussen half zes en zeven..
.... en heeft bart de uitslag mag aan de bak!
over de 12 kilometer! heerlijk gelopen, wel warm... maar droog! op naar de 15 km!
goede dienst gedraaid met en collegas. mooie multidisciplinaire inzetten gehad met de@poloverijssel en en
wel erg naïef... kort geding aangaan en er dan niet op rekenen dat je ook kan verliezen..#uithuilenenopnieuwbeginnen
topper! gefeliciteerd!
de zin weer terug en de regelmaat erin! vanmorgen relaxed rondje met bailey! nu lekker lunchen met bar...
heerlijke vrije ochtend loop gedaan! op naar de late dienst!
en daarbij...#kalmteredtlevens
🎤follow the sun🎤 niet zo moeilijk met dit mooie weer! heerlijk gelopen!
bedrijventoernooi softbal gespeeld met de collegas van gezellig evenement!
hou vol! je kunt het! 👊
bardienst hockey ✔️ twee uurtjes vol aan de bak... supergezellig en leuk om te doen de bardienst van jc3...
en vanmorgen weer náár het werk gelopen, ging een stuk beter! vanavond met léonie en bart naar ub40!
en wat lopen we zelf vandaag?
mooi rondje gelopen samen met léonie! 3x12 minuten met 3x3 pauze ertussen, mooie meters gemaakt!
boerenrondje gelopen met bailey! fijn loopweer! gelopen met nieuwe riem voor bailey, zodat ik de handen vri...
wat een weertje! nog even heerlijk van genoten met bailey! rennen en zwemmen, wat wil een hondje nog meer!...
rondje naar het werk gerend, binnenkort weer eens oppakken. hoofd leeggelopen na hectische dag gister.
zooo ook weer klaar! heerlijk after dinner loop met léonie en bailey! mooi weer gedaan! heerlijk loopweer! ...
heerlijk gelopen met bailey! wat een heerlijk loopweer! genieten!
beetje laat, niet minder gemeend gefeliciteerd! 🍻🎁🎉🎈🇳🇱🍸
toch mooi dat er een flink aantal exfc twente spelers bijzaten
kan ik me voorstellen! als je graag wil en het lukt niet...#balen
heerlijk after dinner loopje met bailey! was heerlijk! en zooo mooi onderweg! en pijnvrij gelope...
heerlijk gelopen na een enerverende dag! ondanks griepgevoel goed kunnen lopen!
nou, sinterklaas valt vroeg dit jaar zag ik net.tijd voor een videoscheidsrechter? wie krijgt de zwarte piet vandaag?
deed het bij mij altijd wel goed...
vertel... phtls? komt goed volgende keer!👊