hahaha lekker, karma voor die aanvoerder van twente
ik was drinken in aan t schenken en schreeuwt opeens, rip drinken 2k17
en gewoon uitrijden nu
bottas achter hem houden wordt niet lastig, bottas heeft betere tijden gehad en lewis en seb komen niet dichtbij genoeg meer 1/2
1 uur downloaden 😕
ik krijg de game tussen 1525 en 1725 binnen🙂, gelijk uittesten dan xd
bullshit joh, als ie daar een straf voor krijgt dan is de fia een antimax
nee nee nee, niet weer een penalty neem ik aan, dat ze daar nog naar moeten kijken joh...
wat een beesten rondje, hooelijk wordt dit zn eerste pole inderdaad
nice xd, welk team raad je aan om mee te beginnen? krijg de game morgen binnen xd
heb het spel iig besteld d
pff xd, dan kijk ik ff of ik het ga kopen xd
hoe duur is zon stuurtje? xd
ik ben al weer wakker xd
ik wil dat spel ook, waar doe je het op? dan ga ik ook kopen xd
lekker, ik zit de heletijd rond de 38003900 te strugglen ☹️
ah oke
wat is dat xd
zo schattig 🐯
ik zie bij bijna iedereen dat ze 50 minuten lessen hebben... komt mijn school aan met 1 uur lessen
das al anderhalf uur zo xd
niet hier
max verstappen gaat wild
hoe kansloos kan nederland zijn...
ik voor coleider 😄
in zn verjaardags weekend
als er nu een sc zou komen, dan wordt vettel gevaarlijk
en als hij tussen perez en alonso blijft komt hij niet snel heel dichtbij
hij loopt nog steeds 30 seconden op max achter he
en az met 02 achter tegen excelsior. whahah, lachen weekend dit 😄
oke 🙂
teletubbies zijn cool
ohh, dacht al 😂
prachtige shirts 😂😂
je clan gaat ook goed wow
ik had net gob barrel mirror en kloon lol
doe ook voor mij! kappa
euhm, geen idee 😄
f1 2017 op pc of ps4! is echt een super leuke game d
2 rockets, is dat de bedoeling? xd
11 september 2001 was mn broer geboren xd
toen was mijn broer geboren xd
yes, drop paypal links if you votes yes!!!1!1!!1!1!
jup 😂
dit seizoen hebben ze inderdaad een redelijk zwak elftal, maar voorgaande jaren was t beter
volg mij voor die 60 🌚
en ook ik heb graveyard uit een legendary chest 🤔
dan moeten we weer zo lang wachten! kappa
iemand die een actieve clan heeft? anders maak ik zelf wel 1 als er mensen in willen 🙃
mja true maar kon vandaag amper iets doen dus vind t wel janmer, denk dat je dat wel begrijpt
😭😭 heb dus voor niks vorige week 130 crowns gehaald /
vindt t echt heel jammer /
ik kon de hele dag amper wat doen aan clan chest en nu ben ik gekicked 😭
ja inderdaad, hij had gewoon een geheel andere opstelling moeten maken, strootman en sneijder waren echt t…
snapte de keus om van persie er in te zetten niet echt
echt slecht inderdaad...
ja inderdaad 😂😂
ben wel blij met legendary uit free chest maar ice wizard ben ik niet heel blij mee
welk jaar speel je dan wel niet, jeugd is meestal maximaal 1.5 uur 🤔
op weg naar parijs 🙂
je moet ajax zien verliezen! ze gaan onderuit in venlo 100%
ewiz is echt een goede legend 👌
toch nog even speciaal voor van internet gekocht op de camping in frankrijk 👍🤔
teletubbies zijn gangster
eigenlijk vind ik van wel 🤔
ohh gewoon met de auto, was namelijk een dagje barcelona, best wel zielig hoe al die bloemen en kaarsen…
hoe bedoel je? 😂
ik zag het een beetje laat maar daar moest ik eergister ook langs 2 uur file en de terrorist is later ergens opgepakt 🙂
grens van spanje frankrijk?
jup, ze vertrouwen minder op mensen uit andere landen... nu nog over de grens van spanjegehaktbal komen
en ook niet zon klein beetje, overal politie, we werden zelfs nog een keer aangehouden omdat we verkeer…
zo was dat iniedergeval niet in barcelona vandaag xd
sws het noorden
ik ga zondag naar barcelona 😕
yeey ik ben vrienden met sammi xd
jup
vind t wel een lekker deck om mee te spelen, heb 5 potjes gewonnen van de 5 potjes die ik net speelde
ben hem ook aan t requesten in de clan etc.
9
tips?
als je in kijkduin op vakantie gaat, dan heb je raids met 20 personen en dus een moltres
maar ik ben niet bij die gym. zit er een paar minuten van af
blijkbaar
ik open mijn pokemon go 1x weer... ik kon niet meer op mn account zit nu op een lvl 5 acc en ik zie dit 😂
iemand die een goed graveyard deck weet op clash royale?
nu zit ik te twijfelen in welke ik moet gaan xd
dan kijk ik de stream terug en dan zie ik backpacker met zijn ballon!
doe eens een keer gek met clash royale p
beter dan 0x winnen p
ik heb een noep clan
ze dacht dat ze alleen was en wilde zm plegen, maar kreeg een berichtje dat een vriend van haar hield en zij ook van hem
is 200 ofzo goed? zag dat je 160 er meer op vond lijken, wel tof dat je iets met zoveel waarde weg geeft?
volgend jaar psv weer
jaaa
xd
via waar kun je dr heen
weet niet waar je woont maar oke xd
why? je hebt zoveel bereikt
euhm ik zeg niks meer p
als je boos bent, leer dan eerst nederlands lol
ey 30 einduitslag, ik zat zelf in t stadion van fc groningen lekker voor psv te zijn, ook niet heel goed maarja
ben ook een lvl 1 p
ik wil ook bij jou werken xd
hoeveel kilo weegt dylan, en hoeveel is het verschil in kilos tussen dylan en snorlax
16 uur speeltime lvl1 iets van 2 week geleden begonnen alleen ben nog nie zo actief omdat ik niks te doen heb p
sow
hoeveel is ie eigenlijk waard ongeveer?
ik ben een lvl1 en weet 100% zeker dat mijn whitelist ga verlengen... dus ik zou graag 50k…
620k winst fietstubbie
lvl1 tijden zijn hard
ik krijg 500 per uur als een lvl1, als ik 24 uur op een dag online ben, krijg ik 12k lol
als ik win klinkt zo arrogant om te zeggen, als je mij laat winnen haha
als je mij laat winnen hoef je me maar 250k te geven en mag je de andere helft nog aan iemand anders geven
leuk huisje voor mijn vrienden en mij kopen
nou ja ik ben lvl1 heb wat geld nodig voor een leuk winkeltje met mijn vrienden te starten in 1 van de…
ik zou een bedrijf maken en een grote villa en ik zou ongeveer 1 miljoen verdelen onder mijn beste vrienden 🙂
op mt, ben een lvl1 xd
mag ik een rt deal met jou ergens over? xd
zijn er mensen langs gelopen? xd
euhmm
stuur foto van je coords waar je zat xd
dammn, dacht dat je in je winkeltje stond xd
ik kom wel xd
nee houd maar lekker, jij hebt gewonnen
dat zijn de mensen die het net zoals ik ook wilden hebben maar niet kregen, maar ik kan er tegen
wanneer komt de update?
oh dus je hebt interesse? xd ik kom wel
alleen red rosés chest en greel leggings xd
ik heb alleen maar skeere kleding xd
410k winst fietstubbie
heeeeuyyy psv, met deze stand ben jij ook wel blij zeker
minecraft naam suggesties?
heuj dylan gratz met je 10k man op naar 11k
succes wel ff vloggen he, had je belooft kappa
410k, winst, fietstubbie
iemand die iemand kent die rt deals over geld in minetopia doet?
gekke youtube moneys ga je nu verdienen kappa, mooi getal hoor!
ja! super graag, waar kan ik jullie contacteren?
ik kwam sendurr nog tegen in de bus xd
was vanochtend op zoek naar een baan xd nog steeds niet kunnen vinden. nu eerst 150 plekken wachten totdat ik kan joinen p
... snapte hem serieus pas na een paar minuten
oh chill, ik ga beginnen en als het leuk is koop ik daarna een whitelist kopen!
dus zonder whitelist?
is minetopia voor altijd vrij?
neem je maankoekjes voor me mee?
410k winst
een stream van dylan kijken
wij gingen vandaag naar de dierentuin in emmen, is het raar dat ik voor de opdracht een naakte molrat koos?
ga je me bannen als ik weer niet kijk? kappa
heb zelfs geliked!1!1
en wat als ik dat niet doe? 😉
hijp
ben trouwens wel hyped dat de server van waarschijnlijk vanavond weer open gaat, hopelijk kan ik er bij zijn 😉
kutpranks, gaat te ver
nonono
zal ik mijn mc naam voor een tijdje naar teletubbiegod veranderen? xd
gefeliciflapstaart nu ben je cool!
teletubbielover
ik ben alweer uit school lol
ik snap het wel waarom jullie stoppen, zelf vind ik het een beetje apart dat ze voor alle leuke gamemodes geld vragen ☹️
als je een gift hebt gekregen/verstuurd dan krijg je dat
meestal zijn die leaderboard players mad als ze dood gaan door iemand die geen leaderboard played is
er werd gister ook door een leaderboard skywars speler gezegd dat ik hackte en dat ik gebanned zou worden
is het dan alleen toegestaan met een rank?
ik moet om half 3 voetballen
oke dan unfollow ik je niet d
yesyes 1e valt uit nu van 9 uur tot half 1 🤑
ik wilde me ook wel ziek melden x
ik zat al 3 uur op school
ik stem wel voor een fiets
ja doe maar
die ene millimeter zonde dit, voor mij jammer, voor een feestje...
precies snap nooit dat mensen er ruzie over maken ookal blijft psv gewoon beest 😜
prachtige goal van 11 common psv
jaaa ik zei het gister nog d eindelijk weet assasination
je hebt mijn naam niet gedaan 🤔
dat had ik ook een keer alleen was het toen mijn trampoline... wel kapot daarna 😄
ik zit nu in de trein maar als ik thuis ben ga ik ook wel ff triggeren 😄😜
ofterwijlharm right?
het houd niet op, niet vanzelf
trekt zich nergens iets van aan en gaat door met pesten
ik zit op 400k/1m welke x kit zou ik kopen? mijn eigen keuze telt ook mee hé 😜
ga allemaal ff heel snel de stream van aanklikken, hij speelt golf met een noob genaamd
is legit jongens. hij komt al zijn beloftes na zeker een aanrader ^^
schildpadden zijn cool
ik ook
nieuwe, mode!!! ze vind ze weer terug, de volgende dag loopt ze over straat en ziet iedereen naakt lopen. tja de nieuwe mode hé2/2
een vrouw is haar hondjes kwijt genaamd nieuwe en mode, maar ze staat te douchen, ze rent naakt naar buiten en roept 1/2
ik woon ook in grunn 😂
maakt niet uit, live is live en dus gezelligheid d
dacht ik al, wel veel zeg eerst en ik al en nu xd
ben jij gebanned? xd
volgens mij heb ik hem nu
waar moet je klikken om te kopen als je iets geselecteerd hebt?
hoe kan ik naar de shop?
kan niet naar de shop
ik had dat precies hetzelfde ik zei ook kys voor de grap p
ben jij ook gebanned voor verbal abuse? ik ook
zojuist gebanned van hypixel voor verbal abuse wat ik heb gedaan idk 1 ding is zeker, en dat is dat dit nogal kut ins
niceeee op naar de 12k
nog steeds geen geld xd
jij bedankt voor de leuke stream
jemig wat wordt die chat van soms toch volgespamd haha
mooi xd
als ik win ben ik blij, ik ben koel, joe
ik kom
oh boi ik begin net met kijken van de stream van en ik zie dat hij bedwars doet xd ik twijfel of dat goed komt kappa
follow allemaal even pls hij heeft namelijk nog geen followers
omdat die je pukkels zo goed laat zien? kappa
dat is precies hetzelfde als jij blitz speelt xd
school is stom. ik wil vakantie. punt uit....... nutteloos bericht stomme school xd prachtige speech
prachtig. ik ben aan het huilen zo mooi 🙃🙃🙃🙃 traan traan
ik wil ook wel zon prachtige banner hoor ik wil het wel gratis xd
helaas kan ik niet kijken want ik moet leren ☹️
prachtig
euhmmmm omdat je het zei kappa
sws arach, je hoeft gold, chain of iron chestplate te vinden en je hebt al heel veel kans om te winnen omdat je stacked bent
ben jij voor sparta? d
van sparta? xd
voor welke 8 kit moet ik gaan?
vind ik ook!!!!! en dan voor de rest van 2017 😂😂
gefeliciteerd met de 7000 d
nice man dichtbij de 600 followers. je gaat super! ik zou zelf wel een fa willen winnen 😜
bijna huis in de vik 😁😁
deze deed wel pijn aan onze oren van mensen in deze straat
bij onze straat gaat er iets van 200 euro per minuut de lucht in
jij ook mijnman
dit maakt mijn oud/nieuw jaardag helemaal mooi
gelukkig nieuw jaar iedereen!!!
fuck moest laden xd
degene die het mooiste filmpje van vuurwerk plaatst van iemand uit zijn buurt? xd
ik bedank dikzakje en mr.mime voor dit geweldige 2016! ook en bedank ik!
nogmaals, is legit hij heeft me een werkende spotify acc gegeven echt respect! hij komt zijn giveaways na nogmaals respect!
ik ook een heeeel klein beetje
ik hoop ook dat sander de 100 ifnas kan krijgen p
wij kopen eigenlijk alleen maar siervuurwerk xd
kijk hoe super mooi
dus nu ga je weer 3 uur afk staan op hypixel?
net de jaar compilatie van gekeken, zeker een aanrader echt leuk om te zien hoe dit jaar was
gewoon zoeken p
en die werken gewoon
hij heeft mij 2 nfas gegeven p
hij is wel legit🙃
alsjeblieft ik heb met 300 accounts gefollowed 😜 grapje xd
ik heb je notificaties aan nu maar wachten op een prijs. 😂
dankjewel mijn moeder zou dit heel erg waarderen ap
welterusten als je in slaap gaat vallen p
rip kan er niet op
heb geen geld op mijn paypal 😐😐
als ik kan winnen ja
giveaway 🙃 en ze werken allebei
ik ben trouwens wel blij dat jij legit bent 🙃 2 werkende alts gekregen 🙃 ben wel eens gescamd in dat 🙂
daar was ik bij xd
ik doe het expres onder jou reactie omdat jij dan niet uitgekozen word kappa
deze jongen wil een follow van dikzak als kerst 🙃☺️
volg mij pls ☺️
zegels zegels
jij followt mij niet eens xd
ze volgt mij al 🙃
gun deze arme jongen een acc met een rt
iedereen doet het xd
5 mystery boxes gekregen van ty!
ik waarschuw je alvast dat dit in beeld komt is already in your guild
jij ook!
ik dat jaar alleen vandaag en morgen nog, en dan niet meer maar op 10 january ofzo wel weer ☹️
je hebt het ook 🙃
neen niet op basisschool wel bij elkaar 🙃
met dank aan de enige echte 0riginalharambe 🙃
11 ajaxpsv had er meer van gehoopt volgende keer beter psv4thewin
common peesjevee zoal de prachtige woorden van isimatmirin
als jij vind dat ajax moet winnen vind ik dat niet leuk psv moet winnen
gun mij p
poep met uitjes
ik zit te wachten op een skype bericht 🙂
wanneer is zo spoedig mogelijk? 🙂
waar kan je inschrijven?
tof dat je dit doet!
gl iedereen
in 1 week 100 rt? ik@ga het gewoon proberen
zo beter?
wat een slechte stats kapoa
vraag of dylan een vid voor je wil maken
nog 1 want hij doet het bij de 22 😮🙂
hij doet het bij 22 😜
bij de 22 rt doet het nog rt snel
change jij je naam nou maar 😜
ik vind dat zijn naam alsnog moet veranderen. omdat we 20 rt hebben gehaald in 24 uur mee eens? 😜
wat een geluk😮
nog 7 rt kunnen we dat nog halen in 3 uur?
gm
gaat wel lukken 🙂
we hebben nog tot morgen 1 uur hoor d
we kunnen het halen🙂
kunnen we dit halen in 1 dag?
toen pas wakker? 😮 ik zat toen in de les
prachtige selfie kappa
wil je badr kijken dan? 🙂
gefeliciteerd 🙂
ja indd maar als er zulke dingen gebeuren is het niet zo leuk denk ik😔