o, wat istie fijn...
denk je er nog even aan jouw mailadres te sturen
dank je, koosje. met t goede appfilter wordt t toch nog wat...
ben zelf niet zo van de selfies, maar n uitzondering moet kunnen. toch?
...maar als iemand ongewenst aan me zit én belasting ontwijkt, is t dan of
eigenlijk is de vergelijking nikon + 50mm want op full frame en canon + 130mm want op apsc. toch?
met je predikend toontje verstopte je je loontje ’t kwam uit en iedereen hoont je en nu komt boontje dus om z’n…
hmm. ik ben eerder gesterkt in mijn vermoeden dan gerustgesteld. als ’t gezicht eenmaal is inges…
geheel eens met mevrouw hoogwout. indringend blik.
...en ’n laadsnoertje...
wellicht ’n tikkie naïeve vraag ger, maar kan ik dan met een goede foto van jou op jouw rekening…
wij hebben geen legale wapens op straat.
de logica van ’n ladderzatte badmuts
deze twee nog ’n keertje. omdat ze eigenlijk bij elkaar horen.
ja. en volgende keer bertolucci graag. bij hem mocht burt lancaster trouwens ook opdraven 1900.
oei, had ik gemist. dank voor de tip, marcel.
vandaag, de laatste dag dat museum in het mooie vertrouwde gebouw te bezoeken was...
zo voelt verwarring van geest. en pijn...
alweer? ja, alweer. omdat ’t moet. sue me.
franky speelt vals. hij weet dat ik er nog eentje drink als ik deze hoor. oké. op tom petty dan maar...
echt. ik wil naar huis. maar ik móét deze nog even afluisteren. your body is a wonderland
wat jij over hebt voor je club. er kan geen twijfel over bestaan dat jouw altruïstische zelfkastijding…
veronica gooit er vanavond maar s twee kevin spaceyfilms tegenaan...
humor om te lachen... ...een niet zo’n warm welkom toen trump vandaag in hawaii aankwam.
waarom, abbie, wat heeft ze gedaan, gepresteerd, behaald...?
man, wat ’n beauty. kan ik naar blíjven kijken....
appje van mn grafisch ontwerper pap, haal effe n allerhande bij appie. ik heb dat garden gourmetboekje binnen…
als ik in n bejaardenhuis moet, eet ik alleen nog maar
ik wil ook zo’n briefje.
ik vrees dat je dan ’t hele internet moet opdoeken. ik denk dat er ’n internationale overkoepelende toeziende autoriteit moet komen.
nee. niemand mag jou of mij afluisteren zonder ons medeweten. da’s niet alleen ronduit schoftig gedrag. da’s ook illegaal.
dat klinkt als geen journaal meer kijkendan bestaan er geen problemen meer. ik ben voor stevig aanpakken en…
de overeenkomst is dat je genaaid wordt waar je bij staat. pardon my french.
schattebouten, lees dit even. voor je eigen bestwil.
gefeliciteerd hay met deze mijlpaal. en prachtig gemaakte taart inderdaad...
je laatste zin vond ik wel sterk ronnie...! p
ik gisteren
dé man om te volgen als je de val van trump goed gedocumenteerd wilt volgen spannender dan n boek van john le car…
proest
t wachten is nu op t moment dat de gristenunie vaccinatie wil verbieden de arrogantie. denken te weten wat hun v…
als de uit de bocht vliegt... leuk draadje.
dit is o.a. hoe de russen hun koevoet in buitenlandse verkiezingen zetten...
geweldige kerstcampagne van ...helemaal afkijken...
...en met de muziek op volume 9 uiteraard...
remedie roos, ga thuis gekleed douchen en denk daarbij dat t bier is...
dat zei ze. dont shoot the messenger...
je gelooft t niet. kwam gisteravond suus in take five tegen. ik toonde haar je tweet. zij is er morge…
dat zn inzichten in nodig heeft gehad om ideële boodschap van zijn koran te herkennen. zelfde gaat trouwens op voor bijbel.
hoorde vanavond over ’n moslim die, nadat hij zich had verdiept in inzag dat hij de koran alitjd verkeerd begrepen had. &gt&gt
geweldig hoe die vrouw achter kuzu de stand exact weet bij te fakkelen...
onder de indruk van de integriteit van van agt in vroeger koos ik de kant van zn vijand den uyl. nu mag ik hem graag.
ja heerlijk hè. met suus foto als figurante. ik zal ze vanavond in de opnamelocatiemetbierpomp er o…
goeie tip, cees. dank daarvoor...!
heerlijk gedurfde copy van deze juwelier in plaats van de voorspelbare romantische aanpak de cynische tongueinche…
ik ben niet van de maar ik ben af en toe toch wel n groot fan van dijkhoff...
is ’n optie, doch ik acht die kans redelijk gering, benno...
ik heb dat met mn schoonmoeder...
ja, sorry jongens, dat duurt me toch effe te lang...
ik vrees dat mn vriend abbie n punt heeft...
snoepgoed voor de volgers van de definitieve ’n fantastisch en leerzaam draadje van 140 tweets da…
wauw. heftig maar belangrijk verhaal. over herkenning van seksueel geweld. en verzoening. indrukwekkend.
dat je laat, erg laat, naar huis fietst en je ineens realeert wat heb ik toch n geweldige fiets...
oeps, ik reageerde voordat ik het nieuws over spacey hoorde. ik vre…
maar je hebt nog een uur....?
.@wilfredgenee van probeert de uitglijder van vorige week te nuanceren. maar gijp en derksen gooien helaas olie op ’t vuur.
onderbouwde motivering voor jouw keuze van de maastrichtse brug op de €2, op haalde ook ’t nosjournaal
...afleidingsmanoeuvres als laatste stuiptrekkingen...
mogelijk tipje van de sluier...? kijken tot het einde. krijg je gee…
nee, ook ik was aan het vissen...
ik geloof dat we dit tegenwoordig creating brand awareness of zo moeten noemen? in plaats van empatisch denken. of zo.
eens joep, ze zijn goed.
ech wel....
yes. max wint de de renaultmoter hield ’t.
als max wint wil ik dat buma ’t wilhelmus zingt. in de hofvijver. terwijl hij watertrappelt. met de tien geboden boven z’n hoofd.
max kreeg dus net over de radio ’t verzoek uit de pits om met zijn voorsprong minder hard te rijden. lachende max “sorry..!”
3. dan krijg je dit beeld. nu kun je ’n urladres van ’n foto ingeven of zoals ik deed ’n foto up…
2. dan krijg je dit beeld met een cameraatje in de box. klik op de camera...
heel handig en simpel. 1. je gaat naar google en klikt rechtsboven op ‘afbeeldingen’
au....! zit ik eredivisie te kijken terwijl max in mexico op kop rijdt. “een beedje dom.
overigens niet mijn wijsheid, michel. gevonden via google afbeeldingen &gt zoeken op foto.
de schilder is august macke
zie nu dat de meneer hoofdredacteur van story is. beroepsdeformatie dus.
je eigen imago oppoetsen door n ander af te zeiken wijst bij mij op onz…
moeder maas, ze staat hoog vandaag...
eensch. wie zullen we vandaag s afzagen?
snel weg hier...
laat me
hmmm...., nu snap ik waar ’t woord ‘gebelgd’ vandaan komt.
ben er nog steeds niet achter of hij nu op je afkomt of wegloopt...
.@gverbaan heeft er ’n heul lange zin in...
hoe dan ook, ik vind m zo mooi dat ik de verleiding niet kon weerstaan n uitsnede te maken. hoop dat…
nice...! fijne timing
...en zelfs, zoals zegt, dat je timmerman wilt zijn.
de kracht van ’n ad als deze is dat ie ’n intrigerende kop heeft. en dat je je als lezer in de eerste regel al begrepen voelt. en wilt lezen
ik zie de laatste regel nu pas. heerlijke uitsmijter. weet iemand wie deze ad schreef?
een fraai staaltje voor uitgerekend n personeelsadvertentie. zo zoek je n timmerman met ’n tof kar…
als we dan toch bezig zijn met sterke speeches, hier jeff daniels in de openingscene van…
en niet gerepeteerd. ze hadden geen scene samen in the godfather. maar in de boevenfilm t…
walken. altijd, overal charismatisch en geweldig. deze van al pacino verveelt ook nooit
waanzin. kijken. geluid aan...! tnx
onbekenden vragen zich af of catweazle verdwaald is... ..nee.. ..deze ouwe geniet intens van deze gasten... ..van hun energie en geloof..
ik resideer op dit ongristelijk uur in een van mijn favoriete hide outs de loco. dik 200 man binnen allemaal 30 j…
...zodat ook onder de plak zittende thuisblijvers s kunnen zeggen schat, ik moet vanavond nog heel even naar...
...dat dan die nieuwe douchewand niet door t trapgat gaat.... ...zon dag.
zon dag dat dan eindelijk de badkamer bijna klaar is... ...en je al acht dagen met flesje badedas in de leuken staat te klootzakken...
zon dag dat t niet echt meezit...
ik deed ’t. arold heeft gelijk. kijk maar even. tot ’t eind.
schobbejakken, vlegels en doerakken zijn ’t. ik heb subiet mijn lidmaatschap opgezegd.
zou zomaar kunnen. n gotspe die carrièrepolitici die hun positie belangrijker vinden dan hun principes.
geld hééft zeker te veel macht. geld heeft trump aan t roer gebracht.waarom zou geld ‘m daar n…
de politiek is met t pluche vergroeid en er zijn verkiezingen in 2018. alleen afzwaaiers durve…
waarom is ’t relevant hoe hij miljardair geworden is, claudia? hij onderbouwt zijn missie integer.
...maar nu eerst even mn binnenhuisarchitect bellen welke boeken er t leukst in de boekenkast naast de rode bank…
...en de jonge haalt meteen n wit voetje bij alex...
ze ziet t niet, maar dr zit n grote spin op haar gele jurk.
dat zou inderdaad kunnen. mijn ervaringen met de barolo en nebiolo dateren van enkele decennia terug.
zelfs s nachts bij t posten van n brief kom ik niet om keuzes heen...
en ’t kenteken.
...en met deze foto sluit ik mijn recapitulatie van mijn dagphoto’s uit 2016 af. hope you enjoyed them as much as i do.
’t houdt niet op, niet vanzelf...
wist niet dat johan neeskens ook zong...
ook de barolo moet ademen. mag gerust n etmaal open staan. dan is ie veel rijker van smaak. probeer maar s, michel.
inderdaad verdomd echt. alleen de locatie van t vergrijp ontbreekt...
wel gedecanteerd toch? die moet genieg lucht krijgen...
las hier vanmiddag ergens dat ik mn morele verontwaardiging gebruik om mn imago op te schroeven. sorry m…
onder de indruk van t gedwongen zwijgen van brandt corstius. de dader heeft n advocaat en gaat vrijuit.
ik zoek even op wat een muntmeester precies doet. maar omdat ik ’n adblocker gebruik, moet ik ’t zonder de klinker…
’t ging om twitterconcepten, bert. maar ’t is al opgelost. dank je.
ik bedoelde maar ’t is al opgelost. dank je hans.
wauw, zoek ik al maanden naar. echt waar. dank je kris...!
al een boerka geprobeerd?
nee maar, echt. hoe kom ik op mn iphone in godsnaam bij mn concepten?
dat ís geen trouwring
ik jat leuke tweets
mama heeft me gebracht.
is acne eigenlijk besmettelijk?
van harte rené. als t universum n deur dicht doet, zet t ook n raam open. ik wens je veel wijsheid, vriend.
juist dat. het zijn de onverschillige tot zelfs badinerende reacties op echt traumatische ervaringen die ik niet snap.
ja ken ik, geweldig filmpje. en ook ja kan ook gewoon nee worden. zo ingewikkeld is t allemaal niet.
dat dus. en ik dacht dus even dat als iedereen begrijpt en aanvaardt dat nee nee is, de zaak af was.…
ik constateer dat iedereen vanuit haar/zn eigen ervarings/belevingswereld praat. zonder zich in and…
omdat ze kennelijk niet snappen wat nee betekent. of hun macht/invloed gebruiken om van n nee alsnog…
ik kon even niet inschatten òf t een grap was.
nee, dat snap ik niet.
er wordt weinig empathisch langs elkaar heen gepraat in de maak ik ’t nu te simpel als ik zeg dat nee gewoon nee betekent?
ja, joep. de foto is de boosdoener...
heerlijk. jan wolkers in zo hebben we m toch nog n beetje.
wel nog effe n pluim voor hie professioneel en zonder mokken max de beslissing accepteerde. grote jongen, die max...
oké, ik zat vast te twitteren toen...
maar dat gebeurde toch daarna?
nikki lauda neemt t op voor max. vindt dat hij derde was. en de straf dom geneuzel.
hij ging met vier banden off track en haalde daar voordeel uit. dat schijnt niet te mogen.
oei, max krijgt 5 seconden straf en wordt 4e. en hij weet nog niks...
yesss...! in de laatste ronde pakt max exwereldkamioen vettel. van plek 16 naar t podium. wat n stunt weer...
op de duitse rtl wordt de f1 steeds onderbroken door gilettescheermesjesspotjes waarom wil je als merk die irritatie eigenlijk veroorzaken
geet kont van die minkukel aantrekken. daar ben je te groot en goed voor. niet jouw league.
correctie 2e plaats....!
de grand prix nu met max verstappen van 16e naar de 3e plek is anders ook best slagroom op de taart...
als dergelijke taal bezigt en opzettelijk beledigt trumphaar dan lig je eigenlijk vooral met jeze…
ook verstappen bakt er veel van. nu al van plek 16 op 7.
pretty close indeed...!
als je geen photoshop hebt...
als je vennegoor of hesseling als achternaam hebt, dan heet je dus niet vennegoor of hesseling, maar vennegoor of hesseling. capiche?
nog wat nuance. sommige mannen zijn assholes. aanpakken die klojos. maar dat impliceert nog niet dat alle mannen …
even dit. n grapje! voor de broodnodige nuance.
best handig eigenlijk. die zwaartekracht.
nadat de baskische eta de wapens heeft neergelegd, vrees ik dat de catalanen ze nu zullen opnemen.
in ’t stenen analoge tijdperk dienden de zwakkeren slim te zijn...
nee. wolkers kon schrijven.
bij locatie scouten onder bewolkte hemel gebruikte ik altijd ’n kompas. er zit er een op je iphone. werkte altijd perfect.
zo beginnen ware voetbal en aan n wedstrijd!
nee. is n raarrr rekenmodel uit de journalistiek. werkt niet. zeker niet bij copywriting.
youre right. dank voor je correctie. maar de strekking, betekenis, van mn foutieve quote blijft gelukkig overeind.
we zijn altijd in het nu, maar realiseren ons dat zelden. omdat we meestal met eerder en later bezig zijn maar nú hiér zijn is zo boeiend
nu is de projectorlamp waar voorlangs de film draait.
...nu is geen aaneenschakeling van momenten, maar n eeuwigdurend heden. dat er altijd is en nooit stopt.
...het is nooit niet nu... ...alles wat ooit gebeurde, gebeurde in het nu...
...aan gisteren kun je alleen nu denken, net als aan morgen. maar beiden bestaan niet. alleen in je hoofd, als je er nu aan denkt...
...het is altijd nu...
...en nu is t weer nu...
op dit moment is het nu...
heerlijk. zo erg fout dat ’t heel leuk is...
goed te horen. ik las namelijk alleen maar dramaverhalen. dank je.
ik zie ’t steeds vaker dat ‘ben’ als gebiedende wijs van ‘zijn’ gebruikt wordt. als in ‘ben erbij’. maar ’t moet toch echt ‘wees erbij’ zijn
heb je geen problemen ondervonden, tristan? en geen battery drain? heb je ios 11 of ios 11.0.3 gedownload?
...blijkt politiehelicopter aldus mogelijk schietpartij inderdaad. ook traumahelicopter onderweg...
ik vind ze fijn erik. goeie voice over ook.
hij hangt er al minuten. ik hoor ook n sirene. wat is er aan de hand?
.@thierrybaudet waar ik as a whole wilde schrijven asshole. stop de tijd.
ik heb de foto even losgemaakt voor je. dan zie je meer. en jezelf.
ik keur ‘m helemaal goed.
ze hadden in plaats van n halbe zijlstra toch ook n hele minister op kunnen benoemen...
ook mn vervolgads kregen deze toneofvoice en uiteindelijk raakte fase 1 geheel uitverkocht. en mocht…
mn ‘omgekeerde’ ironische aanpak sloeg aan. nog altijd trots op dat ze ‘m meteen goedkeurd…
deze oude long copy advertentie blies de stokkende verkoop destijds nieuw leven in. was m’n 1e voor en ze durfden ’t aan... 1/2
en ja, ik schreef ze zelf in het engels, maar liet ze wel grondig nakijken door ’n native tongue
fijne post, cor. eerlijkheid is ’n krachtig instrument. ik gebruikte het ook in deze ads di…
respect. voor vrouwen als en griet op de beeck, die hun angst en pijn overwonnen om grof geweld en int…
s nachts kan opaspam geen kwaad toch?
dat doe ik, als fan van dirigent en ik krijg er bach voor terug.
als t je lukt, kom ik voor je zingen...
mocht olympiakos ooit thuis moeten tegen broek op langedijk dan hebben we in ieder geval n vette hashtag.
oei. inderdaad n nogal hoog en dubbelop bullshitgehalte.
ik had er ook effe moeite mee toen ik ’t deed. maar ja, als ’t een keer klopt wat ze schrijven, wat moet je dan...?
liefhebbers van jan wolkers, echt even terugkijken. heerlijke uitzending, geheel in het teken van de schrijver/beeldhouwer/schilder.
venlo, de poort naar europa. dat je t effe weet...
en..., lopen ze n beetje, die driepotige koeien?
vanmiddag maar s een boswandeling gemaakt...
wie weet. ik wil ’t niet opblazen want best ’n lekker spotje. maar ik snap de verhaalopbouw…
sommigen komen nog best ver met gebakken lucht...
ik snap dat heineken met sharing the drama t sponsorship wil onderstrepen. maar ik vind geen logica in t verhaaltje.
maar waarom die onlogische achtervolging vóór n potje voetbal. waarom ineens de regen? wat is überhaup…
voor van nisetelrooy, ja. maar waarom die onlogische achtervolging v’o’or ’n potje voetbal. waarom de regen? wat is de boodschap?
lekker spotje hoor, maar ik snap ‘m dus écht niet... wie ’t weet mag ’t zeggen.
...de tweet waarvan je wist dat ie komen zou...
de wereld gaat ten onder omdat trump obama haat...
ik vind wel dat die scheids op elke slak laag water zoekt...
dm effe je adres, dan regel ik t...
als je t wat vindt en kan ik t je te leen sturen.
niets. zwart. wel menu maar met zwart beeld. maar inmiddels hebben we via jullie site de situatie opgel…
en dat terwijl jij altijd zo lekker meegaand bent... 😂🤣😅
snap ik. dit vakboek kocht ik in 1995. vond ik zeer leerzaam. hier de inhoudsoogave
ben jij geblockt door ilja gort?
ach doe ’s leuk en zet de tv weer even aan in venlo...
wat mij betreft geen één. gewoon lekker jezelf blijven.
dat moet geweest zijn...
nee..., dit kan niet. echt niet. ik zeg verder niks, maar dit wil je zien. moet je zien om ’t te geloven... dank…
zo moet dat, lekker genderneutraal raggen...
nog even over die intrieste lieden die bij meenden enkele racistisch te moeten beschimpen, e…
fijn, ouwe...! ik ga kijken...
jouw constatering is correct en inderdaad zelfs méér dan diep triest. jouw generalisatie is minder…
ik zie nu pas dat in deze tweet de vermelding van de maastrichtse architectuurfotograaf kim zwarts door mij is vergeten.
larry flynth houdt niet van half werk. 1/1pagina advertentie in the washington post gisteren.
wauw. gemêleerd gez…
als pap 60 werd, neem ik aan dat antoine toch minimaal rond de 25 jaar oud is. of toine moet rond z’n…
oordeel nooit over hen, voor wie het leven ’n straf is. je hoeft ’t niet te begrijpen. je hoeft alleen maar niet te oordelen,
ik ken toine niet. noch zn zoon die dit berichtje in onze provinciale krant plaatste. maar de intentie en nuchtere…
mooi marja. acceptatie en aanvaarding lijken synoniemen. toch gebruik ik t woord aa…
relatiegeschenk. van katie zelf.
na twee fotoloze dagen vandaag wat extra retweets uit mn 2016 dagphotoserie...
vrolijk baasje inderdaad. lijkt op zn opa denk ik 😂🤣😅😊 🙏
...en susanne natuurlijk..., toch...?
spam alert! doe me dees maar...
is dat niet ook n beetje t gevolg van als er één schaap over de dam is dan durven er meer, pieter?
collectors item
misschien moet bescherming van samenleving prevaleren boven straf? risicos uitsluiten? ook als dat inhumaan vo…
verzet tegen iets dat al waar is verlies je altijd. het grootste toverwoord in t leven is dan ook…
alleen nog wat puntjes op de i. en j.
frappant hoe in zijn redenatie eigen verantwoordelijkheid wel voor vrouwen op gaat. maar niet vo…
wat cor zegt. zo goed gemaakt. hemeltergend...
ik hoor t via mn open raam. hoe de oproep tot t vrijdagmiddaggebed feilloos harmonieert met de kakofonie van losgebroken kermisattracties
yep. maar alleen de vraag even goed lezen is al genoeg hier...
maar die 50mm nikkor 2.0 van mij haalt die selectieve dieptescherpte van jouw lens op neus en bril…
ja. de lens heeft in t bajonet waarschijnlijk geen elektronische contactpunten met de body.
heeft onlangs een foto geplaatst
ik kijk m altijd graag terug, deze film over portretfotograaf anton corbijn...
lelijke dag. slechte dag. maar effe geen mooie fotos vandaag.
netn diepgaand gesprek gehad met n 24jarige geschiedenisstudent over de cubacrisis en de praagse lente. onder de indruk van wat hij wist.
bijna n rol in n stuk van shakespeare, zo krachtig en theatraal...
de tjechische kluizenaar miroslav tichy schoot z’n leven lang foto’s met uit afval zelfgebouwde camera’s...…
wees niet stoer als t water je aan de lippen staat. práát...!
ha....! wat fijn dat ik geert nu ook mag feliciteren. wat n geluk, schatten...! ☀️❤️
geweldig! kan t zijn dat ik papa ook volg op dn twit?
o wat mooi janneke. ben net n half jaar opa en heb mn dochter van deze prachttijd zien genieten.…
dat je na je laatste beladen wedstrijd en dito ereronde ook nog n hele talkshow met maalderink keurig afmaakt. grote jongen, robben
snoeks voor de volgende goal heeft nederland nog even de tijd.” zelf dacht ik aan een jaar of vier...
zeer ondoordacht en pijnlijk, dit...
yep. en niet alleen aja, henkjan. zon beetje alles wat ze maakten is af.
of is het toch de reizigers worden verzocht...? je leest t &gt
keek vanavond s naar mr. visser en familiediner. ongelooflijk wat voor futuliteiten mensen uit elkaar drijven.
ik heb getekend tegen de privacyslopende sleepwet ben jij ook tegen n inkijk in alles wat je doet? teken dan ook
take five. tuurlijk...
autumn leaves door anton goudsmit gitaar, rien kolkman bas en geert roelofs drums in take five, venlo.
opschieten nu. want over n half uur speelt anton goudsmit in mn stamkroegje...
heeft onlangs een foto geplaatst
een geweldige roman in twee zinnen...
oranje knokt er zo hard voor dat ze bijna n advocaat nodig hebben...
dat we uit principe niet naar de wk in rusland gaan, hebben we toch zeer geslepen weten te verdoezelen.
vandaag. de dag waarop ik erachter kom dat ik, op 44 dagen na, even oud ben als poetin.
ik volg je prachtige reis met dito verslaggeving met veel plezier, ank!
ach so..., helder. dank je roos.
mijn god...
voor n communicatievakblad vind ik de van jou geselecteerde quote best cryptisch, roos…
ik zou hier graag uitgebreid op reageren. maar ik hoor net dat ik de vuilcontainer aan de weg moet zette…
zo eens met bas heijne. vooral met zijn voorlaatste zin...
ook gaat helemaal over van der laan. mooie verhalen. veel humor. en persoonlijke anekdotes over onbekende weldaden van hem. fijn.
zelfs met m’n slechte frans kon ik dit ontroerende eerbetoon begrijpen…
man, man, man, mag dat lieve kind aan ‘t infuus…?
word jij daar ook zo kw#aad van?
wat ‘n prachtgozer is die voetbalkunstenaar touzani in
herhaalde t!p voor en
eberhard van der laan. de man hing van liefde, verbinding, humor, rechtvaardigheid en verzoening aan elkaar. ’t ging nooit over hemzelf.
ik snap je. al denk ik wel dat van der laan jouw foto mèt die reflectie van de lieve stad zou prefereren.
wauw..., mooi man....
omhoog verandert de achtergrond. omlaag gebeurt er niets bij mij.
prachtig die aangepaste tekst van “amsterdam huilt”. en warm gezongen door glennis grace in ’t plat mokums.
dank bart. ik zie nog niet hoe. ik ga zoeken. ik kan in tb geen foto’s corrigeren?
op jullie aanraden heb ik de app gedownload, bart en bram, maar ik herken nog niet echt de voo…
ik kan er geen mening over hebben. omdat ‘t in mijn beleving net zo goed ’n uiting van respect en…