bedoel je geen
niets menselijk is ons vreemd
de rechter variant
tv kijken hoeft tegenwoordig niet meer. recenties vliegen ier door de tls
helemaal met je eens.
weer een hoogstaand tv programma aan het volgen?
mij
maak me gek..😎
kijk. doortastende vrouw!
tja, zal hij verdiend hebben en dan verdient hij jou ook niet 🤗
kom maar door
wist niet dat je ook kan zingen...
single malt...mmmm..maar dan graag meerderjarig..☺
keuze dus relatief makkelijk 🤗
let maar op
13
even apeldoorn bellen...
ik was het niet...
dat kan niet vol gelredome zit bij geen enkele topwedstrijd vol
koffie gaat nog, maar geen wijn...
klopt...maar alternatief voor wantjes
liever natuurlijke verwarming
hmmm. jammer. koude handen worden niet warm
sterkte
hebben ze gelijk?
goede verdeling
hopelijk een mooie wedstrijd voor de supporters om warm van te worden
dank voor het testen en geven van fedback
en? nog wat zinnigs tegen gekomen
bij zigggwven ze toch wifi garantie!
krijg je geld toe daar...
bij je thuis☺ of toch elders🙄
goedemorgen voor wie al wakker is
waarschijnlijk heeft nog niet voldoende winst. verhogen hun betaaltarieven per 1 januari met minimal 10 %!!!! overstappen is een optie.
lekker. hier kip/garnalen roerbak
dat niet...vk gaat dat dan wel goed..☺
sommige
voor de pijn wel...
tja...heb liever een vriendelijke kus dan een draai om de oren
verbieden!
dan zit die pijn laag...
en veilig 🙄
dat krijg je als prominent figuur
onderschat geen enkele vrouw...
en nu gebroken...
en het feest gemist...
galmt nog na in jouw hoofd waarschijnlijk...
nu nagenieten...
nat geregend...dus lekker binnen
talenten sparta nijkerk in beltona beloften competitie
ach...ieder heeft zo zijn gebrek
feit
alles is zoals het is
oo.. drinken we tegenwoordig alleen
de eitjes wel laten liggen...
maar genoten....auto aanvulling..
als je jaargenoten hebt
dat is waar
wat was het wisselgeld
remedies schaapjes tellen, flinke borrel, pillen, slechte film.....x
dat is super. blij voor jou. geni eddy!
dan heb je een mooi positief zelfbeeld 😊
vertaal he als vriendelijk, sociaal, warm...
kan ook stoer zijn...
kijk. vriendschap!
stoere broek...
voor sommigen wel...niet iedereen wordt met de jaren beter...
wel luisteren naar de juf!
onzekerheid is erg...
gevoel..😚
opnieuw aanhaken...
dat kan prima. zo lang je het zelf fijn vindt. 1x 3 jaar jonger. nu 5 jaar...
niet hier...blijven verbonden
breng later maar verslag uit..
als het ook maar bij eeeeen uurtje blijft..
fantastische avond gewenst..
goed muzikaal begin van de zaterdagavond
toch enigszins een gespleten personlijkheid
en dat zonder uitleg
voedselbostype..een woord dat je niet zo vaak hoort..
kijk, dat is belangrijk...
2e neemt punten mee bij deto. tot straks
fijne terugreis uit vriezenveen met met 3 punten
drukbezochte bijeenkomst
ging je ook echt...
mooi. help graag mensen op weg...
altijd met beleid...☺
omdraaien..
en jij zelf?
zeker een mooie loting
ben benieuwd naar de uitkomsten van jouw representatieve onderzoek...
alles voor vriendschap
hoe zou dat hedendaagse dames eruit laten zien...
een goed begin is het halve....goedemorgen gerda
begin de dag met een lach..☺ goedemorgen
uiteindelijk hebben de dames toch de broek aan... goedemorgen irene.
moeten we eens organiseren,,, goed om op agenda te zetten
meer daar zeker
gelukkig je al jaren...
wie helpt marielle de winter door
het voordeel van
een toeter, een luxe uitvoering van de smart dus..
klopt, weer een nl iconisch bedrijf. zou niet moeten.
aha, dan bakken ze in plaats van smeren..
tja, tompouce verdwijend is nog niet zo errug, maar de en
met een schimmel...
ooit....ooit..lach je er niet meer om..
stoer! een mooie &amp stoere dag.
van harte gefeliciteerd een fantastisch jaar gewenst
tja...het is het een of het ander...
ooh...#ietsmetdekselenbeerput ?
dan zijn de andere 99 eigenlijk maar bijzaak 😜
wat schoenen dan toch doen met een vrouw...
sterkte en wijsheid
en dat voor een lady...
feitelijk zou je naming &amp shaming moeten toepassen. waarschijnlijk meer aan de hand bij zo een club
dat is jammer. kind dupe. geen alternatieve club in de buurt
en dat vanaf een afstand
veel clubs moeten nog veel leren. zag suggestie rugby...goede suggestie
gelezen. heftig. niet acceptabel.
de toevoeging...maakt veel duidelijk
wij ook
true. maar als een vrouw straalt, dan straalt ze...even more beautiful.
nog een reden ons dit soort wedstrijden in een klein stadion te houden...
ik zeg...alles verwijderen...is het belangrijk...komen ze vanzelf
dan maar een krat...
tja....
stuur een sixpack deze kant op...
goedemorgen lies
komt de wijn nu al binnen...
dat is de andere kant...winkelen zeggen dames ook geen nee tegen..
dat is ook regelmaat en vast voorbedachte rade...😊
terwijl vrouwen daar meestal meester in zijn...
zeker.
dankjewel
zwaar weekend voor jullie...
de punten zijn mee naar de lichtstad 🥂
vroeg voor zondag. slaap lekker
have fun...kinderen altijd prijs..
welterusten. hier nog ff wachten op zoon. laatste trein en bus..
iemand moet het doen..
beloofd een warm middagje te worden
toch verbloemt dit de uitdagingen van de club niet
hoezo zonder grote moeite....zegt toch iets als een amateur een profclub op 01 houdt. blijft e…
koesteren
patroon naar een uitweg?
najaarsschoonmaak
valt in real life wel mee...toch
vriendschap ⚘
bij de konijnen af...
ik zie een leuk wijd 😄
goedemorgen gerda...jij ook
sparta nijkerk verdiende wel meer...
sleep tight
jammer. dank voor heldere verslaglegging.
geen groenewoudt?
klopt...afgaand op tekst en fotos 😶
bij het eerste heeft ze een punt mooi. bij 2e absoluut niet
sportvelden, atletiek... wordt waarschijnlijk het volgende dossier van een gemeente op drift...@nicofiegen
tja...kan verkeren, daarom kom je ook zo weinig pinguïns tegen
ieder nadeel heeft zij voordeel 🤗
uitzicht kantoor over amsterdam
hier niet
fijne kalender...voelt als woensdag...
een heel goedemorgen...al is het buiten een beetje triest.
maandag?
ach..je maakt weer een perfect indruk
inderdaad...zag het op app. zat te eten..klote
ach..laat nooit het kind in je gaan...
....zo lang het maar verantwoord is...
ach...zo lang het maar gezellig was
na winst op feyenoord en even afbieren...prima
vanmiddag
nu half voorbij
fijne dag. wij landen straks bij psv voor hopelijk een mooie wedstrijd
doe maar
hoe ruikt dat
zegt de andere muts 😎💋 fijne dag..
maak er mooie dag van..ondaks
goedemorgen
maak er een mooie dag van. van harte gefeliciteerd. 🎂🎂🥂🥂💋
hopel iijk niet op de tocht
houdt het spannend 👌💋
opwaaiende jurken...interessante dag voor mannen
als je de wind maar in de rug houdt
met deze wind....
van harte gefeliciteerd met deze dag.
goedemorgen lies
intussen maar wel gedaan....toch...
tja...daar zit je dan als man...
zwaar?
tja..altijd zon gaat ook vervelen
kijk, een positief gevoel en dat zo vlak voor het weekend. wordt vast een zonnig weekend.
en was het ook echt een goede dag?
wauw!
ach...zo is het altijd plezierig wakker worden
dat is lastig te beoordelen door de tl
heb het vandaag je het nog niet horen zeggen...
ziet er op beide fotos als sterke vrouw uit. goed dat je het voelt! 🥂
lijkt me gaaf een combi met
zei het toch
dat klinkt het inderdaad. en positief!
de tand des tijds goed doorstaan. pittig zeker, maar niet ingeboet toch?
lijkt me niet
laat maar horen
en mensen als jij!
dus...nog even volhouden.
inderdaad
het is nu na 16.00. is de andere helft op.
tja...waar een eiland groot ik kan zijn..
wellicht kleinste stadion van nederland
tja...blijft geen vakantie
helemaal goed.
heb je deze al gehad
weekend schiermonnikoog
dat is een vooruitzicht...☀️☀️
gefeliciteerd
die meestal op ondeugende plekken liggen..😏
heb je een punt 😜
aha, andere uitvoering en uitleg van braaf 😎
braaf &amp mooi zijn twee verschillende dingen 😶
is hij weer geslaagd?
ik was het niet
kom maar door..🥂
fantastisch gezicht...wijntje erbij..
magie in de vingertjes xxx
een tiet snap ik, maar wat doet hij bij ta...
zo, gewerkt, gesport 2,2 kg, gegeten...nu de beentjes omhoog
sterke benen...wat een weelde..😎
gefeliciteerd
mooie tijd. kunnen we donderdags nog naar
zie het ....
alleen bij de lift..
tot de eerste koffie
morning
maar mag wel...
dat is vroeg...😶
altijd lastig met de bekerreputatie van
stofzuigen kan altijd morgen nog
dat is mooi en wordt een gelukkige terugreis
heeft sparta nog iets goed te maken naar
klinkt goed
top! we volgen je
centrum is sowieso aanrader. en natuurlijk olympiapark.
betalen? slecht gecommuniceerd en dat voor een kwalificatiewedstrijdje...
dat is dan erg flauw...😝
je bent zo jong als je wilt zijn...
een markante nijkerker is ons ontvallen.
waarom niet...ken genoeg mannen die vrouwen niet snappen.☺
wel raar. in alle jaren niet gehad.
tja, toch wel essentieel..voor iemand die je koffie wil/kan brengen..☺️
zeker balen... had je geen adres opgegeven..😋
enjoy en eet smakelijk
verhaal wordt steeds vreemder...
kijk...een echte?
daarom kan de bikini nog wel aan..
hmmm...zon rekenkundig genie ben ik niet...werkuren in verhouding tot daguren...😄
bijna...zaag en kabouter komen om 12.00 uur..🤗
vanavond ff makkelijk met eten
tweet
ziet er schrikbarend uit 🤔
proberen is weten 😊
geniet. en alvast van harte gefeliciteerd een fantastisch jaar 😚
komt goed jolanda. voel je niks van. en 50 is het nieuwe 30...🥂
hmmm...lekkere keuzes
wordt een jubileumjaar. welkom in de club van xxxxx. ⚘⚘🎂🎂
kunnen jullie helpen
houten vloer? kan vanuit vloer komen..
schiedam?
balen. maar, sterkte deze periode. en geen geraniums...#tejong
ook niet een onaardige plek..
?
en dat vanaf je werkplek...
wie kan marleen helpen
ach kijk...dacht even dat je anders was...maar toch een vrouw..
een mens verzamelt wat...
antalya....40 graden...nu nog 35...om 23.00 uur
nee...voor dat het hier echt warm wordt...
ligt er aan waar deze ligt
voor de wekker wakker worden....
veel kampen al gezien. deze staan nog op lijst. ervaringen altijd heftig.
mogge...dagje antalya voor de boeg...☀️
goedemorgen lies
en de dag begint
alweer 28 graden...☀️☀️
zijn er nog bitterballen?
ach...kom maar gewoon uit de box... nijs om je voor te schamen...toch..😊
was het zon avond...
jong geleerd...
helemaal gelijk! foppe
inderdaad.
van harte gefeliciteerd een fantastisch toernooi gespeeld. terechte winnaars.
yep, velen zullen maar niet hardop denken..leuk koppie en kekke benen...moet een killerbody tussen zitten 😊
en natuurlijk...beelddenken 😏
combinatie van gevoel en temperatuur...😎
wat een finale
waarschijnlijk tindert hij met eentje...