begrijp ik goed dat partij die is opgericht om de democratie te versterken vooraf aangeeft referendum te negeren?
de menselijke geest uniek? dat had u gedacht nrc interessant essay van gijsbert werner
ontwerp een smart city! opdracht in het kader van mpimmodule ict, data &amp beleid
rutte bij het woord visie denk ik aan de oogarts. interessant perspectief van onze mp!
interessant gesprek over publieke waarden, democratie en data
gefeliciteerd!
in bielefeld bij voor lezing over
groot vertrouwen in de mogelijkheid om via design de democratie te versterken
startbijeenkomst met en
ons onderzoek over voor ministerie bzk staat nu online
designopdracht van gastdocent bij vak maatschappelijke innovatie
gigantische muurschildering met verhalen van bewoners bij croeselaan de utrechtse internet courant
melanie peters van over big data en duurzaamheid in de landbouw
op nationale milieudag voor presentatie over big data en duurzaamheid
wetenschap en praktijk gaan hand in hand bij promotor van der velde en haar jonge hond | dub
mooi stuk over wetenschappelijke tijdschrift van studenten van onze research master
slechte service van de benodigde windowsupdate is niet makkelijk te vinden!
npo radio 1 de dagwacht heeft mij uitgebreid geinterviewd over de stad van de toekomst.
op bezoek in gent bij filip de rynck en sabine rotthier met studenten van de master publiek management
creatief eindproduct voor cursus publieke innovatie het grote publieke innovatie spel.
sterk en intrigerend college van over stedelijke innovatie in utrecht
nwo zou er teminste voor kunnen zorgen dat een telefoon wordt doorgeschakeld! medewerkers zijn er nooit en er is geen backup.
ik heb nog nooit meegemaakt dat contactpersonen die ik bij nwo probeer te bellen er zijn. werkt daar ooit iemand?
boeiend! zelf hebben wij een governance lab utrecht. samenwerken?
marijn jansenover de risicos algoritmes op bijeenkomst over bij het ministerie van bzk.
op weg naar den haag voor lezing bij bzk over open data. ik ga pleiten voor meer living labs open data! met o.a.
op weg naar de oratie van in leiden, bijzonder hoogleraar de overheid als arbeidsorganisatie. ben benieuwd!
prachtig proefschrift van over transparantie in de europese raad. verdediging 10 maart.
mijn idee om de democratie te versterken door verbinders meer invloed te geven vandaag in de volkskrant!
inspirerende lezing over bij
nu met de link
leer over en met ! bijdrage van collega en over praktijkervaringen in groningen
willen we dat burgers zelf politieagenten worden? workshop over diy policing in berlijn via
super! mooie waardering voor jullie krachtige initiatief!
het experimentele archief. mijn pleidooi voor experimenten om kennis over duurzame archivering te ontwikkelen
collega vertelt helder verhaal over
ik voorspel de toekomst!
mooi initiatief van collega peter linde colleges over sociaal ondernemen in overvecht en met overvechters.
met amersfoortse burgers brainstormen over utopische en dystopische
gebruik van grote kartonnen pilaren verandert young innovators program in een ontwerpstudio!
mijn opiniebijdrage vandaag in trouw zet niet alle kaarten op de boze witte man!
symposium over samenwerking tussen politie en burgers via nieuwe media. met
sterke, inspirerende oratie van over waarden in het academisch onderwijs. verplaatsing in de ander cruciaal voor ethisch gedrag!
kennisseminar transparantie en toezicht. met
boekpresentatie huub dijstelbloems het huis van argus.
interessante discussies bij smart city strategy workshop. doel aanbevelingen voor nationaal beleid
college over dataficatie van stad voor master data for business governance
interessant seminar over free innovation met eric von hippel, wouter boon, jeroen de jong en
ontwerpen van cocreatieve diensten met ict in opleiding mpim
okay! ons falen dan!
hartelijk gefeliciteerd!
de graaf &amp van boxtel 2.0
innovatieve oplossingen voor stedelijke vraagstukken. artikel met studenten young innovators program
done! werkt het zo goed?
uithof bereiken via bunnik? zie film van studenten maatschappelijke innovatie
presentaties over gebruik om leefbaarheid groningen te versterken
presentaties over gebruik om leefbaarheid groningen te versterken
ook productieve ochtend zie resultaten socratisch gesprek over vraag waarom we archiveren
wij maken nieuwe archiefconcepten &amp prototypen
vier perspectieven waaronder mijn eigen op
future of archives presentatie resultaten archieflab bootcamp waag society. meld je aan!
schokkende beeld van verschillen in levensverwachting voor utrechtse wijken
mooi stuk van over open data
net bij oratie in tilburg. krachtig verhaal over regio als multiactor en multilevel governance systeem
een keer iets gekocht via webwinkel van ga ik nooit meer doen! het product wordt niet geleverd, klantenservice is onbeschoft.
mooi stuk over risicos van met intrigerende titel blonde vrouwen krijgen het zwaar in de smart city.
op weg naar rotterdam voor de oratie van menno fenger whose welfare state?
wat zijn archieven in de 21e eeuw? we zijn van start gegaan met traject voor nationaal archief. zie
thanks! ik had de hoop al opgegeven maar hoorde opeens het geweldige bericht!
hong kong mahjong, tai chi, waarzeggers, britse pubs en veel mist. fascinerende stad en sterk congres!
via en via goed stuk maar schrikbeeld is te klassiek en eenzijdig. datapolis kent vele actoren!
originele eindopdracht voor het vak publieke innovatie het nieuwe jasje voor de publieke manager
felicitaties! collega heeft zeer prestigieuze onderzoeksfinanciering van eu verkregen. zie
benefietdiner prachtige organisatie met mooie projecten in kameroen.
verjaardag hoogleraren les op basisscholen. ik samenwerking burgerspolitie. dr. bosschool.
naar 020 om de gerrit van der veen lezing te verzorgen een kritisch perspectief op de slimme stad. ik ga wijzen op the dark side of data.
nieuw nummer van bestuurswetenschappen met bijdragen over lokaal bestuur en democratie van o.a.
rotzakken van weer een schroefje te weinig. ik snap dat er iets mis kan gaan maar zorg dat er net teveel schroeven zijn!
twee uur design thinking met ambtenaren v&ampj oplossingen voor huisvesting asielzoekers, onterechte veroordelingen en werkloze jongeren 2x!
prachtige oratie van prof. stan geertman over planning support systems!
prachtige slotpresentaties publieke innovatie creatieve oplossingen voor eenzaamheid bejaarden en meer!
onderwijs draait om contact en niet om technologie.
interessant initiatief in de vs open data om steden slimmer te maken. zie
zeggen wat je denkt mogen alleen de vrienden van geert!
boeiende oratie over zie
zo zie je maar zeer goede proefschriften worden wel gelezen!
naar om lezing te geven over met o.a. zie ook
ik hoorde het! kom je daarvoor helemaal uit grun naar den haag!
van harte gefeliciteerd buurman!
interessante bijeenkomst over transparantie n.a.v. nieuwe boek het geheim van de laatste staat
leuk stuk over in ibestuur o.a. op basis van een interview met mijzelf
interessant nieuw nummer van bestuurswetenschappen uit! zie
gefeliciteerd met lancering! boeiend platform over smart cities, publieke innovatie en nog veel meer!
leuke vertaling door inge snijder van mijn perspectief op wendbare publieke innovatie naar netwerkorganisaties
de publieke waarden van open data. onderzoek naar wat open data oplevert
rotzakken! pownews is de pestkop op het virtuele schoolplein. en tegen deze bully durft niemand op te treden.
leuk verslag van de workshop die we gisteren hebben gegeven over citizengenerated data
ik ga zo luisteren naar evgeny morozov!
sociaal ondernemerschap leer je in utrecht! leuk stuk over onze minor en ander vernieuwend onderwijs.
slimme stad, blije burger? mijn oratie bestuur in de datapolis nu online
citizengenerated data? lees het rapport dat we schreven voor de gemeente
in 5 minuten leg ik uit wat dataficatie van misdaadbestrijding is
melanie bij van liempt live aflevering 20
dataficatie van misdaadbestrijding? zie mijn lezing voor studium generale utrecht begin bij 4.50
mooie promotie vandaag van aan over backoffice coördinatie van egovernment
felicitaties voor collega jeroen vermeulen!
van boeiende toekomst over toekomst met o.a. in 020 naar symposium in 070
van harte gefeliciteerd! en ook ik zie uit naar een mooie samenwerking!
mijn azerbeidjaanse promovendus iqbal zoekt per 1/10 in utrecht. evt. slechts voor een maand. wie weet iets?
weer zootje op het spoor. geen treinen van schiphol naar utrecht en belabberde informatie.
“uiteindelijk gaat het om het openbreken van macht”. ik blijf een revolutionair! lees het interview
boekje volgt in september. stuur mij een email en ik stuur het je toe!
smart city is geen utopia. binnenlands bestuur heeft een kort artikel over mijn oratie
thanks! leuk dat je erbij was!
yes. is trending topic geworden!
in september verschijnt de oratie op schrift!
thanks! de aula is nog uit een tijd dat zo werd gebouwd dat koelte gegarandeerd was. middeleeuwse airco!
veel zin in seminar smart city utrecht met daarna mijn oratie over
we zoeken een aio voor ons onderzoek naar burgerparticipatie via ict voor duurzame, slimme steden. zie please rt!
boeiende workshop in het kader van ons onderzoek naar politie, sociale media en waardenconflicten met
graag gedaan!
mij maakt t niet uit. ik kom daar niet meer. doe t vooral voor alle andere reizigers!
ik zag nergens iets. en vele andere mensen liepen ook fout. informatiebord bij nieuwe ingang met de vertreksporen deed t niet!
bij aankomst 10 min. zoeken naar uitgang, bij vertrek trein gemist. verbouwing station breda slecht geregeld. doe iets!
op weg naar om presentatie te geven over collaborative innovation. met
mijn oratie is 2/7 16 uur. officiële uitnodiging volgt binnenkort. titel bestuur in de datapolis slimme steden, blije burgers?
ik dacht meer aan een ander ritme 2005, 2006, 2007, 2008 2015, 2016, 2017, 2018.
2/7 in utrecht gratis seminar over tedlezingen wetenschappers &amp practitioners. aanmelden please rt.
aardige poging! het gaat om culturele afstand. lotsverbondenheid. met 147 doden in vs of aus hadden kranten vol gestaan.
kranten dagenlang vol over germanwings. over 147 doden in garissa lezen we nauwelijks iets. some deaths are more equal than others!
boeiende sessie met scriptie plus studenten bij
verlies maar voorlopig wel senator!
was net bij prachtige oratie van huub dijstelbloem over the public eye, het publiek als privédetective.
issy is een van de franse partners in onze europese project over
alumnibijeenkomst research master met lezing van job cohen over democratische vernieuwing
goed opgelet bij college staats en bestuursrecht, max!
via mooi verslag van symposium actieve openbaarheid, een open aanpak ”
maar je zou eens moeten checken hoeveel mensen nog dit beeld van archieven hebben. tijd voor een nieuwe benaming?
klopt. de veldwachters waren echter inmiddels verdwenen. misschien moeten we spreken over een herinnovatie!
en je blijft een man met een missie!
fraai boek van over trends in innovatie in de publieke sector. ik benoem drie paradoxale trends.
zou mooi zijn maar de wetenschappelijke plicht roept...
mooi afscheidssymposium voor melanie peters over verschillende logicas. trots op haar benoeming tot directeur van het rathenau instituut!
thanks! met vertraging zijn we veilig aangekomen.
wij zouden vandaag in de loop van dag naar munchen gaan rijden. heeft dat zin of staan er overal in duitsland files?
postdoc gezocht! voor europees onderzoeksproject naar zoeken we gepromoveerde bestuurskundige. please rt
ik ben zeer kritisch op dit soort lijstjes. toch is het leuk te lezen dat mijn dochter op de beste school van nl zit!
mooi filmpje over open data bij de politie door nair betencourth chantre
de universiteit utrecht zoekt een nieuwe directeur studium generale. please rt. zie
de zoektocht naar snoep gaat door in zeptolab’s om nom stories! binnenkort weer een nieuw avontuur
zoek ervaringen met melding verholpen? onderwerp op politieke/bestuurlijke agenda? mail a.j.meijer at uu.nl. please rt
binnenlands bestuur heeft een kort bericht geplaatst over ons onderzoek naar open data
ons onderzoek naar geeft zicht op drivers en barrieres en op gewenste en ongewenste effecten
vandaag neem ik deel aan een sessie over innovatie met een japanse delegatie in het future center lef.
maandag film smart city ecopolis en discussie. mijn bijdrage duurzaamheid is mooi maar democratie is mooier.
zeer boeiend maar ben al betrokken bij onderzoek naar open data i.o.v. bzk. teveel petten is geen goed plan...
zeer geslaagde start van met o.a.
tot 2 jaar terug was hier onze biowinkel. woningcorp. verhoogde de huur en joeg hen weg. buurtverbetering?
terug van inspirerende kennismarkt overheid georganiseerd door krijn van beek. mijn keynote van kennisoverdracht naar publieke innovatie
zinnig maar weinig verrassend. eigenlijk niets dat ik zelf niet kon bedenken. en daarom is vernieuwing nuttig.
hans wiegel en bram peper weer eens in zijn er echt niet eens iets frissere types te vinden?
best paper award van egpa studygroup 1 egovernment voor simon vanderelst en filip de rynck! great paper about interpretative alignment
helemaal mee eens!
zeer aangrijpende zembla over arthur gotlieb. cruciaal lesmateriaal voor bestuurskundigen. zo moet het dus niet!
zo is t maar net. oratie waarschijnlijk juli 2015...
interessante blog van over schaduwzijden van burgerparticipatie
inderdaad. vlucht woensdagavond om 1930 uit genève.
jazeker. ze hadden gewoon geen andere broodjes meegekregen.
het was niet het geval dat de broodjes kaas op waren. het aanbod bestond gewoon alleen uit broodjes ham. er was niets voor vegetariers!
als moet je niet met vliegen. op vlucht uit genève alleen broodjes met ham!
3 ondernemende, enthousiaste en zelfstandige stagiaires voor het opzetten van een science popup store
gisteren was ik op tv bij over de heftige reacties van burgers op een filmpje met geweld
studenten zijn creatief bezig bij het vak maatschappelijke innovatie
nogmaals maar nu met beter werkende link academische carriere in nieuw zeeland kijk naar vacature 121.
zin in een academische carriere in nieuw zeeland? de school of government in wellington zoekt een lecturer. zie
24/6 19 uur geef ik een inleiding over de nieuwe politie bij film zero dark thirty in komt allen! zie
“@lapperre lezenswaardig pleidooi van paul t hart voor ambtelijk vakmanschap 3.0 ”
je wordt nog een bner!
eindelijk de brief! ik ben gisteren benoemd tot hoogleraar publieke innovatie aan de uu.
onze casestudy over hpvinenting verschenen in publicatie van zie ook mooie case van
zeker kennen we elkaar! we behoorden beiden tot de harde kern van het programma digitale duurzaamheid.
terug uit berlijn. bezoek aan ifg.cc egov onderzoekscentrum en fraunhofer institut. ook interviews met cios t.b.v nieuw boek over spim.
creatieve buurman heeft website over relaties
dank voor de tips en ondersteuning... gelukkig voor mijn dochter is wie is de mol op zender die t nog doet.
ik wil met collega uit tilburg verhaallijnen van politie op twitter analyseren. is dat iets?
rotservice van slechts twee televisiezenders, helpdesk niet bereikbaar. hadden we maar geen digitale televisie van
zembla geeft mij geinterviewd over politie en burgerparticipatie
mooie en vooral leerzame films over het europese project over sociale innovation wilco
gefeliciteerd met de van poelje prijs!
in tegenlicht documentaire het veiligheidscomplex veel aandacht voor ons boek over de migratiemachine. zie
artikel over sociale media strategieen van de politie in canada en de vs met
inspirerend gesprek gehad met olaf andersen van bzk t.b.v. mijn nieuwe boekproject public management in an information age.
voorstel over smart city governance ingediend bij mooie samenwerking met gemeente utrecht. nu hopen op positieve reviews!
onze eigen paul verweel is kandidaat voor utrechter van het jaar! stem ook op
speelt smart city game smart city hier technisch concept. big data &gt info &gt betere besluiten. belangen, waarden, politiek afwezig.
bezoek aan apple museum in orvelte drenthe. zeer boeiend. persoonlijke rondleiding. ga er allen heen!
zoekt afgestudeerde b&ampoer met itaffiniteit. meld je bij !
fraaie lezing pieter adriaans over wiskunde, muziek en kunst. ook mooi voorbeeld van hoe je boeiend les kunt geven.
morgen naar 3e internationale conferentie in versailles. papers
lijkt me prima. gecheckt bij redactie en kan. mail mij even een voorstel en richtlijnen. zie
zie hij is natuurlijk bekend geworden met t boek the net delusion
goed punt. ik ben een fan van zijn werk en dat past hier zeker bij!
wetenschapsfilosofie research master twee interessante gesprekken in twente ringo ossewaarde en rené torenvlied.
kende dit nog niet. bedankt!
sta ik zeker voor open. jullie zijn zeer welkom om hier in utrecht dit een keer te bespreken.
wat is het? wat kan de overheid ermee? wat zijn risicos? artikel van en mij commentaar welkom!
promotie vond plaats in richmond usa en ik was lid van commissie. via telefoon. aparte ervaring. zat hier in zwarte jurk in keuken.2/2
erna ruijer heeft haar mooie proefschrift over en rol van overheidsvoorlichters met succes verdedigd.1/2
productieve bespreking met henk wesselink en ruud viergever van over rubriek persoonlijk meesterschap in
via over de keerzijde van de wob. terechte kritiek maar accent wel eenzijdig op misbruik.
steekt veel nuttigs op tijdens quality conference in vilnius. zie mijn aantekeningen in geheimschrift.
op weg naar vilnius. morgen geef ik op de eupan conferentie over de quality of government een lezing over transparantie.#1ekeerinlithouwen
college paul t hart nu bij over de beste premier aller tijden
mooi verhaal over de transitie van verzorgingsstaat naar verzorgingsstad van bij
maximale onderwijsdag 9 tot 12.30 wetenschapsfilosofie utrecht,14 tot 17.30 publiek informatiemanagement den haag.
mooi initiatief van o.a. huub dijstelbloem en om de wetenschap te verbeteren.
op weg naar in edinburgh. ga papers over 1 politie en sociale media en 2 smart cities presenteren.
triest! bedreigd in voortbestaan. kabinet praat over innovatie maar wijst dit voor eigen organisatie af.
ons boek over politie en sociale media is nu gratis beschikbaar. zie please rt.
eens! 3 uur energiek positivisme is wel wat veel voor deze dame. afsluiten met een rustig melancholiek fragment of zo..?
beroerde horlogeservice . kunnen glas vervangen maar onder €50 geen prijsopgave. sommige klanten vinden dat prettig. ik niet!
in parijs het huis van auguste comte bezocht. niet helemaal mijn stijl van wetenschap maar toch een held!
mooi verslag wetenschappelijk programma via
heel hartelijk gefeliciteerd!
neen. praatje staat niet online. wel radioopnamen geloof ik. ik laat t nog weten als deze ergens staan.
klaar voor praatje over politie en sociale media op wetenschappelijk verhaal in 12 minuten is uitdaging.
diepgaande analyse van als is vandaag verschenen in pmr. 47 gratis downloads beschikbaar op
en weet jij zelf eigenlijk wel wie je bent?
filmpje over de lezingencyclus lokaalmondiaal van met kort optreden van mij over big society
er komt geen inhoudelijk verslag maar in ons boek politie en sociale media is alles te vinden. zie
beeldverslag van symposium politie en sociale media op de universiteit utrecht op 7 juni jl.
zeer blij want tas eindelijk terug! dank voor de morele steun!
apple maakt niet alleen bij mij veel los. voor nu ik geef de ipad een kans...
dropbox staat er al op maar werkt alleen met wifi. hoe kun je bestanden beheren zonder toegang tot internet?
niet blij met nieuwe ipad. apparaat kan de meest basale taken niet uitvoeren. geen bestandsbeheer. alles via itunes.
mooi interview met collegas en bake dijk over de komende youth olympic games in utrecht.
mooi verslag van ons symposium over politie en sociale media
boeiende discussie over risico van privacyschending bij gebruik sociale media door politie
bart driessen laat zien hoe belangrijk pushberichten zijn om burgers te betrekken bij de directe opsporing
martine vis benadrukt het belang van digitale corporate identity van de politie en webcare
het symposium politie en sociale media is te volgen via
maakt presentatie seminar politie &amp sociale media. deze vrijdag! 85 mensen hebben zich opgegeven maar er is nog plek!
op 15 juni organiseren wij een middag over programma en registratie
plan voor stadspark in dichterswijk utrecht. mooi initiatief voor groen in een buurt die wordt volgebouwd.
zeven proefschriften dingen nog mee naar jaarprijs politicologie go !
is het rapport al openbaar?
ik heb t doorgegeven! leuk dat je naar ons seminar over politie en sociale media komt!
net geïnterviewd door over sociale media en de opsporing van de twee jongens uit zeist. vanavond om 18.15 uur op tv.
tankman. met studenten op kunstzone rabobank voor bijeenkomst over onderzoek naar publieke dienstverlening.
ellen moors pleit in haar oratie voor gebruikersinnovatie om duurzaamheid te versterken.
een droom komt uit! op 6 juli treed ik voor het eerst op op een popfestival.#debeschaving
leuk gesprek bij over hun kunstzone. onze b1 studenten gaan de klanttevredenheid onderzoeken
leuk dat jullie naar op 7 juni komen!
7 juni symposium over en sociale media. eerste 50 deelnemers krijgen gratis boek. meer info en registratie
burger mag fotos verdachten online zetten gevaarlijk! in boston fotos van onschuldigen verspreid. via
het belang van jullie onderzoek zie ik zonder meer maar de relatie met de bomaanslag in boston mis ik even...
sorry. we hebben inderdaad al sprekers. maar ben ook zeer benieuwd naar jullie onderzoek. wellicht nog in te passen. ik mail je!
van harte gefeliciteerd met je promotie! via
good news travel fast! uitnodiging volgende week. nu vast 7/6 van 13.30 tot 16.30 in utrecht seminar politie en sociale media.
mooie toevoegingen. dank! dat nemen we mee in de definitieve versie van ons stuk.
over sectoren staat dat deze zich teveel afschermen. en dit afschermen zie je als een barrière die moet worden overwonnen 2/2
ik heb je tekst goed gelezen. vond het een boeiend stuk. was het niet met alles eens. dat noem ik een discussie. punt.
ik heb je stuk net nog een keer goed gelezen. er is geen aandacht voor sectorspecifieke competenties 1/2
natuurlijk interpreteer ik. dat doen mensen met teksten. ook met stukken die ik schrijf.
als je aangeeft dat t slechts gaat om semantische verschillen, stel je impliciet dat t dezelfde competenties zijn 2/2
hartelijk dank voor je reactie op ons stuk over flexibele ambtenaren! maar ik ben t niet met je eens... 1/2
en ik analyseren het debat over de flexibele inzet van ambtenaren. zie reacties zijn zeer welkom!
overleg over braszprijs voor beste bestuurskundige scriptie 2012. van 23 scripties naar 5 op shortlist. over drie weken naar een winnaar!
beide hebben we geen naïef perspectief op hero innovators maar onderkennen wel dat bij innovatie individuen een verschil kunnen maken. 2/2
sterke presentatie over sociale innovatie veel raakvlakken met mijn eigen onderzoek. 1
yep. je presentatie over sociale innovatie op de kan gewoon in het nederlands.
maar zijn die veranderingen nu echt wel zo groot? of overdrijven we de dynamiek van onze eigen tijd?
veel bestuurskundigen zijn overtuigd dat verandering niet of nauwelijks mogelijk is. hooguit incrementeel.
dinsdag om 16 uur spreekt om de over sociale innovatie. belangstellenden zijn welkom!
ombudsman introduceert fraaie term maar zeer onwenselijk verschijnsel diplomabureaucratie. via
maar t zou toch goed zijn als zijn energie/agressie eens richt op mensen die elkaar veel geld toeschuiven!
terug uit lausanne. begrijp nu dat rechts achter referendum beperken bonussen private managers zat. leuk onderwerp voor ?
morgen naar idheap in lausanne om daar aan promovendi en postdocs twee dagen les te geven over en
gefeliciteerd! en mark bovens. forse subsidie nwo, stw en zonmw via
mooi! ik weet jullie te vinden!
waarom heeft iedereen t ineens over een haakje om iets een idee, een project, een onderzoek aan op te hangen?
schoonzus pascale peters radboud u op radio met genuanceerd verhaal over vanaf18.25.
kick off bijeenkomst van nieuwe onderzoek uu/nsob in opdracht van bzk naar effecten van
oud collega kim putters nieuwe directeur scp. gefeliciteerd
in 020 voor bespreking voortgang promotieonderzoek hillebrandt over de transparantie van de europese raad.
en hoe kwam jij bij whatsnup.doc?
mijn promotor ig snellen, naast hoogerwerf, winnaar van der spiegelprijs. speciale onderscheiding voor bijdrage aan bestuurswetenschap!
na complexe fietstocht over bruggen, snelwegen en kanalen beland op festival der bestuurskunde
collega sebastiaan steenman op uu gekozen tot jonge docent van het jaar.#usbo
samen met simone groen en wouter kisteman onderzoek gepresenteerd voor stuurgroep &amp gedrag. viel goed
fraaie scriptie van over politie, sociale media en crowd control is te vinden op
trots op . afgestudeerd met een 8 op een fraaie scriptie over politie, sociale media en crowd control.
met oudste dochter naar het egypte van hollywood voorbereiding op meivakantie naar luxor.
vandaag eerste bijeenkomst van de leerkring publiek management thema empirisch onderzoek. en over 5 maanden liggen er 25 scripties!
college verzorgd over trends in publiek domein. sterke groep! themas re/debureacratisering, horizontale ideologie, hybride sturing.
kijk maar uit!
nieuwe boek van het net maakt actievoeren veel eenvoudiger! waarom was dat er vroeger niet...#zucht
dank voor de suggestie! we gaan binnenkort inderdaad met de ark praten. met cor van montfort.
ha, ha. ik had eerst goede discussie staan maar ik wilde even checken of jij dit wel las. gelukt!
onze verkenning voor nieuwe onderzoeksprogr. handhaving &amp gedrag gepresenteerd. mooie discussie over ontw. in en nieuwe vragen.