dan kunnen ze begin december de platte kar al uit de schuur halen
swart baalt psv kruipt iedere week door het oog van de naald
wat ik goed aan cocu vind, is dat hij zijn eigen team niet overschat
cocu geeft van vlerken en ritzmaier kans bij eerste selectie
derksen haalt uit bergwijn moet door de tuchtcommissie aangepakt worden
thomas 48 uur in vliegtuig voor duel met psv wil ik zeker niet missen
dat is het grote verschil met de concurrentie ze hebben phillip cocu
video | nog even nagenieten sfeerverslag psv fc twente
psv opnieuw in de race om braziliaans toptalent
psv koopt script voor eigen musical er is een waarde bepaald
arias meldt zich geblesseerd af voor interlands colombia
oudpsvers lovend over advocaat hij heeft het goed gedaan
ik ben al hartstikke goed, maar ik kan nog beter worden
de jong dankbaar de supporters zijn me altijd blijven steunen
psv speelt nog steeds niet als een topclub, het blijft kwetsbaar
caffee 1913 in philips stadion gaat dicht psv heeft ons een voorstel gedaan
video | oudpsver belaagd door fans vaker naar de kleedkamer gerend
gijp die isimat en brenet werken echt op mijn lachspieren
nieuwe partner psv grootste voetbalspecialist van nederland
room claimt aandeel in zege misschien hem een beetje vertrouwen gegeven
de jong geselecteerd voor oranje ging al wel een beetje rekenen
zoet dronk kopje koffie met advocaat we gaan gewoon lekker verder
dan kunnen ze begin december de platte kar al uit de schuur halen
van ginkel leeft mee met ploeggenoot dit is zeker zuur
swart baalt psv kruipt iedere week door het oog van de naald
wat ik goed aan cocu vind, is dat hij zijn eigen team niet overschat
psv valt op in italië topclubs hebben miljoenen over voor psver
cocu geeft van vlerken en ritzmaier kans bij eerste selectie
derksen haalt uit bergwijn moet door de tuchtcommissie aangepakt worden
video | nog even nagenieten sfeerverslag psv fc twente
psv koopt script voor eigen musical er is een waarde bepaald
arias meldt zich geblesseerd af voor interlands colombia
de jong dankbaar de supporters zijn me altijd blijven steunen
caffee 1913 in philips stadion gaat dicht psv heeft ons een voorstel gedaan
video | oudpsver belaagd door fans vaker naar de kleedkamer gerend
nieuwe partner psv grootste voetbalspecialist van nederland
de jong geselecteerd voor oranje ging al wel een beetje rekenen
van ginkel leeft mee met ploeggenoot dit is zeker zuur
psv valt op in italië topclubs hebben miljoenen over voor psver
video | de mooiste jeugdgoal van afgelopen weekend bij psv?!
dat zegt iets over de kwaliteiten van cocu als peoplemanager
de jong terug bij nederlands elftal zonder geluk vaart niemand wel
psvfans dromen al voorzichtig over kampioenschap lijkt mij duidelijk
psv is in kampioensvorm, maar één zwaluw maakt nog geen zomer
psvspelers in elftal van de week, vi deelt onvoldoendes uit
videos | depay, rekik en willems maken indruk in europa
enorme ontlading bij psv je merkte het op de tribunes
cocu had het geluk dat zijn basiswissel geen punten kostte
video | de mooiste jeugdgoal van afgelopen weekend bij psv?!
verbeek ik ben ook niet gefrustreerd, maar wel teleurgesteld
dat zegt iets over de kwaliteiten van cocu als peoplemanager
breaking de jong opgeroepen voor nederlands elftal update
de jong terug bij nederlands elftal zonder geluk vaart niemand wel
locadia meldt zich weer af bij oranje een flinke teleurstelling
zoet baalt te makkelijk om te zeggen dat het daar aan ligt
psvfans dromen al voorzichtig over kampioenschap lijkt mij duidelijk
psv heeft zich opgericht tot een zelfbewuste doelpuntenfabriek
psv is in kampioensvorm, maar één zwaluw maakt nog geen zomer
bergwijn geblesseerd jammer steven, hopelijk snel weer fit
psvspelers in elftal van de week, vi deelt onvoldoendes uit
psv richt pijlen op 19jarige aanvaller als er een zot bod komt...
video | samenvatting psv wint spektakelstuk van fc twente 43
zes punten teveel voor psv de mazzel zal toch wel een keertje op zijn?
zoet reageert op advocaat dan moet het ook bij de bondscoach liggen
van hanegem kritisch bij psv zie ik wekelijks nog volop tekortkomingen
videos | depay, rekik en willems maken indruk in europa
woorden advocaat verrassen zoet dan moet het ook bij de bondscoach liggen
psv niet in één rechte lijn naar titel wekelijks nog volop tekortkomingen
enorme ontlading bij psv je merkte het op de tribunes
het geluk van de kampioen? nog heel vroeg om over de titel te praten
cocu had het geluk dat zijn basiswissel geen punten kostte
verbeek ik ben ook niet gefrustreerd, maar wel teleurgesteld
breaking de jong opgeroepen voor nederlands elftal update
locadia meldt zich weer af bij oranje een flinke teleurstelling
zoet baalt te makkelijk om te zeggen dat het daar aan ligt
psv heeft zich opgericht tot een zelfbewuste doelpuntenfabriek
bergwijn geblesseerd jammer steven, hopelijk snel weer fit
psv richt pijlen op 19jarige aanvaller als er een zot bod komt...
video | samenvatting psv wint spektakelstuk van fc twente 43
zes punten teveel voor psv de mazzel zal toch wel een keertje op zijn?
zoet reageert op advocaat dan moet het ook bij de bondscoach liggen
van hanegem kritisch bij psv zie ik wekelijks nog volop tekortkomingen
woorden advocaat verrassen zoet dan moet het ook bij de bondscoach liggen
psv niet in één rechte lijn naar titel wekelijks nog volop tekortkomingen
het geluk van de kampioen? nog heel vroeg om over de titel te praten
zoet tevreden ondanks tegentreffers die 11 mag nooit vallen, dat is geen corner
van ginkel en oudpsver genomineerd voor speler van de week
de jong opgelucht dankzij treffer het heeft even geduurd
brenet lost van aerle af spannend was het zeker, leuk pas op het einde
bergwijn is zich van geen kwaad bewust een terechte strafschop
brenet pakt clubrecord en droomt stiekem verder daar gaan we voor
cocu eist scherpte valkuil kan zijn dat we gaan geloven dat we echt goed zijn
psv pakt winst met geluksgoal tegen fc twente het ging niet makkelijk
psv boekt benauwde zege op fc twente en loopt verder uit op concurrentie
video | einde aan doelpuntendroogte de jong spits kopt raak
ajax en feyenoord weten niet te winnen gouden kans voor psv
matchday bergwijn ten koste van de jong terug in de basis
zoet tevreden ondanks tegentreffers die 11 mag nooit vallen, dat is geen corner
van ginkel en oudpsver genomineerd voor speler van de week
de jong opgelucht dankzij treffer het heeft even geduurd
brenet lost van aerle af spannend was het zeker, leuk pas op het einde
bergwijn is zich van geen kwaad bewust een terechte strafschop
brenet pakt clubrecord en droomt stiekem verder daar gaan we voor
cocu eist scherpte valkuil kan zijn dat we gaan geloven dat we echt goed zijn
psv pakt winst met geluksgoal tegen fc twente het ging niet makkelijk
psv gaat veel plezier beleven aan locadia hij maakt tussen de 15 en 20 goals
vorig seizoen was veel beter was verlopen als hij niet geblesseerd was geraakt
psv boekt benauwde zege op fc twente en loopt verder uit op concurrentie
video | einde aan doelpuntendroogte de jong spits kopt raak
ajax en feyenoord weten niet te winnen gouden kans voor psv
brenet ik kan mijn koppie er niet meer bij laten hangen
cocu moeten nu vooral niet verslappen
matchday bergwijn ten koste van de jong terug in de basis
psv gaat veel plezier beleven aan locadia hij maakt tussen de 15 en 20 goals
vorig seizoen was veel beter was verlopen als hij niet geblesseerd was geraakt
brenet ik kan mijn koppie er niet meer bij laten hangen
cocu moeten nu vooral niet verslappen
koukleumen opgepast kachel brandt niet in philips stadion
cocu tevreden over tennisballentraining ik hoop dat hij dit vasthoudt
de jong moet gewoon lekker voetballen en zijn taken uitvoeren
brands hij heeft enorm veel potentie, maar het moet nog constanter
psv al een jaar zonder puntverlies in eigen huis vertrouwen is enorm gegroeid
pereiro droomt hardop over volgende stap dan ga je altijd luisteren
brands ziet verandering in psvjeugd dan hoorde je nou, koop maar een nieuwe
lozano beter dan neres hij heeft direct de kans gekregen bij psv
jong psv brengt fc volendam eerste overwinning daarvan konden we niet profiteren
koukleumen opgepast kachel brandt niet in philips stadion
cocu ziet fc twente als struikelblok laten we vooral niet geloven dat we heel goed zijn
toch is hij op dit moment in een dienende rol belangrijk voor psv
cocu tevreden over tennisballentraining ik hoop dat hij dit vasthoudt
jong psv nipt onderuit op bezoek bij fc volendam
de jong moet gewoon lekker voetballen en zijn taken uitvoeren
brands hij heeft enorm veel potentie, maar het moet nog constanter
psv al een jaar zonder puntverlies in eigen huis vertrouwen is enorm gegroeid
pereiro droomt hardop over volgende stap dan ga je altijd luisteren
brands ziet verandering in psvjeugd dan hoorde je nou, koop maar een nieuwe
lozano beter dan neres hij heeft direct de kans gekregen bij psv
jong psv brengt fc volendam eerste overwinning daarvan konden we niet profiteren
cocu ziet fc twente als struikelblok laten we vooral niet geloven dat we heel goed zijn
toch is hij op dit moment in een dienende rol belangrijk voor psv
jong psv nipt onderuit op bezoek bij fc volendam
de jong stoïcijns ik doe niets specifieks, hier doe je niets aan
ik doe mijn best om luuk de jong aan een doelpunt te helpen
matchday jong psv op jacht naar driepunter op bezoek bij fc volendam!
verbeek ziet kansen tegen psv toen lieten ze de teugels vieren
video mauro junior, braziliaans jeugdtalent van psv
video | ali riza krijgt flink pak slaag in edivisie deze moet ik snel vergeten
drie spelers van psv 1 met beloften naar fc volendam
psv op recordjacht zowel in goede als slechte tijden niet in de war raken
advocaat veel mensen vinden hem geen echte spits, maar ik wel
vier psvers opgenomen in selectie oranje onder 20
cocu houdt vertrouwen in de jong hoop dat die snel gaat vallen
meevaller voor psv hij heeft vandaag weer getraind en is er zondag bij
advocaat reageert op kritiek zoet vreemd dat hij het zo laat weten
psv hofleverancier jong oranje vijf spelers opgeroepen
de jong stoïcijns ik doe niets specifieks, hier doe je niets aan
advocaat neemt drie psvers op in definitieve selectie nederlands elftal
ik durf het niet te zeggen, dat soort dingen verdring je liever als spits
ik doe mijn best om luuk de jong aan een doelpunt te helpen
matchday jong psv op jacht naar driepunter op bezoek bij fc volendam!
verbeek ziet kansen tegen psv toen lieten ze de teugels vieren
die zullen erop gebrand zijn het beter te doen dan het eerste elftal
verbazing in mexico hadden niet verwacht dat lozano het zó goed zou doen
video | ali riza krijgt flink pak slaag in edivisie deze moet ik snel vergeten
zoet maakt indruk heeft teleurstelling omgezet in brandende ambitie
drie spelers van psv 1 met beloften naar fc volendam
psvroutinier goud waard van buitenaf hoort niemand mij misschien
psv op recordjacht zowel in goede als slechte tijden niet in de war raken
advocaat veel mensen vinden hem geen echte spits, maar ik wel
hij zal de gouden schoen niet snel winnen, maar dit is extreem
vier psvers opgenomen in selectie oranje onder 20
cocu houdt vertrouwen in de jong hoop dat die snel gaat vallen
meevaller voor psv hij heeft vandaag weer getraind en is er zondag bij
gratis tip voor cocu basisplek pereiro garantie op psvsucces
advocaat reageert op kritiek zoet vreemd dat hij het zo laat weten
psv hofleverancier jong oranje vijf spelers opgeroepen
advocaat neemt drie psvers op in definitieve selectie nederlands elftal
ik durf het niet te zeggen, dat soort dingen verdring je liever als spits
die zullen erop gebrand zijn het beter te doen dan het eerste elftal
verbazing in mexico hadden niet verwacht dat lozano het zó goed zou doen
zoet maakt indruk heeft teleurstelling omgezet in brandende ambitie
psvroutinier goud waard van buitenaf hoort niemand mij misschien
hij zal de gouden schoen niet snel winnen, maar dit is extreem
locadia twee keer genomineerd voor doelpunt van de week
stevens duidelijk verkeerde keuze terug naar eindhoven te gaan
pröpper enthousiast ik hoop dat psv dit lang kan volhouden
drie psvers in team van de maand oktober
dan zijn we niet eens direct geplaatst voor de champions league
jong psv vrijdagavond met rigo, gudmundsson en mauro junior
locadia twee keer genomineerd voor doelpunt van de week
psv topfavoriet? tien punten op feyenoord is echt al heel veel
stevens duidelijk verkeerde keuze terug naar eindhoven te gaan
hoe hoger brenet het record zet, hoe beter het is voor psv
lof voor rustige lozano eenmaal binnen de lijnen is het een roofdier
dat hij het zo fantastisch zou doen bij psv, hadden wij ook niet verwacht
ergernis rond jong psv in jupiler league dat heeft toch geen zin
pröpper enthousiast ik hoop dat psv dit lang kan volhouden
gertjan verbeekeffect bij fc twente? ik zeg psv gaat winnen
video | dijkhoff vs. baudet psvers komen ook niet van hockeyveld
drie psvers in team van de maand oktober
ik ging ervan uit dat arias weg zou gaan, daar hoorde je veel over
geen gemakkelijke klus bij psv op getallen pin ik me nu niet vast
cocu krijgt goed nieuws uit ziekenboeg topschutter gewoon inzetbaar
dan zijn we niet eens direct geplaatst voor de champions league
jong psv vrijdagavond met rigo, gudmundsson en mauro junior
psv topfavoriet? tien punten op feyenoord is echt al heel veel
hoe hoger brenet het record zet, hoe beter het is voor psv
lof voor rustige lozano eenmaal binnen de lijnen is het een roofdier
dat hij het zo fantastisch zou doen bij psv, hadden wij ook niet verwacht
ergernis rond jong psv in jupiler league dat heeft toch geen zin
gertjan verbeekeffect bij fc twente? ik zeg psv gaat winnen
video | dijkhoff vs. baudet psvers komen ook niet van hockeyveld
ik ging ervan uit dat arias weg zou gaan, daar hoorde je veel over
geen gemakkelijke klus bij psv op getallen pin ik me nu niet vast
cocu krijgt goed nieuws uit ziekenboeg topschutter gewoon inzetbaar
lof voor rustige lozano maar eenmaal binnen de lijnen is het een roofdier
zomeraanwinst grote man in eredivisie hadden wij ook niet verwacht
janssen toen psv me benaderde, zag ik dat als logische stap
ergenis rond jong psv in jupiler league dat heeft toch geen zin
psv opgelucht arsenal laat oog op andere aanvaller vallen
brenet of hij de beste is weet ik niet, in ieder geval een van de besten
gijp pleur toch op, hij loopt voor spek en bonen mee te doen
hoop voor psv denk echt niet dat hij in de winterstop zal verkassen
lof voor rustige lozano maar eenmaal binnen de lijnen is het een roofdier
psver beste speler van de eredivisie nóg completer en belangrijker
zomeraanwinst grote man in eredivisie hadden wij ook niet verwacht
video | amerikaanse proefspeler direct trefzeker bij duel psv onder 19
janssen toen psv me benaderde, zag ik dat als logische stap
psv nagenoeg fit voor thuisduel met fc twente, locadia traint apart
psvmiddenvelder denkt aan transfer we gaan in de winter kijken
arsenal onderneemt actie en heeft miljoenenbedrag over voor lozano
ergenis rond jong psv in jupiler league dat heeft toch geen zin
video | samenvatting jong psv wint oefenduel van fc dordrecht
psv opgelucht arsenal laat oog op andere aanvaller vallen
brenet of hij de beste is weet ik niet, in ieder geval een van de besten
dat vertrouwen werd beloond psv beleeft de beste start van deze eeuw
verliezen voelt bij psv en feyenoord anders dan bij willem ii
gijp pleur toch op, hij loopt voor spek en bonen mee te doen
zoet vol onbegrip over beleid advocaat dan zou ik niet zulke uitspraken doen
hoop voor psv denk echt niet dat hij in de winterstop zal verkassen
cocu schrijft die namen nu als eerste op het wedstrijdbord
psver beste speler van de eredivisie nóg completer en belangrijker
video | amerikaanse proefspeler direct trefzeker bij duel psv onder 19
psv nagenoeg fit voor thuisduel met fc twente, locadia traint apart
psvmiddenvelder denkt aan transfer we gaan in de winter kijken
arsenal onderneemt actie en heeft miljoenenbedrag over voor lozano
video | samenvatting jong psv wint oefenduel van fc dordrecht
dat vertrouwen werd beloond psv beleeft de beste start van deze eeuw
verliezen voelt bij psv en feyenoord anders dan bij willem ii
zoet vol onbegrip over beleid advocaat dan zou ik niet zulke uitspraken doen
cocu schrijft die namen nu als eerste op het wedstrijdbord
dat is hartstikke mooi, maar ook weer geen reden voor euforie
fc twentetrainer lovend over psv dat is ontzettend knap
linssen lyrisch echt goed van psv om dan zo toe te slaan
psver uitgeroepen tot speler van de maand oktober in eredivisie
die is toch niet meteen geschikt voor ajax, feyenoord of psv?
janssen naar psv ambities en plannen spreken me enorm aan
psv bevestigt komst janssen dit zien wij als een buitenkans
brenet best trots op record maar misschien vindt hij het niet leuk
zij vragen zich af waar de jong dat vertrouwen aan heeft verdiend
gerbrands stelt psv gerust van mij zijn ze voorlopig nog niet af
dat is hartstikke mooi, maar ook weer geen reden voor euforie
van hanegem kritisch dat geldt voor ajax precies hetzelfde
linssen lyrisch echt goed van psv om dan zo toe te slaan
knvb maakt scheidsrechter voor wedstrijd tegen fc twente bekend
swart baalt van zege psv het leek wel een vogelverschrikker
psver uitgeroepen tot speler van de maand oktober in eredivisie
die is toch niet meteen geschikt voor ajax, feyenoord of psv?
perez over psver het is bijna een beetje aandoenlijk, vind je niet?
psvhuurling geniet als je dan hoort hoe het publiek je naam noemt
psv laat lozano niet gaan alleen bij gekkigheid kan er iets gebeuren
video | van der moot maakt heerlijke goal in oefenduel jong psv
hendrix in oranje? dan kom ik er op termijn ook wel weer bij
koevermans geniet van psver hij kan afwerken als de beste
foto | wow! locadia naast messi en cavani in elftal van de week
waterreus kritisch op psver in grote wedstrijden scoort hij niet
geweldige start psv als een raket op weg naar het kampioenschap
janssen naar psv ambities en plannen spreken me enorm aan
psv bevestigt komst janssen dit zien wij als een buitenkans
brenet best trots op record maar misschien vindt hij het niet leuk
psv laat smaakmaker niet gaan alleen bij gekkigheid kan er iets gebeuren
zij vragen zich af waar de jong dat vertrouwen aan heeft verdiend
gerbrands stelt psv gerust van mij zijn ze voorlopig nog niet af
van hanegem kritisch dat geldt voor ajax precies hetzelfde
knvb maakt scheidsrechter voor wedstrijd tegen fc twente bekend
swart baalt van zege psv het leek wel een vogelverschrikker
perez over psver het is bijna een beetje aandoenlijk, vind je niet?
psvhuurling geniet als je dan hoort hoe het publiek je naam noemt
psv laat lozano niet gaan alleen bij gekkigheid kan er iets gebeuren
video | van der moot maakt heerlijke goal in oefenduel jong psv
hendrix in oranje? dan kom ik er op termijn ook wel weer bij
koevermans geniet van psver hij kan afwerken als de beste
foto | wow! locadia naast messi en cavani in elftal van de week
waterreus kritisch op psver in grote wedstrijden scoort hij niet
geweldige start psv als een raket op weg naar het kampioenschap
psv laat smaakmaker niet gaan alleen bij gekkigheid kan er iets gebeuren
nee, ik heb nooit getwijfeld of ik deze stap wel had moeten zetten
video van der moot maakt prachtige goal in oefenduel
hendrix ik moet het op het veld bewijzen, dan komt die oproep vanzelf wel
koevermans geniet hij kan afwerken als de beste