flinke afstand afgelegd dan! vond je het niet heel veel rijden alleen?
prachtig!
mooi verhaal! maar was je nou 6 weken in namibië of in totaal 6 weken weg?
voor bezocht ik de tentoonstelling van in het
overigens ben ik een voorstander van afval scheiden hoor. maar als dat op straat niet kan, z…
of t wel/niet gerecycled wordt is wat anders dan niet opruimen omdat het sowieso in milieu belandt.
waarom komt het via de prullenbak in milieu? ik vind het een mooi initiatief jolien. ik raap…
tja, dat effect hebben hormonen nou eenmaal ook na de zwangerschap
o ben ik gelukkig niet de enige!
als je de hoeveelheid haren ziet die ik wekelijks uit het doucheputje vis, lijkt t onmogelijk dat ik überhaupt nog haar op mijn hoofd heb
leuk, ga t zeker lezen
dat was in etosha, hadden we veel geluk mee. lag paar meter van de weg met drie vrouwtjes.
ja wat is het daar ontzettend mooi he. was er vorig jaar ook.
speciaal voor
oh wat fijn! ik heb alleen maar bizarre dromen vol achtervolgingen de laatste tijd
in arnhem? of in dat leukste cafeetje?
nee, was alleen voor de aanwezigen ter oefening
de verhalen blijven komen. toevallig interviewde me vorige week nog over een van die van mij bij workshop van vwn.
ik heb juist geen facebook, vind twitter veel leuker. maar ik weet je op insta te vinden
iedere dag fiets ik langs dit prachtige mini huisje. wie weet waarom het er staat en wie het maakte?
yes we mogen weer
nou ik geloof dat ik er iets van snap. dank
deze kop is een stuk beter dan de ongenuanceerde versie in de papieren krant.
zo dat was een erg leuke en leerzame masterclass interviewen van carolina lo galbo voor de dank voor de organisatie
en hij vindt zichzelf behoorlijk grappig
1e keer toen ik 6 was aan telefoon. later in kroeg, in koffiecafeetje waar ik werkte, festivals, de markt,…
jazeker! morgen staat de recensie online op
natuurlijk! misschien willen en dat ook wel?
vandaag kookte ik een italiaans buffet voor 40 docenten van mijn oude middelbare school. de dochter was erbij.
de eerste werkweek zit erop! hoppa meteen weer 6 dagen
fijn weekend!!
nee hoor, af en toe omdat het leuk is een klus
dank
ja hij doet t gelukkig weer
hij loopt vast helaas
daar was ik net mee bezig
helaas niet bij druk bezig met een grotere cateringklus voor morgen
kijk dat weet jij dan weer
geen straf om dit boek te recenseren voor prachtige uitgave van
dat is een mooie
even een omschakeling hoor. van fulltime bij de dochter naar fulltime weer aan t werk.
ben er ook nog niet achter.
van die berichten “als je nu vertrekt, doe je er xx minuten over naar radboudumc” vanwege een afspra…
dat zal wel ja. ben zelf in juni moeder geworden en vind t heel leuk om mijn ouders als opa en oma te zien.
wat ben je dapper, griet
wat gezond is wil ik horen van een wetenschapper niet van een worstendraaier of koekjesverkoper op
ja bizar. ze beweren alleen met stoom gewerkt te hebben.
man krijgt pak totaal ontkleurd van stomerij terug. zit briefje bij ligt niet aan ons maar aan is vas…
dankje, komt goed !
6 jaar geleden haalde ik zelf mijn diploma op. nu op weg naar om stagiaire toe te spreken tijdens haar afstuderen
ik dus 1x. ik was 16. automobilist stapte uit,zei niks aan de hand toch? en liep weg. fiets was to…
deden maar meer mensen dat. keer flink door lucht geslingerd door openslaande deur.
bij of deze
och och wat was je weer fijn. dankjewel dat we een dagje op je driedaagse verjaardag mochten zijn. gefeliciteerd kwartje!
en de man doet natuurlijk ook mee. scheelt weer een rij voor de douche.
loopt weer als een trein hier! vaker ziek in de winter?
prachtig! goud voor schippers, wat een race.
trots dat het weer met 2 onderzoeksteams op te vinden is. zin om ze aan t werk te zien volgende week
precies 10 weken na de bevalling weer op pad voor de eerste werkafspraak. voelt goed!
even tekenen lieve mensen
o wat heerlijk dit
he naar zeg
en regenjas/poncho en laarzen als de voorspellingen niet mee zitten.
zonnebrand, plantenspuitje bij hoge temperaturen, zakdoekjes/wc papier, oordopjes tegen snurkers en te ha…
en dan vind je ineens een gesigneerde tussen je oude kinderboeken 💕
gratis ananas op de markt omdat de koopmannen het sneu vinden dat je met dit weer nog zwanger bent
op naar bootcamp van zolang het nog gaat, gaan we vrolijk door
prachtig project. benieuwd naar wat er uit komt.
prachtige eerste aflevering van
zul je altijd zien. in eerste week verlof gebeld worden door 2 nieuwe opdrachtgevers. en dan streng blijven voor jezelf
heel erg leuk! het is het filiaal aan de jonagoldstraat in nijmegen.
al ziet die koffie er niet zo aantrekkelijk uit...
als de manager v je aan je deur komt vertellen hoe je klacht is afgehandeld en dit komt brengen…
met geitenkaas en walnoot uit de oven
mooi gevalletje klopt dat wel? nee dus.
toename van mazelen in europa wereldgezondheidsorganisatie luidt de noodklok
we kregen hem van voorzitter
en en ik zijn bij ons afscheid de trotse bezitters van de eerste perskaarten geworden
insgelijks joost!
wauw wat gaaf
en ook die reikten we vanavond uit
vanavond namen en ik afscheid als bestuursleden van succes en veel plezier en
&lt3 voor rake column in
o ik kan hier ook helemaal niet tegen hahaha
als je eiwitvouwing uitlegt met een duplovogel en een dansje, ben je de terechte publieksfavoriet vasyl
gefeliciteerd stefanie ramachers van met het winnen van en vasyl yatsyna met het winnen van de publieksprijs!
veel bewondering voor de pitches vd deelnemers aan finale vanavond. en krijgen t moeilijk in de jury
prachtige brief
tranen van het lachen bij het kijken naar over
gezellig, tot straks!
wat fijn! gefeliciteerd! en prachtig geschreven weer.
mooi! graag gedaan!
haha tja, er is altijd wel iemand
wetenschap? wie stemt daar nou op? maar weinig partijen zijn bezig met wetenschap. via
fijn uitzoekwerk
ongelooflijk. de laatste x dat ik ongevraagd in mijn kont geknepen werd, droeg ik een skipak en zwangere buik
jullie schrijven in 2011, 2012 en 2014 is zij uitgeroepen tot groenste politicus van het jaar.
het staat er anders
v veldhoven is volgens d66 in 14 uitgeroepen tot groenste politicus hier staat van den hout
mannen die je aanspreken, je buik zien en dan oh zeggen
stem op de partij die voor het klimaat gaat maar welke is dat dan? via
vakantie! tas pakken en op naar de sneeuw. skiën zit er helaas niet in met de buik dus de sneeuwschoenen en een lading boeken staan klaar.
kijk en hadden we het vandaag nog over! gijs had een goed punt
gelukkig
helaas past de buik daar niet in! zet vooral deze denimlijn door tot na de zomer
heeft ze ook gekeken naar gewenste zwangerschappen die bijv om medische reden werden afgebroken?
nog 2 dagen tot lees vooral s redactioneel voor ter inspiratie
misschien kom jij steeds vaker in corporale kringen
fijn vrijdagmiddag nieuws. zo dans je aantrekkelijk
ik ben best wel jaloers op jullie. have fun!
volgens mij is ook in de stad
goed stuk dit. stop de vernedering van patricia paay via
18 paginas rutte in volgende linda?! slimme vorm van campagne voeren.
vond de kop wat te ongenuanceerd voor wat er nou eigenlijk uit onderzoek kwam
dat zei ik al
harry potter verwijzingen zijn hip tegenwoordig
interessant. amc krijgt eigen bodyfarm. tweede in europa volgens mij. ik schreef voor over die in gent
en meteen bescherming bij een onverwacht wak
kijk aan. we gaan het zien!
hahaha ja eerst zien dan geloven
wellicht eindelijk weer kunnen schaatsen en dan twijfelen of dat nou wel zo slim is met 21 weken.
wie o wie komt er vanuit leiden naar de borrel en kan de pubquizwisseltrofee bij arnout jaspers ophalen? hij is helaas ziek.
hier ziet het er zo uit
en dan moeten we utrecht over de weg ook nog maar zien te halen
verstuurd via de ledenlijst, toch ?
pas als er een storing is bij weet je hoe afhankelijk je van dat soort apps bent...
❤ voor alle zorgverleners zoals mijn zusje die deze avond en nacht op de sehs en andere afdelingen werken.
het is een journalistieke functie, geen communicatie. dit is geen lage vergoeding voor journalisten helaas.
word jij onze nieuwe collega?
zeg in de afgelopen 2 maanden zijn meerdere kaarten van mij nooit aangekomen. zowel kerstkaarten als gewone post. bekend probleem?
dank was een mooie markt!
boekenverkoop van onze boeken op de kerstmarkt in het cultuurcafe van
net gelezen, erg indrukwekkend. verschrikkelijk dat je vader dit is overkomen. goed dat je erover schrijft!
lees dit en teken dan ook meteen hier
leestipvoor redactie dit op onderzoek gebaseerde artikel van
kijk wat ik daar zie
haha inderdaad, dank!
zware last op grote hoogte. mijn artikel met eigen fotos over de dragers in nepal. via
succes! zeer de moeite waard!
halverwege het is weer een fijne editie
wat fijn, gefeliciteerd!
zeker.
als je een klein leven nog moet lezen, lees dan niet het interview met de schrijfster in peters geeft in inleiding veel weg.
gelukkig valt het kwartje nog op het einde. meergranen is gewoon wit brood met tien granen
hahaha dit is echt de meest verwarrende aflevering van al die bakkers zeggen wat anders.
en lees dan ook meteen het mooie verhaal van op
veel zin om deze te lezen voor
mijn moeder gaf vandaag voor de 90ste keer bloedplasma nijmegen.
te gek zeg rob! gefeliciteerd!!
ik wist niet dat zulke oude mensen ook op zwemles kunnen
hoorde hem ook al bij nos radio. wat een aandacht!
mooi initiatief komen jullie binnenkort ook in de buurt van nijmegennoord?
heel grappig! hopen dat wet, als ie er komt, mensen aanzet tot registreren, anders verandert er nog niks
ben ik verkeerd? vroeg ik toen ik in dameskleedkamer een wijn drinkende man aantrof. nee hoor, ik wacht hier op mijn kinderen.
hahaha wat een onzin
gaaf! daar moet ik dan ook nog een bezoekje voor plannen
leuk! hoe was de opening v tentoonstelling?
mooi en aangrijpend verhaal ook.
morgen dus!
vraag is waarom er in onderzoek niet getest / gevraagd is naar alcohol&ampdrugsgebruik?
eens! maar ik vond het smelt toch beter
want vrouwen kunnen geen vlees omdraaien
mooie timing op deze dag
mooi verhaal! ben zelf niet verder dan base camp gekomen, maar blijft fascinerend, die mensen die naar de top gaan.
intensiteit is mooier dan geluk. met zowel het mooie als het nare. wat een geweldige vrouw.
het zit erop. wat was je fijn. op naar volgend jaar.
wow, maar een mooie show was t!
wat een feest, wat een feest.
lowlands houdt van en terecht.
en t kapsel van de zanger is net dat van mijn vader vroeger.
de lowlandsbezoekers houden van en en hebben een hekel aan nederlandstalig
die hebben ze heel veel mensen ook vast wel gegeven
kennelijk vind t feit dat t live is weinig toevoegen eerlijk gezegd. strakke show maar niet zo boeiend.
super strak maar ook erg saai
haha wat een zangtalent vooraan bij &amp magnetic zeros
wat zou haar favoriete muziek zijn geweest?
en wij zijn ook klaar. eerste bezoekers hebben de test ondergaan!
de bezoekers staan er klaar voor!
pijnonderzoek begeleiden
ik! mag de onderzoekers een handje helpen
haha goed punt !
indrukwekkend verhaal in
aan de kant domme kut zei bestuurder die r langs wilde nadat we op fietspad tot stilstand kwamen doordat andere auto ons afsneed
michael phelps. wat een held. beste sportman ooit wat mij betreft.
mega trots op die in aanloop naar de spelen een jumpsuit v latex ontwierp voor n verspringer
zojuist bij verteld over het nut v vrouwelijk orgasme nalv artikel op daarin ook t filmpje
de wijnauteurs hebben een flinke achterban. kan een ander boek daar nog overheen? via
bij ons thuis zijn ze ook super groot. perfecte weer geweest denk ik!
nu een klein leven uit is, ben ik bang dat er de komende tijd weinig aan kan tippen
zo word ik al weleens aangesproken 😩
haha of dat nou zon compliment is maar dank!
inderdaad, wat een erg verhaal
haha ik ben benieuwd! dank!
dankje! t is tot nu toe best te doen
haha dankje! en als t zo blijft als op 29, kan ik er wel mee leven
het is toch al uitverkocht?
prachtige afl. v in nepal blij dat we ons huwelijkscadeau aan onderwijs in nepal hebben gegeven
hahaha al bijna!
dank! 🍻
ziet er fijn uit!
de laatste uren als twintiger zijn aangebroken.
fijn hoor, 5 dagen in noord spanje. met t guggenheim als 1 vd hoogtepunten. naast eten in sterrenstad san sebastián
wat is het weer een fijne uhh
hahahaha
wat een heerlijk bericht
dat hoop ik niet nee
ja denk ik ook. lekker makkelijk, dichtbij studio.
en gelukkig hebben de wetenschappers van de laatste 2 die je noemt deelaanstelling bij uva en uu
dat was ook mijn gevoel erbij
denk dat ook goede wetenschappers hebben. nu randstedelijk feestje
goede wetenschappers die vast mooi verhaal hebben, in die zin mooi. maar niet echt verrassend en niet echt verspreid uit land.
mooi lijstje wetenschappers voor wel behoorlijk op westelijk deel van het land georiënteerd
wat een te gekke foto!
hitkanon pharrell moet het van de danseressen hebben om er een show v te maken.
ook een goede keuze! veel plezier alvast!
voor t eerst op ben benieuwd!
vrouwen staan in reclame vooral achter het aanrecht, ontdekte
over een man die zogenaamd al drie keer stierf
bij zoeken we een nieuwe stagiair wie versterkt ons team
wakker worden met summer jam in je hoofd.
de nieuwste gaat over photoshop en op cover ontbreekt arm. toeval?
feestje hoor, hierbij op
jep per festival per overtreding. schijnen behoorlijk wat controles te zijn.
de eerste boetes zijn al binnen begreep ik, 20.000 euro
jep ik kwam een verdwaalde buschauffeur tegen die me weg heeft gebracht
in mijn eentje in de bus naar dankzij een verdwaalde buschauffeur die toevallig langsreed
ik ben op de fiets, dan word je niet geleid
huh en er gaan helemaal geen pendelbussen vanaf cinemec en cs. alleen vanaf dukenburg.
dat zou mooi zijn hoorde net verhalen van wachttijden van 5 uur. zal morgen vast minder zijn.
en gaat er dan 1 per uur? of vaker?
hi vraagje gaan de pendelbussen morgen continu? ook vanaf parkeerterrein bij cinemec?
vijf jaar geleden schreef ik me in bij de kvk. op naar vijf mooie nieuwe jaren !
ik snap t niet meer met de pendelbussen. tot hoe laat kun je terug naar nijmegen?
ik wil niet naar huis. t is hier zo mooi.
ja die bestaat
leuk die in de achtertuin
lees dit verhaal
nico zegt wijze dingen!
wij jullie ook niet! wij zijn vroeg weggegaan want iedereen leek boven te blijven
held
jij hebt t beter bekeken!
vakconferentie wetenschapscommunicatie 2016. kat is van wetenschapsmuseum utrecht. goed begin omdat het reuze interessant is.
het begint goed
mooie vragen gehoord vandaag bij in binnenkort repo op
wat een heerlijk dagje rotterdam. genoten vd stadsnatuur met en afgesloten bij
op zoek naar stadsnatuur in rotterdam met en voor
dit wordt een mooie avond!
vergeet de runnerup niet
hahaha het lijkt alsof we vooral druk met onszelf zijn
tot zo!
net weer een bijzondere vakvrouw voor geïnterviewd. volgende maand in de ondernemersspecial.
ik heb geen vergelijkend warenonderzoek gedaan
zou kunnen. maar de weedburger is op festivals al aardig succes. dat is een stap.
oosterscheldekweek is er nog niet zo lang
productie is nu alleen nog mogelijk in oosterschelde en we zijn hier die smaak niet gewend
t was wat ziltig hier en daar maar zeker niet verkeerd!
gelukkig is er ook nog tijd voor het
met een dagje in gent voor voor onze repo over zeewier als voedsel
have fun!
als we zelfs watermeloen al gaan noemen...
dat is nog eens je er makkelijk vanaf maken. voor ruim 100 euro verkeerd bezorgen en dan afronden.
vraag is of dat zo duidelijk is voor iedereen
deed het, in repo voor
valentijn. we kijken naar onopgeloste moorden in the bridge 3.
item gaat over potvissen en andere walvissen zoals de steur
volgens de is de steur een walvis. toch eens vragen hoe dat zit met de kaviaar
die zag ik ooit tijdens t duiken. prachtig!
dank!
de meningen zijn verdeeld. is het een grote steekmug, een tijgermug of iets anders?
dank voor link. kan de foto lastig beoordelen, lijkt toch anders.
bij tijgermug eindigen poten met wit stukje, dat is hier niet
wat voor een grote mug ging er door mijn kamer?
je snapt mijn tweet niet denk ik. ik hoop dat de reacties nep zijn.
wtf. ik hoop dat dit in scène is gezet.
ja dat wil ik ook wel weten
wat een bizar verhaal met fotos over een olifant die een buffel aanvalt via
dit. kijken.
dank! jij ook, mocht de pijn toch opduiken
je mag t delen met een team hè
knap! ik heb er net weer een body pump lesje op zitten en gok op flinke spierpijn morgen
de 10,8 kilo aan cadeaus staan klaar
lijkt me ook wel wat voor
ziet er fijn uit. waar gaat de reis naartoe?
moeten jullie me wel even volgen
ik heb het afgelopen jaar ook al geen pas meer gehad, maar jullie hebben wel geld afgeschreven. heb nu ook geen pas.
daarna niet meer reageren, en op website zeggen dat er binnen 2 werkdagen contact is. eerste reactie kwam na ruime week. 2/2
aparte klantenservice bij na opzegging vorig jaar, nu gewoon geld afschrijven omdat opzegging niet terug te vinden is. 1/2
op de laatste werkdag vh jaar nog even een proefschrift over immuunmodulatie en een publicatie over malaria doornemen.
en mijn favoriet was het redactioneel van
dat is nog eens dineren, bij
dank voor de telefonische klachtafhandeling. streepjescode is 8718906179660
fijn kerstcadeau v een steentje in mijn granola. flinke vanavond fotos maken bij tandartsenpost.
en zo is t.
helaas wel
lekker bezig geert.
precies! die moet de wereld in.
hey die kreeg ik ook
kris verburgh slaat geregeld de plank mis via nrc
eens even kijken of t werkt