wat een flut wedstrijd
wat een geweldige wedstrijd!!
super bedacht, maar wel constant lagg
kan ik me ook ergens aanmelden als piloot?
hopen dat mertens niet geblesseerd raakt
vreselijk dat room niet start
waarom nou room nou niet even in de basis ...
dortmund heeft echt een geweldig team, vooral nu een aantal geblesseerden weer terugkeren
teken ook voor privacy op
bvb en napoli die beide verliezen, dat is minder.
bewijs van xbone
ah oke, zit al best lang te wachten haha.
gaat de pes giveaway nog door? ^^
thnx, ik begrijp het nu iets beter.
goed plan!
kan ik als leek, iets meer info krijgen? desnoods een linkje?
.@gerardekdom jij bent zaterdag bij mij in het dorp feesttent, hoelaat begin je ongeveer?
och, das dom van mij
ubisoft kondigt anno 1800 aan via
mocht ook wel 10 minuten eerder
waarom nu niet even 10 minuten eerder ..
laten we er op houden dat dat niet de beste man is aan napolis kant
die chichires is niet heel best hea
uurtje later was handiger geweest
real speelt echt geweldig voetbal!
aanval zag er goed uit, achterin moet het nog wel veel beter
wel fijn dat die vrije ballen / corners neemt die krijgt ze tenminste wel hoog
persoonlijk vind ik ze juist mooi 🙈
wat zegt koen?
kom op gun 7 à 8 mbit woningen ook gewoon eens iets.
oo, alleen voor klanten met maximaal 6 mbit, ongelooflijk
waarom is dit niet beschikbaar op mijn adres?
loca voor de jong, en ben het volledig met je eens
dit gebeurt er dus, als alleen uitzendt
miniinthebox en lightinthebox zijn dan ook best slechte sites. kijk eens op banggood, gearbest, d…
ook weinig geluk hoor, knalt hem snoeihard op de paal
het ziet er toch ook niet uit, kom op nou
tijd voor
o, werd mij laatst vertelt dat data vrije muziek niet mee deed in het buitenland
dan houd ik het beperkt, de snelheid van 4g is wel even een grote opluchting t.o.v. van het kpn telefoonlijntje
ik weet het, wel is het af en toe zeer vervelend
en 4g van tmobile is 14x sneller dan mijn ptt telefoonlijntje
hé heb 24u lang data gescoord, is het eigenlijk toegestaan om het te gebruiken voor windows/game updates op pc?
vaalt sowieso al, zonder ziggo kun je niet eens legaal kijken.
heb al gekeken, mooie 1e aflevering
zonder de jong dus
legaal is het voor mij onmogelijk hier in nederland. vpn zou ik kunnen proberen, maar als dat niet werkt hang ik alsnog
15 juni stelde ik deze vraag al hoor p, maar dat is geen optie haha
het probleem zet zich voort haha
hoop dat luuk het wat beter gaat doen dit seizoen
hij moet ook gewoon blijven, willems er uit voor brenet, dan moet dat wel goedkomen toch?
we gaan gewoon door frank
ook een reactie systeem ingebouwd?
van bruggen goed genoeg voor psv 1? heb er zelf totaal geen zicht op hier in groningen.
donders dacht dat mijn telefoon zich ging opblazen.
hé als je nog een keeper zoekt.... guillermo ochoa van mexico kan wel aardig keepen.
bouw nou eens een normale auto redbull..
dat plaatje kan echt niet
hallo hoe kan ik volgende maand got zien terwijl ik geen ziggo kan krijgen? thnx!
oké, danku, dan moet ik helaas een andere optie zoeken, bedankt!
movies en series xl kan ik krijgen zonder aansluiting
dus er is geen enkele legale manier om got te kijken? behalve wachten op de dvdbox, of zie ik dit verkeerd.?
hoe kan ik game of thrones kijken bij jullie terwijl ik kpn heb thuis. overstappen kan niet vanwege adsl aansluiting.
hé engels, werk jij nu een beetje op festivals in heel nederland?
hé kun je niet eens een hele uitzending in het piraats doen p. als één daar goed in is..
ja dat is ook nog een optie, maar zocht eigenlijk iets wat kant en klaar is. komt het nog wel? verven ka…
hallo ik zoek het alex opbouwdeel in de grijze kleur, kunnen jullie mij helpen.
concert manchester aan het kijken
goede overwinning, laten we het daar maar bij houden.
30 voorstaan maar nog niet één goede aanval gezien
klaassen ook niet heel sterk trouwen
kom op je kunt veel beter!
leuke email van over 13 juni, muziek streamen blijft ook gewoon gratis?
feyenoord voor, max er af, psv achter, en nu?
kaartjes binnen. hoop dat hij het kan vinden. wat leuk wat leuk
hallo, ik heb eind 2015 een nexus 6p bij jullie gekocht en heb het welbekende 20% &gt uit probleem. kunnen jullie mij helpen?
3e niet echt lekker gepland
vraag me af of iemand midden in het dorp zoiets gaat gebruiken
jankebats aldus gertjan verbeek
2 aanzetten en 2 goals
kom op bayern!!, ik gun die spanjaarden dit niet
heujj, luuk op de bank
dat zag er inderdaad goed uit, vraag me alleen af of dat tegen bijvoorbeeld een ajax ook werkt
als dat die immer lacht is, dan is dat niet heel raar. feestelijk nr. wat in…
geniaal!
ben er zelfs nog, maakte een foutje in mn tweet
uiteindelijk geen extra internet nodig gehad op hoor wifi keurig op orde bij
goedbezig en mooi te volgen zo.
hallo, ik heb eigenlijk alleen komend weekend even een onbeperkt data bundeltje nodig. betaling is geen probleem.
reply to mijn vader is over 2 week jarig, maar denk niet dat dat gaat lukken haha
hallo kunnen jullie misschien mij vertellen wanneer de motorola moto g5 bij jullie te krijgen is?, goed weekend!
had alleen best 2 breed gemogen over de gehele lengte
ik dacht het al voordat de scheidsrechter floot.
what the fuck commentaar van commentaar. dat was echt slecht.
veratti is echt een beest inderdaad
natuurlijk bij
dooie boel dan in de euroborg
hé deze klok is loopt niet meer goed en we kunnen hem niet repareren. hebben jullie nog zo…
hé wil ik iets bestellen, herinner ik mij een kortingscode te hebben, is die geldig tot 2412017...
1e kerstdag hea, stond toch echt veel te hard. best zonde eigenlijk.
jij hebt ergens op geklikt, wat je niet doen moest |
deze variant van sowieso is wel zeer creatief.
graag nieuws over een links en een rechtsbuiten p
gelukkig nieuwjaar trouwens, sorry wil even wat anders proberen, misschien kom wel een keer terug. bedankt voor de informatie
&amp mijn contract bij v loopt af op 501, mijn nieuwe nummer wordt op 1101 overgezet naar tm, kan dit sneller?
ik vind het doelpunt van pröpper de mooiste van psv in 2016. en jij?
bewust grapje van google p
de voornaam heeft hij in ieder geval mee.
jo wat is dit
bedankt hè!! werkt perfect aangesloten op echte speakers p
de bank, met saldo te laag? p
i.i.g. niet vegetarisch
eindelijk wordt dash in nederland gewaardeerd
dit
jullie webshop werkt niet naar behoren. het kopje treamwear &gt training werkt niet
bier is een stuk beter te doen in deze glazen glazen 😎
enig idee welke positie?
hea wat
nu nog glasvezel en dan kunnen we ook eens itv kijken
kan die vanmiddag niet met het 3e mee?
ik denk dat wint van atlético madrid. wat denk jij?
daar heen ??
deze link werkt dan weer niet
moet je wel internet hebben,
top initiatief, nu hoop ik dat het glasvezel wordt zodat het ook direct toekomstbestendig is.
denk alsjeblieft ook aan de buitengebieden, die hebben het misschien wel het meest nodig
ongelooflijk
wel heeft de samsung hun eigen software nog over android heen zitten waardoor het traag wordt
geplaatst door een apple fan site...
rostov tegen psv
groep e is ook te doen denk ik
groep b en g zou gunstig zijn voor psv
zo zou je het wel kunnen noemen ja
link werkt niet
dit werkt ook nog niet
dat heeft nog nooit echt goed gewerkt
hé ik kijk nu al 3 jaar op om te kijken of er iets gedaan wordt aan mijn 9 mbit lijntje. nog niets
waarom kost het trekken van een verstandskies €300, ?
puik bandje! super show. geluid in de arena was niet alles, maar het was mooi
zat gister bij coldplay, dus we gaan vanavond maar even in assen kijken
feestje?
ik/wij gaan vrijdag van groningen naar amsterdam en weer terug voor coldplay. ik hoor het wel.
hoe dan!!
slimme overtredingen van italië, maar wel irritant
helaas staat er toch geen upgrade gepland, net als de afgelopen 10 jaar.
je verwacht het ook niet p
sowieso opslag voor de mooie balen,
heerlijk dit,
geen last van stroomuitval hier
kom op
. held!
ik heb daar ook al jaren last van... vaste lijn 8mbit, en haal ik met 4g 50mbit
nog meer mixjes! muziek dan
psv!!!, bijna kampioen
ik zou hem graag willen winnen voor mijn moeder, zij heeft op dit moment echt een slechte telefoon.
scheer ze niet allemaal over een kam barend!
no shit minder mensen doen hoger onderwijs …
ik ben onpartijdig, maar dit is wel mooi
net even gestemd
gewoon voetbal op sbs 👌
waarom is het geen compleet nieuwe ontworpen shirt, salfort city speelt in dezelfde.
wel een puike plaat
wordt wel knijters gek van die clip
r.i.p. johan cruijff
misschien is iets voor ?
totale off day bij alle psvers
ook met het kampioenschap
of ziggo sport
zoet is tot dusver motm
wat is er eigenlijk gebeurt na 1990
hallo gls, waar kan ik zien hoelaat mijn pakket ongeveer komt?
door de mand kees vlietstra bespreekt fc groningenpsv na mooi stukje
wordt gezellig maandag op het werk
wat doet die in de b1?
jij blijft ook maar doorgaan hea! succes!
eigenlijk kan dat ook niet p
00 is genoeg
vreemd, eigenlijk zou je een ander toestel even moeten testen
droge worst... echt iets wat jullie in het zuiden niet hebben toch?
altijd lekker die ritjes, bus vol en de kachel vol aan.
ik heb wachtgeld nodig vanwege onvergeeflijk falen bij mezelf, en dat komt door alexander pechtold. wachtgeld.nl
klassieke psv counter uit het boekje 10
regels zijn altijd overal weer anders succes!
best goed idee, maar is ongeveer hetzelfde toch
foto van de regels die gehanteerd worden?
hoho coop jan schut is niet 50 jaar, alleen jan schut is 50 jaar.
lijkt me helemaal goed
keep going, zou graag 1 van de testers willen zijn^^
als jullie de markt open breken en ervoor zorgen dat er onbeperkt 4g abonnementen zijn voor mensen op het platte land,8mbit
veel te hoge ping
niet helemaal mee eens maar oke. wel heel erg jammer./
doet een nas wel of niet mee aan de btw actie ?
stream het op youtube!!!!
je had beter vanaf je eerste wekker km kunnen toevoegen aan je vraag
top!, bedankt voor de snelle reactie
komt de ook weer met een app voor belasting aangifte?
eerst even langs de kaakchirurg
wel tijd, maar ik wacht nog even af
goeie goal!
nou, ik zeg het niet vaak, maar kom maar op
ps3, fifa 15 en 2 controllers, tv heb ik wel maar gaat de deur niet uit
heb niks met iphone, maar die presentatie skills zijn top
hé is het een idee om ook een bus vanaf zernike &gt winschoten te hebben. andersom 1x per dag is er wel al.
heb je ook een bord?
jou school is niet dicht?, hanze wel
zie het ook nu pas, mm geen last gehad
buiten het dorp geen last, maar volgens mij vallen wij net onder regio stadskanaal
geniaal!, had hier eigenlijk bij moeten zijn
over exact 52 minuten begint mijn laatste werkavond bij de coop
wanneer weer wedstrijdfit jetro?
of je betaald heel veel aan premie &gt €175, p.m.
ja, voor vergoeding boven de €500, is een acceptatietest verplicht, zo niet,heb je 1 jaar wachttijd. zij er andere opties?
dat is echt onmogelijk, je kunt nergens fatsoenlijk orthodontie regelen voor iemand boven de 18
dat is ook altijd prima te luisteren
leuk lijstje die
lekker hoor vangelis chariots of fire
is aan
sorry ik geef het op, laat die film maar zitten
geniaal programma
ik tel 3 volledige producten.
f.lux 3.9 via voor iedereen die savonds op de pc werk.
google voegt nachtmodus toe aan play booksapp via
psv gaat volgens twitter gewoon mee door waar het gebleven was. punten verspillen tegen kleinere ploegen.
is dit nou goed of juist slecht
psv steelt even 23 punten uit arnhem
ik wacht af ^^
heb net verlengt grapjas
kpn en tele2 geven abonnees gratis mobiele data in december via ideetje ??
hallo zouden jullie iets kunnen doen aan de onverharde esweg buiten onstwedde, het is nu wel erg.
beelden bewaard gebleven?
o shit, verdediger voor middenvelder,
mensen die kaarten kopen en vervolgens een half uur later ze al doorverkopen voor het dubbele op marktplaats
de dvd?
voor de grap
haha, ga zelf eens met de grap met lijn 15,
geen optie
o, en er staan al weer voor 2 bussen aan mensen.
10.07 op station aankomen, 3x een volle lijn 15 en ons vervolgens nog 10 minuten moeten wachten.
helemaal geen last van de kpn storing
heejjj, is op dezelfde dag jarig als ik!
heeft ook een nederlandse webcare?
hé hoe kom ik aan een kpn draadloze verbindingsset?
die blijft geniaal
hé jullie hebben een nieuwe telefoon 950xl, is die niet ergens voor 2 à 3 week te testen?
wat een knijterse fijne platen op een zondag avond bij
. 1 vergeet te voetballen
man van glas is toch wel een held 40
kun je dat tegenwoordig stelen dan? haha
doe ik nu ook, maar hbo is toch wel moeilijk
bedankt voor de reminder, chromecast 2 besteld
zijn er uberhaubt vacatures te vinden als je net van het mbo ictbeheer 4 af komt?
en die kachel hoeft echt niet aan met zoveel mensen
please, lijn 15 zernike bom en bom vol 8.47u
en toch is het zo hahaha
1e keer afsluit kosten erbij?
waarom heet dit nog compused? toch
wil je huiswerk maken ja op vrijdag is google drive down.
ik zou gewoon eens 1 dag bij die halte gaan staan op maandag of dinsdag. dan is direct alles duidelijk bedankt in ieder geval.
ik zat sowieso om 12.20u in de bus, het was veel te vol, misschien moeten jullie eens kijken naar lijn 15.
veevervoer centraal &gt zernike
leuk potje
veel sport vandaag om te kijken worlds 2015 ajax psv volleybalfinale
fuck, kan er ook nog wel bij
kom op, nog 1 er bij
misschien een idee om direct een glasvezelverbinding te leggen? jullie zijn dan toch al aan het graven?
dat werd tijd
heuj google, vraagje? kun je ook exchange agendas in je google agenda zetten browser? zo ja hoe?
daarna de test verleggen naar de buitengebieden van onstwedde a
zal wel idd
via is best spannend
verschrikkelijk
ach ja, drama wedstrijd, moet toch wat te doen hebben.
nog steeds problemen?
psvwatcher, zijn alle bronnen die had ook bekend bij jullie? en zijn die nu allemaal op slot niet te gebruiken
ajax vergeet te verdedigen
dit is niet goed
hey ik zie dat alle nieuwe klanten gratis gbs extra krijgen. heb je ook iets voor vaste klanten?
bolletjestrui man is wel een held!
windows 10 ook maar ff installeren
nieuw psv shirt, kom er maar in
een klant had het probleem,, wou alleen even melden dat het apple ook gebeurt
apple systemen zijn ook kwetsbaar, net zelf een gehad
ja
ik zie het het probleem niet
enig idee wat ik moet doen met mn ov als ik van het mbo diploma gehaald naar het hbo ga?
niet de enige begrijp ik?
als ik een alleen internet abonnement heb, kan ik daar een eigen router achter hangen? of moet de experiabox er tussen blijven?
hé waarom verschillen de zakjes tijgernootjes bbq paprika zo erg. sommige zijn heerlijk maar deze is niet lekker.
kun je morgen werken ja
ik heb gestemd op mijn favoriete sportclub stem ook mee in de
misschien kan hem wel fixen
afslachting van porto
ik verwacht u bij goud van oud in
hoppatee psv kampioen, wel jammer dat ik het niet kon zien
maak even wat fotos hoe het verstopt zit en dergelijke, vind ik wel interessant om te zien.
beetje kansloos, als diezelfde politie geen parkeerplek kan vinden terwijl er iemand op een aed wacht en een leven zou kunnen redden..
psv bijna kampioen!
gerard ekdom switcht naar npo radio 2
hoe kan dat dan