ik denk dat de postbode dronken was..
vanavond stuck in your head? ❤️❤️
jullie hebben geen succes ? als 3 jaar niet😂 ik hoef geen succes te hebben om trots te zijn, meteen het vers…
ze hadden jou beter bels jerkers op zn engels kunnen noemen
hij gaat naar het jhk stadion 😂
en als psv over ajax zou tweeten?😜
die ben ik wel van jou gewend...
nsb zegt je dat wat?
zie locatie 🙈🙈🙈
dat hoop ik ook voor jou want je roept het op jezelf af☺️
zometeen richting almelo met 🔴⚪️
deze lookalike al ooit gezien? 😂
20 km van het stadion nog politie begeleiding hebben. en dat met een autocombi.
ze zijn er wel, ze doen het niet, ze zijn er wel maar ze doen het niet 🎼🎼 😜 het gaat vriezen vnv dus hoop het🙏🏼
is het uitvak vanavond voorzien van warmtelampen? 🙏🏼😭
veel gloryhunters, dat ontken ik niet..
rick, ik ben er net als in maart ook weer bij😜 wel blut nu. en psv heeft1/2
900 agenten voor 800 supporters 😂😂😂
krebs is kanker is het duits. meneer krabs van spongebob, heet naar het nederlands vertaald dus eigenlijk meneer kenker 😂
politie houdt ruim 70 tegenstanders zwarte piet aan in rotterdam /via ||te zielig voor woorden, weg ermee
mensen linkser dan u bestaan er niet..
lekker giel 😂
volle bak in de kuip 😂#spectators
de sfeer in de kuip
kevin blom fluit , de winnaar is al bekend..
moet jij niet naar je dagbesteding 😂
omdat je ze steeds vermeld pipo.
waarom vermeld jij steeds iedereen erbij? om te laten zien hoe grappig je bent? of omdat je het alleen niet aan kan? sukkeltje
hahaha zo vol als nu zit de arena nooit. alleen champions league. dus hou je snavel maar gewoon
ben blij dat ik die sfeerloze betonbak nog een beetje versierd heb
ben niet geïnteresseerd sorry..
nee, gaat hem niet worden.
ik heb het niet over 020 of psv. ik zeg alleen dat zoet hem gehad zou hebben. gini, propper idd zwak.
miscommunicatie met aanvaller ja, dat kan gebeuren. dat was gewoon een blunder. kan ook gebeuren, maar zoet had m
ja is toch zo
nee, zet stekelenburg maar in. zoet zou hem hebben
ik ga je missen maatje. 😞 succes in brazilië, zie je snel weer ❤️
trots ben ik in voor en tegenspoed ❤️
ik snap niet dat je dat kunt. iedereen is boos en teleurgesteld en dan kom jij met zon tweet. gelukkig is het alweer 23
ja maar als fanatieke psv supporter ga je dit toch niet tweeten man komop
oja ik ook. snap niet dat je dit kunt zeggen dan. 🙄
ben jij voor psv ofnie? man man man
en wij nog geen 300😂 man man man..
nog geen 300 kaarten weg voor sc heerenveen psv..
morgen voor het eerst een echte internationale rit met oslo noorwegen als eindbestemming. gelukkig gaat mn maatje mee❤️
sommige mensen... jouw grap 🙈
netjes amy, je leert het wel..
gradab is een combinatie van de dab en gradje
ga toch is voetballen man. schaam me voor mijn land.
respect voor zn chapsel
gefeliciteerd ! x
om je voor te schamen
wat maakt het publiek er toch weer een zieke sfeer van!
toppunt van luiheid bereikt voetbal kijken in de weerspiegeling van de laptop, omdat je wil liggen, niet zitten.
ik wil dat ook en snapchatfilter krijgt!
word😘😘😘😘
ben ik mee bezig op dit moment. mijn vrienden van de bunnikside fixen
ai brenda dan zul je mee moeten naar utreg, ik zit wss thuisvak
eerste keer dat ik de jcschaal mocht bijwonen was bijzonder, vooral omdat dit eerste keer was dat hij niet door johan uitgereikt werd..
mensen maken fouten, iedereen doet wel is iets doms
airco besteld. ben toch niet op vakantie geweest, dus dat mag vind ik. 😏 ❤️
ik lig momenteel nog liever in een mortuarium dan in mn bed..
geert wilders woest op eftelingklagers video via hahahah hou op hoor😂
graag of niet.
je zou zeggen dat je ervan zou leren, maar nee dus..
waarom houden jullie er geen rekening mee dat die herritage collectie zo gewild is. al de 3e keer dat alles binnen 2 min is uitverkocht
ik dacht heel even dat in een azshirt stond te darten
heeft er niks mee te maken. motor wordt niet warm.. 😘
recht voor mn deur
hoe actief ik vandaag ben?
extreem weer wel alles door elkaar
ben je het niet met me eens dan?
over een uur maar is gaan zitten voor de bekerfinale, hopelijk pakt utreg de beker. feyenoord zo lang mogelijk geen prijzen laten pakken👊🏻
.@knvb ik denk dat de wint. wat denk jij?
.@knvb ik denk dat de wint. wat denk jij?
facking lelijk. nog mooi een paar philips shirts halen voor het te laat is
was een inkoppertje brenda ☺️😂
hoe bedoel je😂😂😂
hier ook hahah. ik vertrouw erop dat psv wint, maak me meer zorgen om de goals. er moet veel gescoord worden. 😁
fijn om te werken met het vooruitzicht op vanavond. zoveel zin in! met
volgend jaar een sfeervak maken voor alle mensen die wel sfeer willen maken? oost is niet veel in normale wedstrijden.
idd, bliksemschichten van 90.000.000.000 volt op 020
komt de titel van ajax in gevaar, dan staat de knvb klaar
mooie awayday in kerkrade, correctie duitsland. 3 punten in de tas
locadia, om te huilen weer.. lestienne of jozefzoon aub
als je een clip wil kijken van een minuut en er komen 3 reclamespots voor van 1 minuut
wat heb je gisteren avond gedaan dan? p
belachelijk dat ze je dan niet gewoon naar binnen laten, kan toch gebeuren?
😂😂😂
deze week 65 uurtjes maken
gun hem een keer aan de supporters die er zowel thuis als uit altijd bij zijn😍 ik dus🙈
geen idee om eerlijk te zijn. hou dat niet bij haha
maakt niet uit, zovaak mogelijk☺️
gelukkig☺️
hoe heet dat spel trouwens ?☺️
meer mensen problemen met matchmaking?
sc olhanense , graag gedaan😊
eens!
hij was aan vervanging toe, maar goedkoop was het niet..
in 2 dagen 28 uur gemaakt en alleen zitten in de pauze 😢
wat is dat voor zin?😆
weekend ❤️
heb geen hekel aan homos maar dit is wel een vieze nicht zeg
is het mogelijk om mijn bel/sms te verlagen?
hahah ik zal het tegen haar zeggen 😂
heb geen eigen huis.. dan wordt het gewoon afzien😐😐 2/2
bedankt voor de uitleg, mijn vriendin krijgt wel internet en tv van jullie over wen paar weken! ik heb alleen niets aan tv 1/2
wat houdt dat in, compleet ? dat ik tv en alles erbij krijgp?
moet jou een beetje voorblijven he😚 kost idd veel mbs die hd filmpjes 😌
daarnaast heb ik 4g uitstaan😱
waar ik door de week verblijf is geen wifi, ook niet op het werk.😟 maar voor dat geld verwacht ik onbeperkt internet, toch?#kpn
10 gb internetbundel op😕 waarom niet gewoon onbeperkt voor die 75€ per maand 😔
net zo zwaar als onze ...😂😂😂
is wel een realistische uitslag 😂😂
sinds wanneer bende gij noors? 😂😂
van 0630 tot 2030 gewerkt. mooi geweest voor vandaag
het was leuk je te ontmoeten in madrid, met dank aan
hahahaha😂😂 of stand your ground stickers, het damestoilet dus
dankjewel. speciaal voor jullie terug gekomen op twitter. is hans hateboer ondertussen als bevrijdt van het damestoilet ?
idols kijken, met andere woorden mensen uitlachen 😂😂
wetennjullie hoeveel kaarten er zijn verkocht voor het uitvak.
zielig mannetje. hoop dat je eruit wordt geketst door je baas. wat een waardeloze journalist ben jij.
ik met
mn hand schoot uit.. kan gebeuren “@frankbrouwerss ode aan wiens tv er zo uit ziet na fifa 15 😂😂😂😂😂 ”
zuuk t niet meer
en het internetbereik is ook het sloomste van het sloomste
bij als ik weg ben bij kan niet eens een telefoongesprek voeren zonder dat ik 400x opnieuw moet bellen. ik raad iedereen tele2 af
jan van halst, mario been...
hoelaat gaan we enzo
12 uur is oke
ja vind ik ook mooie tijd
ik ga niet, niemand gaat mee
dhr gaat ook mee
wss wel. alleen nog geen kandidaten gevonden 😁
nederheide is beter pik
haha moet jij ook vliegen dan?
de laatste keer dat wij zo verdedigden tegen de duitsers waren we vijf jaar ons land kwijt.
heerlijk die muziek van wish. aan het meegenieten vanuit mn bed.
dumpert kees gaat los
de gelijkmaker tegen liverpool, fackibg vet
de video van gswags27
je bent zelf een
jorrit kijk dit allemaal, is echt vet
dadelijk bij op feest samen met
hoelang duurt dat nog?
hahaha pelle gekke vent
heb t niet over psv, ajax heeft een grote bek gehad over psv. en daar staan jullie dan!
wij zijn ajax, wij zijn.....?
hahahahahaha heerlijk dit
wtf, verder alles goed met die club die hem gekocht heeft?
je was er niet bij mongool
flesje bavaria van 10 jaar geleden
kk op homos.
bus richting rotterdam met
heeft cocu een toespraak gehouden ja? tegen de bomen rond de herdgang zeker.
uitkaartje voor nacpsv geprint! breda here we come!
0636164016
jaa komt ee tocg niet van hahap
vingertjes eraf bij die mensen. het liefst kom ik het hoogstpersoonlijk zelf doen.
ingebroken in auto, bel je de nemen ze niet op omdat ze met zn alle bij jong psv staan te kijken. waar zijn ze als je ze nodig hebt
vsnsvond naar jong psv fc volendam met
4 2 winst met de helden van !
van school gekicked?
weekend!
hoe kun je dit doen, ongelooflijk
er is niks lekkerder dan denken dat je om 645 moet beginnen, voor de zekerheid kijken in je agenda, en zien dat het 1430 is!
nog proficiat guusje
ik wil ronaldo en bale samen zien spelen!
ge moet ook unne moffebak pakken. veel beter..
haha kuyt erin? flikker op van gaal
heeerlijke goal van estland!
moet je aanzetten kut
batterij percentage zit er vort bii weet niet of jij dat al had toetsen zijn anders, en mooier design
krijg je automatisch als het goed is..
facking vette update van android!
wie snapt er iets van geluidsinstallaties in auto?
alweer 5 jaar geleden dat opa gestorven is..
i miss you most at night .. ♡ wie mij?mij natuurlijk ray, wat een domme vraag..
ik heb het netwerk id veranderd van ??? naar 5555 en heb nu geen zenders meer. kunnen jullie mij helpen?
helemaal gek
psv speelt zo goed.
nou snap ik waarom je dat zei ray. ga maar verder haha
je bent zelf n kut
gast doe normaal tegen je meisje. zoiets krijg jij niet meer hahaha
ik zal het nog een keer geloven, dan moet je niet meer liegen..
de sub in de auto doet het, weet ervan haha.nu de speakers nog!
lachwekkend, al ben ik psver
subwoofer, speakers en n versterker besteld voor in de auto
alsof het niks kost
en een torenhoge rekening? terwijl ik het gewoon goed gedaan heb?
een smsje krijgen met datakosten voor in het buitenland? wat moet ik nu verwachten? een abbo da stopgezet is
ik heb pas eu100 gesmst dus een contractje afgesloten voor n week, zelf een apn aangepast via internet en vervolgens weer
binnen 6 dagen moet betalen en anders mijn abonnement word afgesloten? ik heb 3 dagen geleden betaald.. en nog een vraag
hoe kan ik jullie telefonisch bereiken vanuit frankrijk? of weet jij misschien hoe het kan dat ik een smsje krijg dat ik
maargoed dat scheidsrechter zo mild is, anders stond ado nog maar met 3 man op t veld
psv speelt zo goed!
ik vlieg bijna in de fik man
in de auto bij djim, vak v bij psv zulte waregem. in de harde kern! met &amp
en weer laat je mij vallen.
haha nou en 20 25 of 60 jij kunt als je een jaar fhetzelfde spel doet maakr t niet uit hoe oud je bent
haha 3x winst zegt ie kom speleb dan bij de laatste pot
oh, heb net gebeld en heb een afspraak kunnen maken haha.
ja dat was het zeker! 1 dag die auto gvd
op zondag ook?
voor mij waren jullie op dat moment wel degelijk helden! waar kun je een afspraak maken om aangifte te doen?
dank jullie wel, helden. ik was de bestuurder van de seat cordoba.
nog nooit zoiets engs meegemaakt. achtervolgd door n auto, geblokkeerd tot 7x toe. gelukkig heeft de politie ons gered.
de eerste potjes waren town jij fifa al 2 weken fulltime deed haha
fifa met en fifahooligan
dadelijk nederheide met en de rest
ik dacht ook schoten te horen
geen haha wij moeten naar overloon. en mijn fiets is naar de klote dus vroeg jk of ik die van oma mocht lenen
naar jouwn en mijn oma.
helemaal naar kk elsendorp lopen pff
eigen jeugd ofnie?
morgen weer lekker naar nederheide met en ?
leuke avond gehad met en !
ik hoop het, zelfs ik had zin om haar wat aan te doen whaha
ja da zie ik aan jou telefoon
heeft hij die val overleefd dan? haha
die kan er niet af dooie lul hahahah
kk sukkel! had je mij hoesje over moeten nemen
hahaha al die zielige jankballen bij
ja dat zou ik ook t eerst denken, hoop aysen. maar t was n vent.. heb jullie die app gedownload?
in het zonnige zuiden, waar de mensen altijd zingen
120 rijden met bijna 4000 touren hahaha
hahaha
idd, jij ook ray
ik chill m wel mee als gullie da goed vind
yes,adam niet naar adam maar naar ehv
dat mensen niet snappen dat ze hun hond bij moeten houden..
gefeliciteerd man!
verrekte lamme zak s
herkenbaar..
de deur staat altijd voor je open
kan ik niet echt uitleggen op twitter..
heb ik straks gezegd maat
kk hard genaaid
dit heb ik nog nooit meegemaakt
ik wil een van de honderd volgers zen en nino terugzien in xfactor haha
taken me out? hahah
lijkt me vet als je al die skills in je hebt als die vent van
hoeft niet perse met jou
ik doe niet aan vaderdag, mijn kinderen later wel
schijt italiaanen
net bij de in volkel geweest, zo vet!
wtf ik dacht is mijn tweet nou al verzonden ofnie? krijg ik al antwoord
altijd hetzelfde....
haha het hoe kun je die nou missen danny hoesen
ook vroeg
de trein van 603.....
smeerlappen die wouten achter de bosjes.
ohhhhhh schijttractors
hahahha op fifa ultimate team
zo voetballen met en
wow kut het is al bijna 2 uur!
de reclame tussen de film door duurt nog langer dan de film zelf
die reclame tussen films door gaat echt nergens meer over
verdedigen
wat is daley blind gegroeid dit jaar, niet normaal
zometeen deel 2 van sollicitatiegesprek
michel gij bent hier deginne die dn allingen dag met zunne zonnenbril oploopt. zelfs met dn winter hahahga
geef dr boys ook evn wat drinkn
kom morgen maar n keer langs. pomp ik de banden op haha
wij hebben t zo slecht nog niet op bronlaak, haha
super leuke meeloopdag gehad
lekker weertje he, barry, rickert...
dit gaat te ver
nou ga ik jr terugpakken vriend
die ken niks.. die kan beter thuis blijven als werken
hoop dat ik bij plus kan werkenik hoop dat niet voor jou
haha ofnieeee
hahah!
nina heeft piemels in dr oor hangen hahahaha
oke pussy, veel plezier hahah
wtf man
heg knippen met
godverdomme ik wil naar dromenland, de trein er naar toe vertrekt alleen niet..
ziekk
nee ik lig bij je moeder in bed, nu weet ik waarvan jij die stank hebt
je stinkt, rotte kut jood. hersens heb je ook niet. dooie
fight! vs
flikker toch 20.000 km op
ga jij straks ook naar luud? vader van jolijn
tnx kerel
dankjewel! x
tnx achterneefke
dankjewel x
dankuu
ik ben jarig mag ik een tweet$
ik ben jarig, mag ik een tweet$
dankje!
jaaaaaaaaarig
kutzooooi, over 1 uur en 38 minuten geen tiener meer
mark van bommel &lt3
vak f
slecht geregeld met die kaartjes. wij zijn met n gezin van 5 en zitten allemaal apart
trein 2! wapl straks waar je zit! ga jij trouwens ook met ?
wapp straks waar je zit maat