belgische psychologen werken one hour for life
de bfp roept al haar leden op om mee te werken aan de actie one hour for life ten voordele van sos kinderdorpen!
infovergadering over de hervorming van het geestelijke gezondheidszorg beleid voor volwassenen
vrijdag 24 november 2017 – colloquium “de communicatie beroepsbeoefenaarpatiënt welke goede praktijken?” |...
vrijdag 24 november 2017 – colloquium “de communicatie beroepsbeoefenaarpatiënt welke goede praktijken?”
nva onderwijsexpert koen daniëls suggereerde om een intelligentiemeting standaard te doen bij alle leerlingen in...
herinnering!!! infodag voor startende zelfstandige psychologen 10/11/2017leuvenwil u erbij zijn,schrif dan nu in.
herinnering !!! infodag voor startende zelfstandige psychologen 10 november 2017. leuven wil u erbij zijn,...
persmededeling maggie de block plan evidencebased practice brengt meest aangewezen zorg tot bij de patiënt
persmededeling maggie de block, minister van sociale zaken en volksgezondheid
europees akkoord onder diverse beroepsgroepen binnen de ggz om te evolueren naar meer multidisciplinaire zorg!
nuttige info van de psychologencommissie!
personeelsbeleid bij vrije beroepers bevraging
personeelsbeleid bij vrije beroepers bevraging | belgische federatie van psychologen
uitnodiging symposium de ontwikkeling en behandeling van psychopathologie bij adolescenten. 30 nov 2017
heeft u plannen om als zelfstandig psycholoog aan de slag te gaan ?infodag voor startende zelfstandige psychologen
heeft u plannen om als zelfstandig psycholoog aan de slag te gaan ? mis dan zeker deze infodag niet.
symposium op 24 november met name voor school psychologen van evolutie en ontwikkeling naar schrijven.
met name voor school psychologen
vacature fod financiën inschrijven via t.e.m. 11/09/2017
bfp en uppcf, samen sterker ! een nieuwe start…. | belgische federatie van psychologen
bfp en uppcf, samen sterker ! een nieuwe start….
vacature afdelingshoofd categoriale zorg forensische, verslavingszorg en preventie
vacature enthousiaste collega met een master in de psychologie/pedagogie/seksuologie
gedelegeerd bestuurder koen lowet presenteert een voorstel om klinisch psychologische zorg in de toekomst te...
persbericht
persbericht startschot ‘federale raad voor de geestelijke gezondheidszorgberoepen’
vacature gz psycholoog/psychotherapeut of klinisch psycholoog minimaal 24 uur
herbeleef het debat &amp#039psychologen aan het woord’ !
herbeleef het debat psychologen aan het woord’ ! | belgische federatie van psychologen
uitnodiging studiedag upc ku leuven 27 oktober 2017 psychisch welzijn in het peripartum . in verbinding |...
vacature klinisch psycholoog in de verslavingszorg
nieuwe toepassing myenterprise.be | belgische federatie van psychologen
vacature voor een klinische psycholoog ze zoeken jou!
vandaag psychologen aan het woord! volg het debat via
nieuwe boeken in ons acco ledenvoordeel!
bfp pleit ervoor om advies hoge gezondheisraad te hanteren als toetsingsinstrument om de toekomstige masters in...
de onafhankelijke ziekenfondsen organiseren een interessant debat! allen daarheen!
onze sector a&ampo doet een oproep om mee te werken aan een onderzoek over de gevolgen van partnergeweld voor...
belangrijk advies voor de collegas schoolpsychologen bekrachtigd door het bestuur bfp!
en kijk, de geesten rijpen, stap voor stap hebben we er naar toe gewerkt en we zullen die weg verder blijven...
de invloed van sociale media op je mentale gezondheid? professor koen ponnet gezondheidspsychologie...
interessante aanbesteding van het kce voor een nieuwe studie rond de organisatie van de geestelijke...
interessant onderzoek over het geheugen via de collegas van de bps!
de ziekenhuishervorming wordt steeds concreter. revolutie in de maak?
acco organiseert op donderdag 8 juni speciaal voor leergierige begeleiders een congres waar extra tips en tools...
de recente studiedag van onze sector klinische psychologie, vvkp, werd bijzonder positief onthaald!
the scientist practitioner model in de praktijk, meer bepaald in een groepspraktijk.
fedasil rekruteert een adviseur psychosociale aspecten m/v/x halftijds
fedasil rekruteert een
groepspraktijk papilio op zoek naar een klinisch psycholoog
zelfstandig kinderpsychologe deeltijdse betrekking
vacature voor een klinisch psycholoog doelgroep kinderen en jongeren
vacature gezocht zelfstandig therapeuten
zou de weg naar demedicalisering eindelijk ingezet zijn?
samen met onze europese collegas pleiten we voor meer aandacht voor preventie van depressie en en een betere...
naar een orde voor klinisch psychologen? voor bfp is het cruciaal dat klinisch psychologen bevoegd blijven over...
binnen de bfp praten psychologen onder elkaar en zoeken ze naar oplossingen zodat iedereen de job kan uitvoeren...
de nieuwe startersbrochure voor zelfstandig psychologen is klaar! alles wat je moet weten rond het opstarten van...
masterclass zorgmanagement voor psychologen
masterclass zorgmanagement voor psychologen | belgische federatie van psychologen
uitnodiging workshop1/2 dag 19/04/17 in bxl reflectie over en analyse van een behandelingstraject voor burnout
uitnodiging workshop halve dag op 19 april in brussel reflectie over en analyse van een behandelingstraject...
ben je al ingeschreven? als bfp lid geniet van je een bijzondere korting!
bfp onderneemt actie rond moeilijkheden met het gedeeld beroepsgeheim in gedeelde elektronische patiëntendossiers...
arbeid&amporganisatie psychologie nethrdactiviteit samen 6 interactieve verhalen over loopbaan in beweging
vocap nodigt u weer graag uit op de volgende activiteit die georganiseerd wordt in samenwerking met vov, pm club,...
we zijn op zoek naar bijkomende administratieve hulp! aarzel niet om beide vacatures verder te verspreiden!
het grondwettelijk hof vernietigt artikel 11, maar enkel wat betreft de overgangsmaatregelen.
genoeg is genoeg! de bfp roept op alle psychologen op om in overleg te gaan met elkaar!
een nieuw ledenvoordeel voor de bfp leden. het lidgeld blijft zichzelf terug betalen!
heldere communicatie van de psychologencommissie.
vacature klinisch psycholoog zelfstandig in hoofd of bijberoep klinisch psycholoog
vacature voor een klinisch psycholoog
collega gert storms pleit voor absolute transparantie. enige manier om wetenschappelijk onderzoek gezag te laten...
vacature psycholoog | belgische federatie van psychologen
het grote psychiatrie debat in vlaanderen woedt in alle hevigheid. roland sinnaeve, voorzitter van de vvkp,...
onderzoekers aan de kuleuven hebben nieuwe tools ontwikkeld voor psychologen en artsen om burnout beter te...
startdag zelfstandigen
startdag zelfstandigen | belgische federatie van psychologen
deze week in de morgen het grote psychiatriedebat. ook de vvkp is betrokken in het debat met een duidelijk...
vocapactiviteit inschrijvingen ten laatste op 17 februari!!
inschrijvingen ten laatste op 17 februari !!
meer en meer klinkt de vraag naar financiering van psychologische zorg, en terecht!
het openbaar psychiatrisch zorgcentrum rekem zoekt voor een klinisch psycholoog 100% m/v
het openbaar psychiatrisch zorgcentrum rekem zoekt voor de forensische zorgeenheid een
gezocht zelfstandig psychotherapeut | belgische federatie van psychologen
vacature psycholoog / psychotherapeut | belgische federatie van psychologen
de bfp reageert op een aantal kritieken en foutieve informaties die recent verspreid werden over de...
of hoe social media ook hun gevolgen kunnen hebben voor de vertrouwelijkheid van je relatie met je client.
er vallen heel wat lessen te trekken uit de strijd van onze collegas kines. vroeger zwak georganiseerd, nu 1...
belangrijke update van het ecp2017!
goed nieuws voor onze zelfstandige collegas! deadline voor de aangifte plicht voor groepspraktijken verlengd tot...
vacature voor een klinisch psycholoog
de amerikaanse collegas van de apa reageren op trumps plannen om bepaalde verhoortechnieken toe te laten!
collega annelies smolders in de media over het belang van je eigen gedrag met betrekking tot slapen.
nog eens helder het standpunt van de bfp op een rij betreffende de wet op de ggz beroepen.
new training cycle postgraduaat in de psychotherapie jeugd en context
er zijn mensen die graag het veld van psychologen willen verdelen en polemiek willen veroorzaken. de bfp kiest er...
zelfstandig zorgverstrekkers denken na over de interdisciplinaire netwerken van morgen. ook de psychologen denken...
infodag startende zelfstandigen
infodag startende zelfstandigen | belgische federatie van psychologen
studiedag vvkp de klinisch psycholoog als gezondheidszorgberoep een roadmap van wet naar praktijk
studiedag vvkp de klinisch psycholoog als gezondheidszorgberoep een roadmap van wet naar praktijk | belgische...
franstalige en nederlandstalige psychologen blijven samenwerken binnen de bfp aan de positie van psychologie...
alle bfp leden zijn van harte welkom op onze jaarlijkse algemene vergadering!
collegas die zich ongerust maken over een betaalbewijs en die in de kerstvakantie hebben hernieuwd. neem even de...
het is net de wetenschap van de psychologie die ons als psychologen verbindt. het is onze wetenschap die ons...
psychotherapeuten zetten zichzelf weer eens buiten spel. gelukkig ditmaal zonder gevolgen voor de klinische...
studiedag diagnostiek in de leerlingenbegeleiding kind en context
interessante studiedag van de collegas uit onze sector schoolpsychologie. relevant voor iedereen die met...
je kan je weer lid maken van de bfp en haar aangesloten deelverenigingen! we hopen ook dit jaar weer zoveel...
december 10 international human rights day psychologists play important role. | belgische federatie van...
beleidsmedewerker m/v | belgische federatie van psychologen
cultuurplatform &ampquotkinderen goedgekeurd&ampquot zoektocht nieuwe naam voor psychiatrie
bfp is aanwezig op het om klinische psychologie te promoten voor het brede publiek! breng een...
meer contact tussen verschillende ethnische groepen zorgt effectief voor betere waardering miles hewstone
hewstone diversiteit ja of neen? zinloze vraag! hoe krijg je mensen in een diverse groep in contact met elkaar?
seksisme goedaardig en vijandig. is een complex stereotype. niet alle seksisme is slecht bedoeld yzerbyt
iat experiment met de zaal. aan den lijve ervaren hoe diep vooroordelen geworteld zijn. vincent yzerbyt
hoe los je vooroordelen op? simpel breng mensen in contact met elkaar contacthypothese uit de sociale psychologie.
vooroordelen zitten in iedereen! iedereen racist mag je dus letterlijk nemen alain van hiel
vandaag dag van de psycholoog thema anders of niet? sociale identiteit in een diverse samenleving kon wellicht niet actueler zijn!
uiterste datum voor het indienen van sollicitaties 31/10/2016 !!!
het secretariaatgeneraal van de raad van de europese unie sgr zoekt een betrouwbare organisatiepsycholoog
help ons jou de juiste informatie te bezorgen en spendeer 2 minuutjes aan jouw profiel op de website!
de derde weg van de bfp dan toch mogelijks gerealiseerd? positieve definiëring en einde van de omnipotente arts!
vacature kinderpsycholoog– op zelfstandige basis stekene
vacature voor een...
met miles hewstone vangen we één van de grote namen uit de internationale sociale psychologie. geïnteresseerd wat...
tweede generatie problematiek – bestraffing van de collaboratie na de tweede wereldoorlog
hoe komt het toch dat stereotypen zo bepalend zijn voor ons intersociaal gedrag? hoe spelen ze hun rol in ons...
iedereen racist? de multiculturele samenleving ontleed.
de opener van de dag van de psycholoog 2016 mag er meteen wezen! alain van hiel doet onze ogen open en neemt ons...
een mooi eerbetoon aan voormalig voorzitter robert roe!
de efpa wijdt een nieuwe prijs
de efpa wijdt een nieuwe prijs | belgische federatie van psychologen
goed nieuws voor de european psychologist
goed nieuws voor de european psychologist | belgische federatie van psychologen
uitnodiging symposium innovatie in de geestelijke gezondheidszorg voor kinderen en jongeren
vacature voor een..
vacature voor een..
de bfp is momenteel op bezoek bij onze noorse collegas om meer te leren over hun hervorming geestelijke...
de bfp is momenteel op studiebezoek bij onze noorse collegas om meer te leren over hun hervorming geestelijke...
de inschrijvingen voor de dag van de psycholoog zijn open! het is weer een enorm, boeiend programma met...
vacature zelfstanding klinish psycholoog voor de begeleiding van kinderen, jongen en volwassenen
klinisch psycholoog voor kinderen en adolescenten m/v jobtime 80%
in memoriam professeur paul eelen
psychologencommissie jaarverslag 2015
bfp organiseert volgend jaar mee het europees congres psychologie. de call for abstracts is nu open! zorg er dus...
dagje uit met het gezin! bfp helpt je aan een interessante korting bij een aantal themaparken!
nog snel een boek voor je op vakantie vertrekt?
congres voor klinish psycholoogen ggz congres 2016
vacature voor een zelfstandige klinish psycholoog psycholoog voor kinderen en adolescenten
samen met de andere zorgverstrekkers werken we aan een betere gezondheidszorg voor morgen!
steunt jouw organisatie mee de wervingscampagne voor nieuw luistertalent in teleonthaal ?
zelfstandig klinisch psychologen nederlandstalige, franstalige en anderstalige in belgië en gh luxemburg.
nieuwe masterclass management voor psychologen in het najaar!
heb je een eigen praktijk of overweeg je om een praktijk te starten? dan is dit een bijzonder interessante...
parlement keurt wetswijziging van de block goed! bijkomende informatie.
wat meer tekst en uitleg over de goedgekeurde wetswijzigingen.
de block wil verhaal van supplementen uit het systeem en en passant nog deze legislatuur terugbetaling ggz.
geïntegreerde zorg voor chronisch zieken zestien pilootprojecten kunnen rekenen op ondersteuning door de overheid
dag van de psycholoog 2016 call for abstracts
het is weer zover! de dag van de psycholoog komt er weer aan! bekijk de call for abstracts en lever jouw bijdrage...
regering wijzigt wet op de ggz beroepen bfp leden kunnen een overzicht raadplegen op de site.
leden van de bfp kunnen de wetswijzigingen vanaf nu raadplegen op de site. zorg dat je eerst ingelogd bent!
vacature huisartsenpraktijk de r.in.g zooken enthousiast en gemotiveerd psychologen
vandaag is d day tweede lezing in kamercommissie volksgezondheid. revolutie op de sofa via
vandaag is d day tweede lezing in kamercommissie volksgezondheid.
verslag nationaal colloquium psychologencommissie nu beschikbaar!
het verslag van het nationaal colloquium van de psychologencommissie kan je nu raadplegen op hun website!
nieuwe studie van het kce over de detectie van kindermishandeling!
ziezo, het is achter de rug. we kunnen nu eindelijk vooruit blikken!
hakt 20 jaar oude knoop over de psychotherapie door!
de vlaamse vereniging voor psychoanalytische therapie organiseert een studiedag naar aanleiding van haar 30 ...
het cédric hèle instituut is op zoek naar een coördinator!
je kan je vanaf nu inschrijven voor een nieuwe permanente vorming eerstelijnspsychologie!
ook psychologen zijn fier op hun vrij beroep!
toelichting door onze gedelegeerd bestuurder bij de psychologische impact na interview voor de...
geniet nog van bijzondere korting op deze titels tot en met 31 mei!
het jaarverslag 2015 is beschikbaar!
het langverwachte rapport van het kce is er! therapeutische vrijheid voor de psychologen en directe toegang! maar...
op 21/04 haalt onze sector arbeids &amp organisatiepsycholoog de amerikaanse topexpert gerd leonhard naar belgië!...
de koninklijke vlaamse academie van belgië organiseert een bijzondere lentecyclus. 3 namiddagsymposia over...
eerste workshop van het jaar voor onze sector klinische psychologie! je krijgt niet vaak de kans om een...
als je in limburg actief bent als klinisch psycholoog, zorg dan zeker dat je erbij bent op 14 april!
als je als klinisch psycholoog actief bent in antwerpen, zorg dan dat je aanwezig bent op de info sessie voor...
mentale gezondheid is een kwestie van iedereen. daar hoef je je zeker niet voor te verontschuldigen!
ook in de sport levert psychologie een belangrijke bijdrage!
vanmarcke ik ga langs bij een sportpsycholoog
laat ons samen zorgen dat de littekens niet nog groter worden. draag zorg voor elkaar in deze moeilijke periode.
oprecht medeleven aan getroffen families en onze gedachten zijn bij de vele collegas die nu opvang aan het verzorgen zijn!
beslis mee over de koers van vvkp!
ontdek de nieuwe boeken van boom met opnieuw bijzondere korting voor de bfp leden!
interessante vacature voor een psycholoog als diensthoofd binnen cm west vlaanderen!
de inschrijvingen voor de jaarlijkse studiedag van onze sector klinische psychologie zijn geopend! het thema is...
johan parisse is de nieuwe voorzitter van de belgische federatie van psychologen
“united we stand, divided we fall” nationaal colloquium van de psychologencommissie
dat was de centrale boodschap van de bfp aan alle aanwezige psychologen op het nationaal colloquium. een relaas...
kersvers voorzitter johan parisse en gedelegeerd bestuurder koen lowet op het nationaal colloquium van de...
kom ook met ons mee nadenken over de toekomst van de psychologencommissie op het nationaal colloquium van...
bfp link tussen wetenschap en praktijk.
wegens overdonderend succes opent de psychologencommissie nog extra plaatsen voor het colloquium! je kan je dus...
volgende activiteit van onze sector arbeids &amp organisatiepsychologie, vocap. schrijf je snel in!
denk je er aan om te starten als zelfstandige of ben je nog maar net gestart? kom dan zeker naar onze infodag...
klaar om de digitale zorg te ontdekken? ook klinisch psychologen zullen moeten mee stappen in een digitale zorg!
eerste lezing binnen de elips reeks van de kuleuven!
interessante info over de patiëntenverenigingen ggz in vlaanderen!
psychologen gezocht om deel te nemen aan chronic care consortium in het leuvense!
onze sector arbeid &amp organisatiepsychologie blijft actief. het bestuur voor 2016 is gedeeltelijk vernieuwd,...
de activiteiten van onze sector arbeid &amp organisatiepsychologie kennen een grote interesse!
de inschrijvingen voor de jaarlijkse studiedag van onze sector klinische psychologie, vvkp, gaan weldra open. de...
een update van onze sector klinische psychologie over de regionale psychologenkringen.
de inschrijvingen zijn geopend voor de jaarlijkse studiedag van onze sector schoolpsychologie, vvsp!
maar liefst 3196 psychologen sloten zich aan bij bfp in 2015! dat is ongezien! voor 2016 hopen we uiteraard om...
onze sector arbeids &amp organisatiepsychologie, vocap, brengt graag volgend colloquium van de overheid onder de...
volgende week gaat de eerste activiteit van het jaar door van onze sector arbeids &amp organisatiepsychologie...
er zijn weer nieuwe boeken in onze boom boekenclub!
belangrijke uitspraak van het hof van beroep te luik betreffende psychotherapie en btw.
interessante vacature voor een klinisch psycholoog in de regio leuven!
de psychologencommissie organiseert op 4 maart 2016 een nationaal colloquium. save the date!
praktijkruimte te huur in lubbeek!
de bfp wenst alle collegas het allerbeste voor het nieuwe jaar 2016!
het eerste europees semester zit er op. onze portugese collegas hebben er een fantastische start aan gegeven met...
we zijn er weer aan begonnen en dit jaar op tijd! lees aandachtig je lidgeldbrief om problemen te vermijden! we...
bfp ondersteunt campagne om de patiëntenrechten beter bekend te maken!
de koning boudewijnstichting wil de overdracht naar de arbeidswereld van onderzoeksresultaten op het gebied van...
de koning boudewijnstichting lanceert een oproep voor onderzoeksprojecten in het domein van de psychiatrie die...
projectoproep van de koning boudewijnstichting voor projecten in belgië die gezonde voedingsgewoonten en...
proficiat aan voor lagere suïcide cijfers. in vlaanderen echter nog hele weg te gaan.
de laatste activiteit van het jaar door onze sector arbeids &amp organisatiepsychologie, vocap! schrijf je dus...
in voorbereiding van de lidgeldhernieuwing 2016 zal onze website, samen met die van vvkp en vocap, vandaag een...
oproep van aan de leden om te participeren!
hamza el moukthari getuigt over zijn werk als eerstelijnspsycholoog. hij is tevens lid van de werkgroep...
interessante activiteit voor onze schoolpsychologen!
de studiedag van onze sector onderzoek &amp onderwijs krijgt al aardig vorm! een programma dat zeker ook de praktijk...
psychologen willen collegas uit de sector gerust stellen.
de bfp blijft zich engageren voor een sterke ggz met respect voor alle actoren!
de bfp reageert daarmee op de recente commotie rond de uitvoering van de wet op de ggz beroepen. de standpunten...
niet talmen met uitvoering wet op de ggz beroepen!
‘de block draait de klok terug’ de standaard via vreemde titel, goede boodschap van@nathaliemuylle
bfp blijft haar leden ondersteunen om up to date te blijven!
vorig jaar waren we aan de late kant, dit jaar starten we er tijdig mee! binnenkort kunt u de lidgeldbrief van...
de bfp werkt nauw samen met de psychologencommissie om de psychologen bij te staan in deontologisch verantwoord...
onze sector klinische psychologie hekelt de ouderwetse visie en de beperkte dossierkennis waarop deze resolutie...
mooi werk van de collegas aan de kul!
mindmates helpt studenten met emotionele problemen
ja, ik ben een tijdje naar een psycholoog gegaan. en ik ben er trots op via
graag massaal verspreiden! wat een krachtige en mooie boodschap!
het is niet nodig om het secretariaat te contacteren voor je betaalbewijs!
maak nu de sprong naar een geestelijk gezond vlaanderen. ga naar samenveerkrachtig.be, kies je bvschoenen en win ze!
naar aanleiding van de werelddag geestelijke gezondheid publiceerde onze gedelegeerd bestuurder volgend...
psychologen denken constructief mee over nieuwe voorstellen om onze gezondheidszorg te verbeteren.
onze sector schoolpsychologie, vvsp, nodigt je uit om abstracts in te sturen voor het ispa congres 2016.
je kan je inschrijven voor de volgende activiteit van onze sector arbeids &amp organisatiepsychologie, vocap
bfp telt meer dan 3000 leden!
het grootste netwerk van psychologen is nog een beetje groter geworden!
vacature psycholoog/psychotherapeute om het volwassenteam te vervoegen
bfp is er voor jou als psycholoog!
ondanks de hectiek blijven we hard werken om je zo goed mogelijk geïnformeerd te houden! bezoek dus regelmatig...
de studiedag van onze sector klinische psychologie, vvkp, van volgend jaar zal gaan over het thema...
interessante opleidingen vanuit de fod waso
vocap signaleert een aantal interessante opleidingen vanuit haar partnerschap met de fod waso.
gdt brussel zoekt psychologen via de bfp!
op een makkelijke manier aan vakliteratuur komen? onze boekenclub bij boom varieert maandelijks in aanbod en...
halen we de kaap van de 2000 leden? onze sector klinische psychologie is goed bezig!
onze nederlandstalige sector klinische psychologie nadert de 2000 leden! ben jij al lid?
kom mee nadenken over de toekomst van onze gezondheidszorg!
tele onthaal is op zoek naar vrijwilligers!
warme oproep aan de collegas om deze boodschap verder te verspreiden!
gdt brussel zoekt psychologen via bfp!
onze sector arbeids &amp organisatiepsychologie heeft een vernieuwde website! ontdek hem snel!
doe mee aan de enquête van de federatie vrije beroepen over de toekomst van onze gezondheidszorg!
hr analytics meer voorspellen met hr data
nieuwe activiteit van vocap, onze sector arbeids &amp organisatiepsychologie!
ook aan franstalige zijde zijn we begonnen met het informeren van de leden over de nieuwe wet op de ggz ...
eén overlijden elke 40 seconden werelddag suïcidepreventie.
gezamenlijk persbericht met efpa naar aanleiding van werelddag suïcidepreventie.
eén dode elke 40 seconden werelddag suïcidepreventie
psychologen vragen meer aandacht en middelen in de strijd tegen suïcide om meer onderzoek te kunnen doen naar...
psychologen samen veerkrachtig voor een geestelijk gezonder belgië!
hoge gezondheidsraad publiceert advies over de klinisch psycholoog!
knap staaltje van samenwerking tussen de academische wereld en het werkveld!
in het werken rond de uitvoeringsbesluiten van de wet op de ggz beroepen zullen een aantal belangrijke...
collega tom van daele vvkp geeft op deskundige wijze toelichting over online therapie....
therapie volgen via skype collega geeft toelichting!
al eens gekeken hoe complex wij wel niet zijn?
reactie van de bfp op het nieuws in de standaard psychologisch onderzoek deugt niet.
beschouw een psychisch probleem nu eens als iets normaals!
persbericht van de bfp als reactie op het nieuws dat mensen met psychische problemen uitgesloten worden van...
volgende activiteit van onze sector klinische psychologie! super interessant en vooral erg actueel! bovendien is...
ready for take off kwaliteitsindicatoren in de geestelijke gezondheidszorg
ook bfp werkt volop mee aan een betere kwaliteit in onze ggz!
oproep om mee te werken aan onderzoek!
de bfp blijft groeien. meer en meer psychologen organiseren zich en sluiten zich aan. ben jij al aangesloten?
onze vlaamse sector klinische psychologie roept haar leden op om het voorstel van de bond moyson af te wijzen en...
de bfp stelt een gedeelte van haar kantoren te huur in brussel!
collegas van de ugent doen een oproep naar deelnemers voor hun psychotherapie onderzoek!
nog maar enkele plaatsen vrij schrijf je nog snel in en profiteer van dit unieke aanbod!