hoe val je nog op tegenwoordig? zo denkt erover
kennismiddag voor interieurarchitecten. save the date! 1312 bij
save the date netwerkevent rond ontwerp van vernieuwende werkomgevingen
ben jij al op ddw geweest? dit weekend is er nog heel veel design van de toekomst te spotten in wat...
een toffe interdisciplinaire master crossover creativity aan hku. kom kijken of het wat voor jou is ook...
en hier het verslag van de bnireis verzorgd door abet laminati nederland en baars &amp bloemhoff.
uitslag bniprijs 2017 geen winnaars, wel vier eervolle vermeldingen helaas is er geen winnend ontwerp...
uitslag bniprijs 2017 geen winnaars, wel vier eervolle vermeldingen helaas is er geen winnend ontwerp...
vanavond is het zover de bni prijs uitreiking voor de beste talenten van 2017! locatie is bij mediamatic, zaal...
wiehoe de eerste update uit milaan. kom je ook donderdagavond naar de spannende ontknoping, wie wint de bni...
de truc is om de omgeving aan te passen aan mensen met dementie. een ware opgave voor de
alvast een tipje van de sluier... na een spannende jurydag is het nu tijd voor een beetje ontspanning voor de...
en nog een leuke vacature
28 sept wordt de lezing gegeven door sandra baan van ibi² over het streven naar duurzaam en intelligent...
heb je of ken je een vacature? je kunt hem ook op de website van de bni gratis plaatsen...
lees hieronder het verslag van linda zadelaar interieurarchitectuur bni van haar bezoek aan estland voor het...
benieuwd naar de genomineerden voor de kijk dan op !
de eerste namen druppelen binnen voor de bniprijs 2017.. 28 september worden de winnaars bekend gemaakt in...
een mooi actueel voorbeeld van hoe interieurarchitecten meedenken en op maatschappelijk niveau vernieuwende...
hulp gevraagd bij organisatie bniprijs! maak jij het met ons mogelijk om deze dag weer tot een feestje te...
ook in deventer was er een mooie eindexpo in een kerk. maak alvast kennis met judith snoeijen, genomineerde voor...
er zijn weer allerlei afstudeerexpos van de nieuwe lichting interieurarchitecten. zo heeft bijvoorbeeld...
positief bericht over de titelbescherming van de interieurarchitect! het college van rijksadviseurs acht...
textiellovers zet hem in de agenda 15 juni textielevent bij co van der horst!
met 8 juni
vandaag lekker van het weer genieten en hoe kun je die heerlijke natuur lekker naar binnen halen? kom erachter op...
interessant voor interieurarchitecten die hotels ontwerpen. en een fijn weekend gewenst!
vandaag in de buurt van rotterdam? neem dan eens een kijkje bij het we love public space festival
je kunt je nog inschrijven voor 18 mei! sign up before 18 may for this award!...
de toffe beurs design district vakevenement voor interieurdesign komt er weer aan, houd 8 juni vrij in de...
uitnodiging 24 mei 2017 16.00 uur rietveld symposium met aansluitende cocktail. 100 jaar de stijl, start van...
beste leden, 13 juni is er een gratis workshop 3d renderen met sketchup bij shapes experience center, deze loopt...
vacature interieurarchitect.
heb je deze gezellige kennismiddag gemist? noteer alvast 8 juni in de agenda, dan is er een kennismiddag over...
leuk verslag over milaan, voor de mensen die er niet zijn geweest dit jaar....
en terecht marjolein in het klein! bedankt voor het delen.
was weer een topmiddag!
een leuke bestemming voor je 2e paasdag dutch design event bij co van der horst!
kom je ook naar de kennismiddag morgen? laat je bijpraten over en bij...
kom je ook naar de kennismiddag morgen? laat je bijpraten over
creatieve industrie en ict dragen substantieel bij aan economisch herstel! lees hier de monitor creatieve...
op 13 april a.s. organiseert de bni de eerste kennismiddag van dit jaar. deze keer in samenwerking met intersteel...
creatieve industrie en ict dragen substantieel bij aan economisch herstel! lees het hier
geen tijd om naar milaan te gaan? tip bekijk de pronkstukken van musea in eigen land t/m 9 april.…
op 13 april weer een deze keer bij met lezingen over oa
net verschenen bni intern met bas liesker van architectenbureau heren 5 architecten als gastredacteur en...
geen tijd om naar milaan te gaan maar wel zin in cultuur? tip bekijk de pronkstukken van musea in eigen land,...
salone del mobile is weer op volle toeren bezig. wat is jouw interieurinspiratie? check ook...
salone del mobile is weer op volle toeren bezig. wat is jouw interieurinspiratie? check ook…
kom je ook? tot de 13e in rhenen!
goed nieuws!
help doret schulkes interieurarchitecten bni aan haar nieuwste boekpublicatie! in het boek hoe krijg ik een...
een nieuwe special over leisure projecten is uit en recent ook een nieuwe magazine intern over microwoningen....
donderdag is er weer een 20x20 pecha kucha avond in arnhem! diverse creatieven presenteren hun werk en inspiratie...
help eva in 2 minuutjes met haar scriptie, klik op onderstaande link.
donderdag 23 maart in utrecht, meld je snel aan er zijn nog enkele plaatsen over.
nog enkele plaatse over... meld je snel aan.
vandaag lezingen van anja dirks interieur+dementie en dorte kristensen atelier pro
vandaag lezingen van anja dirks en dorte kristensen
meld je snel nog aan voor interessante lezingen van bni congres as donderdag 16 maart....
meld je snel nog aan voor interessante lezingen van bni congres as donderdag 16 maart.
do 16 maart gratis sketchup pro workshop voor interieurprofessionals!
do 16 maart gratis sketchup pro workshop voor interieurprofessionals! neem een kijkje in het inspirerende...
as donderdag van over ontwerpen voor ouderen tijdens zie
binnenkort 30 maart het eerste materia cafe in broeinest eindhoven. gaat dat zien.
aanstaande donderdag 16 maart verzorgt bni een eigen congres tijdens de zorgtotaal beurs in utrecht! kom ook...
broeinest rotterdam is geopend met een knaller! het is een mooie plek geworden, een echte creatieve broedplaats...
nog een leuke vacature ervaren commerciële interieurontwerper/ interieurarchitect in goes.
yes we hebben de 1000 volgers bereikt! reden voor een toffe winactie om jullie te bedanken. like onze pagina en...
abet laminati spa zoekt een accountmanager. kijk snel op...
en nog een aanrader voor het weekend object rotterdam! ga aan boord van een heus schip om je onder te dompelen...
aanrader voor dit weekend, lekker vintage meubels kijken.
wie wil er nog meer ook alle ins and outs van embedded links, auteursrecht, beeldrecht e.d leren? dan gaan we...
gratis rondleiding op 1 februari wereld vol veren door interieurarchitect wendy snoek!...
wij wensen iedereen een inspirerend en succesvol 2017. een vers nieuw jaar en dus tijd voor verse trends....
allonsy! gratis naar maison &amp objet in parijs met bni
allonsy! gratis naar maison &amp objet in parijs met bni
net verschenen onno greiner, een zoektocht naar helderheid en geborgenheid. zijn ideeën over de invloed van...
oproep! freelance interieurarchitect l interieurontwerper die a.s. zaterdag en of a.s. zondag beschikbaar is om...
bekijk vanavond de livestream va 20.00 uur op topos architectuurcentrum maastricht van de lezing jonge lokale...
kom je ook gezellig kerstborrel + kennismiddag doen op 14 dec? thema light by night
graag tot ziens op de 14e met heel veel lichtinspiratie!
14 december is er weer een dit keer thema light by night. lezingen + kerstborrel!
frappant artikel, waar betiteld als misbare beroepsgroep wat denk jij?
op woensdag 14 december organiseert de bni i.s.m. brand van egmond en erco de laatste van 2016, met...
frappant artikel, waar japked bouma interieurarchitecten betiteld als misbare beroepsgroep wat...
en ook deze avond 12 dec is te volgen via livestream op fb
12 dec gaat het debat verder in over stay tuned..
graag gedaan
a.s maandag gaat het debat over de veranderende beroepspraktijk van de interieurarchitect verder in...
interessant, leren van je eigen fouten.
we kijken terug op een geslaagde debatavond. heb je het gemist? kijk dan hieronder de livestream terug. hierbij...
2024 jan 2017 kun je weer naar design vakbeurs in bnileden zelfs geheel gratis! zie meer
en hier zijn de resultaten van de flitsenquete in te zien...
we zijn weer live! laat jouw mening weten en debatteer mee over
debatteer je straks ook mee? livestream over een half uurtje in
rond 20.00 uur gaan we live! volg de livestream van het debat hier
kijk je vanavond mee naar het debat? houd deze pagina in de gaten, omstreeks 20.00 uur gaan we live! de video is...
samen met en organiseert de bni 30 nov over de kom je ook?
het is 30 nov alweer zover! wat is jouw toekomstideaal voor de tweet mee!
yes aanstaande woensdag is het zover de debatavond van de bni over de toekomst van de interieurarchitect! heb jij...
en zie hier de sfeerfotos van een inspirerende avond gisteren bij moooi.
vanaf 20 tot 24 januari kun je de internationale vakbeurs maison&ampobjet in parijs bezoeken. bnileden kunnen weer...
een tijdloos interieurontwerp bestaat niet. je kunt juist heel precies de leeftijd bepalen lees de blog...
we hebben alweer 1300 volgers, op naar het mooie getal van 1500 volgers! volg voor updates over
voor meer denk ook aan een gezond interieur ontworpen door een
hoe ziet verbouwen in 2020 eruit? bekijk deze video ontwikkeld door debat
een tijdloos interieurontwerp bestaat niet. je kunt juist heel precies de leeftijd bepalen quote
interalter interiorarchitects heeft vanmiddag open studio in hun nieuwe stek in valkenburg. komt dat zien!
er zijn nog 2 kaarten beschikbaar! mail snel naar info@bni.nl opop. donderdag 24 nov 2e dpa big talk…
vandaag is het dank aan alle die zorgen voor gezonde en innovatieve voor ondernemers!
design post amsterdam geeft gratis 4 kaarten weg voor de 2e dpa big talk op 24 november! inclusief diner na...
save the date! woe 30 nov over organisatie door + + gaat dat zien!
wil jij op milaan staan in april? dat kan met deze open oproep van het stimuleringsfonds creatieve industrie...
ook interessante prijsvraag voor jonge interieurarchitecten!
kom je ook meepraten over de toekomst van de interieurarchitect 30 november in pakhuis de zwijger?...
alles weten over kom dan naar de beurs domotica &amp slim wonen op 16 &amp 17 nov
leuk blogje van van dijl architecten op de bnisite wat is architectuur nou eigenlijk? een bruikbaar gebouw of...
een van onze nieuwe bloggers is marjolein van dijl! houd onze blogpagina of onze social media kanalen in de gaten...
gaat dat lezen!
leuk blogje wat is architectuur nou eigenlijk? een bruikbaar gebouw of een prijswinnende vormgeving?
wil je meer weten over slimme technologie in huis? kom dan naar de beurs domotica &amp slim wonen voor alle ins and...
wij houden van ons vak, mooie prettige interieurs ontwerpen! alles weten over volg
kinkt goed
de dutch design week gemist? geen nood stylink zorgde voor een mooi fotoverslag! wat was jouw favoriet?...
ga je vrijdag naar bezoek dan ook van met 10% korting als bnilid.
vrolijk plaatje!
gefeliciteerd en een fijne werkweek gewenst!
ga je vrijdag naar eindhoven bezoek dan ook de trenddag van nederlands interieur instituut met 10% korting...
hoe werk je nu eigenlijk met de nieuwe modelovereenkomst voor zzpers? stel je vragen aan stichting fonds...
start je met een bij over actuele thema’s creatieve industrie
het stimuleringsfonds creatieve industrie organiseert weer interessante gratis lezingen ofwel ochtendsessies...
herfst... tijd voor inspiratie en de ddw is weer van start. pak mooi deze korting mee als bnilid via deze link...
kom je ook meepraten over de toekomst van de 30 november
save the date 30 november debatavond over de toekomst van de interieurarchitect. innoveren of decoreren?...
nog een mooie baan bij wolterinck laren laren vacant! senior designer / projectleider. ga jij ons design team...
nieuwe vacature van voor een zie
een leuk artikel in ons blad intern over samenwerking tussen interieurarchitecten en leveranciers. een thema wat...
maak in 360 graden kennis met t publiek v/d lezingen voor de uitreiking. met dank aan
ha je bent me voor, ik wilde net de gave 360graden foto tweeten
toch leuk dit. o kijk! panografie maakte deze te gekke 360 graden foto! klik op de cirkel boven de persoon en zo...
vandaag is het dag van de wat is jouw ervaring met duurzaamheid? bekijk hier de tips
vandaag is het dag van de duurzaamheid. steeds meer interieurs, huizen en gebouwen worden verduurzaamd. wat is...
mooie samenvatting op architectenweb van de uitreiking vorige week....
wist je dat je ook als student, zelfstandige, startup of als partner lid kunt worden van de bni? lees hier alles...
kom je morgen ook? over door levert op!
weet jij of ken jij iemand die aan een geschiedenis onderzoek werkt in het domein van interieur en/of...
en ook aaltsje venema kreeg een eervolle vermelding met haar boeiende onderzoek naar de gefragmenteerde woning....
kom je ook naar 5 oktober? productontwikkeling en samenwerking.
kom je ook naar venlo 5 oktober? kennismiddag productontwikkeling en samenwerking. je kunt je nog aanmelden....
en een eervolle vermelding voor maar liefst twee genomineerden van liza diekema maakte indruk met...
en een eervolle vermelding voor maar liefst twee genomineerden van liza diekema…
en de winnaar van de is judy wetters! met haar mooie onderzoek activeer het oppervlak wist zij...
en de winnaar van de is judy wetters! met haar mooie onderzoek activeer het…
het was gisteren een geslaagde bniprijs uitreiking inclusief leerzame lezingen voorafgaand over
leuke foto van een mooie avond!
en de winnaar van de is remke seyben!
en de winnaars zijn bekend! met maar liefst 2 eervolle vermeldingen
werk van genomineerden wordt nu besproken
de genomineerden zitten in spanning te wachten... nu is de jury aan het woord waar ze op gelet hebben
enn we zijn live! uitreiking nadert.... volgen? check de livestream op fb.
het is zover.. de uitreiking nadert. benieuwd? kijk nu live mee
diverse sfeerhoeken aanwezig vanuit met mooie materialen straks...
diverse sfeerhoeken aanwezig vanuit met mooie materialen
bniprijs uitreiking zien? ga dan nu naar onze fbpagina voor de livestream!
goedzo!
de expositie met werk van genomineerden word goed bekeken tussen de lezingen door
en wij volgen terug
volg ons op facebook en je kunt vanavond meteen live meekijken wie er met de felbegeerde vandoor gaat.
hoe denk jij dat de woonkamer vd toekomst eruit ziet? nam ons mee langs de mogelijkheden
de rode loper is uitgerold, tot straks!
mooi rauw pand! in nieuwe locatie van
mooi rauw pand! in nieuwe locatie van
laatste hand is gelegd aan expositie van partners. wij zijn er klaar voor. straks beginnen we met interessante...
goed bezig, tot morgen!
lezing kennismiddag 29 sept wat doet een virtuele tour voor jou als architect?
mix &amp match met de unieke desso&ampex tapijtcollectie. van betonlook en hippe patchwork patronen tot oosterse...
de voorbereidingen zijn in volle gang! check hier het programma
de voorbereidingen zijn in volle gang voor donderdag. zien we jou dan ook? kun je er niet bij zijn? kijk dan...
leuk, veel plezier en inspiratie gewenst!
het exacte programma voor 29 september is bekend en staat online op kennismiddag...
ben je ook benieuwd wie er vandoor gaat met de maar kun je er niet bij zijn 29 september? geen nood,...
publiek heeft duidelijke voorkeur voor winnaar prestigieuze bniprijs 2016. eerste 1000 stemmen bekend. stem mee via
transitions ii tijdens met door talentvolle ontwerpers bewerkte materialen van
presentatrice coacht ons door de 29 sept met lezingen
ziet er inspirerend uit!
zo’n 3000 stemmers gingen je voor en hebben hun mening gegeven. kijk naar de voorstellen en stem mee op !
gefeliciteerd daan rosegaarde!
a.s donderdag lezingen over als bron v. innovatie voor
ben je ook benieuwd wie er vandoor gaat met de maar kun je er helaas niet bijzijn? geen nood, wij zenden een uit!
ze gaat aan kop inderdaad. nog even afwachten tot donderdag, ondertussen vooral doorstemmen gr &ltlaura
presentatrice mara michels pr coacht ons door de kennismiddag! 29 sept met lezingen over en...
publiek heeft duidelijke voorkeur voor winnaar prestigieuze bniprijs 2016. eerste 1000 stemmen bekend. stem mee...
lezing 1 29 sept wat doet een virtuele tour voor jou als architect? door
donderdagavond 29 september uitreiking prestigieuze bniprijs 2016. toegang is gratis via
in academies kandideren 14 vrouwen en geen enkele man voor prestigieuze...
in academies kandideren 14 vrouwen en geen enkele man voor prestigieuze…
wat betekent virtual reality voor interieur en designspecialisten? kijk mee op 29 sept bij uitreiking
wat betekent virtual reality voor interieur en designspecialisten? kijk mee op 29 september bij uitreiking...
in academies kandideren veertien vrouwen en geen enkele man voor...
presentatrice coacht ons door de 29 sept met lezingen over en...
een creatief vloerontwerp met desso&ampex
kom je ook 29 sept kijken wie de felbegeerde bniprijs gaat winnen? de beste talenten winnen een
kom je ook 29 sept kijken wie de felbegeerde bniprijs gaat winnen? de beste talenten winnen een
goed nieuws! consument weet vaker te vinden
klinkt goed en nu duimen maar!
al weer je aanvraag bij het stimuleringsfonds afgewezen? kom leren hoe je een aanvraag moet indienen!...
transitions ii tijdens dutch design week een tentoonstelling die de materialen van baars &amp bloemhoff laat...
deze bedrijven maken de studiebeurs als hoofdprijs mogelijk! kom je ook kijken op 29 sept wie de felbegeerde...
brand new bij design post op maandag 26 september staat design post in het teken van kom je ook?
enlightened design ldf 2016 in londen van 2225 sept? check dan deze bijzondere ontwerpers
graag gedaan!
een nieuw opensource textilelab geopend in amsterdam, kom ook experimenteren!
deze bedrijven maken de studiebeurs als hoofdprijs mogelijk!
de feliciteert met haar 100jarig bestaan!
de bni feliciteert gispen met haar 100jarig bestaan!
ben jij in londen binnenkort, of een late citytrip aan het plannen? check dan ook even connecting the dots. zij...
shared spaces – emotion versus rules. verschillende experts delen hun visie op het interieur van de werkomgeving,...
update event abb op 27/28 sept. kom naar de de woonindustrie in en zie de nieuwste technieken en...
wij stellen aan jullie voor de jury van de bniprijs! odette ex eigenaar ex...
uiterste aanmelddatum verlengd naar 19 september voor finest interior awards contract!
overzichtstentoonstelling van in te zien t/m 2 okt.
ga jij ook naar de vakbeurs architect@work check hier het lezingenprogramma thema
verschillende experts delen hun visie op het interieur van de werkomgeving. save the date 26 sept!
ga jij ook naar de vakbeurs architect@work? check hier het lezingenprogramma met thema de beurs is...
update event on 27/28 sept. kom naar de en zie de nieuwste technieken
nog lastminute registreren voor de vakbeurs architect@work? dat kan gratis via onze partners...
nog lastminute registreren voor de vakbeurs architect@work? dat kan gratis via onze partners
nog een interessante 15 sept over
interessante lezing over de a.s donderdag 15 sept 20.00 uur@dezwijger georganiseerd ism
in een wereld die steeds immateriëler wordt, verandert ook het beeld van luxe. diverse vragen over
door een passend ontwerp van een uiteraard!
en nog een mooie vakbeurs voor styling, laatste interieurtrends, en design woonmeubilair bij de woonindustrie...
wilt u geen kantoorpark maar een pretpark? zoek dan hier een interieurarchitect
wat een zonnige dag! vandaag is en natuurlijk
vandaag een heerlijke zonnige dag voor een wandeling met binnenkijken bij waar ben jij...
vandaag een heerlijke zonnige dag voor wandeling met binnenkijken waar ben jij geweest?
en net als vorig jaar, heet presentator martijn van hese u welkom op de bniprijs uitreiking 29 september!
draag jij ook een warm hart toe? word vriend van de bni! voor inspirerende events en nieuws.
draag jij ook een warm hart toe? word vriend van de bni! voor inspirerende events en nieuws.
save the date woensdag 5 oktober de volgende dit keer in het bezoekerscentrum via creandi van in
gratis toegangscode architect@work op 14 en 15 september in rotterdam. thema architectuur en water.
gratis toegangscode architect@work op 14 en 15 september in rotterdam. thema architectuur en water.
save the date woensdag 5 oktober de volgende kennismiddag. dit keer in het bezoekerscentrum leolux via creandi...
laat je inspireren in parijs van 2 tot 6 september gratis toegang voor bnileden! zie
maison&ampobjet 2016 gratis toegang voor bnileden! laat je inspireren in parijs van 2 tot 6 september....
opgelet, de laatste week om projecten in te sturen voor the finest interior award 2016, zie
woensdag 5 okt. houden wij onze hier! tot dan. check
bniprijs 2016 uitreiking in gloednieuwe in 29 sept. wij hebben er zin in!
de bniprijs 2016 zal 29 september uitgereikt worden in de gloednieuwe locatie van het broeinest in zoho...
de namen van de genomineerden en de jury zijn bekend! de bniprijs 2016 zal uitgereikt worden in de gloednieuwe...
stop being beige... help jij ons aan eigenaars van beige vakantiehuizen en bungalows, die inzien dat het zo...
save the date 29 september is de uitreiking van bni prijs voor talentvolle afgestudeerde
flexibel werken en bewegen op kantoor is helemaal in.. maar je kunt ook de tafel aan het werk zetten. zo kun je...
save the date 29 september is de uitreiking van bni prijs voor talentvolle afgestudeerde
interalter heeft weer een nieuwe blog geschreven over het fenomeen zie...
bni is verhuisd! we zijn nu te vinden op de jollemanhof 14 in bij voor nog meer uitwisseling met andere branches!
stuur nu je vernieuwende of mooiste project in voor een van de 7 arc16 awards! deadline is voor 26 augustus.
stuur nu je project in voor de deadline is voor 26 augustus.
schrijf jij graag over interessante interieurs? dan zijn we op zoek naar jou! zie
atelier joep van lieshout zoekt stagiaires. iets voor jou? check site! hierbij de omschrijving wil jij een...
zet alvast in je agenda de woonbeurs van 27 sept t/m 2 okt.
prints in interieurs zijn hot! 29 september as geeft prints van oranje een workshop met diverse teken en...
een eenmalige gastblog mag ook. maar we zullen kijken naar eerlijke voordelen voor de bloggers! mvg bni
schrijf jij graag over interessante interieurs? dan zijn we op zoek naar jou!
ben jij die gepassioneerde interieurarchitect/ontwerper die graag schrijft en vertelt over interessante projecten...
onderzoek uva pleit voor behoud wettelijke titelbescherming interieurarchitecten! wat...
onderzoek uva pleit voor behoud wettelijke titelbescherming interieurarchitecten!
bni heeft nu ook een instagram account! volg ons voor mooie en meer. zie
gefeliciteerd met je nominatie voor de bniprijs suzanne de jong!
ben jij interieurarchitect en ingeschreven in het graag vragen we je deze enquete in te vullen
op 30 juni lanceert haar nieuwe collectie, world woven, in broeinest. interface toont alle ins en outs...
6 juli is er over in met bekendmaking winnaars beste ontwerp
ben jij interieurarchitect en ingeschreven in het architectenregister? graag vragen we je deze enquete even in te...
er zijn nog plekken vrij voor morgen! met lezing door zie tot ziens in
tot 24 juni kunnen hun particuliere projecten inzenden voor the finest interior award 2016
wat heb jij geleerd uit de crisis? stuur jouw ervaring in voor de
heb je een aanstaande student? 5 tips voor inrichten van studentenkamer door interieurarchitect
is jouw zoon/dochter of jijzelf geslaagd? gefeliciteerd! doret schulkes geeft interieuradvies voor een fijne...
opblaasbare hotelkamer van inter/alter is geselecteerd opdracht van en land van kalk.
dit weekend is het dag van de architectuur. ontdek het belang van architectuur
interieurarchitecten kunnen weer deelnemen aan the finest interior award 2016 in duitsland. voor bnileden gratis
23 juni is er met lezing van in de door oa
ism is er 22 juni weer een bnikennismiddag! kom je ook naar voor
wij feliciteren met het winnen van de bouwaward! in de categorie langdurige zorg
bnilid interalter interiorarchitects is geselecteerd met hun ontwerp voor een opblaasbare hotelkamer. opdracht...
wat een mooi beeld. succes met de verdere uitvoering!
klinkt goed! veel succes met de organisatie en promotie gewenst
textielevent op donderdag 9 juni a.s. van 12.0017.00 uur bij co van der horst
resultaten en toekomstplannen bij de algemene ledenvergadering van de bni bij design district
bni prijs 2016 zoekt wpsitebouwer. ben jij bekend met wordpress en zou je willen helpen de site voor de...
aanstaand weekend in maastricht!
aanstaande donderdag, zeer interessante dpa talk!...
wel of geen kwaliteitsborger, wat vind jij? en moet dit ook bij interieurarchitectuur worden toegepast?...
nederland was goed vertegenwoordigd in milaan! wat was jouw favoriete onderdeel van vorige week?
uitnodiging dpa. ben erbij!!...
deelnemers, bedankt voor de geweldige kennismiddag!
happy winnaar van de tierrafino fotowedstrijd 2016. peter dautzenberg overhandigt de juryprijs aan armin ardi...
liefde voor werk in blijde verwachting van de nieuwe trends 2017/2018
de discussie van het moment ethics&ampprivacy. volg ook de laatste ontwikkelingen op het gebied van internet of...