max verstappen wat een held!!!!!
proficiat burgemeester met je voordracht tot burgemeester van zonde voor hadm maar top voor
ton, dank voor al je inzet voor zoveel mensen in horst! mag trots zijn op zon succesvolle voorzit…
en nog een sportieve topprestatie vandaagthijs pauwels uit sevenum voltooid 3,8km zwemmen,180km fiets…
van harte gefeliciteerd en natuurlijk speciaal onze eigen met de dikverdiende europ…
start van 2 verduurzamingsprojecten renovatie huurwoningen en ingebruikname zonnepanelen bij sp…
mooi voorbeeld van transformatie én zon 40 nieuwe huurwoningen voor horst aan de maas!
eens! goed en belangrijk om samen met ondernemers, overheid en burgers te werken aan reductie van uitstoot en ruimt…
proficiat en collegas met deze prachtige locatie in en
tour de l1mbourg te gast in onze gemeente bij
wat een klasse actie van !! 100 km hardlopen voor !steun hem bij de laatste ronden in horstcentrum
kennismaking met thwan van gennip in lierop. binnenkort start hij met een nieuwe aardbeien tuinbouwbedrijf in…
trots!!!
prachtige opbrengst! top!!!
“@roybouten volgende keer samen maken we er een mooi eendagsevent van. ” goed plan !
bekendmaking van de naam innoveins voor agrotechnisch cluster binnen ! proficiat
initiatiefnemer van rondje nederland is samen met 37 renners binnen na 800km fietsen door nl voor het go…
goed nieuws voor !
huldiging van 7! kampioenschapsteams vandaag!
dank !!!
dank !!
dank !
mooie prestatiealleen mogelijk door samenwerking en gezond boerenverstand!een sterke economie is een belangrijke b…
600 kinderen staan klaar voor de koningsspelen in sevenum!
nieuwe stimuleringsregelingen voor woningmarkt gericht op duurzaamheid, innovatie en doorstroming!…
proficiat heren 1 met jullie kampioenschap!!!!
ontvangt het predikaat wij doen mee van gezondheidsmaker tijdens de sponsorbijeenkomst va…
prachtige ambitie en mooie plannen van in park de peelbergen versterking…
vandaag de officiële opening van de onderzoekslocatie ten behoeve van de boomteeltsector!initiatief w…
mooie uitslag! de grootste in
aanwezig in maastricht v toelichting nieuw initiatief bright cluster agrotech faciliteiten voor…
mooi!we kunnen starten met woningbouw in rvs kerkveld ii mag doorgaan | hallo horst aan de maas
alle prinsen van bij elkaar om samen de vastelaovend te evalueren en een visje te happen!
vanav. een prima discussie avond over het thema intensieve veehouderij met ondernemers, werkgroepen en ra…
veel agribusiness bedrijven uit en noordlimburg op mooi om te zien hoe sterk ons a…
al vroeg onderweg met naar !
bouw van de kompashuurwoningen door in begint al aardig te vorderen! extra woningen in de k…
helemaal eens!
roy was het snelste deze keer leon 😀
2de kerstdag traditioneel de ! hulde aan alle vrijwilligers! mooie route door de kasteelse bossen…
nu nog! succes!
top! stemt in met deelname als aanhouder in doorontwikkeling ! belangrijk voor onze economische positie!
mooie wagen !
vanavond huldiging en kampioenschapsfeest van nederlands kampioenen quadrijden romé, job én stan breukers uit lottu…
uitreiking van de gezondsheidsprikkel door en gezondheidsmaker aan beweging voo…
bekroning masterplan tienrayvandaag opening nieuwe door samenwerking jl en gem…
weer een prachtige dit jaar!
top presentatie en over maatschappelijk convenant en tijd…
opening nieuwe kantoor van en in de proficiat!!
in met aftrap regiovisie én inspirerende inleiding door vrijw…
vanochtend een goed ontbijtoverleg gehad met colleges noordlimburg en het bestuur van ! samen o…
vandaag een brainstormsessie met horster telers van zachtfruit en champignons over kracht en ontwikkelingen in sect…
absoluut! was ook broodnodig maar des te leuker voor de trouwe nl fans die vol hebben gehouden de laatste jaren!
wat een ongelooflijk goede race van !! genieten!!!!!!
mooi nieuws@deltastarnutr gaat zich vestigen op vanav toelichting op deze ontwikkeling en het en…
natuurlijk! idee om eens over door te praten tijdens lltb overleg met college?
vanavond met college, raad en ambtenaren in gesprek met ondernemers van !goede gesprekken en samen werke…
vandaag officiële opening van nieuwbouw ! belangrijke volgende stap in ontwikkeling van dit prachtige h…
mooie plek op ranking, maar nog verbetering mogelijk dus!
bouw van tijdelijke huurwoningen door in volle gang! mooi dat ons 1ste pilotproject voor meer huurwonin…
dank elly! zeker interessant, voor mij nog onbekend maar ik ga er naar kijken!
vanavond ook de installatie van ons kersverse meerlos raadslid henk peters! welkom bij team henk!
fractievoorzitter sp neemt afscheid van ! zonde, want met vertrek anthony verliezen we ee…
ons tweede kamerlid geeft een toelichting op zijn hernieuwende kandidatuur aan de leden van…
trots dat onze economische samenwerking binnen nu gaat leiden tot bouw v warehouse door v…
op werkbezoek bij aardbeienbedrijf van een gepassioneerde jonge ondernemer! de aardbeien ga…
vandaag ondertekening van het uitvoeringscontract gebiedsontwikkeling samen werken aan waterveiligh…
klasse en !een hele mooie opbrengst voor ! daardoor kunnen weer heel vee…
zijn erbij!
interessant bezoek aan met ondernemers uit en op uitnodiging van
vanav opening boksschool energetic training v willeke verdellen in horst met mooie woorden van zilveren medaille…
druk bezocht wielercafé vanavond in met en !
zet seinen voor glasvezel voor het buitengebied op groen, op naar de laatste wissel verdere uitwerk…
gefeliciteerd en ! prachtige nieuwe locatie!
proficiat! derby overwinning smaakt altijd extra goed!
top!onderstreept belang snel internet in buitengebied! in staan we aan vooravond van realisatie!
proficiat! een verfrissende en sprankelende nieuwe naam!
dank voor al je inzet en heel veel succes henk peters in !!
erg interessante introductie van eerste sustainer homes modular, een volledig zelfvoorzienende woning off the grid
mooie toevoeging aan jaarlijks western weekend davy crockett reenactmentgroep de 6th alabama volunteer corps
interessante bedrijfsbezoeken vandaag bij en swinkels zachtfruit ondernemers om trots op te zijn!
goede ontwikkeling in welkom zorgaanbieder psw!
complimenten aan organisatie en alle vrijwilligers die v rozenfestival een prachtig evenement maken
heeft sinds kort een eerste nieuwe en duurzame melkgeitenhouderijde roozehoeve in lottum!
dag charlotte, ik ga er vanuit dat het een woonstudio betreft,maar daar kan meer duidelijkheid over geven! anders dm
vanav. en woe 27 juli organiseren we een inloopavond over het bestemmingsplan buitengebied!heeft u vragen loop gerust binnen tussen 1821uur
wat een leuk evenement veras vettige vijf 5 km modderen en survivallen vo
alle deelnemers uit die mee doen aan 4daagse worden toegesproken door en
vandaag verschillende agrarische bedrijven bezocht.ondernemers die een ding delenpassie voor het vak en hun product
in werken ze echt samen aan één toekomstbestendige accommodatie!
top!@raadhadm stemt in met woningbouwlocaties en tot stand gekomen mèt inwoners#bouwennaarbehoefte
geen club is te min voor de kampioen van nederland om tegen te oefenen beste roy!
vanavond hebben we alle deelnemers uit die mee hebben gedaan de gehuldigd!
gefeliciteerd ! en op mooie posities in !
kracht tussen lokale fracties over actuele onderw
goed nieuws ! en nu samen bouwen aan een krachtige !
interessant. ben benieuwd!
lancering brighttree projecten innovatieve projecten door boomkwekerijen, en
deze brief is vandaag namens waterschap en 13 limburgse gemeenten aangeboden aan staatssecretaris
gevolgen voor bedrijven in periferie zoals loonwerkers, handelaren etc. gemeente is luisterend oor en ondersteund daar waar het kan
nog geen totaal overzicht, we inventariseren.wel duidelijk dat schade vaak pas later zichtbaar wordt ivm rot van wortels. ook...
overmatige regenval zorgt voor grote schade aan gewassen, niet eens altijd direct te zien!drama voor onze agrariërs
gisteren heeft unaniem ingestemd met principeakkoord doorontwikkeling developmentcompany greenportvenlo
stemt unaniem in met masterplan wonen!een ambitieuze stip op de horizon waarmee we graag aan de slag gaan!
huldiging bekerwinnaar heren 1 en tevens een groot dankwoord aan alle vrijwilligers!
7 agrarische bedrijven aan de zeesweg openen hun deuren beleef de zeesweg! leuk voor jong en oud!
complimenten aan ! top georganiseerd volleybaltoernooi!
mooi, dan spreken we elkaar snel!!
ga er graag met je over in gesprek! er zitten veel kansen voor jongeren in deze woonvisie! koffie?
vanav.worden raden, provinciale staten en colleges bijgepraat door over ontwikkelingen
kampioenschapsreceptie 1 en 3! top prestaties van beide teams dit jaar!
goed initiatief v poultry expertice centerbijeenkomst voor pluimveegemeentes en provincies om krachten te bundelen
vandaag gehele dag bekerfinales volleybal georganiseerd door topsportief visitekaartje!
mooi plaatje! in het najaar ook in !
belangrijke mijlpaal in realiseren van hoogwater beveiliging ! proficiat!
met op bezoek bij blauwe bessen bedrijven in heeft véél potentie volgens
dan uiteraard van harte gefeliciteerd met je verjaardag els!
jaaaaaaaaa! heel dik verdiend deze!!!
samen met de fanclub op bezoek bij wedstrijd tegen !
opening 500 jongeren strijden om de meest begeerde titel van !!
nog niet eva, maar staat hoog!!
dat zou mooi zijn!
nieuwe rozenkoningin, viering 10jarig jubileum en tekenen partnership
opening hospice doevenbos horst bewondering voor doorzettingsvermogen initiatiefnemers!aanwinst voor
prachtig !!!! winnnaar !!!!!
dank aan alle vrijwilligers van deelnemers,centrum vol binnen 2 jr n top evenement neergezet!
we laten geen kans onbenut 😀
goed bezig, tot zo
opening van sportwinkel door veel succes in
helaas gilbert! namens is aanwezig! dag staat in teken van en
heel trots dat we vanav. met bekend hebben gemaakt dat er 12 kompaswoningen in america gebouwd gaan worden!
een middag op bedrijfsbezoeken in met collega bij en
succes vandaag!!!!!!
en ook een sportief dansende ? 😀
en terwijl sportief bezig is loopt in het gasthoes een voorstelling over
zeker weer een geslaagde editie!
sportweek dag 2 tour met verenigingsbesturen naar ,@hadm2025 en !
geslaagde opening sportweek hadm ! dank aan alle verenigingen, vrijwilligers en bedrijven die hebben meegewerkt!
zometeen om 1300uur opening van de sportweek ! een hele week in teken van sport en bewegen!
geslaagd netwerkdiner amuse door en met inspirerende spreker
prachtig nk motorcross op de reulsberg georganiseerd door jubilerende vereniging40jr mcc de streekrijders
top
principe akkoord om te komen tot één sterk grondbedrijf voor met flinke horster inbreng 66ha !
vanmiddag een werkbezoek gebracht aan van marc en nicole. een prachtig modern tuinbouwbedrijf!!!
heel veel succes isabel!
heropening van familiebedrijf ! een prachtig resultaat en een modezaak waar we trots op mogen zijn!
proficiat voetbalvereniging en korfbalvereniging met jullie fusievereniging
opening kom in de kas! tuinders stellen hun bedrijven vandaag open voor het publiek!
presentatie plannen berkele heem 43 appartementen voor
boeiende en goed bezochte avond!veel betrokkenheid van onze lokale ondernemers!van groot belang v
een zeer goed bezochte avond! veel betrokkenheid van onze lokale ondernemers bij !!
goed bezig huub van en ! druk bezochte clinic voor basisschoolkinderen tvo
en weer een prachtige editie van de !!een evenement om trots op te zijn! dank aan alle vrijwilligers!
oplevering appartementencomplex prachtig! markeert doorontwikkeling nieuwbouwplan meterikse veld!
positieve berichten over woningmarkt méér woningen verkocht en ook de kavelverkoop zit in de lift!
met ook en namens mee op handelsmissie!
vanavond overleg sportwethouders met een kennismaking met , gezondheidsmaker gezondste regio 2025
nog 8 minuten! kom op !!!! tijd voor het beslissende doelpunt!
in rotterdam met supporters en om aan te moedigen!!
en inmiddels ook een toezeggingen van en om mee te doen aan het !
goed debat in raad over prestatieafspraken 68 woningen worden energieneutraal gemaakt!
prins ted maakt gebruik van sprekersrecht en predikt 11 vastelaovend wijsheden
grote drukte tijdens blauwe bessendag in belangrijke sector met potentie voor onze regio
avond bedrijfsbezoek aan boortoren in tuinbouwgebied californië met
proficiat ! een prachtige opening vanavond door en !
kijk, dat is mooi!!
vandaag een heerlijke gelopen! complimenten aan organisatie en vrijwilligers! hardloopsport leeft !!!
mooie stap in ontwikkeling van de campus!goed verhaal over verbinding met boomteeltsec
bedankt ramon!!! de regio verliest een top wethouder! heel veel succes in de toekomst!
deze woningen worden juist voor een langere periode minimaal 15jaar in de dorpskern gebouwd!
wow,97 medewerkers doen mee aan trainingsprogramma prachtig voorbeeld van
inspirerende startbijeenkomst van de beweging ! succes als gezondheidsmaker
mooie jeugdopleiding, maar er kan er maar één bovenaan staan!
zojuist met college bezoek gebracht aan ! tijdelijk huurconcept begint steeds meer vorm krijgen!
interessante kennismaking met uit nujeugdtrainer bij ajax!talentontwikking op hoog niveau
druk bezochte infoochtend over trainingsprogramma ! sportief evenement wat leeft!#sportaandemaas
vandaag opening ! prachtige nieuwe eetgelegenheid voor hadm en ver daarbuiten!
stuur me via dm je mailadres, dan ga ik achter een mail met info aan!
zeer verheugd met de volgende stap in masterplan ontwikkeling van de nieuwe supermarkt op een betere plek!
fusie om te komen tot een sterkere vereniging, mèt een bijzonder randje een limburgsbrabantse voetbalclub!
winnaars van eef en luc zojuist onderscheiden door burgemeester
vanmorgen al vroeg op de fiets op initiatief van imke emonts en voor n voor goede doel
zeer geslaagd congres van het insect protein innovation platform in over kansen insectenteelt!
vanavond onze welkom mogen heten in we zijn trots om ze te mogen ontvangen!!!
we zijn trots dat we de in mogen verwelkomen !!!
na zeer geslaagde zittingsavond bij dun ezelkop in serum gisteren, vanavond pronkzitting van !
start van pilotproject beweegdiploma voor peuters! initiatief van turnvereniging en kinderopvang t nest
jazeker ingrid, 1ste gezondheidscafé op 18 februari! info volgt!
interessant werkbezoek aan en in het kader van de gezondste regio 2025
proficiat zomerprins dirk 1 en adjudanten coen en noud
! prins ted zijn prinses marian en adjudanten rob geurts en leon litjens!
interessante nieuwjaarsreceptie met lezing !
mooie traditie op 2de kerstdag de in kasteelse bossen! wederom veel lopers!dank aan alle vrijwilligers!
burgemeester voorgedragen door vertrouwenscommissie voor een nieuw ambtstermijn in !
goed nieuws! we trekken graag samen met op!!
prima netwerkbijeenkomst bij ! met uitreiking van de verbinding aan oa baas van hadm
trots op dit resultaat!toevoeging van semipermanente huurwoningen in meterik!huur in onze kleine kernen!
werkbezoek van 2de kamerleden aan om te praten over huur in kleine kernen
winnaar lodewijk van der grinten prijs 2015 is bas research &amp technology !
mooie reacties over ! en dat nog vóór de officiële opening!
een mooie derby! succes en !
helemaal eens josine!!
begrijpelijke zorgen sportclubs over toekomst!daarom is samenwerking tussen verenigingen zo ontzettend belangrijk!
gefeliciteerd en medewerkers!
vandaag op uitnodiging van op bezoek in spreken over huurwoningen en spoorwegovergang horstsevenum !
interessante bijeenkomst van met verschillende partners om te komen tot een sportvisie
start van een nieuwe beweging in noordlimburg gezondste regio van europa
ondernemersprijs horst aan de maas van start in een uitverkocht huis!
rondgang langs woningbouwprojecten in horst brengt ons bij de afhang maar ook bij nieuwe appartementen v
vanavond te gast bij horst a/d maas!goede zaak dat kwekers elkaar ontmoeten om kennis te delen!
proficiat met je voordracht/benoeming tot voorzitter van stichting ! een eervolle en mooie taak!
nu al een prachtig feest
bijlage in krant van gaat over gezond ondenemen!sterk thema wat heel goed past bij
heel goed en !
oplevering starterswoningen krijgt plek om te wonen!belangrijk v
overleg m corporaties, wethouders over huisvesten v statushouders!inzetruimte v zowel lokaal woningzoekenden als statushouders
vanavond wordt geïnstalleerd als raadslid in ! mooi aandeel jonge raadsleden in !
sterke regio gedachte erik
aftrap bij van met !
ook echte promotie en goedvoor lokale economie!aantal bezoekers overnachten heel weekend in
wat is een leuk wk!samen met startschot gegeven!120 teams uit heel het buitenland
vanav. infoavond over nieuwbouw plan 90 aanwezigen bijgepraat met
gefeliciteerd! in !
kan de deze sportieve zondag nóg mooier worden ? lets hope so!!!
heerlijke loop over venrayse singels!compliment aan mag sportweth. trots op zijn!
tot morgen!
volgende week weer het leukste wk in !@wkbokkenollen in !
mooi nieuws voor en / ! onderwijsfunctie blijft behouden voor de regio!
gefeliciteerd met jullie voorgenomen fusie!samen klaar voor de toekomst
ondertekening samenwerking en !sport verbindt en motiveert mensen!!
top en en bedrijven uit en ontmoeten elkaar!
in overleg met collegas over sportieve kansen! namens gesproken over
interessant bezoek aan gebracht en gesproken over jongeren werkzaam in glastuinbouw
woonavond in door een plan voor de bouw van 8 sociale huurwoningen
leuk gesprek gehad met org. loopevent op 2de kerstdag! weer zon leuk sportevenement in onze regio!
nieuwe appartementen in horst krijgen steeds meer vorm!
opening in door ! innovatieve noordlimburgse bedrijven presenteren zich!
pure promotie! wat een prachtig goed bezocht evenement dit weekend! daar mogen we trots op zijn!
en ook is aanwezig met turnvereniging en energetic bokstraining!! sport als verbinder
mooi initiatief van horster land in teken van het belang van arbeidsmigranten! over integratie en kennismakingen!
opening internationaal e toernooi en een sportevenement om trots op te zijn!#sportaandemaas
zojuist een afvaardiging van kosovaarse overheid en blauwe bessentelers ontvangen. bezoek in kader van kennisdeling!
met op bezoek op fort mountain lane in voor western weekend !
horst centrum ontwaakt op deze mooie zaterdagochtend!
de limburgse kampioenschappen van freek,@elianpoels en fleur onderstrepen onze hippische ambities!proficiat!#trots
vandaag op bezoek bij de boomkwekerij van familie muysers. lottumse coniferen worden in heel duitsland verkocht !
oplossingen voor hengelsportverenigingen meerlo,lottum en broekhuizenvorst!de laatste 2 gaan intensiever samenwerken!
mooie huldiging gehad van onze tourheld ! hele regio is trots, een inspirator voor jong en oud!
veel succes dominique bij !!!
proficiat en toeristisch met deze nieuwe mijlpaal!!
voor dag en dauw eerst een heerlijke run in de met !!
interessante avond met 25 jongeren uit voldoende vraag om na te denken over creatieve woonoplossingen
ja, bestemmingsplan zit eind van dit jaar in de raad. dan ruimte voor woningbouw!
vanavond op uitnodiging van jongeren in in gesprek met elkaar over het thema ! 1930uur locatie kjem
absoluut een goede band! gaan we nog veel van horen!!
top optreden van op
afsluiting korfbaldagen 120 kinderen drie dagen lang samen sportief bezig !
ook in arcen staat de weg naar aangegeven!
vandaag op bezoek bij een tweetal agrarische bedrijven blauwe bessen teler handje gezond in america en boomkwekerij breukers in lottum!
ontzettend genoten vandaag van en ! topprestatie! had de etappe kunnen winnen!!!
bouwen naar behoefte volgens de horster maat, samen mèt het dorp!
heel goed !!!
blauwe bessen teelt is een belangrijke economische pijler in zowel als
kansen voor de agrarische sector in en versterking campus !!
bijeenkomst voor paardensportverenigingen in gesprek over hoe we de hippische zone kunnen versterken
vanavond speelt tegen op de velden van ! mooi voorbeeld van samenwerken!!
vandaag bedrijfsbezoeken bij telersvereniging fossa eugenia en plantenkwekerij !
preview nieuwe belevingswinkel ! morgen officiële opening! aanwinst voor !
provinciale bijeenkomst over sportbeleid olv samen met sportverenigingen, bonden, sporters en besturen!
na gisteren een avond in over dorpsontwikkelingen, vanavond een prima avond gehad met dorpsraad over thema wonen !
interessant! past prima bij !
donderdag andere verplichtingen hans, helaas!!
prachtig weer om de dag te starten met een uurtje hardlopen met in
complimenten aan voor organisatie met zon 400 deelnemers ri. markt!
in gesprek met inwoners, verenigingen en organisaties over de toekomst van accommodaties
met ondernemende jongeren gaan we op zoek naar wat belangrijk is bij wonen en werkenin op bezoekbij ondernemer
mooie actie van onze horster en
realisatie bedrijventerrein klaver 6a is onderdeel van klavertje 4 gebied in venlo en hadm en is uitbreiding van tradeportwest
unaniem door raad vastgesteld!meer ruimte voor bedrijvigheid in morgen tvenlose deel in
een zeer interessant bedrijfsbezoek !! een krachtige speler binnen
goed overleg gehad met college b&ampw over onze regio en gezamenlijke speerpunten!
vanochtend goed overleg ezwethouders gehad, zometeen bezoek aan college b&ampw venlo en vanmiddag collegebezoek aan bedrijf
bonte stoet door de straten van afsluiting met zon 1100 deelnemers!
complimenten en voor toporganisatie !!! weer erg goed!!
proficiat coöperatie zon fruit &amp vegetables met predicaat koninklijk !
te gast in v bijeenkomst euregio rheinmaasnord met oa en presentatie over
gefeliciteerd met wkdebuut!1ste horster voetbalster actief op een wk
ontzettend leuk en goed initiatief , alles wat onze tuinders en boeren te bieden hebben!
receptie , derde promotie in drie jaar! op naar de 3de klasse!!
met topfitte ondernemers de gouden stoel aangeboden aan en
mooi! welkom in !
vanmiddag bijdrage mogen leveren aan minisymposium over blauwe bessen en gezondheid en tevens opening driesvenplant!
succes alle sporters, vrijwilligers en met ruiterfestijn !!
kapotte bus dan mag je van geluk spreken dat we op bezoek zijn op een boerenbedrijf
op bezoek bij stierenhouderij van familie kroes!duurzame megastal int groen met eigen voedsel en energieproductie
vanavond als spreker te gast bij ondernemersnetwerk onderwerp economische ontwikkelingen regio venlo
vanavond worden de gemeenteraden van noordlimburg bijgepraat over het plan van aanpak
prachtig weer hoe de ontknoping in de in beeld weet te brengen !
bouwen in ! ruimte voor starterswoningen in !!
winnaar baas van horst aan de maas! wat een prachtig nieuw initiatief in !