2 kinderen dood
zit tien minuten te kijken, verbijt me nu al! waarom bellen met je eigen telefoon als je een go hebt gekregen???!…
wie heb je in de office sweep stake?
we zitten er middenin, gekkenhuis! inclusief mooie lichtshow!
twente had bij de 32, 9 mensen terug tegen 5 van psv. me dunkt dat je er twee kunt missen dan.
cheers!
misschien heb ik het gemist hoor rik, dan mijn excuses daarvoor en ontvang ik graag het antwoord nog. m…
grossierde in balverlies, hoogst persoonlijk verantwoordelijk voor de 01. zal in de televaag dus wel een 7…
8
boehoehoehoehoe.....deze reacties zijn de mooiste en maken het weekend perfect! kusje
ole ole ole 12😂
door...20 maken! niet rustig achterover gaan leunen aub! winnen!
zo dat is lekker wakker worden....come on psv!
en dan staat er ook echt een enorme lul met security achterop
ik heb vrienden wonen op phillip island die daar ook n vakantiehuisje hebben. ik kan die vragen m…
oooo ao! geweldig. heerlijke vibe op melbourne park! tip spendeer tijd buiten de stadions en bij…
ouders hebben 2 jaar geleden dezelfde route gedaan en zweren bij
heel snel een nieuw college van aub !
o en het eerste 🍺 in surfers paradise is van mij!
ik ga hier wel even navraag doen guus. en wil best voor je contact leggen. ik kom bij je terug.
melbourne sydney en canberra is een verschrikkelijke saaie route. daar ga je geen tijd insteke…
zondag puntje of meer en hij zit stevig in het zadel
wat doet die engnek op de heilige herdgang?
mooi interview met marco! mooi mens en wat ben ik persoonlijk blij dat die transfer in de zomer niet door is gegaa!
y
link?
godver, de 1 na de andere hollywood held valt van zijn voetstuk. eerst spacey, nu jeremy piven.
mooi man, 8 uur op een woensdagochtend
gaan we weer....
en die van schwaab? of over onze verdediging waar het vorige week over ging?
niet de volledige inhoud van het blad vi is op pro terug te vinden ....
daar gaat m’n avondeten
als die gijs van dam het echt geflikt zou hebben op de manier die jbc beschrijft, dan komen er heus nog wel anderen…
kennnen jullie deze nog? zak van sinterklaas melodie “het wijf van van de…
o.a. bij de 04 in de arena toen we elk jaar daar wonnen. “het gras dat is niet echt, is niet echt, i…
na de 100. “o wat is het toch fijn....om voor feyenoord te zijn. elke week weer een jas. wat een bras, wat een bras”
mooi dat weer is begonnen. hopelijk laten ze die domme fouten van vorig jaar er wel uit.
😂
helmond sport verzendkosten betaal ik wel!
fuck man, dan ben je al even weg uit nederland, heb je nog nooit van gehoord en dan ontdek je haar b…
en het mooie is, mevrouw geilt op max verstappen. juist diezelfde max die vor…
toch leuk hoor die , zo zie je weer allerlei nieuwe nederlandse namen flap, venema, reis. dan is til…
5 goals meer tegen dan vorig jaar, waardeloos! 😉😂
volgens het was gözübüyük de beste scheidsrechter van het weekend, zo dan ben je even hard aan het g…
asjeblieft niet. psv al laat op de zondagavond en dan 5 uur eruit voor max!
morgen weer lekker lozano en locadia een 5 in de krant en neres een 9....
je zag er goed uit op tv net thijs! goed om te zien!
deze 3 punten zijn voor büttner....😂
hey , kan je je eigen wel als een echte top boy gedragen op het veld, maar die lozano neukt jou eve…
hoofdrol voor die turk
niks te vertellen dat vitesse, 03 had het moeten staan. maar wat staat het? juist 11....
je had eigenlijk al de wedstrijd beslist moeten hebben 02 en tegen 10 man, kut
ik hoor je niet over de rode kaart van vitesse in de 1e min of de penalty die we hadden moeten hebben?
nu wel een kaart.....natuurlijk. lafaard!
bryan linssen to score staat echt belachelijk hoog bij de bookies, 4.45.
iedereen in queensland hier heeft ooit wel te maken met huidkanker helaas...
hahaha onder leiding van opperneus jjvg vonden de heren en het geen penalty. bij isimat wa…
drie musketiers krijgen geen mandaat van ze rest van nle profclubs. bij het kunstgras gaat het al fout.
onder zijn profiel
nee staat er nog
zijn wiki was aangepast
wie is die idioot op joh? ‘maar de reactie daarna, die is er toch ook’. komt even 85kg op je kuit staa…
wel echt kut met zondag voor de boeg dit
het slaat echt helemaal nergens op inderdaad. gasten zijn kut, presentatie is kut, publiek is kut. ze…
eerste vraag, hoe was het om te debuteren bij ajax? 😂
slordig zo’n spelfout in de naam
pikken jullie dat?
mag ik als man, in deze tijd, nog gewoon even zeggen dat ik in willekeurige volgorde, een ontzette…
wat een geweldige reddingen jasper.... op een training😂🤡
opdat wij niet vergeten....#psv 100 via
ik lees hem gelukkig niet.
waarom hebben wij het hier over eigenlijk? dat neres na 3 lucky assists bijna een eigen rea…
maar kijken die mensen dwdd? volgens mij kijken die om 7 uur utopia, netflix, hart van nederl…
juist en daarom denk ik dat hij dat ook zo bedoelde. omdat hij aanneemt dat iedereen, met een…
dat is zijn letterlijke quote. extreem rechtse sfeer gaat weer over de bvn, niet over de raf/…
we zijn in het begin van de jaren 80. in dui is de raf nog niet zo lang achter de rug. in it…
zo zegt ie het niet. hij zegt letterlijk. 1 van de meest aannemelijk theorien is dat het ext…
volgens mij had ie het over de periode net na raf en rode brigade en alleen de bvn extreem rechts motief.
hopelijk zijn de fouten van vorige keer er uit
is dit wat ?
totdat die idioten dalijk weer voor mi amigo gaan kiezen 😂
leuk weer tegen de kleintjes, in top wedstrijden zie je hem nooit. net peter bosz.
heeft de kuip een verbod op het ondersteunen van de eigen ploeg? in elke zin komt het woordje “joden” voor....😂
heerlijk!
vlug 20 maken, wedstrijd uitspelen en in de leunstoel....#psvher
wat een klasse goal....#psvher
hoe weet je dat?
gefeliciteerd! mooie job, ik hoop dat je het heel goed gaat doen!
jezus, laten we gewoon eerst winnen! iedereen heeft het echt alleen maar over monsterscores, uitlopen…
come on psv! kan een heerlijke zondagavond worden!
schitterende vent die , maar die laatste column slaat echt nergens op. ik ging toen ik 5 was al naar ps…
hier heb je mr. pessimist weer ben ik de enige psver die het idee heeft dat heracles wel even als tussendoortje wordt gezien??
langer in de bull, das mooi, want dan moet ie wel de garantie hebben gekregen dat ie volgend jaar een kampioenswaardige auto krijgt!
maar dan wel zelf protonmail onveilig als wat gebruiken hahaha
slimme keuze max...#nieuwemotor
laat ik duidelijk zijn, ik vind dat niemand moslims toen niet, mannen nu niet zich massaal moet uitspreken, prote…
toen moslims vorige zomer terreur zaaiden en er werd geopperd dat alle moslims een standpunt moesten innemen en zic…
zijn heel veel streams te vinden. of download vpn en kijk via je ziggo/horizon account
en ze hebben nu de pl rechten niet meer, dus snachts en zondagavond alle ruimte.
mwah ik vind het wel vreemd. murdoch australiër koopt eerst met zijn fox sports de rechten en weigert d…
nee, zenden hier niets uit. fox sports heeft de rechten maar zendt het niet uit.
nee kijk alles, incl oefen haha
sjoerd, ik zit net neddui 1988 terug te kijken, ik zie bij de pingel van duitsland dat een nler de b…
er komen nog een aantal verschrikkelijke tijden aan , maar goed inmiddels er wel aan gewend. en met de…
heee , geef die eens heel vlug een salarisverhoging. wederom een prima stuk, dit keer over…
vind deze nieuwe opzet van echt helemaal niets aan. de opdrachten zijn ook niet zoals we gewend zijn. wa…
ik heb zelfs vernomen bij dat alle mannen hier openbaar afstand van moeten doen! doen moslims dat…
ik zie en lees dat feyenoord weer fantastisch, ongeëvenaard, van een andere planeet, helemaal geweldig, gevoetbald heeft. 0 uit 3 😂
ik denk dat we het maar moeten voorleggen, die gooien het wel weer door de vertaalma…
maar daarbij, grappen over psv van jou kan ik wel waarderen. van andere ajacieden minder. dus het…
😂 had ook eigenlijk qua sfeer ipv support aantallen zijn we er nog niet moeten zeggen.
lekker nieuws! geweldig man!
ik kan grappen over psv van een mede psver ook makkelijker waarderen dan van een andere supporter.…
ik vind die best wel kundig en een relaxte kerel.
sterkte nadia! je komt sterker terug, zeker weten!!!
locadia beste psver, hahaha
hey top man! bedankt! geef hem aan je moeder, neem ik hem na vannacht als ik klaar ben wel mee, cheers!
en dat is blijkbaar in de ogen van een feyenoorder de enige helft die telt? nogmaals a…
zit je dan met je “vrij veel geluk”
natuurlijk zie jij dat anders. zullen we eens naar de objectieve statistieken kijken?
huh? az en feyenoord waren allebei wedstrijden waar je in de eerste helft al met 34 t…
wel ja? noem er eens 2?
als makkelie de bal op de stip had gelegd bij 01 was dat de beslissing geweest
tuurlijk joh
danny gaat dit seizoen weer vrolijk door met ons naaien...#vvvpsv
ongelofelijk
je kan alles terecht zeggen over de sfeer bij thuiswedstrijden in eindhoven. maar qua uitsupport staat in ne…
winnen! hoe interesseert me geen zak
of dat het ze bruin door de broek loopt
peter is een beetje de bas van het nederlandse trainersgilde. leuk en succesvol tegen de kleintjes, moe…
het legioen dat weer eens vroegtijdig de auto’s op zocht en waar de zwollenaren constant boven uit kwamen....…
hahahahahahaha. eindelijk eens een scheidsrechter die niet onder de indruk is van dat tokkie publiek en…
ben ik de enige psver die er niet gerust is op morgen?
wat heeft wilders hier mee te maken?
getekend, 112k
hahaha stoer jochie
ok anonieme keyboard warrior
ongelofelijk die , gevonden, eerste item in de zij kan met een statement de avond op…
meteen aftreden als bestuursvoorzitter en dan jezelf melden bij de de politie. en snel.
yes yes yes!! vanuit australië een welgemeend proficiat, held! dik en dikverdiend!
stil zijn is wat rest..rust zacht meisje
klopt het dat psv bijna 80 contractspelers heeft zoals martin van geel in vi beweerde
vertel eens beste harry, heb je gezopen, gesnoven, geslikt of gespoten? stotterende mevrouw verdraaide…
tweede en tevens laatste kans....
ook alexis sanches en arturo vidal gaan niet naar het wk.
messi staat even op hoor...#ecuarg
je vergeet toch echt
hier gaat het dus mis, niemand zit ook op eenzelfde lijn...
hahaha eerst zelf vanaf minuut 1 tijdrekken. nu 21 achter en australië beschuldigen van tijdrekken?! fuck off syria!
doei!
nog nooit zo’n schijtploeg gezien als syrië. die zijn me een partijtje vervelend zeg....
een verlenging nodig tegen fcking syrië....het is dat die syriërs zo godsgruwelijk irritant zijn en je het hun ook…
wat zijn ze toch aan het doen....#socceroos
wel schandalig slecht dat ze het aftap of sleepwet noemen, terwijl het dat helemaal niet is.
de australische discussie let vooral eens op die poll resultaten!
godverdomme wat een enorme held
cruyff was de beste nle voetballer allertijden, feit. echter, we ajax kliek &amp media moeten eens s…
zou de politie met een horloge bij de dorpsgrens gaan staan?😂
had ook niet anders verwacht....eindhoven de gekste!
klaar voor, go max!
nee, kun je niet zien. leg een bal maar eens over de doellijn, dan kan het zijn dat ie…
andere clubs missen ook nu ook spelers vanwege de internationale wedstrijden mvv, nec bijv. nu h…
vreemd, deze week hoor je de jl clubs niet over die verschrikkelijke ‘jongteams’, want nu met de internationals…
natuurlijk joh
overigens moet ik mijn excuses aanbieden. het betreft cursussen op het allerhoogste n…
dit gaat over jou. als er iets over mij gezegd wordt en daar s…
ja, ik lees net op je website. ik zie in de intro al minstens 3 fouten die een echte e…
dat doe je wel, anders heb je daderkennis en dat lijkt me niet echt slim om dat openba…
bewijst helemaal niets. ze kan andere droge kleding bij zich gehad hebben. we weten…
absoluut, helemaal waar. maar ik vind het niet kies als iemand in het openbaar famili…
nee, je speculeert. een ongeluk is helemaal niet uitgesloten. ze kan bijvoorbeld onder…
aanname dat laatste.
hoezo is een ongeval uitgesloten? was jij er bij?
leuk he dat speculeren....
hoezo? is het al bekend dan dat ze is vermoord? een ongeluk kan toch ook? speculatie heb je niets aan....
jullie zijn helden!
wie zegt dat ze aangevallen is/was?
ik heb het ook niet zo op de persoon die ons de wk titel in ‘74 door de neus geboord heeft...
godver, zelfs hier in gold coast, australië hoor je constant gebonk, natuurlijk weer?!
de hype , ik zie het niet...
haha, dat deed ie perfect! —
inteelt volk daar uit katwijk...
geloof me, spelers als brama behoren bij elke aleague club bij de beste. er zijn uitzonderingen, 1…
mooi stuk! maar echt jammer dat ie naar ccm gaat, graflelijke regio, nie…
middenstip stelen bij andere clubs!
waar zeg ik dat ik me er aan stoor? ik hou alleen van gedegen onderzoek en dat is het niet....
hey pleur eens ff gauw op met je struisvogel gedrag. onbekwaam liegbeest. oprotten!
kan je mij eens uitleggen waarom dat calimero is? is het niet waar dan dat ajax di…
goed onderzoek ook...zie die cijfers van ajax😂
hoe bedoel je ‘spelen’ jasper? jij zit op de bank.
behalve als haar linkse vriendjes het veroorzaken, dan hoor je haar niet.
was toch te verwachten? is altijd met az thuis tegen de top3. lekker aanvallen johnnie. mooie, open wedstrijd is b…
je hoort niemand , , over dat buitenspel geval. frappant...
ja die eikels praten niet, maar slaan meteen. toen bij valencia psv wel gemerkt, met de lat op mijn armen en rug.
ze worden 100 miljoen procent kampioen. want ze hebben de nieuwe van basten, de nieuwe bergkamp, de…
haha even in de break room met zijn tweet. mooi!
niet toch? want ze zeggen net dat alonso op bottas zijn stoeltje aast?
hamilton moet dalijk ook keuze maken of ie risico gaat nemen of zijn plek 2 en dus punten op vettel gaat verdedigen.
voortaan wat eerlijker en actiever op twitter wanneer het minder gaat en jij doet het ook goed. mooie basis om te b…
als die bull heel blijft wint ie hem....#max
vlaar speelt niet
dank dank dank! even vergeten dat de gp nu al is!! cheers
tjeee, lekker hoor! gefeliciteerd man!
wat denk je van az? tegen grote drie in eigen huis altijd vrolijk aanvallen en deksel op de neus krijgen.
ik denk dat het makkelijke overwinningen worden voor onze vrinden. maakt niet uit wij hebben gedaan wat we moesten.
wat vindt buckingham palace hier van. ze lijkt wel erg goed he van de achterkant...
als psver moet ik hier om lachen...goeie grap! 😂
scorebordjournalistiek. psv willem ii is al jaren erg lastig voor ons...
complimenten voor het zo uitgebreid naar buiten treden met jaarcijfers. zelfs voor een leek, die…
de laatste! heerlijk! houdoe he!
1023, niet uitverkocht, maar ook geen 950
ik ga pitten, maar als ik morgenvroeg wakker wordt verwacht ik bij één van de mannelijke genomineerde…
ik wil graag een donatie doen aan psv, maar hoef geen kaartje. waar kan ik het beste terecht?
zal wel taakstrafje worden...
ah ok! ja daar kan ik me iets bij voorstellen.
categorie buitenaards dus!
donald snapt niet dat er 1 ding groter is dan de president in dat land en dat is f…
hey rik, prima punten! niet dat locadia hem moet krijgen hoor, maar wanneer krijgt iemand een 10? is dat ooit gebeurd?
hey , blijf eens van die drugs af man, mafklapper.
je zou er bijna om gaan huilen....4 goals en 1 assist 8,5. 17 winnen en maar 1 speler? waar is lozano, arias?
helemaal eens. ik zou als ik dickie was gewoon 3 verdedigers opstellen en verder alleen maar aanvallers. 105 winnen ofzo.
toch zou ik hem ook niet opstellen hoor en is het inderdaad te vroeg, maar de uitleg an sich is te snappen
schaars bijvoorbeeld, of jimmy hebben nu eenmaal aanvallend he! iets meer tijd nodig. die de jong…
ik zeg niet dat ie er bij moet, maar de uitleg zelf van vh is best plausibel aangezien het niet all…
ga aub door! je maakt het zo leuk! als feyenoorder durven te klagen dat anderen voordeel hebben va…
stay strong matthijs
hahahahahaha jij maakt zon overwinning van vandaag en vorige week alleen maar lekkerder. feyeno…
fey had vorige week 1 pingel moeten hebben. niet twee. jullie hadden echter al na 20 minuten met 9…
nee hij viel niet buiten de 16, kijk nog maar eens goed, hij valt binnen de 16. de overtreding sta…
jij kent de regels niet? bij vasthouden gaat het erom waar de overtreding eindigt. terechte pingels dus
ja leg eens uit? ik tel twee terechte pingels vandaag en vorige week zijn we genaaid aangezien ber…
dijks ook zon ligt....
tegenwoordig?? de eerste van dit seizoen...
verte eens? wat voor cadeaus hebben we in de afgelopen twee wedstrijden gekregen?
en iedereen, inclusief mijzelf, riep na heerenveen uit cocu rot op en kijk nu eens...
de eerste vraag, de allereerste vraag van toine aan bruggink geflatteerd? positief na zon wedstrijd lukt gewoon niet he...#utrpsv
zou locadia van onze weddenschap op de hoogte zijn?😉
het is locadia, en met zulke stats 4 assists en 2 goals in 6 wedstrijden, mag ie van mij nog 10x buitenspel staan...
4e assist + 2 goals in 6 wedstrijden,
met deze scheids wel, blom een ander verhaal
kijken of we zo slim zijn nu om die klaiber 1000x op te gaan zoeken nu...
gewoon een terechte maat. waarom iemand zo beetpakken??
het ligt gewoon helemaal open achterin, ook met 5 man....🙁
goed om te horen dat weer aan het werk is! mooi nieuws op een mooie vrijdag!
zoet, brenet isimat luckassen paal, rigo ramselaar van ginkel, bergwijn locadia pereiro. zoiets?
ik merk het ja, droeftoeter
prima, maar ga anderen dan niet de les lezen over hun schrijfvaardigheid, clown!
zegt de meneer die i.p.v. middelvinger, middenvelder schrijft! 😂🤡
deal! ik kom in mei bij je terug!
hoi , een vaatje bier/goede fles wijn dat locadia dit seizoen 20+ goals gaat maken in…
3 uurtjes geslapen na de wedstrijd tot de wekker weer ging. uit bed stappen was een eitje! geweldig resultaat!
vertel eens, waarom was kuipers een thuisfluiter? je zegt het al, hij matste fey, berghuis had er al af gemoeten.
rood. kijk waar de bal is en waar hij de jong raakt, dat is een paar meter verschil.
lekker! goed gedaan over die tweede helft zullen we het niet meer hebben!
want? berghuis had er al 20 minuten eerder af gemoeten!
hahaha, je hebt mensen met het iq van een visstick en mensen die daar nog onder zitten...
vlug die 20 maken dan is het klaar en kan dat schoppend tuig jankend de bus weer in...#psvfey
het is gewoon een lafaard. durft geen stelling te nemen omdat ie bang is voor dat tuig.…
22e. minuut en je hoort voor het eerst dat er feyenoorders zijn. legioen is een mythe....#psvfey
spreek je dan ook eens uit lafaard , zuiver rood
cheers!
hoe laat en op welke fox zender begint de voorbeschouwing???
100% kans op regen! alles aanwezig voor een epische race! kom op
ik blijf fan van fred rutten. in nederland geen betere veldtrainer te vinden...#dtvk
laat het dan ook godverdomme zien he!!! vanaf minuut 1!!
hmm, ik wel, wel met 50 miljard en een nucleaire bunker met alle voorzieningen.
rood man, weet je alle sportuitslagen, verdien je nog meer + je hebt je hele leven nog voor je!
god, wat zou een overtuigende 30 morgen lekker zijn!
nu is het echt helemaal te hopen dat die bull heel blijft...dan kan het een hele mooie zon…
wat een paard! 20 x winst op een rij en voor de zoveelste keer winnen vanaf de achterste rij. wat een legende!
heerlijk, pierre en ronald worden een paar keer voor lul gezet door gij…
de thuisfans hopen zondag op de volle inzet van het team. 100% inzet kan het verschil maken.
de tyfus voor jullie , bloedhonden
hebben ze die ook in onze maat, maat?😉
kate, tim &amp marty. australische radio show. lekker luisteraars bashen en geweldige australische humor!
bedankt rik voor het goede verslag!
schei eens uit met die supporters zijn dom mentaliteit. waar is die commercieel directeur, rugspon…
hoi , in je mooie voorbeschouwing van feyenoord man city zeg je dat jørgensen ook psv gaat missen, is dit al zeker? cheers!
vanuit australië heel veel sterkte gewenst kerel. voor jou en je lieve vrouw! koppie hoog!
niet als de tuchtcommissie hem vrijspreekt donderdag.
nee man. winnen in de cl tegen een club met 1000x meer geld is zo mooi man. dat gevoel is machtig…
vraag is of ie het naar dumfries doet en ie hem raakt...niet dat ie spuugt.
kampioenenmaker pur sang
prima stuk inderdaad! er is iets gebeurd met rik, hij schrijft kritisch wanneer het moe…
even deze week het vlees laten controleren
geen zorgen kerel, ook met kramer winnen jullie zondag.
hoe kan cocu vooraf roepen dat ie ze gemotiveerd heeft en ze er vanaf minuut vol op zullen klappen? 20 na 5 minuten....
en dan vooraf cocu nog oreren bij jan joost en bruggink dat ie ze gemotiveerd heeft en vanaf minuut 1…
ik heb het een paar keer terug gezien en ik vind het nog steeds rood. tackle over…
je kent de tuchtcommissie mbt psv, 4 wv 1 voorwaardelijk. geen mogelijkheid tot beroep o…
klopt, geen pingel
iedereen nog wel ja? of zijn dat toevallig alleen subjectieve psv supporters? ik zie verder weinig m…
doet dat er toe dat ie de man niet raakt of uitglijdt? hij zet zijn voet over de bal, ni…
aandacht verlegen heet zoiets, om het vooral niet over het waardeloze aankoopbeleid te hoeven hebben....…
ja dat kan je toch niet vergelijken man? twee verschillende situaties, scheidsrechters, noem het maar op...
geef toon en marcel en philip maar een rode kaart....
haha kijk nog maar eens 16x dan...roder krijg je ze niet...
mist ie sws. dit is 3 wedstrijden...
1000% rood, gefrustreerde lozano omdat ie even daarvoor geen vrije trap mee kreeg. dag feyenoord thuis, dag utrecht uit....
ja dat zijn er van blom wel gewend in heerenveen