echt extreem veel. en toen florenzi net terug was ging het weer mis. is dat pech of gaat er iets niet goed bij de medische staf?
frank snoeks wijt zelfs de goal van witrusland aan het te laat inbrengen van bas dost.
wanneer potje ik heb het idee dat ik dit jaar esporter ga worden
haha ja ze hebben er minimaal 8 van gemaakt ofzo
pls kom op doe iig ff alsof je je best doet
echt niet te geloven
haha weet niet of hij hierop reageert
govvedomme thom jij riskeert je leven wel de afgelopen tijd
dikke kans dat douglas santos dus al een tandarts heeft uitgezocht en in de ikea in eindhoven is gewees…
het is de laatste week van de transferperiode maar het forum van is nog steeds gesloten. hoe nu verder met mn leven?
is een advies vanwege veiligheid, niemand wordt iets verplicht. en het heeft niks met genderneutraliteit te maken.
die stagiairs ook altijd hè!!!
psv o19
hoe langer je de bal hebt, hoe meer passes je kan geven. per tijd aan de bal zou je dus e…
deze conclusie kan je toch niet trekken? de mannen hadden in hun wedstrijden 6% meer bbz…
dus lees vooral dit
word zo moe van de telegraaf altijd. revolutie in het voetbal en voetbalwereld op zijn kop maar waarom ze dat vinden staat nergens.
de telegraaf vs pro.
als gezicht van de psv foundation fun run kan ik natuurlijk niet ontbreken dus deze jongen is er ook bij hoor
wij gaan de 14e terug vanuit napels, is het nog nodig? 😁
toch hebben we je gemist op het fhj voetbaltoernooi
niceeee
maar een carrousel gaat toch juist rond?
haha dat weet ik wel zeker ja
dit was ook niet de eerste dat je deze hebt gedaan 😉
as roma heeft nu zelfs een officieel nederlandstalig twitteraccount 😍
oh nee was niet de bedoeling ik kijk met open vizier vandaag
das toch voetbalinhoudelijk
oké das waar, ik vond het ook vrij kut eigenlijk 😉
misschien ff het artikel lezen het is een parodie
is toch geweldig
ik heb dit nu een paar keer gelezen maar het gaat toch allemaal ee…
nice gefeliciteerd!
als zlatan bij la galaxy zou spelen wel ja
jongens dit is toch geweldig lang leve het koningshuis
echt een rare vraag
hoeveel pingpongballen passen er in deze ruimte? is de standaardvraag van een bevriende recruiter.
moet ik het ook nog terugluisteren? krijg het niet geopend op mijn telefoon haha
god daar mis ik toch wel een korfballer
toen ik mijn eerste tottishirtje kreeg, moest ik nog aan mijn ouders vragen wie hij was en of…
persconferentie voor laatste wedstrijd ooit van totti en spalletti zegt dat ie niet goed genoeg is 😑
dit al gezien?
alle grote competities hebben een veel groter achterland. wij zijn geen groot land, wij zijn geen gro…
waarom meest overschatte ooit?
nog niet dus, ik hou het in de gaten.
zie hem hier nog niet tussen staan, doe ik iets fout? ben minder thuis in de italiaanse kaartenmarkt
yes zeker, psvofficial op snapchat, ook voor ajacieden
oké clarence mag van mij
haha maar ik denk serieus dat alleen een buitenlander het kan, in nederland is er niks voor handen wat ons vooruit gaat helpen
oh ja nu ga je je opeens afzetten tegen de duitsers
je komt niet echt van je duitse imago af zo, hè.
oh man, wat een held
en wat als je ze bezig ziet tegen feyenoord?
dit moet te doen zijn
negatief nieuws proberen we zoveel mogelijk in de doofpot te stoppen
📝 ik sprak met pablo rosario voor het psv magazine en sindsdien is het mijn favoriete voetballer. lees hier waarom 👇
✍🏼 in het nieuwe psv magazine verhalen van mij met o.a. pablo rosario, kirsten koopmans en gelovige psvfans.
hij is naar ed geweest
📖echt een must read👇
heb jij kamerleden op linkedin?!!?!?!11?!?😱
gewoon geen linksbacks, das ook een keer leuk.
verdomme klote zeg, sterkte, dit gaat je ook weer lukken 💪🏿💪🏿 hardloopschoenen liggen klaar iig.
boss
schijnt dat mike is afgewezen als perschef bij de knvb
haha vet. pechtold boss
is toch 442 met een ruit lijkt me, gezien het grote aantal centrale middenvelders? breedte van de backs
shit gemist. recensie?
en ik gebruik quotes van head coach buddy stephens als ik het ff niet meer zie zitten
haha echt ja, ik baalde echt enorm dat ie opeens afgelopen was na 6 afleveringen.
eindelijk gekeken joh
mooi discussie hadden we toen zie ik
roma start met 7 linksbenigen. moet een record zijn.
mm ja klopt. enig idee waar dat gevoel dan vandaan komt?
maar er is precies één team door dat dat vooraf op basis van de euro club index niet zou zijn.
ben al een tijdje bezig met het vormen van een eigen mening maar wil nog niet zo lukken
lekker bro was het geld waard
stage werpt zijn vruchten al af zie ik
mag je wel als italiaan gaan?
haha geweldig hè. en afsluiten met wat hebben we hier eigenlijk aan?
hun stormachtig samenzijn 💯
yo hoe kan dit?
zit al de hele tijd te kijken maar wanneer schuif jij nou aan?
voor een stukje duiding check omroep tilburg
vond het wat dat betreft ook een beetje een rare vraag
echt benieuwd welke manier van verliezen wel des psvs is
is dit voor je serie
zoet eerste man van oranje
is vrij logisch die spelen allebei met 2 spitsen bayern met 3
ze worden al bang in duitsland!
toch kunnen we dit wel zien als je nationale doorbraak thom
haha echt veel tokkies over je heen nu
dat wordt een makkie
let gewoon ff op pim
sluit mooi aan op je inhoud
haha ja hij heeft echt weer ff een momentje, rustig aan mike
echt grappig om te zien hoe bang de telegraaf voor deze verandering is. waarom?
haha echt een enge gast.
ja, klopt, zie het ook. vind het verschil tussen de top 4 en de rest wel groot. maar psv was dichtbij vorig jaar, dus het kan.
afgelopen vijf jaar stonden bayern en real iedere keer in de halve finale. barcelona drie keer. vind dat vrij voorspelbaar.
dat wordt weer een heksenketel in de hel van het zuiden.
az is lekker bezig. trouwens ook.
hoi, waarom zijn de hamkaascroissants in een ah to go lekkerder dan in een normale albert heijn?
ja heb dat vak toch nog wel open staan denk ik
tijd dat we een nieuwe parel gaan ophemelen.
hier hebben we het allemaal voor gedaan
hij krijgt nu het een grap blijkt alsnog voorlopig het voordeel van de twijfel.
jongens dit is toch geweldig er gaat eigenlijk geen dag voorbij dat ik me niet vermaak met het nederlandse voetbal
welk nieuws
de angst zit al in de beentjes daar
dit. en alles is mogelijk.
ik wil dirk kuyt feliciteren met zijn droomloting. gefeliciteerd dirk!
kans op verrassingen dus vrijwel uitgesloten. waarom kijken naar een competitie waar alles van te voren vast staat?
lullig voor atleti maar ik zie ze niet doorgaan in deze poule
goed dat we die cl plek binnenkort kwijt zijn want laten we eerlijk zijn wie doen we daar nou een plezier mee
gelukkig, van mij mag juve de cl winnen. zou geweldig zijn. al doet het pijn dat roma er niet bij is
kap hier ff mee. we weten het wel. natrappen onnodig lijkt me.
je bent nogal tegen voorspellingen. wat vind je van de voorspellingen in dit filmpje?
haha, klopt. ben wat vroeg. dan vertrouw ik voorlopig maar op de woorden van spalletti
weet jij hoe goed strootman nu eigenlijk is? lijkt het al een beetje op de oude strootman?
sicke nieuwe pf gap
ik mis alleen nog harde werker inderdaad. maar hij was in ieder geval rustiger dan isimat vandaag.
wat is de stereotypering dan?
waarheid kan ook ergens in het midden liggen, je hoeft niet per se één van de twee te geloven.
kan overmars niet gewoon expres een veel hoger bedrag gelekt hebben?
het stadion dat roma nodig heeft om de strijd met juventus aan te kunnen gaan.
in deze markt hadden we timothy derijck nog voor 20 miljoen kunnen verkopen zonde eigenlijk
ik kan het niet helpen maar bij alles wat vd vaart zegt denk ik ja het zal wel hoor maar je stopt straks weer 5 frikadellen in je mik
allebei want tegen een tegenstander met iets meer kwaliteit gaat dit ze niet lukken
die kunnen we zelfs schriftelijk afdoen
leuk voor belgië. volgende ronde liggen ze er gewoon uit.
dit is geweldig. ik hoop zo dat ze dit soort dingen bij de knvb eens gaan begrijpen.
kan jij me helpen met de gifs dan?
dit beeld doet me echt pijn.
tijd dat je weer terugkeert
behoorlijk viraal aan het gaan
ik dank god echt op mijn blote knieën dat ik geen moeder heb die op alles wat van mij op facebook komt meteen als eerste reageert 🙏
jongens dit is toch geweldig
dat barca had het niet eens gered tot de penaltys, kunnen niet verdedigen joh.
lijkt me reden genoeg, wedstrijd kunnen we onderhand wel schriftelijk afdoen.
kunnen we de mensen die zondagmorgen om kwart voor 12 voor de albert heijn staan te wachten tot ie open gaat niet een apart land geven?
11. tegen atletico is dat dinsdag gewoon genoeg.
maar eentje moet ook genoeg zijn om atleti te verslaan
wedstrijd van het seizoen in de week van de waarheid
ik achtte de kans dat atlético won nog 10% maar het gaat nu langzaam naar een getal achter de komma
zoet heeft de videobeelden al gezien en weet wat messi gaat doen
wat een eerste keeper!
aan 1 doelpunt genoeg
geen idee cocu verzint wel iets en het zal geniaal zijn
atlético kan goed verdedigen. maar hoe vaak hebben ze dit seizoen tegen narsingh gespeeld? precies.
volgens heeft psv 10%kans tegen atleti. dat is volgens mijn berekeningen precies genoeg.
wat denken jullie vanavond, jongens? drie of vier nul?
totaal uit vorm, dat wordt een makkie woensdag.
selectie is topfit kan me niet voorstellen dat we verliezen van die spanjaarden
bij hoge uitzondering citeer ik hier voetbalzone. dit zal niet meer gebeuren.
dat is toch helemaal niet praktisch?
jongens, ik snap dit even niet. je hebt iemand al in je handen en dan zeg je hem dat je m wel op facebook vindt?
peter jan rens, chasing love. wat een topper.
ik vergeet de hashtag
china is toevallig één van de weinige plekken waar ze veilig zijn. heel europa wordt aan de zegekar geregen.
shout out naar jou sigi zonder jou had ik nooit de beste co kunnen worden
ha jules! was dat in het begin van het jaar, hoorde dat dat tegenwoordig als voorbeeld gebruikt voor nieuwe cos
zit de hele dag te f5en,nieuwe generatie journalisten laat het afweten.mooie taak voor
allebei al bang daarom veinzen ze een blessure
denk je ook niet dat dit duel beter schriftelijk afgedaan kan worden? atletico is toch kansloos tegen psv?
makkelijk voetballen tegen barça. veel ruimte achter verdediging en ze hebben geen bruma.
het geloof groeit
moeite met scoren, wij scoren altijd
maar dan zijn ze nog niet in eindhoven geweest
we kunnen het schriftelijk afdoen
dit hangt volgend op de open dag
let vooral op de details het roze, de centrale vraag ook écht centraal en de gazzetta van vandaag!
ik kom ook een keer naar school. dat doen we dus niet meer.
maar leuk mijn oude vrienden weer eens te zien
ging niet door echt een mooie presentatie helemaal voor niks
ik draag graag leggings
dirk kuijt schudt ook voor iedere wedstrijd ongeveer 47 handen volgens mij wil ie kampioen worden
echt leuk dirk kuijt draagt als enige een korte broek en loopt voorop in de warming up dus wil kampioen worden
je verwacht het niet, hè?
dit is echt goud. als je fucking 3,5 uur in een rij wacht sta je positioneel toch al niet echt sterk natuurlijk.
maar staat ie ook zijn mannetje op het stratumseimd?
amrabat, kwam tekort voor psv. wordt echt een makkie.
haha heb al gestemd natuurlijk 💪
haha gap ik wil dit graag begrijpen maar ik snap het niet
het philips stadion is ons huis!! wij zijn onverslaanbaar in die heksenketel!!
the crust dit is toch gewoon een haalbare kaart met lestiënne en willems terug.
het was geweldig.
we waren het schoolplein nog niet op of iemand riep al dat zwarte piet racistisch is en een ander hing al in de baard van sinterklaas.
ik was vanochtend zwarte piet op een basisschool.
niet op facebook, wel eentje op snapchat om al mijn volgers te bedanken voor het jaar. ben multimediaal weet je
oh ik doe het dit jaar in de vorm van een lijstje met most memorable moments of 2015
genoeg disney films gezien om dat te kunnen bevestigen
verder als vrienden
vanavond vieren we sinterklaas met het huis, wat betekent dat ik iedereen straks in de action tegenkom terwijl we dezelfde rommel kopen.
ben echt een te grote fan
vanavond op fox een docu over memphis. veel mensen vergeten dat ik al fan van m ben voordat ie een hoed droeg.
he shit ik luister nu de rest en het is vrij saai idd
zouden meer mensen moeten doen
wat is je lievelings tot nu toe?
bert maalderink draagt dus een pen in zijn borstzakje
ah nice hou me op de hoogte heb hier steeds meer discussies over met mensen het kost me vrienden
wel leuk een q&ampa zonder as
korst als je mijn assistent wil worden moet je wel ff de namen goed schrijven
denk dat die wel gaat prikken
doe je ook voorbeschouwing?
ben een kenner ja
haha en utrecht staat ook nog op de agenda natuurlijk 😎
yes yes larissa woont binnenkort weer bij ons dan gooien we een feestje
als je van mening verschilt ben je niet objectief?
dirk kuyt verbreekt even het wereldrecord handjes schudden.
heb de sport toch mee groot gemaakt
je kunt beter stoppen met het perfecte terrasje zoeken en de perfecte vakantieliefde zoeken
daar zit altijd een crossmediaal verhaal in
alsof die geen zwak heeft voor vakantiesliefdes en surftrainers
dit ga ik doorvoeren als standaard als ik de leiding heb op
dit is de toekomst
messi komt niet zo lekker uit zijn vakantie
ja daar snap ik al een tijdje niks van. voor psv wel fijn trouwens
als we tegen real madrid spelen is dat een excuus voor het kwaliteitsverschil, maar tegen rapid wien is dat geen excuus meer.
ja zeker. in die eerste helft had het al lang klaar moeten zijn. ik vind vooral het verschil in begroting pijnlijk.
ajax heeft ook maar vier keer op doel geschoten en maakt er twee.
je verzint het niet hè
situatie is duidelijk. wanneer komt er duidelijkheid?
ja maar die kunnen dan ook wel behoooorlijk handballen
ja onmogelijk natuurlijk maar objectiviteit is mij vreemd
hallo het is koers vanaf minuut 1
allemaal leuk en aardig die strijd voorin maar kan de regie niet even in beeld brengen waar tony gallopin rijdt?
zolang het maar bij mijn boeftrui past
heb morgen een festival dus ik ben met spoed op zoek naar een boeftrui of bloemetjesshirt. please rt.
gesink
het is niet echt de transferzomer van roma, hè?
bakelants
mollema
tim wellens
wat een verhaal
toen marcel brands dit zei wist ik dat het goed zou komen
ja lik je lekker in daar pim
wat was ie goed he
froome
kristoff
rui costa
kristoff
morgen 10.30u met toon gerbrands, pim. ben je erbij?
hahaha
de nieuwe perschef kan dan mooi voor ons klaar zetten idd
idd lijkt me top pakken we meteen de nieuwe aankoop mee als het goed is
bij al die moeders met kekke kleurige kapsels vraag ik me nu toch af of ze de rainbow run hebben gedaan of dat ze dit echt zelf willen.
mooie rol van jou ook in het artikel 💪
maar gaan we het ek winnen denk je?
heb vandaag toch al twee gesprekken zo weten te draaien dat het alleen nog maar over het weer ging. gespreksleider.
manon melis, ook wel de yorick hokke van het vrouwenvoetbal genoemd
ik denk dat ik de hele dag bij het vleesvak van de albert heijn ga posten en mensen ga vragen of ze gaan bbqen.
ik reed net met mijn auto over een drempel en het zweet brak me al uit. zo warm is het.
laatste rts de kans is vrij groot dat er helemaal niks verandert.
ik wist ook niet wat ik moest verwachten, ben nog steeds van mijn apropos
ik was even koffie halen maar we zijn nu dus bij de d. het tempo zit er wel lekker in, hè?
ik lees het net. tijd is eeuwig. mooi hoor.
dus ik stem gewoon op blatter.
wel leuk dat de enige concurrent van blatter niet verder komt dan oproepen tot verandering en zeggen dat verandering een proces is.
haha, goud. volgens de fifa is er niks aan de hand bij de fifa. gewoon voor je kijken doorlopen dus.
kruijswijk 💪
gaat volgens mij om het project fundament zodat ze een voetbalopleiding dicht bij huis kunnen krijgen.
vanavond om 18.00u de derby della capitale, dus deze kan weer vandaag
jezus man. en wanneer de bakfiets en labrador? gefeliciteerd
yes, gaat snel. ben net bijgekomen van scoren in de keuken met arias en guardado. 💪
van gaal is echt de grootste entertainer van deze tijd. kan echt niet wachten totdat hij in expeditie robinson ofzo zit.
als ik dronken ben ga ik ook altijd beter engels spreken.
soms denk ik dat het na wk 2014 met van gaal niet meer beter kan. maar wel dus, het wordt alleen nog maar beter.
hé maar dat loveinterview met trijntje is dus ook van te voren gerepeteerd?
ik vond deze misschien wel nog beter
goed nummer ook echt een kanshebber dit
haha, dat zou wel top zijn. maar ik viel eenmalig in voor iemand, volgende week ben ik weer de man van andere sporten dan voetbal.
haha mooi! nu 30 ja, volgende wedstrijd weer bij jullie in de buurt als het goed is, tegen gfc 33.
vandaag maak ik mijn debuut als voetbalverslaggever bij de playoff handelbelfeldia. het belooft zoals altijd weer vuurwerk te worden.
kazim zet gewoon twee stappen achteruit. labyad 💪
oh man dat is een droom die uitkomt
memphis naar manchester is wel op alle mogelijke manieren de perfecte transfer
maar goed ik heb de ruggengraat van een visstick dus als je het lief vraagt zeg ik wel ja hoor
ik was bij de kapper en had mezelf dit keer voorgenomen dat vingertopje gel à €2,50 te weigeren.
hey marieke echt leuk je een keer in het echt te ontmoeten kijk al uit naar de volgende keer groet cas
zelfs een assist. ballon dor here we come.
ja maar ik vraag me soms wel eens af hoe goed we waren geweest als ie een keer een bal bij dezelfde kleur inleverde
memphis komt geen man voorbij maar scoort weer, dus gewoon +2 miljoen
ah nice vroeg me dat vaak al af hoe je daar in komt maar zit dus nog een selectie aan vast
weet jij hoe dat werkt? wat kan jij doen als je in amsterdam zit?
dat paste niet meer in een tweet, maar juist hoe ze er nu weer uitkomen is ook een onderdeel van mijn verhaal.
hoi wouter, ben bezig met een verhaal over de achteruitgang van het italiaans voetbal. kan ik jou daar wat over vragen?
hoi sander, voor een verhaal over de aftakeling van het italiaans voetbal zou ik je graag wat vragen. hoe kan ik je bereiken?
in de kroeg ruikt het ook gewoon alsof we drie kampioenswedstrijden achter elkaar hebben gespeeld.
waarom mogen ze geen boeruh zingen?
thanks! mooi dit!
tot zo in de stad jetro!!
thankssss!! kampioenuhh
godverdomme goed voor elkaar vandaag jonge
ben weer terug op vine zoals jullie merken
gooi ff een meerkat
tea moet haar ei even kwijt
jetro loopt warm dus de de verlossing is nabij
kijk aan. ook thuisclub ledûb denkt aan de pers.