leuk! we houden contact
sinds 3 weken volg ik een fotocursus bij en heb het gevoel dat ik in korte tijd al heel veel geleerd heb. zo leuk!
en ik mag nu alleen nog maar eten als ik ermee aan tafel ga zitten. dus niet meer lopend snaaien. helpt ook in bewustwording
snoepen deed ik niet echt, maar wel hartige dingen.ik kreeg veel te veel zout binnen. en dan maar klagen over vocht vasthouden 😂
maakte mij duidelijk hoeveel ik eigenlijk at op een dag. eet nu veel bewuster en een stuk minder.
heel veel plezier en succes vandaag!
kwartier bij bushalte op aalsterweg en telde 63 belgische kentekens. je moet toch wat als je nét de bus mist.
ikea, telt dat ook?
moet ik ff wat regelen, maar gaat vast wel lukken.
ik denk dat je totalloss bent na afloop 😂
volgende week gaan miss a. en haar bff met op pad. en daar hebben ze zin in! 😀
ik ben wel benieuwd wat daar nou achter zit. is namelijk enigszins herkenbaar voor me, maar weet nog s…
gisteren naar ostheopaat, vandaag gewoon gesport. geen centje pijn meer 💪🏼
je hóeft er niet iets mee te doen hè. hup, onder dat oude matras en misschien komt het ooit weer van pas!
de vriend. die woont tegenwoordig in australië.
heerlijk geluncht bij voor de verjaardag van de moeder van m’n beste vriend die er zelf niet bij was. volgt u het nog? 😉
vind 3x pw wel genoeg. dit ouwe lijf moet af en toe ook rusten hè 🤤
wel handig bij insomnia 😬
sportcity, nooit van gehoord
alsof er nog niet genoeg fitnesscentra zijn in stratum. nu weer eentje in de
ik ben dus niet de enige. steenkoud vandaag ⛄️. sowieso erger nu ik veel afgevallen ben.
niets zo bewerkelijk als een goudvis.
ik hetzelfde. ‘s ochtends productief, ‘s avonds doe ik niks meer. lukt gewoon niet.
ik blijf het spannend vinden tot de eindstreep
ben benieuwd.
heb daar afspraak gemaakt! morgen al, echt fijn zo snel.
we zullen ern kaarsje voor je op tafel zetten bij de pizzeria 😂
ik heb het er met wel over gehad, maar initiatief ligt volgens mij bij
tjee, goed bezig!
en er dan doorheen rennen met een paar verklede spookjes achter je aan 😂
doe jij dat overal op? 💪🏼
wie kent er een goede voor kinderen in
ja, dat ook natuurlijk 😂
bij deze dan gefeliciteerd. fijn dat ik je op deze manier heb leren kennen.
team hans zit hier juichend naast me op de bank 🎂
komen we zo die kant op. lucifer?
gaan jullie ook naar de ☕️? dan weet miss b ook of ze mee wil 😀
hij klinkt als elmo
ik maakte een korte wandeling door
pas 1 jaar frans gehad, maar ze durft het goed te spreken. redt zich prima ook met houtjetouwtje frans.
miss a. doet inmiddels zelfstandig de boodschappen in frankrijk. t is te merken dat frans haar lievelingsvak is…
zelfs met zon hoesje butste mijn ereader ook stuk. halve scherm zwart.
moet morgen ff etiket kijken, lig al te bed.
ik kocht de allergoedkoopste wijn van de hele supermarkt. wel de lekkerste die ik deze week gedronken heb.
met miss a naar ste maxime. siësta bij schoenenzaak. moesten we onze tijd toch doden op een terras in de zon. heel vervelend allemaal 😂☀️🍷
dat laatste dus. eerst weken in de fontein, toen peuteren, dan weer naspoelen. eetlust verdwenen
ja, gatverdegatver. vond het stinken op het terras, was ik het zelf 😳
heb de zool van mn sneaker net af staan spoelen in een fontein. merde merde merde! 🤑
niks is te gek in blixembosch
ik denk altijd dat ik heel veel moet van anderen, maar das dus schijn. ik moet zo belachelijk veel va…
ja, daar zijn ze lekker vroeg dit jaar. zag het vorige week toen ik b ophaalde van school.
sterkte!
ja, ze wil gewoon zwemmen. trainen, wedstrijdspanning, knallen op het startblok. het is niet uitgeslote…
wil zelf ook wel meelopen, maar neurologe zegt dat het echt onverstandig is. risico helaas nog te groot
onder strenge supervisie glijdt miss a als een zeehond door het water. niets maakt haar zo blij als zwemmen. damn epilepsie 😞
dan vindt ie tom groot vast ook wel leuk
3 mensen voor me. 18 minuten verder.... 😬
voor maar goed dat ze de formule niet gebruiken. dan hadden 50 mensen hun boodschapoen gratis gehad
vloog in richting van nice. volgens mij zit er een basis bij montpellier. oude vriend van me was daar gestationneerd
nog best lang hoorbaar in luchtruim, maar zojuist weer met lage snelheid en stuk hoger terug.
kwam hier een straaljager zó snel en laag overgevlogen dat ik letterlijk elkaar dook van angst.
zal ik doen.
vriendin van mn moeder had er vorige week ook dergelijke problemen. heel vaag.
en ronnie flex en een soort van stressbal. en vergeet stof niet 😂
goed begin van de week
andersom zou ik het wel een prestatie vinden 🙂
zwemtoerist je liep zo snel dat ik geen foto van voren kon maken. top prestatie 💪🏼
ik zag op de app dat ze daar liepen. ik ga richting de stad nu om ze aan te moedigen
zorg jiij voor droog weer, regel ik dat biertje 🍺🥇
die laatste bocht om lukt dan vast nog wel.
je staat in mn livetracking. ik ga je aanmoedigen op de geldropseweg. succes!!
gelukkig geen andere beperkingen. zwemmen en epilepsie is slechte combinatie helaas.
valt epilepsie ook onder parazwemmen? op dit moment mag dochter nog niet zwemmen, maar ze wil zo graag weer het water in
reflecties van een instagramgalore in de
het was in alle opzichten een heerlijke avond!
wij willen mee! zijn echt heel rustig 😂
ik cenk dat dan voortaan met je meewandelt.
kijk, het wr waar ik over vertelde
👏
bij mij wel, terwijl ze het aankondigde. tranen in mn ogen van de schrik. dramadocente vond het blijk…
de stip bij sx. minuutje lopen van caffee allee
miss a. deed even voor hoe ze bij dramales nepflauwviel op het podium. oscarwaardig, menschen! 🤔
zo herkenbaar
op de gipskamer zijn wel veel fotos weggehaald, zag ik. sterkte met afscheid nemen!
heerlijk op de tribune morgenochtend 😜
oh, ik zie het al!
wat is er dan?
heel veel sterkte!
ja, je wil gewoon duidelijkheid. of het nou goed is of niet, die onzekerheid is niet fijn.
heel veel sterkte!
ik denk dat alleen zwemmers weten wat wrikken is
behouden vaart!
hahaha, roept de zwemmert 😂
ik vind het vooral heel belerend. maar goed, blijkbaar werkt het voor mensen…
ik zeg niet dat het niet werkt, maar het gaat alleen maar over gewicht. niets omvang, vet…
voor t eerst bij een bijeenkomst weight watchers. niet voor mezelf. ook niet mijn ding, merk ik.
miss b. in actie als visagist/nagelstylist voor op mooie ochtend voor erg goed doel.
110 kan wel, maar dan moet je wel heel snel starten, keren, zwemmen en goed uitkomen. ff doortrainen en het gaat je lukken 💪🏼
dan moet je wel een verekkes snel keerpunt hebben 🏊🏻
onderweg naar de golfbaan. ff lekker de wei in 🏌🏻
en dan zegt men dat de babytijd slapeloze nachten oplevert. 14 jaar later is het nog erger.
sterkte!
2 zieken en mn moeder met een gebroken been in huis. florence nightingale is aan
in het vorige pand van blokker toch?
nou ben ik al niet zo van voeten, maar dit is wel een mega turnoff 😱
aha, the big three o. gefeliciteerd met je verjaardag! 💐
mij lukt dat ook niet. met yoghurt oid wel of stukje cracker.
prachtig!!
in!
ik de vriezer leggen
snap het probleem ook niet. kinderen trekken toch aan wat ze zelf leuk vinden.
ze moest maar door de pijn heen lopen. ben echt zo boos 😡
mn moeder werd gisteren met aanstellerij weggestuurd bij hap. na 2nd opinion vandaag blijkt dat ze haar scheenbeen heeft gebroken.
was er niet bij, maar dit is een enorme motivatie voor die jonge zwemmers. onwijs leuk dat jullie dit doen!
vergeet je zwembrilletje niet. mag er wel eentje lenen als je wil
dank voor de info! we gaan op de stoep staan zwaaien 🙌
iets voor geïnteresseerde leerlingen van ?
hebben wij met grote groep in december gedaan. was écht leuk om te doen en heeft geweldige spotifylijsten opgeleverd
het was zo snel klaar, hoeft niet eens te douchen.
ik zou gewoon mn hele helm voljanken 😭
1e bocht crash 😕
manmanman, ik kijk ook een keer hoor 😲
hoelaat komt het over de aalsterweg morgen?
goodmorning!
selfie met mijn grote schat. nog ff en ze groeit mij voorbij met 1m81
voelt ze zich ook ziek of is dit bij zon standaard onderzoek naar voren gekomen? wat een ellende ineens.
jeetje, wat erg. heel veel sterkte allemaal!
ik google dadelijk wel een leuk hotel. rest van de dag weer tropische plaatjes.
kwam langs de studio deze zomer. rij er blind naartoe 😎
nog ff en ik word uitgenodigd door drphil. ga je dan mee? 🤣
arts belt terug, moet het opzoeken. antiepileptica en andere meds ligt gevoelig
die heb ik voor meldingen van inname. ik ga maar weer in de wachtrij bij huisartsenpost.
extreem druk bij hap. sta al 20 minuten in de wacht. wil alleen maar weten welke keeltabletten ze mag hebben icm meds.
bestaat er een waarmee ik kan checken of samen genomen kunnen worden?
voelt zoals twitter paar jaar geleden. leuk!
uitzoeken of bepaalde meds samen mogen en nu continue ads voor verslavingszorg krijgen. irritant.
varkenshaas met ratatouille en krieltjes.
ik ben altijd in voor nieuwe restaurants. count me in!
mooie auto idd. hopelijk snel meer geluk
minime 😩
de hoogstraat? heeft mijn neefje ook gerevalideerd.
nee, dit is op de ijsbaan denk ik.
meestal wel, hoewel ik me soms weleens afvraag waar ik mee bezig ben 😜
benieuwd waar de muziek vandaan komt die ik in stratum hoor en nog nieuwsgieriger wie er in dit weer naar een gaat
misschien maar goed dat onze date morgen niet doorgaat. op regenlaarzen is niet echt charming 💦😜💦
ach ja, geef ze het voordeel van de twijfel. benieuwd wat zij ervan vinden.
mr. sister viel tegen gisteravond. loods61 is wel goed
gegeten bij ben nog niet onder de indruk, maar het gezelschap maakte de avond helemaal goed.
lekker gegolfd met astrid en inspelen was bar en boos, maar in de wei ging het super ⛳️
jazeker! we hebben naar jullie hotel gekeken, maar uiteindelijk hudson central park geboekt. 8 vriendinnen in nyc 💃💃💃💃💃💃💃💃
vanmiddag naar voorstelling geweest. aanrader.
geen munten meer over voor worstenbroodjes. dus nu thuis tostis bakken 😜
wat een topavond bij
geen voetballen meer?
gisteren naar bruiloftsfeest geweest waar en haar echtgenoot straalden van oor tot oor. zo leuk! 💍
beterschap! 💐
heb mezelf ff flink in de makeup gezet. de respectievelijke reacties van de missen waren
adem in adem uit, het komt wel goed. tot straks!
het worden zwarte suède laarzen
doe ik ook hoor. heb met miss b een jurkje gekocht in la. kan ik eindelijk aan 😃
liefst heb ik duidelijke dresscode. nou moet ik zelf nadenken
ook panty gekocht, maar nou geven schoenen weer stress. open schoenen met panty no go
gisteren zei ik stoer tegen mn personal trainer. het stoere is er vandaag wel vanaf hoor
ik ga dansend de dag door!
genieten vandaag!
tegen de tijd dat ik dat kan slash durf, kom ik met een rollator 😂
er zijn meer boksters in de 040tl hoor. oa.
daar ga ik morgen achter komen
die boksles hakte er harder in dan ik dacht.
sterkte voor iedereen!
morgen eens een keer les yoga proberen. ooit geen succes met bekkeninstabiliteit, maar nu veel sterker en fitter dan toen.
gefeliciteerd 💐
tja, gratis bezorging 😂
jeroen! schreeuw niet zo!! 🙉
dan wacht ik nog even af. kon het me al niet voorstellen 😊
vliegen jullie in april helemaal niet naar ibiza?
dit was een andere, stuk groter 😁. die van vanochtend zat nog in mn jasje....
zou dat bij spinnen te zien zijn? 😊
dat van die woordenboeken doet ie maar 1 keer 😂
flinke jongen hier in mn olijfboom
baywatch spelen heeft ook zn voordelen. pootjes bijbruinen bv
sinds mrs d. er is alleen maar schaterlachen in huis. nu ff
ii@heb zaterdagavond een feestje. beter van niet 👯
morgen lekker de baan in met astrid en knallen met die golfballen ⛳️
ik ga mn auto maar eens poetsen 😂
hebben jullie een goede tip voor betaalbaar en hip 😜 hotel in nyc? 8 women no kids 😀
sterkte 😘
de hangen de skis een jaar aan de wilgen en gaan hun horizon verbreden. in 😃🎉🗽
heel veel succes en plezier allebei met jullie nieuwe banen!
we hebben een winnaar!
in la zag je ze echt overal. inclusief spa 😜
ik begrijp niet dat omstanders niet meteen te hulp zijn geschoten. altijd druk daar, zeker met warm weer.
schijnt 3m diep te zijn. als je dan geen van allen kunt zwemmen, is ongeluk zo gebeurd.
schaamteloos kerstliederen meezingen in de auto 😊 🎄
gisteren een makkelijke vandaag wat lastiger. waar is dit?
ik kon er niet verder door afzetlinten, maar zag wel dat het echt mis was. zoveel hulpverleners. echt triest 😞
een makkelijke. waar is dit? cc
ik heb echt geen idee
hoorde steeds een man lachen. het klonk als in pieterburen 🙉
haha, wat erg
zodat jij hun caravan kunt overnemen? 😂
ik begrijp die kampen niet. mijn kind zouden ze niet op haar best zien.
moet het rond ontbijt zijn? want dan ben ik meestal up and running om iedereen de deur uit te krijgen 😉
zeker met dit weer enorm zwaar. maar zo leuk!
wat een hitte op de golfbaan, maar wel gvb in the pocket ⛳️😅
putten ✅ chippen ✅ driving range ✅ theorie geleerd ✅. klaar voor morgen ⛳️
haha, ik dacht al 😉. vind het zelf heerlijk om in atlas of encyclopedie te bladeren.
als je het zo bekijkt, is school helemaal overbodig 😁
zo noemde ik mezelf claudine de la coline in frankrijk 😜
anna heeft bosatlas behoorlijk veel gebruikt afg jaar. zal ook aan methode liggen.
nieuwe achternaam?
omg, wat vreselijk. kun je je toch niet voorstellen op die leeftijd. hopelijk is hij het snel vergeten.
help die zwemmer over het land!
✅ ik sta dan om de hoek, geldropseweg.
feestje? liep er gisteren langs en moest meteen aan jou denken
zat vanmiddag in een bootje te bedenken dat ik je draadjes miste. en zie hier, je bent er weer!
is er een of in buurt van die vanmiddag tijd heeft om probleem beugel te fixen?
heb een buurtfeestje, dus dat lukt helaas niet 😜
binnenkort een keer golfen?
haha, wij stonden ook voor 6en bij het ontbijt te trappelen 😁
nope, dan pas ik er zelf niet meer in 😉
denk het niet, ligt eraan hoe hoog ze zijn
2 golftassen, 1 kinderwagen, 2 tassen, 1 boodschappentas, 1 maxicosi, 1 baby, 2 tieners en 2 moeders in een past!
mijn moeder komt miss a. morgen helpen. ze heeft die kwaliteit nooit op mij over kunnen brengen.
moeder en stiefmoeder gezellig samen op bezoek. kan allemaal hier.
van harte gefeliciteerd met je verjaardag! 💐🎁🎉
pedro zit in mijn gedachten vandaag
1 een blouse. 2 teckels 3 froezels. drie keer niets voor mij, maar toch ongelooflijk blij met mn nieuwe aankoop…
school heeft extra boekenpakket geregeld voor miss a. dus geen gesjouw meer op de fiets en meer energie overhouden voor op school.
das toch logisch. altijd heftig om hulp te verlenen. rustig aan nu.
goed dat je hebt kunnen helpen. altijd fijn als mensen weten wat ze moeten doen in zon geval 👍🏼
sporten ging niet helemaal van harte vanochtend 😅
zou normaal ook niet aan moeten gaan bij zoveel neerslag. groeit wel hard zo 😉
ging net 🐰 eten geven. moesson+besproeiing tot mn enkels wegzakken in de grond. drassige zooi 😕
mijn oma toen 86 wilde niet naar seniorenwoning. liep liever met kinderwagen dan een rollator 😉. later wel blij in t lint
als zij er happy is, is dat het enige dat telt.
niet dat daar niet gebeurt, maar voelde gewoon niet zo.
viel ons op dat we in us geen enkel gevoel van onveiligheid hebben gehad. echt nergens. hier altijd waakzaam idd.
op verstandop0 kijken 😀
ja, gezellig logeren bij je kinderen. have fun!
de energie van miss a. spat er vanaf vandaag. genieten, maar tegelijkertijd ook wel eng.
gefeliciteerd en heel veel geluk samen!
moeilijk te geloven dat momenteel het kanaal overzwemt. moet er niet aan denken in het holst vd nacht overdag ook niet 😉
wat was een fantastisch zwemevenement! 👊🏼
dan had je echt dit weekend moeten gaan, maar daar heb je nu niets meer aan 😔
hema heeft ze ook idd. ideaal!
de werkplek van was ook niet mis vanavond. wat. een spektakel!
doen! en daarna maandje op water en brood of chili sin carne.
opmerking van na goud op 50m vlinder it was eh.... pompen of verzuipen. 😂
haha, ben je op een brabantse camping neergestreken?
het was zo gaaf. ik kijk uit naar nog zon avond.
morgenavond niets te doen? ga naar en kijk naar races op wereldniveau in geweldige ambiance! echt aanrader 🏊🏻
ik trek morgen iets koelers aan. ik leek wel een amateurzwemsupporter vanavond 😜
echt helemaal té gek! mooie races, top sfeer. kijk alweer uit naar morgenavond 👊🏼
wij ook 😜
gelukkig!
die disco maak ik me beetje zorgen om ivm miss a. is het heel erg veel geflits?
ja, ik ben erbij! 💁🙅🙆🙋🙆🙅💁
smeer ff iets uit us op mn ietwat gezwollen tandvlees. alsof de tandarts 6 verdovingsspuiten heeft gezet. geen enkel gevoel meer 😳
gemis blijft, maar ze geniet weer volop van het leven
mn stiefvader was toen al ongeneeslijk ziek, maar ging wel heel snel achteruit daarna
onverwacht etentje met mama die vandaag 4 jaar geleden trouwde en ook alweer bijna 4 jaar weduwe is..
heb er normaal nooit zon last van, maar nu 2e nacht wakker gelegen.
ik moet nog ff wennen. ook aan de jetlag trouwens. meiden ook nog upandrunning 😳
ook zoiets! postvakantieleed
zo fiets je in santa monica op weg naar 🍹 en dan zit je in de regen op de fiets naar jan linders voor een zak aardappelen. t is wat.
gisteren een klein rondje in gemaakt. een impressie
goedenavond!
bij deze peeptoe sharkheels moest ik aan jou denken. leuk op een sportgala 😁
dit kan groots worden hoor!
ik ga toch voor reality. komen jullie dan wel langs met de
in een bodybag ja 😳
er ligt hier iemand aan het zwembad die met 007 samenwerkt. ik ben ff naar de pool 😜
dat is het!!
ikzelf ben daar inmiddels te oud voor
ik ben manieren aan t bedenken om hier te blijven wonen. maar de missen willen nog geen actrice of topmodel worden
armpje uit het raam
gefeliciteerd met de eerste verjaardag van jullie prachtige meisje! 🎉1⃣🎉
nog paar dagen 😢
goedenavond!
sommige dingen herkenbaar, soms heftig, maar ook mooi. bedankt!
🐰 had door gaas heen een tunnel gegraven. logeert nu elders tot we terug zijn.
heb genoten van verhaal kwam keihard binnen.
ja, dat werkt fantastisch!
volgende week maar weer braaf naar beetje werken aan mn skills
ik kwam niet verder dan een hoek van 90 graden met mn armen. respect voor yuri 😅
net begonnen aan van en nu beetje balen dat we dadelijk op pad gaan 😉
echt niet normaal. en de mannen naar het anabolenpaleis.
ik heb meer categorie zwemarmen, maar ben bang dat dat ook niet volstaat
nu drink ik eerst ff wat op mn balkonnetje. t is tenslotte vakantie en die 6pack gaat toch niet meer lukken deze…
er lag net een arsenaal aan stereotype los angelors bij het zwembad. morgen maar weer naar de gym voor wat zelfvertrouwen ☺️
zo lang er nog geen oma staat, zou ik nog ff doorgaan 😉
straks naar santa monica. zal ik een poging wagen op muscle beach? 💪🏼
je bent niet de enige met wilde zwijnen in de buurt
wil slapen, maar er zit een paar appartementen verder zon beverly hills chihuahua onophoudelijk te keffen 🙉
dat viel wat tegen. het publiek daarentegen was zeer vermakelijk om te aanschouwen
de valetparking bij het shoppingcentrum was een waar spektakel. miss b en ik keken onze ogen uit 😂
zaten ooit in hotel bij muscle beach. weet niet of ik me daar durf te vertonen in sportkleding.
wie weet later deze week