en met aankopen is de garantie dat je kampioen word ??
nu krijgt de jeugd van psv meer kans !! gaan jullie nog zeuren ! 💪
hey ik wist niet dat je in las vegas was om het gevecht live te zien 😂😉
van vind jij hiervan ??
dus wil na zijn gevecht tegen zijn ufc belt verdedigen tegen in rusland ! mcgregor 💪
floyd heeft het nu al over een rematch 😂 💪
vannacht om 04.00 uur op foxsport 6 !!
lekker hoor nac !!
effe een uitleg !! 😂😂
aldo vs holloway wordt een gevechtje hoor !!
lexxxus heeft gelijk ! 💪👊
in voor en tegenspoed 💪 🔴⚪
is ook hiphop !! je kan niet haten !! 30 jaar is !
in voor en tegenspoed ❤ 🔴⚪
oke tijd voor k.o
1 van de elementen van hiphop
zet weer nieuwe deuren/ stations open !! 🎉
begin te rt !!
wij gaan 010 de kampioenschap bezorgen !! 🔴⚪ ⚽
janmer dat mousasi te braaf is om te zeggen dat tie ook wel een remacht wil met weidman !
wakker blijven voor 🍵👀
wanneer krijg je meer info over zondag??
khabib moet maar een pogin doen bij welterweight klasse aangezien dit niet de 1e keer dat tie zijn gewicht kon hale…
jij bent mij plus wanneer ik min ben ❤
check it new viddy van !! en abonneer gelijk op zijn kanaal 👍 !! 💯
bijna een mannelijke fight !! 💪
cruz vs garbrant wedstrijdje hoor !!
winnaar hiervan moet wel tegen conor voor de belt !
en de winnaar daarvan tegen mcgregor !! 💪
ik kijk ufc 205 voor de 3e keer deze week !! gewoon van gevecht 1 tot de mainevent !
die staan bij pes 17 💪
is de schaal toch effe in 020 !! 😂
mooie eerbetoon van mats seuntjes ! rip wes !!
waar kan ik mijn 3 gratis films vinden dat is belooft..??
waarom is dit geen wereld nieuws , misschien omdat het elke dag daar iets gaande is ..??
liegen tegen je kids dat de sint en piet bestaat !!
waarom moest guus hindink ook alweer weg ???
leuk goaltje !! maar eind van de rit, de schaal in eindtje !! !
ik leef soms in een soap !!
heerlijk die psv tune wanneer er word gescoord in de arena !!
zo met mijn hand in mijn broek naar kijken 😂
ik voel mij maar gezond ziek !!! pfff
wat ik aantrek met carnaval? lelijke vrouwen!
check de nieuwe pokoe van mij homie caza – loop voor de kazen
nooh ik wil ook naar die reünie concert van !! pff binnen uurtje uitverkocht !!
ik gun wel een puntje als bredanaar !! but still
vannacht trouwens een pokertoernooi gewonnen !!
2015 en twitter is nog aan !!
twitter blijft !! voor mij 😂😂😂
new clip van homie !!
erwtensoep met rijst en veel sambal !!!
gekke wedstrijd was da !!!
alleen door zn domme pieten discussie , komen bij sommige domme mensen hun ware aard naar boven !!
ik vind niks !! wie stuur mij terug naar mij eigen land..?? graag eerst manado en dan balie ... kan dat ..??
je kind een paar jaar voorliegen
achja voetbal blijft een mooie spelletje !!
kapot ziek !! ik word helemaal gek !!
wat doe je als je afwas al voor een week sta..?? gewoon weggooien en nieuwe kopen !!
nec word genekt !!
wauw sparta !!
yo fawaka met die clip in de golven , hij is zomaar van het net weg gehaald..??
in de rust gaat vd sar naar de kleedkamer van zwolle en nou kappen met die shit!
zou wat zijn nacompetitie nacwii
ja ik geeren noord ook bij hv !! ik woon in die ghetto flats daar achter !! binnenkort maar effe meeten tog !!
ja thnks man !! oja dus jij woont de wijk naast mij nu dus zoiets zag ik voorbij komen..
vanochtend hard met mijn hoofd op de trap gevallen !!
thuis met een lichte hersenschudding !! pfff
busje komt zo !!!
ik zet hem alvast he !! ibra !!
overal popo en ik kom mij flatje niet in !! zijn ze een boef aan het zoeken !!
ik heb de beste baas/leermeester ever !!
dan word tie helemaal gek denk !
laat we wilders terug naar zijn eigen land sturen en neem mij ook maar mee !!
2 kaartjes in de pocket voor
voor je het weet sta je zelf de polonaise te lopen !!!
ik heb een hart van steen soms !!
big up! // jwz bro kom nou maar snel met je hitjes ik weet dat je ze heb klaar liggen !!
rt nog 4 mensen voor de 400 volgertjes! // follow deze man !!
redbull geeft je vleugels of pakslaag !!
shit station breda is aan !! ik zie heel veel vrouwen van mijn dromen !!
de status bredaroffadamsko !!
ik ga ervoor !!
wie verzin al dat bullshit ?? en wie bepaald dat dat bluemonday vandaag is dan ??
laaste dagje arbeit en dan bong vakantie !!!
oke mijn huis is een rotzooi !! wie komt alles schoonmaken ..??
wauw die vriendin van c.ronaldo dammmmmm homie pffff
2 nachten doorgehaald niet geslapen , de gevolgen hiervan dikke hoofd slechte huid en fucking gaar !!
gaar , moe en sjagie !! pfff
elke woord en zin heb ik meegemaakt en voel ik! download de track en sta op tegen kanker !#kippenvel !!
nog steeds in bed aan het rotten , met engels voetbal
shit morgen maandag !!
oke richting de efteling !! swag !!
ik haat de dagen die er gaan komen !!
doe maar eerst nl les
ik blijf achter mijn clubie staan !!
beter koop je ralf seuntjes van fc den bosch i.p.v. schalk
met aansluiting voor de 1e pfff
ronald koeman 21x in het seizoen 19871988 namens psv.
yoo ik wil een keer weer mee chillen met 1 van jullie optredens !! is alweer lang lang geleden!! holla me g !!
haten mag , maar die new album van drake is nog steeds keihard !!
op zoek naar pattas !!!
ik ben in een emo bui !!
eerst een kut weekend en nu een kut dag pffff
mijn bed ligt nog lekker !!
oja daarom was ik loesoe bij jou !!
ik heb gister meer sms, whatsapp of fb berichten gekregen dan op mij verjaardag !! alsof heel breda ineen keer mijn nr had !! pfff
ik gun nac vandaag 3 punten alleen als mats de winnende scoord !!
ai noh juist die kapper had vorige keer mijn haren verneukt !!!
ik zie dat facebook nu meer stripbook is !
of jij moet zn soort van benefiet concert houden met alle opbrengst naar nac
nee maar de hamburgers van de mac worden wel weer 1 euro duurder hahah
je kan alles bereiken als je dat zelf maar wil !!
dat ik ineen keer manager ben van een bedrijf dat kon ik vorig jaar van dromen !!
mensen vinden het normaal om tegen zijn eigen kinderen te liegen !!
bijna maandag !!
check statemagazine.nl intervieuw met de enige en echte hiphopbeatmaker uit breda benjur !!
hiphop breda is benjur !! het begin altijd bij hem !! deze man is al lang lang bezig !!
big up naar dj hardwell beste dj van de wereld !! snapte boy from the hood hb !!
je weet hoelaat het is he ??
bowlen was nice !! nu weer verder met de orde van de dag !!
ik ga een keer naar een andere kapper !! pfff hij heeft heel mijn kapsel verneukt !!
money is mij motivatie !!
altijd nice een moluks fissa veel eten !! nu thuis slaap inhalen !!
ik ben best moe pff
de laatste uurtje was een stres uurtje pfff !! maar alles kwam op zn pootjes terecht !!
voor jou altijd !!
gaar &amp haasten pffff
begin te haten !! nieuwe generatie maak goeie muziek !!
ik mis je alleen als ik je parfum ruikt !!
ik heb zin in soep !!!!!!
sukkel mr sukkel voor jou he !! sukkelin haha
goedemorgen dit is nou lekker opstaan met een 40 overwinning tegen ajaks !! wuhahahaha
wauw!! 40 heerlijk!!
buikpijn pfff
ik wil geen vuile woord over mijn club zeggen , maar psv wat ben je fucked up bezig !!
ik hoorde net een exclusive pokoe van eey kill knald hem hard hit hit hit !!
kappertje pakken en dan grote schoonmaak thuis houden !!
hoi effe een gooien !!
breda op je beeldscherm !!
anders word je bici gestolen op je werk en zaggen 2 boeren collegas het maar niks deden !!
straks effe bij bredabarst checken !!
daar is tie weer !!
kapsalon van net is niet zo goed gevallen !!
tjappen bij de zaak van mij niffoe broodje sedaap ! eastwood
gaar !!
toch effe kijken hoe hbo intro is in de stad !!
ja man gekke shit !!
congratz naar deze man word vader !!
nog steeds vol met adrenaline !!
hij heeft ze wel gekregen !! die zal daar niet meer schijten !!
net letterlijk een man weggetrapt die zat te schijten tegen mijn flat waar kids voorbij liepen !! ben nog steeds helemaal opgefokt!!
shit wil ik tjappen maken heb ik geen olie of bakboter in huis !! pfff
oja lopen naar het werk !!
ik step mijn twittergame effe op
ik follow te weinig ! wie moet ik volgen ??
tommy teleshopping reclames aan het kijken !!
verveling heerst deze ochtend !!
oke klaar wakker !
echt waar belgen zijn echt dom !!!
maar een benauwtje !!
een soort van happy
ik ben geshokeerd door // wuhahahah hoeoz
rot en chaggie !!
oja maar een spierpijn !!
gym was heerlijk !! ik voel me nu wel biggie hoor !!
pasta aan het maken ! snel tjappen en dan gym time !!
lekker gaaan !!!!!!! 013
black label is binnen komen wandelen !!
pff wat een dag !! nu focus op de wedstrijd van vanavond !!
pfff ik zeg het weer ja wat een kut dag !!
en sowieso een dikke middelvinger naar mij ex !!
aan het koken en keihard cd aan het rappen !! g !!
deze pompen we extra hard op het werk ! in de golven !!
pes toernooitje !!
besef dat mij vakantie voorbij is !! g !!
ontbijt zeezicht !
we zijn nou al op die drunken mode !!
ondertussen !!
je laat je telefoon effe op de bank en gelijk pak jeeps mijn tel en flikt tie van alles op.whats app en twitter
ik hou van iedereen
ik dacht al zoiets haha
mensen pakkie geven !!
lobi naar mijn zusje lonny voor het geslaagde dag !!
richting breda !! en maar een kleine file !!
stronken !!
30 jaar
psv speelt echt goed , ondanks ze achter staan !
ik zal beetje overlaten voor jou hahah
ik ben er klaar voor !! come on
en als psv straks een stuntje zet dan is mijn avond helemaal happy happy !!
smoken ,zippen !! om 12uur wil ik stronken zijn !! becase, go shory is my birthday
ik geniet van de laatste uurtjes van mijn 20 jaren ! want om 00.00 uur ben ik gewoon fucking 30 jaar !!
kapper pakken en dan richting kesteren cruifveldje !
ik draai me nog wel een keertje om in bed !!
dikke lobi naar mij bro samuel !!
massagesalon gepakt !!
vroeg op pad !!
vakantie !!!
geweldig !!
hahahah jij tript hem echt op die programma he !!
oja bijna vakantie !!
bakkali is de naam !!
als je niet meer kan vliegen , liever een mooie val !!
altijd gezellig met
je zou maar in een file zitten van 12 km !! pfff
lekker hoor psv !!
ben benieuwd of psv die lijn kan volhouden !!
lekker rustig op werk ! bijna iedereen weg gestuurd !!
ik ben benieuwd ! !!
zin in vanavond !!
ik heb je gemist !!! eindelijk !!
ga ver weg met je wereldstad !!
stronken !!
kaatje jans !!
bonus gekregen en mijn salaris omhoog !!
breda roffa roffa breda breda scheveningen !!
skit we gaan er gewoon voor !!
zo richting scheveningen!!
kaartjes voor psv binnen !!
lekker op de emo tour !!
wauw respect naar eddyra – gemiste kansen
spullen opgehaald bij mn ex , afscheid nemen is fucked up !!!
vandaag was wel hard op het werk !! gewoon in de waggie van de boss gereden !! en dat is niet zo maar een waggie !!
ik zit helemaal in die album van jayz !! hij is
ik draai me nog een keer om !!
voor alle wiet kwekers in de hb zet je lampen uit ze zijn aan het peilen met een heli d
sommige mensen denken dat ze er makkelijk vanaf komen met dingen !!
jayz picasso baby !! mijn favo track van heel die album
ait ik heb die hele album van jayz geef me een paar dagen om te gaan oordelen of het een wreede album is of een fail !!
iemand een link van die nieuwe jayz album ..??
wow bijna 24 uur geslapen
goed ziek !! pfff
boodschappen doen en dan heledag uitzieken op bed !!
dagje vrij gekregen !!
ik word weer verwend door mijn dushi ! massage alles !
gewoon tegenverzeten !
gelukkig had ik een vrije middag gekregen want mijn lichaam is kapot !!
laag op de bank links mijn dushi rechhts mijn split in mn hand !
ik zie een paar ajaksieden haten op jozefzoon terwijl ze hem zelf ook wouden hebben !! eerst weg doen uit de jeugd en dan er terug voor kope
kutzooi mijn nieuwe blouse verbrand met strijken pffff
welke kapper is er rond deze tijd open in breda ..??
eey je slaapt op iets morri$ &amp s.kinny esmee official videoclip
geen fissa voor mij vandaag
ik wist niet dat lens op schaken lijkt ??!!
laag in de tuin eastwood met een dikke splif en massage krijgen van mij dushi !
maar een hotje !!
ait korte broek maar eens uit de kast halen !!
album blijft op repeat hier !!
sowieso wasniet zitten aan mijn nikes next level bazen shit hahah
ja man beste en dan maar gelijk in de verdediging investeren !! blijkt dat als je meer dan 100 goals maak niet kampioen wordt
wauw slamat makan !! ziet er goed uit g !!
deze blijft
jong spanje tikt wel lekker hoor !!
mijn broeder jeeps voor 3 weken op vakantie naar curacao met anita en al die profvoetballers !!
mijn rug is kapot !!! pfff
ajam smoor met rijst en groenten helemaal voor mij zelf aan het maken !!
persoonfissa !! bbq en zippen !!
goaltje van wijnaldum hoor !!
blijft harde track great minds doag ft. kleine viezerik &amp yung felix
eey spanje heeft wel een harde team !!
lijkt me ook het beste anders moet je op iedereen gaan reageren !!
hij was ook fucking hard !! maar ik denk als ray kom dat tie hem afslacht !
ik tweet het meest als ik aan het schijten ben dus heb dan niks te doen vandaar meestal die tweets achter elkaar !!
ach over 2 weken zijn we die rapper al weer vergeten
mischien moeten meer rappers dissen droppen naar bekende rappers in de scene , die krijgen meer aandacht dan als ze een eigen clip droppen!
freddie lee ft. mbs door de muren videoclip 2013
die nieuwe psv shirt zijn maaster !!
bezoek van mn pa altijd gezellig ! 1
mijn swag is vies !! voice
operatie geslaagd alleen nu is heel mij rechter arm verdoofd !
operatie aan mijn arm !!
ik krijg altijd zn naar gevoel als ik in de ziekenhuis ben !
richting molengracht ziekenhuis !!
ik probeer trouwens te stoppen met smoken !
eigenlijk was hangover 3 een kaka film als ik zo terug denk !!
yuh bredas talent skaffaantje met zn 1e clip skaffaantje shoot bars op je
grote controle bij nac stadion !! met belasting alles erop en eraan !!
dolgedraaid worden door robin van persie, tonny vilhena en soufiane touzani...
lui
over naar de jacky
hier voor al die haters !! arjen robben swa !!
lets zip !!
wauw wat ik net heb meegemaakt !!! hahahahaha
pff maar 2 uurtjes geslapen !!
jullie weten niks van mellowhigh !
dronken en stoned !!
savonds een vent , sochtends lekker uitslapen !!!
pfff daar is tie weer !!
dat hoofdstuk is afgesloten !!
verslaafd eraan !!
wauw kom een oude productie van mij tegen van 3 jaar geleden !! donyxfactor, l.c.g. &amp d.chesron body n soul
big up harde productie weer !! deze man is
wow schokkend wakker worden omdat je denk dat je te laat ben snel douchen en omkleden en dan besef je ineens dat je gewoon vrij ben
oja heb trouwens al weekend tot woensdag !!
moet nou serieus mijn verwarming aanzetten !!
mijn buik is fucked up !!