mongool! niks meer niks minder
bij erdem?? lijkt erop man
weet jij nog wat dan voor vanavond?
kan niks vinden voor een oefenwedstrijdje vanavond, resterende bekerwedstrijden zijn ook niet echt in de buurt...
heel verstandig! stumperd! kan er bijna helemaal niks van!
41 wateringse veld / gona, tevens eindstand
31 wateringse veld/ gona
ondertussen 21 in t voordeel van wateringse veld /gona tegen naaldwijk
weet je ook welke?
ja staat op hethaagsamateurvoetbal.nl. stukje van westlandia van gisteren alex. weet jij nog wedstrijdjes?
is er nog een beetje oefenvoetbal vanavond? site staat er 1 en westlandiasvc.
is dat van laatst? dat drm die korrels allemaal aan de zijlijn liggen😂😂
en dan afgetest worden omdat je hoofd te groot is!
ik hoop dat ik het een x zie! 😡
beresterk en nooit een spierblessure ook. hij zorgde er ook voor dat psv met witte kousen en broekjes…
gaat veel gestroomlijnder naar de grond...
was de goal ook niet iets van onana? staat voorbij de 1e paal op het moment van de voorzet
ff serieus, die ballotelli kan er echt helemaal niks…
dan hou ik m lekker wat langer vast als ik weer een balletje klem pak 😂
gaat helemaal goed komen! ik gedraag me altijd 😂
zit je te kijken dan naar de dames?
echt ff kijken eus!!
hvv hercules ‘hoofdbewoner’ voetbalvelden en kleedkamers vrederustlaan ongelofelijk!!
zijn er al tourdata bekend voor 2018? kan niks vinden. mn zoon van 10 wilt ook zo graag een x. miss world forum den haag?
zo weer lekker naar huis toe! wat ben ik die rijst met kip int hotel zat zeg!😂
groeten uit kusadasi, vriendje
hij kwam al veel zwaarder terug na zn 1e knie blessure, nooit meer de oude geweest...
de mooiste en meest technische van !?!?
dan had hij nu geen 130kg gewogen😂
waarna er 4 man gebruik maakt vd wc, zonder dat er ook maar iets van wordt gezegd!
vervolgens gooit er iemand 0,10 ct in de deur vd wc, zegt dat er 0,50 ct in zit en de deur wordt voor die snotaap open gedaan
wat een schande!!! bestel je voor 23, aan eten moet je nog 0,50 ct betalen voor de wc! schaam je!!
voorlopig geen sportactiviteiten op sportcomplex haaglandia 1 grote grove schande!!!!
ben benieuwd wat het over 10 jr is.....
jij hebt dus wel een box? 😂😂
coax versterker ertussen gooien
was net zo rustig......
weet je een tussenstand van odb?
succes vanmiddag! promoveren en weg uit die veredelde 4e klasse!
heb je ook niet zon foto van duindigt?
dacht dat boris aan de waterpijp had gezeten😂
dat bedoelde ik, juist geen foto van aan t eind van t seizoen... als ik daar speelde was t 1 stofwolk
wat staat er nog veel gras op😉😂
al zou dat nu dan een haas zijn geweest😉😉
henk heeft wel vaker een konijntje tevoorschijn getoverd....
weet je al waar je speelt? miss ff kijken dan
succes dan lange!! als je ze maar ouderwets op je bol krijgt dan😉
sla je geen flater mee, ben benieuwd of klaasen nog die kant op gaat....
31, nu wel
lastig, van rossum heeft rood gekregen en nu 31
ondertussen 11 terechte pingel tegen
10 velo, draaisma
gewoon zoals altijd, zuipen😂
vriendendag
en weer een uitspraak van de knvb ongegrond verklaard! lekker geloofwaardig.... klo…
mee eens!! mooi ook nu die tijd die weg tikt in beeld...
langzaam maar zeker komtie toch een beetje terug, lijkt echt of ze niet kunnen demarreren
beetje wel, als ze demarreren aan hij nooit meer reageren.... altijd pleite
nieuwe voetbalclub kranenburg wil fuseren met wateringse veld/gona
met die opkomst een heel hoog rocky gehalte....
echt ongelofelijk! alonso eruit, ronaldo nog niet gezien de hele wedstrijd en bam! 11...
kan mij ook gebeuren 😂😂😂
is er een internet storing in de omgeving choorstraat in delft?
nu alleen nog bij een aansprekende grote club in europa gaan voetballen....
dat worden vierkante ogen!!!
volgende week eus, pingels sowieso nu voor mij😂. en dan met elke corner mee voor de koppels😉
en vol in de blind geschoten he
een heel heel klein beetje.... liever niet😂
deze is masterlijk eus. luister goed met je ogen dicht alstie louis v g nadoet....😂😂
gewoon real driesje wordt onder de voeten gelopen.... alstie al speelt
stroomstoring wateringse binnentuinen?
een goede coach is ook supporter, een goede supporter is geen coach via mooi stukje!
wanneer hebben jullie de adidas mundial team art nr 019228 maat 42 weer?
wordt hansie nou kaal net achter die 1e paar haren?
is die gijp krankjorum geworden?
klopt op maar het komt elk seizoen terug😉. merk ik nu weer....
sv urk mijn zoon moet in de e1 misschien wat voor teleurgestelde ouders op de site??
kan ik jullie email krijgen voor een oproepje op de site?
zozo een aanvallende wissel....
ik had dan toch echt die kane gewisseld en rooney in de spits gegooid!!!!
gewoon blijven staan, niks aan de hand dan.
het is toch geen clown?
heeft die suffe gedacht aan de kaartverkoop??
en ben best benieuwd of die los gaan in toulouse, schorsing? met een toernooi in eigen land...
zie nu liever de beelden van feestende wales supporters of zoiets.
galeryplay bij wales!
wat een aanval!!!
ben nu toch wel benieuwd hoe ze in de rellen van vanavond gaan goed praten??
wat gebeurt er daar dan??? rusland kan helemaal niks vanavond. 3 4 en 50 zijn al voorbij gekomen qua kansen. slechte doping?
zijn dit de enige russen die geen gebruiken??
“mijn zoon moet in e1” via
is sissoko op de brommer?
die vent die dat voetbalnieuws doet heeft nu al de hele week hetzelfde aan... blauwe broek en wit overhemd😂😂
heb je m gezien? leuk voor volgend seizoen, john de grooth,😂
wim de jong bekende nederlander
mee eens! zo vader, zo zoon!
8 jr, en zodra we in de auto zitten moet nr 4 aan!
geen meer....
19 mei vervolgdebat herverdeling escamp i onderste steen naar boven halen!
8 jaar en helemaal gek van jullie!
altijd zn contract verlengen! lekker die coach eruit!
heel veel voorbeelden op te noemen alleen al hier in den haag!!
volledig eens met
wereld muurtje!!!
topdag gehad! en
en dan gaat het ineens hard...
nieuw begin van mijn relatie....
ik mis alleen mijn fabuleuze redding in het verslag.
je hebt je roeping gemist!
snackbarretje hoekje copernicuslaan fahrenheitstraat, een wokkie. en daarna nog ff naar kind die box afgegooid
een kleintje ja...
zit je er klaar voor??
super sunday bij hvv odb a.s. zondag 21 februari 2016 via klopt niet toch??? zondag hdv uit?!?!
is het wel normaal dat je alleen maar aan een en denkt?
kubat aktas heeft in deze wedstrijd zijn pols gebroken!
nog steeds bonje thuis en vandaag een gestaakte voetbalwedstrijd maar roken.... nee! het lukt gewoon! whaha, nooit verwacht.
zelfs na een flinke ruzie met mn vriendin niet naar de bp voor een normaal was t bingo geweest
ik heb net de trekbreker badge in de stoptober app verdiend door een antitrek tip te gebruiken.
de app doet t niet bij mij. verder lukt t zonder al te veel problemen 😀
jullie ook! super toernooitje daar! goed geregeld!
de e5 is vandaag 1e geworden bij svh!
ja echt, ziet er amateuristisch uit maar wel echt waar gebeurd
moge, wat is er aan de hand op de meppelweg op de hoek van de dedemsvaartweg voor de deur van de koffietent?
kunnen jullie corretje demmer niet een keer interviewen? vroeger altijd met zn moeder...
de e5 heeft vanavond in een leuke oefenpot tegen duno e2 in de laatste minuut met 54 verloren.
de e5 heeft vandaag met 62 gewonnen van tac90, in een leuke sportieve wedstrijd! eindelijk koploper ook nu!
hoi alex, zijn er nog leuke oefenwedstrijdjes vanavond?
mee eens, keihard meezingen!
zaten ze niet nog in your head?
en nog 1 voordeel.... geen zombie of ode to my family van de cranberries!
te werve ras 120!!
de e5 heeft in een leuke wedstrijd bij svc08 met 52 gewonnen!
mee eens! 2 of 3 jr geleden met gona nog nacompetitie tegen gespeeld met t 2e in de feestweek!
de e5 heeft vandaag met 100 gewonnen van duno!
zijn er nog kaarten te krijgen voor de golden earring?
zal ook wel worden!😉
radio10 zit op de oude frequente van veronica toch? hopen dat je daar kan instappen!
logisch, wanica star is uit de competitie...
ik heb net zoon steekt moeder dood in den haag via gelezen.
op het gras maaien na...
de plannen wist ik maar t gaat erom wat er aan t complex gedaan gaat worden, en dat er voor ons nooit iets is gedaan!
heel erg benieuwd wat de gemeente gaat doen...
lijkt me geen als meer... volgens mij is het nu wanneer!
btw ik zit nu bij radio10!
ben echt benieuwd wie er nu niet meer naar luistert! zijn dat veel mensen???
en waar hopen we op? rinkel de kinkel daar gaat van inkel!
34 eritrea
uit een terechte pingel wordt de gelijk maker gemaakt, 33 watveld/gonaeritrea
net 32 geworden
ondertussen bij. wateringse veld/ gona, tussenstand 31 voor gona.
wel naïef gevoetbalt van gona t 1e half uur, eerlijk is eerlijk.
heel irritant als je vanaf de 30e min gewoon beter speelt als de tegenstander, behalve die tegenstander in t zwart.
geen rode kaart voor keeper boshuizen, voor buitenspel fluiten terwijl dit onmogelijk kan, 2e rode voor gona onterecht.
ik hoop dat er een verslag komt waar de waarheid in staat!
31 nu bij boshuizen wat veld/ gona. half uur gespeeld
wat veld/gona krijgt een lesje effectiviteit in leiden 25 min gespeeld 30. boshuizen wat veld/gona
afgesloten!
komt mooi uit, niet zuipen morgen fit!😉
‘chinese investeerder ado haalt betalingstermijn niet’
een kat in t nou...
kom je nog ergens terug met op de radio? zou geen passend einde zijn met een radio ring op zak!
pogba
hoeft ze zich niet te scheren dan?
die kneus! gozer kan ik niet eens over m zeggen, kijken hoe die reageert alstie punten gaat pakken voor ze!
hij had beter kunnen blijven... opzeker basis gestaan bij jullie!
wat veld gona in de laatste minuut 10 achter tegen voc, mooie goal.
mee eens!! heb je die tweet van lineker al gelezen? daley blind, dagelijkse blindenkrant.... goeie woordspeling!!!
vandaag zou het geld van de chinezen moeten binnenkomen. ben benieuwd !!! succes
banaan shake lanza! dies super!
tis zeker een hele aardige man....
samen dan!
nijmegen??? kruidtoren??
lekker biertje laakkwartier?????
he alex, jij zat zeker je vrouw achterna toen dat bericht naar buiten kwam?!?!
ja jammer joh....
zie ik daar die buik van die loodgieter????
u lijkt sprekend op mijn moeder, die had ook zon stoel!!
en nu.... afwachten...
volgende opdracht pak je spullen in voor 2 dgn... en vergeet je zwembroek niet!
ik moest om 1300 uur klaar staan, gedoucht en wel...
daar sta je dan als timide rotterdamse jongen....
nu alleen nog de knvb!!!
goed nieuws!! nu nog een goeie spits en verdediger!
en wanneer komt de knvb met een straf????
via de andere kant hoor ik net dat t blues is ipv hellsounds
weer van die stumperts met een bivak muts op.... waar zouden ze die überhaupt voor nodig hebben?
heb je geen meer??
1x is dus meer waard als en
net echt super gegeten bij de
mee eens! eindelijk gaat den haag dan eens echt meedoen!
wd40! wereldspul!
morgen bij best warm zeg maar...
presteren ho maar! zou bijna zeggen lapzwans!
gefeliciteerd?!?!?!
is er al een straf bekend voor nav de bekerfinale?? duurt wel erg lang of niet??
2 politie autos met sirene en hoge snelheid net over de holle watering van kwinsheul naar den haag. wat is dr aan de hand?
we hebben er keihard voor gewerkt, uitgeknepen als een citroen! en wie het er mee oneens is, gaat maar lekker de golfbaan op!
waar is de
waar is de
raar!!!!
komt er nog een verslagje van afgelopen zondag op haaglanden??
je en erger nog, op tijd beginnen!!
ligt er hier nu ook al een bommetje onder???
ok thnx voor de snelle reactie!!
nee 500 van mijn rek naar een ing rek en een klant van mij heeft vrijdag gestort naar mij toe.
is er een storing? vrijdag een overboeking gedaan en geld naar mij toe gestort en nu nog steeds niets bij geschreven.
53 is dan niet heel hoog... dat wordt zuipen!!
weet je toevallig wie die kale man met zwart pak was die gisteren meteen na de wedstrijd tussen de spelers mee feest vierde?
mooi gesproken!!
vergeet je dan niet die pass van sneijder op robben tegen spanje...klein sprintje maar tegen ramos...
haagse bluf met de pingels??
sorry vergeet erbij te zeggen dat het om wat. veldgona gaat.
klein foutje op de site, volgend seizoen spelen we 1e klasse.... ipv 2e klasse
ik snapte m drm kwartfinale in duitsland 2006
het wk van zidane en materazzi??
geëmigreerde hagenaar niet eens hagenees.....
hij doet t nog steeds niet bij mij....
ik kan t filmpje niet meer terug zien.... waar wel??
het moment!! pingel of niet?? dacht t wel!!
hilversum 3 bestond nog niet!! 8 8 8
oei oei oei zwarte schaap van t dorp jij!! dr gaat over je gelult worden!!
verhaegh is ook niet echt een verbetering verdedigend!!
op dit soort momenten missen de grote!
zijn trouwens nu de gele kaarten uit de groepsfase kwijtgescholden?
ik moest die tweet in 2&amp doen was te lang maar de 1e heb je dan ws niet ontvangen. en logisch dattie meezingt! topspits!
je was toch benieuwd of klinsmann mee zong?
via gezien
opmerkelijk vsbondscoach jurgen klinsmann zong mee met het volkslied van duitsland.
miss toch tussendoor nog een lukratief transfertje voor m naar een warmer land?? miss jij m tegen
jouw misdaad prog was wel aardig, maar voor de rest is je mening helemaal niet boeiend zeker niet als je die mongool verdedigd!
je snapt er nog steeds niks van he??? als je het voor de 3e keer doet en dan zon reactie geven?? wegwezen met die vent!!
ziekte van heineken??
nu moeten ze ook niet gaan vragen om een gele kaart!
lijkt wel of die mossel opengevouwen is...
en die cillessen moet die terugspeel ballen ook sneller verwerken!
huilende hoeren die chilenen, met contact meteen schreeuwen!
we zijn los!!
ja was dr gisteren. alleen nog wat kleine dingen en het scorebord.
verhuizing gona in volle gang. raar gezicht en een vreemd gevoel!! kale kantine en een leeg veld....
gewoon van de mat af gevoetbald!
voortaan gewoon de beste scheidsrechters van de wereld op een wk, niet maar 1 per land!!
lijkt mij toch niet echt een terechte gele kaart!!
wat ziet die dr uit zeg!!!!
tis weer zon dag, de tijd vliegt en dr komt niks uit je handen...
trouwens, ist geen quick honduras? op de bank!!
super gaaf car!!!!
morgen tapas met sangria!!!
van gaal en xavi! en dan die hoek wachten op een handje!! hahaha!!
gvd gewoon zenuwachtig!
heb jij daar niemand vooe dan?
kunnen jullie mijn bericht van gisteren kunnen retweeten??
het is niet om aan te gluren!!
aanstaande vrijdag kampioenen/afscheids feest bij gona!! voor iedereen die iets met gona heeft!
je zal t maar hebben t uitzicht!!
alleen geen zondag meer!!
of inslikken!!
hoef je geen sorry voor te zeggen toch was gewoon benieuwd naar de clubs uit t haagse
ja thnx maar normaal gooien ze via haaglanden of haags amateur alles op twitter. haagsamateur had al gereageerd trouwens
zijn er geen tussenstanden van sev en die haghe?????
had je vroeger ook geen problemen mee!!!
blauwe kater????
voor een jeugdtoernooi op de kastelenring. rkavv onthutsend zwak!! 35min gespeeld 14 achter
een gilbert etappe dus voor als hij mee had gereden
zondag was t zo spannend en daarna zo ja toch wel emotioneel....
zondag was t zo spannend en daarna zo ja toch wel emotioneel....
kan die muziek niet uit dan??
mooi gedaan zo!
jajajaja!!!! gepromoveerd!!!! 52 gewonnen na 10 achter te hebben gestaan!!!
miss toch iets te voorbarig?????
als je nog hebt gespeeld dan hoop ik voor je dat t niet te veel was....
prima ook! geen klagen, genoeg werk, mooi weer wat wil je nog meer!
kom ff langs, laan van poot...
veel te warm daar voor sokken!
niet eens ok maar een beetje zoiets van boontje komt om zn loontje?? dat moet je toch wel hebben.
volgens mij kloppen de straten niet.
echt op slag van tijd de 33! do pondman! tevens eindstand
22 gerard rust! de makkelijkste uit zn carriere!
12 bij gona. en als zelfs de neutrale grnesrechters gaan pikken...
heerlijk! kon t ff niet zien door de bardienst maar t was vlak voor rust 11. kevin kalieffa.
op slag van rust komt spartaan op 10 wel zeker 2 meter buitenspel...
om heel eerlijk te zijn is spartaan20 iets beter.
we zijn begonnen op de beresteinlaan!
steen dr doorheen en terug naar je ouwe dorp!
nee nu niet meer! die gaat in de kaas vanaf volgend seizoen!
zo!! hij is klaar voor de start!
de rest van in de kast! zonde man!!
dan kan je dr zaterdag een paar drankjes opnemen!!!
op stap met george clooney!
in de kleedkamer bij de zwemles....
bekijk de tweet van
lekker zwoel kijken!
jongen van 10 overhoren voor pr werk over voortplanting. vrwaar komt t zaad van een man vandaan? auit je ogen?
ff bioscoopie pakken met de kids!
hatsé 4,5%!!! en helemaal niks tegen in te brengen!
zondag voor de laatste x thuis spelen! daarna voor altijd een uitwedstrijd!
had nederland maar zon keeper!
een beetje vent.... neemt ook gewoon een spuit!
wat gebeurt er hier dan???
komen dan!