vanavond 3 camera ploegen aanwezig voor hirving ‘chucky’ lozano.
glow diner arrangement inclusief lichtshow. | eetcafé de verlenging eindhoven
wellicht een idee voor de herfstvakantie.
indrukwekkend afscheid van clubarts tjaarda weber. “langer dan verwacht en korter dan gehoopt”.
zondag als vip naar psv feyenoord. | eetcafé de verlenging eindhoven
vandaag linda smits 10 jaar bij ons in dienst. wij alle collegas feliciteren linda natuurlijk van harte.
de winnaar van ons arrangement morgen is . ruud gefeliciteerd en tot morgen!
zondag naar psv roda jc met vooraf een heerlijk diner in de verlenging. rt en wellicht bent u erbij zondag
the office de sportieve werkplek van evolve services in het stadion van psv via
dag 4, ook in de verlenging is de beveiliging opgevoerd naar niveau 10 👍
dag 3, guus zingt wij zijn met vrienden....wij ook guus!
dag 2, guus eindigt met ik heb genoten. wij ook guus!
groots….. wij maken ons klaar voor de after party! dit wordt weer zo een nacht.
het is tijd voor de knallers!! samen met gers pardoel.. brabant, het regent. dak eraf hier.#ecdv
dat komt dooooooor jou!!!. heel attent dat je ons ook dit jaar weer gedag komt zeggen guus
terwijl de schemering invalt, de plaatjes mooier worden, neemt racoon het podium over met ‘het is een nacht!’
weet dat jij altijd welkom bent knalt het uit de speakers hier. dat geld ook voor deze oud psv spelers met hun part…
met wederom een ludiek filmpje zijn we echt los! guus komt op met de vraag wat zou elvis doen!
de sfeer zit er al goed in hier! niemand minder dan douwe bob trapt af.
natuurlijk graag met bronvermelding
ons personeel zal de komende dagen klaar staan voor de gasten van guus en er met iedereen een groot feest van maken…
en we zijn los. eerste bezoekers groots 2017 betreden het philips stadion. het wordt weer vijf dagen een groot fees…
winnaar ed amateurvoetbalgala bekend. | eetcafé de verlenging eindhoven
vanavond ed amateur voetbal gala 2017, wie gaat er dit jaar met de prijzen vandoor?
op het menu een calzone met kippengehakt, zongedroogde tomaten, rucola, gebakken ui, gepofte paprika en een overhe…
winnaars vip arrangement vieren de 10 voorsprong!
hierbij de gelukkige winnaars van onze winacties. heb jij gewonnen? gefeliciteerd! neem contact op met ons via een…
op het menu een heerlijk broodje met biefstukreepjes, zongedroogde tomaat, bosui, gebakken ui, pijnboompitten en t…
gesigneerde handschoenen winnen van jeroen zoet? laat ons weten waarom jij deze moet winnen!
altijd al een rondleiding willen hebben door het philips stadion? like, tag 3 vrienden en win!
excuus! de vip win actie is voor psv willem ii. alle reacties zijn opgeslagen en worden meegenomen in de loting!…
met welke vriendin zou jij dit vip arrangement willen winnen? like dit bericht, tag &amp win!
het shirt winnen van onze like de foto en tag de vrienden die jij hier jaloers mee maakt!
lunch winnen bij de verlenging voor 4 personen? like&amptag degene waarmee jij wil komen lunchen!
win vanaf maandag te gekke prijzen tijdens onze verjaardagsweek. houd dus deze week onze facebook en twitter in de…
wij zijn jarig en daar willen wij graag met jou op proosten! kom jij morgen gezellig bij ons lunchen? dan trakteren…
op het menu een broodje met kip teriyaki, gebakken taugé, gebakken champignon, diverse slasoorten en overheerlijke…
op het menu een heerlijk broodje met gehaktbal, gebakken ui, gebakken champignon, diverse slasoorten en overheerli…
regisseur frank lammers van de musical geheimen van de herdgang kijkt de musical op ons terras.
wij wensen iedereen een geweldig en gezellig carnaval! wij zijn vanaf dinsdag 28 februari weer geopend.
nieuwe kantoorunits te huur in het philips stadion | eetcafé de verlenging eindhoven
namens alle collegas wensen wij u een sportief en gezond 2017 en tot snel in het philips stadion!
nog even op krachten komen met dit snert weer!
mooie nieuwe site en menukaart bij onze bovenbuurman.
nu nog serene rust maar dit zal over drie uurtjes wel anders zijn.
matchday in afwachting van 180 gasten voor het bijwonen van psv fc bayern münchen.
nee helaas, de rest van de week wel geopend.
vanavond volle bak met onze gasten kijken naar fc bayern münchen psv met mark van bommel.
kijk nu naar ons thuisblijvers arrangement rondom fc bayern münchen psv op 19 oktober.
wij zijn er klaar voor vandaag!
doe mee aan onze like en win actie op
superdiner bij het daltons bbq spektakel met top muziek van feikelie prisor band
vanaf vandaag staan weer dagelijks voor u klaar. kom kijken naar ons nieuwe terras met uitkijk op de groene mat.
onze greenkeeper eddy brengt alles in gereedheid voor de eerste thuiswedstrijd van dit seizoen.
alles klaar voor de eerste wedstrijd psvaz.
tijdens de eerste wedstrijd van psv az zal ons nieuwe terras in gebruik worden genomen.
vandaag fandag psv. de verlenging is gehele dag tot 19.00 uur geopend.
presentatie van luc en thijs over het boek de waarheid voor onze gasten van de verlenging.
wij zijn er klaar voor!
met houdoe sluit het af voor vandaag. wij in de verlenging gaan nog even door als jullie het niet erg vinden
en uiteraard komt ons even persoonlijk toezingen.
ook de stadion led lampen worden ingezet. niets is te veel. wat een feest
ook dit is groots! oud psv kampioenen en hun partners proosten mee in de verlenging!
oud psver rené eijkelkamp geniet ook van in de verlenging.
jaaaaa rowwen heze.. ook de mannen uit limburg zetten de boel op zijn kop.
het feest gaat maar door. ook de olympische deelnemers worden door 33.000 uitzinnige en uitgezwaaid.
120.000 worstenbroodjes! u leest het goed. guus trakteert. ook hier in de verlenging!
prins guus probeerde het ook bij de toppers. hier is het net iets grootser
we zijn los! de zon schijnt in eindhoven en het dondert het bliksemt!
terwijl stadion en verlenging langzaam vol stromen trapt typhoon de avond af.
we zullen vanavond unieke beelden op ons instagram account posten. volg ons dus ook hier snel via
de verlenging zal deze 11e editie weer gastheer zijn voor guus zijn vrienden en familie. meer fotos zullen volgen!
goedemiddag eindhoven. de poorten van het zijn open gegaan. nog 2 uur tot dit podium betreed
aangepaste bereikbaarheid ivm concerten guus meeuwis | eetcafé de verlenging eindhoven
wie zal vanavond speler van het jaar worden bij het ed amateurvoetbal gala 2016.
geslaagd kampioensfeest psv was traditiegetrouw in de verlenging | eetcafé de verlenging eindhoven
de dino hebben we apart gezet in we zullen hem goed bewaren groet de verlenging
trots op onze favoriete opstelling.
waar is dat feestje?!
iedereen die springt voor luuk!
de schaal is waar hij thuishoort!
waar is dat feestje, hier is dat feestje!!! schat ik ben wat later...
de verlenging bomvol en klaar voor de topper in de 8 ste finale cl.
in verband met de grote toeloop zijn wij dinsdag avond helemaal uitverkocht. iedereen bedankt! atlpsv
heb jij, net als psv, trek in een spaanse walking diner? reserveer dan snel een plekje, dan eten we ze samen op!
in verband met een besloten samenzijn is de verlenging vrijdag 4 maart niet geopend voor de lunch.
vanavond live in de verlenging singer in suit! tot straks.
wij zijn er klaar voor 200 gasten laten genieten van een avond op topsportniveau.
mooie woorden van misdaadverslaggever john van de heuvel in interview in de volkskrant.
met carnaval zijn wij gesloten vanaf zaterdag 6 feb. t/m maandag 9 feb. fijne carnaval team de verlenging
morgen de knvbbekerwedstrijd tegen fc utrecht beleven als een echte vip? kijk dan snel op
zaterdag na de wedstijd crist coppens live! | eetcafé de verlenging eindhoven
een gelukkig en doeltreffend nieuwjaar💥 namens het hele team!
niet alleen afgelopen dinsdag ging het dak eraf, maar morgen gaat het dak er sowieso af met
proosten op het nieuwe jaar! | eetcafé de verlenging eindhoven
wij zijn er klaar voor!
de twaalfde man!
gaat psv vanavond de 1/8e finale bereiken?
op zoek naar dé locatie voor een gezellige kerst of nieuwjaarsborrel? mail dan naar info@eetcafedeverlenging.nl!
★ matchday! ★ speelt vanavond de return tegen
★ matchday! ★ vanavond speelt psv de bekerwedstrijd tegen sc genemuiden. ben jij er bij?
philips stadion in teken van mode bij de ddw | eetcafé de verlenging eindhoven
★ matchday! ★ vfl wolfsburg psv. blijft psv koploper in groep b van de
✵ broodje van de week ✵ broodje modebelofte
★ matchday! ★ vanavond hervat psv​ de eredivisie met een thuisduel tegen excelsior.
✵ broodje van de week ✵ wrap met gebakken zalm
✵ broodje van de week ✵ vikingbrood met dadelnotencreme
★ matchday! cska moskou psv ★ welke uitslag voorspel jij?
✵ broodje van de week ✵ broodje gebakken speenvarken
kans maken op een vip arrangement voor de wedstrijd morgen tegen nec? check dan snel !
✵ broodje van de week ✵ bruine bol met kalfsvlees
de verpletterende overwinning op sc cambuur herbeleven? kijk dan snel op !
dacht dat memphis nog voor psv speelde
haha inderdaad iets te enthousiast geweest
dat was genieten! hongerig geworden naar de volgende wedstrijd? bestel dan ons broodje champions league!
het theatre of dreams staat sinds gisteren niet in manchester maar in eindhoven.
✵ broodje van de week ✵ bruine bol met varkenshaas puntjes
✵ broodje van de week ✵ bruine bol met warm kalfsvlees
winnaar van het vip arrangement is . iedereen bedankt voor het mee doen en op naar drie punten morgen.
morgen psvfeyenoord en u kunt daarbij zijn! onder onze volgers verloten wij 2 vip plaatsen.
nieuwe boarding in het philips stadion | eetcafé de verlenging eindhoven
wij zijn in week 33 gesloten. natuurlijk zijn wij bij de eerste thuiswedstrijd tegen fc groningen weer geopend.
★ matchday! fc groningen – psv ★hoe zullen de aankopen van psv het doen tijdens hun eerste officiële wedstrijd?
nieuw kaart! check snel onze kersverse menukaart op 👉
✵ broodje van de week ✵ broodje caprese
de lichtstadderby bijwonen vanuit een business seat +10 consumptiebonnen? mail dan naar info@eetcafedeverlenging.nl
eetcafé de verlenging verhoogt plotseling dinerprijs pereiros zaakwaarnemer woedend
✵ broodje van de week ✵ broodje brie
✵ broodje van de week ✵ calzone met gebakken kip
✵ broodje van de week ✵ kebab met sla, gebakken ui en knoflooksaus
de medailles zijn omgehangen, deze kanjers zijn al 10 jaar betrokken bij groots met een zachte g! een groots applaus!
helaas zijn de ‘groots met een zachte g’ concerten voorbij. hebben jullie ook zo genoten?
in verband met groots is de verlenging vandaag de gehele dag gesloten. caffee1913 is wel gewoon geopend!
huh, is dit guus? nee dit is marc meeuwis het jongere broertje van onze guus!
dag 2 nu al ontploft het philips stadion. we zijn begonnen!
het was een donder een bliksem! we naderen het einde van het concert. het was weer groots.
terwijl de psvers oranje naar de overwinning schieten, gaan wij nog even door hier.
bam! wat een show weer.
toch aardig van guus dat hij ons persoonlijk komt verwelkomen.
en we zijn los!!! en hoe. op grote hoogte knalt guus met ‘het is een nacht’ erin.
de gasten van ons eetcafé verlaten de tafels en nemen plaats op het balkon. zo ziet guus ons straks.
het stadion stroomt langzaam vol. als voorprogramma hebben we miss montreal!!!
ook dit jaar weer een groots podium. van een kampioenen voetbalhuis, naar een poptempel.
het is geopend! voor het 10e jaar op rij gaan guus en wij er een groot feest van maken.
vandaag is het zover! tovert voor de 10x het om tot kolkende feestmassa! ben jij erbij?
barman guus? zie hier een van de eerste beelden van de carrière van onze guus.
terechte winnaars tijdens het elfde ed amateurvoetbal gala.
✵ broodje van de week ✵ bruine buchbol met runderreepjes
tot volgende seizoen in de verlenging!
✵ broodje van de week ✵ bruine buchbol met varkenshaas puntjes
★ matchday! ★ met welke score denk jij dat psv het seizoen gaat afsluiten?
helaas is zondag de laatste thuiswedstrijd van depay. wil jij hem nog 1 keer aanschouwen? kijk dan snel op
in verband met bevrijdingsdag zijn wij vandaag 5 mei de gehele dag gesloten.
1, 3 of misschien zelfs 5 gerechten, hoeveel denk jij er op te kunnen? elke zaterdag allyoucanlunch!
vanavond speelt psv tegen excelsior. gaat psv vanavond de 27e overwinning van het seizoen binnenhalen?
✵ broodje van de week ✵ buchbol met gemarineerde gebakken kip
geslaagd kampioensfeest in de verlenging | eetcafé de verlenging eindhoven
iedereen bedankt voor het geweldige feest. helaas hebben we van een collega afscheid moeten nemen.
zo doen wij da in eindhoven!
matchday! psv – sc heerenveen. met welke uitslag gaat psv landskampioen worden?
de verlenging is er klaar voor!
★ matchday! psv – pec zwolle ★ welke uitslag voorspel jij?
vanavond reünie van de politie opleiding van uit 1985. het ziet er blauw van het volk.
kom genieten van ons heerlijke paasmenu t/m aanstaande zaterdag! tijdens pasen zijn wij gesloten.
broodje van de week gebakken gambas met gegrilde courgette en ananasmayo. tot straks!
onvergetelijke middag voor broer vogels, jarenlange vrijwilliger van best vooruit. kijk voor het verslag op
grasmat ligt er strak bij! mooi affiche vandaag.
voorbeschouwing door marcel brands in de verlenging voorafgaand aan een mooie voetbalmiddag.
zit u eerste rij bij de seizoensafsluiting? | eetcafé de verlenging eindhoven
carnaval 2015 openingstijden | eetcafé de verlenging eindhoven
“@wwwwesleyklein ” vanavond te zien in de verlenging.
ook heeft een vip arrangement gewonnen ivm het groot aantal retweets! proficiat
winnaar van het vip arrangement is . alle rt bedankt en succes vanavond!
vanavond als vip bij psvfc utrecht. rt en wellicht bent er bij!
vanavond ruim 300 certificaathouders op uitnodiging van psv samen kijken naar de uitwedstrijd tegen nac.
vanavond na de wedstrijd de derde helft met wesley kleijn.
tijdens laatste wedstrijd van psv is ontvreemd uit de wall of fame. graag ontvangen info omtrent te daders.
voor de nieuwjaarsreceptie van psv nog een hapje en/of een drankje. wij zijn gewoon geopend natuurlijk.
extra jubileumconcert guus meeuwis in het philips stadion
kijkje nemen achter de schermen bij de herdgang? vertel dan via wie jouw favoriete speler is!
vanavond alles in het teken van de topper! de verlenging tot de nok gevuld.
vandaag kerstviering van de fiod eindhoven, al jaren vaste klant. ze wilde wel een rekening!
psv en bavaria sluiten nieuwe sponsorovereenkomst tot en met 2025
de mist trekt op voor de belangrijke match van vandaag. wij zijn er klaar voor!
moet jij een kerstborrel organiseren? wij organiseren het graag voor jou! neem een kijkje op
mooie docu over luc nilis opgenomen vanuit de verlenging.
buren hebben we getrakteerd op een leuke sinterklaas verrassing. ze konden er geen genoeg van krijgen!
wil jij kans maken op de pasta memphis? maak dan een foto van jouw topsportmaaltijd op
ook de wedstrijd van dinsdag psv feyenoord is uitgesteld. wij nemen contact op met onze gasten indien een nieuwe datum bekend is.
met wie wil jij naar psvdinamo moskou? laat het ons weten op
gratis op de koffie bij de verlenging? dat kan. meld je aan op
wij zijn trots op onze twee sterren
vanavond jubilarissendag. mooie dag in het philips stadion voor jubilarissen en familie.
genieten van de brabantse gemoedelijkheid en bourgondische keuken in combinatie met een thuiswedstrijd van psv?
broodje van de week volkorenbol met gebakken spek, champignons, ui en mosterddressing.
kerstborrel organiseren? feestelijk borrelen met uw collega’s rondom de feestdagen bij de verlenging! bekijk
de winnaar van de all you can eat lunch is..@corine1970! gefeliciteerd! stuur ons een privé bericht.
rt dit bericht en maak kans op een all you can eat lunch voor 2 personen!
lancering philips stadion events
voor de papas en mamas koffie en voor de kids limonade
zaterdag na de wedstrijd een optreden van alex.
zaterdag na de topper tegen heeze f1 zijn jullie van harte welkom, kijk snel op en scoor gratis koffie!!
trouwe gasten, daar kunnen we geen genoeg van krijgen! we verloten ook een lunch voor twee personen onder onze bestaande fans
kans maken op een gratis all you can eat lunch voor 2 personen? like dan snel onze facebook pagina
flower power avond een te gek feestje, we kunnen er geen genoeg van krijgen. bekijk de fotos
wij zijn er klaar voor!
professional aan het werk in de verlenging
we just cant get enough muziek! kans maken op 2 gratis kaarten voor flower power avond like dan onze facebook post op
2 gratis koppen koffie met uitzicht! ga naar
ik heb gestemd op eetcafé de verlenging. stem ook via en win mooie prijzen!
kijk hoe memphis depay zijn eigen pasta heeft samengesteld.
binnenkort op psv tv. memphis depay stelt zijn eigen pasta samen in de verlenging.
de tweede winnaar is . alle retweeters bedankt en hopelijk tot een volgende keer! succes morgen.
winnaar van van het vip arrangement morgen is straks maken wij een tweede winnaar bekend.
morgen onze jongens steunen op ons terras met een hapje en een drankje. rt en misschien zien wij u morgen.
naborrel zondag na psvexcelsior | eetcafé de verlenging eindhoven
vanavond zin in een biertje na de wedstrijd, kom gerust langs!
flower power avond vrijdag 24 oktober 2014 | eetcafé de verlenging eindhoven
genieten vooraf psv sc cambuur | eetcafé de verlenging eindhoven
pitchview met ons broodje van de week! meergranenbol met gambas, kappertjes, tomaat, rucola en mayodressing.
vandaag lighttown madness ontvangen voor hun mooie werk “@phoolie040 👍!”
heerlijke you can lunch bij eetcafe de verlenging!! echte aanrader voor een zaterdagmiddag!! esmee weber
stem op ons voor het leukste restaurant wij horen graag als u gestemd hebt.
de winnaar van het tweede arrangement alle retweeters bedankt en succes morgen.
winnaar van het viparrangement is . vanwege de groot aantal retweets maken wij er later nog een bekend.
morgen als vip naar psvvitesse. rt en misschien zit u morgen in de verlenging een vorkje te prikken.
brunch bij psvvitesse | eetcafé de verlenging eindhoven
foto van guuspennings83
bekijk deze geweldige deal voor psvfans van psv twaalf!
alles in gereedheid brengen voor de eerste competitie wedstrijd van dit seizoen.
wij zijn weer begonnen! psvnac | eetcafé de verlenging eindhoven
wij zijn vandaag weer gewoon geopend.
deze week is ivm vakantie de verlenging gesloten. vanaf maandag 11 augustus zijn wij weer geopend. caffee1913 is deze week wel geopend.
vandaag is de verlenging gewoon geopend tijdens de psv fandag. kom een kijkje nemen als u wilt.
tt transfer strootman pas bespreekbaar bij bod 100 miljoen
de bouwvak goed beginnen met een vrimibo. wij zien u graag morgen voor een dranje en een hapje!
broodje van de week. broodje met runderreepjes, gebakken champignons en truffelmayonaise. tot straks!
broodje van de week warme geitenkaas met gemarineerde champignons en zongedroogde tomaatjes. wij maken het graag voor u warm!
wij hopen wel op een verlenging!
elke zaterdag all you can lunch | eetcafé de verlenging eindhoven
deze week br. mexicaans kip met mexicaanse kruiden, guacamole saus, crème fraiche en ceddar kaas.
vandaag start van all you van lunch voor euro 9,50. vele kleine gerechtjes van de kaart.
nederland mexico vanuit het philips stadion | eetcafé de verlenging eindhoven
kom voor ons broodje van de week. waldcornbroodje met mascarpone pistache creme en gebakken beenham met honing en gebakken champignons.#ecdv
het feest gaat hier nog even door!
terwijl chili op 20 komt.. gaat het feest hier in de verlenging gewoon door.
de koning van oranje is toch echt in eindhoven! hier in het
het stadion ontploft bij de de eerste klanken van guus!
en we zijn los australië nederland en de 4e maal guus meeuwis deze week.
vandaag dag 4 groots 2014. guus en crew nog een dag in de watten leggen.
dit weekend de catering verzorgd voor bij guus. gastronomisch gastvrij groots gewoon goed!
wij zijn vandaag gewoon geopend. parkeren kunt u gratis op p1 in de parkeergarage naast het philips stadion.
de tweede avond is begonnen. guus komt even de gasten van de verlenging goeie dag zeggen.
vanavond zit het met onze bereikbaarheid wel goed! komt met de totale crew naar guus.
wat een toegift! wat een feest! jaaalaaaaaaa
groots 2014 van start! eetcafé de verlenging staat weer op zijn kop. | eetcafé de verlenging eindhoven
wij gaan even voetbal kijken, met een aantal mensen. tot zo!#groots2014
kane!!! live in het
op ons terras heet ondertussen ook iedereen een plekje gevonden.
en we zijn begonnen. guus heeft afgetrapt en een knal oranje philips stadion gaat helemaal los.
dit jaar staat nielson in het voorprogramma. het kleurt langzaam oranje!
en ook dit jaar weer een fantastisch podium. natuurlijk goed te bewonderen vanaf ons terras.
wij zijn er klaar voor! het 9e jaar groots. laat de gasten maar komen.
wij maken ons op voor vier dagen vip catering voor guus and friends. wij zijn vandaag tot 14.00 uur gewoon geopend.
de verlenging is gewoon bereikbaar rondom guus meeuwis. u kunt parkeren in de parkeerkelder p1.
vandaag in het ed chique café even veredelde kantine.
beste ploeg regio helmond rood wit 62 en in de regio eindhoven una , alle proficiat namens
vandaag tv opnames van twee oud gedienden in de verlenging. jan poortvliet en ernie brandts vertellen over psv.
“@wilheuvel nog 3 dagen dan staat 10e edamateurvoetbalgala weer op programma. volle bak in eetcafe vrijdag
vandaag heerlijk lunchen met het broodje van de week coppa di parma, champignons, paprika, emmentaler kaas en pesto.
vandaag huwelijk van de norm van de verlenging andre en maaike.
wij bedanken johnny van oosterhout en linda lotens voor een leuk huwelijksfeest gisteravond.
nieuwe zomerkaart geintroduceerd | eetcafé de verlenging eindhoven
funpark philips stadion geopend! een must voor de kids! wij zijn gewoon geopend!
dit weekend funpark in het philips stadion | eetcafé de verlenging eindhoven
ons broodjes van de week kalfsvlees met bospaddenstoelen, lenteui en truffelsaus. tot straks!
vandaag de buren op bezoek van hartje eindhoven. beter een goede buur als een verre vriend.
psv funpark in het philips stadion
kom voor ons broodje van de week. varkenshaaspuntjes met lenteui, paksoi, taugé en zoetzure saus.
vanavond de verlenging voor, tijdens en na de wedstrijd tot de nok gevuld! muzikale opluistering vanavond is van rob kemps.
bouwersborrel op vrijdag 2 mei 2014 | eetcafé de verlenging eindhoven
vandaag lunchen en kijken naar de training van psv in het stadion. tot straks!
vandaag lunchen op terras in het stadion, wij reserveren graag een tafeltje voor u.
vanmiddag de phoxydag beleven vanaf het terras van de verlenging onder het genot van hapje een drankje.
vandaag gastheer voor jong psv vvv. aftrap 14.30 uur.
vandaag zin een vervroegde paasbrunch. wij staan klaar voor u!
wij maken ons op voor een mooie, hopelijk succesvolle en emotionele middag!
psv feyenoord met wesley klein | eetcafé de verlenging eindhoven
wij steunen zowel philip en ernest vanavond.
psv fc groningen zat. 2932014 20.45 uur | eetcafé de verlenging eindhoven
vraag vandaag naar ons broodje van de week. runderreepjes met zongedroogde tomaatjes, balsamico uitjes en truffelmayo. ecdv
vandaag volop bezig met onze nieuwe lunchkaart. binnenkort kunt u genieten van onze vernieuwde zomerkaart.
winnaar van het vip arrangement morgen is en wij danken iedereen voor de retweets.
vandaag echt weer om binnen te lunchen. voor euro 10,— zit u bij ons al aan een uitgebreid lunchbuffet.
naar psvroda jc als vip. rt en wellicht bent u erbij om onze jongens aan te moedigen.
mooie presentatie hans van breukelen tijdens netwerklunch. van verliezer tot winnaar!
psvroda jc kerkrade za 223 20.45 uur | eetcafé de verlenging eindhoven
kom naar de netwerklunch met hans van breukelen. kijk op voor het programma.
psv fc utrecht zaterdag 8 maart 2014 | eetcafé de verlenging eindhoven