voorbereidingen zijn klaar en aan alles is gedacht😜 vanavond 2 keer terug in de tijd.
de storm is gaan liggen
van harte gefeliciteerd!!
de beurs verloopt prima. in n ontspannen sfeer tonen bezoekers veel interesse. wordt nog n leuke w…
gezellige en interessante ondernemersavond “de magie van ondernemen” met hans kazan en 2 presentaties…
goedemorgen, das nou leuk d week mee te beginnen dire straits sultan of swing
mooi om te zien hoe positief klanten reageren op de nieuwe virtual reality room we zyn klaar voor de toeko…
we sluiten 1 dag voor, inmiddels jaarlijkse mvo dag. video
jaarlijks 3daagse golfweekend staat weer op het punt te beginnen.
1 dagje sluiten voor 6 goede doelen. prachtig bedrijf!!!
blijft toch je broertje .....
mooi! gaan we dit seizoen nog veel plezier v hebben! bordeaux haakt af via
ben helaas verhindert. enjoy!!
belooft vanavond weer een top!!! avond te worden.
kermis in 😂 dak eraf met de nieuwe havenzangers
mijn is al begonnen belooft een mooi weekend te worden 🍸😂
we staan weer klaar voor onze 125 gasten. wederom n mooie mix v bouwend benelux bij
vanavond de voorbereiding voor morgen
ik zou zeggen al capone
legendarisch, links en rechts!! samen met om nooit meer te vergeten.
de dakenmarkt verliest een icoon. zijn kennis, sympathie, interesse en innoverend vermogen zal ik gaan missen. al…
veel belangstelling bij aktieve workshop professioneel netwerk van adealers.
prachtig initiatief zo vlak na de carnaval. maar helaas, ik pas!!! ......
komende dagen beetje moeilijk bereikbaar ...... thuisblijven was wederom geen optie 😜🎉🍺
1 keer per jaar niet naar maar naar de
wat een waanzin. ik zou zeggen bestuur royeren, laat die mannen lekker voetballen!!!! via
terechte winnaar ondernemer van het jaar van 👍👍👍 🍸😜
mijn favoriet staat nog lang niet bovenaan dat willen we toch niet !!!! komaan dames en heren…
1e vergadering in het nieuwe jaar voorzitten met bij gastheer
mooi stuurt naar het ziekenhuis
altijd lastig zon derby voor wie ben ik nu vanavond .......? tis in ieder geval ⚽️🍸😜
gemis is groot, respect is enorm en de herinnering blijft mooi. dank
al zo vaak gezien maar het blijft een magistraal gezicht.
kunstgras met rubberkorrels kijken!“@zembla uitzending gevaarlijk spel gemist?
donderdag zijn we gesloten zodat iedereen zijn steentje kan bijdragen. mooi voorbeeld doet volgen?
mooi artikel in over terwijl lokaal niks vermeld.
vakanties in belgië zijn voorbij en antwerpen staat wederom potdicht
vandaag afscheid genomen van onze buurman onze fries verhuist naar amerika. zo jammer......
als yuri iets nodig heeft om top te presteren en t is niet illegaal, waarom is dat zn probleem?
zoals het hoort! wordt helaas by veel bedrijven nog te vaak vergeten.
prachtige teamprestatie!!!! er is al veel vraag uit binnen en buitenland eu gecertificeerde randbeveiliging!!
complimenten voor en !!
alleen maar het beste voor onze klanten!!!
wederom positief in belangrijkste aanjager vd economie. structureel? via
voetbal is n leuk spel waarin 120 minuten lang 22 mannen elkaar n bal toespelen. na afloop heeft het duitse team altijd gewonnen.
ik dacht dat de stap naar een grotere club 2 jr geleden al gezet was.
enorme opkomst voor de 173 geslaagden bij
inspirerend!
ongelooflijk....nu ook een voor de uk bij het ek.
super leuk feest in onsacht!! zinderend
belooft weer een leuk feest te worden. back to the roots
we zitten er klaar voor!! geen dus gaan we nu voor onze zuiderburen 👍 🇧🇪
het dondert en het bliksemt nu echt 🌧 even small break maar het gaat zo weer verder ☀️😀
vipkaarten liggen klaar!!! laat de klanten maar komen, avondje altijd top.
tis mooi om te zien dat alle voorbereidingen goed verlopen
zo... voorbereidingen afgerond. morgen weer veel fijne klanten op de reynaersroval golfdag.
tijdens leveranciersmeeting be wordt weer een mooie groei getoond.
super trots vandaag!!! 2e prijs bij voor
boffert!!!
yess...daar is ie dan
ook proficiat!!! topprestatie op de !!!
de obers staan er klaar voor!!! 21 birthday bash for our daughter kristie.
leicestercity..... atlético madrid.... in het voetballen is alles mogelijk! zou het zondag dan toch nog gebeuren....
al meer dan 100 jr. een onafscheidelijk duo, bedenken een creatieve oplossing.
phillip cocu vindt mij een onmisbare schakel in het team van volgend seizoen! kijk deze video.
de al vroeg begonnen met een overwinning
als het echt mooi én duurzaam moet worden!!!
kampioenschap nabij? ajax speelt vanavond alsook tegen twente gelijk. dan hebben we op 1 mei toch gewoon een feestje!!
zelfs de tv aanwezig bij marokkaanse bbqkampioenschappen. de behalen 3e prijs!!!
no trips maar deze moet 😃 vandaag bbqwedstrijd in marokko met de
ongelofelijk dat knvb niet meer verstand heeft. lekker belangrijk doen via
al dagen het best gelezen artikel op de ontmaskering van cruijff
na een geweldige week met de mannen, vandaag toch weer lekker gewerkt, gefitnesst en rondje sauna.
ondanks t verlies was t een groot trots op en haar supporters!!!!
atlético beste verdediging v europa. we zouden eigenlijk niet meer mogen verwachten...
het triotje heerenveen, atletico en ajax ga ik van dichtbij meemaken vlg week zondag weten we het!
is t eerlijk te verwachten dat de werkgever dit allemaal maar moet betalen?
tip van de week geen laptop o.i.d. aan of op standby laten staan. bluetooth verklapt het.
jammer dat hij deze getergdheid niet op het veld heeft laten zien.
lichtpuntjes zijn er altijd!!! begin bij je zelf en je hoeft niet verder te zoeken.
vandaag een vader &amp zoon dingetje........ wordt een top dag come on manunited!
iedereen hard aan gewerkt, reacties zijn super!! fijn gevoel als alles op zijn plaats valt
mooi interview met martine reynaers. kritiek is het startpunt van innovatie
happy newyear namens de familie en mijn zusje
hahaha er is maar een leven en da is een goei.... ge moet het alleen zelf organiseren
nou dit was dan toch echt de laatste keer dit jaar
bioscoopje op kerstavond begint een traditie te worden. volgend jr mogen de mannen kiezen..
ho ho hooo. ik heb er weer verschrikkelijk veel zin in. merry xmas
mooie uitgave!!!!
positieve vooruitzichten vormen de boventoon tijdens kerstborrel speech
vol verwachting klopt mijn hart ......... maar cadeaus worden er vanavond niet weggegeven!!!
dat is nog eens een goed plan!!!
super interessante trip met een bedrijfsbezoek en ontmoeting van mogelijk nieuwe klanten.
brabantsenacht in was een voetbalfeest om nooit te vergeten! chapeau voor de supporters en
een grote voetballer is nog lang geen manager! als het zo simpel was .......
goede 1e dag op de beurs hét event voor de top aannemers in belgië.
rayon noord is aan de beurt om te trakteren
geen exposant maar bezoeker van batimat paris. super interessant met prachtig nightlife.
voor diegene die het nog niet wisten...... wie haben es nicht gewusst
een kroeg vol potten en pannen van café de gouden bal eindhoven
waarom ook u voor aluminium moet kiezen!! &amp fabels aluminium via
onze zuiderburen zijn zo gek nog niet top geregeld en super gezellig!!!
kan iemand mij vertellen waar dit jaar de start is?? mooie dag voor een persoonlijk record!! succes allemaal!!!
mooi filmpje van een unieke
eeuhhhhh ........... bekend gezicht
ontmoeting v bouwend nederland tijdens in hardenberg. onze stand staat er top bij.
helemaal top!!! van harte en veel succes.
vandaag 6 projecten tijdens mvodag ons project, de watersteeg veghel perfect verlopen!!
loopt niet zo lekker met mn clubje. ff sigaartje op verwarmd terras, komt t mss dalek toch nog goed.....
goldparty 50 jr reynaers met
richt je op de deuren, niet op de muren. heel toepasselijk, niet alleen voor de bouw!!
eens!!
upperclass!!!
★matchday★ were back!! verschrikkelijk veel zin in!
dak eraf bij super gezellig ondanks verlies. mooi dorp!!
leuke dag met er zijn toch weer meer dan een jaartje geleden......
beetje moe maar voldaan.... ontvangst en presentatie voor de leden v daklabel is meer dan goed verlopen!!
wat een mafkees!!!! kan iemand hem een spiegeltje of tv met uitzending gemist geven.
met een leuke presentatie v demo slager bbqspektakel
bbqspektakel is van start. workshops, bbqteams, muziek en nog veel meer.
dit weekend nk bbqen m oa marokkaans bbqteam,julius jasper &amp jeroen hazebroek. u komt toch!
voorbereidingen bbqspektakel.nl zijn klaar. volgend weekend m oa nk bbqen &amp julius jaspers. toeganggratis
1e week zit er op. tis weer leuk werken met t weekend starten we in
eeuhhhh is er iets verandert sinds we weg zijn??? koblenz 42° en f..king veul stau.
het zijn geen ochtend mensen die italianen......
omdat ze zon lekker koffie hebben......
.....and more to come gaan we meemaken ......
★ matchday! ★ verwachtingen zijn hoog..... 1e prijs van het seizoen!!
yoooh hier is het pas 96. kwist niet dat er zoveel vertraging op zat. morgen mooie finale &amp
je krijgt wat je verdient!! ik weet niet goed waar het fout is gegaan ........
leuke verrassing voor de fandag 2015. supporters als ik kunnen dat enorm waarderen. tot morgen!!!
leuke foto! proficiat met het 25 jarig jubileum. ik ben toch maar gaan werken.......
bbqen &amp speciaal bieren. beter gaat het niet worden dit weekend
!!! succes en tot snel
1e lichting klaar om te vertrekken. ik moet zelf nog een weekje.
weer een met de bij
hèhè, ff rustig napraten na leuke verjaardag by zwagertje en etentje bij altijd
is de 3e al naar huis gereden? dagje
positieve leveranciersmeeting be legt nadruk op gezamenlijke groei.
vandaag ff naar de kapper. zit bijna geen klant binnen, ben meteen aan de beurt, aircootje aan en geen stress. goeie keuze bij &gt30°
alles staat klaar voor vanavond. gaat weer een groot feest 22° worden
geluncht bij wereldberoemd restaurant in deventer e.o. perfecte locatie
ter ere van 10 jaar steken we er weer eens een aan
stilte voor de storm.... laat de laatste de beste zijn
welkom bij de club
als die dan ook ieder jaar allemaal naar de kermis gaan is er geen probleem......
waarschuwing vandaag 24° wordt er in ned &amp be niet gebouwd.
indeling 125 deelnemers vd afgerond. morgen weer n mooie mix v bouwend ned &amp be te gast.
10 jaar ‘vieren’ wij samen met een prachtige groep relaties in
veel belangstelling, gezellig &amp druk
leuke &amp pos wk. van overall contract landelijke bouwer tot golfen m goede klant &amp by benefiet tis
ook v harte gefeliciteerd!! das ok verrekkus lang. we vieren t ieder jaar zonder kinderen en dat houden we erin....
harde kern..... voor, tijdens maar zeker na de wedstrijd!!!
we hebben net zitten tellen. vandaag pas 22 jr getrouwd &amp 34 jr samen xxx
pim 1e bij speech van joseph was weer ongeëvenaard.
verjaardag en ieder jr een beetje dubbel...... tijdens het familydiner toch maar 2 min stilte inlassen.
daar worden we nou vrolijk van!!
altijd een leuk opwarmertje.
met mama naar t hippique mierlo. tis weer eens wat anders
mooi initiatief!!
met klanten naar de je kunt het slechter treffen
het is zoals het is, maar we missen zoals het was....... alweer 1 jr geleden. rip
je kan de richting van de wind niet veranderen, wel de stand van je zeilen.
afgelopen wk veel inspiratie opgedaan. doelen zyn helder. zonder geen richting en wordt stilstand achteruitgang.
supertop. proficiat!! “@gerardxhofleer super weekend gehad in denemarken. samen m boksver. xhofleer m 4x goud terug in ned.
na een geweldige weer terug in het normale. roodwit sbc b2 16
pffff dit kan echt niet!!! wie helpt haar en ons!!!! uit haar lijden?
matchday nog 1x het mooiste moment van dit seizoen. fey 43
volgens mij is dit een hele lange duurt al de hele dag en zo te zien voorlopig nog niet voorbij.
altijd super hectisch als je een inplant. volgend jaar doen we het gewoon weer
op weg naar n nieuwe klant. zodra de lentezon zich laat zien begint de bouw te ontwaken. ik ben klaar voor!!
en dan nu n super weekend met mijn oude dienstmaten 866 &amp partners.
bouw begint weer te ontwaken en tis heerlijk om de lijntjes weer aan elkaar te koppelen. na regen .....
matchday mooi moment voor een prachtige flashback met luc nilis de man met de gouden rechter.
jammer joep, nu zit je erlangs!! toon &amp marcel zyn en geen bobos rt column joep kantoorkampioen
het wordt weer leuk in de bouw!
onze kinderen &amp zwagertje zyn de koks vandaag. moet wel heel bijzonder worden.
weer volle bak bij laatste voor 1 keertje geen nog net geen
richt je op de deuren, niet op de muren. toepasselijk, niet alleen voor in de bouw....!
wij noemen dit gewoon aparte woordkeuze. blom moet met billen bloot, maar swerts was oncollegiaal
vandaag n nieuwe ontwikkeling aan duitse potentiële klant gaan voorleggen. heb veel zin én vertrouwen.
vandaag de hele dag m een klant op pad om lange termijn strategie te bepalen. komt helaas niet meer zo vaak voor
leerzame opendag verdedigingstraining krav maga m/v.
als dit een topper is wordt mijn twijfel nog groter.
waarom we in nederland geen finales meer halen. column joep lummelen
goed nieuws in moeilijke tijden ‘herstel woningmarkt boven verwachting’
iets geleerd?
ook 2014 sluiten we af met verjaardag v onze jongen 15jr vanavond silvesterparty in
ho ho hooo. ik heb er weer verschrikkelijk veel zin in. merry xmas
na jaren kistjes wijn versturen krijg ik vandaag zelf een pakketje.
kerstviering!! alle landen weer in de + afgesloten. voldoende goede signalen voor 2015.
veel belangstelling bij persmeeting in gent. professioneel netwerk m adealers.
hoop vol wachtend klopt mijn hart.......
heb er weer verschrikkelijk veel zin!! thnx
soms was een dag gewoon niet leuk morgen wordt het dus weer beter
fc eindhoven netwerk meeting mooi initiatief.
vanavond weer rook bij de kapel van &amp kan dus niet fout
1e vorst, koningwinter tikt tegen t raam. bouw is nog nie klaar voor n winterstop dus nog even wachten ajb!!
leuke dingen doen is het belangrijkste in het leven....#yolo
gm, de dag beginnen met een ontbijtje op alleen maar het beste voor onze klanten
ook bij ons gaat er weleens wat fout. de manier van oplossen bepaald de
ook okt weer goed afgesloten en n belangrijke nieuwe klant binnengehaald. tis heerlijk als de dingen op zn plaats vallen.
vandaag wordt mama 80 jr. zo jammer dat papa vandaag zijn 80e verjaardag niet meer kan vieren. rip
helaas in het verkeerde stadion! kunnen we weer genieten van onze
propedeuse voor dochter excellence is a attitude vlgs avans business creation.#proficiat#toekomst
staan klaar voor de 1e editie meeting point voor top aannemers. netwerken
european alu award düsseldorf, n mooie vermelding maar helaas geen prijs. ....zijn een maatje te groot.
1e vaatje is een feit!
aris weel weer top op feest.
klant in nholland vergeet onze afspraak. 5u ryden zonder resultaat is onacceptabel, ff snel schakelen.
de nieuwe camp van het golfweekend is
2e dag jaarlijks golfweekend staat op het punt te beginnen. moet mijn 1e plaats verdedigen.
vandaag tijd voor een leuk feestje!! samen 100 en al ruim 30 jr samen xxx
en nu naar oma, 80 jr.. dat moet gevierd worden! een mooie afsluiting vn indrukwekkende dag.
bevrijding wordt na 70 jr opnieuw herleefd. mooi om mee te maken.
leuk personeelsfeest m electr.fiets n kleine pondjes, nieuwe ervaring!
pfffff 78 jr, come on!! sepp blatter bevestigt dat hij voor nieuwe termijn fifavoorzitter gaat
gm, vandaag 25 jarig jubileum v fijne en altijd hardwerkende collega
ajax is vandaag favoriet. iedere deelnemer van de hoopt vanmiddag op een loting tegen
prachtige 1e dag m verassende winnaar. teams staan weer klaar voor de 2e dag.
ned. bbqspektakel gestart m presentatie v gertjan kiers terwijl de bbqteams deelnemen a.d. wedstrijd. toegang
na 30 graden en veel ontspanning komt en was bijna vergeten hoe dat voelde.
ook tijdens de vakantie periode blijft er te melden.
ronald is en dus nu een glitter &amp glamour party in
traditionele dit jr in mexicaanse stijl. 1e lichting roval
de visie en structuur v louis van gaal bij week vd ondernemer. video
persmeeting st. zeer pos. ontvangen. ism aleveranciers en dakdekkers.
ronald waterreus kritisch en openhartig over
vandaag, 3 mnd na zyn overlijden willen we via iedereen hartelyk bedanken.
top feest vd 3ling met natuurlijk
vandaag 125 deelnemers aan de golfdag. een prachtige mix v bouwend nl &amp be.
eerst een terrasje en dan een avondje theater in onze favoriete stad.
belooft weer n prachtige dag te worden. &amp laatste avond bywonen in myn favoriete stadion.
vanavond met relaties &amp partners naar
matchday met zon voorhoede en 5 verdedigers moeten we een heel eind kunnen komen!!
brabantse dorpenderby stichting meedoen proficiat met de 3e prijs en €7.500,
laatste 3 finalisten vd dorpenderby in rechtstreekse uitzending v sms nu dorp c 9090 st meedoen heeft je stem nu heel hard nodig!
perfect day!! kijk om je heen, &amp be happy. gelukkig zijn is de grootste rijkdom in je leven. of live
fijn!! nu weer aan de gang. hebben je gemist.
vandaag mooie deal gesloten in parijs.
gisteren opening fraai kantoor mee mogen maken. gaan we nog veel v horen.
julio iglesias in de verlenging. bruiloft maaike en andré. verzorgt
gm, vandaag met goede relaties golfen bij topdag in een ontspannen sfeer.
je bent niet schuldig aan het gezicht wat je gekregen hebt maar wel de smoel die je ermee trekt!!
leveranciersdag met super interessant en gezellig. m afterparty
topdag! rt. voorbereiding golfdag gestart. wordt weer n mooie dag!! ”
pos. bewegingen in de bouw wordt bevestigd bij interessante leveranciersmeeting vd belgium.
terug in de tijd!! maar dan zonder afwasmachine. lang niet meer gezien.
oostenrijk heeft zn statement &amp ned. n prachtige 2e plek. kritikasters go home, de muziek heeft gewonnen!!!
zou het vanavond dan echt een keer gaan gebeuren?? en met
kan ik de negatieve reacties vd zgn. experts nog eens terughoren bij aankondiging van dit duo.
tis een bonte avond bij het leuk om ook de twitters te volgen. chapeau
sta klaar voor een leuk avondje uit. en plaatsing fam. en komt langs.
gelukkig hoef ik het gras vandaag niet alleen te maaien
bescheidenheid siert de mens...... wat een onzin. ronaldo is 16 goals en nog 1 wedstrijd te gaan.
pa zou bly zyn geweest m iedere vorm v medeleven. twas overweldigend, kleding speelt geen enkele rol.dank tante annie
het gras by de buren lykt groener! neem de moeite je eigen gras water te geven en het wordt net zo groen.
super trots, thnx!! rt“@lilianevelt1 vandaag in het ad. kunnen jullie trots op zijn! ”
frans van de nieuwenhof column en artikel, 2 super mooie verhalen in de thnx!! r.i.p pap van kemenade
t waren heftige maar ook weer mooie weken.iedereen super bedankt v alle steunbetuigingen. tis zoals het is ...r.i.p pap van kemenade
winter is voorbij en weer compleet. ik heb de sterke golfverhalen gemist.
“@lilianevelt1 als je na de wedstrijd naar gaat, is zelfs bij verlies van psv de avond geslaagd!”
gm, het belooft een super leuk weekend te worden.
op moment zowel zakelijk als prive ongelooflijk druk. niet alles cest la vie. break
geweldig avondje !! bedankt. entertainment.
lach vaak en hard!! t geeft je n positieve houding en je blyft langer gezond. hoe moeilyk kan t zyn...... fijne
sorry jan was ff te druk om te bellen.
eindelijk val ik ook weer eens een keer in de prijzen!!
zittingsavond son en br. ongelofelijke reclame voor het dorp.
prachtig weer! koningwinter lykt aan ons voorbij te gaan. valt de ook een beetje in de prijzen!!
goud!! rt“@svenkramer86 van het weekend! ”
super!! de eerste 3 medailles zijn binnen! goud | zilver | brons
super!!
proficiat! lijkt bij jullie wel een gebakswinkel!! tot gauw.
morrende supporters op herdgang &gt@youtube&lt onbegrijpelijk dat psv niets doet. hopen op n wonder?
super leuke avond bij 3 punten en dialoog met en
positief bouwnieuws fd v.a. 2015 woningbouw + 17% groei. van 2016 t/m 2019 gemiddelde groei 10,5% p.j. bron
totaalconcept echt bob de haan change manager rt “@bobverandert alleen de naam verandert ”
recessie proof! rt “@4positiviteit intelligentie is het vermogen om je aan te passen aan verandering.
ondanks de kou was de club toch bijna compleet.
het was weer een top avond bij wijnen waren super!!!
elke keer als je valt moet je iets oprapen. degene die nooit valt kan ook nooit iets oprapen!
er zitten goeie dingen bij maar ge kunt nie winnen als ge nie scoort. toch
wat een strijd! na 9000 km is gerard de rooy 3min11 langzamer dan karginov.
gerard de rooy vandaag winnaar! morgen laatste etappe met 7min25 achterstand op karginov.@rtlgp
prachtige strijd tussen gerard de rooy en karginov. gp 2014
“@ijsfeest de woonboot van ! ” moet niet gekker worden! mooi dorp!
hans van breukelen?
hans van breuken?
tinysanders bedankt voor de financiële reorganisatie. graag hans v breukelen voordragen als opvolger!
is het nu niet tijd voor hans van breukelen???
ik ga voor van breukelen!
wat een geweldenaar! michael van gerwen 1e nederlandse wereldkampioen van 2014.
gm, wordt weer een prachtige afsluiting van het jaar. dutch
we zijn er weer klaar voor! maar goed dat er 2 kerstdagen zijn
heb prijzen worden op het einde verdeeld ...
gm, middagje met familie &amp vrienden, incl diner en afterparty bij
“@michen81 de andere fans zijn met vakantie! ” humor
kerstviering met gezellig, overwonnen, veel positiviteit. mooie club
altijd een geweldige plek om met klanten af te spreken. dutch