dag 2 het besef hoe mooi dit instrument is, en hoe goed dit past bij ons vak. ze staan te trappelen om de amps te…
steunkousen aantrekken? kies de beste aantrekhulp! laat je adviseren door een ergotherapeut.…
exclusief bij en en in samenwerking met het ve 3daagse otipm occupational therapy intervention process model…
laatste kans ben jij kinderergotherapeut? dan moet je er bij zijn op de studiedag play &amp leisure op 17 nov! mel…
vandaag start van de nlp practitioner opleiding voor ergotherapeuten bij opmaat in huizen i.s.m. je team voor elk…
cliënten van vertellen hoe ze hun zelfstandigheid terugkregen door
ergotherapeut biedt coaching en training op weg naar passend werk
langer zelfstandig thuis wonen, ja! maar hoe zorg je ervoor dat dat veilig blijft en makkelijker gaat? vraag een er…
bureau en trekt het land in daniëlle was te gast bij bureau volzin in rijswijk
ergotherapie nederland wenst alle ergotherapeuten een fijne en succesvolle wereld ergotherapie dag!
nederland, gefeliciteerd!vandaag wereld ergotherapie dag!in nl staan dagelijks 4500 ergotherapeuten klaar voor u
bureau en trekt het land in lucelle te gast bij ergo den bosch ergotherapie dag
langer zelfstandig thuis wonen, ja! maar hoe zorg je ervoor dat dat veilig blijft en makkelijker gaat? vraag het de…
hallo paul, dank voor je tweet/reactie. staat er een lokale afzender op deze flyer? ^eb
langer zelfstandig thuis wonen, ja! maar hoe zorg je ervoor dat dat veilig blijft en makkelijker gaat? vraag het de…
wereld ergotherapie dag 2017 beleidsmedewerker carmen op bezoek bij kinderpraktijk op stap in amstelveen…
langer zelfstandig thuis wonen, ja! maar hoe zorg je ervoor dat dat veilig blijft en makkelijker gaat? vraag het de…
voor wed trekt het bureau opnieuw het land in! lees hier het wedervaren van angélique, op bezoek bij
27 oktober is het wereld ergotherapie dag. ons thema is veilig in en om het huis voor ouderen. wat is jouw actie…
baas over eigen tijd in de zorg? kom naar de training timemanagement op 21 november bij en.
de nlp practitioner opleiding voor ergotherapeuten is geaccrediteerd voor 129 punten. er zijn nog plekken beschikba…
ben jij kinderergotherapeut? kom naar de studiedag play &amp leisure op vrijdag 17 nov bij postillion in bunnik!…
vanavond opfrisworkshop dte bij ergotherapie nederland met rob koppers.
baas over eigen tijd in de zorg worden? geef je op voor de training timemanagement op 21 nov bij en.…
nieuw cursusdag het proces binnen de wmo van probleem, naar aanvraag tot rolstoel op 16 mei 2018
let op er zijn nog maar enkele plekken beschikbaar voor de studiedag vermoeidheid, energie en lifebalance bij d…
nieuw cursusdag ‘de ergotherapeut en de gemeentelijke wet en regelgeving een kans of een obstakel? i.s.m.…
eindversie kwaliteitsstandaard multidisciplinaire zorg qkoorts in zicht
laatste kans cursus dte gedaan? meld je aan voor de opfrisworkshop dte op dinsdagavond 10 oktober aanstaande!…
gefeliciteerd namens alle medewerkers van ergotherapie nederland!
vandaag bestaat en officieel 60 jaar! benieuwd wie de winnaars zijn van onze ledenactie..?
beleidsmedewerker carmen bergström bezoekt vandaag de publieksdag ehealth in de praktijk.
het is bijna zover.....#nog1nachtjeslapen
er zijn nog enkele plekken beschikbaar voor de nlp practitioner opleiding voor ergotherapeuten start 3 nov. doe…
en neemt deel aan werkconferentie eenvoudige en intuïtieve nederlandstalige definities van icf categorieën voor de…
laatste kans om je aan te melden voor de training participatieve aanpak op de werkplek op 2 okt &amp 6 nov 17…
ben jij kinderergotherapeut? kom dan naar de studiedag play &amp leisure op 17 nov bij postillion bunnik!…
méér kwaliteit van leven door inzet bij dementie
cursus dte gevolgd? vragen over toepassen dte? laatste ontwikkelingen dte weten? beter samenwerken in de wijk? volg…
ben jij die ergotherapeut die zich wil onderscheiden? doe de cursus reattach op 9 nov!
ben jij lid van ketp? kom dan op vrijdag 17 nov naar de ketp werkconferentie bij postillion hotel in bunnik! zie we…
werk ji met arbeidsvraagstukken? volg de training participatieve aanpak op de werkplek op 2 okt &amp 6 nov 17 bij e…
er zijn nog enkele plekken beschikbaar voor de nlp practitioner opleiding voor ergotherapeuten start 3 nov. doe…
wat zijn de online kansen van jouw praktijk? kom naar de bootcamp online marketing voor ergotherapeuten op 12 okt…
kinderergotherapeut? meld je dan aan voor de studiedag play &amp leisure op vrijdag 17 nov bij postillion in bunnik!…
studiedag play &amp leisure op 17 nov bij postillion bunnik. prof. dr. anita bundy is keynote speaker. meld je snel…
wat zijn de online kansen van jouw praktijk? kom naar de bootcamp online marketing voor ergotherapeuten op 12 okt…
let op nog maar 3 plekken beschikbaar voor de cursus top &amp toes op 15 &amp 16 nov bij postillion in bunnik! meld j…
ben jij die ergotherapeut die zich wil onderscheiden? doe de cursus reattach op 9 nov!
studiedag play &amp leisure op 17 nov bij postillion bunnik. prof. dr. anita bundy is keynote speaker. meld je snel…
training uw eigen bestaande praktijk onder de loep met eric van haperen in delft was een zeer groot succes!
studiedag vermoeidheid, energie en lifebalance op 10 nov bij de han. wees er snel bij! bijna vol!#ergotherapie…
tweede dpodag van de post hbo kinderergotherapie een succesvolle en inspirerende dag.
heb jij de 5daagse cursus amps gedaan? wil je de kennis over de amps opfrissen? kom dan naar de opfris/vervolgcur…
ergotherapie nederland wenst alle deelnemers veel plezier bij de rollatorloop!
wat zijn de online kansen van jouw ergotherapiepraktijk? kom naar de bootcamp online marketing voor ets op 12 ok…
laatste kans call for abstracts voor ergotherapie jaarcongres 2018. uiterlijke inleverdatum is 10 sept 17. meer…
als ergo werkzaam op school? doe de assessment of motor and proces skills voor in school! schoolamps 5 dgn 29 jan…
lid van meld je dan aan voor de ketp werkconfertentie op vrijdag 17 nov bij postillion hotel in bun…
nog maar 6 plekken beschikbaar voor de cursus top &amp toes van prof. dr. anita bundy uit sydney op 15 &amp 16 nov! mel…
deze hippe elro met bijpassende kentekenplaat gespot in curacao door susanne maas
studiedag play &amp leisure op 17 nov met prof. dr. anita bundy uit sydney in postillion hotel bunnik. schrijf je in…
laatste kans om je aan te melden voor de training uw bestaande eigen praktijk onder de loep op 6 sept bij ergothe…
cursus dte gedaan? kom naar de opfrisworkshop dte op 10 okt, zodat je op de hoogte bent van de laatste ontwikkeli…
bootcamp online marketing voor ergotherapeuten! wat zijn de kansen van jouw ergotherapiepraktijk? meld je aan.…
prof. dr. anita bundy komt uit sydney voor o.a. de cursus top &amp toes. er zijn nog enkele plekken beschikbaar. mel…
prof. dr. anne fisher komt weer naar nederland voor de 3daagse cursus otipm op 27, 28 &amp 29 juni 18 in tilburg. me…
aanmeldingen gaan snel voor de studiedag vermoeidheid, energie en lifebalance op 10 nov. zorg dat je er bij bent!…
training participatieve aanpak op de werkplek op 2 okt &amp 6 nov. nu nog plaatsen beschikbaar.
ben jij kinderergotherapeut? kom dan naar de studiedag play &amp leisure op 17 nov bij postillion in bunnik.…
meld je aan voor de 3daagse verdieping met je client m.b.v. nlp. staat ook voor 2018 op de cursusagenda! zie web…
bootcamp online marketing voor ergotherapeuten! 12 okt bij en in utrecht met van
nieuw studiedag ergotherapie bij chronische pijn en vermoeidheid op 10 nov bij de han. meld je aan!…
kinderergotherapeut? 17 nov studiedag play &amp leisure bij postillion hotel bunnik. keynote speaker is prof. dr. an…
de nlp practitioner opleiding voor ergotherapueten start in nov 17 bij opmaat in huizen. meld je aan!
ben jij kinderergotherapeut? kom dan naar de studiedag play &amp leisure op 17 nov bij postillion hotel…
bouw mee aan de kinderergotherapie in nederland en wordt specialist kinderergotherapie!…
nieuw studiedag ergotherapie bij chronische pijn en vermoeidheid op 10 nov bij de han. meld je aan!…
aanmeldingen voor de cursus top &amp toes van prof. dr. anita bundy lopen hard. zorg dat je erbij bent op 15 &amp 16 no…
call for abstract dien je onderwerp voor het jaarcongres 2018 in voor 10 sept via congres@ergotherapie.nl…
bent u lid van en? interesse in folders m.b.t. het klachtenloket paramedici voor uw clienten? bestel via en@ergothe…
training timemanagement baas over eigen tijd in de zorg op 21 nov bij de ergoacademie. meld je aan!…
cursus dte directe toegang ergotherapie zijn dit jaar nog te volgen op 12 sept en 14 dec. meld je aan!
bent u lid van en? interesse in folders m.b.t. het klachtenloket paramedici voor uw clienten? bestel via en@ergothe…
bent u lid van en en heeft u het tijdschrift em3 niet ontvangen? stuur een mail naar en@ergotherapie.nl en u ontvan…
call for abstract dien je onderwerp voor het jaarcongres 2018 in voor 10 sept via congres@ergotherapie.nl…
bootcamp online marketing voor ergotherapeuten! 12 okt bij en in utrecht met van
exclusief cursus top &amp toes van prof. dr. anita bundy op 15 &amp 16 nov bij postillion hotel. nu online!…
cursus meer impact van je houdingsanalyse en advies met het damh model van frank kerkhof op 1 &amp 15 nov. meld je…
wegens succes herhaald! bootcamp online marketing voor ergotherapeuten op 12 okt om 1830 in utrecht
vandaag is het bureau van ergotherapie nederland gesloten vanaf 1200. morgen zijn wij weer bereikbaar vanaf 830.…
studiedag play &amp leisure met als keynote speaker prof. dr. anita bundy op 17 nov bij postillion hotel in bunnik…
training uw bestaande eigen praktijk onder de loep op 6 sept om 18u bij ergotherapie thuis in delft…
schrijf je in voor de nlp practitioner opleiding voor ergotherapeuten bij de ergoacademie. start nov 17
training uw bestaande eigen praktijk onder de loep op 6 sept om 18u bij ergotherapie thuis in delft.…
na alle positieve reacties &amp herkenning delen we graag voor iedereen de column van theo van der bom van em3
save the date van 27 t/m 29 juni 2018 komt prof. dr. anne fisher weer naar nederland voor de 3daagse otipm cursu…
nieuw studiedag play &amp leisureop 17 nov bij hotel postillion in bunnik. keynote speaker prof. anita bundy!…
nieuw studiedag ergotherapie bij chronische pijn en vermoeidheid op 10 nov bij de han. meld je aan!…
het nieuwe ergotherapie magazine is uit! binnenkort in je brievenbus.
overleg 3e studentencongres ergotherapie op hogeschool rotterdam vandaag. we zoeken nog studenten om ons te helpen!…
wegens succes herhaald! bootcamp online marketing voor ergotherapeuten op 12 okt 2017. meld je aan!
vandaag wereld als dag. denk aan de medemens met een spierziekte.
de eerste opfrisworkshop dte met rob koppers doen was een succes! de volgende is op 10 oktober. aanmelden kan n…
belangrijk en historisch akkoord voor de paramedische zorg is op 19 juni door minister schippers ondertekend!
nieuws minister schippers sluit eerste akkoord voor paramedische zorg!
rob koppers neemt ons mee in waarom multidisciplinaire samenwerking zo belangrijk is in de eerste lijn.
samenkomst met onze eigen beroepsvereniging tijdens de ppn startersdag 2017. wat doet en voor starters en ergos?…
erica bouma van spring marketing geeft een presentatie over marketing &amp social media voor je eigen praktijk
eric van haperen en peter rakke vvaa over fiscale, juridische en financiele aspecten van een eigen praktijk…
peter buisman spreekt namens kwaliteitsregister paramedici over trots op wat je doet en dat laat je zien…
mooie groep huidtherapeuten, diëtisten, oefentherapeuten, ergotherapeuten en logopedisten vandaag op de ppn starter…
vandaag de ppn startersdag 2017! mooie samenwerking tussen onze ppn partners en de vvaa.
laatste kans dit weekend om je nog aan te melden voor de opfrisworkshop dte a.s. dinsdag 20 juni om 1800!
morgen de ppn startersdag 2017 in utrecht in samenwerking met de de 150 goodiebags staan klaar!
de eerste nlp pratitioner opleiding voor ergotherapeuten nu bij de ergoacademie. meld je aan!
nog plekken beschikbaar voor de opfrisworkshop dte directe toegang ergotherapie op 20 juni om 1800 bij en. mel…
breng jij als lid van en een nieuw lid aan, dan ontvang je 60 euro korting op je lidmaatschap.
bouw mee aan kinderergotherapie in nederland! er is nog plaats in sept om te starten met de dpo dag en module 1.…
bootcamp online marketing voor ergotherapeuten op 12 oktober 2017 bij en in utrecht! meld je aan via ergotherapie.n…
laatste kans aanmelden opfris/vervolgcursus amps op 16 &amp 30 juni door jose hengens bij en in utrecht
wie wil ons team komen versterken op korte termijn? kijk op ergotherapie.nl voor de vacature!
cursus dte gedaan? kom naar de opfrisworkshop dte door rob koppers om 1800 op 20 juni in utrecht. aanmelden kan no…
nov 17 start de 14daagse nlp practitioner opleiding voor ergotherapeuten bij de ergoacademie. meld je aan!
tweede dag ebp &amp praktijkgericht onderzoek in de ergotherapie van joan verhoef bij en met gastpresentatie van luc…
ben jij die ergotherapeut die zich wil onderscheiden? doe de cursus reattach basic skills training 3daagse bij…
5daagse amps cursus gedaan? kom dan naar de opfris/vervolgcursus amps door jose hensgens bij en in utrecht op 16…
wil jij je eigen praktijk starten? kom dan naar de startersdag op za 17 juni 17! aanmelden via ergotherapie.nl…
faculty training tot amps docent voor milou dupuits &amp anneke vogelenzang gestart in londen vandaag. succes!…
11 sept start schoolamps 5dgn bij hotel van der valk in breukelen. geldt als vakinhoudelijke cursus voor de post…
nieuw 14 sept cursusdag ondernemerschap voor ergotherapeuten hoe start ik een eigen praktijk? aanmelden via ergo…
bouw mee aan de kinderergotherapie in nederland! schrijf je vandaag nog in voor de post hbo opleiding kinderergothe…
de startersdag voor ergotherapeuten op zaterdag 17 juni in utrecht! voor iedereen die net gestart is of overweegt t…
heb jij de amps gedaan? meld je dan nu aan voor de opfris/vervolgcursus amps op 16 &amp 30 juni!
nieuw bij de ergoacademie de nlp practitioner voor ergotherapeuten! complete opleiding tot nlp practitioner in huiz…
maandagavond om 19u is tiska ikking live te horen bij bnr beter van bnr radio over et &amp parkinson
ruth zinkstok tijdens haar afscheidssymposium. een fenomeen gaat met pensioen.
wil jij je eigen ergotherapiepraktijk starten? kom dan zaterdag 17 juni 2017 naar de ppn startersdag!
5daagse amps cursus gedaan? meld je dan aan voor de opfriscursus op 16 &amp 30 juni 17 door jose hensgens bij en in…
overweeg je om een eigen praktijk te starten of ben je net gestart? kom dan naar de startersdag op 17 juni 17!…
op 10 mei spreekt sandra jellema msc over informele zorg en participatie van mantelzorgers studiedag cva. meld…
nog 4 plekken beschikbaar bij de training participatieve aanpak op de werkplek bij de ergoacademie!…
woensdag 10 mei lezing mohammed benzakour over stilleven van een marokkaanse moeder op studiedag cva. meld je aan…
cursus dte gedaan? meld je aan voor de opfrisworkshop dte op dinsdagavond 20 juni om 1830 bij en.
ook dit najaar de 3daagse training verdieping met je client m.b.v. nlp bij de ergoacademie. start 24 okt 17 bij…
storing wij zijn sinds gisteren tijdelijk niet bereikbaar per mail. er wordt hard gewerkt aan een oplossing. excu…
cursus esi evaluation of social interaction 3daagse met start op 30 okt 2017 bij en. zie ergotherapie.nl
wil jij je eigen praktijk starten? kom dan naar de ppn startersdag op zaterdag 17 juni bij en in utrecht!…
cursus dte gedaan? doe de opfrisworkshop dte op 20 juni om 1800. meld je aan via ergotherapie.nl
in het najaar 2017 weer een cursus verdieping met je client m.b.v. nlp 3daagse, ditmaal in huizen. meld je aan…
jubileumactie ben je lid van en en meld je een nieuw lid aan, dan ontvang je 60 euro retour op je lidmaatschap!…
11 april wereld parkinson dag ergotherapie verbetert dagelijks functioneren van mensen met parkinson
wil jij je eigen praktijk starten? kom dan naar de ppn startersdag op 17 juni 2017 in utrecht! aanmelden ergotherap…
nieuw training participatieve aanpak op de werkvloer op 1 &amp 29 juni 17. meer informatie check ergotherapie.nl…
jubileumactie meld nu een nieuw lid aan bij ergotherapie nederland en ontvang 60 euro korting op je lidmaatschap!…
nieuw cursus reattach basic skill training op 9, 10 en 13 nov 17 bij de ergoacademie
laatste kans ben jij wel op de hoogte van de wkkgz? meld je aan voor de informatiebijeenkomst wkkgz op 11 april 18…
vooraankondiging opfriscursus basiscompetenties motiverende gespreksvoering op 27 juni 17 bij en.…
ben jij wel op de hoogte? 11 april informatiebijeenkomst wkkgz bij en i.s.m. om 1830. meld je aan via ergoth…
heb je de dte cursus gedaan? kom dan naar de opfrisworkshop dte op 20 juni 17 bij ergotherapie nederland.
bouw mee aan de kinderergotherapie in nederland! doe de post hbo opleiding kinderergotherapie. zie ergotherapie.nl…
ppn startersdag op 17 juni 17 in utrecht bij de wil jij een eigen praktijk starten? zorg dat je erbij bent!…
opfris/vervolgcursus amps op 16 &amp 30 juni 17 bij ergotherapie nederland! amps gedaan? geef je dan op via ergother…
11 april om 1830 informatiebijeenkomst wkkgz bij en i.s.m. vvaa. eigen praktijk? zzper? zorg je op de hoogte bent…
nieuw 2daagse cursus meer impact van je houdingsanalyse en advies met het damh model. interesse? meld je aan!…
indrukwekkende rij ergotherapie experts! mooi!
mieke cardol als laatste keynote. daar waar je stappen zet, wordt het grond.
leidt ons dynamisch door deze dag heen.#encongres17
er wordt goed voor ons gezorgd!
iedereen rekt zichzelf uit voor meer energie!
gefeliciteerd!
bedankt voor jullie inzet!
nieuw cursus amps 6 t/m 10 nov 17 bij de ergoacademie. terugkomdag is 29 jan 18. meld je aan via ergotherapie.nl…
voor iedereen die morgen aanwezig is op het jubileumcongres ergotherapie...gebruik de tot morgen!…
wij zijn gesloten tot ma 27 mrt 830 ivm jubileumcongres ergotherapie en ons 60jarig bestaan. excuus voor het onge…
nieuw opfrisworkshop dte directe toegang ergotherapie op 20 juni of 10 okt 17 van 18u tot 21u bij en
bij en is een vacature beschikbaar binnen de commissie ib internationale betrekkingen. interesse? check de websit…
reminder informatiebijeenkomst wkkgz op 11 april 17 bij en. meld je aan via ergotherapie.nl
trots dat dr. esther steultjens 24 mrt een van onze key note sprekers is op het jubileumcongres! ben jij erbij?…
nieuw de amps cursus van 6 t/m 10 nov 17 5daagse bij de ergoacademie. binnenkort online!
trots dat dr. mieke cardol 24 mrt een van onze key note sprekers is op het jubileumcongres! ben jij erbij?…
op het jubileumcongres ergotherapie, 24 mrt, mogen we 3 grondslagen verloten! misschien heb jij geluk?…
we zijn er weer bij!
informatiebijeenkomst wkkgz op 11 april 2017 bij ergotherapie nederland met de vvaa. meld je nu nog aan!…
cursus schoolamps vanaf vandaag online. tevens voor leden ve toegankelijk voor ledenprijs. schrijf je in!…
cursus esi evaluation of social interaction vanaf vandaag online. schrijf je in voor okt 17!
bouw jij mee aan de kinderergotherapie in nederland? doe de post hbo opleiding kinderergotherapie!
reminder 11 april informatiebijeenkomst wkkgz bij en! meld je aan via ergotherapie.nl
vanaf vandaag zijn de stukken van de algemene ledenvergadering van 24 maart 2017 te vinden op ergotherapie.nl…
meer dan 40 ets zijn aangemeld! kom jij ook naar de studiedag trends in de zorg en begeleiding van de cvaclient…
vorige week 010 nu 020 en weer 20 ergotherapeuten er bij. proficiat nieuwe collegas!!
binnenkort online bij de ergoacademie cursus esi 3daagse evaluation of social interaction van 30 okt t/m 1 no…
save the date ppn startersdag op 17 juni 2017 bij en. starten en samenwerken in de eerste lijn!
machteld huber geeft inleiding bij de start van project paramedisch wetenschappelijk onderzoek. i.s.m. zonmw, vws,…
weet jij al wat de wet wkkgz voor jou gaat betekenen? kom naar de informatiebijeenkomst wkkgz op 11 apr om 1830 bi…
studiedag trends in de zorg en begeleiding van de cvaclient en naasten op 10 mei 17 bij nbc. meld je aan!…
12 oktober bootcamp online marketing voor ergotherapeuten bij de ergoacademie. geef je op via ergotherapie.nl…
bouw mee aan de kinderergotherapie in nederland! schrijf je in voor de post hbo kinderergotherapie via ergotherapie…
nog maar 2 plekken beschikbaar bij training timemanagement op 11 april 17. geef je dus nog snel op via ergothera…
eerste cursusdag verdieping met je client m.b.v. nlp bij de ergoacademie
informatiebijeenkomst wkkgz op 11 april 17 avond. belangrijk voor praktijkhouders en zzpers! geef je op.…
vandaag 100 ergotherapeuten op bezoek bij en voor de studiedag ergotherapie voor mensen met psychische problematie…
voor de cursus motivational interviewing van merel van uden zijn nog plekken beschikbaar najaar 2017. wees er s…
nieuw studiedag trends in de zorg en begeleiding van de cvaclient en naasten op 10 mei. geef je op via ergothe…
4daagse cursus ebp &amp praktijkgericht onderzoek start 4 april 2017. nog plaatsen beschikbaar. geef je op via erog…
wegens succes herhaald! bootcamp online marketing voor ergotherapeuten op 12 okt 2017. meld je nu al aan!…
een verdiend erelidmaatschap bij ergotherapie nederland voor mieke le granse!
ppn biedt politiek manifest ‘geef handen aan de participatiemaatschappij door inzet paramedici’ aan…
wegens succes wordt de informatiebijeenkomst wkkgz herhaald op 11 april! geef je op via ergotherapie.nl
er zijn nog plekken beschikbaar voor module 2 van de post hbo kinderergotherapie april 17. geef op via ergothera…
laatste kans nog 1 plek beschikbaar voor de cursus nlp! start 14 februari 2017. geef je nog snel op via ergothera…
vandaag laatste kans op je in te schrijven voor de studiedag ergotherapie voor mensen met psychische problematiek…
studiedag ergotherapie &amp mindfulness is van start gegaan met 45 ergotherapeuten!
ampsdocent vacature bij en. amps gecertificeerde et? interesse? kijk op bij vacatures.…
nieuw studiedag trends in de zorg en begeleiding van de cvaclient en naasten 10 mei 2017 bij nbc. geef je op!…
last call! kom jij, net als 55 andere ergotherapeuten, ook naar de bootcamp online marketing woensdagavond? geef…
wat niet is, kan nog komen. deze is bedoeld om op te hangen op kantoor, voor collegaet die geen lid zijn
goede voornemens voor 2017? wellicht is een opfriscursus bij ergoacademie een idee! kijk voor het actueel aanbod…
‘ergotherapeuten zijn coaches in het doen’ lees hier het volledige interview met prof. dr. joost dekker…
en zoekt ampsdocent! ben jij een amps gecertificeerde ergotherapeut die affiniteit heeft met les geven? interesse
training timemanagement baas over eigen tijd in de zorg op 11 april 2017. geef je op via ergotherapie.nl…
een andere baan als goed voornemen voor 2017? misschien is de beleidsmedewerker iets voor jou!…
laatste kans om je op te geven voor de informatiebijeenkomst wkkgz op 20 dec 2016 om 1800. geef je op!…
geef je op voor de studiedag ergotherapie voor mensen met psychische problematiek op 10 febr 2017!
informatiebijeenkomst wkkgz om 1800 op 20 dec 2016. laatste kans om je op te geven! aanmelden via ergotherapie.nl…
bootcamp online marketing voor ergotherapeuten 18 jan 2017! meld je aan via ergotherapie.nl
reminder tot 1 jan vroegboekkorting voor het ergotherapie jaarcongres op 24 mrt 2017! ga naar ergotherapiejaarcong…
training timemanagement baas over eigen tijd in de zorg op 11 april 2017. geef je op via ergotherapie.nl…
nog maar 10 plekken beschikbaar voor studiedag ergotherapie &amp mindfulness op 26 jan 2017! geef je op via ergother…
wo 7 dec hoe zorgt de ergotherapeut ervoor dat u langer thuis kunt wonen?
dte cursus 20 dec is vol, maar op 7 febr &amp 2 mei 2017 is nog beschikbaarheid! geef je op via de website.
senioren en mantelzorgers krijgen informatie over ergotherapie
studiedag psychiatrie op 10 febr 2017, namens commissie ggz, in utrecht. geef je op via ergotherapie.nl…
beste karin, de opleiding is ism de 4 hogescholen vandaar de verschillende locaties.
ben jij als praktijkhouder op de hoogte van alle regelgeving ivm veilig incident melden? check onze site…
bootcamp online marketing voor ergotherapeuten op 18 jan 2017! geef je op via de website ergotherapie.nl…
heb jij nog vragen over de wkkgz? stappenplan wkkgz? kom 20 dec a.s. naar de informatiebijeenkomst wkkgz!…
cursus evidencebased practice ebp en praktijgericht onderzoek bij ergoacademie, start 31 jan 2017. meld je aan v…
studiedag psychiatrie 10 febr 2017! ben je werkzaam in de ggz? geef je op via ergotherapie.nl
ben jij klaar voor de wkkgz? kom 20 dec naar de informatiebijeenkomst voor ergotherapeuten! zie ergotherapie.nl…
kom jij ons bureau versterken..? wij breiden uit en zijn op zoek naar een beleidsmedewerker…
bootcamp online marketing voor ergotherapeuten op 18 jan 2017 door geef je op! leden 45 euro.…
heb jij het al geregeld?! per 1 jan 2017 wkkgz. ben je praktijkhouder of zzper? geef je op via ergotherapie.nl…
vandaag ergotherapie verbetert kwaliteit van leven bij hoe? vraag het uw ergotherapeut! kijk o…
wat kan ergotherapie betekenen voor patiënten met meld je aan voor de informatieavond via…
de hbo afstudeerprijs 2016 is gewonnen door... jens de bruijn van hogeschool rotterdam
de astrid kinebanianprijs 2016 is gewonnen door...esther steultjens!
de 80ste algemene ledenvergadering staat op het punt te beginnen!#ergotherapie
bent u een overbelaste mantelzorger? zoek dan een ergotherapeut bij u in de buurt. ergotherapie helpt!
informatiebijeenkomst wkkgz 20 dec 16 over veranderingen voor praktijkhouders/zzpers et per 1 jan. meld je aan…
vandaag is het de dag van de welke rol spelen mantelzorgers in joúw behandeling? paramedici…
doe je mee met ebp en praktijkgericht onderzoek in de ergotherapie? geef je op via ergotherapie.nl
ergotherapie jaarcongres &amp feestavond 24 mrt 2017 hotel postillion bunnik. schrijf je in op ergotherapiejaarcongres…
studiedag ergotherapie voor mensen met psychische problematiek op 10 febr 2017 in utrecht. schrijf je in!…
vooraankondiging informatiebijeenkomst wkkgz i.s.m. vvaa op 20 december 2016 om1800. zorg dat je erbij bent!…
nog enkele plekken beschikbaar op onthoud de houding! gehandicaptenzorg op 29 november. doen!
studiedag arbeid is volop aan de gang bij ergotherapie nederland en was voor de tweede keer uitverkocht!…
algemene ledenvergadering ergotherapie nederland op 10 november 2016 in utrecht. meld je aan!
de inschrijving voor het jubileumcongres 2017 is geopend! meld je vandaag nog aan!…
bootcamp online marketing voor ergotherapeuten op woensdagavond 18 jan 2017. geef je op voor 45 euro!
de herziene richtlijn valpreventie vanaf nu op onze site
training timemanagement baas over eigen tijd in de zorg op 11 april 2017. geef je op!
werken wij occupation based? ja, natuurlijk!
internationale ergotherapie netwerken
de regionale bijeenkomst staat op het punt te beginnen!
vandaag te gast bij praktijk doen in adam. over ondernemen in de 1ste lijn en de uitdagingen vr de t…
wat een leuk initiatief! eet smakelijk allen!
wat een mooi initiatief! dank je wel
wat een lekker initiatief! dank je wel
nu ook in em5 van ergotherapie nederland het artikel niet rennen maar plannen.@vdsarfoundation
prachtige dag vandaag wereld ergotherapie dag! namens ergotherapie nederland, alle ergotherapeuten experts in doen!
eet smakelijk en een fijne dag!
veel leesplezier!
inloopspreekuur as do 27/10 bij ergotherapeut tessa molenaar in
bootcamp online marketing voor ets op woensdagavond 18 jan 2017! slechts 45 euro. geef je op!
geef je op voor de ren noord holland najaarsbijeenkomst op 1 nov a.s. bij van der valk in akersloot via en@ergotherapie.nl
ambitie om te promoveren op een ergotherapie onderzoek gericht op ‘balans in het leven’? grijp dan nu je kans!…
wat doe jij op donderdag 27 oktober..?
vandaag promotie van de op het kennissymposium van oudervereniging dank sita en miriam v…
laatste dte cursus van 2016 op 20 dec 2016! geef je op via
vandaag in het ad vernoemd wereld ergotherapie dag op 27 oktober 2016
vanmorgen bij mattie &amp wietse q music werd wereld ergotherapie dag genoemd, omdat deze op de staat!
20 oktober regiobijeenkomst regionale/lokale samenwerking in de zorg in nijmegen. toeganggratis.…
vandaag is het wereld reuma dag. ook ergotherapie helpt mensen met reuma verder.
nieuw! 10 februari 2017 studiedag ergotherapie voor mensen met psychische problematiek. geef je op!
interesse in ergotherapie &amp nlp geef je dan op voor de 3daagse training via
de ergotherapeut brengt in en om het huis in kaart en brengt advies uit op maat. ook bij de inzet van…
netwerkbijeenkomst westbrabant zeeland 17 nov 2016 18152100 van der valk breda! geef je op via west.brabant.zeeland@ergotherapie.nl
wat lekker! dank je wel smaakt heerlijk...
nieuw studiedag ergotherapie &amp mindfulness op 26 jan 2017! met lezingen van rob brandsma, barbara doeleman
de training timemanagement zit weer in het cursusaanbod van de ergoacademie! 11 april 2017
kom op 6 oktober naar de ren bijeenkomst zuid holland bij sophia revalidatie in delft! geef je op via ren.zuid.holland@ergotherapie.nl
nog maar 3 plekken beschikbaar voor de studiedag ergotherapie &amp arbeid 4 nov 2016! geef je nog snel op.
ben jij al wkkgzproof? volg op 1110 het live webinar en krijg antwoord op de meest gestelde vragen…
bootcamp online marketing voor ergotherapeuten! op 18 jan 2017, 45 euro voor leden. geef je op via
cursus onthoud de houding incompany doen op 24 nov 2016 bij amsta in amsterdam? leden 225/niet leden 275. aanmelden a.mollee@amsta.nl
amps cursus 14 t/m 18 nov 2016, nog enkele plekken beschikbaar! geef je op via
doe je mee met ebp en praktijkgericht onderzoek in de ergotherapie? cursus gegeven door joan verhoef. geef je op!
vandaag de follow up dag ergotherapie &amp oncologische problematiek bij en
bootcamp online marketing voor ergotherapeuten op 18 jan 2017 avond, 45 euro leden