als zelfs de jong weer gaat scoren...
het had inderdaad veel weg van een suarezje.
verbeek heeft er wel verstand van zou je zo zeggen thesker
fantastische steward organisatie heeft even komen melden dat je op de bovenste rij niemand achter je moet z…
die is voor 375 miljoen weg in de winterstop.
zou de verwarming het doen bij de kampioenswedstrijd?
met de ouderwetse handscanner binnen. de rijen voor de hypermoderne poortjes mogen nog ff ouderwets geduld oefenen. bijzonder.
gelukkig! er zijn nog instanties die beginnen met sorry zeggen als er iets mis gaat ipv holle praatjes. compliment,
“who the f is man united?” in het uitvak bij heerenveen met delegatie manu op de tribune voor ruud van nistelrooij
en dan te bedenken dat hij bijna ons shirt had gedragen...
remco weet tegen wie hij moet uitblinken
hij kan zich dus ook al niet opladen voor een effectieve verdedigende actie.
zo. het waren vier mooie maanden. die is in de winterstop weg. voor 385 miljoen.
dadelijk eens rustig kijken hoe de nederlandse subtop elkaar de strot afbijt.
stoer hoor. en nu een andere religie. durft u dat ook?
opstelling nederland weghorst, berghuis, locadia, mokthar, dessers, leemans, van ginkel, bruins, boetius, vloet en…
nog ff nagenieten van vanuit
mocht je morgen toevallig in de buurt van in zijn en willen zien this is t…
missie geslaagd. hele psvaanhang zit morgen met beschuimde bek voor de tv.
het is natuurlijk geen he...
en we doen niet de groeten aan labirat
goed te zien dat door de week voetballen geen automatisme is dit seizoen. nog even en het gemuts over 3x per week spelen begint weer
en als het nederlands elftal negen keer achter elkaar wint zijn ze wereldkampioen. yeah right.
spits voor een spits met 20 achter. echt...
er kan gewisseld worden!
cocu maakt van de heerenveenwissel gebruik om tactisch bij te sturen. oh, wacht...
de wijs voelt het vertrouwen 110 kilometer van eindhoven.
20 achter, 1 man minder en in de rust niks doen.
apathisch rond gaan staan kijken als je een officieuze timeout krijgt.
az heeft in de winterstop vast nog wel verdedigertje voor marcel. of anders n spits, middenvelder of materiaalman.
een huurling als aanvoerder
verhuren omdat je veel vertrouwen in hem hebt. en middenvelder in het seizoen omscholen tot verdediger.
he! het begint om 1230 slapers!
boem op richting
gevolg stilstaande dampende autos in de file en de busbaan leeg
stel je wil schonere lucht dmv minder uitlaatgassen in je stad. oplossing rijstroken weg voor busstroken zonder passagiers.
drie keer winnen. dat lukt zeker. voor 2031.
de dagobert duck cup in ieder geval wel.
toch een sterke competitie, die hrvatska nogometna liga...
het valt op dat hendrikx vaak te laat is. overblijfsel van zijn blessure?
jammer dan zoet m niet pakte. scheelt toch weer twee miljoen.
een huurling is aanvoerder. tuurlijk.
dacht ik toch altijd dat parkeerplaats in alleen in de nachtelijke uren veel gebruikt werd…
er staat nog een paar duizend man buiten. prima nieuw toegangssysteem 🤔
zo. eindelijk binnen. laten we hopen dat de kwaliteit van het nieuwe toegangssyteem niet hetzelfde is als de huidig…
gvd, wat n bal!!!. zo. de voetbal emancipatie is in onze kroeg in ieder geval een feit.
let je een beetje op, phillip?
zo. nu al meer inzet, werklust en enthousiasme gezien dan in 2 x 90 minuten echt...
ziet er niet goed uit
een variant op joris en de draak?
nog niet geheel wouw is helemaal klaar. tot morgen
brabantser ga je het niet krijgen. het laatste stukje naar handel.
wat was het weer een service zo vroeg op de morgen!
de kunst van het vragen stellen
het uitzicht voor de komende uren!
gaat vaker flitsen. prima, hopelijk alleen niet op usual suspects als daar zijn avond en verlaten weg.
op de dacht een licht dat inhalen met een caravan makkelijk kon. caravan vond van niet. gevolg om 23 u…
nieuwe spelling? 😉
wij hebben john, duivendrecht de knvb. meer succes en kost minder duur!
roosendaal breda thv 80.0. even verderop motoren om je vd weg te halen.
boem op net voor
in 2 km allerlei idiote acties gezien wo afsnijden, van de weg drukken en vluvhtstrookje. met zwaailicht mag alles.…
het uitzicht vandaag 😎
zet je nietsvermoedend de tv aan en dan zie je dit.
in het kader van de veiligheid gaan we flitsen op de gevolg remmende autos en file.
een zielsgelukkige barman. dat kan in brabant.
nooit gedacht dat ik om een publiekswissel zou vragen voor een nietphillips speler. dat moment is nu daar. 100% verdiend!
deze site kan bijna herstart worden...
hij loopt nog minstens nog een weekje door...
hangen we m volgende week officieel op.
joh. word je gewoon thuis kampioen. er is geen arbiter te vinden die zondag feyenoord laat verliezen.
en dan zet je een ajacied en een psver als analytici in de studio. jullie begrijpen er helemaal niets van!
zo. na 15 jaar is het moment daar ik kan mijn belofte eindelijk gestand doen het ene shirt kan worden vervangen…
hoog tijd voor een stukje cultuur met miran en mn schoonouders
het moment dat fans op hun kunnen zetten dat ze kampioen zijn geworden komt nu wel akelig dichtbij.
zou de naam suarez ons kevinneke iets zeggen?
een schorre limbo vijf stoelen langs me zonder enige voetbalverstand en de toonvastheid van dre hazes. echt. karma is a bitch...
rotterdam kan gerust zijn. 7e minuut en de eerste overtreding moet nog gemaakt worden.
zo dadelijk barst hier het vuurwerk uit dat we het hele seizoen hebben gemist.
qua publieke belangstelling lijkt t op een thuiswedstrijd van 020.
dat had je op het veld moeten doen!
na de wanvertoning van vanavond zou ik die voorgenomen prijsverhoging van de seizoenkaarten maar snel intrekken.
volgens een toeristische route eindelijk aangekomen bij
mmm... file, dus advies gevolgd en omrijden via ziehier het resultaat...
het verhaal van een seizoen. ongeinspireerd, onkundig en vooral onnodig. tot volgend seizoen. helaas.
diftar of niet is dus meer dan alleen geldkwestie. redelijk eenzijdige berichtgeving in gemiste kans.
kwaliteit van plastic uit is nu nog slechter als voorscheiding. maakt afzet moeilijker. soms alsnog verbrandt
doel is met name vervuiler betaald en beperken hoeveelheid restafval. bij ontbreekt die prikkel grotendeels
een ding weet je zeker er moet een link met en/of en/of cruijff zijn.
linda de mol op de zondagavond. horror heeft een gezicht.
jeugd heeft nog geen auto of betaalde baan.
wow! al ruim 1.300 stemmen in stembureau fransiscushof
een betere aanleiding om de kwaliteit van het onderwijs te gaan verbeteren dan de uitslag van de is er niet.
de graadmeter voor de kwaliteit van het nederlands taalonderwijs
en toen stonden we stil gelukkig zitten we in t zonnetje!
op afrit ekkersrijt rechterrijstrook dicht door ongeval. autos staan op berger. langzaam vanaf splitsing met…
op afrit ekkersweijer rechterrijstrook dicht door ongeval. autos staan op berger.
voertuig wat er van over was stond al op bergingsvoertuig. of het een busje was was voor mij niet te zien.
inderdaad. wegdek werd gereinigd toen ik passeerde.
ze zijn al onderweg, !
opbouwen voor optocht door en
even in mn historie gekeken. het was kickers. wel ff bellen of ze psv laten zien en dan je eigen booth reserveren. succes!
google even goed. er is een dubai een sportsbar die ook eredivisie uitzendt heerlijk psv gekeken en prima bier!
sorry toon, gezien de plek op de ranglijst en het vertoonde spel zouden de prios elders moeten liggen.
helaas... de andere kant op. richting breda staat t hier stil.
we zijn weer aan de werkweek begonnen 😡
psv vanuit een ander perspectief. qua rendement schiet t nog niet echt op.
hebben jullie al stroom daar dan? verlengsnoertjes naar die vogelvermorzelaars verderop getrokken zeker 😉
over twee weken is t er op of er onder. hier is t klaar.
je vind de brave borst goed fluiten dan?
als ze een bolletje wol aan de bal bevestigen, maakt utrecht er in no time een prachtige sjaal van.
na 48 minuten is ie er de 1e vloeiende aanval. je vraagt je af wat cocu ze de hele week laat doen. kaarten? catan? pimpampet?
de rust is tot nu toe aantrekkelijker dan de gehele eerste helft.
zo te horen gaat onze grote vriend labydinges warmlopen.
zo! de eerste onvrijwillige sponsoring van de bv nederland is een feit. nederland wordt zo veeeel veiliger!
wat een fantastische wedstrijd en een spectaculaire halftime show. sterke koffie en een 😎 voor de rest van vandaag 👻
we zijn solidair vandaag op de we staan asn beide kanten stil.
nog twee bergers aan t werk op bij richting eindhoven staat t stil vanaf tilburg centrum 😱@vid
thuisvak. geen combionzin!
de heeft een echt stoplicht staan op de mauritskade/alexanderstr. 5 min wachttijd, rest voortdurend groen. hulde...
vijf autos op elkaar op linkerrijstrook voor
groeten uit de oostbrabantse alpen!
tot zover de titelkansen. briljant weer.
en met 22 en 13 minuten op de klok wissel je een verdediger voor een aanv... oh wacht...
hoe voorspelbaar. gemakkelijk gegeven, gemakzuchtig ingeschoten.
kam iemand tegen cocu zeggen dat je echt niet tot de 70e minuut hoeft te wachten met wisselen? heus, het mag echt ook eerder hoor.
over tien minuten gaat phillip wisselen.
tuurlijk...
geeft zijn voormalige teamgenoten de welverdiende vinger.
na de 11 krijgt ineens de geest. we staan weer voor.
streppel neemt een timeout. cocu staat weer wat te zwaaien.
als je ze zo tegen krijgt verdien je het ook niet.
welkom voor straks in stadion
heb jullie nr niet twee autos op elkaar linker rijbaan was geblokkeerd
boem op richting tilburg. net voor parkeerplaats hooge aard.
laten we in laarbeek maar over ons hart strijken eindhoven en helmond, jullie zijn welkom bij ons.
werd net op de a2 bij eindhoven matrix zegt 50 met minstens 90 ingehaald door een truck. niet iedereen is met zn vak bezig blijkt.
we nemen voor vannacht geen risico capaciteit ingepland en sneeuwploegen geplaatst.
onze strooiwagens zijn in weer op pad.
zo. met een opgeschoonde mailbox aan de slag. bijna 2000 mails weggemikt. dat mag anders😳
de die kerstliedjes zingen. kerstmis is al een straf op zichzelf hoor.
even vergeten dat voor jullie het winterkampioenschap een heuse prijs is. van harte!
en nu?
wat wachtgeld met je doet. echt...
de kans op drie punten weggooien bedoel je? die 5 punten maken we nog wel goed.
die dames hebben meer inzet en overtuiging laten zien in twee minuten als bij in n hele wedstrijd.
en nee, mijn tweet blijft gewoon staan. die bal had mijn buurvrouw met rollator nog gemaakt.
ik zou met 10 achter ook een verdediger voor een verdediger wisselen. echt...
siem de jong gaat t doen. de wissels van cocu worden steeds lachwekkender. stop er mee phillip. serieus...#ajapsv
eerste wissel oldenburger voor de wcdame.
ik wacht mee...
die staan morgen op 1 op fantastisch!!!
hier gaat geen bryan smeets meer aan helpen.
het lijkt erop dat zn vormcrisis heeft overgedragen aan het is niet best, heren!
je kunt ook jeugd laten spelen. makelaars pleasen?
voor een goal van luuk, ik spring voor luc inzetten. zucht...
heerlijke voetbalhumor bij de pingel voor roepen om zoet als schutter en na score hij zit erin scanderen.
eindhoven is gewoon wel een minuut stil. is dat ook opgehelderd, kruikjes.
elke fan zn eigen agent. zou die ook bier voor je gaan halen?
bericht einde vertraging. op kaartje ben ik op de helft. in werkelijkheid sta ik bijna stil. opnieuw bijzonder.
openingsscherm geen meldingen bekend. in detailoverzicht 58 minuten vertraging op bijzonder.
en nog 15.000 euro beloning. toe maar.
waarom zoveel aandacht voor een geliquideerde crimineel? er zijn wel belangrijkere zaken dacht ik zo.
prins barry i! prins van
we gaan er langzaam aan beginnen wie wordt de prins van 1617 de naam die rondzingt barry huijgens!
dun dokter rechters is de bruid van het boerenpaar van
apporteose nummer 1 het boerenpaar van 20162017!
het loopt helemaal vol bij de bekendmaking van de prins in
ik denk dat het goed is als zich eerst beperkt tot het leren van de feiten voor te gaan roeptoeteren.
stilstaan op de ga dadelijk maar omrijden via
de heeft helderzienden in dienst. ondertiteling staat al op her scherm voor de gast het heeft uitgesproken. hoe knap!
een historische nacht? ik ben er in ieder geval bij!
komt alleen omdat de batterij van mijn telefoon leeg was en danny mij niet kon bereiken.
dank voor de info. kunnen er nog steeds excuses gemaakt worden! is niet hetzelfde als schuld bekennen.
staat helemaal stil op andere kant en diverse blauwe zwaailichten.
aan mijn eigen kant is het inmiddels niet veel beter
al iemand wakker bij om excuses te maken voor vernielde autos? iemand?
en erdogan zit er weer eens langs.
lammers erop en ramselaar eraf. wat weet de jong van cocu wat de rest van de mensheid niet weet?
heel behoorlijk dus 😉
want? u begrijpt de knipoog niet. jammer, maar er is altijd hoop!
voor een jupilerploeg doen die tukkers het heel behoorlijk.
in 2 minuten het bewijs dat overbodig is, gehoord een apestonde gast die er trots op is en die vernielen goedkeurt.
she drives me crazy. humor heeft de dj van dienst dan weer wel.
zojuist de aankomst van de veel meer klasse als het kansloze plebs uit
als we in de nederlandse competitie net zo zorgvuldig met de kansen omsprongen hadden we er al 89 gemaakt.
de lange arm van grijpt in bij
het waren mooie jaren, phillip. houdoe en bedankt.
gelukkig staat komende interland weer op doel. toch, danny?
iemand kan ons vast vertellen waar we in dubai naar kunnen gaan kijken 😉
andere hashtag. welnu. dadelijk eens kijken of ook live uitzendt 😂
we gaan eens kijken of ook live uitzendt 😂
weggeven heet dat.
de wedstrijd heeft nog het meeste weg van n tweedehands campinggasstel echt branden doet het niet.
dat afwachtend speelt is heel begrijpelijk. zijn se koppositie niet gewend natuurlijk.
benieuwd na hoeveel minuten het uitvak het thema van hun laatste competitie thuiswedstrijd is vergeten.
zou mooi zijn als de muziek vooraf een positief signaal voor is.
ach... 4 keer kampioen in 40 jaar maakt je nog steeds geen topclub.
zoet mag de volgende nemen.
danny had m gegeven!!!#makkelie
met 131 op de klok en ruim voor. kijken of de pressbreaker werkt. verrassing in de maak!
even naar een strook. op de oprit vrachtauto met pech.
de vraag is of wel de juiste keeper heeft gekocht.
het broertje van luuk speelt bij gae
het meest essentiële stuk gereedschap voor het prepareren van een miljoenen kostend karretje een rol ducktape.
enige verschil is dat dit wel een strafschop was. en terecht rood.
de uitbater hiero gaat er vanuit dat de titelstrijd zal gaan tussen en denk ik ook.
1230 is inderdaad zwaar ...
ben ik vandaag de enige die mag gaan werken?!
tuurlijk. eerlijke loting. yeah right...
dat shirt zou ik direct terug het veld op lazeren.
in hebben ze waarschijnlijk nog nooit zo uitgekeken naar de eerstvolgende competitiewedstrijd. hoe een treurnis.
wzawzdb.tuurlijk...
laat die drie miljoen maar zitten. we blijven zo nergens met dat quotiëntgeneuzel. dat rostov kan er helemaal niks van!
als ajax zo blijft spelen, zijn we al kampioen voor de eerste sneeuw valt. en dat rostov is brandhout.
sinds vijf minuten ben ik voor de doodstraf. op de dam. aangekondigd.
die fransen in de tijdlijn zijn blijkbaar trots op hun mengeling van freefight, dramaqueens en slowmowandelen. ben er maar trots op
waarom zit er geen taalfilter op twitter 😡 jeugdtrauma franse les is blijven hangen merk ik nu.
lang geleden dat ik tegen de tv heb staan schreeuwen. prima gedaan. petje af.
dat wordt minstens verlengen. het zijn geen voetbalpenalties 😉
slapen stellen we nog maar even uit.
hoe lang mag je eigenlijk over een aanval doen?
hoppa! gewoon terug gaan hakken en dan snel eruit.
handbal is gewoon een harde sport. joe! 😁
bij het foeballuh was het nu al twee tegen twee geweest. wow.
mijn eerste handbalwedstrijd ever. en ik zit bijna in de tv 👹
dat lees ik nu ook. 😁
bekende deuntjes brutal assault 20 propain live 2015 via
de vraag van vandaag als de aankondiging van klopt, hebben we vanavond dan nog een kabinet?
de ereronde van stijn schaars is wel het hoogtepunt tot nu toe.
overigens, tot nu toe heb je nog niks gemist.
twitter is mss schamel alternatief.
sorry, ik ging er vanuit dat je geen stream bedoelde.
ons tweewekelijks bootcamp weer voor de eerste keer dit seizoen overleeft 💪
jullie hebben altijd dennie m. nog.
zullen we dan ook afspreken dat mensen dure autos harder mogen rijden op de snelweg dan mensen met een goedkoop voertuig?
bij een vrije trap perreiro laten nemen.
phillipke blijft briljante opstellingen bedenken.
voor het liedje zijn as roma en monaco de gewenste tegenstanders.
weer een pingel 😁
als het zo doorgaat sta ik met de kerst te bibberen op het stadhuisplein...
helaas een waarheid als een koe blijf wel een boer, he
iets met een kinderhand 😉
gelukkig hebben jullie strafschop danny...
iets nuttigs met een voetbal kunnen is geen basiseis meer voor een profcontract. genoeg tattoos en bijzondere kapsels zijn dat wel.
alles klopt immer sfeerloze betonbak, amper toeschouwers, knollenveld, kansloze strafschop en balletgedrag bij n duwtje. feypsv
moet zelfs, marcel!
volgend jaar in de
zojuist epic optreden gezien op
fok... begint een uur later dan nemen we er nog een, het zal ze leren, de vlegels!
we kunnen vanmiddag op pad! 😎
gelukkig. geen criminele afrekeningen komende maanden want gaat met zomerreces.
tijd om mn verjaardag te gaa@ vieren. laten we es beginnen bij
hetgeen ze ondanks alle media mogelijkheden niet op een succesvolle wijze hebben overgebracht. blijft de vraag open!#brexit
wat zegt dit over de tegenstanders van de
het raadgevend referendum is dus niets meer dan een dode letter. in maart volgt de afrekening die dan niet raadgevend is.
kat in t bakkie! wint de finale van aangezien de snipperdagen van alle ijslanders dan allang op zijn.
eerst toen naar nu even naar en straks nog belgië kijken bij
hoi caroline, leuk dat je me volgt! een klein vraagje en laat ik maar overgaan naar jou moerstaal why?!
het begint al goed eerst de bij son proberen op te komen. afslag blijft boosdoener. morgen maar weer binnendoor rijden!
prachtige aanstaande overwinning ontsiert door wave.
wie gaat de ieren vertellen dat ze met hun 36 verdediging op het verkeerde kampioenschap staan?
na al die jaren... 😉
in mijn herinnering was het stadion in bordeaux wel wat kleiner tijdens champions league wedstrijd van
het blijven 020ers, natuurlijk...
kan ondertitelaar dan me even de winnende staatsloterij nummers dmen? hij weet vooraf wat ie gaat zeggen en dat is knap voor liveshow
bleek gestolen voertuig te zijn. dief gepakt.
zojuist langs ongeval gereden. veel blauw licht en opvallend veel politie. voorspeld weinig goeds.
als hij zijn prestaties van het afgelopen seizoen continueert, mag hij 20 jaar blijven 😁
ok. dus als ik meedoe met een actie van de krijg ik telefonisch een aanbieding van de
die windmolens langs de zijn toch al lang klaar?
een keer raden waar we voor de tweede dag op rij heerlijk hebben gegeten 😍
gelukkig is dat gala van de wanstaltigheid volgen op twitter veel beter dan t origineel!
bekend maakt bemind werkgevers en werkzoekenden in prettig gesprek!
van gijzel pakt ook even zn minute of fame. tenenkrommend grote sier maken an in onzekerheid laten.
is ook op het stadhuisplein. het ergste wat ze hier naar je kop kunnen krijgen is lauw bier.
met een shirt door de stad lopen. dan ben je een baas.
is er iets te doen dan?
ze heeft ongetwijfeld een hele lieve glimlach.
wij zijn ajax want zonder dannyie baggerelftal
laten we met de beginnen 💪
in 020 weten ze waarschijnlijk niet wat naoberschap inhoudt. eeuwige dank! en natuurlijk eredivisie volgend jaar.
ach... boeren onder elkaar... succes in de nacompetitie en graag tot volgend seizoen!!!
een iphone voor een team is succesvoller dan een levenslang ziggoabbonement voor een scheids.
we zijn nu virtueel kampioen. dat is meer dan ik had verwacht vandaag. zou het dan toch...?
het psv seizoen in een actie van mevrouw narsingh.
je bent dan fan van het resultaat.
het is alleen geen prijs en in topsport dus niet relevant.
proficiat met de titel. en verkoop die frank de boer eens
vrije trap cambuur rand 16
tot nu toe fluit kuijpers keurig op zn die pingel komt vanzelf.
vanaf 1982 mam, ik ga na phillips kijken! veel plezier!. 2016 mam, ik ga naar energy direct kijken kom terug, ga je mond spoelen!
jammer voor hem moet makkelie vandaag werken. hij had liever op zn huawei tv met ziggo abonnement zijn favoriete club gekeken.
makkelie kijkt de rest van zn leven voor niks ajaxtv.
het word hoog tijd voor een utrechttreffer, bij voorkeur bereid op duitse wijze.
het staat helemaal stil op de op drie rijstroken ter hoogte van interpoliskantoren. ongeluk?
als opkomst% en niet representatieve exitpoll klopt, is het vanavond dik bal in den haag
op de thv st. willebrord richting rijden we langzaam. oorzaak nog onbekend.
windmolens zijn echt een oplossing voor de co2problematiek...
breaking het volgende nk allround verplaatst van thialf naar philips stadion ivm betere glijeigenschappen.