best aardig dat
volkomen terecht m.i. rechter verliezer van miljoenenjacht mocht terecht niet verder
toch jammer van dat je moet hebben om van traktaties te kunnen profiteren
historische avond
je verzint het toch niet. hennie de komt over de eieren praten bij
2 weken afzien op kleine klote bedjes om vervolgens weer te kunnen genieten van je eigen.
zo tennist ie in ieder geval niet😊
mooie sportdag met held provinciegenoot en ook leuk dat weer eens in de punten rijdt
join nu mijn ploegleider subleague!
2/2 voornoemde zin is afkomstig van
1/2 best slordig als een journalist schrijft het is niet te zeggen dat de vs de komende jaren evenveel of zelfs meer co2 uitstoot als nu
wie zit er op dit soort info te wachten?
wil je interactieve tv bij bestellen en doorloop je het keuzemenu zegt de pcstem de verbinding wordt nu verbroken
wat een mensen, wat een club, felicitaties voor live op de nu?
hoe zou het toch met zijn in dat hotel in rotterdam??
kampioen van de armoede hoogst haalbare voor de club die het zo gegund is..#feyenoord
keniaan kipchoge komt 24 seconden tekort bij recordpoging op marathon
reclame voor het voetbal.
hoezo maakt kampioen? deed niets om het moeilijk te maken
zelfs ik vind het spannend. hoe zouden die het hebben?
tsja daar werd nou ook niet bepaald veel druk op uitgeoefend.
we hebben natuurlijke het nodige voor de kiezen gehad maar dit slaagt echt alles. geen woorden voor deze wanvertoning
02 bij rust. het schijnt dat dit had voorspeld
gezapig potje geworden. jammer. tv maar uitgedaan na 80 minuten.
kijk ik nu naar de ceo van of naar ?
mag van mij nu roland garros winnen..
hij doet het gewoon! momentje woorden schieten te kort.
ik denk dat ie het gaat doen, omdat de druk er m.i niet is, maar de wil des te meer.
super dat weer een grandslam finale gaat spelen. clash met zou mooi zijn, winst in 5 sets het summum
laten we het hopen 😊
tip voor morgen n geschiedenis programma op tv over het laatste kampioenschap van feijenoord
hij is er hoor! dank. eerste oplossing reeds gevonden.
veel bombarie bij over puzzel die vandaag zou komen. ik heb geeneens een krant
haha, je kan toch altijd weer leuk uit de hoek komen😀gefeliciteerd met de twijfelachtigeeer van winterkampioen
na een jaar lang buffelen staan ze daar, de geslaagden van de
vreemd dat geen voorwaardelijke celstraf heeft gekregen als je kijkt naar de rest van het vonnis en zijn uitspraak dat hij doorgaat
lezers van het boek van moeten ook ff kijken
begrijp ik nu goed dat vindt dat een goede wedstrijd heeft gespeeld?
pijn aan de ogen. wat een bedroevend slecht
om deze onderbouwde en m.i terechte kritiek als gezeur te bestempelen, daar kan je ook je schouders over ophalen..
waarom toch dat voetbaloverzicht bij ? dat hebben we toch al gezien?
het ongedaan maken van een koop op afstand gaat bij niet volgens de wet
zal vast wel weer lekker weglezen bij de kerstboom.
snelle jelle
depay was beter
huurverhoging, wat zijn de mogelijkheden? de haan advocaten &amp notarissen
zelden zon onmachtig gezien als vanavond in de tweede helft.
je maakt me wel nieuwsgierig naar de diplomas..
het is dus eigenlijk 22
hij is binnen, hij is snel..en dat was het wel
met neef gelopen.
ook een conclusie#bergwijn stuk beter dan
hoewel ook hij een mist laat zien veruit de meeste klasse van allemaal te bezitten
daar waar je bij denkt die kan beter komt op heel veel fronten gewoon tekort op dit niveau
wat is er met die willems aan de hand? doet werkelijk alles fout.
van harte koos!er zijn echter ook mensen, zoals ik, die om 19 uur willen kijken zonder de uitslag te weten
voorbeeldig, zowel op het veld als voor de camera
gefeliciteerd koos, dacht alleen dat je doelde op
die is wel van een heel bedenkelijk niveau
hoe frustrerend kan een pot beginnen..
denk je dat de goal van onterecht werd afgekeurd bij het dan heb je die van nog niet gezien
kortstondige verhuur in een vereniging van eigenaren vve, mag dat?
wat weet je van klinkt als
de spelen waarin de verwachtingen niet uitkomen.boksen zal nog wel goud worden.
chagrijnig zijn met kenmerkt de topsporter. toch heeft het mediaoptreden van mij niet kunnen bekoren
tu delft contourlijn van nam niet houdbaar
jemig wat zijn we succesvol op dat open water
het hoogst haalbare wat mij betreft op de balk je zenuwen in bedwang houden
kijken naar de is een pittig lesje in het verwerken van teleurstellingen
het blijft toch een fenomeen die
opzeggen in het weekend is wel erg lastig en dus frustrerend
uitgeschakeld op en dat al zo vroeg in het toernooi. ook voor
wint een vijfsetter.
boven europapark
is een huurder contractueel verplicht om in zijn sociale huurwoning te wonen? de haan advocaten &amp notarissen
je de hele dag afsluiten van alle media en dan om 19 uur zon apotheose zien!
met gelopen voor#stichtingleeuw met en
zo mag ik het horen. succes
waarom zien miljoenen borden op schoot wel dat dit geen is?#ajautr
een oma uit die de nog heeft meegemaakt.
ben toch benieuwd uit welke kast die jurk heeft getrokken.
hoe liep het af?
achterstanden in vormen serieus probleem. arrest in spoedappel binnen 6 maanden niet mogelijk. aantasting
die maakt een sterke indruk. stuk gemotiveerder dan
gewoon laten staan die
wat doet toch in een reclame? ?#zalwelgoedbetalen
we zijn begonnen
op zijn minst een doppio😉
mooie avond in de euroborg met
hoe zit het nou met die toeristenbelasting?
straks weer eens kijken met en
jeroen ik heb gewonnen, aldus
ochtendloop met en
leren ze het nou nooit bij uitslag verklappen vlak voor je de samenvatting uitzendt.
waarom zijn jullie om 14 uur telefonisch niet bereikbaar terwijl t bandje dat wel aangeeft?en dan toch €1 per gesprek+gewone bk
ochtend training met video made by
de kan wel gaan zetelen in
ga je in moet je nog maanden wachten op een arrest dat maar niet komt.
tarik z. voor één keer terug als nieuwslezer
ik wil trouwens nog wel alle goeds en veel succes wensen in de
come on!!! wat een goal!
nog 10 minuten verwijderd van volgende ronde
het is goed voor dat wint maar moet wel beetje lachen om ?
maakt slim de 23. jammer dat de scheids dit affluit. hindert de keeper niet de bal uit zijn handen te schieten.
raad van state gaswinning voorlopig maximaal 27 miljard kuub
gaat toch over mensen die voor tonnen het schip in gaan? hier hebben ze ruzie over een weggeven doosje vlammetjes..
dat had het nederlands voetbal ff nodig. opvallend hoe makkelijk mee kan met dit niveau
wint weer eens van we schrijven hem zeker nog niet af.
mooi bij het live blog van zijn ze nog bij de 77e minuut
idd en dat dan nog een strafschop mist en in de rebound alsnog scoort. laten we dit puntje koesteren met zijn allen
dramatischer heb ik het nog niet meegemaakt.
lijkt meer op een laars😉
als de emoties enigszins zijn bekoeld moet je de balans opmaken. ik ben niet beschadigd het is geen crisis
aangemoedigd door zuslief miekiemaiky
interessant om roem eens vanuit deze invalshoek te zien. maar begon t voor jou niet met was nog eens mooie tv
oef, duidelijk kwaliteitsverschil zeg maar dat je met 3 punten ook ontevreden kan zyn bewijst
of was het toch gevaarlijk, afgaan op een commentator.
domme ingooi inleiding rode kaart kan niet op dit niveau. zelfde geldt voor
kaartjes? vrije toegang. of zoek je startbewijs?
nam gaat in hoger beroep tegen uitspraak waardedaling
het van over vs
tsja, handen ineen slaan &ampoplossingen aandragen wie is daar nou tegen?#alsjenietstetweetenhebtdoedatdanniet
het wordt wel steeds makkelijker gemaakt met de penaltys.
3e geworden van de bedrijven.
zit er al weer op. zeer geslaagd evenement! volgend jaar weer!
ik ga die van eindhoven doen. toch bedankt! en succes natuurlijk.
begrijp ik het goed dat vindt dat de returns te snel terugslaat en dit disrespect vindt? zelden zulke onzin gelezen
was dat nou nodig van der wiel, de reputatie van je keeper kennende? of had die al sowieso niet gewisseld moeten worden?#nedijs
ik heb geen goede woorden over voor slechte schieten te kort
nam draait nu al op voor waardedaling van groningse huizen via
na afgelasting marathon van groningen, ingeschreven voor
tsja wellicht. eindhoven valt gelijk met de 4 mijl, dus dat is geen optie. nog een bewijs over?
warme weer. ook wel weer begrijpelijk. samen de volgende dan maar doen?#dtv
na 14 weken trainen horen dat ie is afgelast.
gouden tip!😀
liberec, maar goede loting dacht ik!
lezenswaardige column van over de onzinnigheid van of
europa ook een ? dat is de vraag.
na nu ook eruit? gelukkig heb ik niets met beide.
groot talent, maar voor moet hij nog meer laten zien
vroeger moest je n heel seizoen goed balle om stap hoger op t komen. nu volstaan 2 goals tegen belgisch clubje in voorronde
gepingel sinkgraven mag geen reden zijn voor om zijn man zo uit het oog te verliezen
jouw verlangen naar de competitie valt te prijzen, maar daar is dan ook alles mee gezegd. ?
op perspectief. dat vind ik wel een mooie. iets voor in de grondwet?
volkert van der g. en lucia de berk.
opvallend hoe tegenstrijdig rechters aankijken tegen wezenlijke aspecten van het strafrecht doel straffen, generale preventie.
idd, althans voor zover bussen kloppen en niet sluiten, maar das een andere discussie
graag breng ik deze tweet nog even bij je in herinnering
ongekend de zakelijke onkunde en naïviteit in deze afleveringals je een auto koopt ben je het ook kwijt.
nam aangeklaagd door eigenaar boerderij
mijn team met darkhorse doet het best aardig😃
bij zie ik dat niet. ook moet nog gaan profiteren van zijn hoogtestage en wint natuurlijk
zo ik ga er ff goed voor zitten . ik hoop en houd het op
vandaag op tegen van na een fout antwoord je bent nog dommer dan je er uit ziet! ??
om je pensioenoverzicht te zien moet je je nu ook al registreren op
komt mart smeets ook een keer in de verhoorkamer? trouwens!
de bescheiden mart smeets te gast bij je weet wel die lance armstrong zo kritisch volgde. die tour kenner.
in de omstandigheden van dit geval zekerde dikte kon haar worden toegerekend. bovendien waren derden tp met goedvinden huurder
kosten voor verwijderen van voorgevel en balustrade om corpulente huurder te verwijderen komen voor rekening huurder
feitelijk onjuist. ook ovar ontslag van alle rechtsvervolging heeft ie voor gepleit, is het niet
twitter je nu ook op herhaling?
cruijff gebruikt revolutie ajax voor eigen belang /via
goede overwinning van
zo chique dat correct spellen niet mogelijk lijkt.
live bij zitting tegen temperaturen gaan richting exotische waardes nu
de humor van vier keer hetzelfde filmpje begrijp ik niet helemaal.
vandaag even wat heuveltjes oplopen. volgende week beginnen aan de voorbereiding voor mijn eerste marathon
hij mag dan klein zijn en tevens geniaal, maar die horen m.i. niet bij
ik vind het heel goed dat twitter woorden als filtert.
het herroepen van een huuropzegging, kan dat? de haan advocaten &amp notarissen
elke gaat over de vraag hoe belangrijk die dag is. dat is toch wel duidelijk inmiddels? vier gewoon de vrijheid!
wat een seizoen. de titel en de
niet het wegvliegen maar het molesteren van autos is het probleem met die overigens mooie dieren
zo kun je zelf zien waar het misgaat?😋
2/2 willen ze vervolgens de pretense schade bij de consument in rekening brengen.
annuleer je deal met en lever je je gsm in maar krijg je je geld niet terug😳 bel je op, zeggen dat het toestel beschadigd is😵 1/2
fietsles van en mr.lenting. gelukkig was daar nog de verkoelende hagelbui😖
zou last hebben van
is huurder van appartement gebonden aan huishoudelijk reglement van vve? de haan advocaten &amp notarissen
besteld.
lekker wakker worden wetende dat de schaal weer is daar waar die hoort
mijn dank gaat uit naar
zou weleens in appingedam zijn geweest?
voorlopig geen gaswinning in en rond loppersum
het betrof hier de moderne variant😉
van die dames die niets anders doen dan de hele avond lachen naast een koffer. dat moet een moderne vrouw toch niet willen
rechtszaak tegen blauwestad was zinloos
imiteert tijdens het
proces tegen nam wordt in theater gehouden
nooit geweten dat de bode een gerechtsdeurwaarder is..
voor € 2,97per km aan de start bij duurste hardloopwedstrijd en dan ook nog steeds drukker
zit te kijken maar doet ook mee?
kan leuk tennissen maar toont al jaren aan mentaal niet sterk genoeg te zijn voor de top. ook nu weer.
nog geen de leeuw dus?
check bij over de
weten ze bij niet wat wielrennen inhoudt?
verslaat in finale 63 75.
tsja als je een uitvoerbaar bij voorraad vonnis al niet mag executeren.
advocatenblad | nieuws over het recht op beroep
de vercommercialisering van nostalgie neemt toch wel ernstige vormen aan bij
de waardes gaan jaren achtereen omlaag, toch betaal je niet meer minder belasting. tarief gaat gewoon omhoog.
oftewel zoals bedoeld is. je wordt op je wenken bediend
daar wordt aan de deur geklopt. met dank
faunapassage bij station europapark verdwijnt
al kramp in je handen watte? je mag blij zijn met die tweede keeper en prutser
goed team dat maar die dat kan toch niet?
man is een stressfactor voor vrouw in de verloskamer
nederlanders ceremonieel uitgeschakeld op australian open
bommen berendloop heeft primeur met hele marathon
wordt gelijkspel denk ik.
nee dat niet. jij feyenoord? nog weddenschap gesloten met ?
gevoel vorig seizoen herleeft. ik zag de oude weer,maar nu doe ik de rest tekort.
daar denk ik liever niet aan
opvallend hoeveel slechte wedstrijden dit seizoen in 3 punten weet om te zetten
blijft nog wennen die nieuwe voiceover bij
zojuist al vast ff een doosje getest
geen enkele lijn te ontdekken in de terugblik en die slaat wel erg door in infantiliteit
2day workshop gehad. mooi om te zien hoe die vrijwilligers zich inzetten voor de grote katten
rtl hakt knoop door en laat psv links liggen via
zo die is goed uit vorm zeg.
vrouwen met tijgerprints en dan in de zakelijke dienstverlening. ik zeg
vandaag wijnverkoop voor het goede doel in de
lekkere vaktaal
analyst bij heeft niet gezien en denkt bovendien dat derde staat.
bezoeker dierentuin barcelona springt in leeuwenkuil
koop mooie wijn en steun kinderen met minder kansen. rt is fijn.
datumprikker ingezet voor psv feyenoord
telegraaf ‘hongerwinter op komst’
ziekenhuis de sionsberg failliet via
zondag met de drank op schoot?
speelt 2e helft morgen om 17 uur. geen dus. neem aan dat dit gewoon uitzendt?
nee laat m maar meedoen. ik vrees kazim, jij?
student maakt foto van beer vlak voor gruwelijke dood
feyenoorder el ahmadi ontsnapt op zijn zachtst gezegd merkwaardig dit
dan lees je de column van die eric hellemons ervan verdenkt niet op de hoogte te zijn van t bijbelse verhaal
is die de mascotte van ?
dan toch maar even het gekeken. het ligt niet aan het is gewoon een lachwekkend scenario.
ongelofelijk. ipv 39 is het 11. niet de verdediging maar de aanval faalt. waar had last van?
ik dacht die torsos moeten geshowd worden, maar had kennelijk andere redenen om zijn shirt uit te trekken.
zondag naar nu al in het echt aanschouwen. doen we nog een weddenschap?
wat doet als het gelijk wordt?
straks even voor een passat variant kijken. had ik niet gedacht toen ik 18 was.
leuke pot voetbal dat
noorden wordt proeftuin duurzaam bouwen
zit weer op het niveau van begin vorig seizoen. erg matig.
psv beste ploeg aller tijden in europa league via
ai, dat mag dus niet..#trouble
dat vermoeden had ik al. was fantastisch. was als bij
ik begrijp dat psv niet veel indruk heeft gemaakt op een fcg supporter de laatste tijd, maar heb je de match gezien?
wordt nou zo goed of was zo slecht?
het lijkt weer eens een mooie nederlandse voetbalavond te worden.
wil je een avond reclame kijken, komt er steeds een stukje van tussendoor.
suc6 jan, als oud prof heb je vast een streeftijd, vertel..!
nam biedt eerste huizenverkopers compensatie aan
als de nieuwe nederlandse lijfspreuk. ik weet niet..hoe klinkt dat op zn frans?
erikjan betekent heerser van de wet.
start
fransman provoceert, maar guidetti lacht het laatst
ik dacht dat in italië slim had leren verdedigen. niet dus. maar alles valt in het niet bij
dan win je € 710.000, en dan kan je als kerel alleen je vrouw steeds op de mond kussen
gelukkig had mijn vader alleen een gescheurde nagel..#gelukbijeenongeluk
wat een arbitrale dwaling weer. moet dat nog anno 2014 ? maar goed, ik dacht stopt die penalty wel..#apoaja
overtreding bij daar kreeg van rood voor bij hier gewoon een vrije trap, zoals het hoort.
het schudt hier aardig op de 5e verdieping. nu ook ervaringsdeskundige bij
witte tijger doodt jongen in dierentuin in india
2/2 de rechter dient dit ambtshalve te onderzoeken
een boetebeding in de alg.vw van een huurovk kan igv een bedrijfsmatige verhuurder en n huurder als consument een oneerlijk beding zijn 1/2
retentierechten kunnen ook tegen derden worden ingeroepen, zie
tsja hij ziet er ook slimmer uit dan hoe die overkomt.
veel cynische lachjes bij de geïnterviewde nogal misplaatst.
daar waar ongelukkig speelt kan je dat van niet zeggen. die speelt gewoon weer slecht.
wordt mede mogelijk gemaakt door
wk in quatar is prima, technologische ontwikkelingen in het voetbal moeten stoppen en ribéry mag niet stoppen als international.
muziektip gaan we nog veel van horen denk ik.
frank de boer de opvolger van hebben we al in huis. dat is
waar is de link naar de uitspraak ?
de 5 beste wifibestemmingen op vakantie
de enige spelers die op wk geschitterd hebben en nog in eredivisie spelen zijn blind+clasie?#depay
hoe zuur is dit!
eigenlijk kan je er pas na de iets over zeggen. ik gok toch weer dit jaar, hoewel zwolle...?
valt niet mee dat nieuwe
rechter heft beperkingen van der graaf deels op
wat is die aan het doen op zijn fiets?
morgen wielrennen met oftewel de buffel uit winsum. daarna aan de sjas patat.
lekker europees sfeertje hier al.
help mijn man is klusser? help mijn man is een ongelofelijke nare betweter zul je bedoelen.
de jong eerste aankoop psv
gele kaarten kwijtgescholden
gelukkig hebben die argentijnen een mindere keeper.
dat is je telefoon. zet uit dat ding.
wat een paniekerig gepruts van die belgen.
in finale en nl in kwartfinale en morgen begint de met
knvb pleit voor afschaffen rookpauzes
limburger paul verhaegh moest werken tijdens nederlandmexico
heb me net ingeschreven bij ploegleider. wie doet er mee? meld je aan bij de subleague ravitaillering
deze beesten krabben dus gewoon het lak van je auto.