met ondernemersverenigingen uit geldropmierlo en heezeleende op bezoek bij kuhn. een innovatief agro bedrijf.
met 80 leden leden op bezoek bij innovatiecentrum huijbregts in helmond. topbedrijf in foodlogistiek.
tijdens jaarvergadering zustervereniging boeiende discussie over digitalisering en transformatie indust…
met leden ondernemers contact nuenen inspiratie opdoen bij in en
vandaag en morgen bent u welkom bij ons voor de
vandaag kennissessie over operatiekleding. ook dat is kennisdelen en verbinden van onderne…
levert graag input voor economische agenda
mooie fototentoonstelling in de helmond van hans van den berkmortel
economie eindhoven beter dan die van g4 maar er blijven wensen ondernemersagenda eindhoven
helemaal mee eens. agenda geeft aan welke ondernemersthemas de leden van belangrijk vinden
jij blijft bij nieuw project van en cnv van start om bedrijven te ondersteunen in west brabant bij d…
nederlandse dames winnen van australië bij
gemeente eindhoven informeert pandeigenaren over ambitie om energieneutraal te worden
topoptreden van en bij
jeroen bleeker van inspireert ondernemers in kempen met verhaal over innoveren en realiseren van dr…
innoveren in de bouw onderwerp tijdens symposium kempentech
met groep ondernemers in gesprek over verbeteren gemeentelijke dienstverlening eindhoven
bij in helmond in gesprek met bedrijven en onderwijs over focus en passie voor techniek
van geeft toelichting op innovatiestrategie
ruim 100 leden bij voor presentaties over innovatie en energie
goed verhaal van in over noodzakelijke verbreding n279. is het helemaal eens!
files en vertragingen op wegen rond eindhoven zorgen voor 75 miljoen economische schade. de hoogste tijd voor extra…
samen met organiseert 16 mei bij business meets innovation | dutch technology week
inspirerend verhaal van hans de jong van over innoveren in de zorg samen met partners bij
dinsdag bedrijfsbezoek bij philips in best met 75 leden met inleiding hans de jong
vandaag geopende metalot circularity center cranendonck richt zich op onderzoek naar energie van de toekomst
additive industries maakt metaalprinten makkelijk en goedkoop .
mooie uitspraak hans de boer we hebben meeste huilbabys in nederland. het klagen zit er blijkbaar bij ons al vroeg in....
voorzitter hans de boer van tijdens bijeenkomst brainport is van nationaal belang!…
nieuws brandbrief aan minister verbreed de héle...
brainport eindhoven vraagt om investering van €10 mrd.
goede samenvatting van ondernemersagenda gemaakt door
en voorzitter ronald slaats overhandigen ondernemersagenda eindhoven
van geeft toelichting op ondernemersagenda eindhoven
aandacht in het ed voor presentatie vanmiddag van ondernemersagenda opgesteld door bij rab…
bericht over oproep van om investnl in eindhoven te vestigen
bericht over oproep van om investnl in eindhoven te vestigen
er is nog een aantal plaatsen beschikbaar
tijn van elderen van wint bov award proficiat namens
kabinet moet inzetten op innovatie, internationaliseren en investeren aldus hans de boer bij
voorzitter hans de boer infrastructuur van randstad naar brabant moet veel beter
ruim 800 leden stappen bij uit hun comfortzone
de efteling en is klaar voor de
overheid moet sneller zijn met verstrekken vergunningen en een loket openen voor familiebedrijven
doet oproep overheid te investeren in technisch onderwijs, hoogwaardige voorzieningen en nieuwe tec…
30 maart presenteert de ondernemersagenda eindhoven aan leden en politiek
indrukwekkend mooie fototentoonstelling steve mccurry in
philippe van esch vraagt namens aandacht voor bereikbaarheid van bij minister kamp
minister kamp bij verdeling gemeentefonds moet meer gekeken worden naar economisch belang van regio voor nederlan…
pleit namens om nieuwe investeringsfonds investnl in regio eindhoven te vestigen
minister kamp op bezoek bij geeft aan onder de indruk te zijn van ondernemerskracht
mooi initiatief van tekort aan vakmensen belemmert groei bedrijven
25 bedrijven uit de top 100 komen uit brabant via
een glazenwasser is in het helmonds wiskundige
agnes mulder cda, 13 “op een blanco cheque hoeft brainport niet te rekenen” via
heel helmond zingt met en vele anderen
klimaat vraagt om deltaplan met concrete projecten
verzoek van werd van harte ondersteund door en bfbg
minister president rutte tijdens nederlandse industrie is wereldtop en kampioen export
peter wennink spreekt tijdens over belang van regionale kennisclusters
ruim 150 en leden met elkaar in gesprek tijdens meet&ampmatch bij
indrukwekkende opening nieuw kantoor shimano op namens welkom in eindhoven
bzw heeft getracht er vanuit economische invalshoek een genuanceerd ver…
opinie reactie ronald slaats op jorritsmas oproep honderd wethouders in regio is nogal ruim bedeeld
zojuist rondleiding gehad door indrukwekkende nieuwe pand van bruns in oude fabriek de ploeg door bestuurslid…
hoe rijk mag je worden van sociaal ondernemen? interessante vraag tijdens opening van van…
drie op een rij. dat zou mooi zijn
nieuws bzw en bfbg vragen meer aandacht bij provincie brabant voor familiebedrijven
tinie manders van tinie manders ondernemer van het jaar in geldrop mierlo
wie wordt onze nieuwe communicatiecollega bzw | actueel
optimisme tijdens megareceptie met onder andere in ‘mainport’ eindhoven
burgemeester tijden ondernemers in regio zijn de peilers onder onze maatschappij
we zijn klaar voor ontvangst circa 1400 gasten bij the new horizon
burgemeester eindhoven van 21 naar 3 gemeenten in zuidoostbrabant poll schaalvergroting voor meer slagkracht
ondernemer van het jaar van de lindehof
werk verplaatste zich van westbrabant naar eindhoven e52 via
lees dit nieuwsbericht bij eindhovens dagblad opinie een sprong voorwaarts graag
tijd om nu in actie te komen
met onder andere namens
goed nieuws mede dankzij helmond wil bedrijventerrein bzob uitbreiden met 23 hectare
de capaciteitsverruiming van paalgraven staat in ons deltaplan infra noordbrabant
helemaal mee eens
te gast in bij talkshow brancusi ter gelegenheid tentoonstelling helmondse meesters
marc hendriks spreekt over de kracht van samenwerking in de en brainport…
met leden in dialoog over sociale agenda van
zo zie je maar waar een bzw bijeenkomst toe kan leiden😉
kinderen en volwassenen amuseren zich bij theater anders bij
werkgevers maak haast met verbreding a58 bredatilburg
mooie recensie vandaag in over tentoonstelling helmondse meesters
vandaag worden vakmensen terecht in het zonnetje gezet bij uitreiking ir noordhofprijs bij
ruim 150 leden van en bezoeken vanmiddag met toelichting jan smits op samenwer…
pvda brabant wil nieuwe fabriek tesla in tilburg en helmond
welkom in de namens
veel belangstelling bij opening tentoonstelling helmondse meesters
vanmorgen bedrijfsbezoek in kader bij vogels products met
burgemeester brengt op uitnodiging bezoek aan vogels productschap
wil trekkers van de economie zoals blijven ondersteunen zegt hij bij bijeenkomst brabantse familiebedrijven
minister voor leden brabantse familiebedrijven dossier hervorming van arbeidsmarkt en woningmarkt i…
lees dit nieuwsbericht bij eindhovens dagblad moeizaam compromis bzobbos helmond wekt vragen op
80 procent van leden verwacht dat big data van grote of enorme invloed is op bedrijfstak. maar 10 procent is er mee bezig
voorzitter geeft bij jaarvergadering toelichting op prioriteiten voor 2017 het jaar dat…
met onder andere een aantal gouaches van mijn vader gerard princee
guus meeuwis en cdk wim van der donk zingen wim van der leegte toe bij zijn 50 jarig jubileum
de actieagenda kan opgemaakt worden brainport is mainport via eindhoven is hier al mee begonnen
bedrijfsleven wordt geïnformeerd over welke bedrijventerreinen mogelijk uit planning worden gehaald in stedelijk ge…
goed om te lezen dat oude motie over sponsoring rotondes nu wordt uitgevoerd bezuinigen op onderh…
goede analyse vandaag in het door hopelijk lezen ze dit ook in den haag
daagt leden uit om een eigen gelukschilderij te maken tijdens ledenbijeenkomst over vitale o…
nu is het aan de 2e kamer om kabinet aan te sporen meer in te investeren
brainport verdient meer erkenning en geld goede analyse van
in drie dagen al ruim 100 aanmeldingen voor bedrijfsbezoek van 23 november…
nieuwe directeur roept brabant en zeeland op tot gezamenlijke lobby aanpak files
vacaturecafe vandaag met veel werkzoekenden en vacatures in techniekhuys veldhoven goed georganiseerd door
moeten we daar echt zo lang over praten en studeren!
inspirerend verhaal over smart robotics tijdens door en prominente rol bedrijven…
nieuws grote schade voor economie vanwege merwedebrug...
in café t lempke worden vervolgstappen gezet naar een meer duurzaam eindhoven
plaatjes zeggen meer dan woorden
daar zijn wij het helemaal mee eens
er wordt druk getekend, gepraat en geschreven aan een meer duurzaam eindhoven
mooi plaatje van brabant
mooie uitspraak cdk wim van der donk tijdens bijeenkomst brabantse familiebedrijven bij nxp alleen wat diep geworteld is kan hoog groeien
met verschillende partijen in eindhoven in gesprek over het verduurzamen van de stad
met ondernemerscontact nuenen op bedrijfsbezoek bij leolux
leden vinden dat nieuwe kabinet meer moet doen aan duurzaamheid en belastinghervorming
leden geven kabinet rutte een ruime voldoende tijdens prinsjesdagbijeenkomst in veghel
lees dit nieuwsbericht bij eindhovens dagblad opinie bij eindhoven airport hoort een treinstation
doodstil helmond mooi nieuw festival in onze achtertuin
nieuws 3e woensdag van september prinsjesdag bijeenkomst van in veghel
doet het op alle fronten beter dan vorig jaar en de rest van nederland blijkt uit
rob van gijzel tijdens bijeenkomst het nadeel van voorop lopen is dat er geen gebaande paden zijn
advies bevestigt belang brainportregio voor nationale economie
vanavond ocn culinair in fraaie tuin fons linders in nuenen. lekker samen genieten van n natje en weinig droogjes
wethouder we moeten in tilburg de binnenstad weer heroveren
gedeputeerde eric van merrienboer er staan in brabant bijna 2200 voetbalvelden aan kantoren en winkels leeg
durf te experimenteren in aldus tijdens congres en denk groter
boeiend artikel! opperlobbyist en polderkeizer opererend vanuit de schaduw via
inderdaad leuk verhaal over oudcollega in fd
van harte proficiat namens
met brabantse familiebedrijven bij guus meeuwis
goed dat initiatief van en vervolg krijgt
werkgevers willen beter samenwerken met gemeenten via
met ondernemers en in gesprek over verbeteren aansluiting onderwijs bedrijfsleven
john jorritsma vvd voorgedragen als burgemeester eindhoven
hoe high tech is een aardappel? ontdek het tijdens bijeenkomst van op 22 juni bij agenda
mooi bericht. regionale economie zit duidelijk in de lift
peter wennink van we moeten ophouden ons in deze regio stiefkinderlijk te laten behandel door den haag
volop interactie tijdens marktconsultatie bedrijventerreinplanning stedelijk gebied
wim van der leegte tijdens bijeenkomst bedrijventerreinen grondprijs is hier veel te hoog
met op bezoek bij en studentenonderneming team fast
op deze plek vindt op 22 juni volgende ledenbijeenkomst eindhoven plaats
op deze plek vindt 22 juni bijeenkomst plaats eindhoven themahoeveel high tech zit er in een aardappel?
overheid en wetgeving staan succesvolle introducties van innovaties in de weg stellen specialisten
bij startbijeenkomst gaat het er over hoe technologie de wereld mooier, slimmer en comfortabeler maakt
veel belangstelling bij dag van logistiek in eindhoven
tijdens dag van logistiek bij van rooijen wordt startschot gegeven logistiek platform zuidoost brabant
net terug van ontmoet een muzikale topavond
bas kuijpers wil in 2018 alleen energieneutrale installaties realiseren stelt hij tijdens bijeenkomst
mooi initiatief 22 mei dag van de logistiek eindhoven ervaar alle facetten van de logistiek via
mooie prestatie marc!
graag gedaan. samen bereiken we meer.
met pvda fractie en op bezoek bij om te spreken over sociaal ondernemen
industrie is motor van de economie, níet amsterdam
mooi artikel in over groeiambities van lid wagenbouwer hapert
vanmiddag overleg besturen helmond/peel en eindhoven over verbinden gezamenlijke lobbyagenda
mooie uitspraak. nu doorpakken.
joep kemkens wordt nieuwe voorzitter oik
meer horen over duurzaam ondernemen kom 12 mei naar ledenbijeenkomst met cases van tno en kuijpers
inspirerend verhaal in over duurzaam ondernemen bij en
hartelijk dank voor de geweldige ontvangt ontvangst van
met 100 leden van te gast bij fokker landing gear in helmond een stukje nederlandse trots
nieuws brabant neemt voortouw in creatieve innovatie...
bij kick off van beagle project om kennis van onderwijsinstellingen naar bedrijfsleven te brengen
op 12 mei organiseert een minisymposium over duurzaam ondernemen in evoluon
ontbijtbijeenkomst kempisch ondernemersplatform met aandacht samenwerken /verbinden
vanmiddag bijeenkomst ondernemers nuenen en geldrop mierlo met frans huijbregts over toekomstgericht ondernemen
vandaag met studieclub bij een snelgroeiend bedrijf op gebied van 3d printing
gedeputeerde roept gemeentebestuur helmond op om snel besluit te nemen over brede n279 bij bijeenkomst
de peel maakt het in brainport thema van economisch programma regio helmond/peel aldus wethouder hoppezak bij bijeenkomst
we zien elkaar zeker bij de opening.
inderdaad. fijn om zo de herinnering levend te houden
herman wijffels spreekt in de leden brabantse familiebedrijven over circulaire economie
vandaag aandacht aan het wee van mijn vader gerard in trots om mee te werken aan interview
‘het gaat om de trots in de ogen van onze mensen’ via
hoog tijd dus voor actie
mooi persoonlijk verhaal over gemini voorzitter en lid jac van stratum in
frans huijbregts wint van harte namens
bij met 3 genomineerden louwershanique klg en huijbregts groep.
voorzitter hans de boer vnoncw we moeten naar minder collectiviteit en meer individualiteit bij arbeidsvoorwaarden
arbeidsmarkt moet revolutionair anders aldus tijdens de economie dwingt ons daartoe
voorzitter bespreekt lobbyagenda tijdens
alles staat klaar voor over een arbeidsmarkt met pit
studio stadhuis namens bijdrage geleverd aan bedrijventerreinennota eindhoven via
bedrijfsbezoek ondernemerscontact nuenen bij heydehoeve met verhaal van tiny schepers over uitdagingen varkenssector
conclusie bijeenkomst slimme auto kan niet zonder meer asfalt vandaag in
bij smart mobility hoort ook een slimme weg aldus carlo van de weijer bij bijeenkomst
jan renier swinkels van en spreekt over belang van slimme mobiliteit bij
boeiend college prof. toni sfirtis van tias over rol management bij innovatie voor leden
goed initiatief van om te komen tot logistieke onderwijscampus in eindhoven.
jan renier swinkels houdt inleiding voor leden gemini en over familiebedrijf bavaria
rondleiding gehad van door verspillingsfabriek. een mooie combinatie tussen sociaal ondernemerschap, duurzaamheid en innovatie
interessante bijeenkomst studieclub bij metatronics met inleiding over groeikansen internet of things
terecht veel aandacht voor kansen logistieke sector in regio eindhoven prioriteit
goed overleg vandaag met logistieke bedrijven, onderwijs, vakbonden en overheid over meer samenwerking arbeidsmarkt en scholing
op 2 maart organiseert samen met tias bijeenkomst over smart mobility op
we verheugen ons op de samenwerking en zijn benieuwd naar het eindresultaat
finale keiebijters klets toernooi gaat beginnen
vol inzetten op r meer aandacht voor industriebeleid bepleit door en
goed initiatief van wordt ondersteund door
beroepscrimineel berry k uit h en burgemeester berry link bij nieuwjaarsreceptie gemini en fog
neef bart koolen de nieuwe prins cambrinus van de biereliers
even terug in s hertogenbosch voor nieuwjaarsreceptie en hermes
lees dit nieuwsbericht bij eindhovens dagblad solar team eindhoven gehuldigd in evoluon
het was een mooie bijeenkomst met ruim 1.200 gasten. veel mensen gesproken met nieuwe plannen
simone van der heijden van vincentre ondernemer van het jaar in nuenen
ruim 200 aanwezigen bij nieuwjaarsbijeenkomst ondernemerscontact nuenen dat dit jaar 35 jaar bestaat
magnum om set bijzondere fototentoonstelling in
snel veranderende wereld vraagt om innovatief ondernemerschap
batterijoplader telefoon behoort tot primaire levensbehoefte aldus johan plasman van zens
verpakking die gaat communiceren toekomstvisie van faes cases bij sessie
ruim 120 ondernemers bij inspiratiesessie
cor van de ven van raakt geïnspireerd door sfeeractie
de sfeer zit er goed in
versterken van samenwerking onderwijs bedrijfsleven is belangrijke prioriteit
genomineerden ocnondernemer van het jaar 2015 bekend
platform zorg noordoostbrabant verbindt
studieclub bijeenkomst met presentatie van jeroen tulfer over ervaringen als curator
ondernemers contact nuenen te gast bij blw kunststoffen
gewoon een gezellig sara diner
contactgroep veghelse ondernemers verwelkomt 100e lid thijs jongkind van bsu groep
leden industrieel contact helmond krijgen uitleg over robot bexter van henk kriela van
bedrijven investeren voor vele honderden miljoenen in het brabantse veghel.
het is voorbij geweldig optreden kuun in
kuub stapel brengt een ode aan de string.
met en kop organiseert 9 dec inspiratiesessie ‘inspelen op razendsnel veranderende wereld’
sociaal probleem oplossen? begin een bedrijf
van voorspelt een mooie groei voor regionale economie tijdens bijeenkomst gemini bij
minister kamp bij digitalewerkplaats nederland 4e internetland van de wereld
bij van bedrijven die internet omarmen groeien twee keer zo snel
met leden op bezoek bij en
nieuws inschrijving prestigieuze koning willem 1 nu geopend
we zitten er klaar voor
donderdag 5 november organiseert een bedrijfsbezoek bij over arbeidsmarkt van de toekomst
mooie herfstkleuren op strabrechtse heide
bij preview nieuw hoofdkantoor aanwinst voor eindhoven. modern design en transparant
joost eijsbouts vertelt over 137 historie van familiebedrijf koninklijke eijsbouts
grote groep dgas in collegebanken in gesprek over geheim familiebedrijven
genieten van veel mooie kleurrijke schilderijen in haags gemeente museum
van harte proficiat ook namens bfbg. pak een lekker biertje op dit mooie succes
bavaria beste familiebedrijf ter wereld van harte proficiat namens
inspirerend verhaal voor bfbg over transitie fuji van fotorolletjes naar membranen
oproep cdk aan familiebedrijven om zich met onderwijs te bemoeien beschikbaarheid personeel achilleshiel economie
cdk wim van der donk tijdens bijeenkomst brabantse familiebedrijven om hoog te groeien moet je diep geworteld zijn
van hoof groep uit asten wint brainport industries college award voor opleiden vakleerlingen
bij jaarcongres er is veel bereikt in 5 jaar op gebied imago, technologie en markt
goed artikel over initiatief van bestuurslid
bzw bijeenkomst bij summa college op 5 november
mooie prestatie!
brabants succes is effect van samenwerking
ondernemers nuenen met sterrenkok lindenhof het wiel is al uitgevonden je moet er draai aan geven
sorry barbara heb je verwisseld met naamgenoot tweede kamerlid. zal wel eens vaker voorkomen denk ik. gr.
veel ondernemers op zoek naar business tijdens bedrijven contact dagen. veel optimistische geluiden gehoord
internationaal zakendoen zonder verrassingen thema van bijeenkomst en
uitbreiding vluchten belangrijk thema tijdens bijeenkomst met oa
nee geen familie. veel succes morgen met de marathon in berlijn
voorzitter de overheid is niet futureproof. het moet sneller en efficiënter
voorzitter geeft aftrap van ontbijtbijeenkomst tijdens
ook morgen is er nog een ontbijtsessie
geeft met rick polman van startschot voor werkgeversservicepunt 04werkt
en groeit anderhalf keer zo snel als de rest van nederland
in gesprek over nieuwe businessmodellen tijdens wvdo
volle bal bij ontbijtbijeenkomst tijdens over toekomstgericht ondernemen
vanmiddag kennis gemaakt met nieuwe burgemeester geldrop mierlo berry link namens en
indrukwekkende rondvaart door rdamse haven
brabant heel belangrijk voor haven rdam zegt mathijs vermeulen havenbedrijf tegen ondernemers nuenen
abnamro econoom han de jong optimistisch over economische groei eurozone tijdens prinsjesdagbijeenkomst
dat zijn de zenuwen😉
goede inhoudelijke discussie met ondernemers en gemeente eindhoven over wensen ten aanzien bedrijventerreinen
bijtanken 14 f16s boven noordzee bijzonder en unieke ervaring
met leden mee met kdc10 om 14 f16s bij te tanken boven noordzee
meer toeristen maar regio eindhoven. mooi bericht vandaag in
netwerkbijeenkomst van start bce met
jos van bree opvolger van mierlo als vvdwethouder in helmond van harte proficiat en succes
47 procent van de banen gaat veranderen door the internet of things voorspelt
topman eelco blok opent meest duurzame datacentrum op
boos op provincie over gevolgen stikstofregels voor bedrijven
goed discussie over logistieke agenda brainport bij rhenus in son en breugel
nieuws tias en bzw verlengen strategische samenwerking...
voorzitter ondernemersver geldrop mierlo biedt petitie aan wethouder renee hoekman doorstroming verkeer
vrachtwagens daf vliegen deur uit via
met leden op bezoek bij r&ampd afdeling boeien om te zien wat chips mogelijk maken
proficiat met je nieuwe stap in je loopbaan!
jan mengelers nummer 1 bij mannen in
het was een gezellig feestje bij
skon skoen van voorzitter brabants familiebedrijven
bij topsport draait het om communicatie
tijdens bijeenkomst bij van brabantse familiebedrijven over de kracht van brabantse sporters
komende jaren veel vraag vanuit logistieke sector naar bedrijventerreinen in regio eindhoven aldus stec groep. dit vereist speciale aandacht
bij discussie over bedrijventerreinvisie eindhoven. goed voor 50 procent van de werkgelegenheid. kwaliteit belangrijk
wim van de leegte plet voor gelijk speelveld op gebied kredietverlening, arbeidsmarkt in europa en invoerrechten in de wereld