echt heel lastig...
oh oh kan karl nu niet schitteren!
de eerste keer in het filmpje veeg ik je weg😂 de tweede keer klik ik je weg op het kruisjegaat vaak…
kan je de foto’s niet gewoon wegvegen?
sta je toch mooi ff te klappen voor becker
top! goed om te weten. dan gaan we snel even het een en ander aanpassen!
in de app wordt het aangegeven als 1750mb 4g en op de site als 2500mb 4g, wat is het nou?
geldt dit eigenlijk gewoon als een 2500mb 4g bundel elke maand? of is dit 1 maand of eenmalig? wrm zo ondu…
immers naar ado!
jij moet toch ook cricket op ziggo sport kunnen krijgen?
ik denk niet dat engeland wint
twee dagen achter elkaar?
we gaan wel zien wat het toernooi brengt. wordt in ieder geval facking vette week
als we de finale halen spelen we in een stadion van 10000 stoeltjes
jaa volgende week donderdag tot maandag
blijf maar
precies dat was het duwtje in de juiste richting!
florisdl niet echt wen afkorting
okee klinkt als een goeie optie! gaan we maar eens proberen! thanks👍🏻
wie zal ik op cm zetten? goed bezig trouwens in de edivisie!!
helikopter zojuist geland.
samenvatting van de wedstrijd tegen rkavv jo/17
had niet verwacht dat mijn antwoord goed gerekend zou worden, maar dat vind ik helemaal niet erg.
krijg je allemaal van dit soort leuke reacties, wie wil dat nou niet??
raoul heeft deze voor je...😉
duplan?
vooral fijn dat clichy links en net wat sneller is
hij kost niks dus het proberen waard
clichy op linksback is voor mij geweldig
ik vind het doelpunt van pröpper de mooiste van psv in 2016. en jij?
butland!
butland!
sws butland!
dat zou niet zo gek zijn. hulp bij de communicatie en elkaar leren begrijpen. niks mis mee, toch?
wat is dit opeens ? waar is de rijmpiet, hier ben ik het mee oneens!
ook zou je als planner bij een bedrijf tijd goed in moeten kunnen delen dus heb je best tijd om een mailtje te sturen niet?
....dus ook daar moet je ff kijken wat je zegt voordat je weer begint te praten zonder je eigen argumenten te hebben.
en als ik een mail wil sturen zal ik dat zeker doen. daarnaast ben ik niet werkloos en voetbal ik zelf al 11 jaar...
kan je boos worden maar jij begint met met mij een gesprek te voeren terwijl ik reageer op de knvb.
zodat ze niet de halve voetbalwereld over zich heen krijgen zoals met de aanpassing van het pupillenvoetbal...
hieruit kan je opmaken dat ze dus graag meningen van mensen hebben zodat ze daar duidelijkheid over kunnen geven.
misschien zou je dit eens moeten lezen zo vragen sommigen zich hardop af...
geen argument maar toch een discussie beginnen... misschien toch eens zelf in die hele grote spiegel kijken...
om dan over iemands naam een oordeel te vellen lijkt me niet de redenatie waar de knvb op zit te wachten.... 2/2
daarnaast geef ik mijn mening over iets waar de knvb vragen over heeft en... 1/2
dit is verreweg het slechtste argument wat ik deze week gehoord heb.. droevig dat je zo je standpunt verdedigd...
dat lijkt mij het beste inderdaad.
nee dat zou betekenen dat veel kinderen nog maar 1 sport kunnen beoefenen...
ja dat klopt. ik dacht alleen dat je gewoon een team wilde maken niet per se voor weekend league.
zo iets zou je kunnen maken met sanchez? lijkt dit wat raoul? een beetje de goedkope versi…
deze chaos en dan moet het sinterklaasjournaal nog beginnen...
om hoeveel autos gaat het in de afspraak om het wagenpark van psv?
wat valt er onder huisvesting? de huizen voor spelers, stadion?
misschien helpt dit?
zouden jullie de komende dagen wat meer spelers te koop kunnen zetten voordat de site offline gaat...
je denkt toch niet echt dat hij bazoer opsteld....
ik had eigenlijk op wat moeilijkers gerekend op de vrijdagavond!
jullie moeten hier aan mee doen!!
als je het eenmaal ziet dan kan je het niet niet meer zien!
je moet in je tweet zetten anders lukt het niet
en heeft bij cska uit een behoorlijk wedstrijd gespeeld.
de snapchat vandaag is echt heel gaaf! super goed bedacht om robbie hiervoor te vragen! duimpie!!
heb je davy pröpper geprobeerd? bijvoorbeeld op cm en ziyech naar de spits of ipv vormer.
een hint zou niet overbodig zijn...
okee voorruit
maar... maar.... ik had een knoopje geantwoord.... wrm heb ik het dan niet goed?
maar... maar.... ik had een knoopje geantwoord.... wrm heb ik het dan niet goed?
heb je ook een scherpe foto?
ich finde moet zonder hoofdletter toch? want de zin ervoor eindigt met een komma
wanneer worden de reserveringen van het heritage shirt geleverd?
groot gelijk heb je!
dat weet ik niet maar dit heb ik alvast gevonden
dit is hem op dit moment!
2 dagen achter elkaar goed🎉🎊
heb je het nieuws over wigt al gelezen....
na betaling via marktplaats aanbiedingen kom ik op een site met een foutmelding. ik heb nu betaald maar geen tickets ontvangen.
na betaling heb ik geen bevestiging ontvangen in mijn mail en ook de website waar ik naar doorgestuurd werd werkt niet...
fut galaxy! packs en bets!!
wnr komen de eredivisie en jupiler league wedstrijden om op in te zetten?
spektakel in de 90 minuut? kijk dan dit! ingooi van jetro willems!
op weg vanuit leidschendam om de superboeren aan te moedigen vandaag! 3 uur reizen!
adopec
nee echt totaal geen verschil. echt zonde van het geld
als ik de stadion plattegrond via de kaartverkoop website wil bekijken werkt dit niet...
het shirt wat rop aan heeft tijdens de bespreking van de opdracht is precies hetzelfde als de achterkant van het geld!
het shirt wat rop aan heeft tijdens de bespreking van de opdracht is precies hetzelfde als de achterkant van het geld!
het shirt wat rop aan heeft tijdens de bespreking van de opdracht is precies hetzelfde als de achterkant van het geld!
hopelijk kunnen jullie de opdracht nog een keer doen! hij was zo leuk!! laat thomas maar is een keer boefje spelen!
bijna ea.... bijna....
keepster heerenveen!
om het hele programma te downloaden via
pagina niet gevonden...
wat vind je hiervan? is de balans tussen aanvallend en verdedigend goed? alvast bedankt!
samenvatting van de wedstrijd rkavv b1 barendrecht b1
zeker weten! eindelijk een keer pereiro en hendrix in plaats van narsingh en maher!
er is een probleem met de kaartverkoop website waardoor je je kaarten niet uit kan printen! kan je dit oplossen? bedankt!
ik moet nog 2 kaarten printen voor vanavond maar elke keer komt er een foutmelding wat nu!?!?!
help!! na elk potje op fifa 16 blijft ie 5 minuten laden en vervolgens keert ie terug naar beginscherm en geen coins...
raoul help!! na elk potje op fifa 16 blijft ie 5 minuten laden en vervolgens keert ie terug naar beginscherm en geen coins...
bij svv scheveningen sloeg de bliksem in in een boom naast een veld waar gevoetbald werd...
.@knvb ik denk dat de johan cruijff schaal wint. wat denk jij?
kunnen jullie donderdag zaterdag zondag de wk t20 kwalificatie cricket ook uitzenden? wordt uitgezonden op fox sports nl
super! zou heel erg leuk zijn als het lukt!! goed bezig!
het wordt uitgezonden op sky sports
8 juli – 24 augustus 2015 maar de eerste wedstrijd is van 8 tot 12 juli
zenden jullie de uit?
waarom ben je overgestapt naar ps4?
hoe hebben jullie elkaar ontmoet? jij en robbie wat vindt je van de samenwerking met luckygraafnl
waarvan komt jouw relatie met david vandaan?
wat vind je hier van? en heb je nog tips?
wat vind je van dit team? nog tips?
ivan rakitic!!
en de oudste wordt overgeslagen 😭😭
omg terwijl ik naar je livestream kijk krijg ik 90 hazard! 2de pack
en het feest in st. maartenszee dan?
rusnak....
oke bedankt! ik ben nu aan het wachten op tots hazard want elia heeft soms moeite met scoren😂
wat vind je van mijn team? en heb je nog tips? alvast bedankt!!
dat zal zoet niet leuk vinden!
gefeliciteerd met thijn!! hopen op een mooi verjaardagscadeau zondag tijdens de finales! 🎉🎊🎈🎉🎊🎈
en terecht!!
shell tankstation nabij leidschenhage. allemaal politiebusjes en weg afgesloten. wat is er gebeurd? overval?
verander je bio dan ook ff ! of moet ik het elke keer zeggen😉😉
de link werkt niet❌🚫
de link doet het niet🚫❌
idd wat betekent het?
verander je bio!!
goedzo!!
er kan trouwens in je bio best penaking zetten.
rkavv ter leede 22 tijd pingels
rkavv ondertussen 20 voor tegen ter leede
stream 6 doet het de hele wedstrijd echt fantastisch!! top service!
“@rikelfrink begon bij dit seizoen 10x in de basis 27 punten.
ja inderdaad wat dan? snappen er vast niks van! jullie zijn hartstikke goed bezig!
brenet speelt echt dramatisch. die gele kaart ook weer pfff man man man man
nee want dat zal niet eerlijk zijn. hij mist hem en als je dan te vroeg inloopt en je mag hem opnieuw nemen. dat is oneerlijk
blijven de streams wel werken via de picathartes app?
en ondertussen rood voor mulder hahaha
lekker manu! dik verdiend
ja
verkeerde foto!
standard luik?
waarom vliegt er een helikopter zo laag boven leidschendam?
vandaag engels voetbal?
heb je het koud?
schaars in ieder geval voorlopig nog niet...
serieus met 12 mensen in de klas waar er normaal 27 zijn
wakker zo met school naar brussel
mooie uitdaging!
ik laat dus net vanaf deze hoogte mijn iphone vallen.....
ouders op weg naar verona om de te supporten! helaas zelf thuis blijven omdat je naar school moet...
altijd toch
done
gggrrrooootttt!!
politie heli boven diligentia met foto
open kanaal fox
1830 uitgezonden via open kanaal fox
zenden jullie zaterdag nederlanditalië vrouwen uit??
zenden jullie zaterdag nederlanditalië vrouwen uit??
hoe kan je die missen😲😧
naar
sierd de vos... sexy sliding broekje dat roze ding
het regent.
.@paulinelerutte petje af voor de taart! heerlijk!🎊🎉
het is de code van je icloud
hoe laat ben je thuis?
ik heb dat stomme slot dus nog steeds niet eraf......
weet iemand hoe ik die vreselijk irritante toegangscode van mijn iphone krijg??
heb ik dus ongeveer 12 uur gewacht totdat ios 8 op mijn iphone staat. zit er een toegangscode op die ik er nooit op hebt gezet......
leuke dag gehad!
dat klinkt ingewikkeld...
maar zondag kan je wel spelen??
klopt het dat liverpool manchester nog niet werkt?? op stream drie zie ik alleen maar fenerbache galatasaray
7 uur lang op de boot gezeten van 🇬🇧➡️🏠. nu eindelijk in de auto naar huis en weer 3g!
zenden jullie vanavond de samenvatting van pec utrecht uit??
dag 3 wedstrijd tegen schotland!
heerlijk geslapen na de overwinning op jersey! vandaag tegen ireland op dag 2 van het ek
wakker vandaag eerste wedstrijd van het ek in engeland!😜
en lbw gegaan.😃
wat een kans
robben gaat het doen!
bijna....
pffff gevaarlijke plek...
lijkt me niet maar de twittert er over
gefeliciteerd! 👍
lekker sneijder!!
bijna...
oh bijna
pingels!!
op de lat........
krul erin voor pingels, hoop ik
gek van dat buitenspel......
op de lat!!
paal
bijna...
nog 3 pw dan klaar
wat een wedstrijd!
klaar met laatste echte schooldag!
laatste gewone schooldag!!
kom op algerije
pingel!!!
bijna......
bijna
moet een pingel zijn!!
de jong gebleseerd...
gelukkig gewonnen van de oneerslijkste tegenstander van dit seizoen aicc
hahah klopt
die scheids fluit een lekkere wedstrijd!👍👍👏👏
dejagah speler van het toernooi!!
gekke bus voor ons huis
pingel......
03 01 van persie
ze tellen af en de tijd stat heel veel stil
hup voor wie ben jij?
02 01 van de weerden
gekkenhuis geniaal!!!
gggggoooooaaaaaallllll!!!!
hij doet het!!!
gefeliciteerd
weekend!!! eindelijk heino!!!!!
hockey kijken!
vandaag lekker vrij!!
hoelaat,wanneer,waar???
geselecteerd voor nlelftal onder 15!!!!!
hoe laat?
beslissingswedstrijd??
gefeliciteerd!
je moet vandaag een voldoende halen!!!
dankje!
knvb schaduwteam onder 14!
vqnavond wedstrijd tegen haaglandia c1
en de eerste supporters van ajax lopen het stadion al uit!
heerlijk weekend!! vandaag jarig! en skybox ado vrouwen morgen lekker niks en zondag verjaardag vieren! en cricket toernooi!
vrij!! morgen jarig en vrij!! dan projectweek en dan een weekje vrij!!
naar huis en morgen vrij!
weekend
2.5 km in 0906 min, beste 2de klasser!
20 10 van duinen
. wil je de computer uitzetten? nee, hij is al afgesloten.
goedzo!
hoppaaa! ado shirt gewonnen met eindstand goed voorspellen!
vanavond weer naar ado
psvvit was een mooie wedstrijd mooie sfeer!
voor vitessepsv
vandaag rkavv c1 jodan boys c1 dan naar vitesse psv
freek winnaar, susan is de verliezer, sophie is de mol
12 01 van duinen
weekend!
geen jan willem…
“@artrooijakkers ik zit er al klaar voor. ” kijk wat er op het beeldscherm staat!!!!!!
depay
gefeliciteerd!!
gehaald en ruit ingeslagen………
heb je getraind in rotterdam ga je naar huis, ga je als verassing eten bij de ikea ben je een uurtje weg en is alles uit de auto 1/2
doei!
wat is er aan de hand in de tunnel? rode kruizen en zwaailichten ervoor?
6x goud 6x zilver 7x brons
weekend
dan valt er iemand in de klas in slaap!
weekend
hebben jullie deze in maat 43?
weekend!
wanneer ga je weer voetballen/trainen
hoe is het met de velden?
huisjes tekenen.
weekend!
zouden jullie er voor kunnen zorgen dat je psv tv ook weer op je smartphone kunt bekijken. alvast bedankt!
nieuwjaarsduik gedaan!!
broertje wakker
alvast fijn 2014!!!
fijne kerst!
laatste dag voor de vakantie 1 boek mee!
pingel heereveen
nog 2 dagen school en dan vakantie!
psv voor alle prijzen uitgespeeld…..
vandaag rkavv c1 hvv c1
weekend!
cedric maar wel leuk!
welke spelers zou psv moet halen?
apart plaatje bij een gedicht.
wie zou psv in de winterstop moeten halen?
wie zou psv moeten halen in de winterstop?
weekend!
vandaag 16 ipv 17 morgen vrij!! woensdag 25 ipv 26 en donderdag 15 ipv 16!!!!
waar kan je hem downloaden?!?
word de wedstrijd nog ingehaald?!
.@timtetteroo “@voetbalenzo mention een vriendin die deze kans ook zou hebben gemist! ”
vandaag weer 3 punten!! 24
weekend!
werledgoal bij rkavv b1
weekend!
mooie laatste dag van de week!
finbogason en toornstra
en live bij de nos?
wat heeft psv met maher gedaan?
prullenbakken vliegen over straat!
maher heeft het al verwijderd