van harte gefeliciteerd. heb een mooie dag 🎂
begin maar met butner dan.
kan iemand me vertekenen waarin ook in het blauw speelt
slaapt in een ajakkes pyjama zeker. de kwijl druipt nu al uit de tv
ehhhhh volgens mij staat nummer 1. dus waarom dan beginnen met een zeer zwakke
ik ga het proberen. dank je alvast
dus steeds moet ik de box achterop helemaal uit en weer aan zetten om voor even alles weer wel te kunnen 2/2
horizonbox vertoont rare kuren. is steeds tv gids kwijt met replay tv. via app ook geen programma’s in te stellen 1/2
tis rust maar dat maakt niks uit. je kunt niet alles weten 😂
dit is de status vandaag
fijn om te horen dat de supporters ook de weg naar het hebben gevonden
zie nu voor het eerst met echt prachtig. pure muziek. pure verhalen. indrukwekkend. en spelen in prison
wat een slechte service. nog geen 3 huizen terug willen lopen of rijden. en ik dus maar wachten…
wat een lamstralen bij zeg. al te lam om 2 huizen verder te lopen of rijden. kan ik langer wa…
als je maar een goed spuitmondje hebt
had iemand nog iets over de opstelling van vandaag
pp. is altijd wel. niet alleen afgelopen zondag
even ter info. niet alle brabanders zijn als peter en jolanda. wil daar liever niet mee geassocieerd worden
als toch nog naar de kijkt, kijk dan ook ff naar de ook die is zwaar k.. tijdens wedstrijden
oh ja. dan mag de hardwerkende suppoost het nu gaan oplossen met de handscanner.
dus nu mannetjes om uitleg te geven.
fantastisch mooi systeem zeg.
dan is fifa17 op de playstation zo gek nog niet
sta je nooit in de rij. krijg je dit seizoen dit geneuzel
van de man die nooit in eindhoven is. waarom gullit. absurd
waarom gullit. je ziet hem nooit en nu moet hij dat doen ? absurd
ik ben er bij
welke stream heb jij ??
wat is dit nu voor een gepruts. de helft van een film gewoon slippen.
wat een kakwifi van zeg. kan bij alle acties op mijn gemak een bak koffie zetten
leuk hoor maar kunnen we en en wisselen. en
al 20 minuten top, maar waarom zoveel nog geen seconde over lekker waardeloos ook bij de radio
ook dat psv kampioen wordt, maar dat gaat echt niet lukken dit jaar. dan dus een feestje vieren met de grappigste brabander!!!
wel samen met mijn zusje een leuk feestje mee komen vieren. waarom? tis het leukste zusje, maar ja ik heb er ook maar 1 dussssss
wat een flapdrol is die zeg
ik heb op shauny bult gestemd om haar op te krijgen in de stem ook op jouw favoriet
ben in 30 jaar als seizoenskaart houder nog nooit het stadion uitgelopen. nu wel. triest. hoop dat j…
je drukt je nog voorzichtig uit hoor. kansloze figuren dit
en wederom laten de van zich horen ga liever zelf ook positief de wedstrijd in. ook al is het niet best
zou jeme willen volgen ?
tijd om te zappen. beetje moe van al die jc ophef.
rust in heerlijke eerste helft met als topafsluiting
bedankt voor een heerlijke avond had ik echt nodig.
ook knap van om fout op fout te maken en iemand anders de schuld te geven
wat een naaistreek van een project hebben dan dan niemand informeren en boetegeld opstrijken.
jazzwerk fotoshoot de leerfabriek
jazzwerk fotoshoot de leerfabriek
kom je nog in de buurt van eindhoven of den bosch om te signeren ?
toch dat je een verontrustende mail stuurt naar en dat je nul komma niks terughoort. erg vreemd. geeft weinig hoop op het antwoord
misschien wil nog eens zeggen van wie ons moet winnen over een paar weken. heb dat gemist denk ik
wanneer krijgen ze bij eens goeie voetbal commentatoren ? ik krijg zon jeuk van dat gezwets
goed opletten. het waren toch echt de tilburgers
heb ik iets gemist ??
wat is de wifi bij in het stadion toch slecht zeg
beter dm lijkt me
heb alleen een nietthuiscode
en nu is het te laat. daar baal ik echt stevig van. het is namelijk geen knikker die geleverd moet worden
eerste was al geweest. probeer sindsdien voor 22.00 uur continue mijn leverdatum aan te passen. lukt dus niet
ben benieuwd hoelang 60 minuten bij jullie zijn. wacht namelijk al anderhalve dag op antwoord van jullie
ik wil de datum van levering aanpassen. dat luktniet op app en site. waardeloos. ik wil een oplossing
dat niemand dit ooit bedacht heeft. briljant al zeg ik het zelf
voor de liefhebbers vershal
hoera hoera hoera. veel plezier vandaag met en de kids
das voor het eerst dat de hele familie bij elkaar zit. nice
nog slechter dus
waarom fluit nu wel af bij hoofdletsel? en dinsdag niet wat toch veel erger was
kellybeekmans lindavandeloo we mogen weer en hebben er zin…
die kende ik nog niet
ik kan maar niet snappen dat supporters hun eigen club uitfluiten blijf dan gewoon thuis
ik zie dat net seizoen weer is begonnen 😁
ze zitten echt overal 😂😂😂 psv stadion
en ik ben niet eens jarig.
waar is als je hem nodig hebt angelaschool boxtel
hij heeft er alleen geen idee van det het geen lepelaar was maar een pelikaan
met miekeboleij en aamboleij boshuys best
volgend ivetvanschaijk is dit beter shintori den bosch
blijft toch lief en leuk angelaschool boxtel
hé wat lekker onsportief zijn die fransen toch weer
ik krijg een vette factuur terwijl ik geen klant van jullie ben. rara politiepet
heel knap dit ik een factuur van jullie krijg terwijl ik geen klant ben. rara politiepet
strijps
strijps
strijps
aparte combi strijps
ja das dichtbij strijps
aan de winnende hand strijps
just posted a photo nederlands instituut voor beeld en geluid
just posted a photo nederlands instituut voor beeld en geluid
just posted a photo nederlands instituut voor beeld en geluid
just posted a photo nederlands instituut voor beeld en geluid
just posted a photo nederlands instituut voor beeld en geluid
just posted a photo nederlands instituut voor beeld en geluid
just posted a photo nederlands instituut voor beeld en geluid
just posted a photo nederlands instituut voor beeld en geluid
just posted a photo nederlands instituut voor beeld en geluid
just posted a photo nederlands instituut voor beeld en geluid
just posted a photo nederlands instituut voor beeld en geluid
just posted a photo nederlands instituut voor beeld en geluid
just posted a photo nederlands instituut voor beeld en geluid
just posted a photo nederlands instituut voor beeld en geluid
just posted a photo nederlands instituut voor beeld en geluid
just posted a photo nederlands instituut voor beeld en geluid
zo kijkend naar het merk je pas hoe slecht het echt is
het is wel opvallend dat een aantal spelers bij ineens anders heten op een
het voetbal is nog niet alles op het maar het commentaar van de is tot nog toe echt allerbelabberdst. wat een
schrik me een hoedje ah
ik neem aan dat de echte wedstrijd straks begint? dit is toch een pupillenwedstijd vooraf ? of ben ik abuis 💤💤💤
yes. voor rekencoordinator.
niet omdat het moet maar omdat het kan als je geslaagd bent.…
mogen ze eigenlijk wel op kunstgras in europa ?
tja europa in. daar gaan we met onze punten. benieuwd of er ook echt gras komt dan in almelooooooo
en daarom zitten wij dus straks in pot 4 ipv 1 of 2
ontsnapt uit ?
volgend jaar maar wegblijven bij het geen verstand van muziek. er was in oekraïne ook iets met een vliegtuig toch?
tatatadaaaa daar is ie dan de kampioenskapsalon pizzeria…
just posted a photo bevrijdingsfestival wageningen
hotel de wereld bevrijdingsfestival wageningen
defilé. zeer indrukwekkend. 😢 bevrijdingsfestival wageningen
thefirstlady bevrijdingsfestival wageningen
thefirstlady bevrijdingsfestival wageningen
soundcheck lynyrddenissen bevrijdingsfestival…
just posted a photo bevrijdingsfestival wageningen
ik waai hier zowa uit mijn panty 😂 de flaes
erg educatie zon spelletje. dussssss le temps perdu boxtel
wat irritant zeg . zit je net lekker in een film gaat je scherm op zwart voor een paar tellen.
blij met eerst en nu nog genieten van het werk van een held
volgens mij gaat het om de zang bij nietom randzaken. dus de zwakste schakel.
hoe kan die zo hoog scoren bij met die vlakke stem. for the win
wat een deceptie dat iets gaat zeggen over de held mondje toe graag. fijn voor echte fans
heerlijk gesprek over schoonmaken. toch goed on te horen dat wij het goed doen volgens oma
heerlijk onderwerp bij schoonmaken. fantastisch gesprek met
je moet toch iets als je exwerkgever je afserveerd
jammer van de rode kaart van want moet gewoon voor spelen. hij hoeft niks te bewijzen
ik had ons echt wel kans gegeven in deze kwartfinale zeg. potverdorie wa sunt
binnen
de arrogantie druipt er van af. jakkie bah
volgende week 10. prima.
mooi dat nog niet scoort. ben wel klaar met dat arrogante gedrag. waar ken ik dat toch van 🤔 het zal wel iets met zijn
heeft alleen kaarten voor atletico bij of zo. geef ook maar eens wat
ik weet niet waarom maar ik ben toch voor atletico 01 hoppa
ben toch benieuwd hoe dit allemaal gaat aflopen. er is gelukkig niks anders interessants op de buis.
🤔 valerio hoe zou die kortsluiting toch komen zeg. tjongejonge. beste mensen ook dit is onze toekomst. succes allemaal
fijn dat mensen grove teksten op iemands auto schrijven. het ligt dus niet bij/aan ons
waarom iemand verheerlijken die alleen in 020 interessant is. er zijn er velen meer die geen aandacht krijgen en ook genoeg betekenen
ik wil toch even melden dat een fantastische verteller neerzet? duidelijk, strak en vol emotie
nieuwe aanwinst
lekker een in het zonnetje chez vales
daar is ie weer strijdershuis brasserie
just posted a photo de molen van sluis
just posted a photo de molen van sluis
koekoek de molen van sluis
just posted a photo de molen van sluis
zo kun je natuurlijk ook de vertrektijden aangeven
misschien dat de bank bezet gaan houden met 5 versies van zichzelf. wat een waardeloze instelling zeg
drones en drama in rockshow 2.0 van muse
15 gelukkige jaren. time flies..... jannievlaminckx 💋💋💋
wat een geweldige serie is dat toch zeg met de geweldige
hij is leuk hoor aamboleij 😂
hij is nice kbeekmans
de collega van aan de andere kant is geen haar beter. wat een kansloze figuren zeg.
wat is die toch een misselmakend mannetje zeg.
waarom hangt er hier steeds een politie helikopter in de lucht ??
tjongejonge. geen pepernoot geraakt en maar zeuren
vermeer wil aangifte doen tegen kwetsende dartfans. tjongejonge kansloze figuren. oppakken en geen stadion meer in
das lekker film kijken starwarsmovies starwarskyloren…
met je mond open slapen is slecht voor je tanden
wasch en strijkmuseum
wasch en strijkmuseum
gevonden 🤘🏻 wasch en strijkmuseum
wasch en strijkmuseum
wasch en strijkmuseum
wasch en strijkmuseum
waarom is eigenlijk de in vanmorgen korte tijd ontruimd ??
ik kan zo bij de marine. dussss angelaschool boxtel
de arbeidsomstandigheden bij de ikea laten ook te wensen over zeg…
hoppa. wie kent ze niet.... ikea
jamjamjam de rechter
jakkie deel 2 angelaschool boxtel
jakkie wat eng angelaschool boxtel
sodekanonne wat een mergpijp
beste jack. zou je mij even willen volgen. ik wil graag een de sturen waar ik je advies over zou willen. dank je
toch maar eens volgen. wie weet
kerststol is uiteraard kerstshow
nou zit al drie kwartier te wachten op de kerststol, maar nog altijd niks. dat wordt zappen
wat een baas toch weer met echt een tophit
zullen we even stoppen met het ophemelen van wat een krijsnummer heren ga vooral door met deze geweldige actie weer
oh ja het was een pingel voor maar laten we dan de pingels voor ons maar vergeten. nee dus. doe ff normaal
tjongejonge wat zijn ze bij toch een stel kneuzen. hoezo punten te weinig. je krijgt wat je verdient maar ja 12 tegen 11
wat een film is dit zeg. goedemorgen ik sidder nog na
gossie wat zou dit toch zijn angelaschool boxtel
kerstontbijt angelaschool boxtel
kerstontbijt angelaschool boxtel
kerstontbijt angelaschool boxtel
heerlijke film zometeen
zielig mannetje
wat is die toch een zielig vervelend mannetje
toch een leuke actie. mooie kleurplaten voorafgaand aan de teamdag in…
kuyt krijgt wel de goal toegekend? duidelijk eigen doelpunt. bij roda en cambuur gewoon eigen goal. kan de dat even uitleggen
ik zou het doen
ik denk in de pool des doods
zitten er wel supporters in de badkuip in abcoude noord ? wat een grafstemming daar
heb hier hetzelfde probleem. spannend zeg
ik moet naar mijn opleiding. probeer de ipad aan te slingeren op de achterste rij.
heb daarentegen wel ontzettend zin in de overwinningskapsalon
heb er gewoon hoofdpijn van. studie gaat zo niet veel worden vanavond. gas erop
de 6e wedstrijd in 30 jaar moeten missen doet echt pijn. gas erop vanavond mannen. ik probeer toch wat mee te krijgen
en hij staat. vele handen maken licht werk angelaschool boxtel
sinterklaasje dank je wel
zo. de sint brunch kan beginnen
lekker eten en gezellig harrie potter triviant spelen met…
windkracht 9 doet rare dingen met mensen philips stadion
dat idee had ik ook. voor het eerst in 30 jaar gefouilleerd worden
speelt bij zal ie binnenkort wel een uitnodiging komen van
jammer voor zon grappige kinderfilm
wat slecht gecast zeg die juf bij
stapelpiet heeft zo zijn voordelen angelaschool boxtel
weet iemand hoe laat begint
waarom heet vanavond ineens ?
nee dit kun je niet zeggen in deze tijd eerst goed nadenken vriend
zou het toch echt geweldig vinden als vandaag even langskwam op het vindt mijn lieve collega gaaf.
klaar voor de teamdag van here we come. fijne rondleiding, museum, lunch en potje golf. topidee
ajaxfans willen uit onvrede eerste helft boycotten. dit is toch niks aparts. stadion zot altijd al halfvol
kwik kwek en tijntje
laat maar komen. wij zitten er klaar voor
het is ons team dus van de angelaschool in boxtel
deel 2. zou jij misschien langs kunnen komen want ik heb 1 fanatieke supporter van jou. ze zou dat echt super vinden#verrassing
beste komende vrijdag komen wij met ons tram van school naar het voor een teamdag. deel 1
ik ga het toch zeggen weeeeeekend!!!!!!
moeten we hier toch ook maar eens doen
briljante aflevering van heerlijk al die klets.
ik zeg ruilen met bietje geld erbij en een beter elftal weer. tatatada.
ben er nog van ondersteboven. in de moet echt van bijkomen. thnx
nog altijd op weg maar de voor de zo allejezus veel zin in. bam. hou ze nog even van het podium totdat ik er ben
kijk je wel goed willem. die mafkees is de slechtste van het veld
mannen van fenomenaal in op naar de tweede helft. smullen geblazen
yes. eindelijk in huis. bam
toch jammer dat mathijs bij zo bleef doorgaan bij over het don leo had zeker meer te vertellen.#faal
even de boel verkennen psv stadion
das jammer. zit voor geen meter heuvel eindhoven
lekker bakkie thee stadscafé de vooruitgang
tijd om zoet te passeren. pasveer is er klaar voor
wat een ophef over die zeg. ik wens het niemand toe, maar nu gaan we toch echt te ver om 1 man zo te verheerlijken. laat aub in 020
ik droom hoop ik. we gaan toch niet klappen in de 14e minuut voor ? blijf dan gewoon staan voor die duizenden gewone mensen
nou ik krijg ook ineens honger happyitalynl
wat een prutscommentator is dat zeg op lekker negatieve instelling vanaf minuut 1. blijf dan thuis
zo. ouderavonden klaar, plasje is gepleegd. op naar de
als klap op de vuurpijl dan ook nog een uitnodiging voor live. top evenement thnx. we voelen ons vereerd
win je 2014 en dan kom je voor de nieuwe editie met een mooi stuk in het
ehhhh dat moet je ff aan of zo vragen
eigen schuld toch. je moet altijd stoppen op je hoogtepunt 😂
mogen we nog wel een afscheidswedstrijd spelen. hebben deze mannen wel verdiend
wordt niet warm of koud van die fluitconcerten. hoort ie wekelijks in die snelkookpan
wil echt niet winnen. loopt warm
hoezo alternatief volkslied. is gewoon een 020nummer hoor.
pardon. dit zal toch geen serieuze overweging zijn geweest van had al zon vermoeden dat dit een issue zou zijn.
zou hier vanaf weten ? lekker goeiekoop
die duitsers spelen ook allerbelabberdst zeg tjongejonge
toch nog spannend voor of hij dinsdag speelt nu 2 exajakkesieden heeft opgeroepen
pas maar op. dadelijk gaat die struikrover van een er nog met de buit vandoor
nee hoor heeft echt geen bril op. hoop dat ze flink op de bek gaan. blijf maar een keer thuis
of is de van alleen geschikt voor de
wat is er mis met naar te rijden en op te zoeken? kun je ook geen verkeerde nummers intoetsen op je foon
mooooooi angelaschool boxtel
wat een wereldgoal
angelaschool boxtel
angelaschool boxtel
was tackel op de bal. dus domme pech helaas klaar. jammer voor shaw
domme pech heet zoiets dus geen rood. punt
oh elke wedstrijd vertel vertel
zo. die zijn al in de pocket philips stadion
altijd fijn als stagiaires het goed gedaan hebben. en dus ook graag…
hey gehalte is weer hoor bij zelfs heeft last van waanvoorstellingen
ik dacht een journalist objectief moest zijn. laat wel duidelijk zijn voorkeur horen is niet de beste
zelfs gisteren kwamen ze er mee weg
het is vroeg maar we staan dan toch bij de koeien voor
wat een verrassingsmenu eetcafe de deugniet boxtel bv
fijn voor kan ie volgend jaar lekker de bank de kleine de fles blijven geven. zal fijn vinden
doet wel mee? niet gehoord of gezien.
doe ik mee. met wat donner er op. jamjamjam
ik ga zo even naar sbs9. misschien dat leuker is
ik zit nu al te wachten op een goeie lekker tuteren
het in was toch echt wel spannender dan goeie winnaar ook daar zeg. hulde
hoor de autos al ronken van de turkse supporters hier
gaat vandaag een record vestigen ? de bondscoach dus het snelst zijn ontslag krijgt ga je schamen
gelukkig doet zijn naam eer aan wat een opstelling. dan wil je niet winnen
ik denk dat de ajakkesieden zich wel thuisvoelen vanavond. zelfde sfeer als altijd. fluitconcerten en het juichende uitpubliek
ik moet er gewoon om lachen 😂😂😂😂😂😂😂😂😂😂😂😂😂😂😂😂
wel een rare wissel lijkt me. voor haal dan er af. die heeft alleen maar verkeerde passes gegeven
gaat het echt anders doen dan dus slechter kan dan ook mensen
zo. das een rustige zomer volgend jaar
jammer dat de ballenjongen niet de man van de wedstrijd is geworden.
scampis in look. best ever toch? de vijf weeghen
just posted a photo de molen van sluis
just posted a photo de molen van sluis
just posted a photo de molen van sluis
kan niet stoppen met die belachelijke reclames tijdens een serie of film. wat een stomme acties zijn dat zeg
tranen over mijn wangen
ik ben er helemaal klaar voor dit seizoen
het gezeur over slecht voor het nederlands voetbal moet maar klaar zijn. dat is al jaren zo. nu gewoon keihard lachen dus
gelukkig. gaat gewoon door zondag. erop en erover eg ik az. gefeliciteerd met de eerste 3 punten van het seizoen.