gelukkig hebben wij geen zandloper
is het handig om sakho scream te verkopen of bewaren?
ik vind een leuk weekend league kwalificatie met player of the month mané in 700k team!
ik vind een leuk never ending glory | onze eerste dure aankopen!!
ik vind een leuk 29th in the world! top 100 squad battles rewards
ik vind een leuk 111kd flawless!! cod b03
ik vind een leuk spelen met de god gun!!! cod black ops 3
i like
ik vind een leuk bo3 6man
ik vind een leuk matthy/fifalosophy disstrack
ik vind een leuk ksi tries typical dutch food gerrit
vertel dan welke weet geen andere
vind je de rode kaart terecht voor ronaldo?
moet ik meerdere teams volgen of maar q
leg me dit uit want snap er niks van
best zielig
ga nu maar genieten van je vakantie
ah leuk dat je een filmpje van jezelf hebt gemaakt
ben helemaal bang
stuur link
waar kan ik het kijken
ik kan geen tweet zien#
ik ben niet 400 volgers gezakt
whahaha van 1400 naar 1000 xd
ik vind een leuk a super funny montage
ik vind een leuk scary games montage jumpscares
doe dit
ik vind een leuk speciaal voor abdelhak nouri appie
mee eens
hyves is het beste platform
kom je daar nu pas achter
helemaal niet
ik vind een leuk world record edition | dude perfect
want takana staat er niet in
klopt niet
zo
ja
ja dat weet ik maar nu snap ik dat je het over de wedstrijd hebt
ja ik vind het wel een lekker nummertje
jij weet niet wat muziek is
ik vind een leuk k.s.i creature
me2
dit is nu jammer dat je geen mc meer hebt
lekker bezig
waarbij?
nee
jawel dat zie je toch
huilen dit
omg! ik heb maar 27k
jammer
nu pas merk ik hoe weinig coins ik heb
als je tijd hebt maak dan eens een team met son en nacho voor 50k opstelling mag je zelf kiezen
tag me ff kan het niet vinden
waarom die rus
miss denk het wel
het nieuwe uit tenue van real madrid ziet er sick uit!
ik vind een leuk team of the year messi in a pack!
alles
hou je mond en kom naar school
dat is mijn start ook
ik ben nu de video aan het editen ben er zo
ik vind een leuk miniminter hits de bruyne in the face with rabona! chrismd &amp miniminter v de
ik vind een leuk raheem sterling super season 2016/17 best bits | in focus
hoelaat?
hoeveel ga je in weekend league
zou ik ook doen
ramos komt in de buurt
hij heeft gezegd dat ie in de zomer misschien weggaat
neeeeeee ronaldo wilt weg bij real madrid !! 😭
jawel de eerste en de tweede ronde
de finale niet nee
ik heb ook gespeeld he niet alleen thijs
je had em niet moeten downloaden
nee
als je op je eigen profiel wilt kijken met je allemaal shit doen
capelle
ik vind een leuk roast me
wat vind jij nu van red bull?
heb jij al fifa 18 gekocht?
kom dan maar on
dat vind ik niet kunnen
wrm vraag je het dan
ja weet ik maar dat betekend dat er meerdere leagues komen
hunter naar real madrid? kijk tv
wie zou dat 5 stemmen hebben gegeven?
ook al ben ik geen star wars fan, de game ziet er dope uit
ok
oe gratis games spelen. klinkt leuk
ik zie het
ik vind wel dat ze ontzettend weinig info geven over fifa 18
oh
nee
a way out ziet er best dope uit
?
mooi
lekker
welke
goh
had dus gelijk
ik vind een leuk de lach van de seriemoordenaar! gta v yaratag vs. abonnees s3
weet ik
redelijk goed he
ik heb een overwinning van nederland voorspeld met ben je het met mij eens?
lm
ik denk super deluxe want het is maar €30 versxhil
welke editie ga jij kopen een van deze op de fotos of de standaard?
nee
lekker
en wat doe jij?
we zijn net naar het concentratiekamp geweest
ik had het gezien
bruh niet zo , watermeloen ernaast dus dat kon je gewoon pakken als je wilt
wat ?
met watermeloen
spaghetti
ik zit net op mijn kamer, maar ze had super lekker eten gemaakt super nice 👌🏼
en?
niks
ja he
o
kan je opblijven totdat nachtlounge op is
ben ik met je eens
totdat die rellen stoppen
er zijn rellen wedstrijd wordt niet verder gespeeld
kijk snap
ik vind een leuk armoowasright zwart haar prod. fraasie
stuur snap anders is onze snapstreak weg
ik ben al uit
kampioen !!!!!!!! real madrid lekker gespeeld dit seizoen👍🏼
niks
door hem te kakken
je pf
meen je die
winnen is toch leuker
als real madrid vandaag wint zijn ze kampioen !!
ja deze gaan we halen past perfect in ons team
en de bal aan de tegenstander geven en dan scoren ze
en cavani natuurlijj
ik vind een leuk fifa 17 totw 35 predictions | team of the week | pack opening tips | w/
die wordt zo te zien duur
nee
13de
wrm
ik heb ook mijn eerste gepackt
welke sbc had je gedaan voor 4k?
ik open net 5 van die en geen een
gun mij 10k of meer pls
chil
gun mij 10k
gast stop
lekker bezig
idk ik vind van niet want dan moet ik mijn hele team veranderen
je mag maar 8 gouden speler in de basis en de wissels
ja
redelijk ha
dan gaan we ons kwalificeren
nee
ze hadden 1 minuut blessuretijd en dan staat het 21
ik zie het
ajax wat is dit nu?!??!?!!!
jullie voorspelling klopt al niet meer
ik zag jou er meer in
dit moest een gif gesprek worden
😘
12
zou best kunnen bij jenthe
wat lach je nu
dan voor real madrid he
ow wacht ik dacht dat je het had over de wedstrijd lyonajax
natuurlijk ajax
kom on
?
ik was de wedstrijd nog aan het kijken
wat een prachtige actie van benzema dat is wel een 👍🏼 waard
geen antwoord op
lekkere voeten
wij moeten hieraan meedoen
ik ben je fanboy😭
grapjas
ik vind een leuk kylian mbappe 2017 ● skills/goals &amp assists || hd
ik heb een overwinning van juventus voorspeld met ben je het met mij eens?
maar mooie clip
kan jij online zijn vandaag?
jaaaaa net als met fut birthday
zekers
en dat is
hoelaat?
kom je vandaag on?
??
kom je on vandaag?
ik ben weer in nederland😄
ik wel
rt
heb jij dat ook soms?
het is zo vervelend als je probeert te slapen en er vliegt de hele tijd een mug bij je oor
dat is ie wel
neeeeee een uur geleden koste die nog maar 28k nu 50k shiiittt
ga je die sbc doen? ik wel denk ik
🐓
gm
ben ik helemaal mee eens. we moeten bij die wedstrijd zijn xd
maarja hoe komen we daar?
ook nog pure dominantie
ik wil wel een follow van jou
maak kans op een blackwidow ultimate of andere leuke prijzen met de giveaway van via 👈
wat heb je gehaald met wl?
jawel
ik heb een overwinning van juventus voorspeld met ben je het met mij eens?
ik ben voor real madrid tegen atlético madrid. zin in!!!
heb ik een mooie banner? ik heb hem gekozen omdat marcelo het winnende doelpunt scoorde
succee
dat zou mij nou overkomen
duurt het nog lanf?
st martial
.@freshthijs
mijn nieuwe legend op fifa. aboubakar
yoww
leuk gesprek
doei
oke
ik hoop dat je dat tegen ramos zegt
hij dacht dat het nodig was
wil je stil zijn. ik moet dit even verwerken
deze cod lijkt mij best wel leuk
hoe dat?
nice
nee en interesseert me ook niet
?? wat zitten jullie nu weer te bazelen?
helemaal mee eens
ik vind een leuk turks super trio!
alleen als je on komr
nog 2 tot 200 volgers. help deze man even. bedankt
jah gelijk na de wedstrijd
zo!!!!??!
.@freshthijs
nee
uhh ja
fijn!
deze is pas sick
ik vind een leuk 3 facecams, 3 troll races, 1 video, deel 2 gta v online funny races
hoi
ja
ik vind een leuk goedkoop de europese tour sbc halen 50k pack + meer
maar ik laat het zo
ok
26k
verkocht
wanneer hij daalt verkoop ik hem
ga ik ook doen
hij stijgt
wrm?
de kaart van morata is beast
nu 128k
lekker
tot mei kunnen we het spelen
niks
is niet leuk
stop
ik vind een leuk top 20 unexpected goals in football
ik ook niet echt daarom moeten we het gaan spelen vandaag komt de update
.@youtube deze video moet je kijken
kijk maar eens op yt naar de trailer
nieuwe gamemode van overwatch
ja
mee eens
gemaakt
oké ik heb al een afspraak genaakt
wat heeft dit er nou weer mee te maken
stoer
hoi blokkeerder
leuk
nu gaat niet ik moet voetballen
jawel
altijd leuk
lekker
stoer
leuk
ow
wordt mijn fitness team
??
?
gm
vooral dat 2de duur
maar weer je welke sport mij best leuk lijkt om te doen
zoveel geld heb ik niet
moet ik otw morata nu verkopen voor 95k of wachten tot de totw
zwart/groen/bruin/goud
ik weet het 💔
was het lekker?9