las dat sölden dit weekend al open gaat... wintergebied
goed boek man! met veel plezier gelezen. succes in bergen💪🏻
ritje naar col de izoard, samen met papa!
colbrelli
ja waar anders?
sportploeg van jaar!
prachtige etappe vandaag.... over 1,5 week zelf ff de izoard op.... ook met fiets
tuterend door de straten vanavond!!!!
buchman
wat een ezel die aru!!! zat gewoon te pitten!
froome straks 2 springplanken?
buchman
cummings
koffertje cash?
waarom steekt bmc niet een mannetje toe? om de kopkroep bij te halen?
dat was niet op de gletscher maar op de gaislachkogel wel in sölden maar ander deel van het gebied.
wat voor een verzet rijden ze?
prachtige omgeving daar op de tiefenbach
tussen de reclames door neem ik aan.......
mooiste dag van mijn leven!
ik aan argentina ......
jaaa idd....elke reclame blok komen ook steeds weer andere leuke reclames........
bij eurosport? ik zie daar alleen maar reclame man man man
eurosport....... meer reclame dan sport!
lekker maaaat!
mooi weekend gehad in de ardennen!
mooie eerste dag gehad
nu al zin in de tour de france 2018!!!
blind is te ligt voor deze functie😂
taaienberg!
daarom staat de zo laag...... havana aan de waal!
+1 uiteraard......... eindhoven
ik weet nu hoe de feyenoord supporters zich de laatste 17 jaar voelde
prima eerste ski dag....
klopt!!! en verse sneeuw
jesse wie??? nooit van gehoord!
waarom hebben die nieuwe liften geen bubbel over de zitting heen?
genoeg.....
ik geef wel ekkes een like.... gun mij dan een deel van de winst💸💸💸
toch niet gestikt?
morgen vroeg de muts maar op.....#koud
is dit een grap?? eredivisie kaartjes ajax groningen op vakantie veiling.nl
de keeper heeft de uitstraling van een skoda automonteur
weekend!
kerst wordt nooit meer het zelfde....
mooi afsluitdag van het wielerseizoen!
valt er tenminste nog iets te juichen😂
een speler als robin van persie zou in zijn huidige vorm prima passen bij oranje.
reed erg sterk en gretig!
robert gesink
waar speelt jong psv vanavond?? herdgang? of jan louwers stadion?
redelijk kinderachtig ook!
wij vonden avignon erg leuk, en rond rijden / wandelen bij de dentelles de montmirail
daar zat wij vorige week ook hahah, mont ventoux beklommen met fiets!
regio frejus heerlijk hier
laatste dag alweer van de vakantie... jammer maar helaas! op naar de wintersport!
waarvan de helft is weggeven....
naar de top van de mont ventoux geklommen
klasbak
de condor van varsseveld
hij wilde toentertijd niet weer het philips stadion verlaten met 100
lijkt me oprecht een goede optie voor beide partijen
die david van is volgens mij het broertje van buzz home alone
geen centje pijn.... we zijn geen ajax....
wat een klim ook.... zoiets zie je helaas zelden in de tour!
na de &amp dan nu tijd voor
man van de wedstrijd!
bedankt he!!! groetjes uit eindhoven!
.@rikelfrink hoezo mag hidde jurjes op de bank zitten bij psv1 hij heeft gister toch gespeeld met jong psv?
fatima stel je niet aan, tis geen voetbal!!!
toch niet met jasje gegooid?
aaanfluiting! 2 avonden oprij worden er fouten gemaakt! en in een finale zijn dat dure foute....
hier een foto van m bij aankomst in het dorp......
stel dat hij drugs gebruikt heeftstel he!! dan laten ze hem misschien eerst het land uitgaan......
de witte chinees is weer commentator bij het ping pong!johan derksen en maken er hopelijk weer grapjes over
vraagje, wanneer komt seizoen 12 van op de nederlandse tv?
ik moest lachen!
sylvain chavanel , koen de kort o.a.
gewoon koers!
zag ze gister bij de wegwedstrijd ook.....
een spreekwoordelijk konijn uit de hoge hoed zou leuk zijn🙈
en zonder oortjes!
kijk links op de foto.... mooi parcours voor een wk#sporza
ze moeten vaker koersen in rio links
jeetje zeg wat een domme sport dat handbal....
wordt een heerlijke vuelta!
genieten man!
inhaken is meemaken
laatste 2 aflevering kijken van deze super serie!
jij mag vriend zeggen!
dat moet een geintje zijn.... 35mlj....
hier ook
tour boek kan weer dicht...... alle uitslagen weer ingevuld.
lekker brilletje ook
ken je deze daler nog david etxebarria
je blijft een topper!!! hopelijk snel weer oke! succes met herstellen!
maar wel juiste pedalen 🙈
rustig rustig, wat rustig rustig? heb jij die brief van vino niet gehad??
jij of je vrienden iets kwijt?
waarom krijgen ze geen punten voor deze toch wel mooie klim?
ja wat dan? die vent voor de rest van zijn leven schorsen??
zijn de jong psv seizoenskaarten al weer te koop?
is ie gek he!! heerlijk
wat een debiel die titi
john degenkolb
maher had bij 2de paal moeten blijven staan.....
mooi mens die oleg!
ik gooi m er nog een keer in
viel mij ook al op!
vertelde gister in de avondetappe iets over bioracer ...
.@tomdumoulin is net een 🚀 wat een held!!!
lijkt me een blikje cola...
de bier prijs gaat omlaag ipv omhoog? dat zou eens een verassing zijn.....
slechte zaak! dit soort dingen hoort niet in de koers! maar gebeurd wel. zonder publiek geen koers he!!
scherp!!
dit is een logisch gevolg van de klim inkorten.... 6km minder klimmen wel zelfde aantal mensen als publiek
dit is een logisch gevolg van de klim inkorten.... 6km minder klimmen wel zelfde aantal mensen....
adelaartje!
held!! genoten
perfecte goed je terug te zien,toevoeging voor het programma. on the side altijd prima!
een bidon collant is welkom!
we zijn er! 3dagen afzien, stoempen, koersen en vooral genieten! 575km in 3 dagen! eindhoven parijs!@tomvantuijn
mooie eerste fietsdag gehad eindhoven parijs . eerste stop dinant 190km. foto citadel van namur
het was weer heerlijke tv!! genoten!
goed voor twente slecht voor jullie reputatie wat een amateur beleid voeren jullie
heerlijk weekje vakantie op mallorca ek kijken op locatie.
hij is een sieraad voor de sport!!! en de kijker!
meteen uit de koers gooien!
mooi vriendenweekend 2016
wel de sterkste ploeg.....
als je wint heb je vrienden.....
lijkt me een goed plan voor het eerste uur.... daarna over op sterk!
tranen in de ogen..... zoo zuur
gaat niet goed
er zijn toch ook nog boni secondes? op de streep
fietst door, heb er vertrouwen in!
een bidon collant is nu wel welkom bij steven kruijswijk!!
gas er op met volg auto!!!een bidon collant kan ie wel gebruiken!
moe maar voldaan terug in de trein! ruim 90km gezeild hindeloopen amsterdam
de tijger des huizes is jarig!!!
beste vraagje enig idee wat voor een verzet er gestoken is vandaag?
heerlijk commentaar tussen &amp
rijd sterk hoor!!!
trots op maatje klasse gedaan amigo! en..... helemaal niets in amsterdam
forza kampong!
zijn zondag al vermaakt in zwolle!
geen darts vanavond??
heerlijk commentaar
amen🙏
hhahahaha goede vraag....
mooi feestje gehad afgelopen dag!!
gekent da wel die gezelligheid in eindhoven!!!
volle bak ambiance
spannend!! psv! alles komt goed!
mollema woont in monaco!
frankrijk erg mooi land, jammer van de inwoners
sterk hoor
daniel mc lay kan ook nog.....
winnaar parijs nice?
we hebben de p, we hebben de o, we hebben de e, we hebben de l, we hebben de s.
heroïsch
vanavond 🍾 douche?
niet om aan te gluren, te veel tekst!
koersweekend ardennen is aan!
vraagje hoeveel mm banden rijden ze?
zonneveld slaap je nog??
het leek wel de spaanse keutenberg
erg makkelijk gegeven
likkebaarden, genieten vandaag!!
lars boom
de euros zijn weer binnen
succes vriend!!!
haha ja, was ff hardop aan het denken wie een uitnodiging te sturen....
hoe zou het toch zijn met harrie &amp marv??
wijn chateau beginnen in frankrijk?? lijkt me de idealen baan voor je✌🏻️
eendracht maakt macht💪🏼
toetje valt toch wat tegen.....
en dan nu het bbq weer voor morgen.....
ik wacht op het bbq weer voor morgen....
nee die komen zo met het bbq weer voor morgen......
krijgen we ook nog het bbq weer voor morgen?
ik niet ik wacht op het bbq weer voor morgen .....
of ze gaan weer vieze keukens uitzenden of funny videos
ga maar weer home videos, vieze keukens of politie achtervolging uitzenden want van sport snappen jullie niet veel!
boys gewoon op de zdf kijken...kut sbs
weinig verstand van voetbal!!!
. slaat de plank weer eens mis door barca arsenaal uit te zenden,wedstrijd zonder spanning terwijl bayern juve wel vol spanning zit.
nou nou wat een ophef, dames in het filmpje lijken er niet zo mee te zitten.....
genoten van ons psv!! maar wat een kut commentaar van sbs6
ohja en nog 1 support at zonder mes en vork......
las net ook dat een supporter het toilet niet had doorgetrokken
wat een onzin dit.... totaal niks aan de hand....
jij hebt je hart wel op de goede plaats he.....#vrijwilliger
koers dagje limburg goed beginnen.... oefen voor de ardennen!@dbsjerp &amp job
eendracht maakt macht!
inderdaad erg zonde.
was niet om aan te gluren. troosteloze ambiance en slecht spel.
met sagan in de koers is het altijd smullen!
den greg van avermaet
poeder tot aan de heup
mooie ski dag achter de rug met veel poeder sneeuw.
laat m daar dan in rijden.......
wat een dom filmpje... mercedes is toch sponsor van psv?
goede morgen oostenrijk
begrijp ik, echt top condities en ruim genoeg sneeuw!
prachtig!!
klaar voor een mooie week poeder sneeuw!! morgen vroeg eerste lift!
zonde van je tijd, barcelona valencia was wel genieten.....
sterk hoor!
hiddink nog rol gespeeld? en is hij al speel gerechtigd donderdag?
erg snel wisselen die man!!
arena zit weer lekker vol.........
rondje koers door het brabantse land
vraagje draait de film legend binnenkort ook in eindhoven?
nee idd. viel mee ook al op. was 100% penalty.
ze kunnen het vragen zit toch wel vol.... ik ben er bij
klasse!! genoten van je reis verslagen!
mooi maat!
rapha
mooi boek mannen, goed verhaal en leuke inkijk in de wereld van de ploegleider
klaar voor een gezellig avondje met de mannen
henk held!!!!!!!
kop op!! klote beslissing van uci, wens je het aller beste!
wat een gelul zeg.... zo gaat dus niemand meer praten of bekennen.....
genieten hoor valencia real madrid
vakman!!!
heerlijke pot!!!
ischgl nog goed te doen.....
een vos verliest wel zijn haren, maar niet zijn streken........
dankje sierd voor de wijn tip!
tja.... molde is natuurlijk maatje groter dan manchester, wolfsburg en cska....
super show gehad bij jeugd held harrie jekkers! samen met jeroen van merwijk.
mmm net nog even die link gecheckt maar die werkt niet meer😔 maar des al niet te min, have fun!!
gigijoch morgen ook open als het goed is!
sneeuw is onderweg
seizoen al klaar dan?
mooie avond
wat een klote kut krant
hoi bart ik heb denk ik het rijbewijs van je vaderjoost gevonden tijdens de marathon eindhoven. klopt dit?
dank voor snelle reactie.
vraagje, waar en hoelaat is de prijsuitreiking? halve marathon categorie winnaars.
prachtige rit vandaag gemaakt in de ardennen!
ik mag peter zeggen....
martens rijd voor en mollema voor
genieten hoor dit wk!
speelde echt heel slecht, slordig en niet gretig. middenveld ondermaats zonder guardado....
tom is en blijft de bom!
jammer!!! maar genoten! topper!
nou laat ff mannen afzakken naar tom!!
lekker kijken vanmiddag!
finish tune zou leuk geweest zijn......
mooi koers ritje gemaakt vandaag, 13km klimmen, maar daarna lekker afdalen.
kwam niet meer bij😂 geniaal!!!
de vlinder van maastricht💪
ophoesten!!!! ik ben er nu wel klaar mee......
de vuelta wordt echt smullen dit jaar!
woensel &amp vaartbroek
froome al bekend? zou toch mooi zijn....
hendrix en locadia vallen positief op! spelen goed.
naja in kazachstan ben je ook niet echt welkom
scheids dat was toch geen rood??
beste waarom zijn jullie niet gewoon tot 2000uur open in eindhoven??
koning!!!
merci!!!! genoten! mooie tour weer.
de haai van messina💪👊
weinig vuurwerk😔
gesink
zal je niet ff iemand mee sturen?
vive le velo!!!
hahahahahahahhaha koning
staat er goed op mannen!!!
hoe blij is eddy?
kan je gesink niet ff een drinkbus geven uit de auto?
quintana gaat winnen
wind en doping mee....
over 5 jaar wordt robert gesink uitgeroepen tot tour winnaar van 2015
dit doet me denken aan tijden van armstrong........#tdf2015
bmc,
verhaal over de ademtechniek van froome/sky klopt. kan het zo 1.2.3. niet vinden maar had het laatst ook gehoord.
bedankt daniel teklehaimanot, makkelijke naam voor mijn invulblad. ⚪️🔴⚪️🔴
is er al wat bekend of er ook dit jaar weer seizoenskaarten komen bij jong psv?
veel beterschap tom!!! 👊💪
gekkenwerk!!
optie 2, gelijk een her test doen. bij positieve test astana uit de tour halen.
succes lieuwe
thanks voor de foto succes!!
dank komt goed. frankrijk ook geen straf! geniet er van.
ok dank
hoelaat start de ploegen presentatie? ene site vermeld 1900 uur en de andere 1800. alvast bedankt voor het antwoord
vrienden van vraagje hoelaat is morgen de ploegen presentatie? ene site zegt 1800 en andere 1900.
vriendenweekend 2015 is aan! en pim en tommy