aparte tekst 🤔
christianne mijn stem heb je!
positieve reacties op ontwerp rotonde molenstraat! oss wordt steeds mooier!
ziet er toch anders uit, maar wel rond hoor!
emotionele opening hospice dankzij
unaniem raadsbesluit voor start met dagtarief parkeren van €2,50 per dag op terreinen in binnenstad
kijk daar kunnen we wat mee! succes !
hoofdsponsor deelt top ossshirts uit aan fans om naamswijziging te vieren top!
daar is ook alle reden voor! vrijdag open ik samen met deze waardevolle plek in
oeps
triest, maar we bouwen op zijn fundament verder aan onze fijne binnenstad! dank voor alles rien!
en bas lodewijkx uit legt dit soort velden aan in
en de nr. 2 uit de test wordt in bij geproduceerd !
en ja het is spatial planning 😬
we bouwen verder aan onze relaties met vietnam.
en nou aan het werk! succes!
en je deed het prima!
hoe griezelige leegstand mooi kan zijn
sneakergate is er niks bij 😉
voorbereidingen voor heksensoep in binnenstad
aftrap van collega voor volgende stap naar duurzaam wonen, sporten ontmoeten en cultuur in
nee begeef me onder de gewone ravensteiners
heel gewoon
actievoeren of samenwerken ?#thatsthequestionontheleftside
maar ik ben blij met rutte iii, nog blijer dan met rutte i en ii.
helaas verhinderd. ga vanavond met inwoners van in gesprek over hun kansen
veel succes van !
de brabantse banenmotor draait op volle toeren! nu bij ook in
zo zout heb ik nog nooit gegeten
‘veel mensen zijn nog onwetend over de ziekte van alzheimer’ succes vasco!
nog steeds in het nieuws
ah kom m zo kopen, als ik niet teveel btw hoef te betalen
mooi kees, geniet ervan!
groenlinks in actie tegen btwverhoging in centrum waar de prijs door vraag en aanbod wordt bepaald.
binnenlands bestuur en welke accountant gaat dat controleren?
ben erbij! top!
cocreatie zoals het bedoeld is 😇
op werkvakantie bij over het wonen in de toekomst
touché
fijn bas! veel plezier!
toe maar woorden van een gekozen raadslid
maar de coach bepaalt of je in het veld komt 😬
zijlijn terwijl je kon invallen
jammer, maar respect voor je besluit en succes in de tk!!
dat doen we in gelukkig heel anders. een makelaar met alleen korte termijn persp…
jos, altijd welkom om inspiratie op te doen in
en alweer! een winkel geopend. bierhoeder in schakel in
van de donk zegt wél sorry voor kritiek op brabantse gemeenten | bernheze | bd.nl fijn wim dat je in brabant blijft!
alweer! een nieuwe winkel in r44 onderdeel van de osse vintageroute
kom graag helpen!
als je de prijzen van boodschappen in weuropa vergelijkt met die van nl is de btw verhoging een schijntje.
ik ook
proficiat ! talent wordt beloond!
wat maakt het uit?
alleen slecht nieuws is nieuws bij jou?
en al die mensen die bij multinationals werken doen gewoon hun boodschappen bij andere multinational…
heb je de liefdeshouding binnen het links blok gezien? 😘
trots op inzet collega goed voor de doorontwikkeling van de innovatie bij vele osse…
vandaag het zoveelste incident op a50/a59 bankhoefpaalgraven, wanneer komt dat nou eens aan de beurt?
bij genoeg tijd om te zappen naar tijdens…
je had beter kunnen kijken. gelukkig hebben we de beelden nog op
nee radeloos
hoe lang accepteert dit nog?
oh, counterploegje, dacht dat een progressieve speelstijl had.
wil de echte leider op links nu opstaan?
roodzuurlinks bij
dat dus en niet meer dan dat. ik beoordeel op daden en niet op woorden 😇
zuur links
zo en nu aan het werk! succes !
goh, waar ken ik dit van?
let op uw zaak!
briljant! over alternatieve geneeswijzen! de zorgpremie kan omlaag!
mijn kinderen vonden het een uitstekende keuze
ben vanmiddag niet naar geweest. de nieuwe stijl zoals aangekondigd in was me te gladjes 😉
nou in de spits op zondagochtend schijnt ie ongrijpbaar te zijn
oranje mist vooral het doel. vreselijk al die analyses om blaadjes en tv uren te vullen.
en vervroegd met pensioen!
de stad van… mathiske roex | oss | bd.nl mooi eerlijk !
niet te snel oordelen 😬
en als het woord knetter wordt gebruikt, wees dan op je hoede 🤔
tja, verantwoordelijkheid nemen, dat is niet iedereen gegeven. roepen langs de zijlijn des te meer.
ben niet zo van de stakingen, maar begrijp het dit keer wel.
gelukkig doen we dat in oss heel anders
gezellig druk bij ontwerperscafé en jawel het gaat ook weer over de peperstraat 😬
complimenten aan de uitvoerders! 2 weken voor op planning!
proficiat en welkom terug in brabant!
van dichtbij te zien in in
plan mettegeupeloost locatie van erp onherroepelijk. veel belangstelling voor woningen!
consternatie om het cruyff court in de krinkelhoek 1.000 uitnodigingen, een handvol negatieve reacties
de marktwerking? iedereen naar dsw zou ik zeggen!
one stop shop 😎
proficiat en goede zaken in de osse haven!
de stad van… ahmetcan pisken niks aan toe te voegen! biber sokağı
schreef het toch vorige week
spijt dat je de raad bent uitgegaan ? zo lijkt het.
yess, zakenreisje! nee hoor😉
oh? ga ik spreken?
maar trots overheerst!
mogelijk 6 oktober al afronding werkzaamheden heschewegjulianasingel! dat zou mooi zijn!
waardering voor de oprechte en eerlijke verklaring voor het stoppen als ondernemer! de unieke plek blijft!
jawel, om de containerterminal te ontwikkelen. mooi voor oss en onze haven…
en wij vieren prinsjesdag met hoedjes 🤢
winkelleegstand daalt eindelijk weer, maar niet in deze brabantse plaatsen ook in dalende lijn ingezet!
mooi pak en stropdas!@renepetersoss
binnenlands bestuur prima hoor! maar kijk idd ook kritisch naar uitgaven in wmo en huishoudelijke hulp.
wat een natnek 😡
ik dacht al, hoe zit die micro nu vast? was weer goed gisteren, vooral over duitse verkiezingen!
een goede burgemeester is goud waard, ongeacht zijn/haar politieke kleur.
het verhaal van is de drive voor uithuis op
ik ook
de osse binnenstad is niet alleen om te kopen. al lang niet meer....@datisoss
zo, de eerste stap naar de rehabilitatie van nl voetbal.
vijverfeesten schadewijk. in het zonnetje!
de stad van... marian van der burg puur marian, tot morgen bij de vijverfeesten in de schadewijk in
dit moet een forumgrap zijn. maar het lachen is me al lang vergaan 🤢
niets is wat het lijkt.
goed gesprek gehad in en over wonen, voorzieningen en bereikbaarheid.
dat onderling gesteggel tussen overheden, daar hebben bezorgde burgers en boeren toch helemaal nik…
stoere leerkrachten basisonderwijs bij over onredelijke eisen aan school en kind door ouders 🤢#bah
het valt deze dagen niet mee om fan te zijn 😬
ai ! onderzoek naar feestjes en vakanties cor politie
mede dankzij de inzet van veel vrijwilligers, kan de wijkbus in oss zelfstandig vooruit!
de uithuisgroep weet hier wel raad mee.
weer supersterke aflevering! vooral over 😂
veel fietsers rijden door rood, politie belooft controles in oss | oss | bd.nl
yes! eerste punten binnen voor dames 1 42 gewonnen!
het college geeft op haar verzoek handreikingen aan de raad, zodat de zij transparant en afgewogen een…
getuigen en daders meldt u!
en op st maarten?
gisteren bij het verhaal over weigeren serveren kraanwater in horeca. wat m…
ach zij hebben roy donders nog 😬
terechte uitspraak! fitresort dan maar? komt vast goed op de prachtige talentencampus in
is het een puzzel of een bingokaart? 😉
heerlijk die dance top 1000 op 😎
zo ken ik je weer
een schandalige opmerking
dan toch maar tevreden oogjes dicht en snaveltjes toe...
niets, want het is nog vertrouwelijk 🤔
helaas kan ik niet kijken, probeer het goede te doen voor onze stad in debat met oa i…
oei! wat een uitglijder van buma grijp in met al je praktijkervaring in !
parel nr zoveel in
de hovlijn 305 🚌blijft de komend jaar 4 keer per uur rijden in de spits en nu allemaal die bus in! wijkbus is ook handig!
klopt helemaal, de winnaar staat toch van tevoren vast? 🤔bingo!
ik ben van de partij! 😘#sharongesthuizen maar heb ook al een vriendin van een andere partij, kinderen trouwens ook…
en ook de heer oomen neemt blijkbaar niet de moeite om zich in het hele openbare dossier te verdiepen…
kijkt iemand naar het debat tussen merkel en schulz op ? of blijven we ons drukmaken of op de tv komt of niet?
en geen spatjes
tja robben, de enige nog met internationaal niveau
incubatietijd mss? beterschap!
en de vdg fractie art 41 vragen laten stellen aan het college🤔kom je ook in de krant!
je zaakwaarnemer bellen
das ook een bekend geluid 😬
een bekend geluid. maar wil je aub het woord natuur vervangen door cultuur. de maashorst ingrepen he…
in ligt de wereld aan je voeten
zojuist geopend de droomwinkel van in het gengske in
ff wachten, we zijn er intern nog niet helemaal uit 😉🤔
burgercommisie? gemeenteraad hebben we al hè!
leuk! ik heb wel wat ideeën voor het verkiezingsprogramma van
dan heb je vast nog gespreksstof voor jullie fractievergadering. ben benieuwd woensdag!
je leest ook de hele column?
3182018 de dag van de ontmaskering 😬, maar wel een goede podiumbijeenkomst over binnenstad 😊
en kom allemaal lekker op de fiets!
je bedoelt de massale emigratie van portugese jongeren? ook een manier om cijfers op te leuken 🤔
hilarisch eigenlijk die flirt met spanje en portugal bijna de helft van d…
en door! de gloednieuwe brochure voor acquisitie ondernemers binnenstad
met zicht op het jan cunenpark!
en alweer een parel in
goh kamerlid kan zo bij bnn of sbs gaan werken
nog zon pareltje in onze gemeente!
zoek de 10 verschillen. succes!
en nog een...mooie zomeravond
zomeravond in de buitendijkse gebieden in
mooi overzicht van historie en plannen de wal in gemeentehuis! donderdag a.s. nog meer…
ik ken het gevoel😬
gefeliciteerd erik!
het leek een belgenmop te worden, maar het werd toch nog leuk!
dat hebben ze geleerd bij psv
😂
een vlucht over de vrijstaat ravenstein dus 😉
bnnvara zendt na kritiek documentaire over jesse klaver niet uit via pvdaachterban bij de vara zenuwachtig?
zomerinterview emile roemer nieuwe verkiezingen, waarom niet? via zonnesteek, dat zal het wel zijn.
mooie dag gp belgië, ek finale hockeyheren, nazomeren met bbq. einde schoolvakantie 😊
de beste van de hockeydames!
wie mist hier de clou?🤔
lachwekkend deze zuurpruim, en ik bedoel jou niet
daaag jumbo!
collega heeft al een idee.
wel geprobeerd maar die staat ook vast in de file 😂
ooit van groei autoverkeer gehoord ? trouwens ook groei fietsverkeer. dus v…
geen vertrouwen in de politiek en haar volksvertegenwoordigers? 🤔
vanochtend met akkoord gegeven voor verdere verfraaiing houtstraat en monsterstraat in met oa meer groen!
wat een bizar verhaal ! sterkte voor alle betrokkenen!
volgens mij prima weer voor een dolle dinsdag op kermis
tsjonge, gezellig weer dat herenvoetbal
mss kan het leiden tot een langer verblijf?
de onthulling van stadsbier en volkslied in de vrijstaat ravenstein. schijnt geen grap te zijn 🤔
is geen officieel staatsbezoek hoor 😉
laten we daar een voor gaan zitten🤔
grote woorden van maar genoeg terechte vragen om te beantwoorden! is ermee aan de slag!
gemeenten kiezen te vaak voor kortetermijnresultaten bij bouwprojecten via voel me niet aangesproken in
de kracht van herhaling?
ek hockey in amsterdam van start zonder gijs campbell ze gaan m missen, kwestie van tijd.
in een doorsnee binnenstad waar het hele jaar door niks te doen is, zou dit best een goed idee zijn. 🤔@datisoss niet.
na 9 jaar leegstand krijgt voorgebouw synagoge oss nieuwe invulling mooi!
bouw nieuw clubhuis is gestart!
opening kindervakantieweek weer meer deelnemers! klasse!
dat klopt, bij deze mijn mening op jullie enquete. reacties prima, maar wel met naam en toenaam
och toch, die ger uit heesch. maar beter dan reacties van die anoniempjes en schuilnaampjes die het…
ik zie het 😊
f16 piloten, vlieg ff door naar de noordzee voor je oefeningetjes
die stekelenburg blijft maar vragen stellen. verslagen hassan blijft zeggen ik weet het niet. mag ik gaan?
leuk! met veul
neem een voorbeeld aan hockey. daar wordt die vergelijking nooit gemaakt !
leeuwinnen werken harder dan leeuwen
straatbeeld zandbak met pallets, een vloek of een zegen? en die reacties😘
dat wordt eierenlopen🐣
niks gemist. het blokkeert al maanden een vlotte formatie🙄
is niet leeftijdsgebonden en als je een slaapstad noemt, heb je de afgelopen periode zitten slapen 😴
dan laat het links maar liggen 😉
niks mis met een powernap
in is het goed toeven
nou dit weer😳
diegene die nog steeds roept dat er in niks te doen is, wordt een roepende in de de woestijn vol met azijn!
vietnamese delegatie bezoekt talentencampus !
en dus? warrig verhaal, waar dan ook.
jongens en meisjes eh kinderen eh iedereen eh zwemmers we zijn 2 minuten geleden gaan golven!
stabiel slecht is ook stabiel 😬
kijk, zo doen we dat in
maakt niet uit, liften is ook gratis 👍
nieuwe politieke partij udenplus in gemeenteraadsverkiezingen in 2018 gratis, ook voor jongeren toch? 👍🐣🐥🦆🦉🅿️#temooi
veel zogenaamde kinderboeken zijn eerlijker over het volwassen leven.
ik zit nog bij het hoofdstuk insecten🐝🐞🐜🕷🕸
aha eens!
dit is gewoon vreselijk, de relatie met het geestelijk vermogen van wie/wat dan ook, ontgaat mij. of…
te schokkend? of te schandalig? of gewoon te?
mooi! maar soms biedt een kroon uitkomst! en ja, die zijn kostbaar
welke inwoners van nl hieronder gebukt gaan ?…
bijbeunen, geen woord grieks. overwerken is iets anders.
en dit is dus natuur🤔 volgens mij is het woord cultuur beter van toepassing. dat kan ook mooi zijn hoor!
dat vind ik ook. tegendenken stoppen de mensen dan ook met bijbeunen na gedane arbeid?
als ik slaap, zie ik alleen de binnenkant van mijn ogen maar je hebt gelijk, het mag niet!
het is dus niet harry van de sunweb, maar heinrich 🤔#daswissenwirdanauchwieder
kijk is goed op weg! maar we zijn er nog niet, nu doorpakken!
collegestandpunt, debat gemeenteraad en uitslag controlemetingen op…
zit niet vast 😉 kan gaan en staan waar ik wil. fietsen langs de maa…
nee, niet in italië en over smaak gaan we toch niet twisten?
voordeel van deze muziek, je hoeft niet eens een kaartje te hebben 😎
muziekbarbaren? dat vonden/vinden velen van elvis, rolling stones, etc ook. ja ook a…
en 2 september open ik namens de droomwinkel van
zo ziet de er nog best mooi uit
het zijn de romeinen die zijn begonnen met bestraten. rare jongens idd etc.
dan gaan we dat gepast en stil vieren 😬
ja, maar alleen vanuit een kansrijke positie 😉
een andere visie is geen aanval. kort lontje van een anti vuurwerk partij.
wat een prachtig liberale visie en lezenswaardig voor , van een parti…
goed gedaan city !
moest jij wel op de dorpenweg zijn? toch niet op weg naar a50?
proficiat van je osse collega! alhoewel ik ben alleen nog maar voorgedragen 😇
in nog ruim aanbod en redelijke prijzen doen!
u bent duidelijk niet op de hoogte. vraag uw dorpsraad en trek dan uw conclusies.
ravenstein kan wel tegen een stootje, dat bewijst ze al eeuwen. de regi…
in 1 dag 4 verkeersdoden in als regionaal ambassadeur verkeersveiligheid ben ik intens droevig en leef mee met de nabestaanden 😢
de verdeeldheid zit in ravenstein zelf. de suggestie dit bij wethouders te leggen is van…
en toch ga ik het onderzoeken 😉 en heb ook al een idee 💡na de vakantie meer ☀️
deze beter?
deel oppositie vond vorig jaar dat college teveel onderzocht, vandaag worden we overstelpt met onderzoeksmoties. 🙄
motie deel kringloopwinkel naar centrum ? de hele gemeenteraad, behalve beter oss vindt het een goed idee.
cliffhanger !
motie vorig jaar en beantwoording daarop🙄
niet omdat het moet, maar omdat het kan😉
apart om een beantwoorde/behandelde motie opnieuw in te dienen
tsjonge, alleen maar verliezers!
onderwijs in oss? goede kansen voor bouwsector dankzij 3o samenwerking donderdag is de raad aan zet!
en logistieke hotspot
tuurlijk teguh! tis wat hè, met die burgemeesters 😉
proficiat met je voordracht vanuit de buurgemeente !
andere kop raadslid martijn tonies, kampioen framing en spreekbeurt houden 😉
ja en dat iedere dag. niet alleen roepen 😉
en ook die bedrijven die indirect worden getroffen door de ondoordachte maatregelen door…
college toont betrokkenheid bij alle medewerkers van osse bedrijven
kun je je partijgenoten van ook overtuigen dat dit niet de juiste manier is? over h…
daar heb ik meer als 140 tekens voor nodig. ik constateer alleen dat wij met de gevolge…
kiepert vanmiddag de problemen in de veeteelt over de schutting naar de brabantse gemeenten?
gesteund door meerderheid osse raad doet meer recht aan het verloop van het debat
je hoort het heel goed!
openbaar dus iedereen is welkom! ook als je geen belasting betaalt😎
alweer goed nieuws voor
winkelnieuws oss krijgt eigen stripboekwinkel dat is nog doorzetten! veel succes in
vanavond motie in de raad?
t veerhuis heeft het beste terras van brabant proficiat ravenstein!
nog een goede vraag kunnen ze lezen? ze begrijpen er in ieder geval niks van.
ik vind het bijzonder knap dat diegene die sowieso voor deze lijn zijn, alle effect…
ik ben er niet uit 🤔
hoe agri én food is de regio eigenlijk? nu komt het erop aan!