spijtig dat je gaat verlaten! gun je deze promotie zeer.
gezond ontbijten is geen kunst! het motto voor 2017. vanochtend ontbeet ik op de…
vandaag trainen voor het ergste geval casus brand in verzorgingstehuis stevige dilemma’s.
wat is het toch een plaatje! het beeldmerk kasteelraadhuis èn museum.
bij het de vrijwilligers verblijdt met iets lekkers bij de ☕️. zij geven ap…
opening verricht van de tweede kringloopwinkel aan de sterrebosweg prachtig sociaal project in…
van harte kees! veel succes in
team is via twitter te volgen. leuk!!
waar dorpenkracht toe in staat is!! niet voor niets winnaar 2010
geweldig! opnieuw kippenvelmoment bij top top top!!
een prachtige eerste zondag in wintertijd! en helemaal leuk... het is koopzondag
frans de mogen uitreiken voor zijn grote staat van dienst! man v…
vandaag is dit mijn werkomgeving raadzaal waar we gesprekken voeren met kandidaten voor functie…
dag begint en eindigt in ons nu overleg en over jeugdgroepen, van…
druk bezocht congres over gesproken over wegnemen van belemmeringen en talent te laten g…
na stevig gevulde collegevergadering de middag bij fusiepartner oa de werf bezocht en uitleg gekreg…
vanmiddag het echtpaar kerstenvan maasdijk namens gemeentebestuur gefeliciteerd met hun diamanten huwelijk. bijzonder en gezellig moment.
voor baby janne megens en haar ouders en zusje een koffertje met oa romper en rookmelder om aandacht te vragen voor…
professionele reactie van briljant talent, zoveel is duidelijk!
bij het lezen van je tweet kon ik een glimlach niet onderdrukken 😀
niet alleen in de nuttig test uw vluchtroute thuis! wat doet u bij brand?
hoe veilig is je eigen huis? doe de veiligheidstest
in de bezocht cdk clemens cornielje vandaag de in en spraken we over veiligheidsissues.
omdat iedereen er mag zijn!
gefeliciteerd jan met uitverkiezing tot beste mbostudenten top ook
in het kader van ontbijt met ondernemers over cyberrisico’s, ethisch hacken en m…
vanmiddag het bruidspaar peeters gefeliciteerd met deze bijzondere mijlpaal. al 80 jaar samen, alles dele…
op tijd naar bed! morgenvroeg met 50 ondernemers over een bewuster en veiliger online nl
lees ik het goed in het “de verdeling van politiecapaciteit wordt geactualiseerd.” werd ook tijd!
mooie samenvatting van de opening van ons huis van de gemeente en de daarop volgende twee open dagen.
vanmiddag onze wereldkampioene ontvangen in het huis van de gemeente. topsportster in hart en nier…
wat een treurig en droevig bericht om deze dag mee te beginnen! sterkte voor nabestaanden en
en nu naar ons mooie voor een vergadering. stevige onderwerpen op de agenda. zie ik jou ook?
was vandaag te gast voor congres met oa en oa over evaluatie politiewet2012
koert is van het sint van van harte!!
weer of geen weer in vindt plaats op de eerste maandag na de naamdag van sint…
twee schoten waren vndg genoeg om de gehavende vogel te schieten in totaal 209 schoten michelle is…
vanochtend koning poul uithalen en bij gildemis iedereen een fijn gildefeest en kermis tot mor…
in voor afscheid van corrie janssen als vrijwilligster bij de 91 jaar jong, kwiek, s…
van harte en veel succes!
op het kantoor gesproken over de stil aan één van de grootste danceevents in…
vrijwilligers zijn goud waard, zij maken tot wat het is een warm thuis! daarom voor hen een leuke avo…
vanmiddag een bedrijfsbezoek gebracht aan familiebedrijf in sterk in hekwerken…
samen met oudmedewerkers gelunched op de gezellig treffen en weerzien va…
trotse winnaar en daarmee volgend jaar de 🇳🇱 kandidaat bij de 2018. kijk ook o…
in voor uitreiking 2017
op uitnodiging bezoek gebracht aan de een nieuwe eilandengroep in de innovat…
van harte jullie allen! bijzonder moment!!
samen met introducée vanmiddag de opening van het provinciehuis door zm willem…
en met een geweldig sluiten we de wijchense af! iedereen voor en achter de schermen bedankt voor…
van harte met je beëdiging tot wethouder heel veel succes!
vandaag te gast bij op uitnodiging van de gouverneur van de residentie. eervol om mijn oude werkplek n…
zoals we dat ook in 2014 deden. opdat we nooit vergeten wel onnoemelijk leed oorlog veroorzaakt!
en al 40 jaar op de wijchense kermis! alle reden om hen te bedanken voor zoveel trouw!…
samen met de wijchense kermis mogen openen. en wat was het direct druk en gezellig! hele fijne ker…
ons is getroffen door een enorme natuurramp orkaan heeft sint maarten hard getroffen doneer en reik hen de hand!
super olaf! blij mee!#samenwerkmakenvanveiligheid
op 209 opent zm koning willem alexander het wereldkampioene is…
vanzelfsprekend niet! parkeren in het centrum is gratis.
het volgende grote project van vordert gestaag. bovengronds èn ondergronds... de parkeergarage
open dagen doorslaand succes! vele inwoners zijn een kijkje komen nemen in ons nieuw…
wat een ontzettend mooi compliment juist van jou!! dank je wel!
wat een overweldigende belangstelling voor de opendag van het ook morgen kunt u on…
je bent van harte welkom tussen 12 en 16 uur. en ook morgen, zondag, is het open huis tussen 1216 uur. ik zie je g…
vlaggen in top morgen en zondag open huis in het nieuwe ik zie je graag!! van 121…
op uitnodiging van vanavond op werkbezoek bij leerzaam en leuk!
een volle raadzaal bij uitreiking voor gerrie mens tussen mensen!
vandaag deel van de nieuwe inwoners welkom geheten in het en vervolgens een rondje door ons pr…
en n opgewekte goedemorgen terug!!
helaas met regen het plezier is er niet minder om bezocht, wijchens vrijwilligers, spo…
tradities zijn er om in ere te houden de 46e editie is gestart vanuit ga morgen met kijkje nemen
vandaag 56 jaar geleden werd europa gedeeld door een muur, een deling die duurde tot einde 1989! opdat we nooit ver…
het virus is in weer toegeslagen..... nog 2 nachtjes slapen en dan start timmeren, zagen, theater, muziek en meer
we hebben er bijna dertig jaar op moeten wachten 🇳🇱europees kampioen! fantastisch
dat klopt! zo zijn wij voorbereid op de vraag die u ons stelt en kunnen wij u nog beter van dienst zijn.
vanochtend de eerste bezoeker van het nieuwe gertjan begroet met een bos…
het blijft een heerlijke film!
ook een feit!
wijchense chrissy steeg als opvolger van wereldberoemde verkeersregelaar op de g…
heb je helaas gemist 😞 zijn er ook zo ongelooflijk veel tegelijk van harte top!!👍🏻
en het wordt drukker en drukker op de 💐 ook de 101 kids van team is binnen 👍🏻💪🏻
bert van der lans loopt voor de 70e keer wat een geweldige prestatie!!! namens alle inwoners van…
aangekomen op de en direct één van de recordlopers mogen feliciteren zijn 40ste keer!! 💐🍀…
opbeurend bericht aantrekkende economie creëert nieuwe kansen!!
met de kwartierdienst van de onderweg naar de intocht op de verwelkomen van de ruim 600 wijchenaren! 💐🍀
heel veel succes 🍀 met de laatste loodjes! tot straks op de 💪🏻👍🏻💐
krijgt een nieuwe gemeentesecretaris/directeur remco boer, nu directeur benieuwd? klik op…
van harte bij mij viel net heel hard een kwartje..... geweldig voor je, mooiste eiland van 🇳🇱!!
bij concert op de kade in heel veel roze!!
het zit er weer op, de jaarlijkse doortocht bedankt wandelaars en bovenal de vele vrijwilligers…
zou hij kunnen, echt een bikkel!
volle en gezellige met concert aan de vooravond van de de 41244…
dat de n fitte commandant heeft gekregen bewees joost tijdens de doortocht van d…
vanaf 1930 spetterend optreden op de markt ik zie je! sponsored by
en natuurlijk ook in veel wijchense lopers gezien waaronder en zijn moeder olga 👍🏻🍀
prachtige doortocht in lopers veel succes 🍀 en tot morgen in 👍🏻💪🏻
de is begonnen!! veel succes 🍀op de tot morgen aan de kasteellaan tijdens de
tot ziens op dag 2, de ik zie er naar uit!! heel veel succes 👍🏻💪🏻
ontvangst op traditionele start vierdaagse koorts in op 1e foto jongste…
vanavond ontvangt de uit de gemeente in het met 682 deelnemers één van d…
einde raadsvergadering. de komende weken houdt de zomerreces eind augustus start tweede helft politiek jaar.
is gedaan! tot morgenavond in het kasteel.
wist u dat de grootste van nweuropa in ligt? verrassend anders
en ook onze laatste verlaat de basisschool met mooie uitvoering van musical slaat onze julia haar v…
van harte met je voordracht fantastische stad die jou meer dan verdient!
leerze en vergeet vooral niet te genieten washingtondc!
opname in mooiste villa die te bieden heeft het uitzendin…
mijn white op deze stralende zondag fijne dag vandaag volgers!! veel te doen
op 9 en 10 september houdt in het graag tot ziens!
aansluitend snijdt letterlijk alles met water en op bezocht. werken…
als bestuur van op werkbezoek bij hightech bedrijf in verspanen, draaien en freze…
vandaag in het kasteel nieuwe nederlanders mogen verwelkomen 🇳🇱
avond voor en achter de schermen
even binnengelopen in ons nieuwe kantoor, het nog exact één maand en dan verhuizen…
breng haar de hartelijke groeten over vanuit wijchen wouter!!
in de openluchtmis ter ere van ook mijn naamheilige bijgewoond. mooi thema bouwen om te verbin…
vandaag, op veteranendag, bedankt heel nederland haar meer dan 117.500 veteranen voor hun inzet, nu en in het verle…
daar mag de raad nog over besluiten paul.
vndg is het 65.6 miljoen mensen zijn op de vlucht, 84% daarvan verblijft in ontwikkelingslanden. harde realiteit...
rondje maas bij buurvrouw prachtige gemeente met uitzicht op een eveneens mooie gemeente! st. damianus…
start 1200 op de goede sfeer, zonnig weer en veel enthousiaste vikinge…
daar sluit ik mij van harte bij aan!
bij de finish op de spannende finish!
gezellige viering in kasteel met uitreiking voor de vrede aan 1…
bij de 25jarige wijkvereniging wvwn.nl vrijwilligster van het eerste uur marieke namens d…
herman fantastische redenaar! ga er maar eens voor zitten.....
vanmiddag technische trots op resultaat! inrichting volgt komende weken…
alle geslaagden van harte gefeliciteerd! en voor degene met een her zet m op!! je kunt het!! 👍🏻💪🏻
zeker erik, daarover heeft de raad al twee jaar terug het besluit genomen dat deze er nu niet komt.
in de vandaag een over het nieuwe en nwe dienstverlening. tot snel…
dat is nog eens positief in het nieuws komen! super!!
alle lopers veel succes!! geniet van ons mooie dorp. vrijwilligers, bedankt dat julli…
wat een prachtig lied if i wasnt your daughter. kippevel!
aanwezig bij een dansvoorstelling van de jarige puur! het plezier spatte er vanaf!!
wat een droevig bericht. fijne collega, warm en oprecht mens, altijd geïnteresseerd. familie veel sterkte!
prachtig weer, mooie kunst van eigen bodem!
25e is gestart. prachtig weer, geweldig initiatief, lieve mensen! te zien en horen i…
veel te doen vandaag onder andere de stratenmarkt en natuurlijk de en volop gezelligheid op terrassen!
verhuizen naar een nieuw kantoor betekent opruimen. de prachtige en sierlijke ambtsketen van gaat natu…
de is geopend! morgen en zondag kunt u bij 34 ateliers kunst beleven. van ha…
nieuw tijdschrift voor leuke eerste editie met oa artikelen over oudwijchen,
wij zijn de kleurrijke toevoeging bea!
mooi grijs is niet lelijk nieuwe huis vd gemeente is bijna klaar. eind juli is het zover en verhuizen…
fantastisch en ongelooflijk tegelijk!! bij 46 gouden, 23 zilveren en 20 bronzen plakken voor
wat een ongelooflijk groot talent van bodem jade 6 maal goud bij het nk vinzwemmen! gefeliciteer…
leg eens contact met ons van tijd tot tijd zijn ook daar stageplekken beschikbaar. goed pinksterweekend!
nee hoor, maar mooi is het nietwaar?
wervingsspot vacature gemeentesecretaris wijchen/ directeur werkorganisatie drutenwijchen.…
de prachtige, dynamische en ondernemende gemeente zoekt een gemeentesecretaris/directeur. kijk verder op…
de drutenwijchen zoekt vijf inspirerende domeinmanagers. iets voor jou? reageer!
werkorganisatie drutenwijchen zoekt bevlogen managers!
terugkomdag van 20071 dit jaar in
gaat tegen de avond online!
blij met besluit gs om ambtelijke fusie drutenwijchen met €800.000 te ondersteunen. stevige wind in de rug voor fusie! 👍🏻
voor de werving van een nieuwe gemeentesecretaris/directeur is een wervende spot gemaakt. natuurlijk me…
bij dit compliment sluit ik mij van harte aan! bedankt vrijwilligers top! op naar het 7e lustrum van di…
vorig jaar in in het roze nu op fantastische wijze winnaar van de 100ste…
t was een prachtige, zwoele en gemoedelijke editie volop feeststemming, onder andere
eerste tropische dag van het jaar 2017! volop zomerse sferen bij tot 24 uur sprookjesacht…
is geopend! wens de bezoekers een heerlijke zonnige en ontspannen dag toe! welkom welcome willkommen b…
zeker is zonovergoten editie morgen op de terrein ligt er prachtig bij. vee…
initiatief steun in de rug voor aanpak waartoe onze raad in nov. 2016 besloot 👍🏻
zo is het! samen maken we, en onze prachtige dorpen veiliger!
uit mijn hart gegrepen toon!
misdaadmeter is verschenen is 61 plaatsen gestegen.
oei, ik beweeg absoluut te weinig tijdens mijn werkdag! en jij? doe de test!!
zaterdag 20/5 open dag op dagvandebouw.nl meer info en ook…
van een crisis overigens geen sprake twee wethouders foto links verkeerden nog steeds in overwinningsr…
bedankt voor de felicitaties op social media, de mails en apps! het maakte deze zonnige dag nog feestelijker. 🎂🥂💐 hartelijke groet, hans
én een belangrijke stap in de ambtelijke en samen op weg naar een mooie toekoms…
dank je!! een niet te versmaden bijna net zo zeldzaam als de mijne 😉
van harte gefeliciteerd en bovenal inwoners proficiat met deze geweldige
het eerste barthold is geboren in de heerlijkheid genoemd naar vader baron. prachtig gezicht!…
mooi artikel over wijchens met oa en meer! info
aankomst van de nieuwe burgemeester onze agnes schaap! heel veel succes!
de wereldberoemde koninklijke viert vandaag haar 135jarige bestaan. van harte gefeliciteerd, ben trots…
vanavond bij de koninklijke uitreiking wens de 9 genomineerden oa veel succes!!
voor alle eindexamenleerlingen heel veel succes met de examens! heb vertrouwen, je kan het! 💪🏻👍🏻
vndg nam rob afscheid als directeur fantastische vent, samen veel bereikt en neergezet. suc…
tiende is geopend! initiatiefnemer theo borsten gehuldigd voor initiatief. vrijwi…
vandaag stonden we stil bij het 150 jarige waar ook ter wereld daar indien humanitaire hulp…
mooi grasgroen is niet lelijk 😉 bedankt voor de gastvrijheid!
samen met bij de tussen en in de laatste minuut wint met 3…
herdenken opdat we nooit vergeten dat een oorlog niet een drama van miljoenen is, maar miljoenen malen het drama va…
voor zijn langjarige inzet en betrokkenheid als vrijwilliger in de gemeenschappen is ton zoju…
herdenkt u vanavond met ons mee? op vier plaatsen en officiële herdenki…
middagje gewandeld op nog geen helaas, kunnen echter elk moment komen. ook dit is…
op vier plaatsen in onze gemeente staan we met elkaar op 4 mei 2000 uur stil om te herdenken. komt u ook?!? ik beg…
bijzonder moment voor een bijzondere vrouw live op radio en tv haar mogen onderscheiden.
zojuist in de studio namens de verrast deze prachtvrouw is voortaan in de…
eerlijk, warm en soms ook ontroerend interview met onze koning
link naar het persbericht voor de vier personen die vandaag een koninklijke onderscheiding ontvingen.…
vier prachtmensen, stuk voor stuk mensenbinders, ontvingen vandaag een lintje vlnr sengers, van wich…
vandaag regent het lintjes in nl. uitzonderlijke mensen worden bedankt voor hun goede daden voor de samenleving.…
het weekend bovenal schrijvend doorgebracht toespraken geschreven voor bijzondere momenten in de komen…
het is 23 april, tijd voor misschien wel de gezelligste rommelmarkt van gelderland, in ieder geval één vd eerste!
oprichters jarige op de baan tonnie hermans r en peter kersten. daarna ook…
30 jaar bestaat 2 oprichters vandaag mogen eren met een koninklijk lin…
warm en hartelijk afscheid van wethouder agnes vanaf 12 mei burgemeester moest denken aan…
theo hermens, verantwoordelijk voor heel veel wandelplezier bij wandelsportvereniging namens…
antwoord volgt zo snel mogelijk olaf. inmiddels is al contact met je gelegd. hartelijke groet!
alle leerlingen van de groepen 8 heel veel succes met de
het afscheid van wethouder agnes schaap nadert met rasse schreden. vanochtend haar laatste college toe…
een zalig pasen wens ik jou en die je lief zijn toe!
wie pakt de handschoen op?!
leuk artikel over onze strenge en ook rechtvaardige toezichthouders!
de gaan komende week on tour op onderstaande locaties kunt u nader kennis maken. va…
gelezen op basisschool de mooie spreuk! en zo waar!
altijd goed om even in te zijn bijgepraat met oa en
dorpenkracht kracht van inwoners! benieuwd wie 🇳🇱 mag vertegenwoordigen in de van…
prachtig om de verrassing in je gezicht terug te zien! tot hopelijk snel weer eens!
met belangrijke spelers gesproken over sleutel van succes ligt in het gaan doen en uitvoeren. cruciaal om vertrouwen te houden!!
in met college bezocht. gesproken over waterbeheer, zuivering en klim…
diamanten echtpaar namens gefeliciteerd. gezellig gepraat over en wonen en leven in
dat noem ik nog eens warm begroeten in het gemeentehuis drie wethouders gebroederlijk op een bankj…
dit prachtige huis kan binnenkort van jouw zijn!! is lief!!
dit prachtige huis kan binnenkort van jou zijn!! is lief!!
in bij de met 21 zien winnen van streekgenoot na saaie eerste…
de website van het is een bezoekje waard. allerlei feitjes over je familienaam.
ook wij doen mee aan de vandaag geen 1 april grap!. van 1115 uur bent u van harte welkom!…
grond op verkoopt goed nog beperkte mogelijkheden. interesse? laat het me weten!
mevrouw corrie koornneef van harte gefeliciteerd met haar 100ste verjaardag! toegezongen door het bij…
persbericht over fusie ambtelijke organisatie en historisch moment!
ook in unaniem akkoord op fusie ambtelijke organisaties! 👍🏻
raden + stemmen in met fusie. fantastisch! sterke organisatie ontstaat openverbindendoptimistischondernemend
over twee uur weten we het zeker!
prachtige lichtinval in het nieuwe begroet u na de zomer graag in ons nieuwe kantoo…
promospot opgenomen voor uitreiking op een wel heel bijzondere locatie de fabrieksha…
goedemorgen marco, idd bedroevend laag. teleurgesteld over. jammer dat je denkt dat dit niets met mij doet. kop koffie drinken?
dit bijzondere apparaat mogen onthullen vanmiddag de op volstrekt duurzame wijze verwijderen van…
de lente is nu echt begonnen! mooie lucht, volop bloeiende kers. prachtig
je volgt nieuws op de voet zeg! we kennen geen gemeentehuis in wijchen, alleen een kasteelraadhuis en gemeentekantoor.
rondgang door nieuwe eigentijds, ingetogen en tegelijkertijd prachtig! meer dan fijne…
in hun eigen zaak rolf en daniëlle schouten gefeliciteerd. fantastisch resultaat beste van kan…
op basisschool inge van sommeren verrast met een koninklijke onderscheiding. zij is n topper op gebied duur…
beste van loon na hard werken!! en team, van harte gefeliciteerd! mooi moment v…
spannende avond voor het team ze zijn al de beste van de regio, nu ook beste van nl?vanavond in finale. succes!!
column geschreven voor de nieuwe rubriek binnenkort op website…
hoogste punt gevierd, tezamen met die bezocht als meest gemiddelde gem…
de voorlopige uitslag van de klik op 1. vvd 2. pv…
mooi om te zien dat democratie leeft en het goede weer draagt natuurlijk ook bij aan hoge opkomst!…
hoge bij verkiezingen op voorhand veel dank aan stemburoleden die zorgdragen voor goed ve…
maak een rondje langs de 21 tot vanavond 21 uur kunt u gebruik maken van uw democratisch…
breng vandaag uw stem uit alleen dan telt uw mening ook echt mee!! vanaf 730 tot 21 uur kunt u stemmen, altijd bi…
en de winnaar 2017 is.... kunst voor ieder! kunst maken, verkopen en een goed doel…
in wordt druk gelobbyed voor t beste idee! antipest plek kunst voor ieder vuurwerkles…
morgen dus!! van harte welkom! welke school heeft het beste idee van voor 2017?!?
werkbezoek gebracht aan bekend van vele tvproducties, ook gevestigd in verbo…
prachtig gebaar zo nabij is onze politie!! van harte giovanny 🎂🎊
het gouden toetsenbord van gekregen uitgedaagd om iets te schrijven op de site en het toet…
ik schrik hier enorm van! familie sengers en personeel heel veel sterkte!! hoop met jullie op door…
en hoe toepasselijk.... de afgeketste in de optocht geweldig gedaan!! en erge…
en nog een paar fotos van de optocht met dank aan die de thuisblijvers de opt…
optocht in volle gang!
en de bracht de prachtig in beeld. heel veel dank daarvoor! vanaf 1433 start…
de sleutels zijn in handen van prins dn urste. carnaval kan nu echt losbarsten, al waren we gist…
rondje langs de residenties van de dorstlustige hoogheden fantastisch feest overal!! dans, leef, drink…
de traditioneel eerste sleuteloverdracht is een feit de stadssleutels overhandigd aan prins michel dn…
een hele fijne vakantie! en of u nu carnavallist, thuisblijver of vakantieganger bent
passend weer bij de herdenking vndg van een zeer droevig stemmend moment het op 2221944 op…
van harte aanbevolen! is meer dan leuk, voor jong èn oud!!
tussen de bedrijven door vndg even de in om onze traditionele op te nemen. zondag te horen…
vanavond vergadert de in ons prachtige theater. onderwerpen +
en met stadhouder pieter van de en zn vrienden bleef het nog langer gezellig!…
ben benieuwd wie volger nummer wordt!
vanavond de traditionele ontvangst van alle carnavaleske hoogheden overladen met eremetaal als…
vanochtend onder begeleiding samen met medewerkers en schrijven in duidelijke taal verbeteren
ben zojuist geïnformeerd over incident op het spoor in met dodelijke afloop. wens nabestaanden heel veel sterkte toe!
morgen, tussen 1113, in mss wel het mooiste huis kom kijken, je bent van harte welkom!…
wie is er niet mee opgegroeid?
zaterdag 18 februari tussen 1113 uur in misschien wel het mooiste huis
komende zaterdag in één van de mooiste huizen meer info…
treurig stemmend bericht is een echte bruggenbouwer die het beste voor had met onze stadsregio!
doet u voorzichtig onderweg? het is verraderlijk glad!
defensie beschermt wat ons dierbaar is vrijheid, veiligheid en welvaart.
collegelid blijkt goede leerschool wethouder schaap is zojuist voorgedragen als burgemeester van de gemeente renkum. van harte!
en met de symbolische betaling van €1 is de molen overgedragen aan en
vanmiddag de werkzaamheden bij de stuw van aanschouwd. knap staaltje pionieren!
vanochtend regionaal bedrijventerrein bezocht slechts 15 minuten van
dank voor het compliment!!
bibliotheek maakt je wereld groter en rijker! met uw stem via de beste van nl! rt
vanwege verwachtte grote opkomst bij inspraakavond zijn we uitgeweken naar ons theater. belangrijk dat iedereen er bij kan zijn.
goed om te ervaren dat bij een onderwerp dat veel discussie oproept er respectvol…
opnieuw een bouwkavel verkocht op nu voor ruimte voor groei, solide bedrijf!…
ben op zoek naar een strategisch adviseur openbare orde en veiligheid met pit, lef en bestuurlijke antenne. rt
van harte gefeliciteerd! en met recht uitverkozen, voeg ik er aan toe!!
werken aan een veilig maak het inbrekers niet gemakkelijk, kijk op wijchen.nl wat u zelf kunt doen.
wegens langjarige inzet voor en parochie 12 apostelen mevrouw van uden koninklijk onderscheiden. van…
het gemeentebestuur van onze partnerstad szczeciński pl gecondoleerd met het plotselinge overlijden van…
fantastische impuls aan de campusontwikkeling van tot logistieke hotspot in en zeer…
na overleg bij onze huisbankier ontvangen door op de over autonomie van de lok…
gaat fors uitbreiden op verdere versterking &amp logistieke hotspot!!
uit is genomineerd voor de deze fotos maakte hij van de
wat leuk! toespraak wordt door platformoverheid.nl aangehaald bij trends voor 201…
erg trots op dit bedrijf met recht bijna iedereen is letterlijk groot geworden op hun schoolmeubil…
dank je collega!! en gefeliciteerd met waar middelgrote kernen goed in kunnen zijn!!
de editie 2017 is gestart! 22 enthousiaste kids van 14 basisscholen hebben er zin in
in 2016 beste winkelhart, nu beste winkelstraat winkeliers reikten we een geschenkj…
met ons in aanbouw zijnde bezocht leuk om te zien hoe het meer en meer vor…
vanmiddag kennismakingsgesprek met nwe hoofdingenieurdirecteur op de agenda natuurl…