yasss 😍 ga dit echt in een paar dagen uitlezen hoop ik
ja maar moet 17 dagen intern hahahah
iemand die het plaatsje hegebeintum kent?
het is zo koud wtf
echt mijn dag niet vandaag lol lol
een en al fake dit echt stuk gaande 😂
kan hier zo kk gek en boos van worden gvd zeg. flikker op
wauw hahah lekker loen
mijn snapchat doet het niet, is dat bij meer mensen zo ??
lach zo hard om jullie lol lol
dit gaat zo’n probleem worden ik weet het nu al
zo blij dat ik zo goed met ma best friend kan praten 🤗 laat weer zien hoe erg we op 1 lijn zitten lovee
jullie zijn way too kinderachtig bah bah
maar wss komt er geen seizoen 2 of duurt nog heel lang
dit gevoel 😍
yesss wij hebben lootjes getrokken met de fam en ik ben zo blij wie ik heb 💛💛💛
i liked a video dit is het leven van een model! | like a model concentrate velvet
wat een prachtige wedstrijd was dit 🌟 proud proud proud
kom op guys, laatste paar minuutjes nog even knallen ⚽️
als dat een goal was geweest was, damn mooi
deze wedstrijd damnnn
bedoel je hebt gezien hoe het vandaag bij fey ging. altijd tot laatste minuut blijven. kan veel verschil maken 😋🤗
maakt niet uit. of ze nou winnen of verliezen blijf trots op ze 🤷🏽‍♀️ dusja
waarom kunnen mijn ouders nooit normaal luisteren naar mij. nu hebben we weer geen normaal eten 😴😴😴
i liked a video fred van leer op de vlucht jachtseizoen17
ik ging met op de foto en toen struikelde ik over een boomstronk 🤷🏽‍♀️
love lena hoor
ze fluisteren ook gwn niet maar praten gewoon hard op
lijkt wel of ik dit elke zaterdag heb man jezus. stilte coupe is stil zijn, of ga ergens anders zitten
“ze hebben oordopjes in, ze horen ons toch niet” lol sommige mensen gaan niet voor niks in de stilte coupe zitten dus wees gwn stil 😴😴
wakker geworden met zo’n erge buikpijn wtf help 😭
echt niemand duss....
komt iemand van mijn volgers hierheen morgennn?? 🎉🎉
toppertje 😋 toen ik je laatst weer eens op het station zag had je het nog wel mooi verborgen onder je muts hahah
nou jongens maan is op school hoor
lekker weer eens met loenie facetimennn
wat is bickel voor kut hond, hij sloeg nieteens aan
oke montell heeft het uitgesproken. sanne en hij zijn een stel..
dit was 5 min geleden en nu zijn ze der weer jezus doe eens normaal. achterlijke mongolen
wat een in ombeschofte kk kinderen zeg jezus. gaan ze 300x aanbellen, ik heb geen zin om open te doen. gaan ze lopen kloppen op de ramen
vallen weet je wel. maar aan de andere kant als het wel zo is, ben ik super blij voor ze. zolang hun gelukkig zijn
bedoel sanne is echt wel mooi, alleen montell is zo lief en ja idk omdat sanne soms is mijn mening dan…
nee i know, maar wou het alleen even melden hahah love u 😘
idk wat ik ervan moet denken als sanne en motell echt een relatie hebben/krijgen.. maar aan de andere kant is het hun keuze ofccc
doe het mil 💛 nee heb je, ja kun je krijgen 😽
er zit een wijf zo hard te schreeuwen in m’n trein. en dan ook nog in een of andere gekke taal, doe eens normaal je kan ook gewoon praten
gvd hij was het wel, mama heeft hem geappt 😩😩
was echt benieuwd naar sam z’n haar, alleen had hij een hoodie aan hahaha naawh
huh huh huh, op dit filmpje zie je kaj zitten, daarnaast zat monica en je hoort der. hoezo zou monica via jorik z’n…
gvd hoop echt dat hij in arnhem er ook uit gaat jxksmfm
volgensmij is m’n neef uit londen hier op het station maar ik weet het niet zeker help. wil hem zo graag spreken maar zie hen nergens meer
mam kwam zo naar me toe “ja je montell heeft gewonnen he.” no shit mam meen je dat, heb ik ook echt niet net gezien ofzo 🤷🏽‍♀️
watt?
eerste onvoldoende binnen van het jaar....
lil bij hntm damnnn
nu al zoveel zin in 25 nov, eindelijk live zien 😍🌟
oeii dat klinkt echt niet goed.. hopelijk is de ambulance der snel en komt het goed 💛😽
omg wat, is er iemand bij je moeder? je moet toch naar beneden mogen om der te helpen of kijken hoe het gaat??!
dan denk ik blauw, want wss hebben heel veel zwart. was bij mij zo tenmiste
van die mensen die je kk arrogant aan gaan kijken in de trein en toch om je heen gaan zitten en blijven kijken. ga weg ofzo 🤷🏽‍♀️🙇🏽‍♀️🤦🏽‍♀️
zijn r mensen die hierheen gaan?
girlll, deze zijn niceee 😻🎅🏼🎄
alles ligt er weer eens uit 😒😒
ik vertelde m’n ma van m’n 8.2 zegt ze zo “ja wat doe jij opeens, heb je het licht gezien ofzo dat je voldoendes h…
eerlijk, dat was een mooi goal voor vites
tot nu toe super blij met m’n cijfers een 8.2 en 8.9 voor nederlands en een 6.2 voor natuurkunde 😝
jezus wat was dat dan, hoe kan je die kansen laten gaan
van die mensen die voor jou gaan bepalen of je wel of geen fan bent van een club 😂 pls ga, wat weet jij over mij
help iemand wat moet ik doen? heb het zowel met wifi als met 4g
baal der nog altijd zo erg van dat we niet naar de wedstrijd konden vandaag 😩😩
een jongen die lieve dingen zegt is cute. maar als ze ook echt real met je zijn. don’t let them go, stay with them, you deserve that 🌟
that moment, dat ik dacht dat het 11 uur was dus dat ik eruit moest. het nu 1018 is en ik al klaar ben voor werk
m’n nichtje zegt dat ze een cadeautje heeft gekocht in londen voor me. she’s the hella best 👩‍❤️‍👩🌟💛
omg m’n neef is opgenomen in het ziekenhuis met een hersenvliesontsteking 😣
ik zei net zo “ja hoor nu te leren maar wat doe ik? slapen.” antwoord “i like you, je hebt precies dezelfde instelling als mij” ha okay
dit liedje doet me denken aan 13rw idekw maar dat deuntje in het refrein 🌟
ik haat fking niels, hij verdient het echt niet lollll
al die mensen die tot nu toe in de samensmelting zitten zijn fking kut gvd
voor je. stuur wel ff door. thanks mate you made my day, maar had wel ff wat eerder gemogen 🙄🙄🙄
that moment dat je al fking 2 uur aan een samenvatting zit en nog niet op de helft bent en er nu opeens iemand zegt ja ik heb er wel een
maar heb der zelf einde aan gemaakt hoor duss is niet erg 😊
3 maanden 🙄
thuis ga ik gelijk slapen yoee
ik vond zo’n jongen cute, toen heb ik blijkbaar gezegd “hij heeft een kont” ja topper may, wie niet??? 😂😂 lach mezelf zo hard uit hoe kon ik
omg ja dat is ook zo mooi 😍😍
ik zag vorige een audi tt in deze kleur. was spontaan verliefd 😍😍
je bent een schat! 💘
enorm blij voor hun ofc duhh, de een meer dan de ander. maar toch, voelt wel kut oeps
zoveel vriendinnen krijgen opeens boys / vriendjes, damnn
kunnen jullie alsjeblieft allemaal deze mongool of in ieder geval dit bericht rapporten ? thanks ❣️
deze film omg wtf jcksknf
ik heb aan 2 kanten verdoving in m’n bek, ziet der echt niet uit jezus hahaha
hoezo nou alleen vandaag en niet 6,5 week geleden 😂🤷🏽‍♀️
ein de lijk . heb eindelijk weer meer dan €5 op m’n rekening hahah
ik droom srsly nooit, maar de laatste 2 nachten heb ik zulke vreselijke dromen gehad 😖 ofja eig zijn het dan nachtmerries 🙃😅😩
1111 voor m’n chick omdat je dat zo geweldig vind 😍😍😍
enorm veel, anders kan ik ook nog wel wat gebruiken 😝🙋🏽‍♀️
en een egel hella cute
de douglas heeft nu een actie he, dan heb je z’n geurtje van 50 ml voor de prijs van het 30 ml geurtje
bedoel ik bel niet voor niets het nederlandse nummer en niet het amerikaanse nummer
hier wordt je toch helemaal gek van, ik probeer hollister te bellen over mijn bestelling en ze blijven me doorschakelen naar fking amerika
de vis die jeroen in z’n snapstory heeft leeft in een ronde / cilinder vormige aquarium
ben echt zo zo zo blij voor quint, echt ze verdient dit zo erg 💘
gelukkig ben ik vrij 🤗
me .
maar was wel te verwachten tochhh
bonita eindelijk eruit oeps
wtfffff ik wist nieteens dat iedereen zo jong was damn
uur eerder uit en wss een 8 voor bio damnnnn 😍😍
vind het wel grappig lalalala, want je was boos op mij toen ik het na 2 weken aanging. nu doe je het zelf ook
facebook achter moet komen bah bah.
wat de kk fack man. dacht dat ik je beste vriendin was, die hoor je dit te vertellen. kan hier echt niet tegen, leuk man dat ik er via
bah bah bah echt jezus kan gwn niet dit
wat een achterlijk gedoe dit bah bah
wtf dit kunnen ze niet maken
de binnen bochten zijn echt max zijn dingen
snel naar huis voor psv 🤗
ja both zijn super niceee, maar 2 is m’n fave denk ik
oberhausen en dan vooral centero. super grote shopping mall
mijn broertje is random vanacht op m’n kamer gekomen en heeft energie op m’n bed gezet. wss was die aan het slaapwandelen ofzo 😂😂
eindelijk mooie auto’s 😍😍
ik vind een leuk gare tv programmas
dit was ik 6 jaar geleden damn hahahah
why 😫😫😫 nikkie had veel verder moeten komen 🙁
omg nee niet 😭😭
ik vind een leuk zogenaamde naaktfoto ★
omw stagegesprek , ben zo zenuwachtig he hahahq
het os prachtig quin ❣️
m’n cutie
montell jaa zo zo zo blij omg
ik moet echt gaan leren maar heb zo geen motivatie 😂😂
saddd dan heb ik toetsweek
ik dacht dat heel nederland vakantie had huh? oeps
heb je geen vakantie dan?
wou jij niet zoiets doen?
nee nu volg je me weer 😝
echt enorm blij voor quin, want damn ze verdient dit 💘
kom op jongens, wij kunnen dit ⚽️
wat een gek die rent zo op ‘m af doe normaal
papa heeft me zojuist zo’n mooi huis laten zien 😭😍 maar mama gaat het nooit goed vinden saddd
ik vind een leuk de echte reden waarom ik single ben...
heb een te laag saldo als ik zo uitcheck en geen geld op m’n rekening. is het toevallig vandaag niet vrijdag de 13e ??
is het zo erg bij jou?
overal staat dat dit de stilte coupe is en nog laten ze ze gewoon praten. nee doe gwn niet mensen gaan hier expres…
ik irriteer me altijd de kk aan mensen die met kinderen in de stilte coupe zitten en gewoon gesprekken met ze gaan voeren
met water wassen kan ook he schatje. het hoeft niet met shampoo
wtf zutphen, je hebt 1 ding te doen. hoe dan?
maan komt op school he loen
sinds wanneer en waarom blijft de ic naar roosendaal in zutphen maar opeens 1 min staan ipv 2 min?
vrijdag is zo’n nutteloze dag 5e / 6e uur nederlands uur pauze 😴😴 7e / 8e uur engels kwartier pauze 9e uur rekenen
22 fking weken jongens, kan je toch niet handelen ?¿?¿ need het hele seizoen nu. n u
m’n beste vriend zit in zo’n kut moment nu, voel echt bad voor ‘m
toen ik hoorde dat er een persconferentie was, had ik niet anders verwacht. maar om het ze te horen zeggen blijft een schok..
kan dr. pol ontmoeten maar niemand kan mee lalala. haat m’n levennn
vorig seizoen was het elke donderdag tussen 11 en 12 uur ‘s middags
er zit een jankend kind in m’n bus, kan het z’n bek houden dankje
ik doe der altijd een zakje omheen, voor het geval dat die knapt. of zo’n gekke bananen doos kopen
nee okay dat is waar hahaha. vind haar de minst leukste, hoop zo dat montel wint 💥
ja okay, maar vind der persoonlijk niet heel mooi ofzo.. dus als je fotogeniek + “knap” zoekt vind ik ha…
waarom zit die ene meid met rood haar er nog in? is zo geen model he bah bah
ik begon te gillen hahahaha zo blij
mijn grootste nachtmerrie is zojuist gebeurd. ik ben m’n oortjes vergeten. hoe ga ik deze dag overleven gvd 4 uur reizen en 3 uur hell
eindelijk nieuw leren jasje gekocht 😍😍😍
m’n broertje heeft een feest thuis wat een drama overal ligt eten en bier
mama heeft mini tony’s gekregen zo cute
ik vind een leuk nachtbrakers loopt uit de hand bij latooys concentrate nachtbrakers
zo ziek en voel me zo kut
hij heeft het gwn hahaha, but ja omg love riverdaleeee
wattan, geef toe hij is fking mooi 😍😍
ik vind een leuk nikkietutorials in bed met fred | deel 2 | fred van leer
dat is in de nieuwe sprinter 😂 enige trein die dat heeft
precies vandaag weer 1e toets ook nederlands. wordt wss een 2.4 😂😂
voel me zo kut en ziek en ulhg, waarom heb ik een toets en verplichte praktijklessen
we vieren een verjaardag en 3x raden wie er weer eens ziek is? juist ja ik.
kipnugget daten in de trein tochhhh
rijles done, was zo niet m’n dag 😩😭
zovan heb geen zin in vertraging mensen pfff
ik irriteer me hier altijd zo erg aan he! of van die mensen die niet weten hoe ze in moeten checken 😴😴🤷🏽‍♀️
broertje is ook eindelijk 16, maar hij blijft een kleuter voor mij hahaha liefde 🎉🎉🎈🎈✨✨👩‍👦
een jongen uit m’n oude klas zit bij rtl late night voor dr. pol , hij zit zo goed in beeld hahaha
op het mbo zelfs nog meer hahaha
mag je dan niet thuis blijven? was op mijn middelbare een regel 🤔
tuurlijk 😏😋
ben echt wel blij voor der hoor tho
m’n beste vriendin heeft bijna een bf blijkbaar en ze heeft het me nieteens verteld... nu gaat het contact nog minder worden sad
4 november wordt zo leuk meyt 💘💘
zo kut dat ik de wedstrijd niet kon zien, but i’m so proud of them ❣️❣️
ik stuurde char een cute bericht, maar ze had niet door dat het voor haar bedoeld was 😂💘💘
mijn nichtje is zo mooi 😍 ze moest naar een bruiloft, zo’n cutie
shawn z’n geurtje heeft echt de test overwonnen. na werken in de dierenartsenpraktijk ruik je het nog steeds 😍😍 zo verliefd
de verkoopster was echt zo enthousiast en vond het zo leuk dat ik shawn z’n geurtje kocht. ze was helemaal blij voor me hahaha
het gaat echt heel hard ben blij dat station dat binnen ding heeft hahaha
ik was de eerste die hem gekocht had zei dat meisje en ze gaf me 2 mini’s mee en zei zo hier heb je ook voor in je tas, krijg jr van mij
wat een idioot, die persoon die dit gedaan heeft moet zelf maar met een steen in het water gegooid worden
ik ga hem maybe toch maar online bestellen 😝 maar moet hem eerst ruiken van m’n vader 🙄
€40 voor 50 nl
ik gil “beschikbaar”
ryanair die doet altijd van die aanbiedingen
snap dat dan, zo kan je niet zijn sam 😂😝
m’n nichtje is blij dat ik niet meer werk bij de dierenarts? ok hahahha
ik vind een leuk nikkietutorials in bed met fred | fred van leer | deel 1
mijn broertje heeft hem niet binnen gekregen dus is fking mad hahahah
iemand nog kasten nodig? // ikea besta kasten
ja klopt vandaag defect, gisteren 20 min vertraging en eergisteren ook een trein die niet reed en volgen…
dit is nou de 4e dag dat ik te laat zou komen door de op school. ben der nu klaar mee, weer omw huis 😂🙋🏽
zoveel witte audi’s gezien vandaag 😻😻
zoveel zeggen frappuccino, schatjes dat is met koffie hahaha
welkom in het leven van een student die 2 uur moet reizen ha ha ha
guys help, wat is lekker als je naar starbucks gaat maar je geen koffie lust?
omg ik weet nog dat ik zo zo zo blij was. en onze plekken waren zo dichtbij
ik was bij 10 al klaar met de smaak gagaha
yes, worden de afleveringen weer wekelijks of gewoon in 1x gedropt?
nee afgelopen net
papa gaat helemaal los op hartbeat tijdens dat concert hahahaha
het is echt niet mijn dag jezus
mac heeft mij ziek gemaakt
ik. ga. nooit. meer. 20. kipnuggets. in. 1. keer. eten. even. kotsen. brb.
ik haat nederland. gisteren had ik het zo koud dus dacht trek nu een trui aan. maar nu is het fking warm
hoofdpijnnnnn
ja dat klopt. maar ik reis niet met de 54 en die gaat ook de hele andere kant op dan waar ik moet zijn
wat houd dit in?
ga echt stuk want weet precies wie dit zijn 😂😂😂💅🏼💃🏼
this this this
omg ik reed weer langs die media markt waar we voor het eerst elkaar hebben ontmoet damnn. tijd gaat zo snel 😋💘✨
in december gewoon €400, , 1 fking maand jongens wtf. ns fix je shit en wees niet zo achterlijk duur. blij dat ik in januari student ov had
in 1 jaar heb ik dit allemaal uitgegeven oepsss
ik vind een leuk liefde bloeit op tijdens romantische date! | models in paris concentrate
jij bent hier de enige die altijd dronken lijkt op je snaps xxx
gossip girl opnieuw kijken 😝
dusss iemand die mij mee neemt? 😝
gelijk alweer al die misgunners guys 😴
lekker voor je
ik vind een leuk nikkietutorials op de vlucht jachtseizoen17
betekend dat je je 3g aan moet zetten voor foto’s
ik heb dit gekocht maar echt geen idee of het werkt
daar doen we het voor toch
kan eindelijk m’n gevoelens kwijt damnnn
je kan gewoon niet in 1 week met 2 a 3 meisjes een relatie nemen. nee
al die meisjes die jij gebruikt he, bah bah vieze klootzak
ik hou van mezelf damnn
brian is echt zo mongool wahahahaha
welke opleiding ga je doen dan?
moet je wel van jr school eerst ff half uur fietsen of met de bus hahaha
oehhh beter fixen we dat we dan wel ff gaan meeten he 😏😏
mijn moeder kan het maar wil het nooit doen 😂🙋🏽
deze bus kerel niet normaal vol, gisteren zaten we er maar in meg 6 en nu gwn helemala vol
de condonteur riep op “het volgende station is nijmegen. hier kunt u overstappen op de trein richting nijmegen” schat we zijn in arnhem
zoveel mensen slapen altijd in de trein, i mean hoe dan?
iemand stuurde filmpje van z’n hond en ik reageer alleen op de hond en niet op zijn vraag hahahaha waarom ben ik zo heb echt hulp nodig
dit bevestigd alles maar weer he
hoewel ik echt niks met thijs kan op@dit moment omdat die gwn fking kut is hahahah
jongens als vrienden zijn zo geweldig damnn
iemand vroeg wat ik wou weten/zien van die persoon. waarom ben ik zo
ja heel erg 😒
luna vroeg mij dit en ik weet het zelf nieteens 😂😂😂
het feit dat ik sam klein heb genoemd vorig jaar maar hij best lang is 😂😂 ik faal in alles wat ik doe
voor mij dan niemand anders merkte het gelukkig 😂
wat net gebeurde was zo akward hahahah
voor mij staat zo’n mooie jongen 🙄
nee mann , zijn zoveel mooiere mensen op deze wereld ♥️😕
m’n make up en haar zat echt goed vandaag, maar m’n hoofd verpest gwn alles lalala
ik vind een leuk sophie ousri een meeting
ik vind een leuk ik kocht een mysterybox van ebay
is echt geweldig
morgen gaan we pizza eten op school 😜😜😜
ik haat zalando nu nog meer dan ik al deed gvd kut zooi
ja een 14 jarige ik stik, lijkt zoveel op m’n ex damnn
nu snap ik waarom ik nooit mensen app, niemand reageert
damnn boy was te verwachten dit 😂😂😂😜🙋🏽🙋🏽🙋🏽
dit lijkt mij zo fking lekker wtf
ik vind een leuk temptation lisa ik laat me graag uit elkaar trekken! | love at first lie
het feit dst mijn telfoon na 2 uur muziek luisteren al 28 is is al gewoon te gek voor woorden
weer paardrijden kijken 😍😍
ik vind een leuk jonna fraser op de vlucht jachtseizoen17
over 2 maanden niet meer in de praktijk werken 😅
m’n schoenen komen binnen vandaag, maar er is niemand thuis 😭 hoop zo dat ze ze bij de buren kunnen brengen anders…
waarom kunnen wij nooit normaal doen 🤓 happy birthday to you ezziee,…
zo chil ben half uur eerder uit
gurl dit had ik elke dag zo’n 100x hahahha
natuurkunde gaat echt zo fout
nopp zal ik ook nit hebben
het feit dat er mensen op school op de grond zitten. de school heeft veelste veel mensen aangenomen
ik zo ja kan gwn 5 min uitlopen is tocg niet erg. helemaal boos nee 930 is 930 geen minuut later. hahaha love u ier komt goed
ier moest om 930 op school zijn voor gesprek. maar onze mentor is nog niet klaar met het vorige gesprek dus ze moet nog even wachten 😂
ga echt stuk maar moet slapen sad
mijn school is een dierentuin hahahaha
wat een sneu persoon is het toch damnn
heeft iemand een zalando kortings code voor mij?
ik vind een leuk dag 2/5 lyrics met ayden yellow claw concentrate on tour
zo kut kon die vans bestellen, had geen apparaatje bij me. en nu zijn die schoenen opeens weer €80, ipv €64, 😭
waar is zalando als je ze nodig hebt.
ik hou zoveel van m’n ouders ❣️
het is zo warm in de bus
toppertje ben je ook, nu verdien je weer nieuwe happy socks 😋😏
ik hou van dit
ik vind een leuk gare tv programmas
morgen weer 8 uur op 🤓
ik vind een leuk nederlandse youtubers voor sint maarten geef om jou
mijn schoolfeesten worden daar altijd gehoud mag ik huilen