vanuit rijdende trein.
binnenkort weer reflecteren tijdens beoordelingsgesprek
heb mijn twitteraccount aangepast. twitteren doe ik nu over wat mij tijdens de reis opvalt. lezend, luisterend en kijkend.
schreijerpierik ik heb alle bonnen weggegooid, zo zat was ik het
brabant is d&ampeacute nieuwe bierprovincie
tip daken gebruiken van bedrijven/school op industrieterrein
lekker wk organiseren daar? buurlanden verbreken diplomatieke banden met qatar /via
wat een clown! vleugel baudet arriveert in kamergebouw /via
heel goed eu en china! eu en china nemen voortouw in klimaatactie /via
deze sjaal is gemaakt van 10.000 festivalpeuken /via
weer een koffie van gespaard met
hij is verkocht.
morgen maar eens beginnen met bespelen van veel
mijn tweede gratis koffie bij opgehaald. gespaard met
te koop prima, goed, vakantieklaar! wie interesse?vouwwagen trigano odyssee gl via
fransen fietsen naar zundert om van goghkerk te redden /via
ja, nu is het duidelijk! is a puppet on a string
mooi voorbeeld van bedrijf.
in onze vijver
heel slecht om met zon onbetrouwbare draaideur zakkenvuller voor de zoveelste keer in zee te gaan.
stop toch eens over die per jaar om paar uurtjes per dag je te kietelen!#mattieenwietzegate
is nu een fijn land? is volgens mij nog niet echt begonnen.
is vangoghkerkje nuenen qua bouw hetzelfde als protestantskerkje boxtel?
waarom heeft een oortje in?
water maken in de woestijn van droom naar werkelijkheid /via
waterstofgas gebruiken als accu voor zon en windenergie! 👍waterstofproject › aardgasbuffer zuidwending
eist dat bijdrage voldaan worden. wij eisen dat usa naleven!
waarom wordt er wel 12 minuten gewacht op een aangemelde invalide vrouw die niet komt opdagen maar niet op 50 rende forenzen?
dankzij doorrijden machinist hebben wij aansluiting gehaald. wat een geren!!! sprinter heeft niet minuutje gewacht!
kan sprinter naar boxtel van shertogenbosch 2 minuutjes later vertrekken? dan haal ik die. nu in vertraagde intercity van utr.
2 minuten overstaptijd in shertogenbosch is echt te weinig om van ene kant naar andere kant te komen. i
utrecht naar maastricht 12 minuten wachten op vrouw die aangemeld staat maar niet kwam. mis ik nu mijn aansluiting naar boxtel?
zoiets dacht ik ook. dank voor je antwoord
dit vogeltje rust in onze taxus. welke vogeltje is dit? in boxtel.
er loopt nu een man met geelhesje en veger bij station fietsenstalling.hij veegt niet maar zoekt fietsen.
er loopt nu een man bij fietsenstalling station boxtel. hij doet alsof hij veegt maar is op zoek naar fietsen. zeer verdacht
mestvergisting is inderdaad prima! zie vandaag
deze landingsbaan is rond, bedacht door een nederlander en een wereldhit /via
heel goed beschreven ! waarom fidan ekiz zo boos is over de turkijerel.
trein rijdt nu. jammer dat we niet geïnformeerd werden.
zit nu in sprinter van 22.05 in eindhoven naar boxtel. staan nu al 20 minuten te wachten. wat is er aan de hand? volle trein
kijk eens bij deze video op 054
al die opdringerige aandachttrekkende ben er klaar mee! fatsoen, respect, visie en niveau moeten terug in politiek
verban de managementgoeroes van onze scholen
chinees bedrijf speelgoed bouwblokjes maken in nl. verdient navolging toch
moest vandaag om 8 uur in utrecht zijn.plande trein van 6.29 in boxtel. daar 30 minuten en in shertogenbosch 10 min vertraging
enorm balen. moest vandaag uur eerder naar school. er wordt nu omgeroepen dat sprinter van 6.29 niet rijdt
goedemorgen. sprinter naar shertogenbosch heeft veel vertraging in boxtel? vertrektijd 6.29 + 20 minuten
vandaag gestart met koffie bij in
ik denk dat een friemelkubus ondersteunend kan zijn bij verschillende situaties
en goed bezig!
weer een in geboren topsporter! ariëns wint alternatieve elfstedentocht /via
nederlandse circulaire economie telt 810.000 banen via
die directeur van verrijkt zich straks. claim lost niets op.
zie dit bericht ik erger me dat zulke cijfers klakkeloos in de krant komen én dat jullie niet reageren…
kleinere klassen en minder lesuren heel goed. maar 6.400 lesuren per jaar??
zojuist telefonisch gesproken. mooie ontwikkelingen voor de toekomst!
geld moet naar goed onderwijs. geen geld naar marketing. grijp aub in!
huldiging van tijdens
informatieve clip over bruikbaar voor jullie ? via
bedrijvenpark lelystad op gelijkstroom
wat een onduidelijk verhaal. ik snap wat hij zegt. maar wat veel woorden, geen antwoorden, geen daden
fikse storing met maar ik ben er. op csutrecht staat auto 😀
neem even een kijkje bij
als ik kijk naar dan is het het vaak eens met
3 punten maar ook mooi sneeuwsfeerbeeld
weet iemand of nog echt werkt? ik krijg geen antwoorden op mails.
een fijne voor
ik kan dit bijna niet geloven!
dank je wel voor dit antwoord en service.
20.40 uur shertogenbosch dinsdag 10 januari. ik had mijn eigen thermomok. ze geloofde me niet. informee…
net bij kiosk bij spoor 7b het volle bedrag moeten betalen. ze geloofde me niet! informeer aub iedereen!
zijn de geleiders of remmers te vervangen?
mooi design, functioneel, dagelijks gebruik, kan niet zonder.
kun je pas na 24 uur claim indienen? het is me gisterenavond en vanochtend niet gelukt.
intercity utrechtshertogenbosch 15 min vertraging.gerend met vouwfiets in hand sprinter naar boxtel rijdt voor mijn neus weg
en zou ik adviseren, denken jullie en dat ook?
ja. ik denk dat het zo is.
zeer duidelijk uitleg werking sluizen in de maas.
dank je wel voor deze bloemen
gevisualiseerd en geanalyseerd
wat een prachtige wedstrijd
iets voor een ? anti stress cube
in 2 dagen vuurwerk in nl meer oogtraumas dan 4 jaar militaire usa vijandelijkheden in o.a. irak!
moet er de hele dag vuurwerk afgestookt worden? doorgeschoten individualisering. vuurwerk
banen, schoon water, schonere lucht, zelfvoorzienend.
mijn laatste werkdag bij start ik bij als lerarenopleiding 2e graads
is dit nieuws
richt je op de consument. stop niet alleen geld in wo/hbo onderzoek en elitaire clusters.
ik blijf deze heel leuk vinden!
het bureau 😀 gedachte inspireert niet.
ik gebruik dit portfolio al een hele tijd. probeer de header te wijzigen. maar dat lukt me niet.
uurtje genoeg om van utrecht naar groningen te treinen.
doorgeschoten traditie in individualisering. centrale vieringen met professioneel vuurwerk aub!
een mooie toepassing voor uniek materiaal
ik denk dat wij gewone mensen niet overzien wat goed is. ik vertrouw op dat hij het beste doet voor nl.
bij of zie ik vaak dit 😀
inderdaad stop die weggooi mentaliteit, samenleving en industrie.
heel druk bij
23/12/2016 goed bericht over lekker bier en ook dubbeldoel waterzuivering!
echt een superactie!
wanneer worden er weer te koop aangeboden? en geldt deze actie ook met een eigen cup?
dank je wel voor je reactie. het is een super actie van jullie. korting voor ons en minder materiaal gebruik en afval!
slaat jullie actie aan? eigen reisthermobeker meenemen en dan € 0,25 korting?
oké. ik lees het graag !
normaal koffie €2,00 maar als je zelf reismok meeneemt betaal je €1,75. minder afval dus. slaat die actie aan?
waar ik nieuwsgierig naar ben, slaat de actie bij aankorting op drank, eigen mok, minder afval?
daarom ben ik onder andere blij met jullie mijn bank.
zou geweldig zijn korrels op voetbalvelden!
als dit waar is stop die
wegwerpborden van bladeren!
wat vind jij van het nieuwe logo van ?
shells naar is gestart?
oké. dank je wel voor antwoord.
kleding gemaakt van vergelijkbaar met leer en suède!
mensen doe nou toch iets! we moeten onze verantwoordelijkheid nemen!
kerstboom uitzoeken.
vinden jullie ook een betere benaming voor
bijzondere correlaties!
alleen 23 kan dit jaar nog 24 worden. kom op!
experiment drukverlies over pijplengtes, flenzen, tstukken
ook bekend bij gewone man op straat? is het allemaal niet te elitair en dat het daarom niet echt van de grond komt?
wat is jullie mening om onduidelijk containerbegrip te vervangen door ?
verstaan jullie onder ook ?
waarom noemt men niet ?
vinden jullie ook een betere benaming dan
fossielvrij leven en werken!
trein was al vertrokken vanaf tilburg universiteit. heb deze kunnen pakken op centraal. dus alsnog goed gekomen!
erg onduidelijk hoe het nu is geregeld. hou jullie op de hoogte!
sprinter van breda naar tilburg. nu bij reeshof. moet naar boxtel. wacht aansluitende sprinter op ons?
overwegstoring bij tilburg reeshof. mis ik nu mijn aansluitende stoptrein naar boxtel?
stromingsleer stroming van vloeistof in buizen en open kanalen drukverlies, optimalisaties, combinatie theorie/praktijk
practicum stromingsleer
goed bezig! met materialen initiatief ns nieuws nu bij de kiosk de smartcup!
wat maken of leveren de in deze publicatie?
inderdaad, lokaal energie opwekken en gebruiken is het meest duurzaam. geldt ook voor onze levensmiddelen
smakelijk eten
economie is economie gebaseerd op hernieuwbare grondstoffen en energie. geen aardolie!
heb je als consument ook iets opgestoken in de store wil je dat met ons?
interessante visie over ‘innovatieclubjes zijn vooral goed voor het imago, niet voor het bedrijf’.
inderdaad voor nog meer stimulans voor en
einde offsite dag van
welk woord wil jij nooit meer horen in 2017? nomineer t/m 30 november op
prachtige bij ben jij het? ken je iemand?
25/11 opgelet! neem hier notie van.
windmolens dobberen straks midden op de noordzee
motor zonder brandstof?
men moet consumenten helpen om ook slim te gebruiken. effect slimme meter valt tegen
interessant! vliegwielen gebruiken voor opslag van energie. aruba zet vliegwiel in werking voor groene stroom
is echt gek geworden. wat een bende!
en worden zo bij de burger en aankomende en zittende professionals gemeengoed.
pffff... beoordelingsgesprekken! hier interessante visie over het ritueel beoordelingsgesprekken.
natuurlijk is present bij eerste
gat tussen en wordt kleiner! go
aanstaande maandag hopelijk is het helder.
laten we nu eens echt hier echt iets aan gaan doen!
1/11/2016 zou dit iets voor zijn
in dit fragment wordt gezegd brug over watertje. dat watertje is de dommel
dit is toch prima! tesla toont zonnepaneeldak voor huizen.
goede film! weer perfecte rol van
net ook een gehoord en gezien
fietsen op
twee voetgangers doodgereden in tilburg, bestuurder rijdt door /via
prachtige vogel!
door nijmeegse onderzoekers gevonden microbe kan miljoenen opleveren dit is interessant. zuiverende microben!
aanklager knvb start geen onderzoek naar kramer ik denk dat kramer hulp nodig heeft.
appel mooi leeggegeten hangend aan boom
tentamenvragen openbaar dan stopt het diepere leren! studenten hbo moeten verder komen dan reproduceren van kennis.
niet echt ronde van frankrijk
ik ben overgestapt naar
indrukwekkend! video witte haai breekt door kooi met duiker erin /via
wat een kltz@k!! ik weet wel gepaste maatregelen!
duurzaam plastic in de toekomst van schimmelsmoothie tot plantenpot /via
dit ga ik in mijn oren knopen!
hoe simpel ook, mooie lucht boven onze straat
voor
is het ook van hernieuwbare biobased grondstoffen?
trump roept terminaal zieken op vol te houden om op hem te stemmen moet toch niet gekker worden!
moet er niet aan denken! we kunnen 115 jaar worden, misschien zelfs 125 /via
niet iedereen heeft hbo niveau. ook dat accepteren! steeds minder hboers halen hun diploma in vijf jaar /via
moeten we toch echt wat aan gaan doen. nog meer plastic soep in de stille oceaan
als je herkomst van granulaat niet weet kan het vanalles zijn! ziek worden van sporten op kunstgrasvelden? /via
zulke zondagen geven je dan wel het gevoel er toe doen
onze boerderij kan op onze eigen mest draaien /via
in winter 1975/1976 ben ik daar door het ijs gezakt. mijn laarzen liggen daar nog op de bodem. zou ik di…
in de vergunning staat dat we mogen lozen maar niet hoeveel?!! chemelot loost opnieuw in de maas /via
wat is hier nu ontstaan uit van
dagdeel 3 onder andere
een nieuwe investeringsbank is nu nodig om de transitie te maken naar circulaire economie en duurzame energiehuishouding!
verstappen tweede in geweldige race maleisi&ampeuml 👏@redbullracing great!!
ricciardo erkent presteer beter dankzij verstappen zie theorie achten moeten negens om zich heen hebben.
een keertje goed
high five van de koning tijdens erasmusexpositie
interessant! accus van elektrische autos gebruiken. autos worden energiecentrales
jacobse &amp van es bamzaaien. videoles uit 1983. nu zouden we dat een noemen
leeuwarden heeft eerste fietspad van gerecycled wcpapier via
van eendenkroos tot voedselbron
eigen kweek?
naaktslakken eten sterappel.
oldtimer?
trots op geslaagden
mooie lucht vanmorgen boven station
vijf waterstoftankstations vind ik via de pitpointapp.
was niet echt een topper. botteghin schiet feyenoord naar winst in topper /via
we kunnen beginnen
vandaag interessante excursie bij
inderdaad verkoeling met donder en bliksem!
dadelijk verkoeling!
ook van taxus, kruidnagel, basilicum.
begeleiding praktijk van o.a. zeesla, sintjanskruid, bamboe, zonnebloem, rozemarijn
deze ochtend op met mijn
roofvogels klaar om gevaarlijke drones te vangen /via
docent als held van veranderende onderwijsomgeving
bij mij werken ze wel. ben het eens met je over vormgeving. deze is ook beter dan die vorige plastic en karton verpakking
ik denk dat er van wil leren ter voorkoming, training en aanpassing. dus niet slager...eigen vlees..
beter ten halve gekeerd dan ten hele gedwaald blind is niet de juiste coach
verstappen krijgt het op monza aan de stok met rosberg.gevestigde orde is bang van zeuren ze
eindelijk technologische vooruitgang bij voetbal! infantino trots op videogebruik arbiter kuipers
wat staat hier nu?
tweede in kwalificatie jongste op p2, beste q3 resultaat nederlander.
misschien heb je het al eens uitgezet. ik heb het ook uitgezet en zie het ook niet meer.
op p2! dat belooft wat morgen
we gaan beginnen!
is and a trump clinton en obama medeoprichters is
vind ik erg rechter verbiedt stakingen klmpersoneel schiphol tot 4 september
stimuleert hij dit niet?hoeveel krijgt hij?mourinho over megabedrag pogba transfermarkt is gek geworden
ik vind dit een prachtige uitvinding!schommelende finse boot wekt golfstroom op
op vakantie door duitsland. gereden op met gemiddelde 22,21 km op 1 kg gas!
tijdens filerijden.... daarom poetsen ze tankwagens 😀
mooi hoor, twee ooievaars midden in de stad
ten top! pogba voor 110 miljoen naar manchester united /via
hmmm hoe nu te lopen
vlooienmarkt, kijken of hier iets te scoren valt
regenachtig vandaag
eis café in memmingen
mensen worden steeds egoïstischer, gewelddadiger en dommer 50.000 bijen vergiftigd in limburg /via
gezien vandaag. nog niet eerder gezien! 😀 foto van het boekje.
wandelen
vorige week zag ik donau in budapest. hier ontspringt die.
hier ben ik nu. vlakbij de bron van de donau.
baden, baden, baden
openlucht concert in badenbaden.
stukje verder vandaag!
ik was in wittlich. tussen en is een stedenband.
waar was ik?
parkeerplaats voor vrouwen. ook een goed idee.
dit vind ik nu goed kleine, gewone of grote portie. dat gaat verspilling ook tegen.
eerste tankstop in duitsland
strijd om p5 was echt racen!!!
wat een gevecht voor p5
parade van de rijders door mijn verrekijker!
ben bij zit achter s3, op heuvel in het gras. prachtig overzicht.
2 uur en 25 minuten voor de start. prachtige plek
in lange stoet naar
onderweg naar voor
inderdaad verstappen op vierde startplek na knotsgekke kwalificatie /via
morgen druk programma ik ben benieuwd!
p4 in q3 is best goed. wat een hectische kwalificatie op
volledig doorweekt! dat belooft een race op kwalificatie vertraagd
onderweg in stijl naar voor support
water met schijfje sinaasappel en een dubbele espresso.
net bezoek gebracht aan brouwer in hongarije. echt kleinschalig familiebedrijf.
arme ik! 2 km gelopen op mijn slippers en een blaar!
gekkenhuis! maar wat een topper is onze tom
ik ben er ook weer! verstappen kijkt uit naar hongarije lijkt op karten
en kunnen ook helpen!
wat kost het de samenleving uiteindelijk als ze open blijven? snel sluiten kolencentrales kost 7 miljard /via
toekomstige voorman! jochie dat fransman knuffelde je moet iedereen troosten /via
p3 in q3 voor
op rijdt sterke derde tijd in tweede training
zeldzaam oehoepaar landt vrijwillig in burgers zoo video
vervolg citaat innovatie gaat niet om geld verdienen maar om het behouden van de aardkloot.2
citaat creëren gaat verder dan innovatie. dat is elkaar helpen verder te komen.1
na grap nu weer die probeert grappig te zijn. sgp stoort zich aan tastiet nieuwspaal
actiegroep efteling moet racistische attracties aanpassen is het ?
vrouw maakt jurk van online verzameld schaamhaar is dit ook
nee, dank je wel. trein van 7.50 zal gewoon rijden vermoed ik. dus half uurtje vertraging
uitloop van werkzaamheden kopje koffie voor het wachten.
saai? echt niet!!! 2e wat een race!!!
studenten echte assessments!
ben er weer bij , net als vorig jaar!
hele goede studenten van
mooie jas van de toekomst. zendt een gsm die uitstaat ook?deze jas beschermt je persoonlijke data /via
weer midden in een
wat een mooi resultaat!
vandaag naar bij daarom passende kleding
zeldzame lammergier boven schiermonnikoog gespot lammergier in nederland!
onduidelijk wat het gaat kosten, maar duidelijk wat het gaat opleveren!!prototype inzamelmachi noordzee in /via
vliegen zonder een druppel brandstof. vliegtuig op zonneenergie over atlantische oceaan
hoe groot is de bij de ? wie grijpt daar in?
vandaag in mooi stuk over maar waarom niet verwerken in nl?
ik had hetzelfde! 🎼de glimlach van doet je beseffen hoe goed het doet!!
genoten van bij zijn gevecht met tijdens
mooi initiatief! boodschappen doen bij je eigen boerderij, dat kan in boxtel /via
vandaag zien vliegen over jsf vliegt over nederland
andere invulling van docentschap. online lesgeven is goudmijn voor chinese docenten
? agenten schieten bij achtervolging maastricht