yep goedemorgen! en een goede reis alvast
ingrid piet geraetsjansen heeft een online collectebus voor stichting stophersentumoren.nl. doneer jij ook?
ja, hoorde zoiets bijna geen verschil heracles of mci. misschien dadelijk een héle goeie 2e helft?
eindelijk ook aandacht voor hersentumoren klaske hofstee stop hersentumoren!!!!
van harte gefeliciteerd! ook aan opa en oma
kaartjes al in de pocket voor eindhoven
doe maar in het eerste volgend seizoen dan
dat kan er ook nog wel bij...#zucht
stemmen jullie ook allemaal op de kinderbeurs sterksel? geldt alleen voor leden van rabobank de dommelstreek
verkoop zaterdag 11 maart 10001200u dorpshuis valentijn sterksel
als het bestuur nog achter de trainer staat dan weet je het wel.....#waarhebikditeerdergehoord
ochtendschoon in wat een heerlijk weertje!
ja, gezien! en als je snel bent zijn er nog een paar...
huh?!? op mijn telefoon is het nu al 1 januari 2017..
hoe kan ik dan in godsnaam screenshots en een fatsoenlijk overzicht sturen? dat is nl het probleem overzicht
ik wil gewoon replyen op de mail die ik van jullie ontvangen heb
ik word gek van jullie administr. . net een mail ontvangen, wil reageren is het een noreply adres
den haag, wordt eens wakker!
geen hoax!!!!! vanaf 1 november 2016 zal facebook kosten in rekening gaan brengen. facebook wil dit...
geloof er eigenlijk niks van, maargoed voor de zekerheid een goed advies van een jurist alles wat je ooit...
we gaan samen weer een mooi puppiedagboek bijhouden
inderdaad!
nieuw natuurstenen terras nodig? gj tuinaanleg levert vakwerk. hier onder een impressie van zijn werk
met plezier aan gewerkt!
pascalle heeft typen en pruik van hen gekregen. en wij sparen al heel lang staartjes voor studio tonny 😊
klopt, is nog niet zo lang. de site is nog niet aangepast
wat een super actie. jammer dat stg haarwensen de 30cm hanteert. bij studio tonny in eindhoven kan al vanaf 10cm!
en wat moet ik dat nu van denken?
kinderen hard gegroeid, kleren te klein? te groot voor het speelgoed dat ze hebben? verkoop/doneer het op de...
voor de creatieve kinderen kom gezellig schilderen bij martine van noort in haar atelier. leer allerlei...
gelukkig is de coach anders zou hij ook nog zien hoe dramatisch het is
voor het geval je nog iets nodig hebt na de hagelschade
dat zou mooi zijn
tante josé, als vechter zelf meerdere keren de berg beklommen. eerst een overwinning op jezelf en daarna voor ons...
maar het had niet veel gescheeld...
kunnen die amsterdammers het dan gewoon écht niet zelf bedankt
misschien dat deze idioten ook normaal kunnen gaan werken? kunnen ze de geurtjes netjes betalen voordat ze de...
ja hoor, helemaal tevreden! bedankt voor de service
altijd een stuk beter dan het rotte dakraam
eindelijk goed geslapen. jammer dat per ongeluk verkeerd matras had geleverd en wij voor de kosten van omruilen opdraaien 😁
grappig dat je moet accepteren als je op een site naar een voor zoekt..
kom gezellig naar de kerstmarkt wij staan er ook met leuke spulletjes voor de goede doelen stop...
allemaal stemmen!
kan nog wat van leren
tja, ajax scoort altijd in de laatste minuut
trots op ons team en alle vrijwilligers! bedankt
laatste kans woensdag wordt de winnaar bekend gemaakt!
stemmen maar!
rekenwonder jaap het komt wel goed.... huhuh
iemand interesse in onze super caravan? wij gaan op zoek naar een kleinere.
zo, daar is ie dan mijn en ja, het is een os! bij deze nomineer ik marijntje duistersbressers, robin...
lieve tante josé jansen, het stuk is misschien afgelopen, maar de nabeschouwing is begonnen.....wel op een...
is ingenieur sipkema nog niet ingeschakeld....?
ik neem aan dat dit ook voor kinderen geldt....
krijg meteen zin in koffie!
vergeten jullie niet allemaal naar de garage sale in sterksel te komen? zaterdag 6 juni va 1000u in de kern van ons dorp. gezellig!
heel veel denk ik...
kom allemaal gezellig naar de eerste garage sale in sterksel! delen mag graag zelfs
het is gelukt!
en wie had er nou de hoofdprijs? gelukkig kon er geen dubbele bingo voorkomen....#kien!
laat dat molentje maar draaien
aangezien onze huidige wel aan vervanging toe is....graag!
ven2cops het verhaal van nico en klaske
early birds al vroeg bij kinderbeurs sterksel
dat wordt een bubbelbad morgen 😉😄
dat is het enige wat we nog missen in ons tuinhuis....super mooi dit!
maar dan er na! met dank aan hofdame monique en perry
gooische vrouwen invasie
gooische vrouwen naar de
het is weer bijna zover! geen zin om in de rij te staan? like &amp share!
net op tijd af!!!
verwarde man verstoort nac psv voetballers komen met schrik vrij
bedankt meneer voor het binnen 30sec om zeep helpen van
hé, je twitter doet het weer!
verstandelijk beperkte rick van de pol 21 uit veldhoven vermist ‘help ons’
en tevens feliciteer ik bianca lammers met haar acerno restyle. vanaf 15 januari geopend aan het bedrijventerrein...
vanaf nu is het dorpshuis valentijn in sterksel voorzien van een website
we zijn weer los!
en natuurlijk ook alle fb vriendjes en vriendinnetjes
groep 7/8 maakt tekeningen op kedeng kedeng via
stem op deze wens en steun de stichting stop hersentumoren
ik heb een nieuwe foto op facebook geplaatst
goed van inge! wordt de gemeente heezeleende nu ook wakker? een vergelijkbare weg ligt tussen en...
appartement te koop utrechtsestraat 33 6021 ez budel funda
toch de knoop doorgehakt en vanmorgen bij de kvk geweest. vanaf 1 december ben ik dan officieel directeur van...
wat moeten we vanavond nou kijken, nu nieuwe buren afgelopen is.... zucht
moeten die duiven in groningen niet geruimd worden? ze verstoren het beeld
jaaaaa, eindelijk gelukt! we hebben weer een gastenboek op onze site staan...
nog even en dan mag hij naar ut twidde van fc schubbekutteveen
van harte proficiat met liese!
klinkt als een winwin situatie gordon met rust en wij ook..... alleen komt ie volgend jaar weer terug op tv......
en terecht trots! knap staaltje
nieuw lid van de fanfare?
bahbah, wat lelijk. gaat hij bij de dansmariekes?
tis dus gelukt proficiat!
zo, volgens mij doet mijn account het weer
super gedaan, knappe prestatie! gefeliciteerd!
negeer mijn laatste tweets met vage link niet van mij hopelijk nu opgelost
actie tientje voor een vriendje van hslnet, steun onze stg kinderbeurs sterksel
handig in de vakantie als je iets vergeten bent....
we gaan regelen dat deze mooie knuffels op zaterdag 11 oktober op de kinderbeurs sterksel te koop zijn!
einde aan een slopende onzekerheid en het begin van rouw. heel veel sterkte aan de familie, vrienden en bekenden
wow wat een goal!!!
nee joh, zit 7 jaar garantie op. kunnen ze de volgende 2 eks en wk ook nog mee vooruit.
als dit het niveau van het oranje voetbal op het wk gaat worden, dan laat ik mijn vlaggetjes mooi in de kelder liggen...
liep een beetje achter, maar de site is weer uptodate
o was die vandaag? jammer, geen uitnodiging gekregen deze keer. veel plezier!
juist gewoon in nederland, in slagharen. top vakantie gehad! echt een aanrader. mooie camping.
ik heb een nieuwe foto op facebook geplaatst
ik heb een nieuwe foto op facebook geplaatst
ik heb een nieuwe foto op facebook geplaatst
ik heb een nieuwe foto op facebook geplaatst
en waar zijn wij de afgelopen week op vakantie geweest?
ik heb een nieuwe foto op facebook geplaatst
ik heb een nieuwe foto op facebook geplaatst
ik heb een nieuwe foto op facebook geplaatst
overleg over nieuwe classificatie hersentumoren
overleg over nieuwe classificatie hersentumoren
nu zijn linkerhand nog!
vanavond 20.30 uur nostalgienet paaskuikentjes en paashazen en van kooten en de bie. voor op de theepot!
als je iets kwijt bent je moet zoeken waar het ligt
fijn dat de uitslag goed is!
mooi filmpje over de geschiedenis van asml. mijn hoofdsponsor sinds 1997
asml viert 30jarig bestaan
sterkselste man rob krijgt de beker van
zwemvaardigheid 1 in de pocket!
mooie spullen weer binnen gekregen. kom morgen tussen 1000u en 1200u lekker shoppen op de beurs
laatste kans!!!
lekker zo na de beurs even niet koken...
nieuw op de kinderbeurs sterksel, maar ook daarna nog via mijn verkrijgbaar. er zit ook nog een mooi bewaarzakje...
..en we hebben er weer een tiener bij! bijna klaar voor het feest!
zo, ik heb weer meegedaan aan de kleurwedstrijd, netjes binnen de lijntjes gekleurd
ik niet labyad ik vind het zielig dat de psv fans me zo uitfloten
dat is grappig zit net het krantje van de attent in sterksel noordbrabant te lezen. blijkt ons pascalle...
bedankt piet! nog zo eentje
dochterlief net ingeschreven op de middelbare school. kleine meisjes worden groot. en ik oud dus
let op kinderbeurs sterksel fans maak nu kans om een keertje niet in de rij te hoeven staan!
pfffff.... en dan weer opbouwen.
joehoe... dat hoef je ilse geen twee keer te vragen
geen haringhappen vanavond, maar amhali! lust toch geen haring.
29 maart tweedehands en beurs. opbrengst naar stophersentumor
toch weer een pelleboogje
dus toch! mooi man, proficiat nog maar een keer dan
als het maar een gouden pannenkoek is dan
proficiat! goed gedaan, goeie plek gekozen
volgens mij wordt in de tweede kamer sowieso niet meer namens de bevolking gesproken, maar met name persoonlijk belang.
een andere kijk op het toch niet brevet van onvermogen
kinderpleister op zere wond wens van overleden kankerpatiëntje zoë 5 alsnog in vervulling via
johannsson stuurde de verdediging van vitesse ff van het naar de muur
de 73jr vrouw uit die zwaar gewond raakte na inbraak in haar woning, is overl. verschrikkelijk
veel plezier!
psv bedankt ola en heel veel succes in het vervolg van zijn sportieve loopbaan. ola, tack så mycket! ik ook
stani bedankt! wens je het beste. qua inzet kunnen er nog heel veel mensen van je leren.
jammer hè. laten we hopen op meer van deze dagen heerlijk@
mam wij zijn voor want onze piano is ook van yamaha
proficiat! heb je wel een lekker lange dag
nog zoiets een extreem dik meisje de vakken met chips laten bijvullen...
hoe heet dat ook alweer? oh ja boontje komt om zijn loontje met de nadruk op loontje
boodschappen na 1 allemaal mensen die plotseling alle verpakkingen staan te lezen!
gecondoleerd en heel veel sterkte!
en wat zullen de blij zijn dat alles opgestookt is. iedereen! maak er iets moois van.
idee van jouw chinees wordt al gejat man verkoopt spruitjes van kerstdiner via ebay via
heel veel sterkte!
veel succes met je boekpresentatie vanavond! groeten aan onze held
briljant! en natuurlijk ook erg jong voor zn leeftijd
yesssss is stabiel gebleven! nu nog uitvogelen waar de hoofdpijn vandaan komt
spannende dag vandaag uitslag hopen dat de van pascalle niet gegroeid is.
ja was heerlijk! veel plezier met uitbuiken nog
fijne tweede allemaal. zo de strijk is weer klaar.
ja en bedankt voor je tweetje.
ga jij je kerstboom dit jaar in de aa zetten dan ?
48,9 miljoen! veldhoven in rep en roer, truck postcodeloterij gesignaleerd vandaag weer gezien!
zelf koppijn van de spanning over hoofdpijn pascalle. vervroegd naar januari
het zit dan ook niet echt mee hè. hard geknokt dat wel. volgende week weer
oh lekker. kan ik vast reserveren? tot morgen.
eerste wedstrijd op vrijdag de 13e dat móét goed gaan komen dan
vondst erectiepln in hlmnd nog geen hard bewijs dat het echte zijn staat als een
jeuj we staan op 2! de jong is de meest voorkomende achternaam in nederland! op 2 staat jansen.
gestemd! jij ook? stop hersentumoren.. ik ook. wie volgt?
wij zijn heel tevreden over nijmegen
mooi! zo komen toch ook alle brieven bij sinterklaas aan?
zwaaien ze nou met witte zakdoeken in de arena?
geld
das geen grld voor een goeie back!
komop, mopperen is verspilde energie. kijk 1e 2 wedstrijden nog eens terug en dan vooruit, rug recht, geen verwijten
mogen dat ook pepernoten zijn?
kreeg je er zón hoofdpijn van ?
voor roodwit gezongen vooruit nu roodwitten vooruit psv met de nadruk op vooruit
dan was de zak van zwarte piet zeker lek? in plaats van zijn fietsband
nieuwe zender sbs wordt mogelijk gokzender via dan mag van mij helemaal geschrapt worden
is er iemand die kaartjes voor wil ruilen? ik heb 2x do 1212 ruilen voor woe 1112.
eigenlijk zijn het dus gewoon allemaal grote banken mistig over hun investeringen via
theo maassen was echt geweldig vanavond in dat wordt een super
duim mee
een jurk het meest invloedrijk op twitter, dj tiësto uit breda heeft 2,2 miljoen volgers via
lekker in de kou zitten er ook eens blauwe ballen in het spel
goedemorgen en van harte proficiat met je eindelijk 18e verjaardag! fijne dag vandaag
hihi. tank vol en rijden maar! alvast welterusten. dat je morgen goed uitgerust bent om rond te gassen!
en dan is jullie mam het duplo autootje kwijt
zeg bent u wel bij de juiste opticien?
ons kanjertje heeft vandaag voor het eerst zelf haar spuit gezet. en nu ben ik
heel veel succes! ik duim
van harte gefeliciteerd! ps het weer ziet er beter uit dan gisteren
nieuwe website gelanceerd hoe is het van een met een met een
toch mooi dat dr. klavan ook nog meespeelt ?
uitslag mri was goed stabiel. pffff weer kunnen er weer een half jr tegen.
heel veel sterkte!
ik ben er weer klaar voor tweede helft
mooi toch. een grote prijzen gewonnen?
zo meteen naar voor een controle eerste na start groeihormonen.
dacht eigenlijk dat het nog geen was?
en zo hoort het ook! respect
hopelijk gaat het zo werken. de onderzoeken staan niet stil
maar dat komt omdat ze dit || al 20cm noemen
toch maar weer gaan vandaag weer geen prijs in de tijd voor
heel veel meer was het spel ook niet waard toch? volgende week naar afscheid bommel ook va 5 euro tipje?
zijn jullie nu echt de enige generatie die kunnen winnen van de duitsers?
te koop, studie boeken logopedie 1e jaars, prijs notk. ga je op vakantie
weet je wat ik neem boterhammen met pindakaas mee naar mijn werk. ik pak de pot pasta en ander mijn brood.
..of te laag...
gaat iets niet zoals het moet, dan moet het maar zoals het gaat
terug naar bed dan, het is toch nog geen weer om te zwemmen!
nog gefeliciteerd. met de nadruk op 24 alweer
weer een beetje bijgeslapen? is de broek goedgekeurd?
hé proficiat met je nieuwe bijbaantje op
ik zie je het wel een keertje dragen
veul plezier. daar is het nu zeker ook nog uitverkoop? kun je voor 25 euro 50 shirtjes kopen
ons pascalle vindt het maar niks met wie moet ze nu tafevoetballen? veel suc6 in napoli!
oké dan zoeken we nog ff verder. bedankt
hangt ilses jas toevallig nog bij jullie aan de kapstok? kan hem nergens vinden. mss met vaderdag vergeten. is donkerblauw
fijne vakantie
dat wordt zijn vrouw vast niet vrolijk van....
proficiat! knap staaltje!
helemaal niks super fijn!
mijn smaak moet nog gemaakt worden denk ik ijs is veeeeeel te zoet!!!!
wij mogen morgen ook weer misschien zien we elkaar wel weer succes in ieder geval
naar essen? weet jij wanneer hij in eindhoven open gaat? zag er vorige wk uit alsof het nog wel even gaat duren
..of het wordt hoofdrekenen. ..
op een luchtbedje in het zwembad toch wel?
of sterren zakken door het ijs?
stopt met de de fyra was er zelf al lang mee gestopt
valse bommelding bij afscheid burgemeester met veel bombarie vertrokken
zal je zien dat die duitsers winnen vanavond.. haha! zul je net zien!
gelukkig kunnen we hier op het zoveel drinken als we willen. een sloot nodig vandaag
marcelo jarig kadotip een mooi contract in spanje of italië paella maken of pizza bakken zal toch wel lukken?
en met de pausmobiel weer terug!
ja voor jouw zon is ie al 4 maten te klein waarschijnlijk
zijn er vannacht nog ufos geland in de er staan nog cropcircles op het veld
daar heb je toch zon knopje voor op de afstandsbediening zitten?
yesss kaartjes voor én kunnen scoren vandaag. dat wordt over een paar maanden in
nieuw aangrijpingspunt ontdekt in de behandeling van een van de vele soorten hersentumoren, lees goed nieuws!
en dan nu aan het werk met natuurlijk
mark bedankt! hier kunnen nog veel spelers iets van leren. supervoetballer met hart en ziel
dat geld hadden ze beter in de verdediging kunnen steken
hoeveel keer moet je hands maken om een penalty te krijgen?
slaap jij ook nog wel eens?
zou wel een stunt zijn als wii vanmiddag wint hebben de punten net zo hard nodig!
hiephiep hoi calimero
tien wedstrijden geschorst bijtende honden worden zelfs afgemaakt, dus hij mag niet mopperen
hihi yupp heynckes van bayern münchen lijkt sprekend op boer aad boer zoekt vrouw 2012
dat levenslang van na 12 jaar is hij dan toch weer gewoon
als die dan maar niet op het laatste moment wordt ingetrokken....
van willem van hanegem dan wel?
niet te gelovende 3 besten gaan niet door naar de finale
eerst de hond uitlaten en dan gaat de schildermodusknop op aan.
proficiat! ilse vandaag geslaagd voor haar verkeersdiploma fietsje dan he
uit mijn moeder gekropen kon jij al kruipen toen? knap. vlgs mij ben je er gewoon uitgezet
ze gaan zoet toch niet laten lopen voor gomes hoop ik?
nieuwe site voor onderwijsbegeleiding en ondersteuning voor kinderen met brabant limburg
weer een online gezet
schei toch uit met die onzin! geen nieuws toch?
zullen we ons vanavond dan maar helemaal zuipen?
verdorie mijn wordt buiten.
dan kunnen wij elkaar een hand geven
fretten verkocht als poedels in argentinië pissen ze dan ook met een poot omhoog?
bild justin bieber klopt s nachts voor seks bij sylvie van der vaart aan. is ze nu ook al geïnteresseerd in kleine piemeltjes?
sylvie van der vaart toont interesse in geslachtsdeel duitser je kunt maar ergens in geïnteresseerd zijn
storing ing, klanten staan rood of hebben juist te veel geld stort het teveel anders maar gewoon op mijn rekening
derek ogilve ook nog niet
proficiat. volgende week de kast maar inruimen dan....
hey steven, ik lees dat je de giro weer gaat rijden dit jaar succes alvast! we duimen
kamer wil dit jaar afhandeling alle claims misbruik kerk via goed voor de economie
de aanval is niet meer zo scherp als een
kun je ook verdedigen?
manchester united doet bod van 15 mln op marcelo
cancer drug that shrinks all tumors set to begin human clinical trials via dat zou mooi zijn
pffff zo al naar de manege om een pony in te vlechten. dochterlief heeft een wedsrijdje...
wat een verschrikkelijk slecht programma slecht gejat van
ooooh gelukkig wat een super goed nieuws. fijne pasen.
zullen we afspreken dit jaar verstoppen en in de kerstboom?
ach het is maar zo || koud
wat maken we ons eigenlijk druk om die de smaken toch wel!
sneeuwballen gooien het sneeuwt hier weer..
meteen vullen met nieuwe voorjaars collectie natuurlijk!
er lopen 10 rollen wilhelmina pepermunt op het veld. wat een lelijke shirts toch
die mogen alleen notuleren toch?
ff checken hoe het buiten is
van la parra dronken achter het stuur is de al een gestart?#ditkanookniet
kan iemand ff naar boven bellen om te vertellen dat de nu echt begonnen is?