jep, room zal hier niet blij van worden en zoet zal het toch geen ramp vinden als hij gespaard wordt tegen volendam.
inderdaad, in de vorige ronde van de beker tegen amateurs mocht hij ook al niet mee doen...
daar heb je een punt, maar ik neem toch aan dat room geen nietsnut is. hij was eerste doelman bij vitesse.
waarom stellen we dan wel maher of ramselaar op als we van ginkel hebben? dat is een gevalletje de één wel en de ander niet.
waarom hebben we eloy room in vredesnaam gehaald als hij in zulke wedstrijden niet eens mag spelen...
makkelie is een erg consequente scheids. hij fluit al jarenlang consequent tegen psv.
klopt. ik denk niet dat er een homofoob is die na het zien van deze aanvoerdersband opeens wel homos zal gaan accepteren.
wat een achterlijk gedoe.
zoet is anders geaard. wat een ontzettend laag niveau die utrecht supporters...
ik was enigszins sceptisch toen ik het zag, maar de 532 met locadia en lozano voorin werkt prima!
dan heb je de scheids zo erg mee en dan verlies je alsnog thuis van nac. leedvermaak pur sang.
ik vind schwaab al sinds hij bij psv zit een enorm ondergewaardeerde speler. bijna altijd solide en maakt nooit grote fouten.
liever slecht winnen dan goed verliezen. de 3 punten zijn binnen en dat is het enige wat telt. op naar putten &amp utrecht 🔴💪
ik zie serieus feyenoorders over de scheids klagen. welke wedstrijd kijken zij?
lozano kreeg rood voor minder...
in de cl winnen tegen een club uit manchester, het is niet voor iedereen weggelegd.
even een herinnering dat we moreno voor maar 5 miljoen verkochten en al dat geld gebruikte om luckassen te halen...
heeft psv een kampioenswaardige selectie?
dus we waren bereid om moreno voor 5 miljoen te verkopen maar we willen 10 miljoen voor isimat? 🤔😂
3e is het hoogst haalbare dit seizoen en het zou een mooie prestatie zijn als we met dit team az, vitess…
als pröpper voor 4 miljoen verkocht wordt nadat we moreno en guardado al weggaven, dan kom ik dit seizoen geen 1x meer naar het stadion.
we hebben een nachtje kunnen slapen na de blamage, wat is nu jullie oordeel over cocu?
het was schandalig wat locadia zei, maar hij durft het wel te zeggen. de andere spelers hebben allemaal hetzelfde probleem maar zwijgen.
natuurlijk wel ter discussie te staan.
we zijn ambitieloos en het topsportklimaat is volledig weg. bij de grootste blamage ooit hoort de positie vd trainer
bedankt voor de prachtige herinneringen als speler en trainer, maar het is tijd om te vertrekken cocu.
vorig seizoen werden we 3e en ik kan helaas geen enkele reden bedenken waarom het dit seizoen beter zou kunnen gaan...
dat druk je nog zacht uit, je kan beter dramatisch zeggen 😂😝 alhoewel voor een gratis mobiele app had het slechter gekund 😉
feyenoord wordt voor het eerst in 18 jaar kampioen en alsnog verkiezen spelers psv boven feyenoord 😂😂…
yes 💪 deze prijs laat ons het afgelopen seizoen volledig vergeten 😝
dan wilt hij dus erg graag terug lijkt me. van mij is hij van harte welkom als zoet vertrekt.
zien jullie gomes graag terugkeren, mocht zoet vertrekken?
gomes vond een tweet leuk waarin iemand zei dat hij gomes terug wil hebben bij psv bij vertrek zoet 🙄🙄🤔
geen idee wie het is maar braziliaanse talenten zijn altijd van harte welkom 👍👍
laat ons nu in elk geval het nieuwe shirt zien met een nieuwe speler erin om de teleurstelling te verkleinen
1012 miljoen was een goed bedrag geweest maar dit is gewoon een weggevertje.
geen eens 6 miljoen euro voor hector moreno?????
prachtige transfer voor hector moreno, wel een enorme domper voor psv. hopelijk hebben we een mooi bedrag voor hem gekregen.
dat komt uit het niets...
heb ik ook wel eens last van.
geen felicitaties voor de nummer 3? 😣
3e plaats in de eredivisie. 4e in groepsfase champions league. uitgeschakeld door sparta in de tweede ronde van de knvb beker. 😭😭
phillip cocu is een psv legende, maar het lijkt niet meer te functioneren onder zijn leiding...
zeggen jullie het maar
hoe krijg je dit ooit voor elkaar? 😭😭😭
godver de godverdomme
jep... achteraf is dit makkelijk gezegd maar toch is het zo zonde.
als zoet nu die blunder niet had gemaakt... 🤔🤔🤔
hurensohn
zal ik doen. stem jij maar pvda waardoor ik 65% belasting mag gaan betalen. fijne dag verder.
je praat over respect, en 8 woorden later noem je iemand gek omdat je het alleen niet met hem eens ben.
vindt dat je actie wilt ondernemen, verwijder ik het. dat is niet te heet onder de voeten, maar gewoon een kwestie van respect
jij wilde dat het verwijdert wordt. dat is gebeurd 😂 wij zijn het niet met elkaar eens, maar als jij iets dusdanig niet fijn
overigens was deze foto al bekend over het hele internet nadat psv fans geld naar bedelaars in madrid gooiden.
hoofddoek dragen. je hebt er advies voor gekregen 👍
speciaal voor linkse jankers zoals jou het verwijdert. zeik niet als jouw vrouwelijke familieleden over 20 jaar allemaal een
nooit dat een speler die vrouwen geen hand geeft bij mijn club speelt.
ik zei daarom ook 51% van mijn volgers, niet van alle psvers 😃
bij veel peilingen doet minder dan 0,01% van de nederlanders kiesgerechtigden mee. en die peilingen zie ik ook overal.
tuurlijk stemmen helaas niet alle psvers pvv. ik gaf hier psvers alleen advies.
toch is 51% van mijn volgers dat wel
kijk dit a.u.b. uit en oordeel nog eens
dat te voorkomen!
en normaal doe ik dit niet. maar als de pvv niet wint raken we ons land kwijt en daar moet alles aan gedaan worden om
maurice de hond denkt dat 3.000 man een afspiegeling is voor de ruim 13 miljoen stemgerechtigden.
51% van de psvers denkt daar anders over.
rutte dan. die kan alleen schreeuwen dat wilders nepoplossingen heeft en dat ie het zelf altijd perfect doet.
uitslag poll psvers stemmen massaal op doet het ook goed. weinig steun voor linkse en chr…
poll de verkiezingen zijn over 3 dagen, wat stemmen psvers?
vandaag gratis stemadvies gekregen. hebben we geen stemwijzer meer voor nodig 😂
ik tweette net dat go ahead fans de meest trieste figuren ooit waren. laat maar, dat zijn deze mensen.
iets van zoet zoet he arghh. alsof ze net uit de kleurenklas komen met hun kreungeluid.
go ahead fans zijn de meest trieste figuren die ik ooit heb gezien ... vooral als zoet een doeltrap neemt.
wat een onzin.
en tegen alle brabanders die voor ajax zijn zeggen we ga naar amsterdam en kom nooit meer terug! 😉
ik wil maar dat staat er niet bij...
even een poll om te kijken wat psvers vinden moet cocu coach van psv blijven?
wie hebben we liever kampioen?
anders moet ik dit het komende jaar aanhoren...
ik studeer nu in rotterdam dus dan heb ik liever ajax kampioen 😂😂
maak in elk geval nog de 22....
waarom zingen feyenoord fans please dont take me home als het een thuiswedstrijd is?
ik droomde vannacht dat we vandaag met 04 wonnen. met 01 ben ik ook al tevreden 😉
telt geert wilders ook mee als god?
🤔🤔🤔
van ginkel terug bij psv. dat is pas een goede afsluiter van het jaar!
ik doe hem maar zelfs middenvelders van excelsior kosten al 2k nu 😠😠
altijd als ik psv spelers afkraak snoeren ze mij de mond door even later te scoren 🔥
laat maar, die gast kan er gewoon écht niks van.
de kans is misschien maar 1% dat het gebeurd, maar het zou leuk zijn.
als siem de jong nu scoort en het psv logo kust is hij een eeuwige held en vergeef ik hem al zijn dramatische wedstrijden.
riechedly bazoer vertrekt bjj ajax, hij is nooit landskampioen van nederland geworden!
mijn lieveringsherinnering van hem is dat ik nog een zaadcel was.
waar blijft die screenshot? 😉
prima overwinning! nu hopen dat ajax en feyenoord morgen punten laten liggen 💪
psv fans zijn duidelijk
wie zou de beste president zijn?
vandaag een half jaar geleden.
wat maakt iedereen zich druk? iedereen weet dat trump het wordt, kijk maar naar deze tweet van 8 mei.
en waarom zou ik als fan dit niet mogen roepen? ik heb niet 24/7 een psvbril op en soms moet je realistisch zijn.
welke prijs kunnen we van nog meer winnen in onze huidige vorm? vertel me dat dan eens.
geen idee over welke tweet jij het hebt, maar waar zeg ik dat ik nu geen supporter meer ben door de resultaten?
hoe vaak gaat de videoscheidsrechter psv naaien?
en vertel me eens waarom ik me moet schamen als ik mijn ploeg aanmoedig voor een bekerwedstrijd?
want jij bepaald natuurlijk wie wel een psv fan is en wie niet.
dan moet luuk de jong maar weer even zijn oude vorm terughalen en dan komt het hopelijk goed.
dat is juist het probleem, wedstrijden win je met goals en niet met kansen.
we zijn niet kansloos, maar dan moet het spel wel per direct beter worden, anders wordt die achterstand alleen nog maar groter.
😂😂😂
ik wil nog niet opgeven, maar de kans is wel heel erg klein, zeker omdat het al weken bagger is.
de knvb beker is de enige kans op nog een prijs dit seizoen. vlammen dus vanavond.
nee. we staan op het punt om weer eens 3 punten te pakken in een thuiswedstrijd. geweldig toch!
ik ben juist positief. in tegenstelling tot vorige week hebben we vandaag tot nu toe de 0 gehouden!
weer een geweldige voetbalavond in het philips stadion.
volgend seizoen zijn we bereid om je wekelijks zon reactie te geven. moet je wel terugkomen
zien we binnenkort de 21? 😉
de killerclowns situatie loopt nu wel een beetje uit de hand.
ben ik de enige die hierbij denkt aan toon gerbrands zijn statement na het muntjesincident? 😂
hopelijk heeft cocu naar bayern köln gekeken, want daarvan kunnen we veel leren om ook een resultaat te behalen tegen bayern in de cl.
dan zou die de volle laag krijgen, want hij presteert al weinig.
als hij er als buitenspeler 30 scoort dan zou hij er wel krediet genoeg voor hebben. maar als narsingh het bijv. nu zou doen
gelukkig is die gast nooit doorgebroken bij psv. ik zou me doodschamen als een psver zo iets zou doen.
durft hij wel te kijken als hij een nieuw contract aangeboden krijgt?
met atletico en bayern is plek 3 het maximaal haalbare, en daar staan we nu goed voor.
thuis tegen rostov winnen en we overwinteren 💪
tja, zoet blijft echt als enige optie over voortaan.
hopelijk kunnen we de beste club van rotterdam wel verslaan.
een maand geleden was alles nog leuker.
dat klopt helemaal, maar wss waren veel mensen nog in een chagrijnige bui door de wedstrijd.
echt een kut accaunt ben ik hè, ben ik helemaal met je eens.
zo is het wel positief genoeg lijkt me. fijne middag en avond verder.
oke speciaal voor jou yes, weer verloren! geweldige prestatie van psv om máár met 01 te verliezen van deze superploeg uit 010!
zal ik voor zorgen.
het is een steljevoor situatie als psv afgehaakt zou zijn.
wie hebben we liever landskampioen?
nou dan gaan we dit seizoen maar voor de europa league en knvb beker...
4 thuiswedstrijden dit seizoen, maar 1 doelpunt van psv.
vandaag hadden we locadia erg goed kunnen gebruiken...
op naar de koppositie!
wie is slechter?
ik meen dit oprecht europa league is leuker dan champions league als het op deze manier moet gaan.
dat doelpunt was al enorm frustrerend maar dat ze dan ook nog met een elleboog wegkomen? dat is gewoon niet te geloven.
ik heb het nu al gehad met deze wedstrijd, het is nu al verpest door de scheids. lekker bezig uefa maffia.
want sc heerenveen en psv staan wereldwijd bekend om hun beruchte hooligans...
kunnen we 1 van deze 3 doelpunten overzetten naar de wedstrijd tegen fc groningen? 😉
moreno heeft zich al een jaar lang bewezen, die muur heeft nog niets bewezen. brands zal er dan wel 4 miljard voor krijgen.
wederom geweldig werk van marcel brands 👏👏😂
de muur op de amerikaanse grens met mexico gaat $8 miljard kosten? onze mexicaanse muur kostte maar €4 miljoen,
een geweldige prestatie van dit huidige nederlands elftal om maar met 12 van griekenland te verliezen.
griekenland verloor 2 keer van de faeröer eilanden in de ek kwalificatie
ik wil 90 minuten van me leven terug.
klopt, ik vrees dat 1 miljoen euro niet genoeg zal zijn om hem los te kweken bij odense.
😂😂
psv heeft 1 miljoen euro geboden op het deense wonderkind shanta kordbatchje 18 van odense bk.
ik wil niet veel zeggen, maar jij bent hier degene die via internet trollt.
beetje jammer dat psv betrokken wordt in de domste tweet van het jaar 😂😂😥
feyenoord vernederde deze inspiratieloze tijdrekkers met 05 in de euroborg...
hoe kan een keeper nou kramp krijgen hahahahaha
dit gaat m niet meer worden vrees ik 😫 maar ik hoop natuurlijk dat ik het fout heb.
hopelijk komen wij bij leicester en porto. mooie clubs maar geen hele goede clubs.
leicester, leverkusen en celtic.
het wordt erg lastig maar als alle nlse ploegen alles geven in europa moeten we maar kijken of het uiteindelijk genoeg is.
en denk je dat dit huidige ajax punten had kunnen pakken in de cl? nee, juist beter dat ze het nu in de el proberen.
die rechtstreekse plaatsing verloren we toch wel, of ajax nou door ging of niet.
klein pubertje. zegt iemand die nog in de 4e zit. hahahahahahaha.
triple punishment was toch afgeschaft? of niet in de cl?
gelukkig werden we toen toch alsnog met een enorm puntenverschil kampioen 😉
daar hadden ze 2 seizoenen geleden ook nog geluk met dat polletje, anders lieten ze daar punten liggen. hopelijk zondag wel!
met hun huidige vorm verliezen ze toch 6x in de cl. dus geweldig voor het nederlandse voetbal dat ze naar de el gaan.
was misschien wel leuk als ze het haalden voor het nlvoetbal, maar nu dat er toch niet in zit laat ze maar vernederd worden 😂👍
hier kan je toch alleen maar van genieten als het toch allang zeker is dat ajax het niet gaat halen 😂😂😂
welkom op de psv bankrekening!
dat is toch al zeker, ookal gaat ajax door.
je beweerd vader en opa te zijn, maar kinderen van 12 gedragen zich nog volwassener dan jij.
net als jullie de afgelopen 2 seizoen.
natuurlijk ook bagger dat psv één van de maar 2 nederlandse clubs is die de kwartfinale van de el heeft gehaald.
overwinteren in cl, 210 minuten volhouden tegen atleti. wat was psv toch dramatisch vorig jaar in europa.
en zelf lopen we dan natuurlijk nog 3 miljoen euro mis.
maar dan krijgen ze ook nog 20 miljoen waarmee ze de komende jaren zich weer beter kunnen versterken om met ons te concurreren.
als ik eerlijk ben ik zie voor ajax meer kansen in de el om iets te bereiken, dus laat ze daar maar punten voor nl pakken.
uit nieuwsgiergheid even een poll wie zien psvers liever in de cl?
dat klopt, helaas zijn er veel mensen met weinig verstand op het internet tegenwoordig, maar dat hoort er helaas bij.
daarom is hij ook onze 5e keus op het middenveld 😝
veel van je medeajacieden niet. die schelden hem voor alles en nog wat uit op zijn instagram pagina.
siem de jong, welkom bij de, uhm..., één na beste club van nederland dan maar? 😉😏
en een groot deel van de voetbalfans is toch wel afhankelijk van die 2 periodes.
volgens mij begint in het westen morgen de scholen weer en de bouwvakvakantie zit er ook al op in het westen.
ajax fans, jullie denken dat jullie week niet nog vervelender kan worden? vanaf morgen draagt jullie oudaanvoerder een psvshirt 😋
ajacied van de dag eerst 2 racistische tweets, even later een smeekbede of zijn club een marokkaan kan kopen 😂
dit zijn de dramatische gevolgen van kindermishandeling.
of je hebt een legende zoals toon binnen je club die gewoon voor een staantribune zorgt.
in eindhoven genieten we mee!
geweldig dat jullie na de voorbereiding wel weer alles winnen 😂😂
psv 9 punten tegen utrecht, az en pec. ajax 4 punten tegen sparta, roda en willem ii.
toch echt lachwekkend hoe leeg de arena is. ik zou me doodschamen als ik ajacied was.
heerlijke wedstrijd! nu kijken of willem ii het kan volhouden!
willem ii houdt het prima vol. psv vooralsnog ook 👍
geef peter bosz een levenslang contract.
11.... bij ajax! 😉
en dan zeiken ze bij 020 dat clubs altijd meer hun best doen tegen ajax dan tegen psv.
de scheids had vandaag 5 minuten nodig om de eerste cruciale fout te maken. dat valt voor de eredivisie nog best wel mee.
ja dat klopt. hopelijk kan siem me net zo verrassen zoals luuk dat heeft gedaan!
waar zei ik dat het over siem ging? ik ging wat oude tweets van me opzoeken 😂😉
2 kampioenschappen later 😂😂
de beste nederlandse middenvelder tekent bij tot 2020 💪👍
hij doet er kennelijk al 2.5 jaar over om naar psv te gaan.
ik zou het natuurlijk erg mooi vinden als hij me de mond kan snoeren ik schat die kans echter niet zo groot, maar wie weet.
er bestaan meer voetballers op de aarde dan siem de jong en van ginkel die voor psv haalbaar zouden kunnen zijn.
ik hoop ook dat siem de jong mij de mond zal kunnen snoeren als hij komt 😉 die kans schat ik alleen niet groot in.
in eerste instantie was het een logische aankoop, zeker voor de prijs was hij het gokje waard.
siem de jong zou echt de meest nutteloze psv aankoop zijn die ik ooit heb gemaakt. nooit fit, niet goed genoeg, ajacied etc.
? dan mogen ze hem wat mij betreft in utrecht houden.
ik bedoelde narsingh. locadia heeft nog wel eens een goede pot.
liever iemand die niet constant is pereiro dan iemand die constant slecht is..
straks scoort ritzmaier de 1e goal, wordt poulsen motm maar winnen we met 31 door een tegengoal in de 90e minuut...
we komen met de schrik vrij, maar de 3 superbelangrijke punten zijn binnen!
omdat er juist iets moet gebeuren als psv de 12 wilt announcen 😉
omdat we moeten winnen natuurlijk.
de weg naar landstitel nummer 24 begint vandaag!
pot 3 is dankzij olympiakos al behaald. dan halen we die 3 miljoen maar over een paar weken binnen 😉
de cl zelf meldt hier niets over, maar psv is er nu zeker van dat 8 ploegen zich met lagere coëfficiënten plaatsen.
ajacieden westermann is beter dan schwaab schwaab 90 foutloze minuten tegen fnoord westermann zorgt na 4 minuten al voor tegengoal.
ik zie pot 3 dichtbij komen. ik zie ruim 3 miljoen euro onze kant op komen!
toch zou berghuis er van dromen om gaston zijn schoenen te mogen poetsen.
krijgt feyenoord nu morgen een huldiging op de coolsingel omdat ze tweede zijn geworden?
en jozefzoon gaat dan hopelijk een hattrick scoren en dan komt het helemaal goed 👍👍
ik heb gehoord dat hij speciaal voor de cup coach tot morgen wacht.
inderdaad want dit moeten wel dé 4 sterren van de avond worden.
als deze niet gaat winnen weet ik het ook niet meer.
de 3 miljoen euro komt dichterbij 😄
hebben ze bij psv ooit gehoord van de keeper passeren?
de eerste prijs is binnen de fox sports cup! en dat terwijl we maar 1 wedstrijd gespeeld hebben 😉
maar gefeliciteerd met de 34e titel want door deze 02 zijn jullie veel beter dan feyenoord en psv. bouw het arenapark maar op!
ik vind het echt prachtig dat je 2 dagen later nog zo met mij bezig bent.
je weet toch zelf ook wel dat alle brabantse ajacieden gloryhunters zijn?
en vergelijk de inwoners van eindhoven met die van amsterdam en omstreke. logisch dat je meer fans heb.
beste ben je wel met prestaties, grootste niet. maar hoe groot een club is hangt vaak af van de achterban.
ik vind het ook prachtig dat ik ajax benoem zonder een naar een ajax account en er in totaal 20 boze neuzen reageren
vergelijken en dan blijken jullie gedachtes van de beste en grootste club toch niet altijd te kloppen.
dat komt omdat jullie je 24/7 beschouwen als de allerbeste en grootste club van nl. ja als dat zegt zullen we t even
en ik maak die keuze om het wel te doen.
dat komt omdat mijn tweet van vanavond in de ajax twitter community terecht kwam. moest dus veel tegen ajacieden discusseren.
in de voorbereiding. een voorbereiding zegt overigens niet veel, maar zelfvertrouwen kweken is nooit iets slechts.
ik vind juist dat ik daarmee onze prestaties juist extra mooi vind, omdat ik daarmee laat zien dat er ook teams moeite hebben
ik wijs niet per se naar ajax, ik vergelijk het met ajax. logisch aangezien jullie onze grootste concurrent zijn om de titel.
jullie durven ons niet er bij te betrekken omdat we momenteel beter presteren dan jullie.
leuk dat je de ajax fanbase omschrijft in 5 emotions.
of hadden we toevallig na die overwinning tegen feyenoord het stadhuisplein al opgebouwd zoals jullie arenapark?
wie binnen de psv selectie en welke supportersgroepen zeiden toen ook al dat we kampioen werden? en hadden we al kampioensshirts?
waar gebruik ik een naar een ajax account waardoor ik vervolgens wordt noodgedwongen volop over ajax te tweeten?
uhm, met deze tweet begon alles. waar ik een ajacied?
jep, maar dat seizoen werd ook bestempeld als tussenseizoen. desondanks was het toen niet best.
helemaal mee eens, helaas ben ik nog net niet zo grappig als sjaak calimero zwart.
inderdaad, in die tweet waren 0 ajacieden gementiond. goed gezien! welterusten.
jongste team ooit, en veel jeugdspelers willems, brenet, locadia waren er toen nog niet klaar voor.
was idd dramatisch begin. maar cocu had nog geen trainingservaring in de eredivisie en dat jaar hadden we ons
en je weet dat ik gelijk heb dus switch je maar van onderwerp.
heel misschien omdat er tientallen ajacieden me mentionen? of ontgaat die logica je?
net als dat potje in doetinchem dat jullie wel even gingen winnen! oh nee wacht even, daar was bryan smeets!
inderdaad, dat was in april 2015, dat kan ik me echt niet meer herinneren, eeuwen geleden.
historie is mooi om te hebben, maar het helpt je hedendaags niet om beter te zijn.
ja, of zit jij nu nog dagelijks te juichen dat ajax in 1918 kampioen werd?
dat zullen we zeker, dat het weer een mooi seizoen mag worden.
vooral al die prijzen die de meest succesvolle club van nl de afgelopen 2 seizoenen heeft gewonnen.
zo die doet pijn 1 dag ernaast 😵 maar jullie vierden die hele week toch al het behalen van de 34e landstitel?
het seizoen is nog niet eens begonnen of de ajacieden zijn alweer gefrustreerd omdat psv nu al beter is.
vooral de voorbereidingen op de kampioensfestiviteiten van 7 mei rondom de arena waren geweldig.
ja, op slechte research betrap je mij nooit.
dat was het zeker op de vijverberg 😝
een cruijffaccount in je bio, je volgt ajax fanaccounts, het opnemen voor ajax. ontken het maar niet dat je ajacied ben.
zelfvertrouwen kweken is nooit verkeerd om te doen 😉
toen jullie al 5,5 jaar ingespeeld waren op de speelstijl van frank de boer was daar ook uit het niets bryan smeets.
net als jullie na ajax twente. door die 40 waren jullie al voor de 34e keer dé landskampioen!
ajax bakt er niks van tegen liefering, afc, gent en krylja sovetov. psv verslaat saintetienne, fc sion en vernedert sporting lissabon.
de éénnabeste natuurlijk, de beste is de oprichting van psv.
vandaag 4 jaar geleden werd de beste menselijke uitvinding ooit gedaan.
jurjus heeft zonder zijn debuut te maken psv al 1 keer kampioen gemaakt.
ajax verliest tegen fc liefering en kan afc niet verslaan. psv verslaat franse recordkampioen.
kunnen we de titel alvast krijgen?
misschien is een nexit dan wel een geniaal plan. zijn we binnen 4 dagen af van danny blind.
de brexit is wel geweldig, het creëert enorm veel banen voor de britten. gelijk vacatures voor president en bondscoach erbij in 4 dagen.
ze komen er ergens deze week aan, thanks voor de tips 👍
ik dacht er al aan om meer zulke videos zoals die van te maken. deze noteer ik alvast 😉👍
alles is mooier met titanic muziek eronder zegt men altijd, zo ook het kampioenschap van psv.
wij zijn bang want...
officieel psv heeft ivan perisic van inter vastgelegd! hij heeft de brabantse vlag al in zijn haar laten verven.
dat heeft dzsudzsak geleerd bij psv 😉
er is maar 1 simons!
zoet laat zien dat hij altijd in de basis hoort te staan bij oranje👌👌
juanfran had ook zn penalty tegen psv wel zo mogen nemen
milik was dit jaar superieur bij psv, hopelijk blijft hij deze zomer!
waar heb ik net 45 minuten naar gekeken...?
ajax is inderdaad zeeman kwaliteit.
100 miljoen en hij is van hun
paul pogba naar psv?
succes vanavond!
hopelijk blijft frank de boer bij ajax, kunnen we weer lekker kampioen worden volgend jaar.
hey hendrix is ondertussen al 2 keer kampioen geworden. zonder naar de concurrent te hoeven gaan!
ik kan écht niet gokken, maar het boeit me dit keer niets!