ok die connectieproblemen zijn even vervelend, maar is keihard back, bitches!
gelul dit, er is altijd een livestream bij fvd. jullie beginnen echt lachwe…
vanmiddag viel het mee, nu is het echt een ramp
zo ziek is de volkskrant aanslag new york is politiek geschenk aan trump via
schoenmaker blijf bij je leest. er zijn al zoveel dance festivals in nl. af en toe een dance act is leuk, maar…
toch het niet soort speler dat ons terug brengt naar waar we horen. succes in de afrika cup.
bij sylvana werden die dreigers een stuk sneller opgespoord en veroordeeld in ieder geval..
en straks weer klagen over gebrek aan kansen en een leven in de criminaliteit en/of bijstand.
ik weet in ieder geval wie jelle brandt corstius is. doel bereikt denk ik...
klopt! jullie willen daar zo graag multikul gezien jullie stemgedrag? pluk er ook de vruchten dan van en blijf vooral hier weg! 👋
hou eens op jij!
de rest van nederland wel.. 👋
dat heeft die marcouch snel voor elkaar zeg...
wacht toch echt of er geen nieuw blik biebers of garrixjes wordt losgetrokken...
groter afbreukrisico denk ik. nummer 4? bij vnl landelijk of nummer 1 lokaal.
de brit zeikt niet. de nos zeikt..
ga anders even in zweden kijken hoe zon daverend succes het daar is, femke! no go areas, dagelijkse verkrachtingen..
als ze een iemand zoeken inderdaad. de dader in vegas was al gepakt.
dat de dader van las vegas blank was vond het wél heel belangrijk. daarmee opende het journaal..
een man welke huidskleur heeft ie? dat vinden jullie toch zo verdomde belangrijk? of is het getint tenzij anders vermeld?
volgende week een excursie + proeverij bij brouwerij met de mannen van we zoeken alleen nog een bob.
heb het inmiddels gemaild naar edu@4launch.nl
doe alsjeblieft iets aan die irritante en hardnekkige popups op jullie website voor mij dé reden om er nauwelijks nog te komen.
heeft tegenwoordig ook al twitter joke accounts? dit moet een grap zijn toch? toch?
hoi op 1210 een otterbox geretourneerd die dezelfde dag vervangen zou worden. ipad dochter al 1.5 week onbeschermd. hoe zit dit?
ik denk dat ik maar eens een paar adverteerders van dit ranzige, manonvriendelijke blaadje…
ik vertrouw er op dat je geen spaan heel laat van dat vreselijke mens, jan!
er is ook geen chinafobie, poolofobie of surinamofobie. kan het misschien ook gewoon aan dat volk zelf liggen ipv aan ons? 🤔
dat ze zelf maar voor alle kosten opdraait.
dat valt bij wnl wel mee hoor..
over 15 jaar homoseksualiteit in nl net zoiets als zwarte piet, korte rokjes of varkensvlees bij grote…
ga er gewoon niet wonen...
tuurlijk schadelijk voor nederland. wij mogen nu procentueel meer betalen aan eu.. britten zullen straks profiteren.
deze game.. &lt3
heel nederland is in de ban van de mogelijke vondst van anne faber, maar bij de telegraaf gaat het vooral over de…
&lt3 geitenpaadjes &lt3
bij het rechte eind? ze zou toch in het water liggen bij baarn? st…
is eigenlijk openbaar wie bij justitie besloot om in beroep te gaan tegen de strafeis? die heeft dus…
dus eerst doe je iemand en danpig je haar? das uhm als een auto kopen en dan zeggen dat je hem eigenl…
en links staat er weer goedkeurend bij te knikken en staat al klaar om dit te verdedigen tegen elke kritische noot..
de grote vraag is natuurlijk hoeveel van dit soort gevallen lopen nog rond in nl? gouden…
wat is dat voor geluid? oh het is groen links dat hier keihard voor staat te applaudisseren...
door soros gefinancierd waardevolm waarschijnlijk
jammer dat ze dit soort uitspraken pas doen als ze politicus af zijn...
hoofdkantoor in groningen. rood bolwerk..
nee, daarmee bijt je de hand die je jarenlang heeft geplunderd en dat geld heeft uitgeven aan subsidies en multikul.
tekenen mensen!!
2/2 want super toevallig is vandaag ook ineens het graf van sinterklaas ontdek.. nou... wat toevallig zeg! zwarte klaas incoming!
en toevallig is de npo via castingbureaus op zoek naar getinte hulpsinterklazen. het houdt niet op, niet vanzelf...
over 10 jaar serious request tegen longkanker? tabaksindustrie verovert afrika met intimidatie en een stoer imago
we zijn juist de termen donker en getint gaan gebruiken omdat mensen niet echt zwart zijn . waarom…
om iemand op te sporen ja. dan is het heel handig om te weten waar je naar moet uitkijken. da…
gedachtengoed van hitler? leg eens uit..
je kunt wel merken dat de niet aan de onderhandelingstafel zit. praten ineens iedereen naar de mond. vertrouw ze niet!
heb je nou zelf echt niet door dat je als journalist keihard aan je eigen stoelpoten aan het zagen bent met een dergelijk oproep?
niet huilen als er straks weer flink gelekt wordt...
en waar staat hij volgens jou voor dan?
las vegas komt ze goed uit, helaas...
gelukkig hebben ze massaal op verbinder macron gestemd. die zorgt voor oplossingen..
vandaar het verlies van 29 zetels van de pvda. de eenheid verdedigen..proest!
nee nu gaat het lekker wou je zeggen? de vorige drentse pvda cvdk tichelaar stapte op omdat i…
was het maar zon feest inderdaad. dat houden partijen als de wel tegen. anders was die b…
ons drenten is weer eens niks gevraagd. opbokken met dat mens!
morgen in het nieuws christina vreest dat de handgeschreven brief wordt ondergesneeuwd door email
hans van mierlo draait zich vanmiddag om in zijn graf,
overrated.. nog nooit om kunnen lachen...
ik vrees dat femke zelf al een 180 graden draai geeft gemaakt...
zullen ze net zo hijgerig te werk gaan als bij zal wel een paar uurtjes schoffelen worden..
ben je rechts, dan ben je volgens bestuurder een nazi. fnv lidmaatschap opzeggen doe je zo
blijft competitievervalsing dit..
mede voor deze game een xone gekocht. maar inmiddels ook alweer de deur uit gedaan wegens gebrek aan game…
je moet sterk in je schoenen staan als rechtse politicus. de media zaagt aan je stoelpoten en linksfaci…
waarom blijft de deze mensen nog steeds vluchtelingen noemen? dit zijn gewoon parasiterende nomaden die v…
en dat is een bestuurder? elke rechts georiënteerd fnv lid zou zijn conclusies moeten tr…
wanneer komt het forum weer online?
beetje knullig dat het steeds over lozana heeft,
hele geslaagde bierproeverij gehad in de grote kerk van emmen gister bij hopelijk volgen er nog vee…
waarom voel ik nou één of andere genderdiscussie aankomen?
en waarom wil de politie niet zeggen om welke bedrijven het gaat? om ene geert wilders niet in de kaart te spelen toevallig?
moslimjeugd terroriseert buurten. moslims oververtegenwoordigd in criminaliteit. honderden eu doden door moslimaans…
we geven niet toe aan terrorisme blabla. we zijn niet bang blabla.. maar we metselen wel onze steden, vliegvelden e…
veiligheidsdreiging? het dreigde voor de verandering eens veilig te zijn in parijs?
stemmingmakerij door linkse media als jullie..
ik wou inhoudelijk reageren, maar toen zag ik je tweetlijst vol anti psv tweets. geobsedeerd much?
zijn je albums hout moet, gunder, ericana en d ook op vinyl verschenen? heb de allenigbox binnen en wil de rest nu ook op lp.
fundering had enorme klappen gehad na instorten wtc 1 en 2. plus er had uren lang felle b…
die 9/11 false flag is al zo vreselijk vaak gedebunked dat ik de moeite niet eens neem. a…
dat was de lusitania in 1915. wat wapens? dld rukte met tig duikboten op richting vs…
kim jongun lacht zich de ballen uit zijn broek. hij kan flikken wat ie wil. trump krijgt toch wel de schuld.
diversiteit bij de politie is zo belangrijk blablabla
dat volk heeft al decennia lang niks vreten...
klopt. woii was stiekem ook een false flag.. stelletje kutamerikanen. ons zomaar een beetje bevrijden...
waar heeft ie dit zelf gebruikt?
wat werkt dat goed hé, die diversiteit bij der politie.
zijn vandaag 4 snapshots gemaakt van zijn profielpagina deels in het arabisch wtf?. eentje is vast van vóór die aanpassing..
hey , jullie verslaggever heeft onderweg een tik van de molen opgelopen. doe eens een f…
benieuwd welke niet westerse allochtoon haar opvolgt..
in een gemiddelde raptrack wordt het n woord 86 keer geroepen en worden wij snowflakes en whiteboys genoemd. m…
verzet? krijg ik nu ook een versierde voordeur?
het had ook kane kunnen zijn 😱
wachten op de trainer.. hoop dat je geduld hebt donyell...
hey dm je adres even. ik ben het niet met je eens en wil mijn maag en darminhoud even komen legen in je brievenbus. kusje!
als het bewust is verdient ie een schorsing, maar blom lijkt het toch echt beoordeeld te hebben..
eens. hopelijk donderdag wel gerechtigheid bij het beroep..
vertel dat ook even aan kevin blom..
speciaal voor die linkse feministen van ben ik vandaag lid geworden van
misschien die feyenoord huisjurist eens benaderen..
komt ongelukkig in en glijdt weg. seponeren die handel
wie islam zaait, zal sharia oogsten..
zorgen wespen er voor dat mensen een hekel hebben aan wespen of zorgen mensen daarvoor die…
is er al enig zicht op wanneer de fora weer online gaan? trillende handjes en paniekaanvallen hier!
moet nou elk trump gerelateerd nieuwsbericht hier overgenomen worden? zit er een nos stagiair de hele dag op t…
lees het geld voor de gerenoveerde gebitten en scootmobiels van die tienduizenden gelukszoekers moet ergens vandaan komen
en wie gaat die derving van accijnzen betalen? ik ben juist blij met al die rokers 🙌
politie weer met de handen in het haar hoe sporen we nou die daders op zonder geert wilders in de kaart te spelen?
dat was ook niet de manier van wel blijven opletten, peter..
natuurlijk wil ie dat niet echt. hij wil gewoon zijn achterban pleasen..
schuld van trump!
staat tot cabaret als de toppers staat tot muziek.. zelfs geubels kan het niet redden..
wat weten vincent janssen en promes van de staff dat ze steeds weer in de basis staan. mijn arme ogen...
groenlinks heeft voorafgaand aan het raadgevend referendum over het oekraïneverdrag op 6 april 2016…
het ene politiekorps wenst prettig offerfeest, het andere vraagt zich af waar de schapies zijn geblev…
zoek een hobby bart. of gewoon een baan...
het probleem van veel linksen is dat het juist klopt wat baudet zegt, maar dat die waarheid niet in hun s…
oh jawel, maar altijd dat in één adem noemen met wilders begint een beetje op te vallen en is onterecht. groot verschil imo.
baudet ageerde net zo hard tegen de aanstelling van van dam bij de npo.. puur vanwege de baantjescar…
spekman heeft het over de spanning die er is rond het onderwerp integratie. dat gaat zeker wel over zijn achtergrond.
baudet heeft het over de baantjescarrousel gehad. niet over de achtergrond van marcouch. spekkie probeert fvd…
jaaa, daar zat ook een live cd bij toch? ik had het ook 15 jaar niet gehoord ofzo, maar zong zo alles mee hehe..
kiek es wat ik op de kop heb getikt? 💪
maar wel vandaag nog je enige linksbenige verdediger verhuren... wat een wanbeleid zeg..
en dan is het te laat en kun je tot de winterstop niets meer doen...
geobsedeerde snoeshaan....
eigenlijk was het gewoon een hele lieve jongen!
lekker op tijd! lees 15 jaar te laat niemand zit nog op die propaganda te wachten op wat verstokte linksen en bejaarden na...
als die drie overwinningen maar geen zand in de ogen van brands strooien... verdediging is echt te zwak…
altijd een stap te laat... nieuwe methodes voor aanslagen zijn al bedacht.. voorkomen was bovendien beter geweest dan genezen..
je verwacht het niet...
misschien daar maar eens wat meer over berichten ipv dat dagelijkse trump bashen, ?
volgens mij wordt dat nog steeds onderzocht. beetje voorbarig..
uit welke hoek dit soort dreiging 99 van de 100 keer? juist!
wisfull thinking. waarschijnlijk gewoon weer een marokkaan. anders was dat gezin al 30 jaar in het…
wanneer komt het forum weer online, jongens?
weer geen finnen.. toeval?
poe poe, jij deugt!
antifa ís linksextremistisch, leon. daar wringt juist de schoen hier.
alleen omdat de formatie zo lang duurt. knappe prestatie hoor..
de zak geld voor deze bankzitter van een laagvlieger niet liggen? waar is de 22 miljoen van pröpper e…
psv wacht al weken op deze speler. dan moet je toch wel overtuigd zijn?
als je blijkbaar zo overtuigd bent van een speler dat je er weken op wil wachten, waarom dan toch huren ipv kopen?
hij werd nog voor het interview geïnstrueerd door een perschef oid. duidelijk te zien op tv.
genderneutraal. deze bij geboorte gezien als man schreeuwt niet voor niets toen niet…
ik begrijp direct die gezichtsbedekkende kleding.
dat snap ik, maar er zijn wel 4 vertrokken.. de basis is goed, maar ik vind het wel te ma…
achterin is het zeker harder nodig, maar we blessures liggen op de loer en ginkel en hend…
niet mee eens. als pereiro of van ginkel geblesseerd raken wordt de spoeling direct dun.…
overwinnen?
de waarheid is soms ongemakkelijk hard, maar jan heeft wel gelijk. links was té blij met charlottesville...
vlijmscherp 😭
en blijf weg, met je rattekop!
denk niet dat die mensen ook cds van de toppers hebben. das gewoon een veredeld carn…
kijk ons eens opkomen voor de nederlandse cultuur maar intussen zwarte piet in de ban doen en het land laten islamiseren..
ging dat met die verdedigers maar net zo snel...
terug van nooit weggeweest, maar we melden het als nieuws omdat trump.. begint zielig te worden,
de had zeker liever gezien dat we allemaal het hymne chérifien uit het hoofd leerden...
begint verdacht te worden al die stalbranden.. volkerts vriendjes zouden hun hand hier niet voor omdraaien..
bierdrinkende dikke mensen doen ook wat! 😥
1. 3e 2. peters 3. telgenkamp 4. volendam
dat juist de bericht over trumps weglaten van de achtergrond van de dader... stelletje hypocrieten
vraag anders even aan die charlie hebdo cartoonisten naar het verschil.. oh wacht..
lollig, maar beter reageert ie gewoon inhoudelijk..
videoref prima toevoeging zo..
alsof die officiële tegoeden er voorheen voor zorgden dat ze niet in veel te dure autos reden.. paspoort afpakken!
over belangrijke zaken moet jaren vergaderd en gesteggeld worden. dit wordt er direct doorgedrukt. wordt ons nog iets gevraagd?
zelf gaan emigreren klinkt steeds minder ver van mijn bed..
ze offeren straks gewoon onze homos hoor. mark my words..
zeg het ze, jan!
zwarte cross gemist vorige week, maar komend weekend toch nog een beetje brekken en angoan!
laat me raden.. je riep vorige week ook hup hanina ajarai toen je die mh17 column van haar las? stom schaap...
vrijbrief voor de rest van dat tuig dus. wie weet krijg je nog een mooi baantje bij het en een contract bij
vond het sowieso al overpriced ijs, maar voortaan dus maar gewoon weer tiramisu bij mijn dominos pizza..
kan ik de dwingen om deze meterslange takken boven mijn tuin te laten snoeien?
lekkere binnenkomer
echte kop moet zijn coa wil pand van 6 ton belastinggeld kopen, faalt hard.
waarom moet ik verplicht onverdoofd geslacht eten bij jullie,
kijk wat jullie op je geweten hebben,
hey waren er misschien hierom een paar van die helikopters?
je had die hongerwinter niet moeten overleven, idioot!
een nintendo snes classic mini kunnen preorderen bij . zo blij als een kind!
hey, dat zijn er evenveel als amerikaanse en engelse celebs die verhuisd zijn naar can…
vóór de verkiezingen inderdaad...
boete, die we uiteindelijk met zn allen betalen...
en die britten die bij een brexit zouden verkassen?
waarom is het bij jullie zo stil hierover?
en bijna alle homos die ik ken zijn zwaar links. dat moet in je hoofd toch constant botsen?
prima weertje ook voor een bontkraag..
ik weet niet wat erger is uitgesloten worden of wel aan tafel mogen, maar niks voor elkaar krijgen..
het knalvuurwerk dat voor overlast zorgt is al lang verboden. of zijn er serieus mensen die last hebben van een astronaut of piraat?
zeg het ze edwin!
begin maar opnieuw dan... leek nergens naar dit..
kaartjes voor in de buutse!
er is anders nog een andere cultuur waar dezelfde nos waar mogelijk de achtergr…
meerwaarde, bedoelde ik uiteraard..
waarom dat motorclub lidmaatschap vermelden? wat is de meerdere? wat als het leden van een damvereniging waren, was dat ook vermeld?
alles om een link met een bepaald geloof te vermijden. trouwens, hoe zit het eigenlijk me…
wat denk je waar al dat geweld tegen hulpverleners vandaan komt? is inderdaad koeltoer en heeft wei…
het wordt ongetwijfeld beter dan de pro, maar het momentum zijn ze helemaal kwijt en krijgen ze vre…
en dat een week na londen en manchester.. je moet maar durven..
hadden die wegvliegende mensen dan gewoon vleugels?
vast. moslims lopen immers weg met chansons en carnavalshits...
een geradicaliseerde moslim uit amsterdam die zich twee weken na manchester zonder kaartje ophoudt bij guus. tuurlijk is dat verdacht..
dat we die mensen redden van dictators of rebellen die zich vaak verschansen bij scholen en ziekenh…
heeft er een fan bij!#retropop
dan komt ie pas morgen. als het die dag bij je bezorgd wordt heeft het echt de status bezorger onderweg..
onzin sasha en je weer het. bataclan vluchteli…
waarom worden er zaken verzwegen, maar vooral wat wordt er nog meer verzwegen?
0.2 graad in 80 jaar tijd. waar hebben we het over. en dat kost miljarden en miljarden.
alsof dat akkoord zo goed is voor de wereld.. china en india mogen nog jaren blijven vervuilen terwi…
misschien was die semistoere actie van macron bij nader inzien toch niet zo handig?
om dit soort idioterie aan de kaak te stellen inderdaad. en dat doet met verve...
amsterdam is toch al verloren. meer dan de helft is allochtoon, het andere gros is grach…
m. dembele is belgian..
yo , waarom zijn jullie losse nummers niet meer bij de appie en jumbo te koop?
leuke verrassing bij de readshop nederlandse hopelijk blijft het niet bij één uitgave!
én een enorm suggestieve kop...
oh, je wil zeggen dat het helemaal niet geregisseerd was dat ie eerst richting trump liep en op…
lieve winkels.. koop nou eens wat meer xl shirts in en wat minder maatje s.
wat een arrogante, onbeleefde vent, die macron..
helaas. gelukkig nu wél tijd genoeg om te schakelen naar een alternatief...
wat een arrogante idioot...
pvdaers ruilen zelfs hun eigen moeders in voor het pluche. dikke kans dus..
binnenkort het grote straattaal dictee?
hypocriet figuur! als zoiets hier gebeurt, ben jij mede verantwoordelijk!
ze radicaliseren ook minder met een gratis huis en auto, schijnt. doen dan maar?
wtf is er met de prijs van gebeurd?
je kon niet kiezen tussen mattie en wytze?
in frankrijk oppert links vast ook om 60+ers het stemrecht te ontnemen.. oh wacht!
nog nooit van dumpert gehoord? onder welke steen heb jij gelegen?
misschien minder broederliefde, boef of lil kleine door onze strot proberen te rammen?
laat zijn oren hangen naar een paar linkse policor troelas? mensen met gezond verstand massaal aan of
als aids geluid maakte klonk het vast als wat een bagger...
blij dat het gekke henkie niet wordt, maar het is inderdaad een gruwelijke zooi bij de
wat heeft kluivert trouwens over het voorval gezegd, behalve dat geblaaskaak over nooi…
ben je familie van sjaak swart ofzo?
weer iemand die als coach nog nooit iets heeft gepresteerd bij een grote club. niks gel…
ik zeg alleen dat er links of rechtsom eerst geld moet rollen. zonder ad had ie nog steeds voor de…
een paar jaar en €2 miljoen aan esf subsidies verder was zon 5% van het project inderdaad niet lan…
mwoa het werd al geteld als een resultaat wanneer iemand via een subsidiebaantje een half jaar uit…
je positiviteit is te prijzen, maar je bent naïef. ik heb jarenlang vanuit mijn professie met eigen…
hij beterde zijn leven pas toen ie geld rook. en topnotch zien ook alleen maar geld in die…
oh dat boeit me niet. ik hoef mijn nieuws niet van een medium dat straatterroristen een podium geef…
dit was de druppel , ik ontvolg jullie bij deze van alle social media.
ard van peppen
links lullen, rechts zakkenvullen. zo rolt de
een pvdaer die anderen de les wil lezen omtrent gebruik van subsidies. je moet maar durven...
we hoeven niet meer te raden naar de afkomst van de daders, denk ik?
wat is dat toch met bners en idiote babynamen?
hij is inmiddels overleden...
als ik nos ect mag geloven haalt trump ook dagelijks zulke stunts uit. maar ze negeren het niet bepaald..
inderdaad. complete dossiers over trump, maar pas als het uit de hand loopt iets over erdogan..
als het een jongen met een petje was geweest had er ook niet gestaan jongen met petje mishandeld lekker suggestief,
misschien moet je het artikel daadwerkelijk lezen barry. het was een marokkaanse duitser en het vond plaats in duitsland
rutte heeft het wnl interview met wilders niet gezien, waar laatstgenoemde dat verbod verduidelijkt?
nee, het pappen en nathouden heeft zo fantastisch gewerkt! laten we wéér dezelfde partijen gaan kiezen...
2/2 de voorkeursstemmen. dat moet kloppen met het totaal. daarna telt iemand jouw stapel na. in je eentje is frauderen erg lastig
je bent met meerdere tellers en telt eerst het totaal aantal uitgebrachte stemmen. daarna per partij. vervolgens per partij 1/2
ik ben ook teller, er is hier wel degelijk controle 😇
fakenews!
fakenews!
naar het museum met dat fossiel aub...
ik denk dat nintendo eerst alles inventariseert en dan met een statement komt. ding is net drie dagen in de verkoop..
zoals bij elke hardware launch zijn er hier een daar problemen en zijn mensen met klachten vocaal..
nee hoor jesse, ik hijs mn vriendin wel in een burka en laat mn varkenshaas voortaan staan joh.
ja, want dat diversiteitsbeleid bij o.a. de dbb was zon groot succes...
het blijft een programma van de zwaar linkse vpro...
jammer dat al die satirische npo programmas tegen de verkiezingen altijd weer té hard kleur moeten bekennen 😒
benieuwd welke baantjesjager we nu weer als cvdk gaan krijgen. komen een hoop beschikbaar na 15 maart.
hoe kan het toch dat steeds minder mensen de media serieus nemen?
is nou vergeten om de oren van zn carnavalspak af te zetten?
ze hebben het bij de pers te druk met trump en le pen afzeiken.
waar staat dat dit neonazis waren? er zijn constant vechtpartijen binnen azcs. onderling geweld waarschijnlijk..
en hoeveel procent hiervan werd gepleegd door mede vluchtelingen?
doorgaans gepleegd door andere radicale vluchtelingen, maar dat verzwijgen we voor het gemak maar even..
wekenlange rellen in parijs stelselmatig genegeerd door jullie. demo tegen le pen direct gemeld. jullie zijn ook struisvogels
had je dit gemist of retweet je alleen misstanden bij nietlinkse partijen?
schoenmaker blijf bij je leest...
nee hoor, gewoon je werk doen en je aan de regels houden.
mooi hè, die diversiteit bij politie en defensie. je verwacht dit soort problemen natuurlijk helemaal niet...
ok, dat was welgeteld een halve dag leuk.
moet je kuzu eigenlijk ook frikandellen voeren?
zou er ook zo overdreven veel aandacht voor zijn in de nl media als onze eigen verkiezingen niet voor de deur stonden?
heb ik weer... kees van de sgp 😩
uit het assortiment bij onze jumbo. 😪 toch maar weer een abo nemen?
80 nieuwe pokémon. tot volgende maand vrienden..
media belicht en analyseert liever elke scheet van trump.
opkomst van mensen als trump, le pen en wilders is het directe gevolg van jarenlang wanbeleid van partijen als de jouwe.