verhuizen naar het mooie zit er voor mij helaas niet in, maar voor 1 stem in den haag ben ik wel voor!
neem eens hp de tijd om de inhoud van bericht begrijpend te lezen.
alhoewel het alweer snorvember is, wil ik toch even laten weten dat ik gestoptobert ben...
deze middag op bezoek geweest bij met kids van de vriendengroep. over 15 jaar iig 2 vrijwi…
boeren met kiespijn, we gaan ze missen via
leuk! geretweet in het maandblad van
in plaats van de oorzaak eenzijdig op de landbouw af te schuiven, zijn er gelukkig nog onderzoekers en journalisten…
via een commercial via bbc first opeens fan geworden van
bedankt dat je met nog 4 jaar er voor wilt gaan
mooi initiatief! waar kan men zich melden
vanavond heeft akkoord gegeven over reconstructie n602. dank namens dorpsraad en vrijwilligers uit de w…
mooi man❗️dit wordt gewaardeerd.
200 miljoen voor warme sanering varkenshouderij nadruk ligt op technische maatregelen, niet op minder dieren.
nu hopen dat iemand met op die positie terecht komt!
het uiteengezet voor de leest u in dit artikel
een kijkje voor en achter de schermen
bedankt voor dit positief bericht. fijn om te horen dat de vele voorbereidingen een kans krijgen! 👍
vanavond weer een mooie voorstelling neer gezet met de collega’s van in de schaduw van de rômfabriek.
met veel klanten die ondanks het strenger beleid vooruit willen, maar hierom nog niet kunnen. kwalijke zaak.
trots in top 5 beste externe communicatie! 👍
brabantse regen het zuurste in strenge winters, oorzaak lijkt gebruik strooizout| vfocus
mooie recensie in de over het openluchtspel!
reden voor een feestje! tot 250 personen.
over natuurrampen, klimaatdebat, kernenergie, is, en de 2de hoofdwet van de thermodynamica.
ik ben erg benieuwd, ik ga even kijken in dit weekend.
op is een uitgebreid rapport over deze vondst te lezen.
enorme uitstoot bij een ventilator bij een veehouderij.
ipv wijzen naar elkaar en nog meer regels opleggen zou het sieren dat deze crisis wordt erkend door onkennis van…
de bevrijding met een dikke rouwrand, opgesteld door schrijver in de schaduw van de rômfabriek lezenswaardig…
handige en gebruiksvriendelijke app/website voor dito gemeente die kleine ongemakken in openbare ruimte oplost!…
naar mijn mening is de bestemming duidelijk, echter hoe stel je de route in. 🐌, 🏎💭 of 💰
voor kritiek op onze bioindustrie heb je de holocaust niet nodig via
ter bevestiging u hoort en leest het mevrouw terug naar de stoel in 🧐
terwijl het gekakel in over de rol doorgaat, importeren we dus foute kooieieren met
los van de schuldvraag waarom rijzen deze kosten zo de pan uit? met dit soort calamiteiten is blijkbaar alles declarabel.
ernstige zaak die het vertrouwen in politiek en justitie enorm schaadt. goed punt en
nope. ze is obsessief voor haar identiteitspolitiek. aantoonbare dier, mens en milieuwelzijn irt e…
inspectie door miedema jr.
graag gedaan ! met veel plezier en met fijne mensen aan gewerkt. succes met het verder invul…
goed pleidooi!
indrukwekkende volgtip voor deze week bericht namens over getroffen pluimveebedrijf
mooi artikel van onze inspirerende gemeentesecretaris hij zet de ramen even open voor een frisse win…
euhm, een oud als klimaatminister zie ik niet zo zitten. baan…
zowaar de beste samenvatting van het nieuws deze week
afwegen van belangen is altijd een dilemma. met mee of tegenwind.
gefeliciteerd erg leuk en interessant u deze week te kunnen volgen via
geen excuses van voor de uitgelokte uitspraak van maar wel nuancering door
lastig traject in ik hoop dat men elkaar de ruimte geeft en oplossingen biedt
kaders zijn er al. voor dit geval zout erop. om overlast omgeving tussentijd te bep…
dat was me duidelijk en ik begrijp het leed onder getroffen veehouders.
maatregelen vind ik rigoureus, maar belangrijk voor de nl export. zie ook
wet kwaliteitsborging nog niet door heeft dit nog concequenties voor verleende vergun…
zuurstofarm water geeft als gevolg fosfaatrijk water irt ijzergehalte. dit is geen hogere…
ik hoop na het zomerreces met de snelheid van het licht 299.792.458 m/s door de gemeenteraden.
helder...
dit. wordt. gaaf. opbouw decor theaterstuk in de schaduw van de rômfabriek.
het is maar net welke krant je leest...
vandaag weer tiptop geholpen door bedankt jongens!
ik zie hier een analogie met het gekozen in
ik ben het niet altijd eens met maar hierin moet ik hun gelijk geven via
maatschappelijke waardering van nederlandse landbouw en visserij 2017 een dikke 7!
de vergeten kant van verzuurde bossen op zand | vfocus
hoe 20 seconden je leven kunnen veranderen nrc
op grote schaal voedsel produceren in de stad is een naïef idee via
oorzaak hoge fosfaatwaarden oppervlaktewater opgehelderd | vfocus
zo goed wil ik dus worden. nog even oefenen dan...
qua vorm slecht geleidt debat, maar burg. sijbers overleeft naar mijn mening terecht haar motie van wantrouwen in
900 stallen niet bedrijven in moeten worden aangepast, of kiezen ervoor te stoppen. 2/2
vraagt terecht tijdens of er voldoende capaciteit is voor de afwikkeling aanvragen nav 1/2
mss is deze vergunning te overhaast ingediend en beoordeeld, maar het kan wel. zie hier bij onze bure…
erg fijn om dit te lezen bedankt. ik ga extra mn best voor jullie doen!
dicteren ipv draagvlak creëeren. ik moet er nog steeds wennen aan dat clubje gs in den bosch...
dat klopt. tno voert precies uit wat opdrachtgever vraagt. echter een nulmeting in een niet veedicht g…
het artikel wat u aanhaalde daarentegen wel.
wakker worden met een kater zonder een feestje te hebben gehad.
ik denk dat dit elders in ook wordt aangetroffen. medicijnresten is probleem van alle rwzi, link m…
weet dan ook wat je meet. stikstof wordt breed uitgelegd de laatste tijd.
proficiat en wanneer gaan we het eens hebben over leegstaand en illegale activiteiten?
en de juridische toets volgt pas jaren hierna.
vertrouwen is gelijk weg gemaaid. bedankt voor het vertrouwen. taskforce nodig om dit te herstellen.
gelukkig kunnen we zelf weer op de stemmen in 2019.
waar kiezen we voor
emotie van wantrouwen heerst bij het in
wat ooit als een dialoog begon eindigt in een dictaat passende woorden van met het
ooit eens geleerd dat 80% van de lucht in atmosfeer uit stikstof bestaat.
mooi resultaat voor en heeft zelf nagedacht over invulling van leegstaand schoo…
meneer werd vandaag 4 jaar. dit hebben we gezellig gevierd!
gotspe dat woord heb ik al lang niet meer gehoord, maar dit duid wel de inzet…
ook de afdelingen van het in het land van cuijk maken zich zorgen over de versnelde transitie in de veehouderij
ondertussen nog een objectief stuk gevonden over en beleving voor degene die zich wil verdiepen.
ook denktank van keuren plannen veehouderij af.
lezenswaardige post op facebook van een bezorgde burger inz. de plannen van
ook in worden de stalsleutels ingeleverd door bezorgde agrariërs
ook in worden de stalsleutels vanavond overhandigd aan het gemeentebestuur.
iets later dan normaal, maar onze bloemenranden worden weer ingezaaid. fijn voor boer, burger en bij!
misschien het groter plaatje wat mooier maken met inbreng van ondernemers die voor advies va…
ik luister naar de bevlogen 2 minuten spreektijd van meerdere generaties en honderden gezinnen in
leest even mee?
slaat de spijker op de kop juridische houdbaarheid is niet aangetoond.
spreekt halve waarheid. provincie kan wel sturen omdat zij vergunningen verlenen ihkv &amp pas.
terwijl worden weggezet als notoire vervuilers wordt hun stikstof gewoon geruild voor industrie en infra.
laten we hopen van niet. bij zon brand komt toch heel wat nox vrij wat weer als stikstof op natuur beland.
in is een dergelijk project van start gegaan
regels? vertrouwen! geef het jouw voorbeeld door van overbodige bureaucratie op
hier wordt haarfijn uitgelegd op welke ridicule wijze de provincie over de boeren regeert.
bezig met laatste voorbereidingen voor politieke jongerendag en leuk om te mogen vertegenwoordigen!
geluidsonderzoek puinbreker in belgië voor internationale markt.
boeren zaten al zo rond 1.800 voor christus in
dit beleid effectueert geen natuurdoelstellingen, maar is enkel…
gebruik in veehouderij met 64% gedaald sinds 2009
slaapt u lekker ik ben aan het innoveren, maar uw beleid is een blok aan het been.…
1 nadeel ik zal dit soort gouden reacties wel gaan missen.
in het agriholland nieuws geling advies en stalbouw.nl helpen veehouders bij reactie op wet veedichte gebieden
mooi artikel in met verenigde krachten gaan we er iets bijzonders van maken!…
voor als men vandaag nog niet heeft gelachen...
bedankt voor uw bezoek vanavond in voor de jubilarissen van
ik kwam dit citaat tegen op waar ik een kleine rol in een groots st…
proficiat met het behaalde resultaat!
bijzondere oogst vandaag in 2 klanten van me in de krant!
proficiat &amp stichting recreatie en meer voor het vinden van een locatie! en nu aan de slag!
proficiat polariseren is voor u ook een verheven kunst geworden.
van framing naar farming!
en terecht...
eensgelijks
probleem is verholpen na bezoek aan uw winkel. dank voor uw support!
ja ik kom van kpn. geen sim kaart ontvangen van jullie. betreft zakelijk abo via geling advies.
vandaag is mn abo overgezet naar echter ik heb geen simkaart ontvangen? help, ik ben niet meer bereikbaar!
waarom boeren sterk gekant zijn tegen mestinjectie verwoest bodemleven en natuurdoelstellingen worden niet behaald.
mooie actie voor een goed doel. met roze folie voor grasbalen wordt ondersteund.
zojuist hokje 17 ingekleurd van en wel hierom succes
kritisch stukje duiding hoe links en groen nederland subsidie invult boven het lokaal belang.
dit is de boodschap van aan nederland via
het is goed te weten dat mensen ogen en oren hebben voor regionale problematiek. in en
binnen een half uur al 3x gebeld door een nummer uit bovenwindse eilanden. trap er niet in.
bij het werd door benadrukt dat politiek niet alleen in de randstad wordt beleefd.…
je hebt als immigrant rechten. om in nederland te mogen wonen. daarentegen heb je ook plichten...
ook in werd gisteren volop geklust. in fris likje verf voor het druk bezette dorpshuis v…
zo, dat ging rap. in 4 dagen tijd de uitvoeringen voor in de schaduw van de rômfabriek uitverkocht!…
stormloop met voorverkoop theaterproductie in de schaduw van de rômfabriek vandaag.
kaap verdië of naar de zon. met dit laatste is reisbureau spacex volgens mij mee bezig.
mooie aandacht voor het in o.a. ledenblad dichterbij van &amp weekblad
vandaag deze gelezen op links wil op stoel van de boer gaan zitten, contraproductief. toepasselijk
dus ook langs drukke snelwegen. met 126 representen zal deze relatie wel niet onderzocht zijn. 2/2
grootschalige uitstoot van stofdeeltjes speelt de altijd al aanwezige pneumokok in de kaart. 1/2
huizenbouwers laten gasleiding achterwege en kiezen voor
verstandig besluit van een samenleving versterkt zich niet beter met een stempel, maar met waarder…
stoere boeren gezocht!
het huidige is teveel gebaseerd op modellen en politieke voorkeuren en te weinig op de realiteit
it giet oan de ijsbaan op den dries in is open! wie komen er vanmiddag allemaal schaatsen?
de tijd gaat snel en de kleine jongen wordt groot. mijn beste vriend ingeschreven voor het onderwijs.
mee eens er wordt te veel gefocust op het rode. mijn voornemen in 2017 is dit in balans te brenge…
actoren op het rode icoontje zijn al aanwezig. de kunst is om deze met de groene in balans te houden, daar zit de u…
opmerkelijk bij toets in zijn bijgebouwen geluidgevoelig aldus
dit klinkt als een uitdaging heb wel vragen hoe de meetdata uit ongeautoriseerde bronnen z…
mooi 2 projecten in aangemeld voor brabantse 2017 waaronder tovensche beek
zoektocht voor locatie speeltuin stichting recreatie en meer in
hoe zou u het vinden als u ineens acht jaar eerder de hypotheek moet aflossen?, vroeg een statenlid.
bewogen 24 uur meegemaakt voor de agrarische sector met zowel debat in als in…
mensen hebben als burger een heel andere mening dan als consument in de supermarkt.
dubbele agenda van onze stas stikstofruimte veehouderij inperken, om andere doeleinden te gebruiken.
enig idee of deze storing langdurig van aard is?
kunnen we niet het voorstel van invoeren voor 1 nieuwe wet/regeling verdwijnen er 2?
rvs oordeelt dat eis voor aan mace onvoldoende was gemotiveerd. aanmeldnotitie volstaat.
beschikking voor mestverwerking in mace bij lijkt van de baan
het gedachtegoed van met en wordt helder uiteen gezet in deze 7 tweets over de voor hen onverkl…
dus geen hans anders aan de breestraat, maar een uitdaging om mee te denken. goed initiatief van
dat wordt dan een flinke schoen zetten
succes met het terugvinden van je auto als je afgewerkt bent...
eens de gepamperde burger wordt permanent gedebiliseerd over stoeptegels en kunstgras
jammer, maar we respecteren het besluit. dossier kan nu na ca. 8 jaar worden gesloten. 2/2
helaas heeft voorstel doorsteek den dries dorpshuis na heftige discussies in het niet gehaald. 1/2
dat net vanavond de livestream het laat afweten...
laten we dan gelijk maar alle bbqs, tuinhaarden, tostiijzers en grillpannen verbieden ivm
na pijnlijke rutte persiflage had janzen weer de beste grap van de avond is het van 2016.
mooie televisie bij mr. sprong zaagt elke poot van de stoel af bij farid azarkan van
beetje rare van over aanpak pm10 kg/km2 is geen eenheid/grenswaarde, maar het plaatje ziet…
hippe kippen bij mooi filmpje!
knap gedaan mannen van en met groesbeeks gruwelijkste!
ik snap overigens niet waarom destijds de flitspaal in is weggehaald.
ook in geldt 50 km/uur. bedankt mannen van voor het ophangen van de signalering!
wat maakt jouw buurt, jouw buurt? vertel het in het buurtonderzoek van ga naar
hier zit wel een kern van waarheid in.
boom planten in gemeente dan eerst vergunning aanvragen! doorgeslagen of terecht? lees het zelf op
koolere!
boeiend om te lezen. over de hun afkeer tegen de en hun nonconformisme.
wat nou vangen, een konijntje is veel leuker... en lekkerder, aldus onze hond bruce.
ik vreesde honderden doden bij de herdenking.
1 jaar proficiat! altijd interessant om zonder vooroordelen in de keuken bij agrarisch te mogen kijken.
filmpje... kijken... lukt... niet... storing... ?
mooi met en een positieve uitspraak van voor ontvangen.
in 1 adem benoemd. chapeau! lees dan ook
helaas geen inhoudelijk maar procedureel advies.
een dame met humor...
overbodig maatschappelijke duiding over een mosseljurk maatje 38 ontgaat deze persoon volledig.
opmerkelijk om te lezen dat van een gewoon boek niet tot de zelfde leidt.
serieuze aanwinst die release radar. ideaal om zondagmiddag met verrassende muziek door te brengen.
het acteerwerk maar weer eens opgepakt voor deze mooie theaterproductie medio 2017 in via
jammer niet goed opgelet. helaas was dit pakje taugé al over de datum.
duurzame kringloop van geld? dit geeft het je te denken via
duurzame kringloop van geld dus...
vandaag feest! het eerste miellennium voor mijn grote kleine vriend!
heeft vaak gelijk!
mooie wolken bij onze vriendelijke zuidergasten van belgië.
het barnumeffect iedereen leest zijn eigen waarheid. maar mss was dit wel de bedoeling.
evaluatie kleine kernen hebben doelstelling ruimschoots behaald. politiek nu aan zet?
bedankt en voor de ambassadeursborrel voor het behalen van 43%+ aansluitingen voor in sint anthonis.
verdrietig. boos. schokkende beelden aanslag vertroebelen wederom mn timeline van tolerantie van de afgelopen 2 decenia.
dr schijnt ook een variant voor dyslectici te zijn...
stuitend. hier kan ik heel boos over worden.
even datum checken. ... nee, geen 1 april.
ik ken er die er graag in willen plonsen! keuze voor minder vesteniging stedelijk gebied. 1+1+13
reactie van bezorgde vriend uit politiek is volgens hem naief en niet bezig met toekomst.
wat wil je dan precies?
niet alleen goed voor de maar ook voor de beleving van de voorbijgangers.
leuke en leerzame dag gehad bij bedankt voor de prima ontvangst!
ik weet het niet? maar toont wel lef om mee te denken!
vanmiddag met de hond uitlaten de eerste genieters gezien bij de nieuwe brugelementen in
ook de brugelementen bij de lede worden met vrijwilligers geplaatst. stukje dorpsvisie weer gerealiseerd!
de heg snoeien geeft een extra goed gevoel voor mooi initiatief voor strijd tegen ook meedoen?
proficiat en respect! ik wist niet dat je naast je drukke statenlid functie hier nog tijd voor had.
mooie timelaps van bouw van bij
dr zijn volgens mij daarboven een paar tikkertje aan het spelen.
na vele posts gelezen te hebben, mss toch wel spijt. deze was de mooiste!
advies commissie m.e.r. milieueffecten bestemmingsplan buitengebied voldoende beschreven.
luchtkwaliteit in stedelijk gebied wordt vooral bepaald door verkeer pm10 en nox ipv ammoniak. 2/2
dit rapport gaat over eu, niet nl. dan nog geen verband tussen stallen brabant en luchtkwaliteit randstad. 1/2
dit stond in de zelfde editie...
sorry werkende ggd, niet degene die afscheid nemen...
bij mij jeukt dit ook. doodzwijgen, of tegencampagne, het is nooit goed in de ogen van ondeskundige populist/journalist.
of het begint met een droom, of tof idee. tot 21 juni met
orginele 404foutpagina van website met een gezonde dosis humor!
zojuist afspraak bij gemeente gehad. gezellige drukte aldaar met
genomen in ca. 1969 in waar ik thans woon en dezelfde tuin onderhoud. daarom moet blijven!
in voerde 41 procent van de bedrijven in 2012 2014 een technologische innovatie door.
met de vraag wat het mooiste plekje is op een met recht de keukentafel.
mooiste is dat zanger het zelf bestuurd en mag inparkeren!
zolang er geen mammoet voorbij loopt of mesosaurus voorbij zwemt maak ik me nog geen zorgen. wel even regenmodellen bijstellen!
dank voor je bijdrage deze week! we gaan met gezin met vakantie naar belgie, mss even onderweg je bedrijf bezoeken?
de keukentafel. waar jullie samen savonds samen met het gezin eten en de dag doornemen. en tussendoor de plannen doornemen!
dr komt weer een bak water op ons af...
goed van en om link veehouderij en te ontkrachten.
goed dat dit ook bevestigd wordt door … met link naar advies.
goed dat dit ook bevestigd wordt door met link naar advies.
gratis wielen wassen bij texaco van de weem
vandaag met ambtenaren over nieuwe in gehad. vanuit deze mooie reactie!
wat er onder het zeil verborgen zit? kom vanmiddag kijken bij de opening tovensche beek!
bedankt voor het fijne gesprek zonder naam of toenaam elkaar goed bijgepraat.
nee. althans die heb ik nog niet meegemaakt.
stimulering + vrijheid naar denken tot niet meteen teruggefloten worden door buurman, overheid of regelgeving.
dit is nieuw voor mij. in mijn dagelijkse advisering heb ik dit nog niet gehoord.
op gemeenteniveau denkt men met respect in hokjes en bestemmingsplannen. niet in innovatie.
deze drempel is te hoog, al probeer ik deze in mn vakgebied weg te nemen. dan nog wie betaald bepaald.
met een goed ondernemingsplan ga je als eerste naar de bank, niet naar de eu of overheid.
goede tegenvraag. hier moet ik even over nadenken. ervaringen met zijn overigens positief!
fondsen, subsidies en innovatieprogrammas zijn voor de happy few. de lokale ondernemer schrikt af.
komt goed! onderwijl zijn we bezig met dus we trappen ook voor een goed doel!
deze eigen creatieve baas wat meewerkt aan de samenleving zit niet te wachten op onnodige regeldruk
om de huldiging te bekostigen is een speciaal giro nummer geopend
goed om te lezen dat de klachten serieus neemt en actie onderneemt.
vanmiddag kennis over laagfrequent geluid bijgespijkerd bij was erg interessant!
mooie prestatie voor 👍
overijssel wil sneller en goedkoper opruimen prima initiatief! misschien ook iets voor
thanks voor de vrijkaartjes voor de sint anthonis!
ja graag!
terugblik op de kind geeft bloem aan
wakker worden met een goed en warm gevoel. ik denk terug aan een mooie en memorabele dodenherdenking in
bezig met laatste voorbereidingen dodenherdenking 2016 met o.a. shiver
dank voor het delen!
we zijn op zoek naar een nieuwe medewerker/ster voor help je mee om dit te delen?
heb jij het al geheurd? we gaan naar binnen!!!
vanavond structuurvisie besproken met gemeente dank voor het luisteren naar onze input!
geïmporteerd of geëxporteerd? sorry is zo onduidelijk
top! dank voor je reactie. ik kan weer inloggen!
problemen met inloggen internetbankieren. waar kan dit aan liggen?
mooi man. hier in pakken we het iets bescheidener aan.
gaat dus ook voor duurzaam. dankzij en jenniskens techniek rijkevoort
goede jaarvergadering gehad met ipv lintje werd werd de stroomkabel doorgeknipt door voor opening
dit is geen fout in meten, maar onderkend probleem in vergunningverlening en gemeentelijk beleid
goed bezig, bij ons wordt de bloemenrand binnenkort ook opnieuw ingezaaid.
mooi project en trots op het resultaat!
ook met zand een schone wagen 😉
in ook. mn auto een dag te vroeg door de wasstraat gereden...
supermooi filmpje van werkzaamheden herstructurering tovense beek
wat betekent het voor de helder verhaal door dutch dairymen board
vanavond cursus en gevolgd. dank voor de leerzame avond.
onze koning vat het goed samen.
wordt inmiddels gerealiseerd.
op zondag altijd even repeteren met en pappa op de bas.
weet iemand waar de zak met zijn gebleven die ik gisteren heb gekocht?
jullie bezieling was te lezen afgelopen week. respect met de hoofdletter r!
ik vond het erg leuk om jullie tweets te volgen deze week via mooi bedrijf met hart voor de zaak!
het zou stas wiebes sieren om energie voor thuislaadpunten ook te ontlasten. techniek is er.
mooi precedent voor
geef met dit misplaatste en suggestief onderzoek svp geen podium voor de
zon zonnige zondag voelt als gratis tanken
wonen in prima uitgelicht door bij va 530.
mooi. ontstane jurisprudentie is niet de bedoeling geweest van de wetgever.
het begin van het omdenken!