denk dat er in de winter nog wel een defensieve versterking komt
dat is meteen het gevaar. eigen prestatie eerst.
ik vind het dan wel weer leuk dat juist labyad scoort
nou. dan laat ik hem nu lekker uit staan.
zo erg?
dus als ik vanavond alleen de samenvatting kijk mis ik niks.
vrije rol in twee spitsen systeem is zijn beste positie vind ik. daarom ook geweldig in utrecht
gelukkig maar. nederland moet verder met de toekomst. niet met het verleden
het zal wel weer aan het liggen.
wat heb je voorspeld? 12?
jammer dat deze briljante voetballer voor marokko kiest.
tactische variant is ten hag wel toevertrouwd. succes zo!
nieuwe trainingstijd 46,9 km gefietst in 015021, 25,50 km/u
nieuwe trainingstijd 46,9 km gefietst in 015204, 25,11 km/u
nieuwe trainingstijd 45 km gefietst in 014815, 24,94 km/u
nieuwe trainingstijd 46,9 km gefietst in 014624, 26,45 km/u
nieuwe trainingstijd 46,9 km gefietst in 015012, 25,54 km/u
misschien wel de best mogelijke start. wedstrijd zonder enige druk. daarna twee weken geen wedstrijd.
ook de reactie van bruggink erna gelezen? dat was een tip met een knipoog.
gaat spannend worden tussen deze twee
gefeliciteerd!
leuke pot, zwaarbevochten punt
voor mijn werk naar de graafschap 19 ajax 19. het kan slechter. nu moet alleen nog winnen!
en maar weer zeuren over kunstgras...
goed gekeept
zeg maar gerust slecht
ramselaar laat ook zien dat cocu hem terecht vaak op de bank houdt. bijzonder matig
hopelijk haalt hij brenet en maher er uit. zo slecht
met deze inspiratie is elke tegenstander taaie kost
rampzalig onze insecten sterven in rap tempo uit. roep de minister op tot actie! teken op via
wat is er met de fc aan de hand?
maar dit kan hij als geen ander. kansen afmaken.
klaas jan doet zijn naam eer aan. bedroevend.
en mauro dus weer een belangrijke rol
zorg maar eerst dat je eigen club aan het voetballen komt voor te wijzen naar anderen.
welkom bij het opportunisme dat voetballerij heet.
nieuwe trainingstijd 31,5 km gefietst in 015635, 16,21 km/u
nieuwe trainingstijd 46,9 km gefietst in 013739, 28,82 km/u
nieuwe trainingstijd 47 km gefietst in 013508, 29,64 km/u
nieuwe trainingstijd 48,5 km gefietst in 014145, 28,60 km/u
nieuwe trainingstijd 46,9 km gefietst in 013623, 29,20 km/u
nog steeds niet. maar wel enthousiast over deze statistieken.
schwaab, brenet en pereiro dit seizoen in de basis dus. geen twijfel.
waardeloos. obispo en paal er in zetten. en luuk.
een paradoie op... ja. waarop eigenlijk. wat een dramavoetballer.
schwaab heb je in dit soort wedstrijden helemaal niets aan.
en volgende week az fey en hee ajax. en koploper?
geen beste stut. kijken ipv doen. 12.
wel een lekkere goal hoor
fuerza mexico nu al moment van de middag.
nog uitblinkers aan psv kant?
op termijn ja. maar wel uiterlijk vanaf volgend seizoen. tijd voor een andere wind
best bizar. ik zou deze twee graag bij psv zien. en bij verlies tegen fey en utr al vanaf eind september.
ik ook ja. zeker na vanmiddag....
ik vraag me alleen af hoe is de statistiek van na een onder weet jij dat
ik ga lekker fietsen. ik kijk straks de eindstand en ga verder lekker niks lezen.
bayern is het voorbeeld. maar of dat goed is voor de competitie waag ik te betwijfelen
de komende maand is i.m.o. cruciaal. ook voor de rust om de club, de achterban. alles staat of valt met de resultaten.
ok. dan snap ik hem. in mijn ogen wel, na zweden uiteraard, de grootste concurrent. denk dat zij tweede…
thanks! jij hebt dus al veel plezier gehad!
grieken hebben evenveel punten.
goed helder verhaal!
ik geloof in geluk van guus meeuwis samen met ilse de lange. morgen live in
nieuwe trainingstijd 47 km gefietst in 013625, 29,25 km/u
nieuwe trainingstijd 47 km gefietst in 013207, 30,61 km/u
nieuwe trainingstijd 47 km gefietst in 014037, 28,03 km/u
nieuwe trainingstijd 47 km gefietst in 013549, 29,43 km/u
en mark!
en mark van bommel natuurlijk!
vraag me af of er in de jupiler league überhaupt een club is die een hogere begroting dan de transfersom van cassiera
de keeper van vitesse is pasveer.
doet hij ook mee?
de 17 mln van jong ajax zorgen voor de goals
is dat pech? hij voegt toch helemaal niets toe aan dit oranje?!
dan ben ik het weer volledig met je eens. hoewel ik ook denk dat dit team niet in staat is om te consolideren.
ik doe ook andere dingen dan alleen voetbal volgen en kijken. misschien is dat het
maar hoe groot is de kans dat je nu 3x wint. als je in de eerste 7 wedstrijden ook maar 3x wint...
ok. en eerst onderling resultaat neem ik aan?
slechtste nr 2 plaatst zich niet voor play offs?
waarom wel. waarom is doelsaldo belangrijk? telt toch eerst onderling resultaat?
en bij nederland geven straks de scheidsrechter de schuld vanwege de rode kaart... totaal weggespeeld. en frankrijk was nog lief.
frankrijk speelt met nederland. ongelooflijk. 1 ding blijf ik me afvragen. waarom mag robben niet aanvallen?
voor deze wedstrijd nog nooit van lemar gehoord. heerlijke voetballer
met drie nederlagen wel ja
rond 24 september weten we meer. na hee, fey en utr
met 1 belangrijk verschil. frankrijk speelt nu thuis. niet te onderschatten voordeel
tweede helft kan alleen maar beter?
utrecht + psv in top drie bedoel je.
het is wachten op de 01
en daley kan het weten...
zijn we het hier iig over eens.
ik ga kijken. even uitgediscussieerd. 1000 mensen 1000 meningen.
was al jaren eerste alternatief. ik zeg niet dat ik het daarmee eens ben hè.
vreemde voorwaarde. financiële positie van psv is dus echt precair. elk geval vele malen slechter dan d…
en psv zal ervaring weerleggen. arias, luckassen, isimat, schwaab en brenet al vele wedstrijden in de benen.
wat is de juiste positie dan??? volgens mij is het andersom. als je grootste talent kee…
eens. maar er komt nog een verklaring. daar wacht ik op
financiële plaatje. geen beter alternatief die ook haalbaar is.
voor sommigen is het nooit goed.
zeg ik ook niet. maar jij zegt meteen dat het geen linksback is. wordt ook steeds door…
omdat als vierde cv obispo een betere optie is? denk dat de wijs vanaf heden afgeschreven is voor psv 1.
ik zijn een na grootste dan.
dat was arthur numan ook nooit. en wat recenter bij fey. rick karsdorp was ook nooit rechtback.
nogmaals, ik ben benieuwd naar de verklaring. ik kan 100 redenen bedenken.
ook andersom, geef paal de tijd zich te ontwikkelen. geef obispo ruimte zich bij de selectie te spelen.…
oneens
hopen op plan a bedoel je? zou een bijzonder slechte zaak zijn
drie aanvallers vind ik nog veel verrassender
ben benieuwd naar de verklaring. en vooral, waarom pas zo laat te laat doorschakelen.
duurde ook allemaal erg lang. te lang blijkt nu
wel verrassend met promes en janssen
betekent dit dat hahn langer uit de roulatie is? of gewoon concurrentie?
ze gaan morgen beginnen met zes weken voorbereiding?
wat een verrassing...
de ene onlogische aankoop na de andere onlogische aankoop en die ene logische aankoop volgt pas bij de volgende transferwindow.
hij kan ook linksback neem ik aan.
is toch niet zo spannend? acht aan negen man achter de bal. alle ballen op robben en evt depay/janssen
nu wordt het pas echt interessant.
zoet onbetwiste basisspeler. de jong niet. speelt zeker mee
die stress zit toch ook vooral bij supporters...
wanneer heeft dat psv problemen opgeleverd?
nogmaals, de nul is vandaag belangrijk. zeker voor het vertrouwen van onze fragiele verdediging.
klopt dat het een gerucht is. donderdag weten we meer.
vertrouwen is belangrijker dan doelsaldo. ik verkies dan toch eerst de nul.
o nee. had die vijfde van fey niet meegerekend
20 is ook genoeg toch?
niet te hopen
eens. obispo speelt op dezelfde positie dus het is nu of nooit voor de wijs. ik vrees nooit
de wijs?
nieuwe trainingstijd 153 km gefietst in 052237, 28,45 km/u
nieuwe trainingstijd 48 km gefietst in 014453, 27,46 km/u
nieuwe trainingstijd 70 km gefietst in 022609, 28,74 km/u
nieuwe trainingstijd 154 km gefietst in 062106, 24,25 km/u
nieuwe trainingstijd 67 km gefietst in 022007, 28,69 km/u
bekijk mijn rit van op strava
heb jij enig idee hoe de verhouding eerste of tweedejaars a bij beide teams is. oftewel, he…
duidelijk de vierde in de rangorde dus. jammer dat hij geen serieuze optie is. verhuren afschrijven in mijn ogen
dat gaat dus geen vervanger worden. kijken of... in een paar dagen. direct handelen of niet. wordt dan…
dat biedt niet zoveel vertrouwen.
en direct na de interlandbreak een ontzettend zwaar programma.
wanneer wordt er doorgeschakeld?
de zgn toptalenten vielen mij niet mee. dit zijn de duels om je te onderscheiden
psv heeft veel moeite om bal in de ploeg te houden.
ook sam lammers en gudmundsson vind ik niet overtuigen.
ik ben benieuwd of deze wedstrijd van jong psv ook kijkt. en blinken zeker niet uit. dat is de eerste stap richting 1e
wanneer schakelen ze door?
lat toch?
ik vind jong wel onderliggend. ze hebben veel moeite met het druk zetten van gra
beide top vijf dit seizoen in mijn eindstandvoorspelling.
dan ga ik er zo goed voor zitten.
al met al vier/vijf selectiespelers. die bij elkaar 20 wedstrijden in psv 1 hebben gespeeld?
kon wel eens outsider om de titel worden. die ploeg zonder tegengoal
volgende week zien we de kracht van nac denk ik. psv zware seizoensopening. met volgende week de volgende angstgegner
ik mis moreno. dat moet opgelost worden met een nieuwe sterke linkspoot
knappe prestatie vind ik
locadia houdt zijn basisplaats niet lang vast. na 1 september weer de jong.
eerst volgende week nog winnen. alleen 9 uit 3 is voldoende
jij trekt sowieso elke beslissing van cocu in twijfel
vreemde wissel. defensieve zekerheid inbouwen bij 20 achter
benieuwd of de trainer daar ook zo over denkt...
ajax wil hem eerst een jaar verhuren aan fortuna en wil hem daarmee paaien bedoel je?
dat laatste ben ik ook zeker met je eens. had ik geloof ik al gezegd.
psv durft niet door te pakken. ajax wel
een dat gebeurt niet. twee dan promoveert de nr 5 bedoel je. de nr 1 is gewoon kampioen hoor.
niet mee eens. voor de kwaliteit van het nl voetbal is dit veel beter. ze kunnen niet promoveren nee.
mooie tocht! ruim 300 racefietsers bij eerste toerversie ronde van de achterhoek
met je eens. maar dat is een reden om regels aan te passen. niet om elftallen te weren.
dus je wilt de kwaliteit uit de jupiler league hebben.. jong elftallen voegen heel veel vo…
is dat knap of is dat geld + cl. ondertussen blokkeren ze de eigen talenten.
berghuis ook vind ik
ben niet kapot van berghuis. geen twijfel over jorgensen
gaan we zien
onvergelijkbaar.
padt die de concurrentiestrijd met room aan mag
inderdaad ja
champions league. fey doet nu nl exact hetzelfde. dure en brede selectie
wie zijn bij psv en ajax geen goede aankopen dan?
psv en ajax kiezen ook bewust voor aanvulling uit de jeugd. bij fey niemand
voor acht miljoen?
dat lachende moeten we nog afwachten.
john speelde vroeger bij psv. die bedoel je vast niet.
resumerend na 10 potjes europees voetbal dit seizoen. 2x winst, 5x gelijk en 3x verlies. alleen prima!
hoop het voor jullie! ten hag op pole position bij ajax en psv denk ik.
bosz, sanchez en klaassen. een wereld van verschil
maar hij liet jong ajax zo leuk voetballen! in de jupiler league!
met vrijwel hetzelfde elftal. dat is nog erger, vreemder. of maken sanchez en klaassen en bosz van…
dat is een koopje voor een van de beste keepers van de eredivisie. opvolger van zoet?
wat verwacht jij? opvolger van zoet al in huis? voor dit seizoen al?
room huren voor een jaar? of gaan ze voor een lange termijn oplossing?
ontzettend lullig voor hem
weer een zware blessure?
volgens een van nederlands toppers doen ze 90% op gevoel. helemaal zien kunnen ze het…
zou me niet verbazen als ajax hem nog voor 1 sep vastlegt. intelligente speler. heeft bijna alles
dat is toch gewoon een spits voor een spits en een middenvelder voor een middenvelder? hoezo eerst dan 442?
en dan krijg je als toetje de overwinning van heracles.
dat is precies de wisselwerking. team dat er voor gaat maakt supporters enthousiast.
als het waar is, laten gaan. de vervanger is er al. links centraal moet een ander komen te staan.
ik denk dat hij dit geweldig in kan vullen. mooi laten staan zou ik denken
paal versterking tov brenet lijkt me. en nog een linkspoot erbij. links centraal.
wel erg makkelijk gegeven
niet elke kans is raak. nu al meer kansen dab in twee wedstrijden el. hoopvol
hopelijk doet paal het zo goed dat hij mag blijven staan.
toen was hij steeds invaller, andere druk?
en als je al zo ontzettend moeizaam scoort als ploeg
toevallig weer bij brenet
slechts 1 verdediger op de bank?
hoi rik, fijne korte vakantie gehad? wil je mij de cijfers van de el nog sturen? of kan ik ze ergens vinden?
is zo goed of zo slecht? of van allebei een beetje? iig zeer overtuigende competitiestart van fcu!
hij zou wel gek zijn als hij zich bezig houdt met externe kritiek. die er namelijk altijd is.
doe mee met het leukste spelletje meer informatie over het nieuwe seizoen op
dat is ook kwaliteit ja. die verbetenheid van bijvoorbeeld guardado. dat is een van zijn grootste kwaliteiten.
jurjus moet zich eerst maar bewijzen. of gewoon de concurrentie aangaan met een evt nieuwe ke…
padt. en......?
grootste probleem is volgens mij de defensie. isimat, schwaab en brenet komen alledrie tek…
padt ipv zoet. sowieso op eredivisieniveau prima vervanger. en multifunctionele aanvaller ipv de jong…
als benfica niet de hoofdprijs wil betalen gaat zoet dus niet naar benfica.
padt ipv zoet? en een goede multifunctionele aanvaller erbij. dan is psv niet minder dan fey of ajax d…
ik neem aan dat, mochten zoet en de jong vertrekken, psv daar directe vervangers voor haalt. hopelijk ook wat nederlanders?!
nieuwe trainingstijd 100 km gefietst in 032541, 29,26 km/u
nieuwe trainingstijd 117 km gefietst in 045349, 23,97 km/u
nieuwe trainingstijd 44 km gefietst in 014644, 24,73 km/u
nieuwe trainingstijd 87,2 km gefietst in 031528, 26,77 km/u
nieuwe trainingstijd 79,4 km gefietst in 031309, 24,66 km/u
eens. maar deze selectie heeft een groot gebrek aan linkspoten. stuk of vier weg. geen ervoor terug.
een linksbenige middenvelder erbij zou mooi zijn!
en de vrouw? dafne?
2250 volgens de chronoloog
vandaag eerst juichen voor de daarna voor
we hebben wel een paar goede linkspoten nodig. hoop ook dat paal zich geweldig gaat ontwikkelen op linksback.
dat verklaart eea.
vreemde wissel als je het mij vraagt.
die trump is slecht voor de wereld.
inclusief deze spelersgroep
iedereen scoort behalve psv.
voorlopig pijlen op zondag op de tribune bij de leuk vooruitzicht!
vraag me af of dat voldoende helpt. ongestraft je twee beste spelers verkopen en niet investe…
en ook dat helpt dus niet. wat wel is een retorische vraag?
moeten we het vandaag nog over hebben? of zullen we het maar gewoon over of de hebben.
humor. ga nog maar even genieten van zuid limburg. nu het nog kan...
ik noem het een topseizoen!
ik ga ervan uit dat er play offs komen.
boek mijn stijl met veel plezier gelezen. veel herkenbare situaties en nieuwe inzichten voor het nieuwe schooljaar!
blijkbaar nog minder vertrouwen in de wijs
ze houden zichzelf voor de gek? ik ben benieuwd naar jouw oplossing. alleen een andere trainer is wat m…
misschien is deze druk op de ketel wat ze nodig hebben. maar zou niet nodig moeten zijn.
dat is precies wat je voor de wedstrijd moet bedenken. pff
ooit van intrinsieke motivatie gehoord?
er komt nog een terugwedstrijd
jij denkt serieus dat dat de oplossing is...
er komt nog een terugwedstrijd hoor...
ik ga zo maar weer verder lezen in kijken of de oplossing al heeft beschreven.
onderweg naar zuid limburg met het eerste album van aan.
het nieuwe seizoen 1718 staat weer in de steigers. kijk voor alle informatie over het nieuwe seizoen op
nieuwe trainingstijd 127 km gefietst in 042009, 29,38 km/u
nieuwe trainingstijd 81,8 km gefietst in 025425, 28,14 km/u
nieuwe trainingstijd 47 km gefietst in 013620, 29,27 km/u
nieuwe trainingstijd 82,1 km gefietst in 030136, 27,13 km/u
ik ook! hou me maar op de hoogte. kan deze voorronde niet zien. probeer bij de play offs in het stadion te zitten.
erg leuk stuk! met plezier gelezen. mijn stijl gaat ook bij mij in de koffer
wie verwacht je nog meer?
t was mooi weer eens in de galgenwaard op bezoek te zijn!
nog een reactie van cocu op de loting gehad?
lundqvist weer topfit?
nieuwe trainingstijd 24,28 km gefietst in 005309, 27,41 km/u
nieuwe trainingstijd 68 km gefietst in 022046, 28,98 km/u
nieuwe trainingstijd 47 km gefietst in 013756, 28,80 km/u
nieuwe trainingstijd 47 km gefietst in 013959, 28,20 km/u
nieuwe trainingstijd 47 km gefietst in 013934, 28,32 km/u
nieuwe trainingstijd 47 km gefietst in 013744, 28,85 km/u
nieuwe trainingstijd 89 km gefietst in 031051, 27,98 km/u
en anders was deze optie weg geweest inderdaad. ik kan het me ook niet voorstellen. room zet je ook niet op de bank
bedankt voor de snelle en goede info en veel plezier en succes in je nieuwe rol.
maar komt hij daar wel aan spelen toe?
lijkt me prima
de besten krijgen vaak een vrije rol!
huh?
en ook een prima goal van
ook een lekkere goal van
heerlijke zaalvoetbalgoal.
of bottas. of............... had kunnen zijn... serieuze journalistiek??
mooie verrassing. dylan groenewegen zal de sprint wel even winnen. zo werkt topsport dus niet. gelukkig niet!
fey. en ik denk dat hij ook bij psv op een shortlist staat.
ik geef huiberts groot gelijk
kan ook prima.
voor 80 miljoen euro vragen. echt bizar.
weet jij niet en ik ook niet. iig bij az blijven en daar doorontwikkelen.
hij kan ook gewoon een jaar bij az blijven. niks mis mee
denk daar anders over
20 mln voor karsdorp ook niet. het verzieken van de markt begint bovenin. niet onderin…
hele terechte opmerking van vraagt twintig miljoen voor hun eigen rechtsback, maar wat az vraagt vinden ze belachelijk.
speler kiest daar toch echt zelf voor. geen medelijden mee. je kunt ook kiezen voor ee…
toch blij dat ik ooit op white hart lane geweest ben!
nee hoor. az wil gewoon de concurrentie aan met de top drie. en dan verkoop je niet je…
lijkt me dat dat ook het signaal is dat az hiermee wil afgeven. zoals eerder ook met janssen. verko…
maar dan zou je het alleen bij max moeten doen. als je dit ook bij hamilton doet gaat het al niet op
nieuwe trainingstijd 92 km gefietst in 031902, 27,73 km/u
nieuwe trainingstijd 47,2 km gefietst in 014044, 28,11 km/u
nieuwe trainingstijd 47 km gefietst in 013838, 28,59 km/u
nieuwe trainingstijd 108 km gefietst in 034527, 28,61 km/u
nieuwe trainingstijd 47,5 km gefietst in 014247, 27,73 km/u