tip opgevolgd! 👍
geniet ervan!
nee mijn collega en ik zijn beide psv supporter👍😃
ohh heerlijk de werkweek beginnen in mijn kantoortje 😃👍@psv
fijn dat ik enige invloed heb op het team 😁😉
yes ik was er weer bij en heeft weer gewonnen en weer gescoord, nou wanneer mag ik weer kome…
fijne wedstrijd!!
in het vak met de letter t?
waar zit jij eigenlijk?
komt goed komt goed!!!
grapjas haha
oké ik ben er!! . mooi plek😂 is er bij de misschien nog plek!? nee hoor ik zit prima! 😁#psvtwe
doe maar een extra weesgegroetje!! 😉
ongeduldig aan het wachten om naar te gaan! 👊💪#zinin
neem je wat vlaai voor me mee haha have fun!
vak kk
dank je wel, ik hoop het!
inderdaad... hopelijk krijgen we het vanmiddag vanzelf warm van het spel van !
ik ben er nu bij dus bij gaat nu scoren!
ja lekker de geur van echt gras opsnuiven 😉 maar bedankt enne jullie doen het goed hoor! 👍
houden inderdaad!!!! 😊
hallo terug! vanaf plek 8 kun je mooi omhoog kijken naar mijn clubje😉👍😜
als ik je zie achter de palen bij ons 😁
met een glimlach wakker worden en denken yes vanmiddag naar allemaal!
😜
zie het nu pas, maar leuke nieuwe foto! 👍
zo klaar met al mijn shit. ik blijf sterk en mag er wezen❤️. kom maar op 👊💪#gameon
woeiiiii as zondag ben ik er in het stadion bij hoor!!! tegen 💪👍👊
😂
was jij mijn advocaat maar 💪👍😇
dank je. ja was fijn gelukkig!
no money
dank je, is moeilijk..
soms mag je bedrijven en instellingen ook wel eens bedanken wanneer ze goed hun best hebben gedaan vind ik ☺️
een super dank je wel voor voor de snelle afwikkeling van mijn probleem. een dankbare alleenstaande moeder zegt dit 👍😘
nope
ik ben er klaar voor!
geen kaart helaas
daar hou ik me ook aan vast
nope
gaat er meer om dat ik dit soort dingen liever niet alleen wil doen
behoorlijk ja. lijkt uitzichtloos, maar kost helaas tijd..
ik bestel de wedstrijden via ..
jawel maar had liever iemand erbij gehad om samen te kijken... ik zit in een dipje momenteel, komt wel weer goed!!
ja heb ik even nodig helaas
ze hebben zowaar weer eens gewonnen, gefeliciteerd! 😃😉
attent dat je ernaar vraagt..
het gaat en daar is helaas alles mee gezegd. ik leef dag voor dag
ik hoop het en ben dan voor allebei, gelijkspel zou mooi zijn
zeer zeker!!
thuis onder een lekker warm dekentje!
zelfgemaakte frietjes zijn de lekkerste!!
als jij meer weet hoor ik het ook graag was idd even 2x kijken waarom zon vliegtuig zo laag vloog 😁
ik weet niet hoe of wat hoor maar mijn ouders zeiden het
ja er landen tegenwoordig ook vliegtuigen in woensdrecht..
super dank jullie wel!
dat hebben we al 3x gedaan!!!
hopelijk zijn ze niet te hacken oid.....
kijk dat levert weer een glimlach op!!
zeg twittervrienden voor ik het vergeet wat ben ik blij met jullie!!😘
echt wel, belangrijke schakel geweest vandaag!
thanks. je moet alleen wel lid zijn van nmlk...
insgelijks al kom je op een wat minder vrolijk moment mijn tijdlijn binnen. desalniettemin welkom ook!
mooie tekst..
voelt als falen maar wellicht zie ik de zon weer gaan schijnen dit jaar
dank je, hulp zoeken voelt alsof ik faal maar hoop op beter
zit momenteel in het diepste donkerste dal van de berg. lief berichtje dank je wel...
heb ik geluk gehad want er stond niemand om de kaarten te controleren vandaar mijn vr…
waren jullie gisteren ook gratis open?
mijn dochter van 6 vroeg vandaag of ze ipv achterham de voorham mocht hebben 😂😂😂
tja ik zorg al in mn uppie sinds eind juni voor de kids. niemand die mijn ex man op zijn vingers tikt...
kijk eens wat ik vandaag tegenkwam in de stad 😎
zal het hem eens vragen inderdaad 😎
omdat ik deze link van een vriend kreeg vanmorgen 😀
gun je bruidsjurk een tweede leven! mijn optie staat er niet bij de fik erin!!! 😈
ja als ik genoeg budget zou hebben zou ik dat direct doen.maar je krijgt bijna alleen bij 2 art ee…
en nu dat ga ik nu nooit meer redden!?!? 😢😢😢
ik begrijp dat de actie voor n raceauto maar as zondag duurt?dat ga ik nooit redden voor mijn zoontje!
1 2 3
ik had jaren een seizoenkaart op de volta side! 😎👍
maar even serieus het lijkt echt op zijn handschrift 😂😂😂en de rest komt om dichtbij de waarheid dus ja 😎😉
lijkt op het handschrift van mijn ex man... kan dus wel kloppen 😂😂😂
een digitale feestgroet voor jullie! 🎉🎊 het blijft de wonderlijke wereld van de efteling!!
met een lach wakker worden. ik hoop jullie nu ook😀 bijna
😢
hopelijk een fijne wedstrijd!
dat is zeker zo maar voor mij is het sowieso lastig om met zn vieren ergens naartoe te gaan. daarom extr…
geen dagje uit naar gewoon lekker thuis. soms is het lastig om bepaalde keuzes te moeten maken, gelukkig zijn mijn kids snel tevreden❤️
😂😂blijft stiekem toch lekker 😊
heel herkenbaar!!
dank je wel alleen dan ben ik verhinderd. ik ga doorzoeken!
nee ook al gekeken. anders gewoon even doorsparen komt wel goed 😊
dat lijkt me ook maar 16,50x4 is voor mij best een uitgave. dus vandaar mijn oproep…
echt? hmm ik ga eens rondvragen! 👍
dat is een goed excuus inderdaad 😉
ja zo kom je natuurlijk niet ver als topsporter... keihard moet je zijn dus als ik zeg we g…
gewoon het derde doelpunten mc laten zien..
tot zo ver mijn vertrouwen in jou.... 😈
analyse is al klaar. lange pases naar voren, op buitenspel spelen en gewoon voor de fun een paar ball…
lang leve twitter 😇
zo voetballen als dit feyenoord ook..
we gaan het zien
ai.. dan kom ik al gauw op vorig seizoen uit... 😉
je bedoeld waarschijnlijk ook van de vele goals!? 😇#feymci
als vrouw zeg ik, valt best mee vind het wel stoer
haha het gaat erom wat ik te zeggen heb hè eric!
staat dit niet gewoon beter!?
haha dit was nog zachtaardig... 😉thanks!
ahhh mijn broer is vandaag , 40 jaar! deze schattige foto laat mijn dag vrolijk beginnen!! fijne dag iedere…
jeetje een middag je als een vip voelen kan ik nu wel gebruiken!!
thanks!! de tijd gaat snel he ☺️
beetje raar antwoord op een tweet van mij.
ahh dank je wel hoor voor de rt!!!
dank je voor de rt, ik hoop dat het gaat lukken!!! 👍
het gelukkig een positieve tweet! 2/2
nee ik bedoelde meer dat wanneer ik dit zou zeggen ik waarschijnlijk opmerkingen zou krijgen waar niem…
als man kun je dit gewoon zeggen ja....
ik hoop het ja!
yups, nou ja ik denk het mijne maar er van 😊
ik heb daar toch een andere mening over
erg ongeloofwaardig is mijn mening...
avondje kaarsjes aan, erbij, aan. meer heb ik even niet nodig. 🙏
spiderman is ook een soort spin he...... 😂
ik hoop heeeeeel weinig. ik hoop dat ze mijn angst wat weg kunnen nemen
ja hey kom jij ze dan weghalen hier!?!? 😁
ik mag hopen van niet....... 😦😦😦😦
tja ze blijven dan wel beter stil zitten 😇
neeee ik hoop dat het mee gaat vallen... 😆
ja moet wel met 3 kids in de buurt moet het niet over dragen aan ze
ja haha maar dan wel eentje waar iedereen vreselijk om gaat lachen vrees ik 😄
tja ik ga ze met haarlak te lijf.... 😂😇
eerder hilarische tv voor jullie... een hel voor mij 😯
waar iedereen om gaat lachen😂
pfff nu snap ik waarom die vrouwen in een burka willen lopen 😁
insgelijks!
jou😇
fijne avond mensen hier op eerste dag na de zit er weer op.lekker avondje nu met…
nou kan beter maar bedankt iig!
ahh lief van je x
zeer zeker!!!
helaas geen budget om naar het stadion te komen maar ik geloof je
inderdaad ergste, rechtszaak, moet nog komen.. nee geen psv kunnen kijken wel teletekst 818 in de gaten gehouden 😀
helaas nog niet..
klopt hoop gedoe...
ik met boudewijn zenden 😇
jaaaaaaa!! 😀👍 ik ben voor...
spijtig inderdaad maar te verwachten, had liever gehad dat en…
kids zeiden net al fijn dat jij zo technisch bent alleen volgende keer de afstandsbediening niet vergeten he 😁
haha met hulp van ja, ik had daar niet eens aan gedacht...
is al opgelost en inderdaad anders maar geen filmpjes kijken maar had het ze beloofd dus dan baal je wel even
vrees van wel 😂
nee dit is gewoon een typische judith actie 😇
maar ik heb hier geen wifi of bluetooth op de speler, werkt het dan wel gewoon?
wel in nederland op vakantie maar toch 2 uur enkele reis terug rijden... balen vooral voor de kids 😧
dank je eric! gaat vast lukken!!
doe ik nu ik ze in mijn uppie verzorg. maar de kids doen het goed nu ze bij mij zijn dus inderdaad…
jawel hoor vooral wat er momenteel gaande is tussen ons. is gewoon zo zielig dat ik er vooral nu maar om lach. 😃
één van de vele redenen.... 😂
bij mijn ex man 😂
haha ik vrees van niet
yep
dat zijn jouw woorden.... 😇
dat ligt aan mijn ex man....
zoonlief van 8 mag ook even kijken naar ook al ben ik voor hij mag met dit shirt gewoon in mijn bed me…
leuk!!!
ik ga eens kijken dank je
met mijn 2 dochters van 6,lekker met zn drieën keihard gillen van plezier!!!
klinkt goed alleen heb ik momenteel de verzorging van 3 kids de komende tijd,weinig vrije tijd over ...
zo juist omschreven door je! dank je..
thanks, hopen dat de zon weer snel mag gaan schijnen! ☀️
inderdaad
inderdaad
hopelijk denkt de rechtstaat daar ook zo over...
thanks! zal het nodig hebben
mijn ex uiteraard....
proficiat!!! en hierrrrr met die chocoladereep😉
hahaha ja dat is het!! 😂😂
gefeliciteerd!!!
hoeveel boeken heeft u geschreven? mijn zoontje van 8 is nl helemaal dol op uw boeken. ze zijn niet aan te slepen hier 👍😁
wow pittig hoor, succes, werk ze!
haha nee hoor 😂
nou mocht jij winnen kan er zeker wel een reep chocolade van af!? 😉
klopt inderdaad
nr 2 !!!
eej toevallig ik zit bij paal 19😁
mag ik weer uit de groep!? 😉😉😉😂😂😂
hmm en wie zitten er allemaal in dan... 😊
is er eigenlijk al een twitter groepsapp!? 😄
me myself and i heet deze groepsapp denk ik 😂😂😉
gefeliciteerd!!!!
tja beter gaat het niet worden vrees ik 😂😂
ik ook vitesse omdat ik vanmorgen toevallig langs het gelredome kwam 😂💪
ook en ze moeten verplicht in een ajax shirt bij de huldiging op de coolsingel staan
is een photoshop
je speelt altijd voor de winst welke plek op de ranglijst dan ook!!!
☺️ nee lekker als je een naschopper van een kluivert in je team hebt😉
nee eerste week bossen tweede week strand
naar de bossen en het strand 👍
voor sta ik altijd klaar !👍💪
ik zeg tegen alle attente mannen, meneer 😀
dank u meneer!
ja op mijn vakantie adres 😉
nee maar vind het gewoon een geweldig feest
nee hoor overnachten daar in de omgeving. komt goed 💪👍
nee 1 maand gratis energie gewonnen!
getsie!!!! dat het maar snel mag genezen!
ach wat is er gebeurd, beterschap hoor!!!!!
koop gewoon een nieuwe
verschrikkelijk...
zijn moeder is dus ook uitschot!? 😂
nee maar snap niet waarom hij niet lekker met die mannetjes van de sgp gaat praten...
gefeliciteerd met jullie dochters!!! uit ervaring zeg ik, pak je rust wanneer het kan en vooral genieten geblazen!!!
maakt me niet uit ik kan ze wel aan 😁
eej zeg daar gaat mijn reputatie 😂😂
nee joh vinger natmaken en dippen, welkom in mijn tl trouwens!
in een schaaltje... mijn kids eten er ook van.. anders had ik hem aan mijn mond gezet 😋😄
ja de hagelslag was best lekker 😂😂😇
haha ik heb de wedstrijd niet gewonnen voor maar een maand mijn elektra nota retour
wat heb je gewonnen!?
dat zou erg fijn zijn het is idd soms te erg voor woorden net zoals de kattenuitwerpselen
maar klopt elke thuiswedstrijd die ik bezocht heb hebben we geen puntverlies gehad!!!
sterkte! na regen komt zonneschijn...
lekker gebraden konijn!!! 😂
mooie route!!
ingevuld!!!! 😃👍
ja als ik had geweten dat het zon goede serie was had ik dat ook gedaan, kwelling nu 😉
nee lastig mee te nemen ook naar mijn werk 😉
dat kan maar ik kan overdag nu niet gebeld worden. lastig als je 3 kids op school hebt zitten
klagen is het inderdaad. ik betaal voor mobiel internet en dat werkt nu niet. anyway ik mail ze wel
extra geld uitgeven voor hun service? no way
na opstarten werkt het 10 minuten oid
mjin 3g en 4g valt steeds uit. heb al opnieuw opgestart. kan de knop data ook niet aan en uit zetten, is er een storing?!
lucky you!!!
ho ho ik heb ook nog een sociaal leven 😉
gelijkspel of winst feyenoord
vanuit breda naar rechts! 😂
gefeliciteerd!!!!!
is weer een top aflevering! veel kijkplezier!
zo herkenbaar...
een prachtig team!!
is echt een super serie vandaag ook de laatste aflevering gekeken!
haha soort van ja,
hahaha true. zou wel leuk zijn om guus een dag te mogen volgen
kunnen wij niet samen gaan dan!? de social media marketing experts 😇👍
ja en nu kom je er achter op wie je kunt rekenen!!
al vraag ik me af of deze wedstrijd al niet is geweest 😇
met mijn ouders en broer. heftige tijden in de familie momenteel. dit zou een fijne dag zijn met ons oude gezin!! 💪👍
en schoten raak. ik was er nl zelf bij in uit uitvak😇 bij verliefd geworden op mijn club nu@psv
op facebook al aangegeven! 💪👍
al mijn psv twitter vrienden zou ik moeten taggen maar ik heb maar 140 tekens 😊😉 gefeliciteerd!!!!
ik wacht op het belletje!
lezen jullie mee!?!?
detail detail het gaat erom dat ik wel verstand van voetbal heb... 😇😀
ho ho dynamische over de flanken spelende mannen bedoel je als ik aan het roer sta!!
thanks alle input van jullie zal ik meenemen! 😉
hey focus jullie nu, het nederlands elftal hoort je te verbroederen, 😇💪👍😊
no problem ik regel dat gewoon voor jou!! 😁
slechter kan echt niet een hey ik weet in ieder geval wel wie ik zou moeten opstellen...
per direct beschikbaar! 💪
slechter kan niet dus tja
i know maar deze app gaf een nieuw streefgewicht aan. ze hadden beter kunnen zeggen dat mijn gewicht nu goed is.
jij ook!
is goed waar gaan we 😂😉
zie dm
haha dan hoop ik voor ze dat ze ook de humor ervan in zien! 😊
een lekker hapje sla ik niet af! het biefstukje dan hè😂😉😋
eindelijk de prins op het witte paard!!!! 😂😂😂😂😂
haha ja hoor was een grapje veel plezier!!! en ps van een beetje beweging blijven ze lekker vers 😂😋
zin in een paardenbiefstukje 😇😇😉
geweldig!!!
prachtig huis en schitterende omgeving!!
we gaan het meemaken 👍👍👍
wat kunnen we verwachten vanavond!? 😊
nou jawel minder zelfvertrouwen, minder gezellig en minder gelukkig.
hahaha das een mooie 😁
minder dan 5 jaar maar hoe ontwikkeld de ziekte zich?
heftig hoor. al lang?
lol😇 ik zal straks wel eens een orka foto van mezelf opzoeken. niet schrikken dan he😊
dat is minder.. maar de start heb je wel mooi zelf begonnen!
haha mensen dachten dat ik zwanger bleef... 😂😂😂😂😂
hoe ben jij zo afgevallen hopelijk door niets ernstigs? ik door zelfdiscipline en meer sporten
ik was 6 jaar geleden een orka! zwanger van tweeling en daarna geen controle op mijn eetpatroon. nu maatje 36!
gelukkig een eind uit de buurt bij mij!!! haha
lekker daar houden dan maar!!! 😇
oehh vlakbij
als je ooit een dubbelmaatje zoekt, ik ben beschikbaar 😊👍
het was eerst mayonaise gok ik!? 😂😂
altijd leuk...
nou die foto van me zweeft nog ergens he 😂
nee was niet mijn stemlokaal....
wat had je dan willen horen dat hij de beste linksbuiten buiten was in de jaren 90....
wij ook alleen wij zien ook hun andere kwaliteiten😇😊
ik een gesigneerd shirt... was toendertijd mijn slaapshirtje 😇😇😇
hallo is wel boudewijn he
grrr maar jezus wat een lekker ding nog na al die jaren!! 😇
haha ik had mijn kleren gewoon aan hoor 😂😂😂😂
nietes van mij is mijn jeugdidool!!!! 😁😁😁
thanks ik ga naast de brandweer straks!
je staat met je tweet op omroep brabant!