kies uit de top 10 meest exclusieve grafkisten en bestel eenvoudig bij pmb grafkisten
iemand een acculader te leen? geen druppelaar
wat vliegt de tijd 😊
frank van der krogt &amp frank van der krogt zijn vandaag jarig. dus bij deze gefeliciteerd heren 😚
eitje
... — eet lunch bij oceans square
eline, mandy, marieke, toine, niek jan &amp claartje van harte allemaal!
allemaal bedankt voor de hartelijke felicitaties en hilarische bijbehorende afbeeldingen! en een fijn weekend voor straks....
voor de niet fietsers, mooi alternatief
makkie zelfs voor bouwjaar 74
cristel, teun, harold, menno en rob van harte gefeliciteerd
duidelijk 😂
is het wachten meer dan waard!
berdine, wilbere, stijn &amp valentijn voor u allen een waanzinnig mooie verjaardag vandaag!
gefeliciteerd voets &amp voets
zo das ook weer gebeurt ...
muziekkwis zonder barry en geeske richting top 10 volgend jaar maar weer niet dan? 😂😂😂
och kijk hier wat een prulleke nog 😍
thomas kon spookrijder op a2 maar net ontwijken ‘hij kwam in volle vaart op mij af, zo eng’
leuk hoor dit 󾌵 — drinkt eten &amp drinken bij kattenparadijs mispoes
avondje lachen — aanwezig bij even goede vrienden | eindhoven bij parktheater eindhoven
gezellig lunchen met elise — eet lunch bij meneer van dommelen
madrileense bedelaars tevreden over champions leagueloting
iemand zon ding in de aanbieding? schoonmoeders is eind vd maand jarig.... en ze vind dit wel een geinig...
lang leve het internet, gewoon hollandisch fernsehen via de laptop, bij gebrek aan schotelantenne in de verder...
ik heb 8 van de 10 vragen juist beantwoord.
wat een menneke nog hahaha, dat is ie gelukkig wel afgeleerd 󾌵
alles komt goed! dat roep ik wel eens ja
samen met mw. bergman — eet lunch bij de rechter
pffff tis wel vruug vandaag... ooh wacht welterusten
hoe ziet jouw museumtentoonstelling eruit?
iemand nog een pmswaaier liggen waar hij/zij niets meer mee doet? dan wil ik hem wel overnemen...
huis te koop de linnenbleker 86 5283 xt boxtel funda
keurige marketing actie 󾌵
vakantie afsluiten met tess en luuk — eet pannenkoek bij pannekoekenhuis belveren
groot dressoir 241cm breed 53cm diep 86cm hoog richtprijs €200,
kom aan utrecht! — kijkt naar fox sports nl
kom ermaar in barry
retweeted bureau74 dit kan dus ook! restyling van je keuken, is de keuken nog niet toe aan...
kom aan... — kijkt naar uefa champions league
met gepaste trots....
warm lenteweer voorspeld voor het weekend
wij beginnen vast...
ff een busje voorzien van een blauwgrijs metallic kleurtje
pappa ik ben klaar om naar buiten te gaan... hmmm oke jongen, maar ben je niet iets vergeten?
heey willem kunde gij da ook? knap staaltje biljarts
speciaal voor marc ... goeie humor
we slingeren m ff aan vandaag, seizoen verklaar ik bij deze geopend!
met mijn grootste vriend...
genieten van het mooie weer...
en maar hopen dat ie niet spuugt!
ff dieren spotten met tess en luuk — at dierenpark ziezoo
op naar eendengat ... file
rick groenewegen mocht het uiteindelijk niet stil worden in de wijk goede aarde, kan je de gasten laten...
tess ik denk dat mijn tand eruit kan... luuk daar zal ik ff een foto van maken dan
psv leek tim matavz zonder problemen aan rubin kazan te verkopen, maar de sloveense spits is niet door de...
de wonderdokter?
gefeliciteerd berdine , stijn en wilbere ... fijne dag allemaal!
oke dan robert van meersbergen ...
sophie bergman, laat maar niet zien thuis brengt m op ideeën
darten met de mannen van gaby yeuvan beers en marisca schellekens — at resort de molenheide
ben benieuwd hoe laat ik thuis ben dan... misschien maar een snipperdagje opnemen
gefeliciteerd martijn &amp tom
voorgelezen worden door je grote neef, twee dierenvrienden
gefeliciteerd alex en harold !
ik ga een aap adopteren
tess papa wil jij dat spelletje op je tablet zetten? luuk jaaaah ikke ook op de tablet! tess even wachten...
waylon je van son
ik wens je heeeeeeeeeeel veel geluk op 1 januari 2014 ! veel plezier op 2 januari 2014 ! veel gezondheid op 3...
je bent welkom 2014, dat je maar geluk, gezondheid en alle goeds mag brengen voor een ieder die dat heeft verdient...
eerste zaalhockey toernooi van tess
zo de eerste 1500cl cola zit er bijna in... bietje dorstig heden morgen
oke... suzanne witte teg mijn pa sorry kerel, je bent te jong
fijne feestdagen allemaal
in dienst bij de grootste werkgever van nederland uwv maar toch lekker wel een kerstpakket dank je guido...
lekker darten kijken...
zo... en dan nu een superluie pyjama dag met tess en luuk
een in alle opzichten emotionele dag mooi afgesloten, wat kunnen verdriet en vreugde dicht bij elkaar zijn...&lt3
hier hedde oew kerstnummer robert van meersbergen
nou barry bent kom er maar in... trijntje dr haar?
keurig adam en florian!
ff opwarmen met taylor. dadelijk onze twee landgenoten nog
een spatie meer of minder maakt geen verschil?
hahaha verdiende loon
we zijn er klaar voor. crea bea dagje met de kids
verkleedpartijtje...
nou kom aan gvd, gas erop
verjaardag bij oma
rosmalen uit altijd lastig? neuh 04 goed gedaan meisjes
ff vogelprikken met fb loze rat en twan en
bam! da kunnen wij ook. ..
ik weet het wel robert van meersbergen ...
geen wifi, maar wel wordfeud
we zijn er...
of het helpt is maar de vraag, maar getekend is ie
mede dankzij old school middeltjes weer wat lucht... verkoudheid met dit weer pffff
kermis 2013 was ook weer een succes
mannenregels wij horen altijd de vrouwenregelsdaarom nu eens de regels van de mannelijke kant. en... alles is...
ik heb een nieuwe foto op facebook geplaatst
beetje absurd inderdaad
nu ook met geintregreerde webshop op onze facebookpagina
nog lekker warm, ff borrelen
ik heb een nieuwe foto op facebook geplaatst
lekker banaantje eten...
even de vakantie afsluiten
hoppakee zo moet dat...
heidi van pinxteren kwam je ventje juist tegen. hij is zo thuis
luuk heeft weer een grote stok gevonden
luuk is helemaal in zijn nopjes .luukie leuk, isse nieje meer bang!
nieuw spelletje zand op je kop
ff appel eten en wat drinken tussen het watergevecht door...
smaakt ook steeds beter en meer keus, aldus een betrouwbare bron
lekker gezwommen, nu ff lekker spelen nog
bloemenfee! met dank aan vivian van kan
file veroorzaakt door geschaarde vrachtwagen, de betrokken personenautos zagen er behoorlijk gehavend uit
nieuwe vriendin gemaakt op de pellenwever
zitten hier ook 26 uur in een dag
familie tol is vertrokken waylon je van son
een brugse zot
ff een drankje in volendam.
hadden geen betere dag kunnen uitzoeken...
zo ff dartseizoen afsluiten met fbloze rat, twan en siang
werkoverdracht zit erop. nog 10 min en dan ga ik in de chillmodus. heerlijk 3 weken vakantie...
goed nagedacht over de naam voor deze app ...
server gecrasht bij kerlensky signing &amp zeefdruk. momenteel per mail dus niet bereikbaar en helaas ligt de...
wat een schatjes! ontbijt, kadootjes en natuurlijk de prachtige zelfgemaakte tekeningen... genieten
eerste keer paardrijden en meteen een medaille!
tess blij met haar grote meisjesfiets. past precies...
lekker lunchen met mijn grote vriend en elise witte
happy bday liesbeth bergman
hoe is t mogelijk! hij schijnt al ff deze mooie morgen...
fijn nummertje
gaat goed komen
project 2 vandaag een transparante folie op een aluminium airstream camper...
ik heb een nieuwe foto op facebook geplaatst
ik heb een nieuwe foto op facebook geplaatst
gewoon naar buiten kunnen kijken, maar toch reclame op je raam oneway vision folie
papa waarom heb jij geen speelgoed? hoppa probleem opgelost !
vanmiddag een uitermate leerzame workshop sociale media toepasbaar voor bedrijven gehad door
allemaal familie van de paashaas
is samen met tess aan t eieren kleuren...
puik staaltje tennis hoor
vandaag lekker buiten gewerkt bij d&ampm holland, gelukkig op tijd klaar, weer sneeuw nu pfffff
prima stukje fact checking door de redactie dacht ik zo...
je stond voor ria bergmanbroeren .... stond p
zo! mijn 14e maart is uitmuntend gestart
van nauwelijks ruimte voor de tv, naar in elke ruimte een tv! haleluja dank u telfort alles aangesloten en werkend...
wat een heerlijk nummer, hebben me nooit zo kunnen bekoren maar deze is fijn hoor!
zin in een rustige vakantie ... nu te boeken voor om en nabij drie weken.
zomer komt er aan, ff workout doen
zeg t maar, wie van de drie wordt t
nieuwe stickers parkmanagement, heerlijk in t zonnetje plakken
wakker! hoewel zit al weer bijna te maffen
uit de oude doos...
huizenprijzen dalen al een tijdje toch? toch eens ff bezwaar maken tegen de woz waarde bij de gemeente, die kan...
ajax wil op barca lijken, of is barca nu fan van de ajax school? afijn beide geen europa of beker meer dus in dat...
over een paar weken klaagt iedereen weer dat t zo warm en benauwd is... maar wat een zeikweer is dit zeg
spandoeken monteren
back to the future? zo deden ze dat eeuwen geleden ook al...
ff relaxen bij t baasje ...
yes! dadelijk sneeuwpoppen maken, ik hoop dat ie plekt die sneeuw
zo daar gaan we weer, lekker aan t werk
haha kinderen voor kinderen nr 5 heet gadgetfreak maar dat is niet waar volgens tess. die heet ketchupfriet hoor!
kinderen voor kinderen op tv, dora op de laptop... multitasken
nou oma ria bergmanbroeren hier in vogelvlucht de gevolgen van je sprookje 1 tess sliep pas om 21.30uur want...
huis te koop de mutsenmaakster 2 5283 nr boxtel funda
hier tom voets speciaal voor u...
vrolijkheid alom hier, geinig karretje geworden...
martijn voets en tom tom voets, fijne verjaardag mannen!
gefeliciteerd!
installeer whatsapp op de computer
waarschijnlijk stroomstoring
alex potters, harold potters, harrie prinsen, kim van stippent en joost van geel allemaal van harte gefeliciteerd...
kadootje van de stagiair, dank je michiel!
dit is mijn psv centennial shirt! maak ook kans op een gesigneerde centennial box
zwemvesten, veiligheid voor alles...
tekeningen maken voor tante pascalles verjaardag. hebben ze zin in!
tekeningen maken voor tante pascalle haar verjaardag...
heerlijk kids wakker om 8.45u, wat een luxe
primeur, morgen voorpagina telegraaf unox meisje 2013 ik gok uit friesland...
gemist bij top 2000 ...
nog even geduld aub...
over drive gesproken.... wat een geweldenaar
allemaal fijne kerstdagen! geniet ervan....
papa mogen wij kleuren? natuurlijk mag dat, die zijn wel ff zoet haha
in de veronderstelling dat het einde naderde, ongeremd genoten van de kerstborrel. word nu onevenredig gestraft majas
ik heb 6 fotos op facebook geplaatst in het album magic fx pandaankleding
hier barry van der bent ...
papa, was dat de echte? hmmm nee tess, oke dan was ie dus verkleed? haha
pfff zoonlief besloot om 4.00 uur dat ie genoeg geslapen had... al een halve dag erop zitten weer nu
ze hebben t dun in de broek in nimwegen, wat een antivoetbal
bankzaken... potje voetbal erbij
echte vent, eten en tv kijken is onmogelijk te combineren
wit is het nieuwe eiken
de jeugd van tegenwoordig
geweldig!
k3 dansmat van sint gekregen.... best wel een succes haha
voorlezende oma heeft volle aandacht!
hmmmm, met terugwerkende kracht herstellen over laatste 20 jaar. levert 40mljd op... einde crisis!
goedemorgen, vandaag wat vroeger beginnen ....
sinterklaas is aangekomen...
acht duels op rij gewonnen, beste rapport van europa
stelletje zakkenvullers! iedereen moet inleveren...hmmmm
gefeliciteerd!
cake gebakken met tess, benieuwd of ie zal smaken straks
tess heeft bij oma ria heel knap een mozaik gemaakt!
hahaha weet niet of het verstandig is, maar in eindhoven kun je je ai phone laten repareren
zo klaar voor man. city ajax. hoop ajax ook
vertel eens iets nieuws... amen.
peesdoekje 6,30x2,70 mtr gemonteerd. is weer mooi geworden
nou oma ria bergmanbroeren tess vond het een superleuk feestje! hier liggen er twee in coma nu... bedankt!
24/10/10 een historische dag, vandaag 2 jaar geleden... omdat ie zo leuk is...
gefeliciteerd frouke maas en tijn maas! fijne dag voor jullie
prima naam voor een dameszaak!
verdedigers hebben we nodig marcel ...
mijn hond krijgt vandaag niets extras, omdat ze vaderdag vergeten is! weet ze ook hoe dat voelt
help! een geit, wegwezen...
pfffff moet nie gekker worden
halverwege! drogen, confectioneren en morgen montage...
zo, lijkt me wel voldoende...
tess pappa ik heb met zonder bandjes gezwemt, en van de kant gespringt! heerlijk...
van oirschot naar liempde via a2? misschien toch tomtom aanschaffen haha
identiteitscrisis? denkt dat ze een koe is, gras eten
gras eten, net een koe
wandelen met joy
na 20 jaar wordt mars wakker...
nieuwe kroonluchter voor printessje
true! boer zoekt degelijke verdediging en wellicht een keeper is een minstens zo succesvolle format, muhaha
hoi niekjan, indien het bewegwijzering betreft voor bedrijven en bedrijventerreinen, dan kunnen onder andere...
graag gedaan
fabregas eruit, iniesta erin das nog eens een bank.... luxeprobleem
half tien, dertig graden heerlijk, volgend weekend weer graag
he wil van der mierden ben je de dag ongeschonden doorgekomen op t veld?
vandaag super feestje en dito bbq bij waylon je van son en kim van son! net nog ff met de kids in het zwembad, en...
lang zal die leven, opa peter 61 jaar...
plekt goed mee dis weer
yes, ut giet aon!
bakken, bakken, smeren, smeren, puffen, puffen...en een bietje drinken. prima weertje!
23 augustus start het dartsseizoen weer, zinin! voor ons thuis bij bar becoloth
haha die rodney klinkt exact hetzelfde als
we gaan zo luisteren naar het volkslied vanduitsland... hoezo we?
sow wederom cool runnings ruud van sprang ...
tja ook hier dus het is elf tegen elf en aan het eind hebben de duitsers gewonnen maar toch goed toernooi! trots op zilver...
kak! bijna van held naar schlemiel, mink....
nou komaan! derinnn gvd
net greet wilders bij bestzoo
waylon je van son en kim van son van harte gefeliciteerd met jullie dochter! fijne dag vandaag
eerste testversie voor de webshop staat online! aan de betalingsmodule voor ideal wordt nog gewerkt
haha go wimlex, hij mag uitspreken van demart, en mag hem tegenspreken! hulde, dat mag hij zeggen lol
eigenlijk zou een bob marley nummer het volkslied van jamaica moeten zijn man!
zo, na gedane rust is het weer goed werken ...
wat betreft tattoos wint 020 met gemak!
matchday! 18.00 uur prijzen pakken haha...
lekker op de trekker op kermis liempde
dank je! was gezellig...
prima verjaardag gehad vandaag, de dag is zonder noemenswaardige incidenten verlopen. hoewel er op de plek waar...
prima verjaardag gehad vandaag, de dag is zonder noemenswaardige incidenten verlopen. hoewel er op de plek waar...
prima verjaardag gehad vandaag, de dag is zonder noemenswaardige incidenten verlopen. hoewel er op de plek waar...
ook verkrijgbaar in het goud...
hup holland hup, belgische hollander judo!
laatste dagje camping, opruimen en toch ook wel weer zin om naar eigen bedje te gaan
jaja en allemaal ff uitproberen natuurlijk! have fun
rennen... wat een gekken zeg, met deze temperaturen
luuk heeft besloten er vandaag een lange dag van te maken, 5.30 uur was meneer wakker....
het is een kleintje, en zegt weinig maar eerste prijs van het seizoen is binnen psv wint in de finale van...
zou ik niet doen, leidt te veel af....
ooit, als je oud bent, kun je je keel schrapen en zeggen ik heb de zomer van 2012 mee gemaakt.. en dan wordt...
ik heb een nieuwe foto op facebook geplaatst
ja hij heeft hem weeeer genoemd laplagne
voortreffelijk!
zolang ze bestaan en niet verdwijnen, zeker mooi
nominatie woord van het jaar? doen met je vrouw
online bestellen nu ook mogelijk via
gert jan verbeek die weet wel raad met opstandige spelers, en altijd goed met jonge talentvolle spelers
wtf?! facebook neemt je identiteit over facebookers! ga naar je fb pagina. klik op about, onder je...
jawel! het staat er echt nederland is wereldkampioen .... robotvoetbal...
een heel huis tot je beschikking maar het liefst samen in de box...
nice strak hoor, modern en ook een tikkeltje abstract... mooie combinatie. hulde voor de vormgever m/v
geesink is in vorm schijnt, dan de tour maar winnen...
hehe die misselijke italiaan van t eklab hebben ze ook gewisseld
helemaal klaar voor de slag bij charkov hoop dat er geschiedenis geschreven wordt
maar ik doe in de toto goede zaken met gomez als topscorer, dat dan weer wel...
als klaasbatjan er maar in staat dan kan ie t wel die robin...
blij dat mathijssen terug is...heeft geen kind aan gomez
als je duipor zo ziet stuntelen, is denemarken zeker niet kansloos
voor de liefhebbers, oranjesloffen
landen met meeste overwinningen in ekhistorie duitsland 19 nederland 17 frankrijk 14 spanje 13 portugal...
elke keer bij het invullen van de ek / wk poule laat ik nederland kampioen worden... nu finale duitslandspanje,...
bad loopt vol, prima speelplaats volgens tess
behangen bij guido bergman en liesbeth bergman is wel mooi geworden, al zeg ik het zelf, zelfs wanneer de lijm...
zelfbediening! wel zo handig...
whaha geniaal, plop nog een biertje gepakt en bestellen die hap!
mooi weertje om jarig te zijn have fun!
deze week nog even er tegenaan, en dan weer een heerlijk lang weekend
toch erg dat je als politicus je partijgenoten het meest moet vrezen
ek lied armin, fijn deuntje
en als mees slaapt, snel papas bier erin zeker?
lekker samen spelen, wat een schatjes
burgers zoo was een groot succes, mede dankzij deze twee apen