de dames lijken idd niet echt op elkaar
veel plezier!
lange rij met stemmers nog bij in
zijn jullie aanstaande zondag tijdens dutch design week toevallig open voor lunch?
geen epaper is vandaag?
ik kan nergens zijn dat de vlucht inmiddels vertrokken is?
dank. balen dat het anderhalve dag van de vakantie kost.
staat vlucht kl0785 nu op sint maarten stil? op jullie site lijkt het namelijk alsof die wel vertrokken is.
uit voorzorg veel wekkers? of doe je er echt een uur over om op te staan?
het is al opgelost door ontvanger een keer uit te zetten.
de netflix app geeft zwart scherm via meer tv en kanaal 200. wat moet ik doen om wel beeld te krijgen?
ik keek snel en dacht heeft hij nou een ajax shirt aan???? maar ik lees dat je aan de andere kant van de bar zit
veel plezier!
lekker zonnetje om straks 10km te gaan lopen
het ziet er niet naar uit dat je je tijdens het ek hoeft te ergeren aan de commentator 😉
voordeur?
al anderhalf uur 😉
helaas goed gegokt!
proost! zal vast goed smaken!
het is gelukt. mist jou wel hoor!
medaille is binnen!
nog een half uur voor de start
hele knappe prestaties van 7 jongeren! ontvangst sportkampioenen ”
alleen jammer dat in de epaper maar de helft van het het interview staat. pagina 39 ontbreekt namelijk.
idd lastige keuze.
brunch, wedstrijd kijken en borrel!
genoten bij vandaag! leuk om een prijs te winnen die top verzorgd is!!
haha, het is een thuiswedstrijd he dus gewoon weer een doelpunt of drie/vier. prijs is een brunch, wedstrijd en naborrel.
leuk he!
thanks. ben benieuwd!
leuk he! heb er zin in! tot morgen.
gaaf!@deverlenging de tweede winnaar is . alle retweeters bedankt en hopelijk tot een volgende keer! succes morgen.
wie is de beste fijnproever??#raaddesmaak deel 1 met en
moet wel oefenen als ik jou wil verslaan!
kleine moeite, groot plezier! met arthur en karlien alsnog de tuin van koos gedaan. ”
zondagavond 1900 studio sport kijken. dat is lang geleden
bij jou? ☺️
gefeliciteerd! knappe dochter!
foto van jou volgt nog wel in oktober als komkommertijd voorbij is
dit is wat voor jou met 2dochters straks wat een creatieve oplossing! hihi ”
aan het gejuich te horen dacht ik dat bv gewonnen had.
weer aan het werk na 4 weken vakantie. leuk welkom van mijn kamergenoten!
trotse tante!
geslaagd voor de bruiloft?
gelukkig wel . ben een passieve gebruiker.
doorstomen of innoveren? de keuze is aan gemeente eindhoven.
vandaag niet in best maar aan de slag bij dag opdracht invulling bedenken voor werkplein mercado
mijn stem zit al in de bus!@gemeentebest de stemlokalen zijn geopend vanaf 7.30 uur”
idd! ben er maar zuinig op cc
­2 favorieten in 1 potje! snel eens proberen! via
ondanks dat lees ik 16 redenen om toch te gaan...
het wordt nog erger wannabe hipsters ondergaan transplantaties voor baard ad.nl via
daar moest ik meteen aan denken toen ik oisterwijk zag staan.
en in combinatie met y?
ja dat blijkt! hoeveel carlas uit oisterwijk ken jij?
grapjes moet je niet hoeven uit te leggen...
alweer afgesproken met carla?
hoop dat het lekker was!
alleen 1 en 4 nog niet gehoord vandaag!
goed bezig! is dat de compensatie voor deze lege verpakkingen
ingeschreven voor voor gemeenteambtenaren in no way back en !
voorkeur opgegeven voor . veel leuke opties! ben benieuwd!
waar ga je naar toe?
dat ziet er goed uit! niet alleen de inhoud maar ook de hoeveelheid
ik geloof wel dat dat lekker wordt! zijn toch champignons onder de courgette? van de week ook eens maken.
de dag duurt nog lang! het kan nog steeds!
heb je alle bureaus uitgeprobeerd?
hier werkt het gewoon.
ik wil graag naar hof van saksen. nooitgedacht om dat op mijn verlanglijst te zetten
vier maar??
via de app registeren kan ook.
ah vandaar. ik dacht vanmiddag al wat doet die antoine hier op de fiets
nog meer mensen in zonder stroom?
nee een argentijn van 21. ga me er niet aan wagen om zijn naam te spellen
ambulance en brandweer op de markt in eindhoven. ziet er niet goed uit voor arnol..
dat is nog eens een mooie uitdaging! gefeliciteerd!
gaan de warmte lampen ook snel aan? of pas echt bij begin van de wedstrijd?
al het beste voor 2013!!
het is koopzondag. maar of alle winkels daar aan mee doen is vraag twee.
dat heb ik helemaal gemist dan. maar heel veel succes daar!
heb je een nieuwe baan of bedoel je een heel ander afscheid?
tapas op het menu vanavond. 1e gerecht is klaar
nog nooit zo veel fotograferende mensen gezien om half negen s ochtends. mooie plaatjes met dit weer natuurlijk.
oh vandaar dat ik verkouden ben
vervelend! beter thuisblijven en uitzieken dan ons ook nog aansteken
probeer al een week in te loggen met nieuw nummer om nummerbehoud aan te vragen.blijf melding krijgen dat nummer ongeldig is
hoop voor jullie dat het smaakt. klinkt lekker in iedergeval!
jammer dat ik er morgen niet ben
maandag nog zonder jas naar buiten. nu toch maar handschoenen aan op de fiets.
in best? want ik zie een aantal brandweerwagens richting station gaan.
weekje vrij maar eens beginnen met het opruimen van mijn kledingkast. rest van de week op pad om nieuwe dingen te kopen
gelukkig dat je er op tijd bij was. hopelijk niet veel schade en gedoe. weet je al hoe het ontstaan is?
dat ziet er lekker uit! eet smakelijk!
goed hè! ik weet nog hoe het werkt.
goede goal!hopelijk scoor je nog vaker.wanda trakteert namelijk voor elke goal die jij scoort!vandaag een lekker ijsje op!succes
beach park texel. lijkt mij wel gaaf om daar parachute te springen
groeiend best beter lezen
2 weken naar bali!
bruisend als altijd! bijna vakantie! jammer dat we zondag niet mee mogen komen. hoe is het met jou?
donderdag loop ik daar ook rond. vertrek dinsdag naar bali.
gefeliciteerd! kom je eindelijk op een leuke afdeling
nee, de iphone app werkt bij mij ook vaak slecht
franca maak je daar blij mee.
smakelijk! lekker daar!
jij bent bij de appie geweest
€34 eigenvervoer en €42 inclusief bus of trein
goedemorgen! fijn dat dit weekend de klok een uur vooruit gaat, nu steeds vroeg wakker.
bijna in den haag. dagje shoppen vandaag!
ocharme, ik lig lekker op de bank!
op naar de overwinning philips stadion
ja de titel is dan psv wint zeer eenvoudig in de arena \o/
op naar de overwinning philips stadion
gaat nu ook aan carnaval beginnen
en toen moest iedereen de ikea verlaten
gister werd er volop geschaatst op het oude meer in son.
volgende keer wat nasi kruiden in je bal doen. tip van oma.
nog 2 en een halve dag dan heb ik ook weekend!
fijn als je dat op dinsdagavond al kan zeggen!
dagje in arnhem geweest vandaag. nog nooit eerder geweest maar het is een leuke stad.
die hamsters van de albert heijn hebben tijdens de bingo zitten snacken
dan zegt er hier 1 over 25 uur gaat de wekker om weer te gaan werken....gewoon even helemaal niet aan denken dus.
park zag er goed uit. huisjes van buiten ook. leuke omgeving.
meubels in huisjes zijn gedateerd maar locatie is goed. enkel een dagje op bezoek geweest daar.
helaas zit in de trein naar best.
oh daar was ik tien minuten geleden ook nog!
daar ben ik met mijn school ook met bus naar toe gegaan. malieveld en daarna stenen gooiende mensen op binnenhof.
jammer dat je moet leren, anders had je voor mij ook wel zon koffietje mogen maken
volgens mij hoorde dat inderdaad bij de 2e fase. 11 jaar geleden alweer voor mij.
veel plezier!
ik merk het. straks vanaf laptop maar opnieuw proberen.
en waarom kijk je bedenkelijk?
maandelijkse test.
je kan de communicator gewoon terugbellen als je hem gemist hebt en alsnog deelnemen.
hier couscous dus ook geen pizza. voel je je nu iets minder zielig
leuke bruiloft van amy&niels gehad. nu en masse weer naar brabant.
ik was voorbereid op grotere drukte. viel op zich mee.
inderdaad een leuke wandeling.
toch ook maar een rondje glow doen.
tijd voor een borrel!
lekkere traditie worstenbroodjes nadat de begroting is vastgesteld.
top drukte op de tennisbaan. uur wachten voordat we de baan op kunnen.
spullen vergeten of delen van het weekend kwijt?
leuke wedstrijd . nu op naar eindhoven om naar psv te gaan.
op bezoek bij newborn jasmijn. wat zijn babys toch lief!
dan zit je op vrijdagavond ineens de film van de smurfen te kijken.
heb er een nachtje over geslapen en ik ga het doen! straks even kijken of ik toevallig een gewone winkel kan vinden.
ah bedankt. zag net op de site dat het bij 11 begint ipv 14.
stond er laatst niet een aanbod daarvoor op intrabest? of was dat alleen in best?
zonde dit.
update telefoon schiet niet op dus dan maar zonder telefoon op pad. das wel afkicken vanavond hoor
goed begin van het weekend met nachos en een wijntje op terras in de zon.
gefeliciteerd met je verjaardag!
blijkt omgeving van maastricht te zijn.boerderij met uitzicht op groen, kippen en koeien.laarsje zouden geen overbodige luxe zijn
op naar maastricht. weekend daar rondhangen.
gefeliciteerd met je verjaardag. fijne dag vandaag!
half uurtje om te koken en dan om 19 uur met bord op schoot ned. 1 kijken.
gefeliciteerd met jullie trouwdag!
perfecte dag vandaag voor bruiloft kasteel henkenshage. heb er zin in!
valt wel mee hoor. doe alleen inchecken als ik mijn telefoon toch aan het gebruiken ben. niet speciaal er voor pakken.
ik heb teveel verhinderingen dus dat gaat niet lukken. was anders wel leuk geweest om mee te doen.
gefeliciteerd! fijne dag!
weer verloren met tennis. dag ranking!
doorweekt ipv gestoomd vlees zelfs
net verloren helaas. scheelde niet veel, tiebreak in derde set.
oh begint dus gewoon al om half 3. ik zou pas om half 5 gaan kijken.
dadelijk 1e tenniswedstrijd in de clubkampioenschappen. valt nog niet mee na een paar uurtjes slaap.
maandag maar weer gewoon werken, damn
op de dag dat ik miljonair zou gaan worden ben ik mijn staatslot kwijt
haha! smaken verschillen dus!
goed idee die ijsjes! en lekker ook!
vanmiddag opeten!
boobies maken
bedankt! helaas nu paar uurtjes binnen. daarna lekker op terras.
zometeen vrijgezellenfeest. besttilburgeindhoven op het programma.
mijn weekend begint eerder dam verwacht. i like! nu lekker de zon in!
sinds 8 uur niet meer buiten geweest,is het nu zo lekker dan buiten? dan ga ik ook maar genieten!
gewoon doorwerken of de stad in gaan
ja denk het wel.
die helicopters zijn hier in best ook goed te horen.
ik hoef eigenlijk niet te vragen of het feestje geslaagd is hè?
en hoe vond het? in iedergeval vaak kunnen juichen!
thanks! vanmiddag pas open zie ik. wat moeten ouders op zondagochtend met hun kinderen doen dan?
wat is een leuke speeltuin voor een 2 jarige in of omgeving ?
boodschappen doen. de vraag is nog geen inspiratie.
zon ochtend dat het moeilijk is om op te starten na een gezellige borrel avond.
in plaats van een leuk reisje voor een uitwedstrijd boeken nu het huis maar poetsen.
thanks, komt goed! jij ook al las ik net.
altijd fijn om aan het weekend te beginnen.
aan het hardlopen over de brug van de a50?
kom je niets vermoedend in best aan is de hoofdstraat veranderd in een crime scene.
nee is niet voor mezelf. zus wil met een vriendin spaans gaan leren. weekendje daar naar toe is ook leuk
heeft er iemand toevallig een appartement te huur in madrid van 318 tot 31102011?
aliens zijn totaal niet mijn ding. dus ben geen goede graadmeter
nee ik zat bij de sneak bij cowboys&aliens en nog wat indianen.....
zat in de sneak, niet bij super8.
cowboys & aliens in 1 film. wie verzint zoiets...
groene golf op de bosdijk snel in eindhoven zo.
heb er nu geen moeite mee dat mijn telefoon verkeerd zit. prima dag om niet aan het werk te zijn.
komt goed! ik sta vanavond op de tennisbaan dus oppassen met die hockeyballen he
volgens mijn iphone is het nu bewolkt in best terwijl ik heerlijk in de zon zit!
ja smaakte erg goed! wel nog oefenen met rollen nog. las dat je een weekje vrij bent. ik ook, lekker hè!
best relaxed om weer eens op het balkon te eten en te zitten.
bedankt! smaakt ook goed. alleen nog ff oefenen met rollen.
ah vandaar. wel handig dat dat allemaal zo flexibel kan!
een schooldag wel maar een werkdag..
mijn zelfgemaakte monchoutaart doet het goed bij de omas
nieuwe ronde, nieuwe kansen! en een nieuwe plaats vak h ingeruild voor vak j. philips stadion
heb je gelijk in.ik ben een weekje vrij nu en geloof heilig in het spreekwoordje krijgt wat je verdient. komt goed met de zon
volgens de telegraaf komt de zomer er vanaf as maandag aan. daar zit je dan zonder tafel
nieuwe hardloopschoenen doen het goed op de loopband. binnenkort maar eens buiten gaan testen.
duurt nog even voor die wedstrijd is hoor! eerst andersom
zelf net anderhalf uur gesport en dadelijk weer voetbal kijken
irritant ja. maar dat is volgens mij niet de officiële pagina van psv
dat is fijn
daar gaan we dan... foto de boer pic
eens kijken of hier wat te beleven is de dijk, volendam
gaat zo mosselen met friet eten. past wel op zon druilige dag.
kilometers gemaakt in de sportschool. maar buiten sporten blijft toch leuker.
weer een werkweek voorbij gevlogen. weekend nu!
ondanks de regen blijft de muziek op extrema doorgaan. mensen moeten daar inmiddels toch wel als verzopen katjes rondlopen.
toetje. niet homemade maar wel lekker ijs
goedemorgen. mijn dag begint met een uurtje sportief doen in de sportschool.
regenponcho aan en op naar het werk. zo kan het ook
ondanks dat het al een tijdje stil is hebben ze wel twitter
geen weer voor jou om naar buiten te gaan. wz is terug na 4 wk vakantie en wilde meteen via mijn hyves fotos bij jou zien.
was toch wel leuk. hebben een voeten workshop gedaan. mijn voetjes voelen nu heeel zacht aan.
op naar een mylene party. ja die bestaan blijkbaar nog.
gefeliciteerd met je verjaardag!
dinsdag was er al een grote delegatie in speelheide. gaan ze echt heel best bekeren.
ontbijten in het zonnetje op balkon
volgens mij is dat account fake, weinig volgers.
nog niets gepland. zelfs niet wanneer ik vrij neem. kan dus nog niet aftellen. maar dat komt goed. werken is ook leuk
hier in best alles goed? met jou ook? lekker aan het genieten met de kindjes?
fijne vakantie, geniet ervan!
gefeliciteerd!
veel geluk in je nieuwe huis!
ik bedoel dat in de zin van 4 dagen vrij. heeft niets met wandelen te maken
mijn vierdaagse weekend gaat nu beginnen.
im at smalle haven eten en drinken smalle haven, eindhoven
ik gooi ze van de week af.
nee ik niet. wel veel andere collegas die je er blij mee kunt maken!
boodschappen doen met honger veel dierenplaatjes
eigenlijk moet je nu op het balkon een lekkere salade kunnen eten ipv stamp
weer eens wat anders pittige bloemkoolstamppot met tonijn.
pizza van marko om het weekend af te sluiten restaurant napoli
jij bent inderdaad goed bezig geweest! ik wilde eigenlijk gaan tennissen maar dat kan niet in de regen
en net op tijd binnen weekend beginnen met een glaasje wijn plop
ja ik zag de foto al voorbij komen. wat een poepie zeg!
gefeliciteerd met met de geboorte van jullie dochtertje! er volgt binnenkort toch wel een foto he
de eetclub kijken. tafel vol hapjes en wijn
sportief begin van de dag laco sportcentrum kroonenburg
weer een lange dag meteen maar gaan sporten anders kom ik niet meer van de bank af.
de twins groeien goed dus! betekent dit dat je nu ook moet gaan shoppen
wat is dat toch met mannen, korte broeken en lange sokken ....
het is nog rustig op aqua best. lekker relaxen in de zon vanmiddag!
borrelen in eindhoven. hopelijk is er nog een plekje op een terras.
net lekker getennist. fijn weertje ook om op de baan te staan.
grappig om te lezen wie jouw moeder is. heb voor werk contact met haar gehad. de wereld is klein
goedemorgen. op naar de 30 graden!
frietjes met een frikadel speciaal.
wat vervelend die brand! hopelijk valt de schade mee!
volgens de belg wordt het wel erg koud woensdag
thee?? het is weekend en
viel niet mee om tegen de wind in te fietsen...
nu ik het weer terug zie. schaam via deze weg dan maar heel veel succes!
dacht vanochtend gelezen te hebben dat het vandaag niet je allerlaatste dag was.maar dat heb ik dus helemaal verkeerd begrepen
waarom zit ik eigenlijk naar te kijken ....
onverwachts vanavond nog een nacht en dag naar oostende. nog 15 minuten om wat spulletjes te pakken en dan gaan we al.
man bracht het leuk. duurt een uurtje. verwacht er niet teveel van maar dat bedoel ik ook weer niet negatief
lekker uitgewaaid op dn solex.
om 11 uur aan het bier bier brouwerij oirschots bier
wij moesten opschieten en jij gaat als laatste naar buiten
is zon motorische ezel ook goed voor het milieu
er zijn leukere dingen dan s ochtends vroeg door de regen fietsen.
toeterende autos mat ajax vlaggen in uden.
gister ook gegeten daar. erg lekker. geniet nog!
onderweg naar soho. sushi avond!
ook maar even afstemmen op nederland 1
een zondagmiddag zoals ie bedoeld is zon, kaasjes, worstjes en rosé.
gefeliciteerd met je 36e alweer!
iets met achter de wolken en een zon in best.
was een leuke dag. nu een restaurantje zoeken. heel veel plezier op de camping!
onderweg naar rotterdam. weer eens winkelen enzo.
eens kijken of afgelopen maandag echt de spannendste csiny op tv is geweest.
er zijn idd mensen waarvoor dit al 4 maanden gewoonte is...
best lekker om op woensdag aan het weekend te beginnen.
decadent met de auto naar het werk vandaag
gewerkt, gesport, eten gekookt, gegeten. jammer dat afwassen ook nog in dit rijtje hoort....
goedemorgen. ontbijten, opschieten. om 13 uur alweer naar eindhoven. laatste thuiswedstrijd
koninginnedag gaat verder in best. druk binnen en buiten in t knooppunt!
ja was echt leuk! bij jou ook? nu nog even door in best.
ja idd. vooral op markt en stratum gestaan.
best veel mensen die naar huis willen
im at gemeentehuis best raadhuisstraat 1, best
hey heb je het mooie best verlaten voor utrecht?
ik zit bij de kapper!! moet jij ook niet een fris koppie hebben voor de reis?
haha bijna goed. naar oirschot gereden en daar alles gedaan.
ja wist het echt. helemaal omdat je daarvoor op de trainspottersplek had ingecheckt.die zondag krijg je ook een biertje van mij!
nog even een uur geroeid, gefietst en op de crosstrainer gestaan. geeft weer energie.