daphne koster aan tafel bij is als zout toevoegen aan een zak chips. het kraakt maar zit nog steeds meer lucht in.
kan rtl duitsland even oprotten met die schijtreclames. echt een eeuwigheid iedere keer. lekker kijken...
hoe kan het zijn dat van de 7 autos die ik gereden heb, 6 daarvan meldingen van lage bandenspanning hadden?
eens kijken wat te vertellen heeft over dat wat digitaal is en of we het bij kunnen houden.…
daar is niet genoeg ruimte voor. maar ik zal via de officiële kanalen mijn ongenoegen kenbaar make…
de kan letterlijk niets goed doen. collegas spreken chinees tegen elkaar lijkt het, zonder dat ze elkaar begrijpen.
het heeft even geduurd maar ik stuur nu ook gifjes van katten naar collegas
dat moment dat je we hebben u gemist, we komen nog een keer leest van je pakket maar er niet eens is gebeld terwijl je thuis bent
kunnen jullie bij een track &amp trace meer zien dan ik als klant? t&ampt is al sinds 308 niet geupdate en ik weet dus niet hoe of wat
belgië 90 voor tegen gibraltar. als dit was, was die score omgedraaid. precies, zo waardeloos is oranje.
dit nederlands elftal is niet eens waardig voor een nk. een eersteklas aanfluiting, tegen frankrijk of niet
ondanks dat ze 60 voor staan is die rode kaart van witsel een keerpunt in de wedstrijd. alles is weer mogelijk
tsja, wat kun je er over zeggen... is spannender dan daar is het 40. kan nog alles gebeuren. bij nederland gebeurt niets.
het lijkt er op dat eindelijk de naam van hun shirtsponsor waarmaakt
het is natuurlijk gek dat ik een product afneem maar vervolgens ook geen snelheid heb om hd digitale tv t…
om je een indruk te geven hoe fantastisch mijn internetsnelheid is. net 4 uur gewacht op een upload van 85 mb. klasse!
mijn t&ampt meldt poging tot bezorgen maar de receptie heeft niets gehoord en er is geen briefje achtergelaten. waar is mijn pakket?
alles wordt beter met een giphy
ik stond net op t punt om je onvriendelijk te noemen. herstel het…
je hebt wel 125 mensen die wachten op een antwoord 😂
hiep hiep hoera voor de wat een waanzinnige prestatie. topsport op zn best. perfect toernooi gespeeld
maximale prikkings als het even kan
come on . nu al een cruciale wedstrijd. er op en er over! forza psv!
goed om te weten. dat nummer is voor een vaste lijn maar ik werk overdag buiten eindhoven. online we…
is het mogelijk in 1 afspraak zowel rijbewijs en paspoort aan te vragen? ben niet in de gelegenheid 4x vrij te vragen. dank!
zeg wat je wilt, maar de doen het op dit moment gewoon beter dan de mannen. geen vrouwenvoetbal. gewoon voetbal
is zon kortpittig kapsel nog functioneel ook nog. bravo vd sande. topgoal.
als oranje wil zien hoe je mannelijk voetbal speelt, kijk naar het van onze oranje leeuwinnen.
het maakt echt geen bal uit waar je fan van bent of wie je favo speler is. alles verdwijnt voor dit verschrikkelijke nieuws
wauw en na 3 jaar nog steeds geen oplossing. jammer! neemt de efficiëntie van de rit wel wat weg . maa…
waarom beschikt de ic brussel niet over wifi? ik reis 1e klas en had graag wat werk gedaan.
onze belgische ic gaat terug naar brussel maar bussen kunnen ons naar rsd brengen. gaat er wel wat uit rsd dan?
dat begrijp ik. maar jullie zouden dan de laatste zijn die er over tweeten. bekend is het toch wel.
oké het is dus een bommelding in roosendaal. misschien handig het bericht even te updaten. lekker pittoresk hier in essen.
beste nicky, ik zal zometeen via dm de gegevens doorsturen! dank!
ik heb recentelijk producten bij jullie besteld maar nog geen bericht gehad voor installatie. kan dit voor 186 a.s.?
ik wil mijn account maken maar als ik een paswoord ingeef en bevestig klopt de laatste niet ondanks dat het gelijk is. help
zijn de arme jongens al moe? niet zeiken. gas op die lollie!
de commentator spreekt zoveel over de hoogste divisie in luxemburg dat ik nu geïntrigeerd ben. ik hoop dat fox de rechten aankoopt
kan mij uitleggen waarom ik in hemelsnaam €8,35 moet betalen voor een knullig aangetekend briefje? onverklaarbaar in mijn ogen.
er zit meer snelheid in dan in de wel een lekker warm dutje gedaan net. niets gemist.
ik ga verhuizen naar de belgische buren en zal dan niet meer met de ns reizen . dm volgt!
ik wil graag mijn doorlopende ns daluren kortingabo opzeggen. kan dit eenvoudig online? ipv aangetekende brief
als advocaat dadelijk weer aangesteld wordt als coach lach ik mn onderbroek uit. die man is voor eind 2017 weer weg, onderweg naar meer geld
als zelfs de ligt duels overtuigend wint kun je wel concluderen dat schalke de slagkracht heeft van een dood kuikentje.
dankjewel. alleen woon ik in het puntje van zuidlimburg dus zijn deze net wat te ver rijden. enig idee wanneer het opgelost is?
vooral de salontafel 703.354.86. ik wil ze graag even zien, maar nergens is nog fjällbo beschikbaar, zelfs niet in belgië
wat is er met de fjällbo serie gebeurd? nergens op voorraad en dat is al een tijdje zo. heel jammer
ik heb de eerste vijf minuten van deze kraker gemist. kan iemand me vertellen of er sprake is van een grimeffect?
gibraltar heeft nog meer kans het halen van het wk dan nederland. het is diep treurig
de ligt heeft in de rust te horen gekregen dat hij de nieuwe bondscoach is
thanks voor de welkom bij tmobile mail. sinds december klant. beter laat dan nooit zeg ik dan maar.
were stacking zingers over heeeeeere 🤠
in 98 haalde rosenmöller 11 zetels. moet je nagaan. toen was jesse klaver niets eens geboren
ik ben benieuwd of jesse klaver zo lang op mag blijven van zn moeder
valt me toch tegen dat geen van de winnaars een mic drop doet na de toespraak
campagnebijeenkomst op het strand en een campagneleider die sjoerd sjoerdsma heet. hoe kun je nou niet op d66 gestemd hebben?
goed schoeisel en zeggenschap over politiek. taak vervuld ✔
het station van brussel.
ik word zo doodmoe van jullie he. hou je admin eens op orde, iedere keer hetzelfde gezeik. wat een waanzinnige ballentent
suarez kan goed versieren. ik weet al wie ik ga bellen voor mn kerstboom dit jaar.
gezocht het elftal van psg van vorige week. afleveren bij camp nou in barcelona bij vondst.
het lijkt er op dat psg zn wondersloffen thuis heeft gelaten vanavond
ik wil toch even laten weten dat de valentijnskaart die ik besteld had vandaag bezorgd is 😂 ik had mn geld al terug 😉
dit zijn van die wedstrijden dat je als psvfan dat hele comazuipen wel begint te begrijpen
koert is er klaar mee
eerst naar en kijken en daarna naar en is als eerst op safari gaan en dan naar de kinderboerderij
waarom als ik op 6! februari een valentijnskaart bestel wordt ie alsnog te laat verstuurd? erg jammer.
zaterdag bij eens informeren of en dat hele trance gebeuren nog wel zo leuk vinden v.
interview wilders tentoonstelling stompzinnige politieke prietpraat zonder onderbouwing en vervelende televisie.
mensen die lucky schrijven over zitten een andere wedstrijd te kijken. stop met praten. betere ploeg wint. punt.
ik had geen onderzoek gedaan vooraf. weer iets geleerd
toch niet de beste kleurkeuze mijns inziens 😂
ik ben bang dat het kanon ook naar china gaat om daar de sterren van de hemel te voetballen
kan de die studentenparkeerplaats eens fixen. moet nu slalommen tussen kraters om de auto niet te beschadigen.
het kan toch niet zijn dat 14 spelers allemaal vergeten zijn hoe een bal in de goal moet he? psv is een fucking teleurstelling.
als ik een autoreservering maak, kan mijn vriendin deze auto dan ophalen met haar creditcard of moet ik daar bij aanwezig zijn?
kan beter een voorbeeld nemen aan hg. dat doet tenminste wat het beloofd.
kijk liever naar een dubbele herhaling van telstar almere dan naar dit komt van een psv fan. cocu doet een advocaatje ondertussen
psv wint met biernul
ik word erg moe van ik ga wel even naar een duitse kerstmarkt voor fatsoenlijk vermaak
ik stem voor een rotonde. of een chicane. beetje uitdaging op de snelweg kan geen kwaad.
wed mij dat na de winterstop 37 gollasos gaat maken. mits hij steven 100x weet te paneren
hey psv, blijf komende week maar lekker in nederland. reisje madrid mag je overslaan. ontdek eredivisie niveau eerst maar opnieuw
soms lijkt het meer op willem ii psv iii
memphis. doe normaal. je speelt maanden waardeloos of helemaal niet. schiet die bal er in, haal m op en hup, verder met de pot
laat max verstappen oranje maar coachen. die kan wel overweg met regen
sorry als ik te kritisch klink, maar ik vind het maar een matig potje
wat een held
zorgt voor maxi werkgelegenheid in vdl nedcar gaat de nieuwe countryman bouwen. lekker bezig.
iets wat conducteurs steevast zouden moeten doen.
het is echt om te janken bij . maak nou eens een goal man. luuk de jong kan nog geen frikandel in een vulkaankrater gooien.
de tijd is weer aangebroken. volgend jaar blijkt het in strijd te zijn met de rechten van de zweedse langstaarthamster
vanavod speelt ons tegen rostov. hoeveel pannas gaat joshua het kanon brenet geven. ik en vragen ons dit af.
sorry het is een beschikking. opnieuw berekend stond er. verwarrend vanwege irritatie. ik probeer later nog te bellen. dank
nee er zijn wel psg nodig. heeft te maken met een herberekening waar mijn broek van af zakte.
ik belde en er werd gezegd dat er een storing was aan jullie kant. inloggen kan ik wel.
beste hoe lang duurt die storing nog? ik heb dringende zaken te bespreken
forza . balen doen we allemaal. maar toch &lt3 voor mijn club. dan hen maar het schaamrood op de kaken spelen in vincente calderon
het is wel weer gebleken dat de vijfde en zesde official gewoon thuis kunnen blijven. volkomen incompetent
hey scheids. fluiten we een champions league wedstrijd of de amateurs van hendrik ido ambacht? verrekte zak zand
even aanmoedigen. en ik zeggen hup . hup hup.
dit nederlandse elftal is zelfs niet bij machte van het tweede van andorra te kunnen winnen
blij om te zien dat en samen met louise rademakers naar komen in november. trance in limburg 👌
bedankt voor de informatie. hopen dat het snel werkelijkheid wordt 😃
oké dan moet ik een printer zoeken. vreemd dat het alleen via de app werkt. railpockets scannen toch qr codes?
vanavond weer een brexit!
enkeltje mst ehv voor morgenochtend
kan ik mijn eticket ook vanaf mijn telefoon laten scannen door de conducteur? ik heb geen printer bij de hand
hans van zetten is de beste commentator van de laat dat even duidelijk zijn.
ja gisteren heb ik juli en augustus betaald. dan houd ik het in de gaten. dank!
waarom, als ik gisteren een aflossing gedaan heb, veranderd mijn schuldbedrag niet? wat is de verwerkingstermijn?
dankjewel! gaat helemaal goedkomen. next stop scandinavië! de fiesta is in goede handen
de eerste 2000km zitten er op. nogmaals dank voor de topservice. ik ben een blij man!
zomertijd bij de en alles gaat uitstekend. mag ook wel eens gezegd worden.
zo zie je maar weer, je hoeft helemaal niet te voetballen om een finale te bereiken
voetbal is cruq. elftal presteerde geen kut. staat vervolgens in de finale. oh oh wat onterecht.
portugal speelt zo saai dit ek dat ze zichzelf waarschijnlijk in slaap spelen
ik heb echt een onverklaarbare haat tegen dit italiaanse elftal
oké. dit was geen stortbui meer te noemen. ik weet niet wat het was. meer een stroboscoop op de bodem van een waterval
zelfs in barcelona staat bovenaan cc
als onze keeper voor ijsland zou spelen zou hij jásper cillisón heten.
kun je een gedeactiveerde kaart opnieuw activeren? mijn vriendin heeft haar oude nog nog geldig maar laten deactiveren
mijn vriendin en ik reizen naar groningen volgend weekend. kan ik gewoon een kaartje met 40% korting uit de automaat halen?
dat moment dat tennis je eigenlijk geen bal interesseert maar je toch gaat zitten kijken. want kiki bertens.
bedankt voor het draaien van sonny foderas remix van freak like me. shit is aan.
ik begrijp niet goed hoe nederland ineens voor de helft blank staat. wij zijn toch masters van het water?
dat veld bij is van zon kwaliteit waar somerse aspergestekers wel raad mee weten.
als onze keeper uit polen zou komen zou hij jaczper czcilliczcen heten
kan zijn naam beter veranderen in south park central, want dat is zo ongeveer het enige wat ze uitzenden
mensen met een citroën berlingo staan er niet om bekend goede beslissingen te nemen. bewijs ze hebben een citroën berlingo.
zo hé. vraag je dat aan iedereen?
ik begrijp de kritiek op wel. maar goed. titel was gewoon vanzelfsprekend, geen discussie over nodig
op een schaal van 1 tot 10, hoe groot is de kans dat frank de boer bij ajax blijft? oh wacht. er is geen schaal.
het is een half uur bezig. en studio voetbal heeft het welgeteld 5 minuten over psv gehad. de kampioen.
ik word gek. hartslag is niet meer te meten.
jamie vardy doet ook mee met wk handbal volgend jaar. ook daar word hij kampioen
even een banaantje voor de dorst.
volgens mij heeft de lente besteld in noordzweden in plaats van zuidspanje.
even een teruggooidonderdag met en zijn remix van solid stones remember me. vergeten hoe baas die was
ik heb weer intens genoten van deze lente.
die tekst achter op mn nieuwe heritage shirt moedigt mensen achter me in de sportschool wel aan.
gaat het nu om een pool? waar heb ik op gestemd dan?
dit weekend trance eieren zoeken bij en voor . want trance is de beste. vrolijk pasen!
de raket gaat maar de calippo blijft? sommige.mensen snappen het leven niet.
ondanks dat ik vanochtend gewoon een boterham met pindakaas at, bleek deze ochtend alles behalve normaal te zijn...
in nederland worden sommige bekende spreekwoorden anders geschreven, zoals na regen komt meer regen en van de regen in de regen
die pagina krijg ik niet te zien. verbinding ja, data nee
goed je gisteren weer eens gesproken te hebben! hopenlijk hebben de franse collegas je netjes behandeld. klasse set btw!
^kg ik werk hier met een samsung galaxy note 4. het heeft wel gewerkt in het verleden. laatste tijd niet meer..
hoe komt het dat de wifi in de trein nooit werkt op mijn smartphone? 😕
ik en zijn niet bang.
maak jij dikke muziek en draag je een paar nike sneakers? kom dan vooral even langs bij op de om dit te laten zien.
ik en draaien sneakerz muziek in de woonkamer. op onze sloffen. zou trots zijn. denk ik.
vrijdagmiddag. spits. ic naar schiphol met 1 viertje icm. lachwekkend weer. ik hoop dat je er in ehv nog een stel bij zet.
de tweede area bij is echt schandalig. driedubbel astma als je er 1 binnen loopt. kan echt niet. muzikaal wel goed. denk ik.
dit schuif ik niet onder een stoel of een bank.
vind je het erg als ik hier bijna niemand van ken 😂
na zon weekend douched dit toch nóg lekkerder
moet mij eens uitleggen hoe je wel wint van manu, ajax en feijenoord maar vervolgens staat te kranten tegen aspergetelers. waardeloos
het is dat er een logo in beeld staan, want met de interviews bij lijkt het alsof je naar kijkt. heerlijk.
wel graag op een boterham zonder korst.
zoals het spreekwoord zegt op de fiets in je blote kont zorgt voor zin in stevig vlees in de mond
worstenbroodjes gegeten. fijner worden dingen niet snel.
dit is niets dan waarheid
met andere woorden, je was in helmond?
dat was mijn tweede optie. ik twijfelde. net als adam maher wel eens doet.
drie keer bruma?
ik heb een actuele berekening, sinds begin november. verwerkingstermijnen bij jullie zijn echt schandalig lang.
verwerk die beschikking nou eens. dit hoeft geen 3 tot 6 weken te duren. ik wacht al sinds 1 juli op mijn toeslag.
ja maar zo heet ie toch ook? keeper van roma heet ook sesnie
die commentator van doet me weer denken aan goeie ouwe tijd van domino day
mijn collegas vragen zich wel eens af waarom ik niet stil kan zitten. ik luister naar pompende trance. daarom kan ik niet stilzitten.
justin bieber gaat tegen mijn muzikale geloof in. maar dan koop ik toch ook geen kaartjes voor zn concert? doe eens gewoon normaal!
hier is een oplossing, terroristen. als je het westen niet leuk vindt, kom er dan gewoon niet. anders gewoon je klauwen thuishouden
daar wordt je niet blij van na ruim 2,5 uur treinen. maar zeer bedankt voor de vlotte reacties. gaat sneller dan de trein zelf.
ik lees ook van alles, alleen mijn conducteur roept niets om en de schermen in de trein vertellen over schoonmaak
ik zit in ic 869 die om 18.38u is vertrokken uit amsterdam c moest overstappen
ah oké. informatie is een beetje conflicterent. omdat de conducteur iets anders om riep. kun jij het wel verifiëren?
heerlijk. zon bericht als je van alkmaar af komt en naar maastricht moet 😒
gezien de laatste weken is het me echt een raadsel waarom dat weer met maher in de basis start.
ondertussen ben ik ook gewoon heel blij dat de extended remix van van no one can touch you now bestaat. zijn beste werk to nu toe
op posters van de qtop1000 staat avicii vs. queen. kan iemand me uitleggen waarom dat deze poster bestaat?
al een tijd niet meer in de amsterdamse westpoort geweest. nu ik sloterdijk binnen rijd snap ik weer waarom.
ik had er nog een lekkernij bij gekocht 😕
als je niet weet hoe stof ruikt, wacht maar totdat er een bejaarde naast je komt zitten in de trein.
ik heb net mijn tas in het bagagerek gelegd 😐
wil je jezelf een depressie aanmeten? lees dan iedere dag het nieuws. dan heb je m zo.
het regent behoorlijk buiten dus moet ik binnen mijn kroepoek op eten. tegenvallende donderdagavond dus.
ik was net in een kerk met andré kuipers. zou hij nu wel of niet dichter bij god zijn?
was na rust nog slapper dan een pizza uit de magnetron. schandalige vertoning.
ik hou van holland is echt tenenkrommende televisie van een ongekend niveau
werkt de blox 1gb extra ook direct als je al door je bundel heen bent? net ingeschakeld maar nu twijfel ik. heb nog 9 dagen abo
dankjewel! in de weekenden is het in amsterdam vaak echt een lastig verhaal. duimen voor de volgende keer!
in dit geval oost. de westzijde probeer ik niet eens meer.
enige kans dat de ovfiets capaciteit op amsterdam centraal uitgebreid gaat worden? de huidige is echt lachwekkend.
het nederlands elftal is niet eens goed genoeg voor een nk
de wedstrijd is belangrijk, maar laten we allemaal onze sterktewensen en condoleances uitspreken voor topper
het is een mooie avond want de zon schijnt en ik ga naar eindhoven. simpel.
ik heb al vaker gebeld en krijg steeds hetzelfde antwoord wettelijke termijn is 13 weken. dat vind ik schandalig lang.
het feit dat ik al sinds 14 juli op goedkeuring van mijn huurtoeslag zit te wachten is werkelijk belachelijk
joshua brenet een bal fatsoenlijk aan zien nemen is net als een belgische automobilist voorrang zien verlenen. vrij uniek.
ik zwem liever in 4 rivieren tegelijk
beste nederlanden, als ik koud en nat wilde zijn in de zomer was ik wel in ijsland gebleven. de zomer is nog niet afgelopen!
net tegen cska gesimuleerd in fifa met gewonnen met 120. scoort 5x. geld is ingezet. succes jongens!
als je benieuwd bent waar je geliefde euroshopper spullen zijn. ze staan in een ijslandse supermarkt.
kort vraagje treed je aan op ade? als je dat mag verklappen. zou graag nog een keer met je over muziek willen ouwehoeren d
ik was te laat
ik weet nu al dat deze track in mijn top 10 van 2015 gaat. de groove, vocals, het hele pakket is benchmark progressive.
het worden glow in da dark shirts?
ik kom er net achter dat de noorse spoorwegen opereren onder de naam nsb.
misschien is die luvian wel een naam om in de gaten te houden voor chill
ik deelde laatst de original met je, blijkt deze remix te bestaan 0
de vloer in de plakt zo erg dat ik denk dat ze niet willen dat we de voetjes van de vloer krijgen. niet de djs schuld.
vanmiddag zat ik nog in een grot en nu ben ik onderweg naar een feestje. oh hoe het leven kan lopen.
ik en draaien van ongeveer 100 jaar geleden. en wij houden daar van
ik doe een voorspelling. treft arsenal, aa gent en basel in de champions league. alsjeblieft geen oosteuropese ploegen. gewoon niet.
wat een avond hier in lente lijkt zo nu en dan ook echt op
tijdens ons asot praatje noemde je m al. niet dat ik je niet geloofde haha. vocale eindbaas deze jongen
volgens de commentator is dordrecht toch wel een baggergemeente. dat vind ik dan weer onvriendelijk
tijdens had ik het genoegen aan tafel te zitten met voor . niet om te eten.
nog een surprise act in de vorm van faithmore?
de mensen van st. gerlach zijn niet goed in het verstoppen van paaseieren
veel nederlandser wordt een foto niet. molens missen we nog, maar die zijn omgewaaid
overweegt serieus te emigreren naar een land waar ze wel gewoon vier normale seizoenen hebben.
guardado naar beste nieuws van de dag. 2016 in de pocket.
nu wordt de beerput echt opengetrokken als het om gaat. nu heeft ineens iedereen wat te zeiken over zn uitspraken.
vandaag is het internationale dag van de slaap. wat doe ik op kantoor dan?
hoezo duurt het zo lang voordat iets verstuurd wordt terwijl het op voorraad is? verwerking duurde ook al lang.
^lr mijn vader werkt al 25 jaar bij de ns dus dit zinloze geweld komt wel dichtbij zo. tijd voor actie den haag!
ik weet dat het tuig van nl niet op twitter zit. toch n oproep om met je gore poten van werkende mensen af te blijven
dat moment dat je je realiseert dat dat niet zo verkeerd is
ik. haat. microsoft. word.
zaterdag sprak ik namens met . het was gezellig en informatief. lees hier het eindresultaat
die scheids bij is zo de weg kwijt dat ie de route naar zn eigen huis niet eens weet.
absoluut. en tot volgend jaar hè
goed dat ie even vermeld hoe ik over t web moet surfen
zou de italiaanse justitie de supporters ook de schuld geven van dat grote missende stuk in het colosseum?
geldermalsen toch wel de bermudadriehoek van treinend nederland.
kunnen al die terroristen gewoon optyfen? naar een eiland bij de zuidpool en daar elkaars hersenen inslaan. laat ons gewoon met rust.
aardbevingen verwerkt als eerste startup uit groeit
channing is geen superheld. en magic mike telt niet mee
krijgt er twee topinstituten bij in maastricht
moet. zonder spiderman geen civil war. zolang het geen andrew garfield is. nieuwe acteur casten. ?
hard lachen om dat pp van kuzu en öztürk. maar ze zijn van turkse afkomst. maakt dit mij racist? ik zou wel voor de overheid willen werken.
aan de slag bij om eens een groot blik social media te openen voor . werk aan de spreekwoordelijke winkel!
officieel afscheid genomen van na iets meer dan 5 jaar werkzaam geweest te zijn. beste. bijbaan. ooit. wel de 500 gepasseerd d
mijn advies? blom langs de specsavers sturen en terugzetten naar de topklasse. wat een ongelofelijke amateur.
ik en drinken fristi uit een whiskyglas. zo stijlvol zijn wij.
alle mannen opgelet! handig lijstje met tips om je te helpen je te gedragen in het bijzijn van vrouwen.
ik hoorde net peter andres chanson mysterious girl en moest aan jou denken. ik vind dat een beetje raar.
het houdt niet op na de 500. vandaag no. 501 naar zoetermeer. moet er wel vroeg voor op en naar heerlen
morgen is het dan zo ver. mijn 500e rit voor sinds 2009 in dienst, gem. 100 per jaar en bijna 100.000 km afgelegd.
ben benieuwd wanneer begint met de verbreding van de a2 weerteindhoven. altijd zelfde liedje. 14km was de score vandaag.
omdat ik even niks te doen heb tweet ik even dat ik nog steeds in duitsland zit en dat het hier regent. doei.
gewoon lekker
hangt er wat bij. pechtold heeft het over halve zolen en paradijs zwetst maar wat. die andere vrouw ken ik niet. let niet op.
de hema in maastricht is gewoon van 9 tot 27. ze nemen de extra lange openingstijden letterlijk.
ik zag gisteren de jumbo kerstcommercial op tv. ik ben nu nog aan het overgeven.
vandaag geen amsterdam. wel rijen. en houten. en dus ritje nummer 496. houdt me bezig. en andersom.
ik kan op geen manier mijn profiel wijzigen en dus geen spotify gebruiken. programma denkt dat ik in de vs woon.. wat nu?
jezus christus psv, ik kijk nog liever harry potter dan dit soort kleuterschoolvoetbal. rol die portugese amateurs gewoon op
morgen en de klant weer eens een plezier doen met superieure stuurmanskunsten. voor ritje nummer 494.
peperkoek is echt lekker. dit is een feit.
ik krijg whatsappjes uit de toekomst
als beetje meehelpt met de planning kan ik voor het einde van het jaar mijn 500e rit rijden d
is goed bezig vanavond. deze jongen verdiend een extra groot glas ranja na de wedstrijd.
vergeet dan niet om op te schrijven dat je wat op moet schrijven. anders vergeet je dat weer.
ik heb dat vaak met whisky
ik zou bijna met een korte broek aan op reis kunnen gaan. lang leve het oude verouderde materieel p
verwarming is fijn, maar in een mat 64 heeft ie maar twee standen uit of sahara hartje zomer.
gelukkig heb ik vandaag de trailer van avengers 2 gezien, want psv heeft niet echt bijgedragen aan een goeie dag.
understatement van de dag haha
nou steven, goed dat je het vraagt. hier is het winderig en koud.
last night verknipt. shit is awesome. westergasfabriek…
ik ben echt kei klaar voor en ik hoop dat dat ook is. want dit is op volle toeren. en
goeie dj deze jongen hoor. zie je meteen
gisteren de hele dag in belgië geweest. eens te meer prijs ik me gelukkig dat ik in nederland woon
kanos kruimelen echt ontzettend
psv. leer eens een wedstrijd bijtijds in het slot te gooien. tering, je voetbalt tegen schijndel 7 van portugal.
benieuwd of ibrahimovic straks een handtekening wil van veltman
gisteren wilde je nog iemand van zn fiets trekken omdat ze een muts op had. nu profiteer je van dit gedrag.
volgens mij was podolski net zn telefoon gewoon kwijt. wilde nog even een instagrammetje maken
ik begrijp eigenlijk nog steeds niet waarom je niet buitenspel kunt staan vanuit een inworp.
ik moet wel even wennen aan die nieuwe kleine grote speler van youtube.
sinds 2000u pomp ik gruwelijke beats met . krijgt een nieuwe betekenis.
vooral omdat ik posters van lakedance uit 2008 heb
de hits zijn zo heet dat de raam open moet. cc
new cloudcast zuidelijke klanken presenteert nieuwsgierigheid de zevende up now at check it out now!
ik denk ik ga weer lekker zitten voor een wedstrijd van . even vergeten dat het tegen fc bananenrepubliek is.
soms zou je denken dat nederland wel genoeg water heeft. maar het blijft maar naar beneden komen.
sinds wanneer speelt het 8e van schijndel in shirts van psv?
als die verzorger het veld op komt gelopen met die koffer van m lijkt het net alsof ie een orgaan transporteert
oh oh wat heb ik nu al zin in editie 2014. programma is nu al insane.
verhuist naar zweden
is gilette sponsor van de eredivisie? dan kunnen zij toch mooi die nieuwe spuitbussen regelen?
heeft eindelijk de daadwerkelijke functie van een telefoon ontdekt. speciaal voor jou