mijn figuur is zo blij dat ik dat nu pas weet. daar gaan mijn dieetplannen!
en dan een piepklein doosje twinkies mee terug voor deze zeer waardevolle tip. ik bedel gewoon schaamteloos 😇
zekers! leeg koffer inchecken op de heenweg 😇
have fun en shop ze! twinkies zijn mega lekker hint ☺️
geen dutje doen maar wakker blijven tot ong 19.00 en dan lekker gaan tukken. werkte voor mij altijd goed.
joehoe waar is gebleven? we hebben haar nodig!!
kijken/luisteren jullie even mee? horen jullie ons? cc
meteen in gesprek met de juf, info brief voor de ouders met uitleg hoe wat en gevolgen voor kind
pas op. heel gevaarlijk en ik vermoed een complot met 😜 ik ga hier regelmatig los. leuk spul.…
illegale bewoning 8 pers!! op schans 17 en parkeert zo. moeilijk voor ons weg te komen met auto. c…
geniet van je magnum toetje!!!
nee dat is t werk van de piloot. de buschauffeur krijgt ook geen applaus en ik ook nooit
lieve kleine tijn wat heb jij een indruk gemaakt in je veels te korte leventje!
de plakjes in bolletjes gerold en platgemaakt. ong 15 min bakken.
chocodruppels van de lidl en koekjesmix van de plus kan sporen bevatten deeg gerold en daarna plakjes gesneden 1/2
dat de traktatie van je zoon er zo lekker uit ziet, dat je bijna…
je moet eens zien hoe wij autos binnen krijgen 🙈🙈🙈
ik stuur je een dm.
ze hebben goede ideeën. ik wil ook led op mijn betaalpas.
brand valkenswaard zichtbaar 20e verdieping eindhoven
waar blijven de taxis? opa en oma + 2 kinderen staan al een uur te wachten na aankomst 😳
bij tmobile wel. collega heeft onbeperkt internet ook in de eu. 6gb lijkt me genoeg. ik heb 22gb. verdubbeld door kpn. kadootje.
je bundel in nl is toch je bundel in eu? bij kpn wel iig.
is de airport wel goed met de bus te bereiken?
ik geniet. al 34 jaar een mancunian in hart en nieren.
jongen achter mij in t stadion kijkt de gp op zijn telefoon. geef hem groot gelijk
nou nee maar jij sprong er met kop en schouders boven uit!
mijn twitter vind erg gezellig. ik mag niks van hem missen...
op straat verstommen de gesprekken. 2 minuten stil als dankbaarheid en respect voor hen die ons bevrijdde. ik dank allen.
ik ga het zo even melden in de buurt preventie app
zeker omdat ze mijn zoon van 9 in t park aansprak of ze bij ons kon bellen. heb hem ook uitgelegd waarom ik dat niet gedaan heb
gevraagd of ze naar buiten wilde gaan. drie keer. gezegd dat ik t vreemd vond en ze niet mocht bellen…
haar foon was leeg. ze woonde in de buurt. nou ga dan maar lekker thuis bellen. 2/2
zl komt thuis met een vrouw met twee kids. zij moest bellen naar haar man. stapte zo de hal in, maxicosi voor de deur. 1/2
heerlijk. wij hebben ook een app nazi. vooral geen gezelligheid of gebabbel.
mijn pastasaus is toch niet zo pittig dat mijn pan er krom van trekt? 2e x gebruikt en met de hand afgewassen...
ik heb de vrouwgriep! oftewel 12 paracetamol op een dag en doorknallen.
ik draai me altijd om richting keukenraam en schud dan zuchtend nee. die blikken iedere keer. ik zou ze moeten filmen.
het is me gelukt om dat stembiljet weer enigszins fatsoenlijk op te vouwen
gevonden op facebook. dank! ik wacht de reactie van de persoon/personen af. wij hebben iig interesse.
is er nog advertentieruimte in jullie prachtig wijkblad? zo ja bij wie dien ik te zijn?
ik heb t zelfs een x opgebiecht. kinderwagen en zak drop kreeg een extra zak als bedankje voor mijn eerlijkheid.
ze denken hier dat ze allemaal de nieuwe max verstappen zijn dus bij red bull denk ik 😜
zeg nemen jullie alleen asociale bestuurders aan voor bezorgingen?
ik vergeet de 👍 en de 😘 en eentje gaat de avond niet halen!!! top service.
waar een terloopse opmerking toe kan leiden. en aimee!
2x in 1 week naar je hebt wat over voor je vriendinnen. 😇
echt? bij welke winkel dan? jumbo en plus hebben t niet zeggen ze
ik ga me klaar maken voor een tripje naar de winkel. levensverzekering ligt in de la. wens me maar succes,ik ga lopen.
en de bros gevuld met witte chocolade. ben verdorie al drie kilo afgevallen sinds deze er niet meer is!
wij hebben de eettafel weggehaald en een trog gekocht. ja ik heb ook twee varkens!
zeg hoeven jullie chauffeurs zich niet aan de verkeersregels houden of is rijden als maniak een werkvereiste?
dat verklaart t. geen flappie dit jaar 😂😂
t moet echt op de radio zijn. is iets mafs van me. flappie maakt mijn kerst compleet
hmm nog twee dagen voor kerst en nog niet gehoord op de radio. nog geen kerstgevoel...
dat hoefde nu weer niet 😩. hij had ook praatjes voor tien maar ik doe t wel.
hahaha geeft niks. t blijft bizar maar ja hij ligt nu in bed met een goede dot lijm op zijn hoofd
fijn he? eerst weggestuurd worden en dan blijkt t toch een gapend gat te zijn. nee mevrouw kan echt niet eerder hoor 👿👿
zeker. alle lof voor jouw vrouwtje!!
gezondheidszorg 2016 kind valt om 15.30 gat in zijn hoofd en om 20.15 kun je terecht op hapost voor te lijmen!
is er een nederlandse twitter account voor/van apple?
helemaal niet gefouilleerd lijkt t wel. en nu is t wachten op een bestorming van t uitvak. zo gek zijn ze wel in luik!
ik zou zeggen uitvak ontruimen en doorspelen
standaard zijn ook geen lieverdjes maar vuurpijlen op een vak richten waar ook kinderen kunnen zitten is imo not done 1/2
ah dat hoor ik dus uit de doornakkers komen. toet toet
nog meer laag vliegers. buiten is t spannender dan op t veld.
ff gauw in de rust naar t supportershome rennen. lekker kou pilske vatten en weer terug naar je stoel!
tja brabant en dat mag niet dan van de uefa meneren
woohoo last christmas op de radio. nu nog en t kerstgevoel is er al weer helemaal 🎄🎄🎄🎄
het kerstdiner is klaar! dank u sinterklaas
of een paar pennen per pakket voor een paar jaar 😂😂😂
doneren aan de voedselbank voor hun kerstpakketten aan de cliënten. gaat ook nonfood in
ik heb problemen met spontaan uitvallen van mijn iphone6s. geldt de terugroepactie van apple ook voor kpn klanten?
zeg gewoon dat jullie t niet zo druk hadden verwacht
black friday krijgt t druk komende week. kan de drukte niet aan online. en de sint gniffelt zachtjes
kogelwerend ipv kogelvrij neem ik aan
haha en dan heeft t socialmedia team alle berichten al ingesteld. lekker professioneel. werken ze niet op zondag?
echt? oh dat biedt potentieel. openingsdatum? ga ik oppas regelen
onze beheerder is bang voor klets. zelfs danken voor een melding wordt dictoriaal afgekapt.
zijn jullie telefonisch te bereiken? ik wil mijn afspraak met de vertegenwoordiger wijzigen
oma heeft een jasje gekocht in belgië maar te klein. kan ik dat met bon ruilen in nl?
visie architect? mensen hun rouwproces afnemen. architecten horen geen begraafplaatsen te ontwerpen
waarom dan kinderen? oma bood vrijwillig aan om 1x per maand 2 nachten te doen ivm chronisch ziek kind
aygo is wel zuiniger maar minder comfort voor de lange afstanden. welke model skoda?
wat ga je rijden?
3e week op rij fout bij de boodschappen bij de pickup. eerst 2 x geen groente en nu de onjuiste groente 🍅🍅🍅😩😩😩
wie wat bewaard heeft wat. oud papier of nog in te leveren?
ben je al aan t versieren???
heerlijk die goed gespelde spam. ik bezorg deze wel in de prullenbak cc
kan ik deze ergens online zien?
ik ook. maar er zijn heel veel fotos genaakt en ik wil mijn kleine vent ff zien. 😊😊
hebben jullie gister fotos gemaakt van de vendelhulde voor de burgemeester in eindhoven? mijn zoontje was er met t gilde.
hebben jullie gister ook fotos gemaakt van de vendelhulde voor de burgemeester? mijn zoontje was erbij met t gilde.
hoe kan ik het saldo van mijn cadeaukaart en geldigheidsduur checken? heb de site al doorgenomen ben al een uurtje bezig
zie je! ik wist dat ik iets vergat. hier kan de bristol een jaar op draaien. muppet had 2 maten te klein vorig jaar 😳
even naar de huisarts. 09.00 afspraak, loopt nu al 30 min uit.
even naar de apotheek. volgende keer survivalpakket mee. wachttijd 19 minuten 😩
nou ik wil toch nog 78 kilo kwijt. en ben niet van de sapjes shakes of sla. even knop omgooien en niet lijden/lijnen
lekker afslanken met 50 heerlijke dieetrecepten via
485815 woensdag 20 juli, stadhuisplein in eindhoven uitrijden rond 15.06 pas werkte niet slagboom ging wel open.
ik zou vorige week terug gebeld worden ivm een storing met een parkeerpas. ik wacht nog steeds.
iets gaat er mis want ik heb gister mijn boodschappen gehaald en netjes betaald
kon net niet uit checken met pkaart in pgarage. slagboom ging wel open. qpark stadhuisplein ehv. 15.06 uitgereden.
als ik dit zou merken betaal ik t uit eigen zak voor dat kind. ieder kind verdient een zorgeloze jeugd
ben op zoek naar in omg huiselijke sfeer maar toch genoeg privacy. wie heeft tips?
ik denk dat we ons zorgen kunnen maken over wk2018. niemand werd ontzien in t stadion. engels frans ...
en die russen dan? ik lees veel engelse berichten dat de russen uitlokken en alles met engels shirt pakken jong of oud
dank jullie. de airfryer gaat retour en ik krijg een nieuwe. dank voor de hulp!
vorige week airfryer bij jullie gekocht. tweede x gebruik maak t een herrie. ventilator komt ergens tegenaan. en nu?
is er iemand uit eindhoven e.o. die donderdagochtend in roermond is en wat voor mij op wil halen?
komt er aan
ik kan ineens niet meer bellen. beltegoed is er genoeg. tel. wordt gebruikt bij doorschakeling van vast nummer.
muppet had weer een teek. trok hij er zelf uit. morgen de ha maar s bellen. tijd voor een stevig kuurtje.
ja volledig uitverkocht en niet meer leverbaar 😩
na 1 week de angry birds pluche uitverkocht. hopelijk nog een nieuwe zending zsm?
dm is inmiddels verstuurd.
ik stuur dadelijk een dm. twitter heeft nog niet door dat jij mij wilt volgen...
ja, mobiel bellen werkt wel. zou dinsdag terug gebeld worden ivm storing jullie zijde. ik wacht nog steeds. vast bellen kan niet!
15 min??? neeee! dan verneuk je ze gewoon. water ad kook, drin, ad kook dan 3 min, deksel erop gas uit max 13 mindan genieten
probeer jullie te bellen via 09009323 maar dit nummer is niet ingebruik! hoe kan ik telefonisch contact met jullie opnemen spoed
treinen toeteren ook al op t andere spoor richting maastricht ik hoor ze van twee kanten.
in 2007 12 weken zwanger en die knul is nu in zwolle...
ja die heb ik gezien. hij liep naast propper!
dat hebben we niet! alleen 1 tm 3. kijken via de satelliet.
zijn er beelden van de lineup. mijn zoon liep mee maar geen beeld gezien!
loopt je zoon mee met de lineup van zendt weer eens alleen uit op kanaal 1 &amp 3!
hoe en waar kunnen we parkeeroverlast melden?
erg fijn. online pizza + pasta besteld blijkt bij afhalen dat de pasta op is. zit ik dan met mijn supermarktpasta 👿👿👿
nee weer niet. maar ja jullie weten nu dat ik spam heb gehad. 👍
ik krijg de melding dat ik spam wil versturen. ja duh!!! ik had t keurig als bijlage gedaan.
er gaat iets mis. valseemail. wordt niet herkend als mailadres. krijg de mail retour.
gelukkig vallen ze op door de hoge bedragen €1400 deze x. wij hebben altijd €90. hij is doorgezet. thanks
onze zakelijke mail wordt gespamt met nepfacturen van jullie. willen jullie kopie mail?
mijn ordernr is 13586095. lader is al een x vervangen
repareren jullie ook bij jullie gekochte tablets? hij laad niet meer goed op.
deze mogen ze hebben. die andere titel pakken wij dan 😜👍⚽️
ik ga wel stemmen. dat is mijn recht. maar ik zweef nog tussen voor en tegen
ik ook niet hoor maar baalde wel toen ik t zag. maar ja dat mag de pret niet drukken
alleen zo jammer dat t shirt design gejat is en dus niet uniek is
net gedaan.
van de plus eindhoven dirigentplein. tompouce 50% en tray energiedrank 50%. staat niet op de bon dat je moet kiezen.
naast wonen en dan newyorkpizza bestellen
nee hoor. zat niet in de bus vandaag. wel een blauwe enveloppe
kortingsbonnen krijgen en dan bij kassa horen dat er maar 1 bonlees product gebruikt kan worden.
gedaan! alvast bedankt
sinds 7 dagen toon maar brrr t is zo koud. temp op 19 graden maar t is 17 graden. koppeling ketel niet goed???
zachte bruine bollen zijn op verschillende plaatsen melkvrij weipoedervrij te koop. volgt de rest van nl ook?
ja dat kun je aanpassen. was bij ons al lager gezet dan bij nuon.
ah ok. je kunt bij nuon ook via een app je gebruik bij houden.
wat houdt een centrale ketel in?
overstappen of t regelen/bijhouden van toon?
en besparing. we hebben mede daarom voor eneco gekozen ivm de toon thermostaat.
energieprijzen liggen dicht bij elkaar, vastrecht is vaak t grote verschil. wij wilde graag meer inzicht in verbruik1/2
vastrechtkosten zijn heel hoog bij oxio. we zijn van nuon naar eneco gegaan.
bij mij wil de kleuter nooit onder de douche uit. sta je 15 min in de stikhitte te wachten tot meneer elke douche heeft getest
gefixt! dank je voor je hulp! fijne avond
iphone 6. en ja de mobiel bankieren app met de update van vandaag.
installatie app update gaat niet zo als t moet. app blijft op installeren staan.
dank je voor t bericht. ik hou de site in de gaten.
ik hou t nu via de site in de gaten maar de app is veel fijner 😀. hopelijk de app snel weer in de lucht.
de vlucht om 14.00 uit faro.
wordt t niet eens tijd voor een nieuwe app? hij werkt alweer niet
muppet is op scouting kamp. ik moet loslaten maar eerste x weg sinds li diagnose. gelukkig leiding ook li.
cassierre bij u krijgt per €15 een zegel. even kijken 15, 30, 55. ik eh laat maar.
wat een aanfluiting. knul heeft bruin brood met vleeswaren maar jammer geen kipfilet. broodje gezond was beter pffff
1 voordeel van 2 zieke kinderen ik heb t niet koud ene links en ene rechts.
ben al de hele dag druk maar echt iets nuttigs gedaan? niet echt. 2 zieke kinderen en een kop vol snot.
muppet is ziek. buikpijn koorts. zusterpakje aan en zorgen maar.
lees nu de tweet ervoor. ha ha ik dacht meer richting gebruiksaanwijzing. niet aan nietinenten
zon zint eer u begint sticker of gebruik op eigen risico 😜
aansluiten alles in 1 pakket. pakket is binnen 2602 is t oude weg dus graag voor die tijd aangesloten 😃
ik heb t risico niet genomen. vele onderzoeken spreken elkaar tegen. dan maar 100% veilig.
gewoon 9 maanden niet drinken. je moet wat overhebben voor je kind, toch?
sta je 17 minuten in de wacht om een monteurafspraak te maken wordt er opgehangen! nu nog geen afspraak!
t oogde als een ns trein. kun je dit navragen? hij zou er zo blij mee zijn.
is die trein waarmee dat jongetje speelt in de huidige reclame te koop voor mijn 4jarige treinverslaafde?
service was weer top. probleem nog niet opgelost maar dat lossen we volgende week op. heb ik vertrouwen in.
zoonlief heeft eind juli acer iconia tab 8 gekocht. nu is de lader kapot. is die na te bestellen?
ik teken ervoor! 50 is ook prima.
met een mooi blauw oog. scheelt weer oogschaduw. nog kostenbesparend ook.
jij snapt t helemaal. rozen zijn zo passee.
echte liefde dus. begrijpelijk!
maar zij leeft onder een rots en leeft voor haar vent?
ik dacht heel even dat dat gezegd had. 😳
waarom verbaasd je dat? smaken verschillen.
??? wat moet ik nu doen? noordbrabantlaan bij de brug.
heb ik ook gehad. heb een nieuw kastje gekregen voor tv. probleem was meteen weg.
voor de zoveelste avond een heli boven waarom? hoezo?
nee hoor. wederom een dikke 👍 voor jullie topservice!
ja super. ik zat totaal verkeerd te vouwen. de nietmachine was een volgende optie! dank
dat %&amp%^ doosje dat bij de cadeaubonnen hoort is niet te vouwen help!!!
mensen die al 3 weken een tas met kleding zouden komen ophalen en steeds met een ktsmoes afzeggen. t was gratis kleding voor minima! 😡😡😡
dank allen voor t antwoord.
en zachte bruine broodjes? jumbo en lidl zit melk in. toevallig een tip waar melkvrij?
ik lees ieder etiket tegenwoordig. kleine man is zelf ook zeer bewust en vraagt t ook.
ik volg jullie al langer. moeders intuïtie. nu verder mijn weg vinden en zorgen dat t routine word. dank voor je hulp.
wajang boter. lactosevrije roomkaas,brood op waterbasis. hij is 4 en lustte alles. alleen zijn buikje niet.
dat denk ik wel. ben nog erg zoekende en lees ieder etiket. sinds 2 weken diagnose. buikpijn word nu minder 😕
jammer. dan moet ik op zoek naar een home made alternatief.
mijn zoontje is lactose intolerant. bakker heeft krentenbollen zonder melk maar met weipoeder. wil graag weten of dat kan?
weet jij toevallig of in weipoeder lactose zit? of melkeiwitten?
dan voeren zij hun werk niet naar behoren uit. en de afzender? al contact gehad?
zijn ze niet verplicht om de post op een veilige plek achter te laten of anders opnieuw aanbieden?
dat hoop ik. trauma is onderweg. dan is er hoop. hoop ik
klanten bellen al af dat er geen doorkomen aan is in tongelre.
ik hoorde net bij de merckthoeve. scooter / trein. oude urkhovenseweg.
bij welke spoorwegovergang? niet om te kijken maar om te weten of ik tongelre nog uit/door kan.
dat was toen ik de sms kreeg kpn nl. heb van meerdere gehoord dat ze deze sms hadden. allen uit eindhoven. zijn we geannexeerd?
ik ben eindhoven niet uit geweest vandaag dus ja 😳
volgens jullie sms zit ik in t buitenland. brabant is wonderlijk maar nog steeds van nl.
doet een poging een weg te vinden in de wereld van pgbs. op dit moment kastjemuurkastje.
pffff sterkte. wij hebben sinds gister officieel diagnose. 4jr voor gevochten. nu verder met indicatie en zorg
hij heeft toch koemelkalkergie? daar is toch een mouw aan t passen. doe ik ook al 4 jaar. muppet is net 4.
precies! kleine moeite om rekening te houden. ik heb ook altijd een trommeltje bij just in case
jammer, heb hem toch besteld bij jullie. gister stond ik in de wacht en ging van 4 naar 6 wachtenden. heb maar opgehangen...
accepteren jullie ook vvvkadobonnen?? want mijn zoontje wil de minionwekker heel graag maar sints budget is bijna op
mijn stem heb je!
top! ik loop vol trots door die deur morgen!
wat is t toch allejezus vroeg!
wow! die gast kan echt goed zingen
hopelijk de laatste x. 5 x te veel. schooljeugd op fiets let toch niet op. menen onsterfelijk te zijn
met de zoon gaat t prima. krasje op de vinger en bertje geschrokken. gelukkig kwamen opa en oma precies op tijd door de douane.
het hek was maandag al stuk. raar dat dit niet is opgevallen. die ijzeren plaat zit helemaal los.
het is een kras. dikke kus en knuffel van moeders en t is goed. dat hielp alleen niet met het hek
hek bij de aankomsthal is nog steeds kapot. de vinger van mijn zoon ook 😩
ze hebben al excuses aangeboden en gaan de idioot aanpakken
het ruikt al de hele middag naar zure melk in tongelre. waarom?
wat hebben we toch een warme en fijne club
welke imagespecialist kan ons logo even aan passen? moet de plaatsnaam onder.
ha ha. hij is gelukkig verzekerd! hij is zoooo mooi 😜.
ja!!! ik ben helemaal happy
lina hij is er!!!!
hallo lina 3syyzl011662473 dit is de code. krijg steeds de melding dat combi met postcode niet klopt
.@kpnwebcare jullie zeggen dat mijn 6s er aankomt alleen track&amptrace van werkt niet! help waar is mijn telefoon nu?
nu de speelkast opruimen voor al 5 tassen zgan speelgoed verzameld. enesten😜
net de blij gemaakt met een grote donatie kleding en beddengoed. mijn kast is opgeruimd en zij kunnen weer lokaal helpen
wij vinden vast t zelfde...
. jaarcongres heb er zin in!
hij doet t
waarom op kanaal 1 &amp 3 dezelfde bekerwedstrijd? een x ajax is genoeg hoor!
dan naar huis, omkleden en hoppa stad in. tot straks op vakkie u!
ik mag vandaag ook weer een keer. ik kijk de wijzers van de klok naar 18.00.
lang geleden dat ik in europees verband nerveus was voor een wedstrijd.
in eindhoven? de meeste willen minimaal 40 pers.
wie kent een frietwagen voor klein gezelschap 25pers in eindhoven? voor 12 sept. rtlief
succes iig en sterkte met wachten!
rem vastgelopen?
gister nog bericht in telegraaf met fotos over brandweer die pinpas red uit ondergr. papierbak 😳
de week begint in de wasstraat. de voorraad weer blinkend in de showroom 🚗
ja hoor. locatie is n2. we kwamen net van de a67 af.
ik kan alleen via de app kijken en daar staat niks. maar ik vind t goed hoor. kan weer wat van de bucket list afstrepen
zonder bronvermelding!
dan is t de n2. we reden op parallelbaan
heidebrand vanaf bij
muppet krijgt een minionverjaardag! nu nog een creativeling vinden die dat voor mij gaat maken. 👍
iemand goede ervaring met testen kind hoge sensitiviteit in regio of training cq cursus voor ouder en kind?
help ik moet vandaag nog geld overmaken einde q2 btw etc maar site en app liggen er uit!
muppet vind t schandaaltjesweer en komt aanzetten met zijn sandalen.
wat wordt t nieuwe tenue maatje 104, 134 en xxl graag
eigen idee of ergens gevonden? zou ik hier ook wel kunnen gebruiken.
tab werkt bij mij niet meer ipad1. dan was ik vroeg op stok gegaan. 😊
dan doe ik dat maar niet. mijn dreambox ligt er al 2 dagen uit.
dan vraag ik me toch af wat ik de hele avond al zit te kijken dan in eindhoven?
sterkte!
ja klopt. jullie helpen wel, school werkt niet mee. en zegt zelfs dat jullie niet mee willen werken!
banaan rollo en marshmallow en een bbq. goddelijk!
proest
meedenken en oplossinggerichtheid bij stress is weer weg en moeders haalt weer adem!
idd niet goed.
tongelre heeft weer water
ik heb nog geen seconde gezien maar geniet al de hele avond op twitter.
hij moet nog 4 worden en kdv zit ernaast. t is bij hen een kwestie van niet willen ipv meedenken in zijn belang.
school eist van zoon medisch niet zindelijk dat hij zelf luier gaat verschonen! hoe??
inhaalverbod vrachtwagens zou ook niet verkeerd zijn. die manoeuvres veroorzaken ook veel opstoppingen.
spijker op de kop!
dat zijn dan weer de voordelen van single zijn 😜
een rol behang ligt altijd klaar 👼.
yep, t houdt niet op, ook niet vandaag. nu rust muppet slaapt zl is spelen en manlief naar psv. heerlijk!
ook hier gaat dat gewoon door. was, de afwas, heb ook al stofgezogen. 😩. fijne moederdag vandaag.
of vrouw natuurlijk. excuus...
en dat iedereen die man nu kan mailen 😜😳
tenzij je de goedkope uitvoering hebt 😩 vooral bij vw golf populair
ja omdat hij 7 tijdelijk een spoorweg over moet. vanaf aug weer te voet.
hier t zelfde. 1413 autogarage overgenomen want als t nu niet lukt, lukt t nooit. en t lukt!
heerlijk gegeten bij tonijnfilet zoals tonijnfilet gegrild moet zijn! en ossenhaas die smelt op je tong. 👍
wij ook! 9! studenten/polenhuizen rond ons huis.
verdorie weer geen lintje!
de ribbels op de urkhovenseweg richting geldrop liggen in de lengterichting a d rechterkant. zeer gevaarlijk voor fietsers!
dankzij de mussen, een boom, een onwillige buurman en de zomertijd zijn de draken elke ochtend om 6 uur wakker!
is t gelukt?
ik ga weer kijken!
duur sprintje trouwens.
jaaaaaaa de schaal komt er aan. kampioenen!!!!!!!
come on you boys in red! ik ben klaar voor mijn prive feestje!
via die kledingzoekmachine online? ben ff de naam kwijt. kleding.nl of zo iets
t hele stadion zong dat net. geweldig!
joey geef dat bier maar terug... 😂😂😂
onze site ook wel. krijgen wij dan ook de resultaten te zien? autobedrijfvandevoort punt nl.
ik vier feest alleen op de bank!!!! en ook nog zachtjes want de twee draken liggen al te slapen...