selena gomez en the weeknd uit elkaar vind je het gek, het is maandag.
dit lijkt me toch een lijstje waar je niet in moet willen staan
moet wel veel scoren om koploper te worden al 40 😎
zit wel een behoorlijke kern van waarheid in.
´buurtpreventieteam werkt veel beter dan whatsappgroep´ ik dacht meer aan polit…
hadden ze daar geen naam voor ....achterkamertjespolitiek
4 mei dodenherdenking. docu over roermond. zo dichtbij, zo onwerkelijk. wat hebben wij het toch goed.
ook bij morgen secretaressedag
😆😆 je moet er wat voor over hebben. fan van zijn is pijn lijden, nu enkel door de muziek. veel plezier!!
wat leuk. daar stond ik toen ook tussen.
een heerlijke zondagmiddag, prachtig weer, veel sport, en morgen fris beginnen bij
twee toch wel mooie gebeurtenissen. 1. de europese unie geeft steun tegen turkije. 2. trots op nl door de opkomst bij de verkiezingen.
is de formatie dan al afgelopen?
ik ben blij verrast. op het randje van de verkiezingen lijkt er toch nog een inhoudelijk debat in te zitten ........ tot nu toe
zegt verstandige dingen. doordacht en onderbouwd.
iedereen die het niet eens is met erdogan was toch een terrorist of zoiets?
het is wellicht beladen om te zeggen maar kan erdogan niet eens in de spiegel kijken. tsjonge, tsjonge, wat een woo…
dus hennis defensie, wiebes belastingdienst, en op justitie....tsja. optimist? ga toch voor realist
i agree, het leek meer een avondvullende quiz, alleen dan zonder goed of fout antwoorden.
heel moedig!
daar was ik bij. brugklas, met de fiets vanuit maasbree.
op de één of andere manier heb ik altijd het gevoel dat guy verhofstadt dat ook is.
neem aan dat de alternatieve feiten hierover nog zullen volgen 😉
nieuwe leaseauto. alles uit oude auto halen. één zonnestraal en je weet wat je vergeten bent....zonnebril. thx…
data al ergens bekend?
is mich prima. det beveel mich prima met bruce toen.
dan haak ik af? heb de auto al klaar staan.
dat is goed nieuws. forza
nu pas. een heldin, hadden richard haar man ook moeten ridderen. die heeft wat moeten doorstaan 😆
op de valreep van 2016 weer een wereldartiest overleden. george michael, 2016, his last christmas.
wel tijdig remmen, hij is nog dicht 😆
dat is toch de politieke partij die heel nederland willen heropvoeden? dat is geen bevolkingsgroep maar een heel la…
hoe ouder hoe koppiger. in een nutshell het lot van 50plus. zie de eerste afsplitsing na tweede kamer verkiezingen…
op de één of andere manier vraag ik me af hoe er gereageerd zou zijn als dit in de bible belt voor zou komen
als je maar lang genoeg ontkent, dan is het er niet
dat is blijkbaar al een uitdaging tegen roda en willem 2
geen enkele discussie over nr. 1 👍
de ban gebroken!!!!!
de noodzaak van toekomstbestendig winkelpersoneel retailwatching
leest dat goed!!!! uit een strafschop! het lek is boven 😃
mag ik hier mijn afschuw over uitspreken.......ja, dat mag ik.
wat zou die staking toch fijn zijn geweest
en ik maar denken dat het een staatsbedrijf is.
huub, proficiat!! veel plezier!
hilarisch.......als het niet zo triest zou zijn
prachtige wedstrijd handbal halve finale. wat jammer voor
hadden ze hem niet beter moeten begeleiden met zijn verslavingsverleden
en daar zijn ze weer. rusland en mensenrechten
simpel? hoe willen ze ooit iets wat lijkt op vrede bereiken of is dat überhaupt geen doel voor de meesten
kijk, as usual......de bank spint er altijd garen bij.
goed naar de foto van martijn kijken, we waren er dichtbij 😉
is zeker wel een felicitatie waard. proficiat
moet ik de auto een uurtje eerder starten dinsdag 😳
errug leuk!
heel veel succes!!!
spelersraad adviseert negatief ivm verlies werkgelegenheid. tsjonge, wat een inkopper.
prachtige gezien de waanzin van oorlog door de lens van een fotograaf
wordt gezellig nieuw record aantal deelnemers
burundi in de greep van de angst laten we een 2e rwanda nu echt weer gebeuren?!?!?
minister koenders grenzen dicht geeft illusie van veiligheid soms best fijn, die illusie.
4 bussen demonstranten max 200 mensen die heel nederland bezig houden
wat een ellende in zon prachtige stad
ieder voordeel heb zijn nadeel... en dan met oranje logo
yes! we zijn winnaar van de nationale evenementen innovatieprijs!! proficiat!!!
ey weg als accountant bij deloitte integriteit is dus afhankelijk van publicaties???
vroeger voetbalde ik tegen mijn jongere zusje, dan gaf ik haar ook altijd een ruime voorsprong voordat ik begon te ballen. ik won wel
het is weer zo ver, eens kijken hoe psv het doet in moskou
bij deze de onafhankelijke geest van de dag
het was een mooi avondje
als je nu de jong erin zou zetten heb je in ieder geval een voorhoede welke elkaar kent
om 5 u. richting park, vriendenpakketje ophalen en dan eindelijk genieten van
al 5 min gesloten en geen trein te zien
etentje mede als afscheid 8 jaar voorzitterschap
heel veel succes en plezier vandaag!
moet a67 worden verbreed? 1755u vraag is toch enkel wanneer, noodzaak lijkt me al achterhaalde discussie
waarom blijft deze overheid steeds maar weer vernieuwen grote mond maar weinig doordacht beleid.
dichtbij en betrokken, ook bij rundjeumhundje succes vanavond!
50 jr waardering en erelid
wat zou ik graag morgen in een stadion in willen zitten
bijeenkomst bij gastvrij
organisatie en deelnemers heel veel plezier wat een prestatie!
mooie reportage! dank!
moe maar voldaan, trots op het kernteam, trots op al die vrijwilligers, en trots op dank is groot
mohammed wint de 7,5 km net onder de 23 minuten
zou het droog blijven.........goedemorgen
startklaar
val jij morgen in de prijzen
laatste puntjes op de i, doorspreken mogelijke knelpunten voor morgen
nu nog leeg op het zwaarste stuk parcours, maar morgen met dj, iets minder zwaar. dankzij
over een dik half uur de aftrap van een weekend met een ontbijt bij
de mooie achterwand voor de prijsuitreiking wordt opgebouwd. prachtig logo dankzij mooie wand dankzij
als ik de weerberichten zie wordt het een pittige uitdaging voor de deelnemers zondag as tijdens de
2150 startnummers worden voor u ingepakt
mooie avond berden sponsorbijeenk. gastvrije naamsponsor, goede vergadering drukte wedstrijdsecretaris
informele bijeenkomst sponsors gehad, met aandacht voor op naar vergadering kernteam
laatste weekend inschrijven géén nainschrijving rt zou fijn zijn
laatste weekend inschrijving géén nainschrijving. rt zou fijn zijn
joeks en jen veurbeej, op naar de , inschrijven kan nog tot en met zondag a.s.
vergadering kernteam. wordt langzaam weer spannend. puntjes op de i!
morgen avond toevallig 1 kaart over. wie wil?
de eerste spandoeken hangen weer 1 mrt 2015
ook de 10e editie weer 1 van de hoofdsponsors. vanmiddag de handen geschud en contract getekend
met lei hendriks
nieuwjaarsreceptie en positief en ambitie
univé wordt 1 van de hoofdsponsoren van de .
in belfeld zit een goed technisch vertaalburo met veel ervaring
concurrent is welkom op bedrijf.....maar je hoeft niet alles te laten zien nominee
klaar voor de kandidaten succes!
team vrijwilliger van het jaar bij . super proficiat dames en heren.
l1sprt bezocht de scopias run in tegelen een echte cross
cross morgen bij speeltuin klein zwitserland. present. inschrijven kan morgen
ook aanwezig bij . over 1 uur de eerste afstand. succes!
deelnemers en organisatie heel veel succes en plezier morgen bij de
programma sponsoravond en gereed. het wordt weer speciaal. 18 november vanaf 18.00 u. uitnodiging volgt!
interessante bijeenkomst met winkelen is emotie.
proficiat met dit fantastische resultaat
wat een jubileum, proficiat namens en uiteraard
uitnodiging businessbijeenkomst b2b voor 13 november is klaar, op naar komende week in de mail.
is er klaar voor werkgever, informeer voor het u geld kost. mogelijk kunt u zelfs besparen!
niets mis mee om een keer gif te tonen. alleen niet handig bij de scheidsrechter
is cocu een keer echt boos, wordt ie naar de tribune gestuurd
wae is die blond in de jury? dien nieje vriendin?
en wat doe je een half jaar voor vastelaovend
morgen de oceloop op de venlose hardloopkalender. enjoy
dit weekend 2e wedstrijd in hardloopseizoen heel veel plezier en succes. de weergoden werken mee
uitnodiging de deur uit, ook naar al die van de 811.
ook aanwezig op de altijd gezellige inschrijven berdenvoorjaarsloop.nl
ziet er gezellig uit. smakelijk!
dames van de , heel veel plezier dit weekend met de leukste hardloopwedstrijd van het kikkerlandje
bijeenkomst venlo in met als speciale gast luisteren, netwerken, proeven
dagje cursus zit erop
suiker ik dacht al, wat proef ik toch
breaking news to vvv welcome ! hoop wel dat de goede naam in contract staat
bijna 100 inschrijvingen 7,5 km en 100 inschrijvingen 15 km 1mrt2015. niet bang zijn, je rent niet alleen
kijkend naar een fles zero vraag ik me af, wat is nu het verschil met light
exact vandaag 6 jaar geleden ben ik samen met gestart. proficiat
nr. 200 heeft zich inmiddels ingeschreven 1 mrt 2015
de kop is eraf, de eerste werkdag na een heerlijke vakantie frankrijk zit erop
mooi trouwfeest van kernteamleden en gisteren. en we naderen de 200 inschrijvingen
twee van onze kernteamleden geven elkaar vandaag het jawoord! geniet van jullie dag en ruud tot vanavond!!
al meer dan 170 inschrijvingen voor 1mrt2015. gaat veel harder dan vorig jaar.
met dochter wachten bij bioscoop op film pieter post
de inschrijving ook geopend sinds 1 aug
voor het eerst bang geweest bij controle zelfscan je weet nooit welke knopjes de grijpgrage handjes van dochter hebben beroerd
vanmorgen om 5 u terug gekomen van 2 weken vakantie middenfrankrijk, vanmiddag maar eens met oudste naar
bootcamp bij scopias! speciaal voor onze leden verzorgd door heej, wat super!
mooi om te zien, na 5 dagen inschrijven al 130 deelnemers 1 mrt 2015
deze week opening individuele inschrijving 2015
ik kijk naar weer een persconferentie en denk in 1 keer... dit vraagt veel van een mens
weet jij waarom ze de lijken hebben verplaatst
wellicht bevooroordeeld, maar zouden de nlmultinationals morgen in moskou ok de vlag halfstok durven hangen?
nog geen jaar geleden viering betrekkingen nederlandrusland, ben nu wel heel benieuwd welk signaal we nu gaan afgeven
wat de oorzaak ook mag zijn, wat erg voor de nabestaanden.
dgapensioen verkwanseld voor europese begrotingsnorm! via
yep, of moeten we zeggen messi had hem niet verdiend. wat mij betreft ongeloofwaardig
robben speler van het toernooi
jaaaaa, nu in de tour, de eerste nl overwinning van vandaag in de maak
even apeldoorn bellen
laat er vooral veel gebeuren op het veld, dan valt de commentator minder op
van brazilië kun je winnen, van een scheids niet
wat zou dat mooi zijn, 2 burenruzies binnen 1 week en durftehopen
in 1 dag verlost van matavz en tyton
de duitsers winnen in ieder geval de prijs voor het lelijkste shirt
vandaag 30ste estafetteloop! veel succes en plezier aan alle teams! idd heel veel succes!
onze nlsupermarkteigenaar krijgt een heet avondje, wedstrijd 5 min. oud, al meer gepraat dan gevoetbald
gisteravond jaarlijkse uitzwaaibijeenkomst met bij heerlijke bbq, superbediening, en wat een bitterballen
je zou bijna de scheidsrechter man vd wedstrijd maken
laatste dag van onze stagiair, met een mooi cijfer gaat hij ons verlaten, en vanavond richting topevent
kijkend naar het einde van een tijdperk maar goed dat ik me tussen door heerlijk mag ergeren aan
wat een keeper, en 10 duracel batterijen
ik had me er op verheugd de belgen te zien voetballen maar ik krijg de indruk dat de belgen zelf niet verheugd zijn om te voetballen
en uiteindelijk is vlaar man vd wedstrijd
van soeststr.... uh van zoepstr
en dat in eigen straat
ik mis strafschoptechnologie, ikvalonterechtechnologie, elleboogtechnologie, terechtdoelpunttechnologie. ....o nee, ik mis een goede scheids
ik dacht dat brazilianen goed konden voetballen, zeuren en vallen kunnen ze nog veel beter
zoo, 27 minuten voetbal en we hebben al keuze voor de elle boog van de week
volbracht, dat vraagt om een groot lekker ijs
“@woukevscherrenb de russen verloren 20 mlj mensen in oorlog maar maakten eerst de weg vrij om polen en westeuropa aan te vallen
en ik maar denken dat 90 km p/u enkel voor caravans geldt, blijkbaar ook voor auto met fiets achterop op de linker baan
toch jammer voor mislopen van radioprijs. kunnen wij je boeken voor
routes wandel4daagse bekeken, met alle respect, wat waardeloos. waar zijn en zorg dan voor een wisselende start/finish.
moe maar voldaan na een prachtige 4e editie van het topd tournament genieten luud!
ben benieuwd welke smoes nu weer verzint om in qatar door te laten gaan.
klaarmaken voor generale repetitie dansen vanavond in . sanne vindt het spannend, papa ook
nu kees ik een kop in de krant, denk ik, dat wisten we toch al heel lang
na geweld vanavond evaluatie parcours gehad, op naar 1 mrt 2015
denk dat goede voorbereiding zou zijn!! is een fantastische voorbereiding
complimenten aan , heerlijke sfeer, leuke beleving, zal ik volgend jaar toch maar eens mee doen?
jazeker komen we kijken
heel veel succes komend weekend!
toch maar even een stem uitgebracht. mooi dat het kan.
wat een mooie vertalingen liedjes van tijdens en prachtig gezongen
was de basis voor 1 europa niet het samenwerken ipv oorlog. zou eens centraal moeten staan bij kiezer en vooral bij politici.
landbouwgrond vrijgesteld van fiscus mooi nieuws voor onze agroklanten dankzij
drie eredivisieclubs degraderen in 1 seizoen, hoe lang geleden is dat
met mogen overhandigen namens
zee, strand, wind, zand.....maar wel een palmboom
dee/die man/vrouw zingt wal veur un vrouw/man...#binimffkwiet is ut man, wat in wief, of wief, wat unne man
mijn hartslag gaat 180/100 hahahaha van de spanning of van de prachtige dame uuuhhh man?
eindig je voor het eerst in tijden zo hoog, verlies je het van een baardman in een jurk, of is het een vrouw met een baard
dit is gvd nog spannender dan de ek finale van 88!!!!!!!!!!!!!!! rustig blijven mark, het is maar een man in jurk
ik heb nooit geweten dat maaskantje in frankrijk lag
eigen hoofdkantoor, hoe leg je dat uit ? weer nieuwe procedures?
als dat zou kunnen....
afgelopen dinsdag naar morgen naar beiden in de en dan ook nog het songfestival.
gisteren nog vandaag jij toch ook?
koempels? lagen de mijnen niet ook jarenlang aan het subsidieinfuus, net als de koempelclub?
so, jarenlang wanbeleid leidt toch ook uiteindelijk tot jupiler leage voor geheel fc limburg ......#rodajcmvvfortuna
is het handballen? o nee, is
heeft jocus hier die kraag ooit van afgekeken
wij hebben het over een proeftentamen, en wat vraagt je 5 jarige dochter dan wat moet je proeven dan. tsja
grote woorden in krant, burg.vdlaan gaat evt. schade op hooligans verhalen. dit noem ik wishful thinking
1 mrt 2015 wordt hem, de 10e editie 😊
ik dacht, het zal wel bijna afgelopen zijn....toch niet
er zijn van die films, die maken zo veel indruk, dat je het wilt delen....intouchables, maandag as 20.20 u, nl2. ik zeg doen!
morgen in het fd kpmg verdacht van belastingfraude in wezen en in schijn was het toch?
iedereen die vandaag meedoet aan heel veel succes
nog een dagje cursus, en dan morgen richting rotterdam nee, niet rennen maar ontzettend hard klappen.
zoals heel veel mensen val ik vaak in een after dip. niet dit jaar
en waar anders kun je zon mooie foto schieten als bij de
rijk verdiende 400 miljoen euro minder aan tabak , alcohol, benzine dus toch?#dtv
zo, en dan gaan we dadelijk toch maar even een blokje om lopen. wie doet er mee? ik wil om 12.15 vertrekken.
ut wuurt werm met de venlaup! weej winse alle deilnemers veul succes. keep it cool! mobiele airco op de rug?
flink in de slip geraakt en toch blijven lachen. mkb venlo. goedbezig
opnieuw theorie examen rijbewijs gedaan tijdens
op bezoek bij veel goede ondernemers, is dat ook garantie voor goede chauffeurs
de bijlage gezien, stiekem wel veel zin in zondag, organisatie veel succes!
item op over sjoemelende daarom is er deskundig en betrouwbaar
hoeveel leden heeft de pvvfractie nog? minder! minder! minder! dan regelen we dat..............o nee, doen ze zelf!
goedemorgen, eerst lekker werken vandaag en natuurlijk daarna stemmen. jij toch ook?
toch lijsttrekkersdebat gekeken. leuk om te zien. maar wie besluit om direct daarna de reclame uit te zenden
vandaag een rustige opstart na een bijzonder weekend en morgen de blik weer geheel gericht op
vandaag mooi artikel in over en mooie complimenten
bedrijvenloop 4e plek op de 15km en 6e plek op de 7,5km was weer een geslaagde dag! mooi te horen
laatste loodjes na een geslaagde dank voor de enorme hulp.
dit was de finish. dank aan allen voor deze fantastische 9e tot volgend jaar
gaan we doen!
en dit wordt er al getwitterd
dit gaan jullie rennen vandaag,
een mooie dag, goede sfeer, top vrijwilligers, om 6 u. zijn de eersten al weer onderweg. iedereen succes tijdens de
en hier worden de broodjes met liefde gesmeerd
en daar komen de lunchpakketten voor onze vrijwilligers dankzij
vergadering opbouwdag
goed ontbijt met bij sponsor en dan gaan we er voor!
heb je een stemadvies
nog een dagje cursus en dan gaat het vizier helemaal richting
herkennen we je dan nog zondag as
super bedankt oudkernteamlid, als je in de buurt bent zien we je graag!
stel, u bent systeembank, u kunt dus nooit failliet, maar gelooft in gouden bergen, ook na 2008. wat doet u dan??
nk halve marathon vrouwen , 3. kim dillen. volgens mij 4 jaar geleden winnaar
toch leuk om te zien bij station venlo laatste dag inschrijven
zojuist ingeschreven voor de verheug mij op een mooi evenement.super
leuk voorproefje gezien
dadelijk kijken bij laatste flyers mee, lijkt wel verkiezingen! inschrijven tm morgen!
broersen wereldkampioene indoor op vijfkamp topprestatie!
vastelaovend veurbeej, en nu hup richting inschrijving tm zondag a.s. geen nainschrijving!
mooi deelnemersveld! dank je, ziet er idd mooi uit
patrick stitzinger, ricardo floris, daniel chaves, marco gielen, mohamed ali mohamed, e.a., je ziet ze bij
gisteravond laatste vergadering kernteam voor vastelaovend gehad, , nog 1 1/2 week inschrijven, het wordt joeksig
jos knops nr 1.500! 2 weken om je aan te melden voor via drukke weken blijkt uit ervaring!
het wordt tijd dat whatsapp weer werkt, kan ik tenminste rustig de krant lezen!
gerard van kruisbergen uit arcen is deelnemer 1.400! super
campingsmoking uit, andere smoking aan en hup, naar het
en inmiddels 1250 gepasseerd, gaat nu wel heel rap. deelnemer 1200 is eline wijngaards uit tegelen!
als klootschieten een os was zouden we ook het hele podium bezetten, toch?
dan denk je half negen best vroeg voor de zwemles van dochter. zit helemaal vol met koffie drinkende ouders
topvergadering gisteren. jeugdloop 2 al heel druk bezet dus splitsen. nieuwsbrf onderweg. 163 komt snel.
helemaal mee eens prima actie van google bij aanvang van de olympische spelen.
wat een leuke bijeenkomst gisteren met bij en een heerlijk buffet. super!
een mooie etalage bij 163
nog een druk dagje en dan met sanne naar
deelnemer 900 is jarno albers uit velden! het gaat steeds sneller met de inschrijvingen
jack neemt afscheid als stuurgroeplid . dank voor de positieve enthousiaste toon
bij aan bak vanavond met de te knallen! wij zorgen voor snel parcours, jij voor snelle benen!
succes vanavond bij de verkiezing
niet zo onlogisch, geen foxsports en net de samenvatting pas gezien
maandag is ze echt jarig, vandaag hadden we feest
proficiat met het succes van de expositie!
2e helft jochum meyer in 1e helft was goegoegoegoegoed.
nieuwjaarsreceptie , leuk, gezellig, onderhoudend
nieuwjaarsreceptie met collegas horst en venlo, proosten op een goed 2014.
verjaardag zus tussendoor ff uitwaaien met sanne
kop weekers sust pomphouders. wellicht ook zijn eigen geweten sussen.
heerlijk haags, engels op lagere scholen. alsof we niet veel meer afhankelijk zijn van duitsland.
inmiddels heeft de 500e deelnemer zich ingeschreven. het is isa bakkers uit rotterdam! welkom in 1603
curator ‘accountants moeten in overheidsdienst’ en curatoren dan? niet zoeken tot boedel leeg is, maar tot werk erop zit.
vuurwerk verbieden, alcohol onder 18 verbieden, 1x blijven zitten fin. bestraffen, 10 km te hard is een misdaad. nederland anno 2014.
het eerste rondje hei in 2014 in de benen, en er zullen er nog veel volgen
oliebollen al gehaald, en krentenbollen, en appelbollen. champagne koud. nu nog ff de dag door en dan luiden we het nieuwe jaar in.
12,5 km hardgelopen na sluitingstijd. dit noemen ze zijn. al ingeschreven veur
shirts te koop bij vanaf vandaag morgen koopzondag van 13 tot 17 u.
de 1e shirts gesignaleerd bij , vanaf zaterdag te koop bij of bij inschrijving
zijn jullie dan 24u per dag open
die hulpjes hebben nog nooit een speler aanmerkelijk beter gemaakt
why not. ze zijn redelijk bij gebleven na de teleurstelling vorig seizoen en stadion. enige transfer zou techn.staf moeten zijn
winterstop. in ieder geval op een gedeelde 5e plek. prima gedaan na de degradatie. perspectief is aanwezig.
stop de moord op het limburgse woord. aub retweet. beginpunt om terug te keren naar kwaliteit?
escape from the elevator gerealiseerd, de 20 minuten rust zijn beperkt gebleven tot een kwartiertje. net op tijd voor sanne