elke zorgorganisatie is een onderwijsinstelling
dgotc van een degelijke opleiding met alles er op en eraan naar learning just enough, just in time. dat kost tijd.
goede opleidingen hier bij dgotc, ook engeland, belgie &amp duitsland wil hier militair vplk en artsen trainen. handen te kort.
morgen dag vd verpleging! ontzettend nieuwsgierig naar werkbezoek defensie gezondheidszorg opleidings en trainings…
dialoog met trainers over dialoog met leden en kwaliteit van zorg op hoogste niveau
knelpunten bij het nieuwe leren in de zorg
‘er gebeuren veel mooie dingen en die willen we zichtbaar maken’
maak actief gebruik van het kwaliteitsregister v&ampv het maak je bewuster van je deskundigheid
working out loud &amp personal knowlegde mastery binnen model. lees ook
mooi en waar! trots op de beroepsgroep! en ook op mantelzorgers en vrijwilligers in de zorg
umc utrecht en vilans stemmen zorgprotocollen op elkaar af
waar het eigenaarschap van kennis bij een ander ligt, ligt het eigenaarschap van daadwerkelijk begrijpen bij jezelf p.541 canon van leren
hoezo scholingsmoe? leergierig zijn we allemaal als iets ons interesseert of enthousiast maakt
alpine tourenleider bijscholing gehad dit weekend. samen te vatten in de 7 ps
inderdaad! lang leve de intrinsiek gemotiveerde mens.
mooie poster! foto gert van den bos
geen tijd gehad om te twitteren, te druk met meeschrijven met de tips van de sprekers bij event
machines are for answers, humans are for questions kevin kelly. wordt vaardig in stellen van vragen om tot antwoord te komen
onderweg voor inspiratie en kennisdeling event van teletrain bij eye film instituut
werkplekleren is divers blijkt uit workshop, formeel/informeel/nieuwe&ampbestaande kennis. hoe te accrediteren?
gras groeit niet door er aan te trekken. opleiden kun je verplichten maar of men daadwerkelijk leert niet
zeker doen! zo combineer ik ook mijn werk&amphobby, samen met ouderen wandeling maken
scp aanbod van arbeid2016 volg je een cursus formeel leren, dan leer je ook meer op je werkplek informeel leren
goede presentatie hiervan gezien tijdens healthcare learning summit. mooi en praktisch toepasbaar.
docenten hbov en wijkverpleegkundigen leren met en van elkaar door twinning project
zeker! als trainer, maar ook als deelnemer welkom. refereer je naar een specifiek artikel dat ik kan lezen?
de kracht van facetoface &amp ontmoeten en o.a. door ook buddy systeem om online aangehaakt te houden.
ook gefeliciteerd! ik breng het onder de aandacht bij mijn collegas.
naast v&ampvn academie organiseren onze afdelingen ook scholingen. en vergeet onze jubileumbijeenkomsten niet
tijd voor zorg! v&ampvn bestaat vandaag precies 10 jaar! veel gedaan en we zijn nog lang niet klaar
een soort wikipedia voor kennis en onderwijs? interessant
mooie ontwikkeling, maar in de praktijk technisch nog wel een uitdaging om overal in te kunnen zetten.
te weinig tijd en geld voor bijscholing verzorgenden en verpleegkundigen
online textbook over lesgeven in digitale tijd, o.a. hoe te kiezen voor klassikaal, online of blended
nuttigste vandaag? al die ervaringen uit de praktijk die heel open gedeeld worden inclusief wat niet goed gaat/ging veel geleerd!
kahoot.it ook hier als toetsmogelijkheid. begonnen in basisonderwijs, nu ook in zorg. lekker speels en eenvoudig
energizer met nieuw zeelandse haka. best indrukwekkend met 500 man pumps gaan uit
verzorgende haalt op 63ste 3 ig diploma. wat dat met leermotivatie in organisatie doet, prachtig!
liefdevolle zorg voor onze ouderen. wil je met jouw organisatie ook een voorbeeld zijn voor andere? deadline 17 juni
duidelijk
top initiatief van deelnemers van werkplaats om mensen bewust te maken van mogelijkheden van digitale zorg
klein gebaar, grote glimlach! you made my day!
wat is je eigen vierkante meter van invloed?! start daar, leer daar, deel jouw ervaring en inspireer anderen
gezondheidszorg is voorbeeldsector voor leven lang leren. continue leren is onderdeel van het vak
van start! een mooie ruimte vol ideeën en energie! vandaag zorgen voor morgen
stilte voor de storm. de laatste voorbereidingen voor jubileum bijeenkomst in zwolle.
klinisch redeneren welke methode je ook gebruikt, het zijn hulpmiddelen voor goede diagnose. rdam 16 juni
kamer niet ingelicht over breder delen zorgdata via
mooi kaart&ampkompas weekend met maar wat een controleer op teken na dagje in het groen
mensen met verstandelijke beperking hebben moeite met herkennen en benoemen van pijn. meer weten?
oproep tot meer maatwerk in plaats van standaard risicosignalering via
mooi gezegd!
durf jij samen met je collegas dit avontuur aan te gaan? er is plaats voor 750 zorgprofessionals
2 weken geleden alweer! maar op die inspiratie en energie kunnen we nog wel even door! mooi verslag
er staat een lekker windje vandaag. met het zonnetje erbij kan de vlag trots wapperen.
eerlijk en mooie uitspraken. ik zorg omdat...
uitreiking verpleegkunde trofee. kandidaten zijn aangedragen door collegas. bestuur en var kiezen winnaar
geen leven is zonder zorg. wat ik zelf bijdraag?
op deze mooie dag van de verpleging mag ik op bezoek bij
gemeenten vormen black box bij indicatiestelling wlz
overnachten in kan heel speciaal zijn!
logo staat er mooi bij thanx jenny groenewegen v/d weijden!
gezocht bij vilans junior programmamedewerkers
waarom ben jij trots op de zorg? deel het met ons en misschien komt jouw verhaal in v&ampvn magazine!
speciale gasten verhalenverteller &amp muzikant willem boon prachtige luisterliedjes
over mannen met baarden 16 maart vlaamse vertellingen in
tof! over een maandje de uitslag...
welk soort ziet u wel zitten in
mooie aanvulling op de avond! dat worden mooie luisterliedjes voor 16 maart
wandelingen en natuur in beeld met met technologie van google slimme zet.
over mannen met baarden 16 maart vlaamse vertellingen in o.a. door
weird! dit betekent dat allerlei mensen het risico lopen om te worden van hun eigen adres
is zo leuk om te wonen! check dit evenement 2&amp3feb
volgend jaar staat hier natuurlijk lezing over tussen dit jaar gewoon bezoeker
van spaanse costa tot hollandse kost 26 januari zit vol. volgende is 16 maart
26 januari van spaanse costa tot hollandse kost. ook in
vanaf volgende week is de filmavond een cabaretavond! mooi initiatief van bewoner. goed dat t mogelijk isin
social media in het kort twitter is een soort kroeg, facebook een lange tafel
leuk programma! vertellen voor 50plus? is een mooie stelling. bij op zelfde locatie zit veel jonger publiek.
het gaat nu hard net iets meer dan 10 plaatsen nog maar over voor 26 januari in
de koks van zijn druk met het perfectioneren van het menu voor aansluiting bij de verhalen
dit jaar nog niet op de maar wie weet volgend jaar... hou de naam in de gaten voor mooie
samen met net het menu besproken met de koks in dat gaat de beleving compleet maken!
20 aanmeldingen &amp nog 18 geinteresseerde voor het op 26 januari in utrecht. wil je er ook bij zijn? chec…
jammer dat ik niet bij de generale repetitie kon zijn! op naar de vertellingen in je 2e woonkamer
26 januari van spaanse costa tot hollandse kost utrecht
vanaf haar 5e jaar dicteerde ze haar moeder briefjes voor school. wie is de verteller eigenlijk op 26 jan?
storification, mooi woord. is hip digitaal of gewoon met eten erbij tijdens
schrijven 11 december in anneke en justin bekijken leesgedrag van je bezoekers, opbouw …
workshop webtekst schrijven 11 december is er weer 1 in utrecht. anneke en justin bekijken leesgedrag van je bezoeker…
artikel bij bijeenkomst ‘stand van de gemeentelijke de organisatie van het leren’ op 6 november jl.
de volgende als reisbegeleider gaat naar het mooie in tsjechie! met de aa…
mooi driehoekje studenten, rode kruis en gemeente vol energie weer aan het werk na de lunch.
world of difference richt zich dit jaar samen met vodafone op een gezondheidscampagne via de mobiel in ghana. mooi pro…
ook niet effectief genoeg in uw rol als gratis op 27 november …
advies nodig voor een weloverworge informatieavond 13 nov. van de hele schoutengroep incl.
hulskamp audiovisueel hulskamp richt webshop in voor 5 universiteiten via
afgelopen 3 jaar geen opleiding kunnen volgen? via a+o fonds gemeenten kun je aanvragen!
vrijdag 2 november door onze partner thema georganiseerd! mijn favo workshop game de trainer, train …
je kunt je nog voor 1 uitvoering van professioneel# adviseren inschrijven dit najaar. anders pas 2013! wat gaat 2012 t…
hulp nodig bij besluitvorming rondom organisatie van het leren binnen uw organisatie? 6 november stand van gemeenteli…
betrokken organisaties scoren over gehele linie beter!
goed plan kansen pakken in de efteling, nu ook toegankelijk voor
10 jaar alweer! 110 positiebepalingen en audits op een rijtje gezet
voordeel van binnen schouten groep werken samenwerken met thema voor een mooie bijeenkomst
de presentatie van straks voor toch nog even in prezi gezet. handig die powerpoint converter!
duurzame reizen! springreizen op zoek naar nieuwe voorzitter
bergen op zoom en dordrecht winnen nationale trofee12. spirit &amp goed omgaan met stakeholders
op was marlies westerhof met haar vissekomsessies winnaar van prijsvraag van mooie dag&uitr…
vandaag jonge ambtenarendag! wie zou de opleidingcheque winnen van ?
presentatie bijna af voor auditoren, actualiteitendagen
dat jullie het even weten... mannen vinden hun locatie belangrijk, vrouwen natuurlijk communiceren... maaruh, waar is …
social media voor verschillende functies interessant. ook voor beleidsambtenaren. welke rol pakt u?
check out this presentation het nieuwe leren voortborduren op ervaring
nieuwe uitgave van het boek grip op beleid boek uit de bestuursacademie reeks! nu natuurlijk uitgegeven door thema.
en de winnaar van de publieks en juryprijs is... christophe van der maat! gefeliciteerd!
vastleggen, bewaren... social media?
dit onderzoek is natuurlijk ook nodig. anders hebben we alleen maar aannames.
weinig managers, veel tevreden medewerkers. laat de creativiteit stromen.
haags theater haakt in op het nieuwe werken nu ook daar werkplekken overhetnieuwewerken.nl
artikel online het nieuwe werken hoe draaien we deze superhit niet volledig stuk? uw organisatie ontwikkelt door in …
niet alleen nuttig voor de peuterspeelzaal
gewerkt aan speciale editie van het maken van bij nu busniesscase voor
trots! rol en positie van de afdeling bij zit bijna vol bij eerste uitvoering!
ik ben benieuwd naar de plannen!
succesvolle sessie sensitiviteit. tijd voor masterclass beinvloeden zonder macht 17 nov
sorry voor de late reactie, maar citrix werkte nu prima!
open deuren intrappen... zullen we nu eens niet generaliseren, wat meer in de diepte kijken? het waarom ofzo?
helemaal mee eens
nee, helaas nog niet. er moeten eerst nog andere knopen doorgehakt worden. maar ik blijf het in de groep gooien hoor.
training mediationvaardigheden openen voor en dan weer even uitproberen in amersfoort
alles goed hier! veel aan het flexwerken en kan weer aan de slag met projecten die me enthousiast maken en energie geven.
ik ga het morgen nog een keer uitproberen, bij er waren wat problemen om citrix omgeving in de lucht te houden.
teken vooor behoud gratis fietsenstallingen op utrecht cs!
geen theorieboek óver maar een geschreven dóór generatie y. inclusief visie van aantal goeroe…
ik zou een dergelijk onderzoek ook wel willen zien voor de andere pijlers van er zijn veel aannames te maken.
meetingxs van regardz aan het uitproberen met in amersfoort
sjonge jonge jonge. wat een...
first try to understand before wanting to be understood’ covey, zeven eigenschappen van effectief leiderschap’ een dialoog voeren in…
met dank aan tenpages.com! reserveer nu en krijg korting...
veel trainees binnen voor traineeship met plato. nu netwerk nog verder in voor projectplaasten binnen …
voor de wereld van morgen
mooi programma rond over rol van bij met 5 gastsprekers voor extra discussie en …
melle van der heide
vandaag training ontwikkelen van erg hoeveel aannames je normaal eigenlijk maakt!…
strategisch hrm of alice in wonderland
een top 25 elearning blogs bron
druk met voorbereiden presentatie over het nieuwe leren voor vetronbijeenkomst voor hr functionarissen morgen
vooral raadsleden actief op social media
kern van waarheid, maar titel is beetje kort door de bocht jonge ambtenaar wil het oude werken
social search update de toekomst van search via
goed te horen! de masterclass beinvloeden zonder macht was ook zeker weer een succes! 13 tevreden deelnemers met actiepunten.
vandaag de laatste masterclass voor bij dit voorjaar beinvloeden zonder macht
interessante proef als basis! check ook even de 7 voor
goed om weer even bij stil te staan rt@ronaldscher hoe manage je de van je
business modellen voor communities via
als je meer leeft, zijn er meer risicos. was een inspirerende man. rt bergbeklimmer ronald naar overleden
rt slecht omgaan met email kost een fortuin daar iets aan doen? kijk bijv. bron
goed te horen! hou me op de hoogte!
vanmiddag weer leuke club over de vloer voor masterclass politieke antenne
super veel zin in mijn eerste klus als
hoe kun je studenten om actief betrokken te zijn bij eigen gratis cursus v. ou
jaarboek jong&ambtenaar2012 welke rol speelt social media in dagelijkse werk van ambtenaar? www.binnenlandsbestuur.nl/jongenambtenaar
veel interesse in gedragscodes voor zakelijk gebruik social media. nodig?2e druk code sociale media
vacature productie assistent bij nff
nice! nog 363 dagen te gaan ik hou het in de gaten! de raderen draaien al...!
als het in amerika kan dan ook in nl?! amerikaans stadje floreert zonder één enkele ambtenaar
natuurlijk heb ik op internationale dag van de creativiteit. kom niet verder dan buiten in zon werken. nog 364 dagen over.
vanmiddag naar startmiddag. gemeente op weg naar hun nieuwe stadskantoor en andere manier van werken!
vanmiddag gaan we los met masterclass voor maak werk van je ambities.
sta hier even bij stil zei een informatieondernemer verkoop niet je uren, maar je kennis
nee helaas geen aandeelhouder van deze heb ik gemist! maar zeker geinteresseerd. top combi, goed voor marketing.
wat leuk! benieuwd naar reviews rt boekpresentatie van de topmanager speelt 442 in het amsterdamse vakzuid
en? kun je kennis afkijken of alleen gedrag? nieuwe blog ria van dinteren
symposium communiceren in mensentaal taalunie neemt project begrijpelijke formulieren over.
tentoonstelling 3 oude werkplekken laten zien hoe ambtenaren vroeger met elkaar omgingen en werkten + nieuwe...
ik ben echt blij met de nieuwe site! flinke verbetering
wereldmensen zijn niet uit op zelfverrijking ten koste van anderen. ze delen. op naar boeklancering
rt saskia van der vlugt wint juryprijs tijdens jonge ambtenarendag 2011
top! betere reclame is er niet rt social media brengen burgers dichterbij interview met oud workshopdeelnemer
goed terugkomen zo van vakantie masterclasses voor vullen zich al aardig.
inspirerend die gun ik iedereen.
net ons van slag gebracht door dmactie. sommige krijgen de mail 4 keer in een half uur... mag ik even huilen...
van onze maak werk van je ambitiesbegeleider carrièreswitch in drie stappen
het lijkt vandaag op een websitetekstdagje...uptodate met
volgende week is alweer de in iemand nog tips? iig even langs
hint met de motor kom je er wel....
onderweg naar bijeenkomst in utrecht sociale media, ontokoombaar.
als je het over de duivel hebt ideeënboek sociale media in het onderwijs, initiatief van
heftig. beelden van de in nieuwzeeland
nee, helaas! maar zag vanochtend een tweet van erover!
presentatie over de toekomst van leren via
aandacht in telegraaf voor digitale brievenbus van rdw overheid gaat over op email. voelt een beetje dubbel...
bedrijven niet op in 2011.
ik dacht dat doe ik even maar moet toch wel even wat lezen. dan maar even old school met het kladblok eerste opzet voor
tuschinski bestaat 90 jaar, dat vieren ze met 9 26 februari eerste film the kid uit 1921
vandaag knopen doorhakken training gaat door. goed op weg met workshops voor gemeente.
bladerend door themanr. opleidingen helemaal eens met alex brenninkmeijer ideale opleiding voor iedereen is
gelezen? scholier bouwt bron
ook iets voor boa om aan te denken?
genieten verhalen van bill geist way off the road. zou dit net zo goed?!?
kun jullie hier nog wat mee? rt@hno hoe jongeren te bereiken op social media
professionele fotograaf check aan enthousiasme en ideeen ontbreekt het haar nooit!
gedeeld leiderschap! unmanage your employees bron
verhip, er is ook een mieke souverijn...!!! en zo te zien ook bijna even oud... ik heb toch echt geen typfout gemaakt....
nuttig artikel als eerste moet intranet worden afgeschaft
klassiek vs. online netwerken in 1 minuut op
de waarde van de balkenendenorm neemt ineens flink toe.
vriendin van me wil je helpen met de visitekaartjes. mail me maar even dan koppel ik jullie aan elkaar!
ben benieuwd naar boek van gedeeld
top preunie gehad om poolexpeditie voor te bereiden. kan bijna niet wachten tot het maart is!!
top dit! alle aandelen manuscript zijn verkocht
gaat naar de beurs... wouw.
wint bestuursacademie.nl publieksprijs en is jonge ambtenaar van het jaar 2011 maak er een mooi jaar van beide!
is nu echt begonnen! ben benieuwd wie de jonge ambtenaar van het jaar wordt!
zeuren heeft geen zin, zorg uitspreken wel en nu nog actie ipv abstracte ideeen voor lerende overheid
mmm, ik kom er achter dat de platenspelers twee weekenden geleden al naar de kringloop zijn gebracht! sorry, wist ik niet.
succes! en utrecht is ook leuk hoor haha
sinds mijn 7de, maar dan wel b. buiten bij kockengen in de buurt. kom oorspronkelijk uit rotterdam
een filmpje enkele fotos zitten rond 039 nee, werk niet bij ncsi, maar ken maker
dan wordt het een rare combi met een trekhaak...
ai... maarssendorp leukere, oudere uitstraling, maar dat is buiten valkenkamp. breukelenelitairder? maarssenvolkser?
ik heb een leuk filmpje gezien waarbij er een combi gemaakt is van foto en film. lijkt me leuk voor portret.
dus ik moet even een stofdoek meenemen... hebben jullie zelf nog een wensenlijst of willen jullie er geld voor hebben?
maarssenbroek niet echt, bisonspoor winkelcentrum met alles erop en eraan. niet sfeervol. maarssendorp heeft zeker leuk centrum.
top! en zij wil er ook vanaf? ophalen is uiteraard geen probleem.
die wijk ken ik niet goed. volgens mij hebben ze een actieve wijkcommissie. informeren bij gemeente? heeft wijkgericht werken.
ik kom uit breukelen en heb in gewerkt. maar het scheelt wel of je het over maarssenbroek hebt of maarssendorp.
heeft iemand een over? voor op trekhaak
tja, mijn handschrift... er is een goede dokter aan mij verloren gegaan. ik zal voor platenspelers even checken voor je!
iemand 2 kaartjes over voor snertconcert slot zuylen? wil malac banda zien.
gunfactor will keep it in mind! genoeg gehad daarvan vandaag iig.
dit is echt top!
weergave van impact overstromingen met cool mouseover
kunnen deze mensen zich elke dag even bij me melden? wat een super dag
vandaag naar volgens mij ruim 150 man aanwezig!
en ik hoop dat wij de zwerm met ons team kunnen uitproberen!
gesprek was zeker inspirerend! joan en ik gingen vol energie weg. ik ben fan van
het blijft een mooi concept die chocolaatjes, maar die vormgeving is toch wel echt aan vernieuwing toe!
nog niet echt overzichtelijk. maar wel een goed podium om nieuwe sprekers te waarderen en promoten.
waarom komt zelfroosteren niet van de grond in nederland? mis ik in dit artikel
ga je naar de famo bijeenkomst over dit thema in februari?
top sparsessie gisteren. hele weg naar huis woorden aan het bedenken geweest heb jij hem al?
bob blijft fris! staat op het bord naast de boerderij. ik neem een flinke teug mestlucht. heerlijk hier in lemerenveld.
een dj in de ochtend... ik hoop dat dj seipie dan een paar goede jazzplaatjes draait. of wordt het ochtengymmuziek
ik had beter een b&b kunnen doen. gisteren westfriesland, vandaag tuitjenhorn gemeente harenkarspel
gefeliciteerd!
vandaag een dagje in de kop van noordholland. blijft mooie hoek.
en wat vond je van australie op blote voeten? geinspireerd?
je kunt er overal over nadenken op fiets in regen, in file a12, straks bij guzman. waarover?
ben jij toevallig ook morgen bij de brainstormsessie in utrecht over leerdoelen online leeromgeving ? dan even babbelen?
sporten net gemist, maar voor een goed doel. thanx
vandaag weer in voor training van welke vaardigheden hebben beleidsmedewerks 2.0 nodig??
goed om te zien dat oude media prima new media kunnen promoten! veel aanvragen afgelopen dagen voor training
vandaag bezig met het perfectioneren van ons aanbod voor een leuk en nuttig actueeltje getypt voor bestuursacademie.nl
en al gelukt... of moet je toch maar een andere uitdaging zoeken met de racefiets.
vandaag weer voor het eerst geroeid. heerlijk zonnetje. maar gisteren nog een herenacht gezonken door ijsschotsen
moet toch eng zijn om dit tegen te komen als je niet weet dat het er ligt... new underwater sculpture garden
schrijfmaargewoon.nl is uit de lucht! heeft iemand een tip voor een soortgelijke site?
we zijn ook dit jaar sponsor van de publieksprijs. stemmen kan tot 27 januari.
waar kom ik achter zijn toch nog niet helemaal uit mooie combi
waar anders kun je nadenken en stappen zetten over het nieuwe leren dan in een nieuwe werken omgeving
wat goed! ben benieuwd... word je ook zzper? cu bij
toch wel handig dat onze trainingen op eduhub staan! ben er vandaag druk geweest met aanvragen.
jij ook gelukkig nieuwjaar! en geniet van de vaderschap! gefeliciteerd.
de werkkamer opgeknapt, wat een ruimte...! goede homebase voor het nieuwe jaar, het nieuwe werken en nieuwe kansen en ideeen.
check brainstorm leerdoelen online leeromgeving
je hebt rupsplannen en vlinderplannen. tijd om te kijken naar nieuwe mogelijkheden en lekker te fladderen.
weer een nieuwe naam de reset generatie rtnederlandse jeugd is weinig merkgevoelig, adformatie
nadeel van thuiswerken je hebt geen invloed op wat je buren doen. zo kunnen ze zomaar besluiten een muur te gaan slopen
zullen we begin januari weer even gaan zitten over de workshop? o.d.z. bedrijfsleven en overheid versterken elkaar!
hoe bouw je een overlevingsstrategie om tot leefstrategie?!
thanx voor de link
helder toch? nu nog zorgen dat iedereen zulke afspraken kan regelen als kim...#hnw stuur niet meer op aanwezigheid als…
aan alle op even naar meisje met rode sjaal en muts bij fijne kerst alvast!
zo even oefenen voor lapland poolexpiditie... gewoon in provincie utrecht!
uitgerekend vandaag wordt er getest met winterbanden voor de fiets... misschien gelijk sneeuwkettingen
zullen we maandag even contact hebben over spelen met en
na de nodige en nuttige interviews en werkoverleggen is de eerste opleiding nieuwe stijl klaar adviseur lokale overhei…
en ik dacht dat de aanvragen voor dit jaar wel klaar zouden zijn. score vandaag
straks naar provinciehuis s hertogenbosch. het begin van een inspirerende samenwerking!?
ben je eigenlijk nu al helemaal los? je afscheidsfeest gehad? ik hoop dat je net zon enthousiaste vervanger hebt geregeld!
zullen we het naar 2011 tillen? het is druk hier laatste paar weken.
je kunt cv ook in prezi zetten rtmaak van je linkedin profiel prachtig cv
18 december weer young professional ontvangst door de nederlandse bachvereniging
interessant die verschillende perspectieven. al deze partijen moeten vaker samenkomen. ook andere vakgebieden
wet van pleuris 2.0 pvxrxsmxm in het kwadraat.
vakdag veilige evenementen, he is even rijden, maar dan heb je ook wat. andere kant van land acties tegen bezuinigingen leger...
vandaag bij training regisseren van geweest namens dit is de toekomst! maar we zijn er nog niet...
hoe vang je een konijn dat zich schuilhoudt in 4 meter dikke bosjes?!?
is lange zit,2 uur luisteren. gelukkig zie ik bij 1op3 aanwezige pda in hand voor interactie tussendoor.
wat zijn we toch ver gekomen en wat hebben we nog een leuke weg te gaan!
ben benieuwd naar programma in s2m utrecht. ik zie jullie zo.
wow, handig www.socialmediacheck.nl, bedankt ralph van hooijdonk. en harry thanx voor alumni bijeenkomst in gisteren!
nieuwe vrijetijdsbestedingreisbegeleider worden als het luktgelijk na mijn poolexpeditie lapland op training!
oh en tijdschrijven... op zondag !!??!! voelen
mmmm grrr jij hebt wel een kaartje dus. agh gisteren was ook leuk
zoek maar even sleigh bells op
het is zon mooi weer... maar het vriest, dus voor de it is.
muisstil had hij de zaal, peter broderick. maar zijn friend erin heeft de show gestolen