ik zou zeggen... nog net te hard roepen...
zeker wel..!!
40 we gaan lekker door zoals we de afgelopen weken bezig waren. zo meteen op naar eindhoven.
er is nog veel werk te verzetten zeg ik dan..!! via
ik ben nu al fan... om nog maar te zwijgen over eindelijk weer wat meer humor in de kamer.
te schandalig voor woorden..!!
speaking like a world champion..!!
lijkt wel de tafel van ajax... al half uur niks anders dan gemekker...
tjee, jij leert wel echt goeie dingen op die opleiding niet...
precies... vrede op aarde en wat meer punten dan de rest...😂
had vandaag zeker 2 vrije kansen en dus moeten scoren.
geen rood... ? o ja, inderdaad de hele corner was niet terecht. maar het was wel hands... zo alles weer…
echte supporter blijft tot het einde..!! petje af voor van bronckhorst die aanvaller brengt... kan nog iets van leren.
ongelofelijk...!!
een goeie club had het afgestraft...!!
van harte robert..!!
zoals al eerder geopperd bij andere zaken... grote corrupte bende daar in zeist. meten met 2 maten..!!
binnen 5 min geen wedstrijd meer respect voor uitvak die ploeg steunde tot laatste minuut. nu lange reis naar huis.
en we zijn er... zonnetje en mooie grasmat... nu de 3 punten nog.
ivm ontbreken europees voetbal deze reis maar als alternatief gekozen...😜#heepsv tot straks in
uiteraard gunt iedereen paal een goede toekomst, maar de betrouwbaarheid van de beide heren is nog verd…
wanbeleid van de bovenste plank..!! 3 uur geleden kwam en zeker nog een linksback..??!
na geruchten over nu ook al weg bij ons
jij zult nog eens een wijs mens worden..!!
de welbekende eieren na pasen vriend... wordt eens wat minder zuur en geniet van de mooie dingen..!!
niet alleen dat, maar ook lange rij bij food en drinks ivm nieuwe betaalkaart..!!!
en ook pa verstappen is duidelijk... dit kan niet. en dan daniël op het podium, waar max had moeten staan
ik snap hier ook niks van... eerst wel dan niet, halve selectie straks verkocht en dan…
blijf volhouden wat er ingezet is daar..!!
in de pocket..!!#nacpsv en bedankt voor de gastvrijheid en tot in eindhoven.
we zijn er... come on
het is uitverkoop... straks de jong nog....kunnen jo19 inzetten, die halen knap de finale. zull…
lijkt me toch sterk hoop dat je snel iets meer weet kan me niet voorstellen dat €1…
volgens mijn tomtom maar 71 km..👍
maar het ligt er wel dichtbij, dus dit moet goedkomen...😜
nu de 1e emotie eraf is, wordt het tijd om vooruit te kijken. laat leiderschap zien…
als je voorronde europa league wilt vergelijken met een kermiskoers...
met 2 aankopen en de rest hetzelfde team, lijkt deze stelling het net niet te halen.... 😝
excuus generatie my ass !! max verstappen, dylan groenewegen, tom dumoulin, vechten voor elke meter.…
bevret van onvermogen van om een journalist mede verantwoordelijk te houden...!!
dat er iets gruwelijk mis is, weten we als supporters al ff. neemt niet weg dat de pla…
opvallend stil bij je toon..??!! of ontbreekt de motivatie om de supporters te woord te staan..!!
ook hier ontbreekt elke vorm van zelfkritiek..!! 2 slechte wedstrijden, rivieralen onder cocu.
beterschap hoop dat je snel weer herstelt bent.... kun je meteen met mediatraining beginnen voor…
echt waar hier zet je club, maar vooral ons als supporters zwaar voor lul...!!!
tranen met tuiten ben benieuwd naar de reactie van wie pakt er verantwoordelijkheid..!!??
maar 1 mogelijkheid... vol voor de overwinning gaan...!!!
er is maar 1 optie... winnen door alles te geven..!!!
bizar, belachelijk en zo 2015...!!
de spijker op zijn kop..!! tijd om eens in te grijpen.
het woord is aan tijd voor nieuwe impuls..!!
alleen de oorzaak van de slechte start heeft een mechanische oorzaak... dus ja..
maatschappelijke verontwaardiging hard nodig..!! help ons of de kwade krachten gaan winnen in brabant via
van harte robert..!! tot de 20ste augustus. 😜
hoe zuur kan het zijn... op p1 bijzondere race daar in wederom het slachtoffer..!!
dat wordt inderdaad flink zweten straks op mijn fietske... mijn idee is goed drinken...😜🍻#berkelenschot…
supergave actie voor haar fans..!! een persoonlijke kaft om clubblad..!! never seen before. thxs…
bij jullie ook een vlag..?
was weer een mooi feestje gisteren..!!
en nu met gierende banden naar huis en dan bier drinken bij dat wordt een feestje..!!
mmm, zou eens te raden gaan bij die met zijn clowneske gedrag ervoor…
lak aan de bevolking... als je 9 mln tov 1,4 mln zo wilt noemen klopt je opmerking..... maar ja, d…
gefeliciteerd en geniet ervan..!!
wat een klasse gefeliciteerd met deze historische overwinning 🚲🚲
en terecht... lekkere pitstrategie heb je dan.!!
hij is te koop hé...
have fun en succes daar..!!
laat de ☀️maar komen..!! berkelenschot
nog steeds bekabeld 9 mbs down en up hier in huis. storing nog niet verholpen..?
dat de hamster, cavia, parkiet en de vissen denk...
en wie haalde er geen aanvaller in de winterstop..!! tuurlijk speelt het gebrek aan honger mee, maar…
wat een zooi bij die van de ... nog nooit zoveel verkeerde keuzes in paar maanden gezien..!
hopelijk wel met andere spelers
gefeliciteerd..!! op naar de volgende.
meehuilen wat een gelul man... heb geen enkel voordeel om anders weer te geven. h…
je hebt wat gemist vandaag...
nou was dikke paniek in het vak erboven kan ik zeggen...huilende moeders en kinderen..!! slechte r…
one man show van bijna ten einde
denk dat het haar van niet goed zat, want hij wilde niet op de foto bij beetje jammer
echt te triest voor woorden..!! wat voor mens ben je dan, want supporter mag je dit niet noemen...
dat lijkt mij een strak plan..!!
wat een wijze woorden...alsof hij dat zelf niet snapt max mag even balen, maar moet snel vooruit kijken
wat een flauwekul. philip niet het probleem, de groep en aankoopbeleid van marcel wel. na 2 jaar kampi…
goede analyse....marcel brands is de 1e die zich moet afvragen of hij de juiste zaken heeft gedaan... r…
veel plezier en geniet van het mooie voetbal van
wat een stemmingmakende kop weer..!! inhoud van het artikel gaat over briljante onderhandelaar…
mede namens een lekker begin..!!
dan zouden jullie daar in sigarendraaiersland toch beter moeten weten..😂
stadion is net zo groot ja...😜
heb geen facebook, maar snap het helemaal. thxs en tot morgen
laat je ook weten als het vol is morgen. dan rijden we rechtstreeks naar spaanse polder..? thxs
omdat mijn zoon in deze fotoidolaat van heel graag dit aandenken wil.
mafiapraktijken die onacceptabel zijn...!!
de witte zakdoekjes liggen klaar. wat een aanfluiting. 1 conclusie functie neerleggen na ook…
anders geven we een trotse crimineel een podium gelukkig is daar nog..!!!
blijft maffia daar bij de waarom de ene keer wel en andere keer niet... welke club het dan ook betreft..??!!
poeh... gelukkig geen populistische partij..!!
in de rij bij de stembus...lang leve een echte democratie
nou mag je de oplossingen op tv geven, laat je het na... best jammer.
geertje weet vooral te zeggen wat er niet goed gaat... nu de oplossing jongen..!!
we zitten er al klaar voor..!!
ik zeg trek open die fles bier..!!🍻
in debat weet slechts commentaar te leveren. positief en eigen standpunten blijven achterwege..!!
goeie overwinning met strijd en passie..!!
waarom nu de siem de jong flipke..??!!
bob de manager duikt het café in met collega’s
onderweg naar voor come on you boys
wat een gelul zeg bij frenkie weet de oplossing... nu overdoseren kun je kater weer minderen... tuurlijk..??!!
einde kampioenschap voor zwaar gestreden maar op vele vlakken te kort gekomen.
back in business... deze zag ik ff nog nie aankomen zeg maar...#feypsv
helemaal niets in te brengen... psv is echt bedroevend vandaag
bewijst de bende bij de nog maar eens te meer..!! eens supporter altijd..!!
populaire uitspraak in verkiezingstijd..!! waar was de politiek de afgelopen jaren
ik denk dat ze zich moed inpraten na deze dramatische pot...😜
wat een vreselijk vent die neuzenscheids
ongelofelijke neuzenscheids..!!
best of the rest debat..!! poeh, dat geeft een hoop energie ineens..!!??
en dan als commentator nog van een slimme actie spreken..??!!
staaltje brabantse gastvrijheid..!
matig..!! understatement van het jaar. gemiddelde zaterdag amateur kan makkelijk mee hier.
whahaha... wat een chicken die mond vol van nepdemocratie en laffe politici. omdat de voorwaarde veranderd zijn..!?
doe mij die kaarten mar. mijn score ge zet nunnen echte!! hoeveel carnavalssteden ken jij? via
nee die twee reserve doelmannen van jouw 020 cluppie wel zeker...
had nooit naar de bank moeten zetten. was foutloos alle voorgaande wedstrijden.
ben je denk ik deze ff vergeten...
van het kerstvrouwtje gehad... thxs op de achtergrond
allemaal mooi sportmomenten bij de mannen, maar eentje die het weken achter elkaar deed... de winnaar moet zijn
mooi ode aan johan cruijf ook leuk dat wesley sneijder in een oud pakkie de bal ff hoog hield whahaha
terechte winnares van sportvrouw van het jaar
bijzonder geen sportploeg van het jaar voor handbal dames... was spektakel van de spelen.
bam... zo doen we dat.
ajax heeft stage bij toneelvereniging gedaan. wat een tuimelaars zeg
wat een tuimelaar die en daarna lopen janken ook nog
zo ga je een topper in die watjes uit 020 kunnen niks hebben..!!
wat een gezever dat commentaar van die leo oldenburg.
en zo doen we dat..!!
cambuur uit... altijd lastig... whahaha
wat een toepasselijke uitslag 013
veel kansen en alles aan gedaan...!!?? na 80 minuten wel ja, daarvoor niks van gezien
dan wordt het tijd dat daar wel gewonnen gaat worden..!!
precies... 1e helft was te voorzichtig. niks gecreëerd
compleet de weg kwijt die cocu..!!
wat saai..!!?? rete saai zeg maar gerust. 0 schoten on target...😃
tijd voor actie, 3 punten en zinderende pot voetbal. dat hebben we wel verdiend onderhand....
cocu blijft wel erg behoudend spelen...@psv waar is het lef gebleven..!!
janken... wat een beroerde pot voetbal...
hoeveel kan een mens hebben..!!
over en sluiten voor vandaag op naar rostov thuis...#eendrachtmaaktmacht
geen kans voor via binnenkant paal binnen. fout begon weer bij pröper op middenveld na wederom slordig balverlies
alsof ze naar haar verkrachting een moordenaar tegen is gekomen..??!!
weer een mooie mijlpaal, gefeliciteerd met jullie pap. uiteraard ook voor de rest van de familie
na een uurtje afzien tijdens de spinningles, was de sint geweest dankjewel sint..!!
tja, wat kunnen we er nog van zeggen. lef tonen, vechten en andere keuzes maken..!!
meer lef tonen in opstelling. tegen de nummer 17 extra aanvaller ipv schwaab..!!!
ongeïnspireerd, plichtmatig en zonder de wil om te winnen..!! weer 2 punten achtergelaten.
ongelofelijk jammer... start achter
daar gaan we dan ..!!
wat een kansloos voetbal zeg, supporters kosteloos stellen en vooral spiegel voorhouden..!!
zware tijden om supporter te zijn..
ervaring rijker... mooie dag geweest nu op naar huis. over het voetbal van gaan we het niet hebben.
op weg naar voor
tot morgen en goede vlucht..!!
wat is er mooier dan met dit weer een plonsje te maken
wat een desillusie..!!! laten we het houden op slechte generale... tot woensdag in münchen...
vanuit het stadion
nee, vooral die voormalig 020 keeper opstellen ipv
de op de schop bij niemand die het snapt behalve der hanz von breukelen
super intelligent die van ons...!!
ben je echt de betere en vergeten we weer door te drukken... come on you boys
nee, dit geloof je niet...#rospsv
en zo is het..!!!
op naar de 1e overwinning. wordt weer mooi feestje vanavond. nu al zin in..!!!
whahaha...!!! nee, dat zagen we niet aankomen.
nlb stand 01 blind op zijn oranjes tegen de rode duivel de bruijne.
van harte..!!
ben al een weekje bezig, het went zo..😜
maar wel nadrukkelijk door zo gebracht. beetje smakeloos en dan bedoel ik haar niet..😉
gezocht baasje van
zenuwslopend wat een promotie voor de handbalsport
ik zeg strik erom en zelf wegbrengen, na slecht optreden afgelopen wedstrijden..!!
one man show van is begonnen. arrogante eikel..!!
ik zeg een goed begin is het halve werk... whahaha
en zo is het..!!!!
waardeloos..!! tennis verlaten om een 3e heat bij onbekende zwemmers te laten zien..!!👎👎
voor een publieke omroep opvallend veel reclame tijdens
prachtige column..!! als teamnl echt een team was, pakte iedereen zijn spullen via
net terug uit frankrijk en meteen gedaan. hopen op mooie loting..!!
hoe moet ik nu in frankrijk op de camping volgen..??
shirt van al ergens te koop..? nog niet in webshop te vinden. maatje s voor jullie promotiekeeper..?
helemaal mee eens..!!
6 films en een dutje verder en ze zijn er.
zo is het maar net. dat denken we in eindhoven ook.
proficiat joep, heb je dit seizoen toch nog iets moois gezien in een wii shirt 😜
proficiat, mooie wagen buurman..!!
leuk interview nu op de radio. goed onderwerp om mee bezig te zijn..!!
wat een sensatie..!! petje, hoed, bontmuts...af voor max.
succes erik, wij zijn kampioen..!!
heeft niet geholpen joep..!! nu jullie zorgen dat je erin blijft.
het ontbijtje op bed is al klaar en de zon die schijnt. fijne allemaal.
en gas erop..!!
en zo is het.. !!!!
en dat terwijl schaars erg goed speelde afgelopen wedstrijd..??
zekers... bijna op weg naar voor
komt ie nou mee... lekker makkelijk. cruciale fout pipo..!!
wat een prutser die makkelie..!! vriend van de j...
op zijn 020 met een cadeau van de scheids..
johan cruijff 68 overleden... een held is niet meer..!!
daar gaat ie weer
bedankt voor de afgelopen 24 uur een ervaring rijker en een illusie armer. op naar zondag
graag gedaan, het was spannend tot de laatste minuut. nu van schiphol naar huis.
we gaon beginnen
we zijn binnen...
wij zijn er..!!
tussen ahtletico voor het stadion. eeg relaxed hier..
er is helemaal niks aan de hand in madrid. bedelaars doen alles voor geld.
super reis gehad met de supportersvereniging van top geregeld..!! zo de wedstrijd.
daar gaat ie dan...
onderweg naar
nog een paar uurtjes en dan vertrekken we..!!
gerechtigheid in dorp. klasse van ..!!
2x foutje en staat weer voor... op zijn 020tigs zeg maar. tot volgende week
net voor het triple spanje ff die andere buitenlanders afdrogen
ik herken je uit duizenden... 😂😂
had toch meer hoop gevestigd op
goed begin van de dag..!!
op naar madrid..!!
dat wordt dus pompen of verzuipen, zoals guus zegt...
nu stand houden, dan wordt het over 3 weken leuk in spanje als we daar zitten
rete spannend hier op basis van 1e helft goeie stand.
en guus is ook binnen
sfeertje denk of nie dan... jongûh..!!
we zijn er klaar voor..!!
een echte taart gemaakt door linde en julia
ook voor prins martijn en prinses hilke gast de plaatselijke tweekleur in de top..!!
vanavond geen maar tonpraoten in met oa toi..toi..toi, zoals ze dat bij echte artiesten zeggen.
spannend... zijn we erbij of niet..!!??
waar rook is....
hoezo gestolen ? lesje in effectiviteit heet dat!!
weet jij toevallig wat de stand is bij ?
en ik ben erbij..!!
bam... tickets geboekt voor atletico madrid psv
op 2e kerstdag samen met onze flynn en de familie. het kan niet beter worden..!!
fijne feestdagen allemaal..!!
super gave actie..!! was erg verrassend en zeer gewaardeerd.
vanavond bram op het veld bij dezelfde jongen die als keeper in de goal hangt bij de fotos van de voetbalschool.
iets met boog en gespannen hier...
wat een wereldpot speelt hier weer... laat maar komen
en is er ook.
in alaska op tv doen ze dat een stuk vlotter..!! uur staan te jongen met een paar stukken
verdiend punt, geweldig gewerkt door de spelers, fantastische supporters.
op naar een stunt..!! dit moet kunnen
het lijkt wel een thuiswedstrijd..!! prachtig legioen
nog 45 min de zuidwester opzetten en de storm overleven.
contract voor het leven geven die jongen
klopt ff aan de poort nu.
nuttige redding en weer een storm overleeft.
mooie ode aan bij
lucky ajax... eerst bal uit en dan van richting veranderd...
zo is dat... vechten voor die punten
dan maar in sprookjes geloven...
inspiratie was na 1.25 minuten weg. tijd voor wat verse spelers
bam... tien...tien....tien
vooruit de
onderweg naar voor weer 3 punten bijschrijven..!!
veel plezier... die blonde heeft het gedaan..😭😭
succes, mijn dochter vindt witrosé een mooie combinatie...
les 3 van de puppycursus
een beetje..!!!
zo in de .... wel ff geduld hebben overigens
we zitten er klaar voor#twepsv
nee, ik zou ook kapsones hebben..!!
tja, veel inzet maar lesje effectiviteit..!!
hoogtepunt van de avond, mijn zoon op het scherm tijdens de voetbalschool van
nee, die ene minuut ging echt niet meer..??!!
tis om het verdriet weg te drinken van een dramatische pot voetbal in
gelukkig staan de kachels vol open, dus drink vanzelf veel
kunt beter in de kroeg zitten dan hier..!! lichtshow was vet, voetbal is drama
tuurlijk... live vanuit het stadion
ja hoor... nog zon ster uit het hok. dan gaat het goedkomen...not
jammer..!! uiteindelijk strijdend ten onder. als 1e helft ook zoveel strijd geleverd was, had het er anders uit gezien
wat een aanval en wat een doelpunt..!! nog maar 1 te gaan..!!
ik zeg bam... nog maar 2 te gaan. en nu door...#cskpsv
die camembertvreter doet het lekker... en dat is bijna 4
vette schwalbe maar wel 30... iets met beide benen...
tjonge jonge... tussen twee man in en iedereen kijkt... gvd
dat kun je wel stellen... erg zwakke start brenet
goh wat jammer...wij genieten nog na..!!
zo.... na dagje/nachtje met me, weer fris en fruitig overleg met onze buurcollegas uit
succes op team dongemond en bedankt voor je inzet..!!
bob heeft ook een iphone
komt goed..!! wie het laatst lacht.... hoop ik...
ik ben inderdaad ook een knuffelbeer... dat klopt..!!
wat gezellig..!!
het nieuwe lid van de familie..!!
goed moment nu het 1e geld binnen is... en nu..?? griekse premier tsipras treedt af
the english pub in spanje ontploft.. wat een held die
met als respect hoor, maar dit roep je over jezelf af..!! wel een wereldgoal overigens.
wanneer komen de fotos van de psv voetbalschool op de website..??
dit geldt overigens ook voor oosterlingen..!! 😂
17 redenen waarom randstedelingen stiekem jaloers zijn op brabanders