met de g van groots
eens. beetje magertjes
nagenoeg de hele oppositie
idd
kritisch doch constructief om de stad en inwoners vooruit te helpen en uit de misère
daar gaan we weer....kom op
jan van gorp geëerd wegens langjarige inzet voor raad carnavalesk
met de wethouder verkeer en scholen dus effe gin bier
dommelkanters 44 jaar
zal ns navragen. om 18.00 uur krijgen we de dagelijkse post. zat er netjes bij gelukkig
dat wil ik geloven. maar er is geen raadslid dat hele dag tijd heeft op ris te kijken. griffie gee…
eindhoven investeert 19,2 miljoen in nieuwe zwembad tongelreep gemeenteraad beslist maar t uit de krant vernemen
maar de wethouders zorg en financien de zaak volstrekt uit de hand hebben laten lopen. wordt de komend…
n onderkruipertje wellicht
wegkijken is geen optie. je ogen sluiten voor wat er ny londen parijs etc gebeurt kan niet meer
en tientallen miljoenen teveel uitgeven......👎🏿
op veel plaatsen hetzelfde. moet krachtig aangepakt worden door nw kabinet
goed dat de medewerkers naar buiten treden. werkdruk is huizenhoog. straks haakt verpleging en verzorging wegens burnout af.
‘bewoners liggen dagen in eigen ontlasting’, grove misstanden volgens medewerkers thebe in breda via
ondernemer kan best wat extra bijdragen nu t economisch goed gaat. in tijden van crisis investeert overheid in bedrijfsleven
aan het eigen college wel te verstaan
hopelijk heeft gl wel alternatieven om tekorten in zorg terug te dringen. gl wethouders nl grote verantwo…
je kan maar duidelijk zijn vooraf. referenda zijn pseudo democratie.
wij zijn er zeker bij
zo naar in oude v en d pand in kader
knap stelletje. verpakking prima. verwacht nog meer vd inhoud
dan zal je ook n sterke figuur moeten hebben
wensen niet mogelijk. alles wordt op goudschaaltje gewogen. grote vraag wat gaan we allemaal schrappen e…
dat t geduld inmiddels op is bij n groot deel vd raad lijkt me duidelijk. wordt komende jaren puinruimen.…
weer eens een te grote broek aan......ik wacht af voordat ik inzet
maar wel met handtekening
dan is daar t gaat van de deur zou ik zeggen.....
omliggende straten veel meer verkeer en meer vervuiling
onmiddellijk bezwaar maken en vv vragen dan wordt alles snel duidelijk. doodzonde van deze gerenommeerde lokaliteit
heb t niet over de muziek😎
gaat gemeente geld kosten. is er een aanleiding in of vanuit de inrichting ? bij de exploitant ? zaak wa…
maar de rest is blubber. sociaal domein, bedrijfsvoering 👎🏿👎🏿👎🏿👎🏿
weg ehv hmond snelheidscontrole is beetje overdreven op deze eens 130 km/u weg. vraagt veiligheid hierom of nuenenaren...😭
traantje weggepinkt
de coalitiepartijen moeten ns tientallen miljoenen teveel uitgegeven 2016 en 2017.…
wat n vraag. we zitten op nog n doelpunt of 5 te wachten
vragenlijst ??!! wat meer bekendheid aan geven dan. vog is bekend maar zegt ook maar weinig.
het mag ook mislukken bij het grenzeloos ambitieuze college deel 99 financiën volstrek…
opnieuw brevet van onvermogen met al rammelende begroting 2018. gooi de ozb maar weer omhoog😭 tijd voor n…
dit is oude info. moeten we niet op de nibud doorrekening van de afspraken van t nieuwe kabinet wachten
overigens riskante maatregel. verkeer stropt op de drukke leenderweg. geen doorstroming, nog meer uitstoot en herrie
het mag ook mislukken bij het grenzeloos ambitieuze college deel 98 buurt weet van ni…
en daarna uitzetten graag. geen tikkende bommetjes in ons land svp
dat laatste betwijfel ik want anders heeft hij n carrière op de planken gemist
mis alleen instrumenten. vog zegt niet veel
screenen ? dan kom maar met handvatten, dan doen we dat graag.
man uit huis laten zetten door burgemeester
recentelijk niets van gemeld bij bezoek aan specialist kind moet 25 kg afvallen voor operatie en is…
ach nu snap ik het enkele minuten later. anti cda programma van aantal gefrustreerde medelanders. succes....
ns afdalen naar de gewone wereld...
lezing buma wordt weer ns uit zn verband getrokken. paar passages en we duiken er bovenop. bah
ziek type. waarom accepteert de maatschappij impliciet dergelijk gedrag.
en levenslang voor de vrouw. bah
zelfs in de stad der technologie kan t wel ns misgaan
excuus, we hebben om agendering gevraagd voor commissie
daar hadden we geld voor maar dat wordt door t college aan iets anders uitgegeven.…
de coalitiepartijen moeten ns n pas op de plaats maken. tientallen miljoenen teveel uitgegeven 2016 en 2…
graag aandacht voor eigen bijdrage basisbeurs en woning forfait
deze eindhovenaar zit niet op son of nuenen te wachten. 21 gemeenten veel te veel om krachtige b…
moet zich ns beter als leider van nw coalitie gaan gedragen.
wat n geneuzel en stemmingmakerij
denk dat ik maar gauw verhuis
heerlijk
doodziek van al die afsluitingen. kan toch ook anders 2 baans
investeringen gedaan. ging uiteindelijk om een rekening van maar 10.000 euro toch ?
hoewel ik aantal majeure cda punten mis, ook veel goede maatregelen. meest pos…
sneu en heel jammer. ben diverse keren met cabs duurzaam op pad gegaan.
zo is dat. we zullen het hard te halen hebben komende tijd
gelukkig wordt deze kostbare motie door een meerderheid vd raad afgeserveerd
actuele motie doorpakken met de milieuzone. sp valt eigen wethouder af die de motie sterk ontraadt
ik zal t ns goed bestuderen. mocht t landelijk zo ernstig zijn dan......
worden de gemeenteraadsverkiezingen mee bedorven
dan weet je meer dan ik
even t akkoord afwachten maar dit is n zorg naast eigen zorgbijdrage en woningforfait. zeer benieuwd...
henk krol steekt dolk in rug oae of is er fusie op komst
en maar regeltjes maken. grote bureaucratie van gemaakt. geen tijd meer voor bewoners. en dan de ene big training na de andere....😭
what’s next. pastorie vincentius kerk. toren vml tivolikerk....
je kon erop wachten....😭
0,6 van de waarde......
en vermogensbelasting terwijl je jarenlang gespaard hebt via je woning?!
wat heeft een gezin met 3 reeds studerende kinderen hier aan ....?!
benieuwd of gakpo wat minuten krijgt. goed spelertje. gaan we nog wat mee beleven.
maak de weg vrij voor baanbrekend project van de fietswethouder😜
nieuwe tactiek van het grenzeloos ambitieuze college om auto’s te weren ? of nieuwe middeltje bedacht do…
zou budget neutraal zijn vanwege verlaging huurwaardeforfait
zeer benieuwd. behalve verbetering financiële positie middeninkomens nog weinig goeds gelezen.
incidentenpolitiek helemaal beu. auto het en der weren maar geen visie en langjarige plannen. time for a change
kan me in al die jaren.....
de parallel vergadering zelfs geschorst
tja moet iemand t gelag betalen 😭
zojuist kaarten besteld voor classic rock avond helmond op vrijdag 27 oktober. met oa fenomenale st…
een vooruitziende blik haha
vanavond de reünie 100 jaar sint joriscollege leuk om velen weer te ontmoeten. maar mis nog wel wat aanmeldingen !!!!!😭
maar burger zoveel mogelijk ontzien ii
dat het college het financieel uitermate slecht gedaan heeft eens. dat de in de begroting o…
nu coalitiegenoot op voorhand geslachtofferd. wat kan hennis nog....!
los van t rapport n opzienbarende uitspraak van coalitiegenoot. lijkt veel op herhaling van gedrag. eerst par…
het gaat economisch gezien een stuk beter nu. dus terecht ozb onderscheid ondernemers en eindhovense burgers
ing verlaagt spaarrente naar 0,05. sparen bij ing heeft dus geen enkel nut. kan net zo goed in een ouwe sok
ik laat de natuur zn werk maar doen...
bah. geef mij de lente en de zomer maar. tot carnaval verkeer ik in een hevige depressie.....
maar wel wonderlijk als je uit de meest linkse coalitie ooit bent gestapt
veel bereikt waaronder n miljoenen schuld. gaat de burger niet in de kouwe kleren zitten
helaas verhinderd. zaterdag present bij de reünie
raadswerkgroep carnaval gestart om raad carnavalesk 2018 voor te bereiden. creatieve maar vooral gezellige bijeenko…
gemeentebestuur moet zn ritjes duurzaam aanbesteden. vraag me af of ze zich nog per diesel la…
heeft vergelijkbare vragen gesteld aan t college.
vind t uitermate sneu voor kees en zijn duurzame concept. hopelijk doorstart
drijfzand en gaten over de rug van de eindhovenaren stoppen. onmiddellijk programmas en projecten schrap…
links loopt weg voor verantwoordelijkheid. lijkt wel nederland.
en zo typisch. lukt t niet de stand bij te werken. allemaal van boven de rivieren ....😬
niet te geloven bijna🤣😎
ouderwets lekker😜
nee we maken de score hoger😃
er overheen dus. dat is wat we willen zien. nu consolideren
rollen we er overheen of zakt t zo in als n plumpudding
veel plezier. wat een jeugdig publiek
en ook natuurlijk
over eventuele fusie, maar persoonlijk aarzel ik inmiddels enorm......
nuenen heeft zichzelf overtroffen door alsnog zelfstandig te willen blijven. wat n soa…
vanavond een van de mooiste eindhovense happenings succes miranda de wit en peggy smulders
blij dat ik t begrijp. benieuwd.
ik zie nog geen verlaging
ach, tis voor mij einde oefening. maar zal eea zeer kritisch volgen
nooit meer toelaten. geen band met nederland
als eerste stap voor 2018 prima maar cda heeft kiezer meer beloofd nl verlaging eigen risico. anders zi…
geweldig gebaar voor n hele mooie mens
nee, andermans geld uitdelen. alsof scholen bulken van het geld. bah!
met bijzonder veel haken en ogen.....wethouder gaat er eerst ns over praten met de scholen
moet ervoor zorgen dat eigen risico substantieel omlaag gaat per 11201…
formerende partijen willen eigen risico in 2018 niet verhogen via schrale uitkomst
opportunisme viert hoogtij. wispelturig pluimpje dat danst op de wind. teken van bestuurskracht ?! risee van de regio
interessant. hoor nu 2 dagen bij de doelgroep
binnenlands bestuur ofschoon mislukt wel mooie publiciteitsstunt. kan pvda goed gebruiken
lachwekkend ja. gewoon helpend handje. lief toch
en terecht. zijn nu eenmaal zaken die vertrouwelijk zijn en moeten blijven. onbetrouwbaar als je uit sch…
en terecht. zijn nu eenmaal zaken die vertrouwelijk zijn en moeten blijven. onbetrouwbaar als je uit scho…
daar houden we ons dan maar aan vast succes
after movie 2017 mooie reclame voor sqf
was wederom een waardige bijeenkomst
zaterdag 16 september op het podium cafe in den sleutel status quo forever moet je zien
idd dat je die 50 % gaat halen want uiteraard van groot belang, maar moet t nog zien de komende mnd…
dat ben je toch wel gewend hoop ik of ga je ook borrelen in stads. zaken die niet of onvoldoende go…
denk dat de lichte daling werkloosheid met aantrekkende economie heeft te maken. niet aan de orde ii
aha t aantal bijstandtrekkers is iets gedaald. ehv college wil t op haar conto zetten. maar t zou bij linkse coalitie met 50% dalen!! 1
je snapt werkelijk niet wat ze daar bezielt. fusiepartner krijgt veel te stellen......
aha de schuldigen zijn bekend😭
morgen in deurne status quo forever in de sleutel. ook the very top
top cover band
nu in grote zaal dutch queen tribute
voetbalvisie geen sterk stuk en geen geld voor uitvoering. voetbalverenigingen wel tevreden.
ooit anders ? hahaha lol. frank, reacties zijn weer zoals verwacht. mocht er niemand komen dan app maar. neuten we samen op ons vertrek ii
pvdafractievoorzitter frank depla houdt borrelpraat | eindhoven | ed.nl tis kwestie van inkoppen deze deed je i
gisteren in son bezocht met mooie optredens van sqf en joe cover band
lijkt me naast verhees toch n gevoelige aderlating. klinkt allemaal net wat te....
aan evt fusiepartner heeft te bieden !!!! ii
dit in openbaarheid toeteren roept twijfel aan capabiliteit raadslid op of is uiting van enorme frustra…
om psv voor n afgang en domper te behoeden
en dan ook nog durft te zeggen, laat me effe uitpraten!!!!
lachwekkende mevrouw die maar door ratelt en vooral haar eigen waarheid…
slaat idd nergens op, maar schijn tegen
ed afgelopen donderdag
het mag ook mislukken bij het grenzeloos ambitieuze college deel 97 ook initiatief van eigen raa…
dat lijkt me wel. gaat om de mens niet om zijn geslacht of geaardheid
kan ik me goed voorstellen. tropenjaren en financiële ellende. hopelijk gem. financiën helder en voor…
kijken naar toekomst maar genomen besluiten terugdraaien. ben benieuwd naar de teksten
is die naam niet beschermd?
lijkt erg moeilijk te zijn t plannen
cda moet zijn woord houden en anders niet in n kabinet stappen
ja wij...wij zijn dur bij👍😎
hopenlijk gaan we zo niet n nieuwe kabinetsperiode in
tenzij de truc is om iedereen op andere wijze te compenseren maar dat vereist wel n o…
opvang in de regio niet in europa.
mag hopen dat geen loze beloftes heeft gemaakt. worden we anders in maart 18 op afgerekend.
we weten allemaal waar de grenzeloze ambities van t huidige college toe hebben geleid. lpf doet er nog n schepje bovenop!
gaan we 150 miljoen euro lenen of laten we t huidige begrotingstekort oplopen tot min 200 miljoen ?
we weten allemaal waar de grenzeloze ambities van t huidige college toe hebben geleid. lpf doet er nog n schepje bovenop!
gaan we 150 miljoen euro lenen of laten we t huidige begrotingstekort oplopen tot min 200 miljoen ?
prima toch. maar je loopt er niet steeds mee te koop. laat staan dat je confrontatie zoekt met erdoga…
voorlopig nog te vroeg voor champagne😜
wordt hele klus om ze t licht te laten zien dan wel ze naar hun thuisland te remigreren
klagen steen en been. geldropseweg nog verder afgesloten van hun klanten. tijd voor actie, tijd voor gemeenteraadsverkiezingen ii
volgende zet van het uiterste linkse autopest college. tijd voor meer aandacht voor bereikbaarheid ook…
belachelijk verhaal. is is al overal actief. vernietigen zoveel mogelijk
poepoe. dappere uitspraak nu de economie harder groeit dan verwacht.
nauwelijks zelfreflectie. in t pluche blijven. voor n deel lief zijn om na gemraadsverkiezingen niet buit…
geen spijt van bezoek aan asten
bij innesto heerlijk aan de dis
waar haal je de tijd toch vandaan!
heengezonden !!?? moeten weliswaar lan verlaten maar niemand weer meer waar ze zijn. wie weet wat we binn…
tja zo gaat dat met veel kleine fracties. benieuwd naar mrt 2018
doe je best. ging overigens over horeca verlaatje waar zeer recent regels voor zijn afgesproken
zijn de regels die we zelf zo afgesproken hebben
gevecht mayweather mcgregor. elkaar afmaken voor miljoenen. beetje walgelijk dat er zoveel geld in om gaat met zoveel ellende in de wereld
in mijn hart demonstreer ik mee. vuist voor de democratie, grondrechten, normen en waarden, vrede en veiligheid
moet helaas tot december wachten......😜
zijn strijd is zogenaamd hier. laten we die strijd snel tot n einde brengen 👮
en waar is al dat geld van de verkopen dan gebleven???!!!
was kwestie van tijd....
zieke geesten bevuilen nu ook ons mooie land
carillon domtoren staat dag en nacht aan. dat geluid moest ns uit n moskee komen. binnenkort in utrechtse raad aan de orde. in apv regelen
niet met bedreigingen en intimidatie. niet met demonstraties en vlagvertoon. niet door turk…
ik krijg de reactie dat ik op de hand van gulen ben. onzin natuurlijk. ik wil niet dat zijn…
.... maar al te graag in de slachtofferrol.” hij miskent dus de intimidatie en bedreigingen…
.... dat is volgens mij vooral iets wat de nederlandse media willen doen geloven. en de gül…
uitspraken ertan isik, uitgesproken erdoganaanhanger, onbegrijpelijk. ik merk ... niks va…
is dan dus de oplossing dat jihadisten nooit meer terug moeten kunnen keren en dat alle salafisten ged…
als dit wordt voortgezet kunnen ze ver komen
en de wegafzettingen en sluitingen ......
helmond brengt n ode aan barcelona
lijkt ook nog goed weer te worden
geesteszieke lui. goddeloos. wordt tijd dat ze volledig geëlimineerd worden.
a.s. vrijdag tof optreden in helmondse kasteeltuin
enige antwoord is snel terug naar je thuisland. je bent geen nederlander. je hebt je hart en hoofd elders
begrijp dat de facebook reacties weer niet voor de poes zijn. onbegrijpelijk wat n aantal…
wat dat niet mag kosten!!! en wie we hiermee allemaal ook nog ns in gevaar brengen. ondoordacht
interssante knul die naar gevaarlijke oorden gaat ondanks waarschuwing overheid. wi…
dat hoeft ook niet in nederland maar dat snapt blijkbaar niet iedereen!
voelt alsof ze aan jezelf komen. bah!
het is gewoon verschrikkelijk dat ze aan je privacy en je gezin komen. dit vraagt om actie. nb ook nog g…
gaan ze ondergronds dan 😜
smaakt naar meer
heb t niet gevolgd, maar filmpje is niet echt duidelijk
heerlijk. jeugdsentiment. als klein paultje dieren kijken en speeltuin. als puber spijbelend vanuit scho…
blijft mannenwereld. zitten er ook vrouwen in t bestuur van de knvb!?
leuk. en daarna weer regenboogkleuren.
overdreven veel aandacht voor iemend die zelf erg eenzijdig is
onbegrijpelijk dat je uitverkoop houdt en niet voorbereid bent op vervanging op niveau. lijkt alleen maar minder te worden.
duikbootwaterfiets
nationale sportvrouwen week
of op de waterfiets .....
belachelijk huldiging wordt plotsklaps afgebroken door dat is nou weer t verschil met mannen voetbal
voetbal mannen teveel verwend door grote geld
op bezoek bij groendomein wasven.nl voor n verjaardagshapje. wordt iedere keer mooier hier
zou mooie komkommertijd bak zijn
verschrikkelijk
holland op zn smalst. we slaan weer ns door
de brabanders daniëlle van de donk, jackie groenen, kika van es en de psvers a…
zien dus ook niets in operatie vestdijk
maar is niet goed alleen naar trainer te kijken. vele spelers presteren zwaar onder de maat o…
bij psv nog niet ter discussie, althans niet openlijk. maar je weet dat barbertje op n gege…
precies. wat n schoonheid
gelukkig maken de dames veel goed. topmeiden!!!😘
meer dan genant
de stad is van ons allemaal, maar ik merk er niet veel meer van. time for a change
autopestcollege ook niet anders meer verwachten. ii
dat is al n hele tijd aan de gang. helaas leidt deze verbetering tevens tot weer n afsluiting voor auto…
veel meer als elkaar corrigeren en kapittelen gebeurt er helaas nog niet. laten we…
mag nu het economisch stukken beter gaat, best wel weer wat minder. bedrijfsleven…
beetje overdreven hoor, zeker als niemand weet te vertellen waarop dan wel. desig…
we zullen dus overal scherp moeten kijken zorg, duurzaamheid maar ook 2 sectoren waaraan vorige coll…
helaas zal er meer nodig zijn, want ook in de sportsector gaat t ondermaats en is er geen stuiver voo…
steeds meer illegaal afval in eindhoven alweer een mislukking. gaat dus extra geld kosten.
verwarring door woud verkeersborden in eindhoven hemeltergend! toppunt van onbenulligheid. erg innovatief
benieuwd naar je oplossingen 👍
zou fijn zijn als pvda wel precies weet te vertellen hoe eindhoven uit financiële mis…
afschuwelijk
gewoon afraden daar heen te gaan.
hopelijk onderweg reeds uitgeschakeld
en uiteraard zullen we verder zoeken. kritisch en ook constructief. hoe komen we uit die puinzooi !?
is er al een negatief reisadvies
advies aan al die nederlanders, neen, al die europeanen die niks van deze figuur moeten hebben…
gemeente blij dat er niet nog meer mislukt
slik....😪wel wat eenzaam die francis
en op de weg terug
compliment aan
terug van weekendje uitwaaien
en anders geen contract meer mee sluiten iii
aandraaien. winsten zijn intolerabel waar t maatschappelijk geld betreft. en zo mogelijk in m…
regels zorg duidelijker maken. tis nu u vraagt wij draaien. dat kan niet de bedoeling zijn. e…
en wat mij betreft duurzaamheid
moorman pvda amsterdam, hofman cda eindhoven en bijlholt d66 amersfoort via
en nu is er zelfs n negatief jaarresultaat!!!😭in de eindhovense begroting. potverteren 👎🏿
gemeenteraadsverkiezingen links heeft t af laten weten de afgelopen jaren. waar gingen de…
helder is dat veiligheid lokaal en landelijk onvoldoende prioriteit gehad heeft. meer aandacht en geld i…
kan niet steeds bestaan uit extra veldenaanleg. wel uitruil accommodaties. mogelijkheden zijn niet grenz…
belangrijke input voor bespreking met de weth na de zomer. quotum is wonderlijk als er gewoon n ruimteli…
2 vliegen in 1 klap
stel voor dat we naast engels een nederlandse titel toevoegen om de nitwits te betrekken
niet tijdens toeristisch seizoen
blijkbaar is t maatschappelijk tarief te hoog. dat krijg je als je jarenlang bovenop de inflatie tarief extra verhoogt
ach hoe zou dat toch konen. jarenlange tariefverhoging wellicht
eucommissaris wil nu niet verder onderhandelen over toetreding turkije via nu niet, waarschijnlijk nooit niet
efteling inspireert eindhoven en tilburg steden zoeken moderne holle bolle gijs via geld zat in ehv
kan beter op zichzelf letten. lachwekkend verhaal
maar naast eten en drinken en een dak boven je hoofd is veiligheid/leefbaarheid basisvoorwaarde voor leven ii
geld voor veiligheid is bij de linkse partijen niet sexie. blijkbaar is het al jaren niet erg dat we in…
treurig om zo in te moeten dommelen
blues zondag op wilhelminaplein. genieten met hopenlijk mooi weer.
was volgens linkse college niet nodig om extra te investeren. nu staan we weer in de top 3…
lijkt wel of er 10 jaar niets gebeurd is. nu blijkt er ineens geld gebrek. deed steeds voo…
het is n grote rotzooi in eindhoven. vestdijk, wal, frederiklaan, het gaat maar door
of nemen verantwoordelijkheid om orde op zaken te stellen. sluitende begroting 2018. financiën helder en…