zeg de stagiair vandaag aan het werk?
als psv in beroep gaat kan lozano idd gewoon meedoen tegen feyenoord.
worden er bij nascar ook drivethroughs en stopandgos uitgedeeld zoals bij f1?
weer een seizoen wekelijks ergeren.
ik weet wel iets wat er moet veranderen...
heeft weer een totaal andere wedstrijd gezien. vechtlust? passie? niet zichtbaar... cocu klaar. dit k…
jarenlang knokken en dan zon zege congrats en
gelukkig tal van updates op een dag, eric. mijn notificaties voor beide heren…
de bruyne lijkt me trouwens niet chill. die if eriksen is echt een klasbak deluxe!
voorzetten hebben sws weinig zin. merk welk dat vanaf hoek 16 naar verre hoek van de 5m vaker succes heeft.
25, scheelt toch een uurtje of 5 aan potjes per weekend
bleef altijd op max. 17 potjes winst steken. speelde er 11 om te kwalificeren voor de volgen…
hehe, kut man als je zoveel untradeables in je club hebt.
speel laatste tijd al geen wl meer. bleef elke keer steken in gold 3. en had elke keer met w…
352 kan alleen als je snelle cvs hebt... anders word je er aan alle kanten uit gelopen!
butland, voor mij speelt ie waardeloos... voor de tegenstander altijd fcking goed!
433 vind ik niks. kan niks met wingers. iedereen is fan van martial... ik vind m waardeloos. wat heb jij voor team?
speel al tijden met bpl squad en serie a team afgewisseld. hoewel mijn bpl wel mijn favorietje is!
heb al 2 jaar w10. hoe krijg ik deze melding weg?
hoi sinds twee dagen staat er een activeer windowsmelding onderin mijn scherm. kan daardoor oa geen office gebruiken 1/2
pijn aan de oren.
a dcproblem in weekend league.
dwaas 😂
als studenten vinden we dit een betere locatie voor een slbbijeenkomst! alaaf!
dat kan er maar één zijn
hoi foutje in de lurlingquiz. rode kaart was voor bonaventure kalou, niet voor salomon!
wat vindt nederland van adriaanse, youri mulder, blinker en vermeulen? lijkt me interessanter, 😉
stel eens voor dat jullie tweets op tijd kwamen.
wel zo netjes dat je dat verbetert!
hoe komt t toch dat jij op twitter altijd 2 minuten achterloopt op mannen als en
ik heb via origin access de trialversie van fifa17 al gedownload. moet ik de definitieve versie dan nog preloaden of niet?
thanks voor het snelle antwoord! dan reserveer ik wel 1500mb uit mn gewone bundel! 👍
hoi als ik 1500mb spotify bij mijn abonnement pak, hoeveel uur kan ik dan luisteren met 4g?
...verplicht een automatische update er doorheen jaagt midden op de dag. annuleren is er gewoon niet bij! 1/2
kan dat nou echt niet anders / zit nu al n uur te wachten met schoolwerk omdat windows10 me... 1/2
kan multiwindow nog steeds niet aanzetten. melding herhaalt zich. hoe kan ik dit oplossen? alvast bedankt! &lt2/2&gt
hoi mn note4 zegt dat multiwindow niet aangezet kan worden ivm eenvoudige stand. deze is echter uitgeschakeld maar ik &lt1/2&gt
word??? er zit weer een stagiair aan de nostwitter....
thanks, ben benieuwd of jullie er wat op verzinnen! d
dat bedoelde ik nou net niet. die films/series zie je alsnog bij n bepaald genre terug. wil ze daar ook verbergen.
zeg kan van het penaltylijstje worden gehaald? niet. te. geloven.
is er n optie in om films en series die je al hebt gezien te verbergen? maakt het kiezen zoveel overzichtelijker!
hè balen, science en natgeowild kijkt ie nou zo graag dat een switch naar fox sports er niet in zit! 😢😢😢
hoi kan mn pa nog naar discovery science en natgeowild kijken als we switchen van pluspakket naar foxsportspakket?
beter begint de gewoon een toernooi voor de vier toplanden en kan de rest in een eerlijke competitie strijden.
hoeveel 4e plaatsen heeft al op gescoord? surfen, zeilen, handboog, handbal, hockey, volleybal... erg zuur!
een in het ... hoe ongelooflijk zuur!
en de britten vieren samen met de jury feest! 👌
laf gedrag in inzake bij jury durft britten niet te diskwalificeren...
en dan hopelijk de strijd om brons ook. nr 2 tegen de minimaal nr 10 moet te doen zijn. brazilië sws met thuisvoordeel winnaar
zat ik ook al naar te kijken. komt denk ik door het poulesysteem waarmee het werkt helaas...
de luis suárez onder de wielrenners. schandalige vertoning.
benieuwd of de nederlandse en afvaardiging eens goed naar de collegas kijkt. indrukwekkende prestaties in
wat zou veel medailles gaan pakken in tot nu toe voornamelijk teleurstellingen bij het en
waarschijnlijk albanië niels. die proberen je zo lang mogelijk aan de lijn te houden tegen een belachelijk hoog tarief!
twee rode rugnummers zijn geen unicum. hoogerland en flecha kregen m ook beiden na de valpartij in het prikkeldraad.
de onzin!
en terecht! bauke heeft gelijk!
belgië frankrijk zou een heel mooie finale zijn, marc wilmots na de 8e finale. de huid verkopen voor de beer geschoten is!
toch knap dat je voldoening haalt uit het lezen van zon kwaliteitspapiertje als de ik zou kiezen voor een goed boek!
oh ja, van sinds wanneer is team usa winnaar van de gold cup 2015?
misschien hadden ze beter iemand kunnen inhuren die vrouwen en mannen wat voetbalverstand bijbrengt! 😜😜😜
heb een dm gestuurd met foto!
hoi ik kan nog steeds geen netflix kijken via méértv. wanneer kan ik dat wel? wacht al tijden op dat logo bij de apps!
teveel, zet er op zijn minst iemand neer die zelf op dat niveau geacteerd heeft. desnoods een type waterreus!
vandaar ook mijn vraag. zal vast een aardige gozer zijn, maar heeft niet echt achtergrond van een topspeler.
wat doet daniël de ridder eigenlijk bij
powervrouw op de tennisbaan!
ah! balen! dan zit er niks anders op dan jullie webshop even in te duiken! thanks voor de snelle reactie!
graag eens een nummer lezen voordat ik besluit om oude exemplaren te kopen of n abonnement af te sluiten! b.v.d.! 2/2
kan ik jullie nulnummer nog ergens vinden online? ben door de verhalen van geïnteresseerd geraakt, maar wil 1/2
er waren idd 2 treinstellen trein richting schiphol aan elkaar gekoppeld waarvan het achterste stel uit was geschakeld!
traject heerlen schiphol. stopte om 16.02u in sittard!
lekker bezig, laatste gedeelte van de trein gesloten houden... sardientjes in een blik!
als je met een geknakt lijf gewoon 13e wordt in zon etappe, dan ben je op zijn minst de morele winnaar van deze
breaking zendt eindelijk de uit op
cool! kunnen we dit ook nog live zien op of ben ik écht verplicht om de hele dag te kijken?
bespeur redactionele keuzes van bij voorkeur voor garros... die keuzes kennen we ook nog wel van de laatste
kijk nu gedwongen naar dat de reclame regelmatig onderbreekt voor 30 seconden
zeg, waarom is er tennis op npo1? ik wil van
hopen op een wonder!
spuugziek van deze val.
eén foutje...
die zijn van
leuk programma, dat man, man, man.
jammer, had me verheugd op een special!
komt er dit seizoen een kampioensspecial zoals vorig jaar het geval was?
viel spaß! let je even op de 21st century skills in deutschland? ben benieuwd wat ze daar bij onze oosterburen al aan doen...
stemmingmakerij! phc is óók sponsor van de graafschap!
jemig, er melden zich vier man locadia, vlaar, janmaat en pieters af en je roept precies één vervanger op...
terechte nederlaag.
hé waarom bevatten de edities van de laatste weken minder paginas? jullie blad bestaat nu nog maar uit 98 bladzijdes i.p.v. 114!
...allemaal laag in de hoek waar mignolet never nooit bij zou kunnen omdat die moeite heeft met lage ballen. 2/2
beide pingels waren gepoeierd en niet netjes ingeschoten. kijk eens naar de strafschoppen van city. die waren... 1/2
tsja, als je zo je penaltys neemt doe je het jezelf aan!
ik kan geen dm naar jullie sturen! als jullie me even volgen kan dat wel!
gewoon in de brievenbus!
mijn bestelde boek is zojuist met regen/waterschade bezorgd. wat kan ik hieraan doen?
m.i.v. 1415 gaat alleen bekerwinnaar naar el. verliezend finalist krijgt geen ticket meer.
jeroentje als nieuwe penaltynemer!
maak jeroentje maar de nieuwe penaltynemer!
niet alweer, s
terechte penalty, heren?
geen scherpte bij net als bij het arbitale kwartet. good job, heren braamhaar &amp kleinjan. volgend weekend lekker vrij...
tuurlijk, klopt. in de metro zou wat mij betreft echter best wat vaker echt nieuws mogen staan.
nu snap ik ook waarom de helft van het serieuze nieuws elke dag ontbreekt in jullie krant!
wel aan de erg vroege kant hoor. alle andere kranten hebben wél een verslag.
kan het aan mij liggen of staat er echt geen verslag van in de van deze woensdag?
wat een avond. wat een wedstrijd!
gerechtigheid! come on
dit is geen penalty. goed gevallen, rus.
thanks voor het snelle antwoord! heb je wel een idee wanneer alle klanten het zouden moeten hebben?
vanaf wanneer kan ik verwachten bij méér tv?
was niks aan de hand... onterecht geel!
wat is dit weer slecht zeg. ongelofelijk baggere instelling!
waarom werkt op tv werkelijk nooit fatsoenlijk? echt waar, wat een waardeloze applicatie voor tv!!!
wat een wedstrijd!
nonchalant, altijd denken dat er nog wel 10 kansen volgen na een gemiste mogelijkheid. zoals vaak dit seizoen niet efficiënt.
we zijn zelf wéér niet efficiënt in de afronding en dan loop je er bij twee pechmomenten weer tegenaan.
een cursus nederlandse grammatica zou goed voor jullie zijn. 👍
.@sbs6 fix de ondertiteling bij
laten we het hopen!
het. eeuwige. voortdurende. penaltyprobleem. van.
jammer joh! iets te vroeg gejuicht!
dat is dan niet verliezen van jezelf. dat is gewoon verliezen van een tegenstander die wél wil en daar alles voor over heeft. 2
dat ben ik niet helemaal met je eens. heracles troeft psv af op, zoals jullie zelf al zeggen, vechtlust, passie en strijd. 1
dit is niet verliezen van onszelf. dit is hetzelfde verhaaltje van de afgelopen jaren altijd problemen in uitwedstrijden.
kijk, daar staat met de grote mond.
nu wel bang? totaal onnodige onderschatting van heracles door jullie!
hoogmoed komt voor de val. zo overtuigend hebben we de laatste weken ook weer niet gespeeld.
wat een spits is het toch, zeker in de eredivisie! alweer met zijn 6e in de competitie!
.@rikelfrink een goal in de 40e minuut noem ik nou niet echt vroeg... 😜
doet zijn naam van campingzender weer ns eer aan... onder even de aandacht vestigen op hvnl en shownieuws...
wat. is. dit. wát een onzin om de reclame zolang te laten duren dat de hele hymne weg is! schaam jullie!
ai, tom... wat was je dichtbij 😳
wat een machtsvertoon van heel tof om te zien!
geweldige tijdrit van petje af!
wat is deze tijdrit spannend zeg! go go go
moeilijk hè? een dienstregeling maken en je er gewoon aan houden. bus meer dan 5 minuten te vroeg vertrokken!
die periode mag wel langer duren welke activiteiten volgen nog deze week voor pabo 1?
hoe ziet het restant van de etappes er uit na woensdag en hoeveel voorsprong denk jij dat dumoulin nodig heeft na tijdrit?
zo luc, een terrasje pakken in maaseik?
waar kan ik 105 minuten van mijn kostbare leven terug krijgen?
inpakken en wegwezen!
buitenshuis voor. zowel op 3gnetwerk als op wifinetwerken. 2/2
thuis heb ik er geen last van omdat ik dan op het kpnnetwerk zit en itv dan automatisch inlogt. problemen doen zich alleen 1/2
beschamend, dit was niet om aan te gluren. en nee, dit was ook geen waardig!
samsung note ii versie 4.4.2 en asusmemopad10 met versie 4.0 of zo. is al een dik half jaartje zo denk ik!
gelukkig zijn we niet bang, want is er bij!
ik denk dat we onze nieuwe penaltynemer gevonden hebben na memphis, de jong en guardado...!
een hele mooie sportweek voor nederland! schippers, de hockeyers, lindeman en nu weer dumoulin!
maar elke week vind ik iets teveel van het goede. het abonnementsnummer is ook te lang om goed te kunnen onthouden! 2/2
allemaal android en de nieuwste versies zijn altijd geïnstalleerd. vind het niet erg om af en toe die gegevens in te vullen 1/2
klein probleem, hij is pas na het seizoen jarig... mag van mij ook als kerstcadeau!
jup, onthoud mijn gegevens is aangevinkt. de app vergeet op meerdere apparaten om de zoveel tijd de gegevens.
lieve kpn, waarom moet ik ongeveer elke week mijn twintig cijferige abonnementsnummer invoeren op mijn itvapp? groetjes, ruben
wauw!
kunnen teams die in clvoorronden al tegen elkaar speelden gewoon aan elkaar gekoppeld worden bij elloting ajaxrapid?
mooi, vond dit echt één van de slechtste programmas van de publieke!
usain fenomenaal!
dafne , wát een beest tussen al die donkere sprintbommetjes!
mosterd na de maaltijd!
liesveld, braamhaar, blom... zeg, hebben we nou echt geen betere arbiters rondlopen in de lage landen?
lekker bezig, van 02 voor naar 32 achter...
hier krijg je zelfs in engeland rood voor, scheidsrechter makkelie!
blijft cocu dan zoveel vertrouwen houden in brenet? heeft i.m.o. weinig laten zien, zeker in verdedigend opzicht.
hopelijk geen jaarlijks terugkerend ritueel bij transferperiodes met uitsluitend
is het mogelijk om moreno al voor groningen speelgerechtigd te krijgen als ie morgen of donderdag tekent?
zoeken. narsingh daarnaast weer eens matig. moet veel beslissender worden. is potdomme zijn 4e seizoen. 2/2
deze verdediging gaat ook tegen groningen problemen opleveren. brenet ronduit zwak, heeft duidelijk niks bij psv te 1/2
om een resultaat over de eindstreep te trekken. deze keer winst, vorige keren remise. 2/2
krijg hier toch een dikke kater van. dit zag je ook al tegen basel en monaco. huidige selectie lijkt niet in staat 1/2
balen met een hoofdletter b. prachtige goal, totaal onnodig puntverlies. narsingh lijkt matige lijn van vorig jaar door te trekken.
once in a lifetime moment heet zoiets. wel een prachtig doelpunt van die eerlijk is eerlijk.
tsja, de scheidsrechter kan helaas niet altijd kuipers of nijhuis heten!
belachelijk voorstel van de deze tackle was in mijn ogen niet eens geel waard!
vinden. gewoon even afwachten zoals brands doet en over een weekje is moreno een psver.2/2
ik gok erop dat moreno niet zo heel snel voor een andere club tekent. espanyol hoopt ergens koper met meer geld te 1/2
dat is goochelen met geld. daarbij gaf espanyol eerst ander bedrag aan. niet fair in dan hogere prijs te vragen 3/3
mertens, strootman, gini werden voor veel geld gekocht, maar alleen die laatste leverde na 4 jaar eindelijk titel op 2/3
je gebruikte idd goede ipv top. nu cl idd, maar denk dat brands geleerd heeft van opportunistische verleden 1/2.
en geld genoeg? klopt. kan me echter ook nog de tijd herinneren dat we obscure deal met gem. ehv moesten sluiten.
hoezo tegenvaller? marcel laat gewoon niet met zich sollen! daarom ben ik nog altijd 100%
.@mariovanderende wordt het niet eens tijd om spelers die zó vroeg in lopen gewoon een gele kaart te geven?
een idee voor de competitie 1 / 2 weken eerder laten beginnen. zijn nlse teams beter in vorm en voorkom je dit soort wantoestanden.
terechte keuze om dan af te gelasten. wel handig, meteen schuiven met de hele competitieplanning.
s. de jong trouwens slechts één jaartje jeugd bij ajax, daarna officieel 1e elftal.
vermaelen heeft trouwens niet in de opleiding van ajax gespeeld volgens mij. meteen 1e elftal.
in deze discussie ga ik me niet mengen. zowel ajax als psv brengt, zeker de laatste jaren, talent voort.
niet slecht ingeschoten hoor. gewoon goed in de hoek. wel opvallend dat psv wéér mist.
penaltyprobleem gaat ook door in het seizoen 20152016. mist de eerste van het jaar.
luuk de jong, 30!
heerlijke goal van
lord ook echt! 😂😂😂
lef hoor van arturo net nieuw en meteen de eerste pingel nemen!
maakt hem!
amstel gold race 2005 of 2006 werd alleen laatste km uitgezonden ivm mist!
wát een prestatie!!!
waarom staat pasveer zo vaak op doel in de oefenduels? teken dat cocu minder vertrouwen heeft in zoet?
gascoigne, uiteraard
ik begin langzamerhand ontzettend medelijden te krijgen met peter een in etappes.
mi amigo guardado! geniet sowieso al het respect van zn teamgenoten en van de fans. prima uithangbord.
ga nooit naar juwelier jan vos in maasbracht! zelden zó onvriendelijk behandeld!!!
mijn wielernaam is het martelwerktuig uit wessem! wil jij weten wat de jouwe is? voici
kan best zijn dat ik het gemist heb, maar wie wordt de nieuwe watcher van
dit ruikt inderdaad naar uitmelkerij, zeker die farewellkit.
dus na 1 jaar moeten we windows 10 toch kopen?
laatste open avond / dag van dit schooljaar! blijft leuk om aankomende studenten te woord te staan!
jullie beheersing van de nederlandse taal is bedroevend slecht. kunnen jullie daar alsjeblieft wat aan doen?
van is binnen!
er is geen update beschikbaar en ik heb al een aantal keren een harde reset uitgevoerd, helpt allebei niet!
jammer wat was je dichtbij!
en dan ook nog bloed, zweet en tranen draaien... die heb ik vanavond geen moment gezien!
wordt het huilen of wenen?
de brokstukken liggen op 2000 kilometer hoogte, mooi overdreven
vergeet niet dat eenmansbedrijf memphis ook op het veld stond!
hij is transfervrij aan het einde van het seizoen. kan dus niet betrokken worden bij een deal...
wat heeft psv bedacht om nike op een mooie manier uitgeleide te doen?
scheidsrechter vast en zeker een engelse neef van kevin blom!
hoelang is het geleden dat voor het laatst in één seizoen twee keer de 0 hield in uitwedstrijden?
ik heb zon vermoeden dat de komende weken geen wedstrijdje meer hoeft te fluiten...
dat is dan t einde van jaren luisterplezier... ga niet met jullie mee verhuizen naar not my cup of tea!
laat die hem maar niet meer nemen...
verdient een kans!
diep triest en heel terecht en het is afgelopen. psv is uitgeschakeld in het bekertoernooi.
en weer eens de 0 gehouden in een uitwedstrijd!
en weer eens de 0 gehouden in een uitwedstrijd... de 1e x sinds nec vorig seizoen!
mooi, goed nieuws! weet ik voldoende!
.@tomvanhulsen waarom telt nog maar 98 paginas? 2 jaar geleden waar er dat nog 130 en vorig jaar 114...
terecht, cl wordt volgend jaar ook niet meer uitgezonden. zonde vh geld om optocht uit te zenden. maatschappelijk irrelevant
dat waaien en regenen van de laatste dagen is meer najaar... of zie jij in je glazen bol een elfstedentocht aankomen?
gelukkig is die winterse kou inmiddels redelijk afwezig!
kan ik ook via twitter een klacht indienen of moet ik per sé bellen?
tsja, volgens de regels kan het nét als we morgen voor 16.45u klaar zijn. rutten zal dit top vinden...
stortbuien is niks aan te doen... afwatering is echt onmogelijk daar!
dit riekt naar competitievervalsing...
zon regenval en dan lijnreclame van ...
ik hoorde guus van de week wat zeggen over achter staan na acht minuten...
vlaar
heren, wanneer komt er duidelijkheid over de kledingsponsor van psv?
fk krasnodar
zon vermoeden had ik al, vind het wel een supervet tenue!
heeft napoli ook...
het verslag van heeft mijn dag heel wat mooier gemaakt! thanks joris!
waarom werd qarabag opeens in groep f ingedeeld en niet in groep e?
we kunnen wel stellen dat zich diep mag schamen!
zou ook zo praten in zijn slaap?
dat ligt voornamelijk aan de plaats en aan het feit dat pec voor het eerst europees speelt...
hoe groot acht jij de kans dat bakkali blijft?
misschien moet perez eens naar brands luisteren. etoo naar psv is veel te duur.
wordt guardado gezien als basiskracht of als versterking in de breedte?
wordt guardado gehaald als basiskracht of ter verbreding van de selectie?
yes thanks! hij staat bij mij namelijk aangegeven als npo politiek...
ik kan npo sport niet vinden bij digitale tv van weten jullie toevallig de zender?
hoop op een goede en mooie oplossing hiervoor!
kwam in de buurt...
is er een mogelijkheid om dit bij de eerstvolgende thuiswedstrijd in de eredivisie nog eens over te doen?
vanaf welk bedrag gaat psv serieus luisteren denk je?
hehe, de verlosser!
welke clubs denkt ie naar toe te kunnen als ie transfervrij is?
mazzelaaaaaar
beste speler van het toernooi! slaat helemaal nergens op!!!
jaaaaaa!!!! doet het eindelijk!!!!
je was niet de enige...
daar kun je ook nog bier uit drinken!
krijg je er ook nog een schepje bij voor op het strand?
dan dieet nog maar even door
ik denk dat je morgen met trots dat duitse vlaggetje aan je auto kan hangen
kan zich weer eens niet gedragen in de sprint.
kan iemand een zakdoek in de mond van stoppen? en anders de kabel uittrekken!
wat heeft die van in zijn mond?
irritant om er zo vaak uit gemikt te worden. wat kan ik hier aan doen? het probleem was er eerst niet en nu constant. 2/2
met ‘crash’ ik heel vaak rond de 10e minuut. sta ik voor dan win ik. gelijk of achter gebeurt er niets. heel... 1/2
dan mag ie op zijn blote knietjes gaan bidden dat depay vertrekt. anders is ie maximaal reservespeler.
wil bakkali per se bij psv 1 of is een half jaartje bij jong psv ook een optie?
al lijkt me een zet naar feyenoord wel een goede voor zijn carrière. rutten kan met probleemgevalletjes omgaan.
je kunt er nu nog geld voor vangen. heb je als psv zijnde er in ieder geval de opleidingskosten eruit gehaald.
het zou niet de eerste keer zijn dat ze in de arena een talentvolle speler uit eindhoven weglokken &gt bazoer, aissati
krijg zon gevoel dat ie naar amsterdam vertrekt...
zwaar geflatteerde overwinning van
ai, wat is dit ongelofelijk zonde voor
weer in de laatste minuut van een een tegengoal voor
nu al de laatste training van van seizoen 20142015...
mooie overwinning van pieter in de vandaag!
wordt een leuke volgend seizoen met of
die tweet had ik helaas over het hoofd gezien! evengoed hartelijk dank voor de info!
een grandioos resultaat van en ga mijn baard ook laten staan denk ik.
ik krijg een lange sik van het gedrag van
jus, en laten me eindelijk weer eens trots voelen op bij het
overdrijven is ook een kunst.
ai, ik krijg toch steeds meer zin in het het nieuwe album van
mooi! aangesteld voor de finale van de champions league!
mag hopen dat ze zich ook realiseren dat ze worden genaaid door ajax.
zuur voor dat niet aan haar sportieve plicht voldoet.
wat is dit heel nederland luistert naar de en jullie knallen er even een journaal en een politieke boodschap in?
wat ontzettend jammer dat niet de volgende ronde van de playoffs heeft gehaald!
het rare is namelijk dat wij geen internet hebben en onze buren, die ook bij kpn zitten, hebben wel internet.
is er een internetstoring in beegden limburg?
wat zuur voor in de laatste bocht vallen!
tsja, maar met een beetje pech blijft ruiz en dan zit narsingh helaas op de bank. dan krijg je geen koningskoppel voorin.