daar ben ik dus absoluut op tegen! verwijst naar ons verleden als kaaskoppen wat zeer beledigend is. moet verboden worden.
slechte f1 verslaggevers die voetbalmannetjes! ook jij! zie npo1 terug. grootste coureur wordt met een lachje weggezet! shame!
is eerste levensbehoefte| dus ja 😀alle etenswaren en nonalcoholische dranken vallen in het lage btw tarief.
wijsneus
totale waanzin. klimaat veranderd maar niet door de mens. milieumaffia spelt ons allerlei onzin op de mouw.
opsluiten sleutel weggooien! nooit meer op straat dit soort gekken😕
nee joh, die 4 ton hoef je echt niet terug te betalen! graaister eerste klas en dan opstappen om er onderuit te k…
van harte !
het nederlandse 11tal is een weerspiegeling van onze huidige stand van zaken in de nl maatschappij..... roept u maar🤔
je link werkt niet corné, alleen foto
maar wel met opgeheven hoofd!
zou nu wel gelukt moeten zijn
dag ella, heb ik zojuist gedaan, laat even weten of je die ontvangen hebt?
normaal krijgt een autohuurder bij wegrijden een kaartje en kan alleen hij terug op deze p? waarom nu dan niet?
opgehaald. zoek het maar uit. geen manager on duty?? politie ingesch. deze zei ook dat het wekelijks ge…
bij aankomst borden gevolgd en geparkeerd. bleek achteraf p voor autohuur te zijn. 40 min € 83,00. zo…
ben ik weer😉 nog steeds niet met je eens. ze hadden meer dan genoeg mogelijkheden om ‘tijdens’ stampij te…
dankjewel voor het niet aanwezig hebben van een manager on duty tijdens de avonduren wanneer een gast e…
dankjewel voor het duidelijk aangeven van de parkeerplekken om even iemand op te halen en het schoudero…
ga ik doen, zoals altijd 😉
deze keer niet met je eens umar. ik houd niet van natrappen. mogelijkheden genoeg gehad om dit aan de kaak te stellen!
tja, humberto, als je dan zon gast aan tafel zet, praat m dan eens vast en leg m niet de woorden in de mond. zo slecht dit!
en als je hem al hebt.......?
nee, linkse lui die potverteren op de centjes van rechts daar word je blij van
tjonge jonge jonge jonge, heel links moet weer zo nodig. ik wordt hier zo moe van
ik vind dat de urgentste uitdaging is en onderdeel moet zijn van het
flikker toch op achterlijke harrie, alsof de mensheid hier iets aan kan doen🖕
tja humberto, van binnenuit filmen terwijl je ergens binnenvalt... en volhouden dat het echt is? misser van jewelste😔
hé beau! n pannenkoekenzomer is geen klotezomer in de pannenkoekenbranche! mooi weer! veel gasten in ons pannenkoekenhuis!
ja waar blijft georgina?
dat zij daarbij ook nog de overheid gaat chanteren door haar kinderen te verstoppen is haar eigen verantwoordelijkheid! armeense
dat deze mevrouw er meer dan 8 jaar over kan doen om niet te hoeven gaan is een aanfluiting voor ons nl rechtsbestel. armeense
nee peter r. niet waar. als mevrouw al sinds 2009 te horen heeft gekregen dat ze niet mag blijven dan is…
jaarlijks 10 miljard over de balk door de milieumaffia
ge macht toch ook niks meer!
ze geven de man geen enkele kans
hoezo? komt toch uit een fabriek?
ligt eraan wat voor werk
vast niet met dr telefoon zitten spelen
of praten met wilders of minderheidskabinet
op de golven van het huidige sentiment zou het ze nog iets opleveren ook. maar op de lange termijn? r…
gewoon boeken als cursus leren pijpen komt t goed😂
uuuh, tja, over humor kunnen wij ook nog uren bomen😉
spreekt totale wartaal en komt er niet meer uit. verschil tussen oorlogsen economische vluchtelingen. hij is tot. ongeloofwaardig!
is goed, noem maar een paar data
tja ik kijk toch liever naar de b van marieke dan naar het spleetje van martijn😉
zo slecht martijn de koning
hou toch op de hond met het bespelen van de menigte. 100 % zeker dat de vvd kiezer dit niet wil! jij wel!
doe het niet met 4, maar met 5 partijen! op deze manier kan gl steeds het hele kabinet gijzelen. met bijv. cu erbij niet!
ze moet zich vet stom gaan zitten schamen, samen met haar ouders.
haastrecht
met jesse aan de stekker is het nieuwe kab. geen lang leven beschoren. zk n 5e partij zodat kab. niet steeds onder druk wrdt gezet
tjongejonge wat warmt de aarde toch op!
ik heb volgens mij 7 dagen per week kinderen, al bijna 24 jaar, waarom dan een... ???
van harte gefeliciteerd &amp met jullie verjaardag!
jawel rabobank. leer eens vanuit de klant te denken en niet vanuit jullie zelf!
lekker servicegericht bezig om ook de 5jes uit de pinautomaat te verwijderen.
veel te weinig moedermelk gehad vroeger!
bij ons is het iedere dag pannenkoekenhuis in leende!
dat moet je ook niet luc😜
ik heb vandaag 10 minuten de stomme lul uitgehangen, gewoon om te ervaren hoe het is om harrie van bommel te zijn.
wanneer treden jullie op tegen erdogan?
tja, diegenen die het echt niet meer wisten hebben maar op mevrouw thieme gestemd.......
waarom zon linkse tafel? halsema is zo oude politiek
juist, en sp wil niet met vvd dus wordt er of bij de christelijken gezocht, of bij klaver.
met een beetje geluk vvdcdad66cu
en daar ben ik tevreden mee!
al n bietje stiller?
wat een armoedebod op de dag voor de verkiezingen
normaal heel vaak met je eens, deze keer niet. gelukkig mag dat in dit land!
misschien voor jou wishfull thinking maar hij eindigt boven de 30 zetels. read my lips!
dacht t niet!
als je windvaan niet had gebruikt had ik je misschien serieus genomen
als hij net zo genaaid wordt als rutte gisteren, kan hij zn borst natmaken....
de groningers tegen rutte bij jinek. geen houden aan..... hoezo?
kijken! groene fantast jesse klaver wordt live op tv volledig ontmanteld door boeren
als je deze foto en kop ziet denk je toch echt aan n knokploeg ipv ijsprikker😂😂
klaver is een groter gevaar dan wilders
ach ach mannetje pechtold, deed jij maar eens iets tastbaars.....
ik wil nog steeds op je stemmen, maar je commentaar op trump vanavond over de moslimban doet me steeds meer twijfelen!
goh maurice, lekker neutraal bezig weer. belangrijke info ook!
beestjes bij de naam noemen als je trump heet, dat mag niet van links nl, maar beestjes bij de naam noemen als hij trump heet, dat mag wel?
npo is links dus waarom betalen uit gemeenschappelijke gelden?
is een lul
huys grootste communist betaald uit gemeenschappelijke gelden?
erg blank clubje wel. riekt naar.....
leg de uitsluiting van de pvv eens uit?
klopt! had m al gezien
zouden ze er zelf wel over nadenken??
beetje laat maar toch hear hear!!
ns kijken of er ook n kritische noot te bespeuren valt
na aanleiding van? foei ed!
code oranje van het knmi, dat is
ik tel af met op oudejaarsavond, en jij? tweet &amp maak ook kans op 5 oudejaarsloten!
wat n mooie speech! topvrouw!
ben er onderhand wel klaar mee. voor het eerst in jaren twijfel over mijn stem!
kratje bier maurice dat t straks weer net andersom is? weet je nog? 2013?
hiddema is een held! ooit eens een biertje met hem gedronken in een amsterdams cafeetje. lachen gieren brullen!
npo is partijdig en moet veranderen?
asjeblief met deze tweet geef je je eigen intellect bloot. denk serieus nemen? jonge jonge jonge😢😢😢
wat n armoede bij de publieke omroep als je weer die muts in je programma haalt??
dank arnold! eens!
eens! maar waar sta jij ivt trump?
weet je nog, 4 jaar geleden met dat kratje bier. zal in maart niet anders zijn. stemhokjesdilemma noem ik dat.
dit is een hele duidelijke uiteenzetting van mo politiek!
hahaha! dat moet wel. of gehad met hele vieze spelletjes😜
die zwartepietenmuts weet iets over pauw wat wij niet mogen weten anders zat ze daar niet? wat zou dat toch zijn🤔🤔
zo! weer wat zeteltjes verloren. grotere opportunist is er niet. bah!
je gaat naar om gelijkgestemden te ontmoeten! sluit me op
dat er nog mensen zijn die op mannetje stemmen? ik snap dat niet. 😬
mooi hoef ik niet te kijken
zo gek als n deur en dan de amerikaanse verkiezingen duiden....
jammer dat jullie het digitaal nog steeds niet op de rit hebben. al een tijdje abonnee maar iedere keer een crime om in te loggen!
klassenjustitie bij de f1
deze is dus niet hoog opgeleid.
hoe fout kun je opgevoed zijn....... indoctrinatie? tunnelvisie??
tjongejongejongejonge en hier betaal ik belasting voor🤔🤔
jammer je wordt steeds meer een zelfingenomen gehaktbal. altijd gedacht dat je een neutraal journalist was.....
hear! hear! weer n stuk recht uit mijn hart rob!
help, ik heb het gemist?
plan van aanpak had thuis al moeten plaatsvinden dit tuig hebben we met zn allen geïmporteerd. onomkeerbaar en te laat voor actie
haha, heel links nederland valt weer over heen. en natuurlijk heel nederturkije maar ze heeft wel gelijk!
speelt zich letterlijk nog niet in de kijker. +1 na 4 holes. laten m erg weinig zien. kom op joost!
hear! hear! mooi stukkie weer!
respect? deze maf n podium geven zodat nog meer hersenloze zielen aanslagen gaan plegen. politiek correct leo. dat wel😔
mij vergelijken met erdogan? je durft. je verdwaalt duidelijk in links correct denken. tunnelvisie tegen boerenverstand.
hoop dat je het sarcastisch bedoelt🤔
soms ben je echt de weg kwijt leo. zon gek mag nooit n podium krijgen! opsluiten en sleutel weggooien!
knettergek maar toch ook wel een vent met ballen.
nee???? echt???? en wat zou de uitslag toch zijn?
en ik zeg dat ze netjes bij de eu blijven.
hilarisch en gedurfd! hoe durft ze het te vragen........
foei foei foei ! naar aanleiding van......
heerlijk. zo moet je omgaan met het leven!
aj je schiet door.geen enkel bewijs voor deze stelling. ik ben geen wildersfan maar begin bij u enige tunnelvisie te bespeuren
niet doen katja
dr invliegen met onze nieuwe jsf en platbombarderen dat staatje! gaat nergens over, en waar is koenders? waar is onze regering?
als jullie het niet weten, geef dan geen waarschuwingen af. is al de zoveelste keer dat er niets aan de hand is en dat t gasten kost!
hé studio voetbal, zou je het niet eens over psv hebben? moeilijk hé!
he waarom ga je niet pal voor staan en zeg je dat turkije kan opzouten met al zijn voorwaarden? vast n 2e agenda?
ik hou dr wel van, trump, ik heb eigenlijk alles al maar laat ik ook maar even president van de usa worden..... kom dr maar in links😘
gewoon rechtsboven afsluiten met kruisje. wordt automatisch in je concepten gezet.
konden we niet zien. 3 x zwaailicht
en vanuit leende
zet m op ebru en laat je niet kisten!
waarom doe je het dan?
jarenlang fan van je geweest, deze laatste tweet zegt genoeg.
je bent mij kwijt aj. je hebt n dubbele agenda.
als je niet hebt gestemd moet je naar mijn mening zeker achteraf niet gaan klagen. je hebt mi dan je stem verloren.
super!
144 tekens gaan hier te kort in zijn 😉 we spreken elkaar👍
aan al die superintelligente wezens die niet zijn gaan stemmen omdat ze voor waren..... ik heb geleerd dat ik maar één stem heb! gebruikm
zwak argument! je leeft in n land wr we dr bloedvergieten gekomen zijn tot n vrije democratie! gebruik je stem
komt m zwaar te staan!
oei oei oei, die zit niet lang meer!!
de hautaine houding van de nietstemmers zou toch best wat minder mogen. god wat n arrogantie. was dan gewoon gaan stemmen
moge duidelijk zijn. europa genoeg is genoeg!
en mijnheertje en mannetje direct afserveren
ja daar sta je dan!
weer mislukt om met je zg peiling het volk een bepaalde kant op te bewegen. weer een kratje bier kwijt!
ik sprak vanavond meerdere niet stemmers die als ze gegaan waren ook nee hadden gestemd!
ik heb je heel lang serieus genomen aj, maar rondom dit referendum begin ik echt te twijfelen.
opkomst gaat over de 30% heen, dus jastemmers laat je alsnog horen!
ik zou toch maar even gaan!
stemmen mensen ! als je je stem niet laat horen heb je later niets te zeggen !
d66 is als n mooie veel te dure jas, hij staat je goed maar je hebt er geen flikker aan!
ik heb n hele duidelijke mening, probeer alleen deze bevestigd of ontkracht te krijgen.... pechthold lukt het iig niet.
zelfs mannetje pechtold komt er niet aan te pas bij bij jantje roos. ik stem tegen!
zullen we er weer eens n kratje bier voor verwedden dat de opkomst rond de 40% zal liggen!
lekker neerbuigend doen. helpt echt! knap! ik stem tegen!
tja, al ruim 30 jaar vvd maar ik ga tegenstemmen. ben t zat!
kort door de bocht hoe denken we dat poetin zich voelt als we steeds meer bij hem inpikken? laat oekraine aan hem, hoort ook bij de russen!
propaganda. al eens over nagedacht dat het helemaal niet zo slecht is om poetin ook een beetje tevrden te houden?
iedereen buiten molenbeek die tegen deze aanpak is oppakken en opsluiten. hoe moeilijk kan het zijn. het is oorlog!
omsingelen. 24 uur voor de goeien om te vertrekken. controleren. huis aan huis uitkammen en alle gespuis opsluiten! 1
ik hou van je xxx
comeonpsv! vanuit het meest westelijke punt van europa!
hoe heet zon wolk
en dat kan helaas pas beoordeeld worden na iemands ambtsperiode. obama zal ook niet eindigen in de top 10 v beste presidenten
de paradox is dat men zich druk maakt over trump en dat clinton uiteindelijk gaat winnen. ik zou trump best hilarisch vinden.
bereikt de media niet juist het tegenovergestelde met zoveel aandacht voor die losers/eencelligen?
leg t dan eens in 140 tekens uit. ik ben het spoor bijster vwb oekraïne
mijn geloof aan alle bovenstaanden is per direct tot 0 gereduceerd!
krijgt ie dan straks dubbel wachtgeld??
gelukkig goedgekomen!
en dat is een statement !
tja, durf daar wel een poule voor aan te maken. weg voor eind 2016?
wist niet dat d66 zulke leuke en geschikte mensen in de gelederen heeft
waarom doet de van vandaag niet mee aan de verkiezing. uiterst geschikt en aimabel? wie isdat?
neen, 4e ronde gaat tussen elias en arib
waar komen die 16 m achterstand vandaan bij ieamand?
van genugten neemt het wel erg letterlijk die snelle assistentie truck
en de allerbeste wensen in dit topjaar👍
mooi, mooi, mooi! man met hart op de juiste plaats!
nog eentje dan tofik dibi bij npo.... ach
en nog maar eentje denken we nu echt dat er alleen een deal met h. is geweest in de laatste 30 jaar ? what do i say more ?
zo hypocriet dat hele debat. kort door de bocht in geval van oorlog zou je dan willen schuilen bij teeven of bij klaver?
gaat veel zeteltjes winnen na dit is erg sterk!
maakt het er allemaal niet beter op
een warm welkom!
ik wist niet dat onze jongste hier enig oordeel over mocht vellen
via de pc en appstore er uitgooien en opnieuw installeren
juist ja! jou zoeken wij. jij bent jong, enthousiast en vrolijk. je bent minstens 16 jaar en vindt het heel leuk...
ik heb een nieuwe foto op facebook geplaatst
? alleen de kop al verheven tot issuperster. lafste en barbaarste crimineel ooit had beter gestaan......
brein??? dan moet je toch hersens hebben ? ook in de krant van vandaag wordt dat stuk tuig door jullie opgehemeld! bah!!
zo met je eens!
jij in de andere hoek dan wijsneus
klinkt heel eng, maar blijkt gewoon de me te zijn
ik wilde het even van je horen, had al zon gevoel. en nu?
zijn de verkiezingen volgens jou eerlijk verlopen ebru?
hij is er weer! overheerlijke erwtensoep met roggebrood en katenspek!
let op gewijzigde openingstijden van 5 tot 12 november donderdag 511 open van 16.00 uur tot 19.30 uur...
mooi! dan haalt de vvd tenminste ook nog iets fatsoenlijks binnen!
stel nou eens dat dat hele vluchtelingengedoe een grote afleidingsmanoeuvre is? onderzeeër bij usa?
dit hondje werd zojuist gevonden in t leenderbos. wordt over 1 uur opgehaald door de dierenambulance. graag delen.
en wat is de uitkomst?
supertrots zijn wij op deze twee ex werknemers, astrid verest en merijn bertels, die elkaar 11 jaar geleden bij...
kom dr maar in jesse klaver
om nog maar te zwijgen over het exorbitante salaris van baron van nieuwkerk. gaat nergens over.
over enkele maandjes gaan ons weer enkele superkrachten verlaten in verband met stage in het buitenland dus...
makkelijke ouders maken makkelijke kinderen
genoeg geretweet! ga van mn beeldscherm linkse luller rechtse vuller
de spijker weer keihard op de kop vanmorgen rob! 👍
kreeg p€t€r r. d€ vri€s nou vanavond betaald om uit te leggen waarom dat ie betaald wordt?
met de bek vol tanden󾌴
met de bek vol tanden😂
tja, wat moet ik nog meer zeggen??
rottenberg, zijn naam zegt genoeg!
en wij zijn gekke henkie!
tja, en laat ik het hier nu eens helemaal mee eens zijn. kom naar links, bal maar over mij heen.
dat is t mooie aan dit land, dat mag👍
ja, juist! dat is het punt! basta!
hoe langer ik er over nadenk, des te meer vind ik dat je had moeten ingrijpen bij lil kleine. te onbeschoft voor woorden!
heel nederland met zn allen aan de wiet, maar alstublieft geen zwart piet. waar moet het heen met dit land ?
alle hens aan dek! u hoeft niet helemaal naar amsterdam om te beleven. ook bij ons wordt vandaag het...
wel leuk zon eyecatcher aan de valkenswaardseweg. gemaakt door darkness entertainment van pim donkers!
neen, snelste manier via momenten, ieder moment selecteren en deleten
ik weet niet wat ik erger vind, wakker dier of is?
mooi stukje weer rob. ik was er ook voor gaan zitten maar zag n andere aboutaleb dan ik dacht te gaan zien. ind. erg pvda
beetje teleurgesteld aj. deze aboutaleb gaat het niet worden. misschien wel in erudiete kring wr hij duidelijk bij wil horen
hoezo moet poetin hiermee instemmen? dat is hetzelfde als vragen aan een moordenaar of ie een rechtzaak wil?
hele mooie film, met morgan freeman. al 2 x gezien.
read my lips binnen nu en 10 jaar geen euro meer en hoogstwaarschijnlijk ook geen eurozone. zonder politieke unie geen munt unie !
welke zekerheden hebben de grieken ons eigenlijk gegeven die wij kunnen innemen in geval van faillissement griekenland?
kijk dat is nog eens ander nieuws dan de exit van griekenland.....
heerlijk commentaar van geen stijl😂
we hadden vandaag n klacht. een mevrouw vond onze tomatensoep te veel naar ......... tomaat smaken 󾌯󾌯
als de wiedeweerga naar de toscane!
vandaag precies 22 jaar geleden openden wij onze deuren. nog steeds staan wij iedere dag graag voor u klaar. op...
stel de wereld is een zandloper en wij,,de mensen, zijn t zand.....
zo lekker! voortaan bij ons op de kaart. la chouffe!
2 echte ajaxieden aan onze speciaal gedekte psv tafel. bedankt voor jullie kratje bier janneke en dolf mulder
echt wel, de reacties van die engerds geeft voldoende inspiratie
ff stukkie over schrijven rob !
dus jorgenraymann heeft een lintje gekregen???? ik was vandaag op een receptie bij iemand die er echt veel werk voor heeft gedaan. jammer
sterker nog, ik werkte in n restaurant en daar kwamen die stoere kerels met 5 6 porches lunchen. 😀
luuk porche verkeerspolitie jaren 708090
vandaag de gelukkige winnaars van de waardebon bij op bezoek gehad. ze gingen natuurlijk...
ook de kleintjes vermaken zich bij ons prima☺️
de gelukkige winnaar voor ons paasontbijt is zullen contact met je opnemen om dit verder te...
jeetje, t is donderdag en ik heb peter r. nog niet gezien 😳
toch n heel leuk slot don diablo! en volgende keer met zn moeder. kerel met gevoel en talent!
uuhm umberto? moet dit nou? weervrouwtje? oh oh oh wat erg? echt
worden er in het bedrijfsleven niet heel veel producten verkocht ver boven hun waarde maar wel in lijn met vraag/aanbod? bank anders?
goedeleke gaat u aub bezig houden met sex
timing abnamro was fout, beloning niet
asjeblief mevrouw herzenberg, een ban is iets heel anders als een arts
mooi stukkie rob. jaren geleden met mn kinderen week in normandië geweest. hft zeer veel indruk gemaakt. opdat wij niet vergeten
roemer gaat stevig de mist in!
dit gaat werken als n zakenkabinet dat ook steeds meerderheden zou moeten zoeken.
dit is de ultieme vorm v. democratie. rutte zal voor elk onderwerp nog beter zn best moeten doen voor een meerderheid in de 1e kamer.
soepje van de week, pittige pindasoep met kip en witte kool geserveerd met vers gebakken kroepoek. mmmmmmm.......
bij deze verklaren wij het terrasseizoen 2015 officieel voor geopend!
tijdens beide paasdagen serveren wij een paasontbijt van 10.00 uur tot 14.00 uur. u kunt dit ontbijt zelf...
enkele weken eerder dan andere jaren, maar wij zijn er dit weekend helemaal klaar voor met n fris en schoon terras!
probeer onze nieuwe pannenkoek van de maand, met in knoflook gebakken gambas en heerlijke pikante saus....
wat n achterlijke mongool die scheids! er wordt zeker weer ergens gegokt.
ons hondenbeleid nog even ter verduidelijking wij liggen met de rug naar 800 hectare leenderbos en direct aan...
warme chocomel met rum en slagroom, erwtensoep en n heerlijke pannenkoek!
onderbroek aan of niet onder de douche bij voetbal is toch vrijheid van penisuiting 😜
onze keukenmedewerker rob, met een afstand tot de arbeidsmarkt zoals men dat zo mooi zegt in een filmpje van...
ik kende je alleen van twitter, al lang. vanavond voor t eerst in t echt gezien op tv. wat ben je n mooi persoon! x
en amerika weet t juist te verwoorden! we zijn in oorlog met die extremisten!
slaap lekker, je valt me zwaar tegen
tot zo
denken we nu echt dat deze barbarij met n stille tocht en woorden te bestrijden valt? slaap lekker allemaal!
nog steeds gezellig!
zo mooi in de krant van zaterdag.... zegt zoveel over gevoelens bij arm en rijk.
joes brauers in oorlogsgeheimen! mooie film, kijken waard!
niet van jou gewend aj, beetje popie opmerking zonder onderbouwing. ligt er aan wie en hoe ze verdient zijn.....
mooi resultaat heer wilders, maar hoe ziet een coalitie er in uw ogen uit indien u de verkiezingen wint?
moet gewoon n paar miljoen europese subsidie krijgen! good! beter dan veel van die nutteloze linkse hobbys
of wilders laten regeren en zien dat ie er geen flikker van snapt en terugvalt naar 10 zetels. maar welke partijen zijn hiertoe bereid?
de stekker er maar uit en nieuwe verkiezingen! wilders wint met 30 zetels, heeft er nog 46 nodig. met wie?? dus nieuw vvd, cda, d66 kabinet
wij wensen u alvast hele fijne feestdagen en vooral een gezond en gelukkig 2015. onze openingstijden gedurende de...
van mij mag t eigenlijk wel vallen dit kabinet. maar ja wat dan?
zo langzaam maar zeker kerstsfeer bij de clown...
dat leuke rendier bij is te koop bij