never ending gitaar solo’s, stem heerlijk op het randje, geweldige band lekker hoor ✌🏻
viel me idd ook op! enig idee wie nummer 1 was op het lijstje voor lb?
je klinkt de laatste tijd wel erg als een gefrustreerde supporter ipv sportjournalist.
heerlijke goal hoor! dames van oranje
yes heb me net aangemeld!
jouw held 😂
noor en ik gaan ook naar the war on drugs!
ineens overal supporters bewapend met blikken bier. nice, have fun!
daar is ie alweer zie ik haha
geen autos beschikbaar? wanneer gaan we live?
scherp blijven!
haha nice! doe mij ook maar zon trui 😬
waarschijnlijk fake news 😋
is dat de van ginkel van de patriots?
graag een m voor 😂
wat een baasje!
new girl! je lacht je kapot!
nauw psv, anderhalve week de tijd om te trainen op de afwerking!
cool noor en ik gaan ook!
staat genoteerd.
is er momenteel internet storing in eindhoven? vandaag pakket verhoogd en direct ligt het internet eruit..
echt om te huilen dit...
succes arie, zet hem op! 💪🏻
lekker gedaan succes!👌🏼
ja dat is echt een topper!
ja even wachtwoord wijzigen 😒
ook zonder banjo is het nieuwe album van mumford and sons ijzersterk!
ja idd een goede stem alleen wordt het naar 3 a 4 nummertjes wel een beetje te veel van hetzelfde
gisteren zijn noortje en ik naar hun concert geweest in de effenaar.
nu ik ben benieuwd!
haha klopt helemaal 😉
haha best grappig. online gebeurt dit alleen maar. maar nu in een brief en iedereen is in paniek!
haha ik sta niet eens ingeschreven!
cool!! wordt het een film?
weer zon goede tip, thanks man!
zegt genoeg he
ook net niet?
wat een mooi concert was dat zeg!! doornroosje
super gedaan lot! ook echt een lekker nummertje!!
zo trots op mijn zus! check haar nieuwe track!
ben je nu journalist of emotionele supporter? of allebei een beetje
uhhh is feyenoord kampioen geworden?
dat heeft toch niks met jullie aanbod te maken? wij betalen toch voor eredivisie en jupiler league. toch bedankt
belachelijk dat jong psv nec niet wordt uitgezonden! waar slaat dit op?
leuk dat je mijn blog hebt geretweet, bedankt
goedemorgen! benieuwd naar de nieuwe mogelijk binnen facebook remarketing? lees het in mijn nieuwe blogpost!
haha leken wel een stel schreeuwende wijven! hahah
owwwww ver schrik kelijk
wel ineens een vedette showpik geworden zeg
ja heb het helemaal gezien. maar volgens mij is het een mini serie 1seizoen. het wordt nog echt vet!
wat ben je lekker aan het vertellen maat, zit je weer op je praatstoel? p
wat een wk!!
en het beste dansje bij het uitgaan
moet jij er morgen ook om half 7 uit? p
hahah zo ken ik je weer fritsie!
morgen is mijn baard eraf!
jip en die is heel lastig te vervangen en aan te komen
mijn nexus hebben ze niet meer kunnen repareren s wel nieuw scherm. scherm valt nog steeds uit als ik bel.
vandaag kunnen we kampioen worden!! d
leuk, veel plezier!
aahh okee dom! maar ze gaan hem repareren en wachten op een onderdeel.
ik heb hem ook laten maken! alleen nu blijft het scherm uit wanneer ik bel, dus kan ik niet ophangen s
cool, heel veel plezier!
echt hé! kan niet wacht op het nieuwe album!
die zitten in de molen en komen wss er zo uitgerold
dit zal voor de gemiddelde relatie een hoop ellende schelen p
hahaha dat wordt idd een mooie vlek
haha nee alleen maar mensen die verkleed zijn als klant p
lekker werken met carnaval, geen probleem! tribal internet marketing
waarschijnlijk was de kans groter dat je een prijs in de loterij had gewonnen!
haha echt hé! had het er gisteren nog even met noor. ongelofelijk wat een pech!
hoeveel mensen hebben een glippertje gemaakt in deze warme winter o
en nu wel goed genoeg voor oranje?
ja echt hé zo jammer van zon wedstrijd!
gelukkig maar ik maakte me al druk
via belgische voorverkoop, mijn vriendin haar ouders wonen in belgië
heeeuuj tickets binnen voor
nu nog een selectie die enigszins niveau kan behalen!
ja dat zal wel, succes ermee!
gaat ie lekker daar?
ben je op zoek naar een leuke baan? bekijk dan even onze vacatures bij interesse stuur me een dm
geen dank fritsie ik blijf graag in mijn bed liggen
komt goed maat!
december de hell maand...
het is nu nog maar een kwestie van tijd wanneer de gesprekken zullen starten met de leiding van en de phoxy club
zet hem op maat!
hahaha echt ongekend!!
mr proper reclame al gezien? wtf wie verzint zoiets?!
wat ontzettend slecht zeg dit jaar /
je moet ook naar gaan in eindhoven. top service!
zo te zien heeft de stekker bij eruit getrokken...
morgen kvk starters dag bij het evoluon. is present!
kan echt niet wachten om in jullie team te komen. espresso met melk en een zoetje
wel of geen kortingscode op je webshop communiceren? check blog van
mijn nieuwe blog voor top 10 meest gemaakte fouten in adwords
lang geleden dat ik zo hard heb moeten lachen om een film!
ja wel opmerkelijk. zeker als je zelf in die branche zit en het van een hele andere kan geleerd krijgt s
heb je gisteren ook die documenteren gezien op ned 3?
de enige die vandaag zijn niveau haalde bij psv was die bimbo die achter cocu zat...
proost op mijn lieve schat die vandaag geslaagd is! yes master! ons
zoet.... jeroen zoet
het scheelt 0,20 euro per liter reken maar uit op jaarbasis
moeten we dan nog wel komen vanmiddag
major lazer toch wel de beste act op extrema 2013! xo live!
of juist de redding?
rustig blijven...
hahah ja dat snap ik, goed bezig!
ja ja nu weten we het wel hoor
tequila met een wurm!
te hard gereden, maar het viel gelukkig mee
mijn eerste bekeuring is een feit.. /
onze eerste foto en vandaag alweer 2 jaar samen &lt3
of ter wel, maandagochtend!
haha grappig hé! fotos zijn vorig jaar ooit gemaakt en nu sta ik bijna iedere week in dat stadion blaadje
ik ga vanavond laat bellen en hopen dat hij niet opneemt.. ben echt benieuwd naar zijn volwassen voicemail p
table for two radio royaal op strijps radio royaal
mission impossible aan het kijken op tv, jeetje bijna vintage dit!
man man verliefd op ibiza is zooo slecht.. pijn aan mijn ogen!!!
psv a1 heeft de beker gewonnen. in verlenging scoort kardes de winnende 32. feyenoord stond met 20 voor nice!
geweldig concert gehad van mister and mississippi in de kleine maar intieme zaal van 013!
mijn sociale plicht weer vervuld vandaag on!
volg ook op instagram! leuke inspiratie fotos
hoort erbij hé maar met gerard butler is over de top alleen maar mooi
kaarten besteld voor mister and mississippi voor volgende week ben benieuwd!
ja en van bommel mag van mij ook afscheid nemen sjonge jonge wat een trage vent!
wat een mooie assist van jeroen zoet! snel terughalen die man!
whaha wat een ellende zeg! weg ermee!!
eindje de gekste!
thx man! ik zie je vanavond wel, kom even kijken bij het voetbal.
kom je nu ook in eindje de gekste wonen?!?
en dan worden deze talenten in de b of a weer weg gekaapt door een andere grotere club, net wanneer ze bruikbaar gaan worden
nieuwe gadget gekregen van mijn schatje! d
ja ja zeker. verder is hij wel fijn hoor alleen beetje wennen
ik mis anders wel mijn knopje van mijn galaxy s 2
laatste dag learn with google vandaag. erg leuk om al die enthousiaste ondernemers uitleg te mogen geven over hun adwords account!
google presenteert hier net de nieuwe google bril!
ongekend! net deze telefoon in ontvangst mogen nemen bij google amsterdam, omdat ik de hoogste…
opweg naar google amsterdam voor learn with google 2013 als sea specialist voor easy internet marketing, zin in!
dinsdag en donderdag naar google amsterdam als sea specialist voor learn with google met zinin!
ik heb echt de liefste vriendin!!! ♡♥
heerlijk verjaardagsontbijtje gehad van mijn lieve schat d
yes eindelijk af!! ikea master
kensington in de effenaar! zo vet! de nederlanderse kings of leon!
vanavond naar in de ! echt zin in! me 2!
eindje de gekste
morgen eindelijk mijn debuut in veenendaal! op bezoek bij en lars met d
noortje blij
happy valentijn met mijn schatje! &lt3
ontbijtje aan boord
lekker verjaardagsontbijtje gemaakt voor mijn jarige joppie! d
django unchained! met noortie ben benieuwd hoelang noor het volhoudt
we gaan 15 maart 4 daagjes
weekendje boedapest geboekt met mijn schatie!
was een mooi weekendje in seefeld met !
op naar seefeld met
naar azië!
gaaf! met wie ga je of ga je alleen?
vanavond naar muse!
yess, heb ook de advanced gacp examen gehaald! 88%!! d
goedbezig
rommelmarkt met noortie! ijhallen
echt zoooooo erg!!!
schonste mens!
heerlijk wakker worden hé!
vet man! veel plezier
heb je een gersie laten knippen?!! d
de schaamte en voorbij!
misschien ondertiteling een idee bij
yahoo! door mijn proeftijd heen. vanavond vieren met in de hmh tijdens concert van bon iver
vanavond naar met mijn eigen bondgirl !
natuurlijk!
snorvember voor de snorloze onder ons...
oww shit ik dacht open map p
gek van die gacp
echt verschrikkelijk idd!
rt yeeaahhh! eindelijk weer verder met het nieuwe seizoen van
goh nieuwe gezichten p
hoi denise dankjewel, ik heb er veel zin in!
al mooie werkdagen achter de rug bij easy.nl. leuke collegas, inspirerend werk en net gestart met het google adwords certification program!
abn amro heeft mijn skimmingsgeval goed opgelost, geld is alweer terug gestort. hopelijk doen ze ook iets tegen deze criminaliteit!
ik denk bij de benzinepomp tamoil in valkenswaard of bij de ah in tilburg bij de uni.. echt vaag!
shit, mijn bankrekening is geplunderd en geblokkeerd wegens skimming! krijg het wel weer terug maar toch..
waauuww die tweet ziet er een stuk beter uit! p
idd kissie!
waauuww coldplay bij vvd, geniet hé p
vandaag eerste telefoontje gehad na 100 sollicitatie pogingen, applausje voor de crisis!
assisteren bij banora! op de sahara in lommel
boer en arrogant?!
misschien een toepasselijke linkedin profiel foto nog steeds opzoek naar een baan
ben echt benieuwd wat deze week in de filts heeft gezet!
vanavond samen met naar psvzeta
toch maar eens een poging wagen
gold rush, zo vet programma!
hij heeft al 2 gele kaarten op zak, dus gaat goed!
rood is het nieuwe oranje!
volop aan het solliciteren naar een uitdagende marketingcommunicatie functie! benieuwd waar ik over een paar maanden werk
wat een risico hé!!
eindelijk naar the dark knight rises met ben benieuwd!
ajax selectie vanavond niet volledig, wegens te heftig vieren van de gayparade
laatste avondje alweer in ibiza.. echt een geweldig eiland! straks nog even wat sfeer proeven in ibiza stad met &lt3
bedankt voor de tip! ga jij dit jaar ook nog?
morgen met naar de gezelligheid! d
je bent al jaren een trendzetter
en daarna naar barça!!! d vakantie geboekt!! oooh, were going to ibizaa!
dankjewel hé d jij succes in augustus!
gefeliciteerd joh!!
succes kissie!
haha guus was vanmiddag blijkbaar ook in lommel, dondert en het bliksemt!
haha thx, jij ook succes hé
als ik net zo productief was geweest de afgelopen 4 maanden als dat ik de afgelopen 4 dagen ben geweest was ik wss in 4 weken klaar geweest.
de puntjes worden hier nog tot diep in de nacht op de i gezet. morgen inleveren van mijn scriptie!!!
reken maar van yes p
en ik zit hier weer lekker aan mijn scriptie laatste loodjes!!!
wat een ellende allemaal hé! werkse nog en veel succes!
ik ben bang van niet jij?
genieten weekendje blankenberge achter de rug! top
ga lekker thuis werken joh! genieten met dit weer
haha, die willen ook netwerken!
toch nog ons debuut gemaakt bij
uhmm die ben ik nog niet tegen gekomen, thx! btw het zijn de witte converse geworden
binnenkort wordt de nieuwe houd ons op de hoogte hé
tranen weg pinken! gefeliciteerd man!
gesprek met gehad, er is licht aan het eind van de tunnel!!
shit, zit ik hier op school!! p
op weg naar school voor een terug kom dagje. resultaten van het onderzoek bespreken en de conclusies.
ja het begint al ergens op te lijken laatste maandje, knallen dus!
heel veel succes!
plicht?? hun plicht is een goede wedstrijd neer te zetten voor hun thuis publiek! winnen dus...
heb je die in de bios gezien?
sms scriptie baardje bezig met onderzoeksrapport, come on!!!
mooi! ik moet ook nog een kastje verhuizen!
ik wist niet dat je een enquête hield?... p
uhmm.. rijdt nu volgens het nieuwe rijden.. waarin ze uitbollen een belangrijk onderdeel vindt /
ja misschien wel, heb alleen zaterdagochtend een interview in eindhoven dus weet nog niet zeker. veel plezier iig!
hoelaat moet je draaien?!
o ik was dan toch wel de vader hoop ik hé
mailing voor het externe onderzoek de deur uit, morgen nabellen en hopen dat het een geweldig resultaat oplevert!
bus vervoer in eindhoven door is weer lekker geregeld vandaag!! not
net naar de film intouchables geweest met echt een mooie film zeg! alleen jammer dat ik nog steeds geen frans kan..
opfriscursus social media by voor het sales team van het altijd interessant!
ja dat krijg je met die euphony p
succes hé en laat je niet opnaaien door die mannen! p
ben benieuwd wat je in gedachten hebt, dm me maar!
hahaha zie die gast in dat zwarte shirt een blauwtje lopen!!
ik heb hem! instagram ook beschikbaar voor android
waaauuww mooi joh! zijn dat je aan de gang kan
op naar de bios met mijn kijken wat de sneakpreview vnvd brengt!
de brainstormsessie is goed gegaan! hopelijk biedt het goede informatie als input voor mijn scriptie
heerlijk weekendje gehad! vanmiddag brainstormsessie bij het evoluon, hopen dat er goede informatie uitkomt voor mijn scriptie
nog steeds aan het nagenieten van het prijzenfestijn. iedereen bedankt voor de topavond!!
super vet die gomes wat een held
toch niet als voorbeeld functie hoop ik p
sjonge jong wat een spannende pot!!
wat jullie visie op het werken met personas en daarbij het in kaart brengen van de customer journey binnen de b2b? ben benieuwd!
leuke infographic! b2b marketing van push naar pull strategie via
bah! wat kunnen ze het allemaal toch mooi vertellen hé.
ja is vies? wat is het eigenlijk roomkaas of zo?!
mooi zeg voor heracles! nog mooier voor psv
heerlijk lente avondje in tilburg
volgens hutten de nieuwe bedrijfskleding voor het evoluon mt
vandaag een leuke en inspirerende kennismaking gehad met hutten catering. nu op weg naar mijn lieve en onze 9 maandjes vieren!!!
de smaak politie
goedbezig jonge klinkt beter als dat geklaag van
ja idd slaat weer helemaal nergens op!
is dat die vraag mevrouw!!
begin van het einde p
na strootman is nu ook heel eindhoven en omstreken ziek...
het was zon leuk weekend....
op weg naar valkenswaard avondje stappen met flink het weekend inluiden!
gaaf zeg! veel plezier!
rocket science afstuderen in volle gang!
zonder interactie kun je geen relatie aangaan. kip ei verhaal?!
weproduce.nl bedrijfje uit valkenswaard. top kwalitateit en snel.
ben benieuwd hoe al die winkeltje en bedrijfjes gaan inspelen op de veranderingen van nu de voor de page verplicht wordt
was echt zoooo spannend!!!
staan mooi voor paal daar!
ik weet gewoon wat ik wil
geniet er maar van schat!
gefeliciteerd shanna, de taart ziet er goed uit! nog een fijne dag hé!
culinair bier drinken
ga je verkleed als zeurpietje p
jij bent echt een communicatie goeroe geworden p
go juf shanna! misschien er wel een valentijnskaartje tussen
rustig blijven frankie p
mooi zeg!
it gaet niet oan!
de winter heeft nu ook mij te pakken!
lijkt me iig beter dan echt een flauwe bedoeling zeg!!
eerste dagje afstuderen zit er op. kom ik thuis heeft mijn vriendinnetje heerlijk gekookt!
we samen samen jouw cadeau op aan het smullen! dankjewel!
koud koud en nog eens koud! wel een leuke wedstrijd
haha, oja en mijn steun en toeverlaat noortje bakker!!
yes! maandag begint mijn afstudeerstage bij het evoluon met interne begeleider en vanuit de opleiding
vanuit binnen lijkt het buiten net zomer! mooi weer man!
lekkah! kopje warme erwtensoep na een koude middag school. vers gemaakt door
er gaat niets boven een cappuccino voor een meeting!
goed gedaan kerel!
yess laatste tentamen van mijn opleiding binnen gekopt!
misschien een wachtwoord installeren?
ben je nu weer blij