idd, iedereen die willekeurig mensen zomaar vermoord is dat!
in dat geval koelkast of vriezer? of plek op zolder waar je bijna nooit komt?
kleine vriendinnetje weet daar meer van?
michel breuer ard van peppen roel brouwers…
nu alles gevonden of toch nog iets kwijt?
iets met calimero gedrag?
al gezien, lekker dat idd.
ik heb wat gemist?
en zijn wij nu reïncarnatie van dat team tot nu toe 😉
haha, bijna. in seizoen 2015 hadden wij ook al zo’n jaar met oa die 43 sorry. dus eigenlijk waren j…
van de andere kant lijkt het me bijna onmogelijk om een heel seizoen boven je kunnen te spelen. snap het dilemma.
helemaal gelijk over vorig seizoen. al denk ik als dat zijn niveau is hij nog wel bij liverpool had gezeten
maar je hebt wel gelijk. vorig seizoen beresterk en nou geen schim meer daarvan. of speelde hij vorig seizoen boven zijn kunnen?
tussen vandaag of morgen?
weer aan de fristi 😉.
ff terugkijken, wij zaten hier met zijn 2en heel verbaasd elkaar aan te kijken
kluivert justin dus
en zei hij nou ook serieus dat spanje te warm was en dat ze daarom naar italië gaan?? 🤔🤨
knap als ie na deze wasbeurt nog plat is.....
duurt idd nog lang en is rare competitie waarin we zo nog punte…
+1 en ze blijven die wapenwet maar verdedigen.... hoe harder de kritiek, hoe feller de onbegrijpelijke verdediging
wat is er gebeurd?
nog niet helemaal....
daarom. ook al scoorde hij niet had hij zijn waarde als aanspeelpunt. bovendien nooit iets aan te merk…
nou probeer ik het nog eens een keer en gaan jullie het zelf verpesten....
zien jullie wel, het kan wel samen 😉
mee eens
op zoek naar zijn winterbanden misschien?
zou wat zijn 😂😂
sparta was hard maar niet met gestrekt been, noppen vooruit op de knie, hier wel. deze overtreding is…
je wordt alsmaar beroemder
totaal onzinnige vergelijking/opmerking
wat extra hersteltijd na 😉
hij ziet er ook een stuk afgetrainder uit als in laatste tijd bij psv
zeg dat nog eens zonder te lachen 😉
proost 🍺🍺 en heel veel plezier!
idd niet, 1 van de drie dagen op voetbal gebied
als het vinnie was had hij het ws zonder helm en bescherming gedaan
??
dan ben ik dus ook heel slecht
+1, zoet heeft idd mindere periode gehad maar nu weer bijna wekelijks beslissende reddingen
waarom jij nog niet bent uitgenodigd bij vi/rtl7.... jouw analyses kloppen niet alleen, er valt ook nog om te lachen.
veel plezier! mooi vooruitzicht om deze wedstrijd live te kunnen zien
die kaepernick is echt wel een paria geworden terwijl zijn actie toch al is gevolgd…
kiki heeft af en toe een positieve uitschieter en ook daviscup gaat vrij redelijk...
wel een mooi antwoord afkomstig van jou als superfan van deze sporten 😂😂
scheids en niveau wedstrijd passen zich moeiteloos aan elkaar aan
gelukkig zijn we nog wel europese en wereldtop in schaatsen en korfbal. 🤨
wat een belediging van de stoeptegels...
nee, door de slimme acties van buttner en het theater van zulte ga je je zo ergeren dat je nog slechter in slaap valt
kunnen moeten net zoals bruns toen
grensrechter had gevlagd en daar wezen die spelers op. maar wat een stomme actie van hem.
2e wedstrijd op rij dat buttner zich van zijn “beste” kant laat zien...
lijkt mij idd voorlopig een vast duo daar met de ligt en wober. goed gezien, had nog nooit van wober gehoord.
vooruitziende blik 😉
ok. en hij ziet sinkgraven dan meer als middenvelder? en heeft vertrek viergever mede…
jij verwacht ook een nieuwe lb, ook als sinkgraven weer fit is en je dan hem en viergever als opties hebt?
idd. kunnen het bloed onder je nagels vandaan halen maar voorkom als speler dat je hierin verzeild kan raken.
voor zolang jet duurt maar idd liever hem dan die buttner. het lukt pasveer tot nu toe oo…
echt? ben er al heel te lang niet meer geweest.
die zijn er niet voor de club. die zijn op dit soort dingen uit. helaas. 2/2
wordt idd gesproken over scheldpartijen en verbaal geweld. absoluut niet goed te praten m…
bizar idd maar ook niet echt handige actie van hem.
en uitslagen zoals spurs en roma van deze week gebeurde laatste jaren eigenlijk ook niet.
aanval is echt smullen, maar ook het gevaar. als zij niet draaien, wat dan?
jawel, mij nl ook gebeurd.
wel meer als een klasse. ook in houding buiten het veld.
ook dat, al was het de laatste jaren vooral barca, real, bayern en een 4e. nu lijken meer…
👊🏻 geweldenaar
zal een geweldige ervaring worden. veel plezier alvast en succes daar! 👍🏻💪🏻
ben gelukkig niet snel meer verbaasd. en hou trouwens ook wel van een uitdaging... 😉
en een paar die naar binnen stormen en de rest die met een grote mond in de deuropening blijft staan.....
gefeliciteerd!
blijft genieten. voorrecht om er live bijgeweest te zijn
in de prullenbak?
helemaal mee eens.
ok thx. lijkt wel vaker voor te komen daar in hollywood.....
volledig mee eens
ik heb vlgs mij iets gemist?
en het was idd ook geen smerige tackle gericht op enkel of knie, hij tikt ene been ha…
daarom stiekum tussen haakjes, gezien reactie van medespelers tijdens bedanken van pub…
was het zeker niet, dan had hij vol met noppen vooruit gegaan
daarom, als supporter van tegenstander hekel je het maar als supporter van eigen club…
echt niets ten nadele van maar dit is toch echt veel beter 😉😂
help het je hopen. heel veel sterkte kerel! 💪🏻💪🏻
hou je het nog vol?
maar die van moet dan wel iets groter zijn...
mooi compliment van een voetbalkenner.
iedere supporter zal er begrip voor hebben als zo punten voor eigen club worden veiliggesteld.
is terecht rood, maar kijk ook naar waar sparta staat en situatie in wedstrijd is. 1/2
rood terecht, maar overdrijven is ook een vak.
deze jongen is absoluut geen hersenloze en ja, ik ken hem persoonlijk
kom eerst maar uit de emotie van deze wedstrijd, misschien kun je daarna normaal doe
niets moraalridder maar verwijzing slaat nergens op
bovendien is het geen imbeciel en elke verwijzing naar den dolder is erg ongepast!
als een speler van jouw club op deze manier 3 punten zeker stelt en die 3 punten broodnodig zijn dan reageer je vast heel anders.
minimaal
minimaal 10x
wat ben je opeens mild
kaarten 1 kant op ja. arias was niets en overtreding op arias wordt niets mee gedaan.... en zo wel meer voorbeelden
niets aan de hand, buttner valt overal en nergens om niets en mag verder wel alles flikken...
helemaal waar, maar weer na vage actie van scheids
vriendje van buttner
we scoren weer en houdt ons regelmatig op de been...
sinds utrecht uit gaat het idd wel lekker met hem 😉👍🏻
tot 2x toe duwen van miazga
dat mag hij vandaag nog wel een paar keer zeggen wat mij betreft...
daar heb jij weer gelijk in
je hoort ons niet klagen😉
blijft idd geen gezicht
met beide tijdstippen.
ergens jammer dat hij zich daarvoor laat lenen
daar zit hij beter op zijn plek dan bij vi. hij heeft best wel een redelijke kijk op het spelletje.
hoe dan ook beter een lelijke goal dan een mooie misser.
tot nu toe nog wel meer hoor 😉
en weer wordt er gehoppaad 😂😂
denk dat je mede bioscoop bezoekers raar opkijken als je daar gaat staan springen.....
hoe meer, hoe liever 🤣
beloofd wel wat voor de race, verstappen achter vettel.....
86 duizendste....., verstappen achter vettel beloofd wel wat voor de race
vettel in laatste rondje naar 1, verstappen 2 riicciardo 7
ik heb het gevolgd 😉
dat gehoppa heeft wel een diepe indruk bij jullie achtergelaten 😂😉
vorig jaar keepte zijn tweelingbroer of dit jaar
mooie shirts die van adidas, kan nike nog war van leren met hun landenshirts
proost!
gefeliciteerd kerel 🍺🎉. maak er een mooie dag van!!
fan! nu al
mooie loting voor
kijken net als de verslaggever die het pas ziet na 6 herhalingen waarschijnlijk naar een ander scherm....
kijkt de verslaggever soms naar een ander beeld of zo? dat hij niet ziet dat die mertens vol op het been van van ginkel gaat staan?
duidelijk geval van scorebordjournalistiek 😉
spelersvariant op de videoscheids...
kramerinho trekt zich wat aan van je tweet 😉
ik mis jullie inzending voor bilal met zijn volledige achternaam.... 😉
schande! gebrek bij psv 😉
is dat niet fuat usta? nee geen grap, was ook echt een voetballer
suad usta
van het voetbal ook niet echt. wat dat betreft wel passend.
of je bent geknipt 😉
op naar de fontein!
en dan ook nog tijd hebben om stadionspeaker te zijn? 😳
hoe zou hij eraan komen. misschien weet je kleine vriendin hier meer van? afstand horstpa…
check instagram van marco van ginkel, jorrit hendrix volgt je voorkeur voor platte petten
gelijk je bodyguard mee dus 💪🏻😉👍🏻. veel plezier daar
weer een fietscombi?
niemand durft een scheldnaam voor den haag uit te spreken/te verzinnen 😉
en hij heeft zelf in rotterdam gevoetbald 🤔🤔. wat waren eerder de gevolgen voor immers en elia?
je vergeet je grote vriend
je kan gelijk hebben met je tweet dat het niets met ferrari te maken heeft maar onderstaande is nie…
maar wel recht uit het hart en eerlijk
en het gaat ook om de vraag of max daadwerkelijk met 4 banden buiten de baan is geweest en zo heeft afgesneden.
en hen zelf geen voorkeur zijn beide leuke clubs. heb wel voo…
helemaal gelijk. als je ergens op uit bent, zoek dan tenminste lui op die dat ook zij…
ok, jammer dit. ben tig jaar geleden wel super geholpen bij sup ver sparta voor spar…
laat eigenlijk maar weg
uiteraard voor jou ook de felicitaties met resultaat en plek op ranglijst 👍🏻
lijkt me idd mogelijk. zijn zeker een paar ploegen duidelijk minder. alleen niet zo’n serie als vorig jaar....
gefeliciteerd, heel mooi resultaat en mooie plek op ranglijst!
gefeliciteerd, heel mooi resultaat en mooie plek op ranglijst!
goede reis en suc6 daar!
ik denk dat de klassieker eindigt in een gelijkspel.
veel plezier daar!
gestemd op de rechtse
jij ziet ook alles 😂
wat een liefde weer! 😉🤣
😂😂 zijn ook belangrijk
tja, maar hij of diks..... afwachten maar, iig suc6 zondag.
welke positie sta jij dan?
nieuwkoop en amrabat rechtsback of andersom?
suc6 en veel plezier!
wij staan bovenaan!!! zo beter? 😉🤣
deze is er 1 met hoofdletters en uitroeptekens! die is compleet van de pot gerukt en doorgeslagen....
hou je sloffen, pet e.d. maar extra goed in de gaten dan!
of als straf voor wat wij vroeger onze ouders hebben aangedaan 😉?
kleintjes zitten hele dag vol energie totdat ze als een blok in slaap vallen in bed. is vlgs mij expre…
suc6. zal voor jullie duimen maar een gelijkspel mag ook
en het weer blijft net zo mooi als het uitzicht.
gelukkig is er ook nog een nederland die zich niets aantrekt van een paar schreeuwers/relnichten uit de randstad
god is argentijns wel handig met een argentijnse paus...
😅😅 behalve de schrik gelukkig geen verdere schade?
😳😳🤔
politie uniform hoort neutraal te blijven en gelijk voor iedere agente
ik ook, al moet ik het hier in oostenrijk doen met bayernceltic
als wij naar buitenland gaan wordt gezegd dat wij ons moeten aanpassen aan gewoontes daar.…
zij kan hem dumpen
het wordt echt te gek nu 😡
het wordt steeds gekker........
heb het moeten opzoeken maar mee eens
helemaal mee eens! voorbeelden komen er steeds meer....
de waarheid is hard
zie ook lozano fouten in wedstrijdrapport etc en toch ook schorsing. als ze willen schorsen doen ze dat gewoon...
vooral de bruyne hebben ze erg makkelijk laten gaan. lukaku doet het nu leuk maar ben ik nog niet echt van overtuigd.
shakhtar zit vol brazilianen en wordt bijna altijd onderschat. gewoon een goede ploeg die het ook goed doet in europa
thx, gaat lukken!
zell am see in oostenrijk. thx, gaat lukken.
met dit uitzicht en voorspelling van 20+ graden is het wel een week uit te houden hier ☀️🍺
ik leef met je mee, hopelijk sla je je er doorheen 😉. heel veel plezier daar! ☀️
ben ook vol afschuw en volgens mij wilde de ouders/familie van anne nu vooral rust. vraag me af of ze…
mee eens, van constant hoog niveau.
absoluut programma waarin nederland aan trump wordt voorgesteld blijft legendarisch!
ja, serieus.
mix van cola met bier? is daar nogal populair.
verschrikkelijk dit
helemaal mee eens!
artsen/lui die dit soort gevallen willen laten terugkeren dienen ontslagen en flink gestraft te worden
in vergelijkbare gevallen ook!! en vooral maar proberen om dit soort gevaarlijke gekken terug te lat…
op zijn minst! gewoon idioot dat serieus wordt geprobeerd dit soort idioten/maniakken te laten teru…
maar jij natuurlijk ook heel veel plezier en dan kunnen we elkaar in maart met onze verjaardagen feliciteren.
ralph had het toch over een verjaardagscadeau 🤔🤔?
.... en een biertje drinkt ?
voor zolang het goed gaat.....
en de knvb voor het wanbeleid
en daarna boycotten we qatar vanwege de situatie van de stadionbouwers en vanwege de hitte....
we boycotten gewoon rusland en poetin. zie over 10 jaar maar andere tijden. 😉
lekker roepen vanaf de zijlijn zonder verantwoordelijkheid te nemen.....
wat wil je hiermee bereiken? mafkees.
idd, niets makkelijker dan roepen vanaf de zijlijn. iets met beste stuurlui...
denk het ook 🤣🤣 volgend jaar beter...
ok dan, was vergeten zonder verdoving....
helaas heeft 1 iemand en haar familie en vrienden daar niets aan.
mag ook wel. shirts zoals die van frankrijk en engeland nu doen pijn aan je ogen...
gezien en niet meer als terecht
hij was zo op de goede weg.... we zijn allemaal verbaasd en teleurgesteld en dit was niet te voorzien...
1 domme tweet van knvb lijkt me al meer als genoeg.......
maar is toch al mooier den het gemidddelde landenshirt van nike
nee, met een bot mes zonder verdoving
😂😂😂😂 topkandidaat voor tweet van het jaar🤣🤣🤣🤣
gaat je toch niet lukken! 😉🤣
te mild. eerst castreren met bot mes. de rest wat ik denk hou ik voor me.
100% mee eens. elk slachtoffer van zulke lui die terugkeren in maatschappij is er 1 teveel!
doe eens gek... 😉
mooi nieuws man! gefeliciteerd en suc6 daar. 💪🏻👍🏻
nee, die van
levert mij vooral veel slaap op..
hier ook. al zal ik een week lang niet stoppen met lachen als het echt gebeur…
veel plezier 🍺🍺🍺 maar zal denk ik wel lukken
weet je zeker dat het je vriendinnetje wel is. ze houdt ervan om je te plagen/alles te verstoppen. 😉
ik ook niet maar de citroen maakt het te verteren. haalt de mierzoete nasmaak eruit.
dat schijfje maakt cola light wel te verdragen...
mede dankzij verklaring van speler nac
bij platte?
heel goed! 👍🏻
zorg ik voor de grolsch
het kan erger, hij zou ook spa rood kunnen inschenken
als er grolsch is wil ik ook wel een bijdrage leveren!
goed bezig! vnvd is verdiend, je mag jezelf ook af en toe belonen. 👍🏻💪🏻
het was toen een oud voetballer ben ff naam kwijt die aangaf dat dat vaak een teken was van een ernstige blessure
en dat domme commentaar van de presentator het ziet er naar uit dat alleen zijn knieschijf is verschoven....
+1
heb ergens toch meer vertrouwen in de echte kuifje.
toch ook een soort test van fifa?
over de volgorde van penalties doet de knvb moeilijk en dit kan blijkbaar wel
hier zal achilles vast ook wat van vinden.....
hier zal achilles vast ook wat van vinden.....
was ook een voorrecht om hem in zijn jonge jaren live te mogen zien.
daarom had ik ook voor de zekerheid optie 3 ingevuld 😉👍🏻
en de eu blijft oorverdovend stil....
stoppen met dingen kwijt te raken? of is dat erg ambitieus?
zeker gezien de eigen resultaten en die van de concurrenten de afgelopen 2 weken.
en dan nog boos zijn ook.......
gefeliciteerd en geniet ervan!
waar in eindhoven ben jij dan?
en ruzie in huize rene en vnvd of valt het mee?
nu zie ik het ja.
is dit op de n3?
geen zelfgemaakte worstenbroodjes meer?
in welk jaar bedoel je?
dat jij de lord durft te verkopen zeg 😉
jaja, vast
gefeliciteerd man! maak er een mooie dag van en nog veel gelukkige jaren toegewenst.
denk dat je meer succes zal hebben bij
iets met eigen schuld....
hebben ze het eerlijk gezegd ook een klein beetje naar gemaakt. rome was geen incident, ging wel vaker fout bij uitwedstrijden.
wist niet dat het dat was. altijd gedacht dat hij eigenlijk te jong was en geen echte…
als dat maar goed gaat....
zie het maar als ontwikkelingshulp 😉👍🏻
ben je het iig niet kwijt zoals je sloffen 😉
idd en zeker niet voor het eerst
😂🤣😂
dan nog. kan ook ondanks zijn ipv dankzij.
alleen staat ajax nog iets te hoog 😉
cocu moet nog steeds weg
gaan we toch als de gedeeld 1e in de competitie
iets met pot en ketel?......
dat, of gewoon thuis blijven en op tv kijken 😉
alle 4, waarbij optie 4 dan waarschijnlijk als 1e moet gebeuren! en dan om alles draaglijk…
hij zegt het weer!! en jan joost merkt het weer niet
net zoals heinrich en jan joost die beiden fout niet opmerken
je vergeet breaking
net zoals kantine publiek iets teveel aan het bier gezeten?
heb jij gezegd zo te moeten loten? 😉
zegt hij nou echt dat feyenoord en vitesse niet tegen elkaar mogen loten?? 🤔🤔
goed om weer aan het werk te zien 💪🏻
hopen dat we de hele wedstrijd wakker blijven
bij deze hulp aangeboden
aangezien jouw naam nogal eens gebruikt in polls e.d. denk ik dat hij deze rechten al geclaimd heeft 😉😂