wow! even kijken! 😊
wat een wedstrijd zeg!
mooie goals allemaal, maar nu aub die 43 nog even scoren!
leuk dat je er was. heb je alleen nog niet ontmoet, halen we in. dank voor je mooie initiatief voor schaaktafels!
was mooi! 17.500 euro voor schoolschaak in utrecht! dank scholen,
done! en gestemd had ik al. succes!!
graag stemmen op enige nl team apeldoorn apes dat nog wildcard kan krijgen. op voet gevolgd door oslo. help je mee?
kreeg eerste gmnorm in 10 jaar geleden dus extra mooi in
jammer maar begrip speelt na 25x niet mee aan ook al voldoet hij aan eisen. dank voor 25 mooie edities loek!
wat een fantastisch mooi deelnemersveld 5 uit de top 10 met vele historische namen!! 👏
en titelverdediger 7, 5, 4 &amp 1 breekt hij record van 5x?
met ook en uit top 10 is er weer! hij won al 5 keer net als
met als enige vrouw, chinees talent 18 en nu de toelichting op nummer 13 himself😊
over zijn tegenstanders tijdens de 80e editie van het van het schaken
met over zijn tegenstanders
dan mag je wel iets blijer kijken 😉
een 97jarige schaakt zaterdag as tegen een 7jarige in rdam in het kader van
zit naar je te luisteren, leuk!
waarom zijn resultaten eigenlijk niet gesorteerd op chiptijd/netto tijd? bruto tijd/guntime toch niet boeiend?!
van harte 👌bouwmeester voltooit trilogie met europese titel in laser radialklasse
wat een weer! niet beste tijd, maar 10km weer gefinisht en morgen de 5km en halve met rest van de family…
ja inderdaad! de enige.. saartje heeft 19/8 een nestje gekregen, maar alleen deze overleefde het 😢
90 jaar leeftijdsverschil en dan lekker tegen elkaar schaken! dat kan 😊
het is schaakvoetbal of voetbalschaak maar niet makkelijk te krijgen leadtime abt 1 mnth dus n…
mooi bouwmeester aan de leiding na eerste dag op ek laser radial
leuk man dat schaken
zeker. insgelijk!
zo spreken bij ziet er professioneel uit 😊#aboutchess
trending tags.... dan brengen we met schaken in ieder geval wat positiefs hiertussen!
mooi stuk
vandaag simultaan gegeven &ampbord en stukken 😊 en presentatie bij scholen veel inte…
dank! als toetje nog een item op rtlnieuws vandaag en morgen e…
is er een open dag in de johan cruijff arena?
ja ik ben erbij! mooi initiatief en blij met inzet
dát bedoel ik natuurlijk! 😉 goede sessie gehad. benieuwd welke stad sneller gaat of
daarentegen was tweede helft van feyenoord wel echt mooi om te zien
nou.... misschien wel beter 😉
van idee naar uitvoering. chess we can! gaat al, wil ook, welke stad volgt?
en bij worldcup zit bij laatste 16, ook mooi! alleen morgen even revanche nemen op
en niet te vergeten eelke de boer! deelt nu koppositie u14 en meer mooie prestaties bij de in totaal 18 afgereisde talenten 👏
knap staaltje vechten. lucas van foreest wint een gelijke stelling in 157 zetten van koploper en staat nu 1e!
en is weer door, super! 👌
wat prachtig weer!
welke stream kijk je?
enne.... ff wat bekenden uit checken 😉
kun je de goal laten zien
woohoo wat een einde. met hr gewonnen, gaaf!
55 en dooorrrrrrr.......
drie honken bezet, spannend! vs
gisteren is open nk dieren geopend. met oa het boek drie paarden als kado voor aftredend burgemeester win…
tata steel chess on tour in 2018 naar groningen en hilversum mooie keuzes!
mooi filmpje dat mijn neef maakte over nouri. zo triest...
toch bij uitstek een uniek kado? 😉
na een uur uiteindelijk gelukt. bij jou ook?
ik hoop dat jullie site plat ligt, want kom er met geen mogelijkheid in en zat al een kwartier klaar 😕
stond wel op de site, zetten waren live te volgen, maar je moest wel even kijken idd.
ik volgde gewoon de zetten 😉
anne haast en loek van wely nederlands kampioen schaken 2017, van harte allebei!
inderdaad zeg! hoe spannend ☺️
spannende laatste ronde zowel algemeen als bij de vrouwen. vier kandidaten in de running. allemaal tijdcontrole gehaald!
count me in! een witte én een zwarte 😄
terug op weg. wat een ontzettend gaaf met een nevennk van corryfeeën uit bedrijfsleven en niet de mins…
klopt trouwens ook 😁
zeker!
op weg naar opening in amsterdam met oa toelichting op als schaker 😀#nice
grand prix schaken was leuk! ging niet supergoed, maar ze hebben hun best gedaan en vonden het heel leuk. dat telt!…
ah! was al benieuwd.... vroeg me al af of het een erg trotse vader was geweest ofzo 😁
dag peter, had je een mail gestuurd, heb je die al gezien? hoor graag!
check t even op twitter ik had je gemaild, heb je die mail gezien? hoor graag!
dank je wel monique!
na gisteren den haag en schiedam voor vandaag bondsraad in utrecht. mooi iedereen weer te zien.
dank voor je reactie!
heel tevreden wat heeft geschreven. puntig en in goed engels en heeeel snel! 👍 aanrader!
ja klopt, maar dank voor het meedenken!
ik heb je even gemaild!
is er iemand die snel een bio van 150 woorden goed kan vertalen naar engels voor me? en liefst ook even meekijkt?
wat gaaf waar al jouw ideeën al niet toe leiden zeg 👍
mooi stuk. dank voor dit kijkje in de keuken in armenië!
oudfnvvoorzitter hans pont 78 overleden. ook oudvoorzitter van de schaakbond. sterkte aan de nabestaanden..
en de mooiste van de 5 goals is toch van
mooi! jorden van foreest schaker van het jaar
leuk!
hoe super voor tom en knwu en natuurlijk heel nederland!
mwah... weer even in vorm komen
meisjes kunnen even goed schaken als jongens. of beter. vandaag werd machteld van foreest 9! nl kampioen tm 12 😊
spannend! nk schaken d tm 12. nu barrage tussen khoi pham en machteld van foreest om de titel bij de jeugd!
sjonge 4 dagen geen schoonmaak en dan ziet het er zo al uit
staking in met honderden in de rij voor security. wat te doen?!
staking in ibiza. met honderden in de rij. vlucht om 2055 nr eindhoven. wat te doen??
wereldrecord schaken in tilburgse en bossche handen | tilburg | bd.nl
en net om 1300u de 48 uur volgemaakt, geweldig! 👍 gefeliciteerd niels &amp bob!
de laatste 10 minuten..... even kijken! snelschaken
nog maar 4uur! 💪 475321 😄 sjonge jonge en de zetten zien er nog steeds redelijk normaal uit. knap hoor. succes met…
ga je nog even kijken? nog 12 uur.....
ruim 20u bezig en het staat 222,5133,5! 😮
ik ga nu slapen, maar jullie moeten nog even door.... good luck! stand 154,5107,5
superb! gaaf zon live stream. weet even niet hoe te doneren, maar steun door mee te kijken vanuit vakantieadres. s…
bij 30 graden is er maar één goede plek voor verkoeling 😊
vandaag sportconventie en mag in gesprek met kinderraad en prinses laurentien. praten over sporttoekomst, leuk! 👍
leuk! blijft mooi dat rotterdam een combinatiefunctionaris schaken heeft 😊welke stad volgt?
dank alfred! leuk dat je me op hoogte houdt. zitten toch altijd ook dingen bij die ik nog niet wist 👍
whatsapp geen antwoord, nu dan twitter. zetten jullie aub mijn parkeeractie stop?? 2/2
ben nu al 2 uur bezig om me af te melden voor parkeeractie. gebeld te druk, afmelden via telefoon lukt ook niet. whatsapp 1/2
tsja... taken verdeeld en ik was heerlijk met vakantie. moet ook gebeuren 😉
leuk tx! is een goede schaker, vandaar dat hij dat allemaal weet 😉
iedereen maakt eigen keuzes, dat is uiteraard niet aan de schaakbond. schaken kunnen ze en ti…
in juni komt er een documentaire op tv over de familie van foreest. misschien helpt het om me…
48 uur onafgebroken snelschaken.... pfff! hoop dat ze het record gaan breken, succes 👍
korte impressie en plannen moet meer kinderen leren schaken rtv drenthe
mooi dagje bij en ook weer terug op vakantieadres nu
masterplan mooi verhaal tijdens groot onderzoek naar executieve functies bij kinde…
samenvatting bekeken, maar miste echt cruciale momenten. bijv. dat maar liefst 6 spelers op de grond liggen en niet gefloten wordt.
geheel naar eigen inzicht zou ik zeggen en leuk als ik je ook zie. ben niet altijd in ha…
tsja....toch lekker!
heeeeeeeel dichtbij 😊🍷
blij met de opstelling, moet een leuke pot worden 😁
jeetje.....onvoorstelbaar knap!!#schaja
dank! zeker nog veel werk te doen. als gezegd. zal een soort van continue betaversie zijn, maar vooruit…
ben geen feministe, maar hier geniet ik wel echt even van 😊 cc kijk ook naar de rating....
wat zou het verhaal toch achter de naam zijn? 🤣
zeker! dank voor al je opmerkingen. het zal altijd een betasite zijn, als het maar steeds beter wordt.…
zeker. maar schaakbond.nl is echt voor leden en schaken.nl meer voor iedereen die wil schaken, andere focus
26 juni 2 juli in amsterdam nk schaken van foreest en haast verdedigen titels koninklijke nederlandse schaakbond
schaken.nl! nieuwe extra website van de schaakbond. en.... wat vinden jullie ervan?
mijn god.... klaaroveruit maar ja, wat wil je, zij hebben 😁
het nk voor e jeugd is in volle gang!
ok. gefeliciteerd. echt lekker gespeeld. kan niet anders zeggen. heeft nog 1 week om te herrijzen...
maar ook verdrietig nieuws... schaakfestivalorganisator jan colly is overleden rtv noord
yeeha! za 10 juni as. meest spectaculaire schaken voor toeschouwers in stadion
wat was dat leuk zeg! voetbalpricipes vertaald naar het schaken cc
cc
zon uitvak gun je echt meer
zelden zon fanatiek uitvak meegemaakt!
kom kom... kijk dan naar de willemii supporters. hebben echt minder te juichen en sfeer i…
meegereisde supporters zorgen voor juiste sfeertje! 👍
toch gaan voor die tweede plek zucht nogmaals diep nu feyenoord ook weer punten laat liggen
maandag maar eens vertellen😊 az en psv kijken ook in de bovenkamer van hun spelers ad blendle
lekker weer!
ok, dank voor je antwoorden!
dank nog voor je mooie uitleg over bij transitiedag busreis. succes verder en geniet van vaderschap!
dat zijn er behoorlijk wat! dagelijks? spelen of ook lessen?
kan me alles bij voorstellen
wat baal ik hiervan
leuke pot, maar stadionspeaker leidt wel enorm af zeg...
wat is daar toch aan de hand? chaotisch
zou het gewoon een dag verlengen, is dat niks?
gelukkig, nu werken aan doelsaldo 😊
speel je ook nog op een andere schaakapp? of waarom heb je gekozen?
toch niet leuk...?!
we gaan het zien. als er maar snel een einde aan komt, want chaos is niemand bij gebaat
dat is dan te prijzen bij je tegenstander. dat doet ie dus zeker niet. zou ook flauw zijn....
tsja... inmiddels wel benieuwd hoe dit af gaat lopen
ja eigenlijk wel 😆
vooral geen leven dan... 😕
raar, mijn begeleidende tekst erbij was weg! ik wilde zeggen opvallende hoe anders kranten het nieuws koppen…
zeker doen! 😊 succes met alles en dank voor de reactie
wat een mooi initiatief! zag dat jullie draaien, fijn. misschien ook nog? pas net op dvd en prachtig!
mooi! 👍
schaken is bij uitstek geschikt om kritisch te leren denken. je leert zelfs de computerwaardering te betwijfelen…
dat was een mooi schaakfestijn op met maar liefst 4 chessqueens en twee prinsessen! mooie promotie…
wat mooi nieuws, van harte! 🎈
dat zien we zaterdag 17 juni tijdens de bondsraad. bijna alle regionale vergaderingen daarvoor zijn in april en mei
heeft het zwaar.... wel gek om ze te zien schaken tegen andere scholen 😊
kijk, dat is fijne informatie. dank edwin!
mooi! cc dit, maar dan in tilburg. succes!
klopt ja. maar winst, zie je dat dan ook?!
haal een fristi voor zoonlief waarop jongeman tegen me zegt toch maar een fristi hè?
mag je als voorzitter van een sportbond partijdig zijn? tuurlijk niet. maar wel bij een andere sport 😉
zijn er wel. werkgroep komt dinsdag samen misschien dat ze def. stukken eerst daar nog af willen stemmen? will check!
ook in 2012 waren onze kinderen erbij toen we gingen stemmen, maar nu echt heel bewust. net samen exit polls gekeke…
mooi om weer in te zijn! interessant verhaal van nu vertalen naar ideeën
los... geraakt 😆@parktheater
klopt toch? 😊
goede en gediscplineerde vergadering van bijgewoond in grote opkomst en betrokkenheid
leuk en leerzaam schooluitje over licht
leuk initiatief! zoonlief is de hele dag al klusjes ah doen en rondrennen voor het goede doel. benieuwd hoe lang da…
psies 😊in ieder geval voor cl
jeetje en dat zonder 😂
ben met hardlopen zelfs al twee keer gegrepen... niet ernstig, maar niet leuk en je schrikt je kapot.
toch jammer dat vorige week het liet lopen. nu helemaal. zal toch niet...
yes! 30 mooi op weg naar de 2e plek 😉
ok dan. wordt kampioen. op naar de tweede plek dan maar....
nederland op voor with lager dan ik dacht met zulke gelukkige kinderen
hier wel een ....
ga eens kijken, tx anyway ook als t niet lukt but let you know 👍
wie kan me vertellen hoe ik het beste met slechte wifi kan kijken morgen in oostenrijk? tips? 2/2
ok. ziekjes en wel gearriveerd in oostenrijk. rest in ieder geval@aan het skiën, morgen misschien ook. maar ook belangrijk 1/2
dank
manmanman.... lang geleden dat ik zo ziek was. zelfs na bijna 48u slapen eerder slechter dan beter.
ben heel benieuwd!
idd
goeie vraag
in afwachting van hoe geweldig. studentenhuis, theater en een biertje 👍
na wat ontspanning zit er klaar voor
blijft mooi
benieuwd naar!
de 5 sen van mijn weekend schaken, snorro, shoppen, studentshotel enne... socker/sport/psv eh.. hoe dan ook prima weekend!
idd zuur. zelfs als vind ik dit niks. waar blijft videoscheidsrechter toch?! maar goed, erg blij dat het 3…
wint de knsb verenigingsprijs voor de grootste ledenwinst over het jaar 2016 en is nu de tweede club v…
mooie dag, mooie resultaten
ik dacht al... maar tweet uit 2015 😆
omwt in de culturele sector goede sprekers, mooi programma. zin in om te zijn 😊
gefeliciteerd! 🎈
ja ook zeker ja
ach... een grote naam in de schaakwereld. is niet meer. veel betekend voor schaakwereld. oo…
voor jullie interessant?
tsjonge... belang én weer onderstreept
in mijn schaakklas hebben een paar kinderen op eigen initiatief de film magnus bezocht 10jr nieuw voor ze. 😊
weer een ochtend en dan schaakles geven. fijn!
wel. maar regel vaak gebroken zien worden bij tata. misschien steeds lastiger om mensen uit voorbereiding te halen?!
tsja...magnus is magnus. volgende keer beter. vlaggenboek leek me al een spannende start van het intervie…
dat moet lukken toch?
ha! nee ik heb kaarten, maar kon me niet voorstellen dat r nog plek was. supertip dus 👍#snorro
ik neem aan dat er voor geen kaarten meer zijn?! za 11/2
oh jee, zou hier helemaal gek van worden, geloof ik...
van harte! volgend jaar weer oké? 😉
super! mooi initiatief, mooie opbrengst 👍 overigens eindigend op intitialen van…
hoe mooi!!
zeker! en beste ook😊
oeps gemist! tx, ga snel terugkijken
blij met pffff...
eindelijk weer eens een prachtig toneelstuk gezien met
👍super
op tv eindelijk. prachtige schaakfilm. zeker kijken! the dark horse, vandaag om 2255 uur op npo 2.
had iemand al door dat ik helemaal niet bij die gong kon? too high! handen schudden is dan een mooi alternatief 😄
welnee, vroeg gewoon naar een goede zet 😉
je toch nog misgelopen. prachtig was t! 👍
prachtig! on tour in met ook nog heel veel schakende kinderen. zo mooi 😊
schakers gebaat bij voetballen. en andersom binnenland
inderdaad, maar slijtageslag zal ook zn tol geëist hebben...
gelukkig wel! 😊
ach...alles in top 10 kan snel een agnstgegner zijn, verlies was minder raar. carlsen verliest van nr 40 en dat is anders
en..... wanneer zei hij dat? 😉
misschien bewijst dit eens te meer dat 7u chessbattle in 123 zetten je opbreekt. giri én carlsen verliezen dag ern…
bovendien miste ook een stukwinst dat bij de kinderanalyse in nog geen minuut gevonden werd 2/2
wooooohhh... maar hoe goed dat het in een latere stelling keept! 1/2
dank en natuurlijk voor een warm onthaal, mooie film…
en het werd 62! leuke combi van voetbal en schaken 👍 morgen meer op tv
oeps 😆 maar hij speelt al...
mooi roodwit ja... maar verder 😉@ajsmid
tsja... jan hein donner heeft altijd gezegd dat vrouwen niet konden schaken
en voor geïnteresseerden, gisteren item bij tex de wit ontmoet wereldkampioen schaken, carlsen
op weg naar voor vanaf 19/1 te zien! item rond 1000u
leuk en is geopend met meteen spannende eerste ronde
mét sportsymposium én filmrelease magnus!
ja, kan veel af ja
tsja, dat leg ik al bijna af... maar ja ze is ook al 8,5 hè 😉
tot anderen nl en den zich ermee gingen bemoeien. 20 man in sneeuwgevecht. geen idee wie bij wie hoorde, maar beste avond ooit 2/2
groot sneeuwballengevecht met engelsen. zij kwamen net van de piste maar waren met 8. wij met 4, maar was onmiskenbaar een overwinning 😊 1/2
mooi! deel 1 is al een aanrader, nu deel 2 over vriendschap voor kinderen van
ben erg benieuwd. arriving in april!
zó knap om dan na 30 min achterstand, het alweer ingelopen te hebben nu
legt uit tijdens lunch dat onbekende tegenstander wit mat staat. oké. nu weer skiën... 😉
was een idee geweest, maar is carnavalsvakantie en ben dan met family weekje weg... sorry!
ja, had het meegekregen. juist in turkije wordt ook op school geschaakt. benieuwd hoe dit zich ontwikkelt...#raar
verschrikkelijk en verschrikkelijk mooi geschreven. aan het einde van 2016 teveel leed nog. laten we niet nog 1 nachtje slapen..
met veel bekenden aan tafel. snel terugluisteren....
was mooi inderdaad
vele sporters in nietsportkleding. herken ze soms laat
lang verhaal, maar oa zijn meer schakers m en meisjes haken voor topschaak eerder af. grote uitzondering
inderdaad, van onderaf ook ivm doorstroom mogelijkheden.
blijft sporten 😉#veleballenhooghouden
eens! hoeft ook niet perse een vrouw te zijn alhoewel ik wel geloof dat bij gelijke capaciteiten meer m/v mix wel fijn is.
is er ook met een t? 😉
ja bijzonder is het wel.
en tweeps, wat denken jullie?
vond t niet best, maar goed 11
voel t ook. mag en moet weer eens gebeuren
toch eens kijken op chessity.nl 😉
dharma tjiam nieuwe directeur knsb — koninklijke nederlandse schaakbond heel blij mee!
zo. gele en geelwit geblokte band binnen
eh... gaat vast even kijken voor je!
tussen al het schaakwerk door weer eens voor bestuursfunctie op pad bij toelichting
enne.... misschien? 😊
ben je 14 jaar of ouder en vind je vloggen leuk? word de beste vlogger van en win 250 euro. kan in…
leuk! kunnen laten zien in londen?
beterrrrr
dat antwoord ook. nee hoor, geen van beiden. 😂
mooiste moment vd wedstrijd die troost
wat verschrikkelijk om naar te kijken zeg
zou zich ook afvragen tegen hoeveel fans van hij het moet opnemen als hij wint?
doodeng vind ik ze
misschien omdat hij deze straf niet ontloopt 😉
en verder uiteraard aandacht voor afscheid directeur en bestuursleden en
aha tx, zie ook live stream inmiddels
waar kijk je dan?
voorstel competitiewijziging in juni en verandering opzet nk a en b &ampmeisjes c aangenomen. meer info, dinsdag op de website.
eh... heb wel een paar fotos voor jullie 😊 en ben heel blij met coöperatieve en construct…
zo mijn eerste keer als voorzitter benieuwd.
idd raar.....!
zou normale logincode moeten zijn. zeker dat je niet verkeerd getoetst hebt?
misschien een spreker voor jullie?
fijn!
het aantal mogelijke stellingen die kunnen ontstaan na het spelen van de eerste 4 zetten is 318,979,564,000 en dat x48 🙄
ja, zag het. dank!
niet moeilijk misschien maar mooi!
én voor het eerst weer tegenover elkaar in het van het schaken…
zo reactie geven op verdedigen wereldtitel op 50. qh6 will do 😉
this is it! eist zijn verjaardagskado op. 21 als karjakin hier nog van terugkomt, verdient hij het ook.
ik vind dit echt 15 seconds....