kunnen we hem geen column geven in het psv supportersblad? mooi vermaak toch?! naam rubriek sjaak hoopt dat psv degradeert!
ik zeg bakken er niks van. saai irritant gecounter, oervervelende w…
benieuwd of amrabat hier nog wat van vindt.
huilie huilie
als je wint heb je vrienden. en het gelijk aan je zijde. er wordt in ieder geval met passie gevoetbald!
geluk werd vandaag wel afgedwongen. vooral tweede helft toch paal en lat en paar kansjes. verdedigend d…
ik durf nu langzaamaan mijn ongelijk toe te geven. cocu het spijt me. ik ben niet meer boos.
maar vond juist locadia vanaf zijkant beter dan in de spits
vleugels zeg maar....
die waren vergeten dat duiven vlogels hadden of wat
snap ik dan weer niet. liep toch prima laatste week
is dat niet die hockeyer? laat hem lekker met stokjes spelen.
bergwijn krijgt zijn kans wel. de jong is op het moment…
alsof dat de verlosser zou zijn. who gives a fuck dat hij voor marokko wil spelen.
en dan zon ophef over blerick. valt daar wel mee dus.
ik wil meer playoffs, meer topduels rond europese wedstrijden. leve de
dan lopen onze meningen over wat passend is nogal uit de pas.
helemaal zelf gedaan? stoer hoor!
potverdorie mooie woordspeling! dat is een like!
dat was de aanleiding voor zijn wissel. net voor tijd.
ja, veel te weinig in beeld gebracht
wat deed die nop op dat scheenbeen dan?
de tuchtcommissie heeft weekje vakantie gepland en wil deze niet annuleren dus.
al draagt ie een bontjas! zolang hij ze er zo inlegt interesseert me dat werkelijk niks.
waarom werd de zware overtreding op tijdens tijdens samenvatting niet getoond? sokken waren gescheurd door noppen!
buttner had last van zelfoverschatting en veel overtredingen nodig om nog meer goals te voorkomen.
ja wat een gast he. wie o wie heeft dit gifje?!
redelijk stuk hoewel ik vind dat hij allereerst zelfkritisch is, hij ge…
ja en dan is er een soort van verklaring voor zijn ridicuul gedrag.
wist ik ook niet. maar dat koert ongesteld kon w…
bij een verschrijving al volledig de weg kwijt zijn. dan denk ik dat er…
dat ben ik met je eens. maar nu gelukkig voor
er waren drie a spelers geblesseerd. buiten ramselaar was dit de sterkste opstelling
vers bloed gaat hopelijk het verschil maken.
erbarmelijk niveau. creeren nagenoeg niks.
die pass waar nauwelijks aandacht voor was. had iniesta, isco of messi hem gegeven kreeg het…
heb jij ook platjes?
ik pas. ga zo echt voetbal kijken. zeg maar dat spelletje waar je duimen niet lam van worden en je ogen niet vierkant.
ik zat in la paz, bolivia. ook backpacken. met psv shirt biertjes weg te tikken sochtends vroeg! nevertoforget.
prima chris, we zien de opzegging van je kaart met genoegen tegemoet. ps me…
harder zingen dan! hoor je het niet meer.
dat is niet zon probleem chris. er zijn er genoeg die graag voor jou in de plaats komen denk ik.
die zogenaamde clown speelt de laatste weken anders bijzonder sterk! het mist he…
je bedoelt die kop als of ie vijf dagen non stop aan de dope heeft gezeten?
ze doen zichzelf te kort en moeten meer scoren.
zin in wedstrijd van alleen balen van dat kansloze tijdstip. ik verlang terug naar de zaterdagavonden 1930.
mag inderdaad gezegd worden dat ie goede pot speelde. had ook wel goaltje verdiend
ja, wie had dat gedacht na deze zomer. ik niet maar ben blij ongelijk te hebben in dit geval!
isimatig in de 16. handen vast tapen volgende keer.
als je als scheids dit soort handsballen al niet meer ziet. man man. ja en isi doet aan vrij worst…
word je toch schijtziek van die penalties tegen.
doosje jodiumtabletten ontvangen. mooi voorbeeld van naar de fout toe corrigeren! als iets onveiligs is moet je er iets aan doen!
eens. chili stond boven colombia maar hebben er natuurlijk 3 om oren gekregen
correctie doelsaldo
voor de wedstrijd stond chili boven colombia. onderling als ik kijk naar resultaten peru vs chili
klopt niet wat je zegt want als peru zou scoren lag colombia er uit achter chili.
en wk is in de pocket voor
nachtbraken om perucolombia te kijken. vamos colombia!
jazeker op youtube.
ik kijk nog alleen voor arjen. held arjen robben. met een elftal arjens word je fluitend wereldkampioen! bedankt voor alles!
voor bepalen playoffs de slechtste nummer 2 bij h…
als martijn maak ik me daarnaast ernstig zorgen ove…
heeft janssen wraakporno fotos van dick zijn vrouw? waarom wordt hij anders opgesteld.
als ze bij oranje op positie speelden net als bij hun club, dan zaten ze op de bank. lachwekkend o…
zolang ze maar winnen.
zonde dat arjen zo moet ballen met deze knuppels.
ik colombia. als ze vanacht winnen. wekker om 115
in het stadion......o ja behalve in het stadion had je gezegd.😜
zou ene b. van oostveen nog beschikbaar zijn? die kan toch wel wat? toch? of....?
scherp rik. oog voor detail.
dat verslag van uuhhh greg uhhh is echt uhh retuhhhhh irritant uhhhhhh
je zou kaarten hebben voor dinsdag...
gelukkig hebben we nog. en zomer 2018 ?
denemarken is ooit europees kampioen geworden nadat ze eigenlijk niet waren geplaatst. kim jung un maak ons kampioen!#blrned
kun je bert van oostveen keertje bellen en vragen naar hoe hij aankijkt tegen de uitschakeling. hij zal…
who gives a fuck... maak je liever druk over waarom we spelers in de basis staan die de bank bij hun club warmhouden.
hashtags te over vandaag maar een wk ho maar
wat was die vent slecht. en eindelijk scoorde hij en kwam hij verhaal halen voor oost met vingertje. zon lul was het.
doe vandaag maar rustig aan joh, dinsdag tellen ze namelijk toch dubbel...#wruned
maar daar zal bert niet wakker van liggen. die heeft via via kaartjes en volle bankrekenin…
vuile vieze... en laat ik het hier maar bij laten.
dat je toppers als sneijder, van persie en robben dit kutafscheid hebt gegeven! oh en
dat je toppers als sneijder, van persie en robben dit kutafscheid hebt gegeven! oh en
ik heb dat ook hoor. en die oefenwedstrjjden snap ik in een overvol programma helemaal geen kloot van.
nee maar hopelijk straks wel.
hoe zou het met bert van oostveen zijn? of heeft hij stiekum toch kaartjes voor rusland overgehouden aan zijn baan bij
clubs die door het mislopen van twee tournooien tevens extra inkomsten en transferwaarde mislopen. dankje…
laten we het hopen maar money rules en als dit soort spelers op wk uitblinken heb je ratrace tus…
heel houden waarvoor? ze gaan er dinsdag echt geen 7 maken tegen zweden.
ja die gaat een mooi wk tegemoet. maar ben bang dat ie erna niet meer terugkomt.
colombia heb ik al in huis!
is die marcus berg niet iets voor ons psv 😂😂
nee dat ook niet. maar in veltman ook weinig.
de kans op tegengoal is ineens afgenomen. wordt tribuneman. niet dat het zal uitmaken als ola zo 5 goals maakt ben ik bang
zo sta je op het wk, en zo moet je er ineens nog heel hard voor knokken. mooi balen.
omdat clubs op van die klote tijden moeten spelen van .
inderdaad, laten we mandy niet vergeten. tenenkrommende actie.
goed verhaal. lekker kort en duidelijk ook.
dat referendum zou ik toejuichen. en hard!
door bejaarden in elkaar te slaan? hou toch op man. wet kun je ook op andere manier handhaven.
eens. dit is echt domste wat ze hebben kunnen doen. weerstand wordt nu alleen maar groter.
ja de spaanse overheid handelt enorm dom waarmee ze juist gaan oogsten wat ze graag willen vermijden.
resultaten zijn boven verwachting goed. het voetbal met vlagen ook zeer goed, maar soms ook erbarmelijk. eerste helft was drama.
waar team kuipers geen handsbal zag van rotzak ramos ziet hoeheetdezescheids iets wat er niet is. wat een corps....@knvb
ja sterke tweede helft. paar vette goals
voor je beurt gesproken
weer rijen bij catering. en een tv om de wedstrijd te zien zou dan prettig zijn.
kruikjes kraken vanavond.... en koppositie steviger in handen. nostradamus zegt 30
ja. en was erg goed opgezet. idee van ben ik wel van
ik praat je wel keer bij. 😜 was goed initiatief in ieder geval, en mooi dat ze aan de supporters denken.
dank voor de uitnodiging, de transparantie en manier hoe jullie dit hebben aangepakt. 👍🏻👍🏻
prima initiatief. ik kom er vrijdag een 25 halen voor ons juniorenteam en broertjes/zusjes
raar dat er bij fox 90 minuten over kunstgras wordt geluld. kunstgras is namelijk…
loca 4x van de 17. wij staan bovenaan, wij staan bovenaan, want de rest heeft verloren.
hey rik, zou het dan toch dat ik ongelijk heb qua cocu? of is de rest gewoon opperslecht. vandaag was…
vent en zijn gedrag worden met de week gekker.
moet je tegen pachuca kaarten regelen van te voren of gaan de poorten gewoon open? wij willen met jeugdelftal van vvgeldrop gaan
2 goals en assist. mooie come back!
ik heb gehoord dat ie al gebeld heeft met politie putten en burgemeester aldaar. dat ie alle medewer…
kramp is geen blessure maar gebrek aan training of minder fysiek vermogen. ik begrijp dus nooit waarom…
kan toch niet dit. toch om te janken. kunnen gewoon nooit het spel maken tegen dit soort ploegen. creativeit thuis gelaten.
consolideren... en dadelijk spits eraf en verdediger erbij. nul houden....zucht
38 en jij ?
zou het misschien als een grapje bedoeld kunnen zijn dat vals spelen? maar dat even terzijde.
dan hebben ze vals gespeeld
tja en die wedstrijdgedachte heeft ons juist zoveel succes opgeleverd....gew…
je kunt ook gefaseerd aflossen en wat investeren.
een enkele snap ik, maar kan niet zo zijn dat we dit soort potjes biet meer serieus nemen.
en gewoon volle bak net basis elf. geen getrut meer met reserves. schade en schande zal cocu wijsheid g…
niet prima als je ziet hoe dat in het veld tot uiting komt.
precies beschreven hoe ik tegen de situatie aankijk. en ik word er niet vrolijk van. onzekerheid en ond…
het wordt met de dag een grotere poppenkast
welkom terug thijs! 💪🏻💪🏻je hebt wat schade te repareren aange…
klasse jeroen! fijn dat je nog jaartje gebleven bent.
en dan ook gauw genoeg die volleyballende boekenschrijver en mister alkmaar.
goed verhaal thijs. zonder overwinning ook geen wilhelmus om met mee te zingen....
jij hebt het over kortzichtigheid fans. ik snap dat niet na de…
geen reet meer aan. al jaren niet, uitzonderingen daargelaten.
als je er al niet bent is naar huis gaan ook lastig natuurlijk.
willem van hanegem ik hoop dat mensjester sitie degradeert!
wat vind je precies irritant aan hem?
goed stuk rik. balen dat dit de harde waarheid is waarvan de gehele buitenwereld wist dat dit zou gaan…
hij zal wel weer een nikszeggende management cliche uit zijn boekje opnoemen. kan…
je bent de uitschakeling alweer vergeten in europa?
maar de buitenwereld snapt er niets van, aldus de binnenwereld.
als dit een kampioenswaardig elftal heeft dan kan heerenveen de champions league winnen.
datgene wat wij al maanden roepen en blijft ontkennen is loss.
wegwezen daar. als je gister zelfs geen vrijkaart krijgt om etappe te winnen. froome wa…
klasse gereden wilco
en dat ik dus net in geldrop woon en me al afvroeg waar ze allemaal waren...
vandaag 😉en morgen laatste kans voor ritoverwinning en flesje aguardiente! doe de geiten op het pad de groeten.
good luck today! laatste weken genoten, van je rijden,vandaag knallen en morgen podium. je verdient het!
nog ff en dan paar daagjes vakantie neem ik aan?
nooit ziek zijn wordt ook al vele jaren zwaar beboet.
de goal van colombia na assist van eredivisiespeler arias was weer te veel gevraagd?
omdat het voorbij gaat aan het doel van een jaaropening. volkomen terechte kritiek dus.
goed dat we nog een linksback achter de hand hebben....oh wacht.
als je middenmaat gewend bent misschien ja, en assistent coach van moldavie.
niemand schijnt te snappen dat we er nu nog slechter voorstaan. namelijk 2 goals slechter qua saldo. maar doe gerust nog een wave!
ja frits dat mag jij zeggen.
zou jij wel plezier hebben in zijn plaats?
zwaar onderschat en ondergewaardeerd. altijd volle 100% inzet en aardige vent
je bedoelt dit soort berichten neem ik aan? heel zijn tijdlijn staat vol hiervan. medelijden met zi…
ik probeer er maar een grappige draai aan…
daar ben ik dus ook bang voor. maar als we…
klopt, maar zij horen met 1 mond te spreken.
dan zijn ze daar rijkelijk laat achter gekomen. en hebben…
vielen jullie nu over een bidon? ik zag er eentje wegschieten namelijk. een goed herstel gewenst! morgen weer knallen!
iets met boontje en loontje....hufterige overtreding. je verwacht het niet van hem.
kan ik je ook aanbevelen!
laat die collegas van je voor de afwisseling wat arepas bakken
voor jou misschien. laten we over 3 weken nog eens kijken. ik hoop dat ik ongelijk krijg, maar vrees ervoor.
geen afhaalchinees om de hoek?
omdat de balans weg is. alleen jeugd werkt niet en er staan te weinig ervaren of kwalitatief goede routiniers omheen.
omdat het ook niet goed is!
het gaat toch over dit artikel? en daar slaat hij de spijker op zijn kop. bovendien staat psv…
hoezo? wat is hier volgend jou zuur aan?
goede analyse rik! maar zal het je wel kwalijk nemen.
maar een fatsoenlijks en beloofde verdediger kopen ho maar!
van wanbeleid en valse beloftes ben ik niet vies...
die lb die komt zeker niet in plaats van wel...
ik kijk na deze transferperiode nergens meer van op...
dit leidt wel lekker af van jullie falen! glaasje franse wijn erbij? bordeaux? hamburger ook?
ben ik extra blij met mijn colombiaanse vrouw. ik heb gewoon een wk in 2018!
bert van oostveen is de veroorzaker!
met dank aan voorbereidend werk van bert van oostveen en danny de blinde.
dont get me wrong, maar we hadden qua evaluatie een mooie voorsprong!
zouden danny blind en bert van oostveen ook zo genieten?
quote kampioenswaardig te blijven ik pleur van mijn stoel van het lachenhuilen ware het niet dat ik op de bank zit.
ze maken zich met de dag meer belachelijk. zij gaan nu bepalen welke conclusie wel of niet juist is?
ik heb een titel voor zijn nieuwe boek mismanagement, myself and i.
ik hoop uiteraard dat je gelijk hebt.
1 lozano maakt nog geen zomer. of is een kinderhand snel gevuld na zon armoedig seizoen?
en dan laten ze de wijs vandaag nog gaan zonder versterking. wat een beleid! ben bang dat over 2 weken…
ik kan begrip hebben om geen paniekaankoop te doen. ik heb nul begrip als dit komt na toezeggingen, eva…
ik heb begrepen uit betrouwbare bron dat plan k e…
ik wens je succes met je verdere leven. je zult het nodig hebben.
nee ik heb nog iets. het correct gebruik van leestekens zou ook een verbetering zijn.
fotos met luuk die een winterjas aan heeft ja. koekoek.
ik verwacht er weinig van, kan het ook niet tegenvallen. de komende drie wedstrijden bepalen waar we staan.
mens erger je niet en stop met het volgen van hem. ga…
het gebruik van zoveel emoticons in een tweet komt ook niet bijster volwassen over anders.
wat een awayday was dat zeg, ik vloog vijf rijen naar beneden na die goal
toch ergens over eens!
dan verschillen we daar van mening. ik ben ervan overtuigd dat met geric…
ik vind dat te makkelijk allemaal. dan had je dus ook aan jozefzoon moet…
we mogen blij zijn dat arias blijft anders was het ook armoede achterin.…
ja dat is dus precies wat ik al de hele tijd zeg. dat het transfer belei…
ja kortom er kwamen nul ballen voor en dan ga je je buitenspelers verkop…
eens hoor, maar er kwam geen bal meer voor. mede daarom ook dat de jong…
goede speler maar op een overvol middenveld, terwijl je bijna al je flankspelers verkoopt.
maar het wintertransfer beleid heeft ons ook niet versterkt om nog kans te maken op kamp…
dit dus ja! wanne klets was dat. maar laat hem mijn ongelijk bewijzen morgen en…
leve de evaluaties! hoera voor de voorsprong van toon! viva het topsportklimaat. prima op orde allemaa…
great race wilco!
geweldig! dan hoef ik jouw klaagzang aan erik niet meer te lezen.
zal wel meevallen. vrouwtje is zwanger, hij is hier nu gewend. hij wil naar wk en gaat selectie colombia…
medelijden met al die mensen zonder uitknop op afstan…
prima toch dat hij blijft! die wordt na komend wk met colombia alleen maar meer waard en is b…
en dit was voor de verhoging van dit seizoen!! koekoek!
dit is niet marktconform. dit is een van de duurste stadions qua biertje!
wij van wc eend....
eerlijk is eerlijk. ik was er niet kapot van vorig jaar en vond dat hij te veel speelde. desondanks verdient hij meer krediet!
die roep om jeugd was terecht. maar dan omgeven door ervaring. balans is nu volkomen zoek.
welke keuze dan precies?
geluk dat je bed nu lang genoeg is!
thanks jetro! het ga je goed en bedankt voor de mooie jaren.
na 9 uit 3 is het vloeken in de kerk, maar hij zit niet op de juiste plek. laat hveen uit en feynoord thuis mijn ongelijk bewijzen
kunnen wij die maximo niet alvast contracten?
hij lijkt het zelf niet echt tof te vinden iedere keer net voor tijd er uit te moeten. m…
geen idee. zat hij er doorheen? ik vond hem vandaag trouwens niet geweldig.
weet jij waarom het iedere keer nodig acht lozano er uit te moeten halen net voor tijd? iedereen…
niet terecht. was matig vandaag
helemaal mee eens! mooi om hem te zien voetballen.
spijker op de kop!
dus lek boven... niks aan de hand rustig doorwandelen. ondertussen zitten wij met die geen prijzen gaat pakken.
wordt per wedstrijd minder, maakt niemand beter! 1+12
we zijn weer vermaakt philip...bedankt.
de horecapunten zijn weer nog steeds drama. en dan heb het nog geeneens over de prijs!
5000 euro op zwart!!
als ik hem was en zag die twee knuppels voor mij in de basis dan kon cocu een dikke vinger krijgen. ond…
niet onderschatten, lastige tegenstander, wedstrijd op zich, lijk door trekken...
liever niet. het gaat daar nu uitstekend!
viel mij ook op. hij is zelfs beter dan zijn teamgenoten!
je had echt een probleem als het mensen waren ipv messen.
sommige mensen? volgens mij heel veel mensen.
potverdorie. de hele dag kunnen nadenken en dan met dit komen.
ons ook! ik heb net ook nog ff seintje gegeven. en toezeggjng van fles aguardiente met colom…
en daarna maakt het geen reet meer uit?!
bingo! lijn doortrekken staat op de kaart!
en weer is weg met een mooi groepje. laat zich prima zien deze vuelta tot nu toe!
we mogen hen niet onderschatten, stugge ploeg, bus voor de deur, vroeg scoren, wil opleggen.....
is beter dan schwaab. zwalkend beleid. eerst krijgt ie een kans, nu mag ie verhuurd word…
maar wel 100.000.000.000 triljoentriljard euro op de bank
ik vraag me nu even oprecht af wie jouw publiek is. en daarmee tevens wie zich hier nu…
klasse race. op de punt van stoel gezeten! helaas net te kort om geweld van sky te weerstaan. bedankt. we hebben genoten vandaag!
potverdorie! zou mooi zijn als we na vandaag weer een nederlandse leider in een grote ronde hebben!
en dat op bocadillos! niet verder vertellen want anders gaat iedereen dat ineens gebruiken en worde…
en helemaal! voor in je plakboek.
bijna virtueel in het rood gereden lv2017
ja dit moet je nooit weigeren als nederlandse club. is echt een bizar bedrag.
gaat toch nergens over dat bedrag...1 jaar eredivisie.
en voor de mexicanen krijgt ie ook de credits. maar buiten dat is het…
1 maand geleden in
ja maar die hoge hoed waar je het over had zal dus niet zo hoog meer zijn
orejuela ook colombiaan. maar psv wilde pas kopen als santi verkocht zou zijn. te laat dus nu.
hier kan ik het wel deels mee eens zijn, hoewel paal net komt kijken.
je bewijst dus precies mijn gelijk. je hypet iemand die nog geen cl heeft gespeeld of bela…
zegt degene die dolberg 40 mio waard vindt haha. over hypen gesproken. arias heeft over la…
datgene wat in de hoed zat zit inmiddels bij onze amsterdamse concurrent.
je zou oa de colombiaanse fans, en dat zijn er veel en fanatiek, een groot plezier doen uit te nodigen.
als je trouwens op de koffie komt mag je de rest van het team ook wel meenemen!…
overigens wordt hij dan ook weer niet betaald om te verhuizen hahaha
hier het bewijs....en daar was hij zeker 10 minuten al mee bezig. kunnen oo…
heb isi keer 4 stoelen in zijn merc zien proppen op de herdgang. dat lukte…
maar opbouwen ho maar...hij kan geen bal naar voren inspelen over meer dan 2 meter.
geen idee. weet ook niet hoe staf over hem denkt.
onderweg naar mooie tiende plek! well done! waren het de huevos revueltos voor o…
hij speelt al lange tijd zeer goed bij jong en heeft sterke vri…
als je achter isi en schwaab in de pikorde staat dan heeft cocu…
en vergeet de aguardiente niet!
via mijn colombiaanse vrouw. dus als we die kant op gaan komt er wat mee. ik heb hier nog wel…
ook voor deze amateur renner de ideale snack voor tussendoor!
wat meer bocadillos eten. zullen je teamgenoten toch wel wat van hebben denk ik.
gastvrijheid in breda! fuck you
10 minuten voor de wedstrijd en dan dit!?
daarom zijn wij net het evoluon gepasseerd...
eens
regering trump staat weer plastic flesjes water toe in nationale parken via milieuvervuiler
en er zitten er al zo veel...
ben je trouwens sinds de wedstrijd tegen az weer lid van de cocu fan club
ja technisch gezien is het europees. maar als psv zijnde moet je dit niet willen verdedi…
door zo op de woorden te gaan zitten, is voor mij voldoende teken dat flip de ernst van de situatie nog niet helemaal ziet.
zorgwekkende hieraan is dat hij zijn uitschakeling probeert recht te lullen ipv dat hij…
ja zo ken ik er nog een paar...een oefenwedstrijdje op tenerife telt dan ook?
ben je tegen osjek op vakantie, blijk je dus heel het jaar 2017 geen europees voetbal te zien. 1 jaar z…
daar ga je weer...ja maar obama. en dat is dus precies mijn punt in mijn eerste tweet.
zegt iemand die israel landjepik prijst.haha je maakt jezelf volkom…
er zit een knopje op je afstandbediening. en je kunt ook ontvolgen.