eén van de themas die wij in de week vd mediawijsheid zullen bespreken mediaopvoeding.
dit is mijn eerste en tevens laatste tweet met 280 tekens. de charme zit juist in het gebruiken van 140 tekens.…
lees dit artikel uit de limburger dromen met kaapverdië
vandaag had ik wat deadlines voor programmas van wat loopbaanevents. ondanks de vele trainingen vandaag tóch gere…
jaaaaaaaaa!!!! 😃😃🙌🙌⚽⚽⚽⚽ de 43 in de 91e minuut. locadia drukte 2x rondje en forceert zo een eigen goal!
de computer screent of de sollicitant door mag
hee, is dat niet die chick van tv die daar broodjes staat te smeren? over kunstenaars die moeilijker rondkomen
er staan vandaag weer mooie wedstrijden gepland. ouderwetse
🍍🍍@beveiligingslok is genomineerd voor de 010 gastvrijheidsprijs vind jij ook dat wij de verdienen?…
mocht je even een positieve boost kunnen gebruiken, check dan het profiel van patrice evra. i love this game✊🤣❤😂
nos de man handelde uit naam van is. dat bleek uit een briefje dat hij in zijn auto achterliet. 🤔
15 januari 2015 was deze aankondiging. nu bijna 3 jaar later, ben ik nog steeds dankbaar voor iedere trainingsaanvr…
morgen, 3/11 en 6/11 verzorgt de incompanytraining in rdam. gratis meedoen? check 👇…
verkiezing meest gastvrije rotterdamse onderneming stem jij ook op vriendelijke gastheren van 👉
dont worry, bro! over het maken van studie en beroepskeuzes op je 17e. 👉 | via…
zal niet de 1e zijn... 😂
iedere vrijdag een opvallende sollicitatie. soms enorm succesvol &amp inspirerend, soms enorm creatief, maar vaak gewo…
🙈 wat je écht wilt weten over de baan, staat nooit in de vacature 👇
fantastische goal van van ginkel, maar ik durf niet te juichen. ⚽
een mooie 1e editie van in 📆 save the date de volgende editie is op woensdag 22 novem…
vast in mijn vaste contract
wilde rustig rondneuzen bij maar kreeg zojuist een last minute trainingsaanvraag voor een careerevent.…
een ode aan het optimalisme. / via loopbaanlounge
iedereen sprak over de maar eigenlijk is dit t moment v/h weekend de prachtige steekpass van…
uit mijn vorige leven... 😃
volgens mij kwam ik vanmiddag zijn neefje tegen in diergaarde blijdorp.
simba wilde indruk op mij maken. kom op man. ik kom uit 🦁
nice. was hij er als deelnemer of gastact?
voetbalvrijdag ⚽ mijn favoriete speler checken nr5
de volgende editie van de powerpoint karaoke lounge is op woensdag 15 november in rotterdam. ℹ via
ben overgestapt van ns op ret, maar betaal nu voor beide een starttarief. 1x starttarief b…
wanneer komt er eigenlijk een korting op starttarief bij overstappen? overstap 15min.ns zelfde prijs als 2min.ret
thanks. alleen in t artikel vooral/alleen focus op afkomst sollicitanten. anon…
cor the coach invites… michel jansen’s winnen met linkedin via vanavond in het groot handelsgebouw
doen doen doen doen
al in geweest?
stop even met branding. start even met presteren. geen dank. 🙈🙉🙊
studenten voelen zich in de steek gelaten tijdens buitenlandstage
sfeerimpressie v/d workshop voor het jongerenpanel meer fotos…
ja he? hoe zou naar ze hebben gekeken?
misschien via of kan één van jullie even checken? thnx!
volgens mij 4 cabos op het veld nu.
wij praten niet over diversiteit of inclusiviteit. wij brengen het!
ik ben zowat op het noordplein geboren. bij dit soort lijstjes denk ik vaak ow, is dit…
owja... mede door de 30 zege van brazilië, ontbreekt ook de smaakmaker van afgelopen jaren chili.
iedereen had het over nederlandzweden en messis hattrick. ondertussen won palestina met 100 van bhutan. ⚽🎖
deze uitdrukkingen ken je alleen als je uit rotterdam komt via
vanavond, 20u, groot handelsgebouw check de sneakpeek meld je aa…
vijf redenen waarom zoveel millennials thuiszitten met een burnout / 📽 uni v nl
als zuidafrika 1x wint en 1x gelijkspeelt tegen senegal en kaap verdië wint doe maar dik van b.…
j. cole rapt zijn verhalen vanuit de gevangenis via
iedere week een creatieve, grappige of opvallende sollicitatie op mn fbpage.
📻 funx 🕪 nelson overdag loopbaancoach, s nachts... beveiliger bij |
weer veel betrokken ouders &amp docenten ontmoet vandaag ▪ ▪ ▪
hoezo? de politie prococeert niet hoor!
ben erg benieuwd wie we vandaag gaan ontmoeten op de en
wakker voor de wekker, want vandaag staan wij voor het eerst op de rotterdamse onderwijsparade. enorm veel zin in!
steven pereira en samy mmaee geselecteerd voor nationale teams
morgen organiseren de en de workshop creatief solliciteren in rotterdamcharlois. gr…
woensdag staan wij met op de rotterdamse onderwijsparade in de maassilo rotterdam. kom je ook? ℹ…
ach ja... het leven is geen hopjesvla. 👍 your 😎😉😘
vervelend, maar kan gebeuren. heb een deadline, dus hierdoor wel verplicht de mbs uit mn bundel te…
wees consistent, totdat je doorbreekt. dan moet je namelijk wat extra gas geven.
half vol? half leeg? overvol? lekker vol!
wij helpen je graag bij het vinden van je passie én iemand die je ervoor betaalt. check
😄 per mail ontvangen beste project 014, wanneer komt er weer een loopbaan lounge in de bibliotheek bij blaak? ℹ…
ik ken alleen zn rendier.
indecategorie witregels creëren bij instagramteksten. 🤔🤡😴 ps volg je al? 👉
volgens mij mis ik iets... dat wordt uitzending gemist.
fouten maken je creatiever, socialer en succesvoller via
hoe zou zijn hemel er eigenlijk zien? gaat dat zijn mansion overtreffen?
mijn favoriete website al gezien?
hebben jullie de nieuwe gezien? je vindt er een portret van ons broertje meer…
dit kreeg ik doorgestuurd. ken de bron, context, onderzoek, waarheidsgehalte niet, maar ik vind m leuk. 💋+😚💰💰💰 g…
wat moet je nou met linkedin uitnodigingen van onbekenden? via
‘hoe meer liefde op de werkvloer, hoe groter de creativiteit’ via
ik ben die guy die zijn eigen pizza eet en daarna jouw 1/4.
vanavond verzorgen wij met een themadag over mediaopvoeding. themas o.a. online weerbaarheid …
salesdingetjes... van lead naar opdracht.
dit staat vandaag op repeat ☉🌞 🎶🇧🇷 sem abuso art popular
modewoorden op linkedin september 2017 / welke kom jij veel tegen?
en nu tijd voor de herhaling van mijn nieuwe favoriete programma over de belangrijkste bijzaak ever ⚽⚽
percentage manvrouw gezien? 😎
inderdaad he... scheelt sjouwen. alleen kan dan niets opschrijven...
ik was mn flipover vergeten
wat een mooie avond in ijsselmonde. veel input gekregen voor de aankomende blogs en event…
zoals ik het gewend ben. en nu uitloggen, want morgen twee events. incompany &amp open inschrijving…
thnx. kan ik morgen direct gebruiken.
hopelijk ontdekt de nieuwe generatie hem nu ook...
morgenavond workshop creatief solliciteren – bibliotheek ijsselmonde via
😂😂😂😂 als je jezelf constant/hardop de beste noemt, vinden sommigen het helemaal niet erg om je vaderli…
hoe edson braafheid de hoofdrolspeler werd van utrecht psv via
zag je het hoofd van perez toen? 😂⚽
wees diegene die jij nodig had toen je jonger was!
ik moest eerst denken aan 1994 usa brazilië. met romario, bebeto, dunga en het wiegend juichen na de go…
wat zijn je eerste associaties met deze cup? ik denk aan 1994 usa. brazilië. romario. bebeto. ronaldo.
save the date 25 oktober 2017 business in de bieb, rotterdam kennis, inspiratie en netwerken.
ahjoh... bij mij in de buurt noemden ze dat soort gasten sjonnies.
een goede reden om eens de te bezoeken. op 10/10 in rotterdam. 😃
wat moet je nou met linkedin uitnodigingen van onbekenden? via
wat een heerlijke goal van zeg. wow. ⚽⚽
werkgeluk werkwoord! vandaag mag ik namens spreken over voor studenten in 010. ℹ
als succes makkelijk was zou men het niet waarderen.
workshop creatief solliciteren – bibliotheek ijsselmonde via
wow... die lange ballen van pereira doen mij denken aan het balletje van de boer op bergkamp tegen argentinië. ⚽⚽
mensen met huis onder water sneller weer aan de slag na baanverlies | nu.nl
fouten maken je creatiever, socialer en succesvoller via
verbod op dit soort powerpointpresentaties svp... meer van dit
hier kreeg lozano vorige week rood voor. ⚽
helden
documentaire over ‘dachautje spelen’ bij a.s.c.
vraag sollicitanten niet meer naar de leeftijd
in de categorie en als je broertje tegen psv speelt voor wie ben je dan?
erg sportief van v/d werf om na zon pechwedstrijd toch voor de camera te komen. ⚽⚽⚽
workshop creatief solliciteren via
net een mooie aflevering van gezien. 55plussers die als stagiair starten bij jonge bedrijven.
stel eens wat vaker de vraag wat bedoel je precies? voordat je het automatisch invult voor jezelf/een ander.
bang om fouten te maken? bedenk dan dat het maken van fouten je veel creatiever, socialer en succesvoller maakt.…
nooit meer zeggen dat je iets niet kunt lees verder op de blog van
belgische voetbalbond ontving ook sollicitatiebrieven van fanatieke gamers
wow, die 2e goal van rb leipzig. ⚽❤
vraag 1 event met 350 deelnemers of 20 events met 75 bezoekers? antwoord 🍏🥚
feitelijk kloppen de eredivisiestatistieken, maar het wordt nu wel iets te proajax omschreven. maar ach... ik ben psver.
v/d volledig &amp eerlijkheid zou ik de zeges van pec op ajax voor de beker en schaal wel noemen. ipv p…
iedere vrijdag deel ik een opvallende sollicitatie op mijn pagina vandaag een parodie op…
diversitieit en inclusiviteit in bibliotheekland | /via biebletter.
teamdag organiseren? boek de workshop en ontdek hoe creatief je afdeling kan zijn.
thnx 4 het delen
ben jij deze week ook bij een nieuwe baan begonnen? op geef ik 5 tips over hoe jij je proe…
cape verde complete a shock double over bafana
ebook 100 manieren om creatiever te worden in je carrière gratis download
enkele beelden uit de wedstrijd.
en ja.... heeft er officieel een international bij. steven pereira maakt zijn debuut voor kaapverdi…
hoe krijgen we mensen met een arbeidsmarktafstand sneller aan de bak?
spijkerpoepen.
thnx. ik twijfelde tussen 1 &amp 3.
stem met 1 klik. jij bepaalt wat de organiseert in november. 👇
nice. heel tof gedaan! 🍏📽👍🖌 iedere vrijdag deel ik een vb van een opvallende sollicitatie op…
zo word je toekomstproof. vandaag op de blog van tips van o.a. &amp
dah kennie we hebben in november een week zonder careerevent. stem en kies wat wij die week organiseren ℹ
zou jij het niet fantastisch vinden als je passie en carrière samenkomen? mijn passie voor eten en trainingen verz…
al gezien hoe we die &amp naar de jongeren in rotterdamzuid brengen?
nieuwe toegangspoortjes ... 😑
jij mag 2 x raden waar mijn broertje vandaag heenvliegt 1 ... wow! in 1x goed. we hebben inderdaad een internatio…
niet bereid om je wekker om 5u te zetten om je dag te beginnen met een boek of sporten, maar wel naar andere sporters kijken?
zag dit net.
hi, dien ik mijn ticket uit te printen of kan ik ook met mijn eticket komen? gr.
we zijn begonnen met een nieuw
droom komt uit voor 9jarige luc na sollicitatie bij tesla via |
🎥 steven pereira mvv gaat voor promotie
ga all in. als je 99% geeft, is er die ene 1% die je tegenhoudt. die wilt gaan netflixen. die je laat twijfelen. di…
prachtige fotos gemaakt in door
volgens mij hebben we een spannende wedstrijd gemist mvv go ahead 7 goals
heb je al idee voor je playlist?
de fotos v/d training die ik heb verzorgd bij staan op …
yoo gemeente ✌🖖🖑🤘✊ wij helpen jullie graag mee hoor met één van de check bijvoo…
mn broertje steven pereira is deze week de speler in uitgelicht
linkedin moet startup toegang bieden tot publieke profieldata om het gedrag/ontslag van personeel te voorspellen.…
hierbij een aubergine 🍆.
echt. ik gun deze man 1 miljoen abonnees op youtube! cooking koken with puck
inmiddels al wat aanbiedingen gehad. zou je een mail willen…
5 redenen om naar glenn helberg te kijken
wat nou als we afspreken dat druk zijn niet de norm is? ↪…
kijkt lion bij pathe thuis
iedere vrijdag deel ik een opvallende sollicitatie op vandaag een sollicita…
las dat dat een straat was van de goudserijweg naar brouwerstraat alettastraat. op dat hoekje met b…
eén van de fotos waar mijn liefde voor en kralingen samenkomen. eendracht maakt macht!
kralingen.
daar reed dus gewoon een tram in dat steegje...
vandaag bestaat dit nummer 17! jaar craig david 7 days
op safari in je voortuin. 🦁
nooit meer op vakantie 🐴
yes, ik neem je graag even mee.
de duistere waarheid achter je all inclusive vakantie
volgens mij was tony thuis aan het gamen toen wij met een lezing gaven op zijn school.
na veel kritiek is de aftapwet er nu doorheen dit gaat er veranderen |
een programmeur automatiseerde zijn eigen baan – en hield dat geheim voor de baas.
ok, mijn werkdag zit er nu officieel ook op.
en als je die kans ziet... geen excuses!!! over de workshop vanmiddag in den haag lees…
oeps... net telaat
zoekt een headset microfoons voor presentaties. iemand tips waar ik op moet letten bij het aanschaffen?
waarom hoor ik opeens een george michael liedje in mijn hoofd haha
heeft er al iemand patent op het woord ik zie het woord in bijna iedere instabio voorbijkomen.
yes! de fotos van loopbaanfestival staan online. check &amp tag!!! ➡ …
thnx 4 het delen!
huurlaptops gezocht voor één v/d leerconcepten van zoek ik een orga waar ik 150 laptop…
wie ga ik a.s. maandag ontmoeten in den haag? 🏹
creativiteit is voor de één a en voor de ander æ. het gaat erom dat je een manier vindt dat bij je past.…
stiekem hoop ik op een goaltje voor chili, zodat we dit voetbalavondje kunnen verlengen.
ook nathalie van voorziet de jongeren van volop loopbaaninspiratie tijdens jongerenfestival work out…
yes, we zijn begonnen! jongerenfestival work out pascal fredrik opent de dag met een motivational speech.…
en ruud van nistelrooy is vandaag jarig. 75 goals in 88 wedstrijden voor wat een koning. gefeliciteerd!!!
vandaag , maar dan 15 jaar geleden scoorde ronaldo 2x in de wkfinale tegen duitsland. wat blijft…
mocht er nog plek zijn wij leveren graag een bijdrage. loopbaantrainingen, mediawijsheid, vr &amp meer.…
elkaar door drukte gemist vandaag. wellicht tot de volgende keer bij
dank voor de uitnodiging.
dit al gezien?
dat sowieso! kon ik het maar corrigeren naar volgens mij mis ik iets
volgens mij mis ik niets...
meetings...
teruggevraagd, na de fijne reacties die ik in maart ontving. normaal zijn er 5 workshops. op 10 juli is er 1 works…
zie ik daar een glimlach? 😃
de nieuwe is uit. verkrijgbaar bij hogeschool rotterdam, bieb010, onze careerevents &amp binnenkort ook te…
dames en heren de
dubbele moraal nederlandse media ligt 24 uur na aanslag pijnlijk bloot
waarom nederland tanehisi coates nodig heeft durf radicaal te zijn!
🎥 pascal fredrik over persoonlijk leiderschap |
thnx 4 de like. er is inmiddels ook een nwe verkrijgbaar bij de careerevents van
heerlen. 27 juni
beveiligingsloket start winactie om de stad nog vriendelijker te maken ℹ volg…
geweldig!!! van beneden zag het er zo uit.
gastcollege voor hrmstudenten van thema intrinsieke motivatie, arbeidsethos en werkplezier.…
zingende beveiliger gaat viraal
dan zou ik frank van de uitnodigen. ℹ
nu is het écht compleet.
ons metropooltje heeft geen filter of effectjes nodig.
event iedereen de baas 22 juni in rotterdam
was zelfde tijd. notificaties staan uit
machines echt beter in het aannemen van werknemers dan mens zelf
van rotterdam naar hengelo met en terug voor de met 🎤🎵 …
alumnifestival over branding.
jaaaa!!!! het is een q&ampa met schrijver/dichter/superman…
haha het wordt inderdaad een feest voor je carrière, maar de weblink is
ben jij vandaag toevallig ook bij ons in rotterdam? kom een broodje doen op dw 1e.
keuzestress 10 jaar
thnx. zou wel tof zijn, zon jobtruck. ik zag zoiets toen wij stonden op…
🎉🎉🎉 10 jaar dat vieren we morgen met loopbaanfestival waar het niet om ons, maar om jou…
kom je donderdag ook naar na de laatste talk hebben we trouwens een iftar.…
peter de waard driekwart van de westerse banen zijn bullshitjobs
yeah volgende week donderdag in bibliotheek rotterdam
sneakpreview de nieuwe 😍😍😍 careerfest special presentatie op 8 juni bij loopbaanfestival
hard werken loon, echt. over de groeimindset van een profvoetballer, de finale tussen roda &amp mvv en meer.…
komen ze mag je echt niet eten? en proeven? ook niet drinken? en roken? drank en drugs misschi…
van die toffe loopbaanprojecten waar je niets over mag zeggen omdat jackers meelezen. ✌😎
over twee weekjes hét loopbaanfestival voor ambitieuze studenten en starters. ℹ…
🎤 gers pardoel deze wereld is van jou 🎵
ik nu ook 😉
zie het als een reservering voor de bios. tot 5min. voor start je ticket ver…
van die appontwikkelaars die nog steeds roepen dat videosolliciteren the next big thing wordt. dat hoor ik eerlijk gezegd al sinds 2005.😑
oehhhhh, nog 16 dagen tot loopbaanfestival wie komt er met mij mee? ℹ 👍…
arbeidsesthos werkplezier is een werkwoord wat kun je doen om je inzetbaarheid duurzamer te maken? ℹ…
passie op je beeldscherm! dit soort wedstrijden moet je met je hart spelen ❤⚽💪
excuus voor de vele rts. ik ben gewoon fking trots op mn broertje.
road 2
nee, helaas nog niet gevonden. is een andere...
en nu doorknallen!
dank voor delen.
dank voor het delen. nu hopen op een eerlijke vinder.
thnx
bedankt. ik blijf het checken. 👍
de tas was al weg. omstreeks 13.08u metro van gerdesiaweg naar schiedam. weten jullie waar ik nog kan…
hi ret, vanmiddag mijn laptoptas in de metro zat aan nr 5639 vergeten. direct naar de klantenservice gegaan beurs, maar
hopelijk is de vinder van mijn laptoptas net zo eerlijk.
mijn laptoptas gevonden? bel of mail mij svp michel 0643102538
help! iemamd mijn laptoptas gevonden in de metro in rotterdam?
jaaaaaaa!!!!!! we zijn supertrots op het programma van check zelf maar waarom…
dus... je bent ook welkom om jouw dosis loopbaaninspiratie te halen op 8 juni. ℹ…
steven pereira speelt ook aankomend seizoen met ster op borst ❤
kaapverdiaanse avond het verhaal van mijn moeder
dit al gezien?
thnx. direct even checken
de trainingen en inhousedagen die wij namens verzorgen, brengen ons op fantastische plekken.…
jantje.
zaterdagnacht... trainingsprogrammas, personeelsplanning, goede muziek en grogue.
voor diverse careerevents zoek ik een aantal extra fotografen. portretten sfeerbeelden ben/ken jij één? mail naar info .com
feyenoordlied naar nummer 1 🎶 coolsingel
a.s. dinsdag 9 mei bij de in • workshops creatief denken &amp creatief schrijven • de droo…
a.s. dinsdag staat er weer een inspirerende event gepland in ℹ
quotum arbeidsbeperkten biedt kansen voor iedereen allesoverhr
hier hadden we het net over. cidi op 4 mei geen omgekomen vluchtelingen herdenken
broederliefde ✖️ beveiligingsloket ✔️
uitverkocht alle beschikbare kaarten die bestemd zijn voor verkoop ve…
true!
volgens het beste deurbeleid van de regio en vandaag beveiligen zij het concert van ✅💪
de wonderschone dieptebal van mijn broertje precies op maat voor patrick n’koyi 11. een
zoals ymp altijd zegt ze checken iedere move, want ze zijn huiverig voor de trendsetters in de game! dus hoi copycats! 🙋🤗❤
internationaal ambitieus taal als bindende factor | telegraaf.nl
hi, ik zit in belgië, maar mijn travel&ampsurf + bellenabo doet het niet. weten jullie wat ik moet instellen?
1 miljoen millennials aan hun droombaan helpen! 🎤 guerrilla solliciteren ℹ
ga ik checken. thnx!
parkeerplaats aan de viervantstraat rdamlageland.
ontbijt evaluatie cultuurwerkplaats lunch the next graduate seminar diner bèta career event.
een docuserie over werkdruk. burning out 2doc.nl
bart 14 solliciteert als burgemeester van dordrecht |
volgens mij was de controleur zelf een enorme bert boete + kaart ingenomen.
maandag rennen, vliegen, invalbeurten, besprekingen, herschrijven, trainingen, improviseren, kilomtrs maken, zwe…
hi jelle, hopelijk ook n weekend gehad. heb een vraagje voor een event. wil je graag een dm sturen. liever geen mail toch? 😊👍
even doen alsof ik kennis van fotografie of bloemen heb.
gelukkige medewerkers presteren beter
levenslesje ❤ houd een beetje extra van jezelf 🤑 neem jezelf niet te serieus 🍫 prop je mond vaker vol bonbons 🇫🇷 doe alsof je frans spreekt
haha, lets do it. op 19/4 sta ik i.i.g. gepland bij de vu. dus de andere partij ga ik alvast voorverwarmen voor de fusie.
wat nou als een fusie met de vu wel lukt? 😃😎
ik wil ook stratego in de branding spelen.
je kan mij voortaan ook inhuren als fotograaf. 🤗
morgen in utrecht futureproof recruitment hét event vol vooruitstrevende recruitment oplossingen. ℹ
just confirmed! 😃💃🍾🎉 op woensdag 19 april verzorgt het trainingsprogramma tijdens het careerevent…
van die websites waar je eerst op enter website moet klikken voordat je de site kunt bezoeken.
vanavond te gast bij op 🎥