wat een domme beslissing, parijs! dat is vragen om problemen. of wordt er een hele grote muur om parijs heen gebouwd?
onze voorsprong is als sneeuw voor de zon verdwenen. geen lb, geen goaltjesdief, geen e…
mensen, kinderen geen paniek!!! verkoop locadia voor 11 miljoen, haal van der meer van utrecht als lin…
typische angsthaaswissel van cocu weer. je roept het zo over jezelf af.
dat we scorend vermogen moeten halen wordt nu wel duidelijk. in de jeugd loopt ene mauro rond die ze wé…
game, set and match voor wat betreft het aantal tennis gerelateerde woordspelingen!
nieuwe linksback gaat dit jaar verschil maken met creativiteit, werklust en scorend vermogen. iets wat…
op zijn shirt staat qurent in plaats van qurrent? daar mag je blij mee zijn dan, met zon nepshirt…
qua arrogantie zou je makkelijk tussen de supporterschare van een andere club kunnen passen. 😂
je bent weer veel te snel paul, op het veld had je daar nooit last van. zon transfer van…
mogen wij als supporters er wel vanuit gaan dat logo op gewoon rood wit blijft ipv…
moet eerst verkopen voordat ze gaan aankopen? het blijft opvallend stil rond inkomende transfers of interesse in spelers.
nou, dit had weinig met fijne regen te maken, het kwam met bakken uit de hemel. en regen is trouwens nooit fijn.
is jullie satelliet stuk ofzo? het regent hier dat het zeikt. ook op de niks te zien.…
oh, net als die zogenaamde griepepidemie in de selectie van utrecht. i get it.
alternative facts de wereld in aan het slingeren? ten tijde van deze foto was het 20. jaël vond vooral vallende spelers leuk.
wellicht dat haar friese vriend nu zegt dat is een beetje dom, zoals maxima deed destijds? aber wol in t frysk.
inburgeren in nederland. weer een hilarisch staaltje journalistiek.
goh, had die kleine advertentie niet op een andere pagina geplaatst kunnen worden?
passie, strijd, baltempo, de wil om te winnen, gaan voor die laatste kans, bloed, zweet, tranen. het is allemaal niet te zien, bij
dat lied wat je in de als laatste zong genaamd hoop ik toch echt nooit te horen in het
vivaldi is een restaurant in winterswijk dus dat kan het niet zijn. ik begin écht alle hoop te verliezen voor de mensheid.
ben ik de enige die zich stoort aan de superlatieven van de commentator bij overdrijven is ook een vak. niks historisch aan.
de populairste wissel ter wereld. met nummer 9... will grigg!
wat een niveau. ze weten het wel maar de redenering erna is zó dom, dat ze het zelf geloven. het lijken wel trump stemmers. 😢😂
en dat ie nu opeens zegt grapje! i fooled you all.
ben zeer benieuwd naar het boek van astrid holleeder. klinkt als het perfecte kerstcadeau, hoe wrang dat ook klinkt.
vandaar dat ik zeg indien mogelijk. ik krijg het idee dat er geen rekening meer wordt gehouden met deze afspraak.
ik dacht dat de afspraak was gemaakt dat psv de 2e helft richting oost zou spelen, indien mogelijk. geldt die afspraak nog?
fox sports el heeft het helemaal niet gedaan! al 2 tweets gestuurd zonder reactie. wilde heepsv kijk…
en de gemeente eindhoven strooit de velden van wodan nog even lekker opnieuw in onder het mom van nu kan het nog!
wellicht dat iemand weet?
serieus? verdienstelijk? ik vond hem met name onzichtbaar. zeker als spits onbruikbaar voor tactiek van
vandaag onmachtig. gelijkspel was verdiend geweest. 0 houden en scoren is kwaliteit van een kampioenskandidaat.
ik snap de achterliggende gedachte wel. maar 4x vond ik dan een beetje overdreven. de naam weet ik nog wel, dus het werkt.
nu ben ik toch die naam van die pechhulpdienstapp vergeten. kunnen jullie die nog 1x herhalen?
dit gun je niemand, zo afscheid nemen. succes bij ! toch maar ziyech halen?
😂😂😂 soms bekruipt me het idee dat ik stiekem naar ajax a1 zit te kijken ofzo. zijn die paspoorten wel eens gecheckt?
heeft in de gaten dat ook eur. rangschikking op spel staat? het had 30 kunnen staan. verdedigend staat ons 8e nog beter.
512!? via twitter? dan mis ik er dagelijks 511. aangezien dit de enige manier is om je rechtstreeks te spreken...😢
ik neem aan dat hij aanvragen bedoelt. anders klinkt het inderdaad een beetje vreemd. 😂
zo zien we ze helaas niet meer op de nederlandse velden.
daily fantasy sports onder druk. een spelletje, of gambling in disguise? een tipje van de sluier
perry met 2 bier voor zn neus. hmmm...dat riekt naar of is hij vast aan het oefenen voor de
klopt, maar mentaliteit + een hondstrouw thuispubliek hebben meer recht op playoffs. het duikteam van fce daarentegen...
ik hoor dat nummer van oekraine nu voor de 2e keer en ik denk nog steeds wat een klere nummer. stond echt onderaan op mn lijstje.
wij zullen er wel geen verstand van hebben. over smaak valt niet te twisten. maar oekraine was wat mij betreft smakeloos.
ik had oostenrijk, rusland, israel, australie, nl, spanje, fr, zweden, uk, litouwen. als laatste duitsland, polen, ukraine.
ik denk dat het publiek sowieso heel anders stemt. ik heb 12 punten aan oostenrijk gegeven. die staan nu in degradatiezone.
ik had ukraine onder aan mijn lijstje staan. vond het echt bagger. wat een farce weer...#esf16
net als je denkt kan het nóg slechter? wordt het antwoord al gegeven door de volgende act.#esf16
als échte eindhovenaar geloof ik in broederliefde gaat toch echt voor alles. succes!
ligt eraan hoe je het uitspreekt.
inderdaad, een prachtige dag om kampioen te worden. bedankt voor de mooie woorden. 😂
niet verwacht en stil gezwegen. maar toch gekregen!
dus wordt de kans steeds groter dat ze een keer puntverlies gaan lijden in doetinchem.
beetje raar, zon beslissingsduel waarbij eigenlijk gewoon moét winnen en achterover kan leunen.
het honingpijpje van mijn oma van opzoomerstraat 2 uit eindhoven ligt nu niet op straat hè?
neenee, sommige mensen kunnen zich beroepen op overmacht. of ze hebben een honingpijpje.
assumption is the mother of all fuckups, toch? wie zou de vader dan zijn? en hoe heten hun kinderen?
zijn wel in de problemen vanwege gambling regels in u.s. het alternatief is veel interessanter.
ik las het ja, maar het was geen 42, toch?
ik wil voorlopige aanslag 2016 invullen. staat naam onbekend. kan wel werknemer huisgenoot invullen, niet die van mezelf.
en wederom geen mogelijkheid om psv via eredivisielive te bestellen. wordt tijd dat ik gecompenseerd wordt voor non service!
nee, zit nu in de kantine van de voetbalclub. daar werkt het prima.
25 man in huis, hapjes geregeld, drank geregeld. ik stuur de rekening wel naar jullie door. slechter moment was niet denkbaar.
psvajax is nog niet beschikbaar op mijn horizonbox!!! hoe zit het onderhand? heb een vol huis maar geen voetbal!
ik wil graag psvajax bestellen, maar er is nog niks beschikbaar! hoe zit het? moet één uur vantevoren toch beschikbaar zijn?
sorry, maar slaan we niet erg door met zn allen? destijds met feyenoord supporters, tóen had er hard moeten worden opgetreden.
voor een goede voetbalkantine gelden een paar gouden wetten ad.nl via doe er je voordeel mee!
fantasy sports aan banden gelegd in usa. wordt dit de toekomst? als het aan ligt wel. voer voor
heb je ook een bron of is dit ingefluisterd door mensen van nw? die beweren nl. al weken dingen die niet waar zijn.
carolien smit toevallig? die heeft nog bij mij op school gezeten! wat toevallig! doe haar de groetjes!
leuk voor natuurlijk, maar keeper van gaat zo opzichtig in de fout dat logisch lijkt.
dadelijk zit ik in de zaal bij hopelijk is het net zo leuk als vóór de positieve beoordeling van
jullie zouden zon goede site zijn als jullie dit soort k#&amp$%@ advertenties niet zouden showen.
onze ambitie is de halve finale halen. 😂 het verschil?
wint 51 tegen dees. appeltje eitje. en zo behouden we de 2e plek. gezien de stand gaan we er niet van uit dat eindhoven verliest.
ik ben inmiddels overgestapt naar een andere zorgverzekering via scheelt me 25 euro per maand t.o.v. salland.
prijsstijging van liefst 13,26 euro t.o.v. maandpremie 2015! morgen maar via independer op zoek naar nieuwe zorgverzekeraar.
nooit meer strijken? doe de was 20 minuten in de droger, klop uit en hang op. al 6 jaar geen strijkijzer meer gezien!
tussenstand momenteel 11 bij na 25 minuten op voorsprong maar binnen minuut maakt gelijk. spannend!
beterschap rik. hoe heb je dat in godsnaam opgelopen? gelukkig had het gisteren ook op zn heupen. 😉
te vroeg gejuicht!
goeie foto hoor, bij dat gek op bollen artikel! daar zijn mannen inderdaad gek op...#gekopbollen
heeft ze nu hiervoor dr haar geverfd? nondeju wat geil! 😂 dacht even dat ik de avn aee zat te kijken.
zoals gezegd geen mogelijkheid om terugvlucht stoel te reserveren voor mij en baby. wel via andere inlog voor vriendin en kind.
ik weet het, ik weet het! de 4e naam. bel me terug, ik wil wel dat geld wel winnen. het heeft nu lang genoeg geduurd!
kijkje achter de schermen bij heerlijke anekdotes van mogen aanhoren. toekomst lijkt rooskleurig.
als cillessen zich minder druk had gemaakt om penalty had hij 2 centimeter extra gehad om m te stoppen.
maar raakt eerst linkervoet aanvaller en vervolgens rechtervoet. terechte pingel, veel te veel risico genomen door v/d wiel.
ik heb gebruikt om aan te maken voor premier league
misschien had die rechtse beter het shirt van schweinsteiger aan kunnen doen.
heb medelijden met alle vrouwen die vandaag denken gezellig en goedkoop te gaan shoppen in adam.
ervaring zat gisteren vooral op de bank. alleen een ezel stoot zich 2x aan dezelfde steen. ergo, fdb is een ezel.
moeder van wordt vandaag 65, tóch gaat hij voor vandaag naar eupen. wee je gebeente die zijn inzet betwijfelt! 😉
kun je dat verkeerd begrijpen? hier om de hoek hebben we een prima opvang voor dat soort mensen. de grote beek!
ik dacht dat nac zoveel goede sponsors had. die willen vast wel meedelen in de winst.
nac zocht een nieuwe spits? in costa rica loopt wellicht een leuke rond.
je hebt het ook niet van mij! sstt...geheimhouding wordt gewaardeerd.
welke.nl is de nederlandse versie van pinterest, wellicht doe je daar wat inspiratie op.
highway 1 rijden met overnachting in carmel/monterrey. vergeet yosemite np niet! 3 uur rijden vanaf sf. kan ik je evt. mailen?
ik help je graag op weg voor tips naar het zuidwesten van amerika. heb je al een globale route op papier? ben zelf in 2009 geweest.
ik hoop dat psv nog 90% van de transferrechten heeft op lens! maar dat zal wel niet...#wishfulthinking
stuur eens wat fotootjes op van jullie fantastische all in resort!? bevalt het goed daar?
prettige vakantie, geniet ervan en een dikke kus aan jaël en julie! tot snel! xxx van ons.
echt waar? 5,95 zelfs bij bestelling boven de 50,? sorry, maar dan haak ik echt af. had 4 shirts willen bestellen.
nou ben ik ook wel nieuwsgierig geworden naar het nieuwe shirt van umbro!
cijfers online aankopen q1 2015 +19% in vergelijking met q1 2014, totaal 35,6 miljoen transacties, twv 4,4 miljard euro.
let op, er is weer een email in omloop afkomstig van klanten@emailing.ing.nl. trap er niet in en laat geen gegevens achter!
ergo je kunt nooit meer een aansprekende tegenstander voor oefenduel thuis regelen.
ik ben pas 37 maar toch voelde ik me aangesproken. qua locatie, vraag eens of er mogelijkheden zijn?
en ook de minst succesvolle speler in de 4x gedegradeerd?
waar kan een ondernemer aangifte doen van een ddos attack en afpersing? lokale politie erbij betrekken is zinloos.
leuk om te volgen via twitter, hilarische reacties op sommige liedjes. zou een schande zijn als we de finale niet halen.
altijd fijn zon hoteldouche met de standen en ook erg veilig met kinderen.
ik vind het wel mooi. hoop eigenlijk dat het èchte hier wel op gaat lijken.
doe gewoon net zoals je broertje alles eraf scheren! d
lekker na de vakantie the terug kijken. staat alleen de laatste aflevering er op! kan ik de vorige 3 terug zien?
hopen dat hier in marsa alam, egypte wordt uitgezonden!
hopen dat hier in marsa alam, egypte wordt uitgezonden!
ah nee toch, niet weer hè! wat doen jullie toch elke keer met die poezen?
je bent echt vooruit gegaan! vorig jaar 2e, nu nummer 1, gefeliciteerd!. leg dat als sporter maar uit aan de
dus alleen in de is van 2 naar 1?
nou, hier in eindhoven komt het geluid niet meer door dus ik heb m maar even op een andere zender gezet.
je hebt ze hopelijk uitgelegd dat ze met dat geld heel vroeger een heel menu konden kopen en nu een half brood?
alweer proficiat broer! wat een weelde opeens...#ajax, watch out, is on fire! daar zullen we zondag een wijntje op drinken.
en als donderslag bij heldere hemel is de secretaresse van david tussen 2 takes in van auto gewisseld. checken regie!
het zij jullie vergeven. nu hopen dat we de ballonnenclown en olifantenact net zo makkelijk kunnen verzetten. kus aan de girls.
gelukkig ook op een nette manier opgelost! nu hopelijk iedereen weer de blik vooruit.
prima dat jullie aanpakken en maatregelen treffen. zorg dan wél dat op orde is!
makkelijk scoren zeg, titelstress...#psv veel beter, na 11 was rijp voor de sloop en komt het met mazzel op 12.#psvaja
we doen allemaal ons best. klagen zit helaas in de nl cultuur ingeburgerd. dikke huid kweken en niet persoonlijk opvatten.
kreeg het door ja...maar pas na eind april neem ik het stokje over. tenminste, wat mij betreft. dus tot die tijd, ga zo door!
klopt, alleen wordt berichtgeving namens wodan wel zo geinterpreteerd. snap de frustratie overigens...
ben benieuwd waar en wanneer...de kantine was nagenoeg leeg toen ik weg ging. wellicht a.s. zaterdag 28 februari?
als nu ook iedereen beseft dat a voor b categorie komt i.p.v. negatieve nonsens te posten op twitter/facebook, wordt het nog wat!
nijhuis had van tevoren moeten fluiten voor overtreding op wijnaldum, dus zie dit maar als een goedmakertje.
done, benieuwd naar de oplossing van het probleem.
zoals bij zovelen is er al 3 maanden geen factuur geweest en niks afgeschreven door upc. hoe denken jullie dit in te halen?
nog geen oplossing voor het 6 maanden in 1x afschrijven zeker? wordt tijd dat media hier lucht van krijgt.
via instagram en website misschien makkelijk om wat fotos van de ruimte er bij te zetten.
dus jij wordt hier vrolijk van?
kijk wel uit, want je veter zit los!
wanneer is het opgelost? straks in 1x 400 euro afschrijven lijkt me niet de juiste manier. benieuwd naar oplossing!
daar is trijntje oosterhuis niks bij! mijn god zeg...
we zijn toch allemaal trots op onze workaholic! nu zn broertje nog aanstellen als dan komt alles goed met
haha, you wish! dan staat er binnenkort ook een koelkast met bier en gaan ze allemaal bij jou voetbal kijken.
betalen met via werkt voor geen meter. krijg geen tancode en wordt ook niet gebeld bij foutmelding.
de tv is, hoe kan het ook anders, al gereserveerd voor
interesse in een plasma tv van 150 cm? gratis af te halen! wellicht goede optie voor in het clubhuis?
hahaha...tja, je zou denken dat er mensen zijn die zoiets eerst nakijken voor het online komt te staan.
een zwart balkje over de ogen van de nieuwe hoofdcoach van
net getuige van ruzie bij wegens voordringen. wat een lijkt nog ver weg! fijn
claim het terug via de inboedelverzekering. nee heb je, ja kun je krijgen. bij barst in telefoon al 2x prima vergoeding gekregen.
en waarom zou je niet de meest invloedrijke recruiter van nl kunnen blijven?
nog één en ik ben van plan je op te geven bij allerlei programmas.
nee, integendeel. die was dit jaar vervangen door de winterstopborrel op 18 december j.l. kerst valt dit jaar ongelukkig.
ik hoop voor jou dat de zaal dan wel een beetje voller zit!
een waarheid als een koe. de juiste mensen motiveren en een vliegwieleffect creëren brengt hopelijk nieuw elan.
hopelijk forse verbetering ten opzichte van de huidige. positief om te zien dat er via social media gewerkt wordt aan communicatie.
ik heb mij zojuist voor de webwinkel vakdagen geregistreerd! zie ik u daar? tot 21 en 22 januari
als je boys van sabrina draait dan mag touch me van samantha fox natuurlijk ook niet ontbreken in de verruckte halbe stunde!
helaas wordt waarde niet altijd 100% omgezet in geld maar met depay/ wijnaldum/arias kom je in ieder geval al tot de helft.
opvallend detail tijdens persco ajax/ziggo stropdassen kennelijk uit de gratie had ik tijdens mn studie speco al voorspeld.
waar kan ik meer info verkrijgen over dit concept voor amateurvoetbalverenigingen?
alle 4 in de basis, narsing op de bank en 442 spelen met depay en de jong. zou weleens goed uit kunnen pakken.
even contact opnemen met de ophaaldienst in je regio. dan krijg je binnen een week een nieuwe. zo werkt het in ehv althans.
hij komt er ook iets makkelijker mee weg. no offense.
de mannen van het oud papier hebben hun werk ook goed gedaan, zie ik.
nee hoor, meerdere malen geprobeerd. ik krijg geen tan terug van de bank. ook niet gebeld na melding tan niet ontvangen?
ze heeft de cursus presentatietechnieken werken met steekwoorden duidelijk gemist. of heeft ze de hele tekst via beamer getoond?
hmmm...spam via twitter. knap. wellicht even mijn paswoord veranderen. komt niet van mij af in ieder geval.
nou, je bent de minuut stilte van voor toch niet vergeten hoop ik?
en welke namen zingen er momenteel rond bij het is tè rustig op dit moment. heeft psv nog wel ijzers in het vuur?
we geloven nu wel dat je een tropische storm bent. wil je nu weggaan en de terugbrengen? we zijn de herfst wel weer beu!
wat een treffende en prachtige tekst. mag van mij meteen nr.1 worden in
ware het niet dat je met bubbeltjes plastic waarschijnlijk blijft drijven. baksteen aan zijn voet heeft het misdrijf verraden.
mijn eerste gedachte was zelfmoord. toen dacht ik uit de hand gelopen fetisj wellicht? maar een misdrijf?
niks aan toe te voegen, amen! eindelijk krachtige taal. tot ik sterf, zal ik dit niet begrijpen
als er 298 amerikanen in dat vliegtuig hadden gezeten waren we nu getuige van woiii. probeert weer de diplomaat uit te hangen.
betekent dit dat ik voortaan normale berichten krijg ipv vacatures? ik wil nieuws van steve, niet van prodware!
waarom ze toch altijd zon gekleurde ajax bril op hebben en tabloid stijl gebruiken, dàt wil ik weleens weten.
onterecht? ik denk dat je de herhaling gemist hebt. samaras werd wel degelijk geraakt door speler van nigeria. terechte pingel.
go vandaag gaat het beginnen! benieuwd of klaar is om naar de slachtbank te leiden. ik voorspel 30!
heerlijk jeugdsentiment met drukwerk je loog tegen mij! doet me denken aan de kroeg van tante annie op
leuk, programma dat stookt en van gaal en topvoetballers uit elkaar probeert te drijven. is ver te zoeken.
ik weet niet, je klinkt een beetje cynisch, hoe komt dat zo?
toch niet met kerst hè?
superleuk! proficiat. wanneer is ze uit gerekend?
verm. daders ongeval fransebaan vannacht aangehouden en verhoord. bedankt voor het delen!
op zoek naar blauwe renault, 2002/3, 36sb??, doorrijden na ongeval fransebaan. schade aan koplamp. rt please!
geen duits kenteken maar duitse versie van mini cooper, aldus lezing van overbuurman. ook een renault bij betrokken.
rt please. op zoek naar zwarte mini cooper. doorrijden na ongeval. kenteken 36sb?? wellicht duits.
ik hoop voor je dat je niet volgt op twitter. want dan zal ze je straks ook volgen...met de auto...naar je huis.
rt please gezocht rijbewijs d die ons op naar airport wil brengen. omg. beloning in overleg.
ik hoop dat het andersom was en dat hij eerst door de defensie liep en toen scoorde. anders zou het wel tè makkelijk zijn.
vanaf hoe laat zijn jullie open met op zondag? wij willen graag komen om te zoeken.
ik vond hendrix ook voldoende. depay absoluut onvoldoende. locadia werkte hard maar werd nooit in stelling gebracht. ruiz een 1.
hahahaha...als dat aandurft, verliezen ze heel veel geloofwaardigheid bij het gros van de supporters. geen waterdrager.
hilarische radio met de topper ik zit op een kameel. wie weet een nieuwe laten we trending maken!
het zou me niets verbazen als hij patrick greveraars als assistent neemt.
kan iemand de presentator op besef bijbrengen over hoe hij de sfeer verneukt?
wil je dit noooit meer doen!
toch weer door de dus. belachelijk dat hij, als aanvoerder met voorbeeldfunctie, niét geschorst wordt.
twitter plaatst rare berichten tiidens mijn slaap. vreemd. of is er meer? laat ik nu net bij een geweest zijn.
daar ontsnapt daley aan een donkerrode kaart. wat een vieze overtreding zeg. benieuwd of die nog 50x herhaald gaat worden.
echte supporters daar in amsterdam. het zit een keer tegen en de beginnen al. wordt afgestraft.
zou ik ook zeggen ter compensatie van dat hèle slechte engels. wat leren die kinderen op school tegenwoordig? lief hoor.
twitter is bedoeld voor korte berichten. helaas snapt de heer mohr niet dat hij beter email kan sturen!
aa drink toernooi? whats in a name? hoeveel anonieme alcoholisten hebben zich al ingeschreven?
een harde reset van het systeem heeft wonderen verricht. irritant is het wel op een zaterdagavond als je voetbal wil kijken.
grrr, wat is er nu weer mis met zender valt uit, andere zenders vallen na 1 minuut weg. opname dus ook weg.
ik blijf het nare voorgevoel houden dat de wedstrijd na rust compleet uit handen gaat geven.
tegen die tijd zijn ze medisch zo ver dat we onsterfelijk zijn dus weer een zorg minder. be careful what you wish for.
als ik dan toch zou mogen kiezen, liever zo dan een ziekbed van maanden of jaren. maar ja, het blijft wrang natuurlijk.
tijdens het sporten een hartstilstand gehad ofzo? doet me terug denken aan danny emelaar.
tjezus, sterkte broer. dat is niet de leeftijd waarop mensen horen te sterven.
is dat vergelijkbaar met of moet ik toch richting begrippen gaan denken? ik voorspel toch een snel einde
oplossing is simpel en effectief verlaag de prijzen! een gezin is al snel 30 euro kwijt.
eindelijk verkocht! zojuist online eten besteld bij sushi express &amp catering via
komt mijn foto in aanmerking voor de van de dag?
let wel gemiddeld hè. wees blij dat je niet naar de modus en de mediaan van het gezelschap hebt gevraagd...
is het al bekend wie de andere club is die naast interesse heeft in zou al in onderhandeling zijn?
we gaan er weer lekker voor zitten. benieuwd naar de volgende aflevering!
toch vreemd, deze speler maakte in het tweeluik met begin dit seizoen totaal géén indruk. vond hem arrogant overkomen.
niet echt gevolgd dit jaar maar nu ik ze allemaal heb gehoord is mitchell veruit de beste. wàt een stem, kippevel!
nee, wachttijd van &gt 5 min. heb alles herstart maar dat lost probleem niet op. vanavond maar weer bellen. verbinding gaat op en af.
volgens mij zijn jullie al een jaar of 6 engaged! waar blijft die bruiloft nondeju!?
zal natuurlijk weer een monteur moeten komen à 60,/uur. schandalig! zorg eens dat je product 100% werkt. zijn jullie beter?
ik word gek van dat opeens geen verbinding meer. restart modem en router werkt niet. ip adres conflict. zomaar. ineens.
misschien bij die voorwaarde dit seizoen ook maar eens invoeren.
denk je dat zanka nu een kans krijgt door schorsing bruma? heeft meer body en ervaring. of houd cocu vast aan jeugd?
ik zou ook toivonen in de spits zetten. hiljemark, schaars en maher op het middenveld. locadia eruit.
zou het ook zo doen. denk dat je met toivonen in de spits aanspeelpunt hebt en evt. bal voor de pot kunt gooien.
spaarrekening naar de filistijnen. uh, correctie, ach, ze ziet scheel van het geld dus ze kan het hebben.
ik ken nog zon club uit brabant waar het de laatste jaren wisselvallig is. des te mooier wordt het 2015.
leuke wedstrijd! belgie 02 achter maar ondertussen wel al 2x de paal geraakt. moordend tempo ook, kan niet aan tippen.
ah, dan hadden ze met gemak mee kunnen draaien in de dit seizoen! alles beter dan
ik hoop dat het op 30 november qua bier geen probleem wordt. proficiat met de overwinning vandaag!
wie is die met die man, man, dat gaat door merg en been! hoe is die door de blind auditions gekomen?
one direction natuurlijk! als je dat niet ziet...?!
goeie actie van aanpakken die achter slot en grendel zetten, niet meer vrijlaten. kan niets doen?
mét wint psv ook niet en hij is tot nu toe alles behalve bepalend, dus bij niet bijtekenen terugzetten naar jong
het is 2013! ik hoef de papieren versie van het écht niet meer te hebben! linea recta de papierbak in. zonde. opt out?
hij heeft wel een grote bek bij terugkomst. zou hij ècht goed in de spiegel hebben gekeken? ik moet alles zelf doen. tss.
sms poep on naar 4500 voor het goede antwoord. dat weet ik zelfs!
ik weet niet waar ik net naar geluisterd heb maar ik vond het barslecht. schijnbaar hoorde 4 coaches een engeltje zingen.
transfers van mertens, pieters en lens zijn dus wel verwerkt. psv zou dus een behoorlijk verlies hebben geleden van 20 milj?
benieuwd of de monteur nog op komt dagen. hij heeft nog 1 uur. belachelijk dat tijdsindicatie tussen 5 en 9 niet beter kan.
wat mij betreft prima! eet je bij ons mee of wil je liever ergens gaan eten? ik bedoel mona lisa is om de hoek.
tja, je kunt ook bij je vader gaan werken. dan zijn dat soort momenten standaard in plaats van schaars. keuzes maken!
anita doet haar naam eer aan! wat een stomme doos met een gat in haar hand. henk zou je buiten moeten flikkeren, meteen!
het aantal rode kaarten bij jong psv is sowieso schrikbarend. laat de jeugd zich snel uit de tent lokken? 1/100
dat is een neef van mijn moeder. ik heb als 8 jarig jongetje ziegezagge psv gezongen uit t raam toen psv kampioen werd in 86.
toen je 20 was kon je dit soort dingen ongestraft doen. nu moet je op de blaren zitten. of op de pot heel de nacht.
kijken op veronica. ik kreeg t na 1 minuut al spaans benauwd. over ergste gesproken. ik zou geen bij me hebben!
verdient in 1 zomer zoveel geld, dan heb je geen nodig. positieve transferbalans lijkt voorkeur te krijgen boven kampioenschap.
+ tevreden supporters. nu moet je gaan bouwen, weer geen kampioen. dus psv kiest voor positieve transferbalans ipv cl? 2/2
30 miljoen ontvangen en 13 miljoen uitgeven is natuurlijk knap. 2 en voetbal hadden dat effect ook gehad. 1/2
ze heeft me tijdens die vakantie goed voor de gek gehouden. daarna meer dan goed gemaakt, maar nooit iets geworden.
als ik een aanbeveling zou mogen doen die van fire up werken als een tierelier#. vanavond grote in oisterwijk!
grote brand in aanmaakblokjesfabriek oisterwijk. tja, zo te horen werken ze prima. goede pr stunt, broer!
als blijft kan hij centraal. cocu ziet hopelijk wèl zitten. marcelo en koch als bankzitter.
sporza.be en andere bronnen melden dat rond is met transfer levert naar verluidt 12 miljoen euro op.
gijp tegen arnesen later als ik groot ben en gestopt ben met voetballen ga ik een bestseller laten schrijven over mezelf!
ere wie ere toekomt heb 5 gratis on demand films tegoed gekregen. nu hopen dat daar niks mis gaat! bedankt!
dm verstuurd, nog geen reactie na 36 uur. zoals gezegd met 25, euro on demand tegoed lullen we nergens meer over.
ik heb een dm gestuurd met postcode en huisnummer maar nog niks gehoord. halvering maandbedrag of 25, filmtegoed neem ik genoegen mee!
rt please iemand verstand van aanmelden voor ik snap er de ballen van!
wat is een dm? direct mail? waar moet ik die naar toe sturen? zorg eerst maar eens dat vaste klanten met korting krijgen.
lachwekkend slecht systeem dat opnieuw gestart, heb ik geen geluid en geen commerciele zenders. fail van het jaar!
echt wat is dat een fucking klote systeem zeg! film op pauze gezet, loopt hele systeem vast. hier ga ik niet voor betalen!
romario! wat een fenomeen was dat!
zoals onderhandelt is dat ook het laatste bod. pure prijsopdrijving. moet niet meer dan 2.5 bieden. +
a.s. zondag is het zover. na 17 jaar selectievoetbal, mijn laatste wedstrijd, mits we promoveren! op naar het 7e.
bij support weten ze van het probleem. heel account opnieuw aangemaakt. voor thuisnetwerk toch een monteur dinsdag.
wordt gevraagd naar mijn gebr. naam. die weet ik dus niet! en klantnummer invoeren werkt ook niet.
hebben jullie ooit getest of gebruikersnaam opvragen werkt? nee dus. ik kom in een loop terecht op de activatiecode pagina. 1/2
wat een drama dat horizon. alles geinstalleerd, commerciele zenders werken niet. paswoord internet werkt niet. film1 werkt niet.
45 miljoen is veel te veel voor een nl verdediger die nog alles te bewijzen heeft. 2 miljoen + derijck maximaal
toivonen lijkt niet te beseffen dat de clubs niet voor hem in de rij zullen staan na zijn blessure. verkopen aan eerste bieder!
ik hoop eigenlijk voor maar het zal wel voor van der hoorn zijn. alhoewel ik misschien wel beter vind.
heb zojuist in de supermarkten in de omgeving alle pakken bami opgekocht. dat zal ze leren, die chinezen.
nu snap ik waarom al die voetballers naar willen. leuke verzorgster daar in london. veel liesblessures schat ik zo.
ik kwam thuis en de dames zaten hier te kijken. zag de ruimtepakken ook langs komen voordat ik de hond uit ging laten.
12 punten voor montenegro waarschijnlijk!
kraaij jr. maakt er ook een potje van in 30 sec esteban ipv waterman. gelijkmaker locadia? net zo slecht als verdediging
tot zover bekerfinale in de kuip voor daag psv, daag daag kloteverdediging! makke schapen, slachtbank, vul zelf in
foutje bedankt. overduidelijke strafschop onthouden. viergever zijn hand had daar in ieder geval niets te zoeken. en dan nu 01.
ik weet niet wie verantwoordelijk is voor ontwerpen van shirts maar roze kan écht niet. zie je de fside al staan, in het roze?
eerlijkheid gebied mij te zeggen cl, cl, cl!!! althans...voorronde! dan moeten we blij zijn dit jaar, omdat het moet. lijkt wel.
valt tot nu toe tegen al is upcoming talent toch een kleine lach op mn gezicht waard. na de pauze beter?
het is hier fantastisch. jammer genoeg zaterdag weer naar huis. nog 2 dagen genieten van alles wat te bieden heeft.
volgens mij is het pas 08.43 momenteel op curacao en is het tijdsverschil met nederland 6 uur. of is zomertijd ingegaan hier?
ik heb ze t hele seizoen verweten dat het mooi weer voetballers zijn. vandaag laten ze hopelijk zien dat ik gelijk heb.
benieuwd naar de kracht van wie weet waar ik live kan kijken op rt please. alvast bedankt!
nou laat nu maar zien dat je de beste ploeg ter wereld bent. of moet het wéér alleen doen? halfuurke nog!
de hashtag voor een wedstrijd had niet beter kunnen zijn. wil vanavond laten zien kampioenswaardig te zijn? 3 punten aub!
rutte vindt bij banken een zorgelijke ontwikkeling. nou, ik vind uw ontwikkeling veel zorgelijker, doe daar iets aan!