gisteren een bericht op jullie tijdlijn geplaatst. bericht is nu spoorloos verdwenen?hoe kan dit? verwijderen jullie altijd kritiek?
is er toevallig storing internet glasvezel rondom leusden?
yes!!!! gaat dit een top weekend worden voor
het zag er al niet goed uit net toen we er langs reden, maar dit maakt het helemaal naar. hopelijk is hulp er snel…
zojuist gedaan👍🏼
hallo, onlangs verhuisd en postcode aangepast online. wanneer wordt het lotnr aangepast ivm trekking 1117
oke dat snap ik allemaal. maar dan moet ik m deze week dus echt uiterlijk ontvangen. besteld op 99 om 1030z
oke, maar heb ik m dan wel uiterlijk volgende week? dan is het 4wk na 99 .......
beste ik wacht al bijna 3 weken op mn iphone. mn geduld is beetje op. help, wanneer krijg ik m?
zeker, kan ik alvast een preorder plaatsen voor sept 2018?
gelukkig! was al bang dat ik een preorder over 2jr zou mislopen hierdoor.
help, zie dat mijn verlenging niet goed gaat. huidig abbo stopt 10102016, nieuw abbo start 712017! hoe kan dit??
hallo, kunnen jullie op mijn dm reageren?
kunnen jullie me helpen verlengen? anders gaat de levertijd vast heeeeel lang zijn. niet leuk, vasteklantenvoorrang?
dm al gestuurd, en nu? wacht op reactie en belangrijker op bevestiging vn nieuwe iphone. drama dit, hoezo vaste klant?!
waarom heet het anno 2016 nog zo? mayb tijd om een makeover dan goed te doen. meer tijd en een andere naam
.@d66 pleit voor verruiming van t vaderschapsverlof. mayb moeten ze de term ook in een nieuw jasje steken
best knap, staat voor miljoenen op het veld en hoe krijg je het voor elkaar om zo vaak te missen?!
wow! das heel vlot! 10 !
waarom mag mijn buurman in de arena wel met zijn telelens fotos maken? dat mag dan toch ook niet?
gopro moeten inleveren terwijl het volgens regels wel mag! belachelijk!
hallo, kunnen jullie achterhalen wat er is gebeurd??
hallo, in de app staat dat de bestelling bezorgd is, maar ik heb niks ontvangen. 3s henm 6488 691 tijdstip is ook vreemd.
helemaal niets in amsterdam!! n
bambambam!!!!
nog min 6 te gaan.... 01
uhhh.... ja, maar die verdediger kon weinig anders arm zat al langs zn lichaam. en die 20 is logisch. na 10 gaat de 2e makkelijker
niet eerlijk, weer een onterechte.....
ik duim voor een misstap van ajax, go utrecht!
auw, dit klinkt echt niet goed zo...
pffff.... te kansloos dit. wil je nu wel of niet kampioen worden? gepruts!
pfffff wat doe je pereiro?!!
forza
komt de bezorger nog? 3syqsy009034020
oleeee oleeee
waarom vandaag niet? baal echt heel erg. + aan de tel wordt er dus gewoon gelogen door je collega....
krijg ik mn pakketje vandaag nog??
is het pkketje nu op de afhaal locatie of niet? telefonisch net gehoord van wel. wat is de waarheid?
maar gaat vandaag wel geleverd worden?????
en waar is ie nu dan? wederom geklooi met de bezorging. hoe kan dit?
beste annet, dat staat in de fbeelding
rust er een vloek op mijn adres? wederom ellende! aflevering gewijzigd en hoppa vast in sorteerproces
nee, bij een van mn buren dus de halve straat gister avond lastig gevallen met de vraag of ze mn pkkt hadden. tijdsvak indicatie? pf
kunnen jullie mij vertellen welke buur mijn pakketjes heeft?
gefeliciteerd! gewoon de 3e x op rij te laat met bezorgen! wanneer komt mijn pakket??
klopt, maar pas nadat ik jullie heb gebeld en te horen kreeg nogmaals dat t morgen ging worden. gelukkig heb ik mijn pakket nu
pakketje niet op afleverlocatie?! gisteren aangegeven dat het vandaag daar geleverd moest worden. barcode 3s yqsy 0090 3199 1
ik heb indd het pkket ontvangen een uur geleden. zou het fijn vinden als jullie kunnen achterhalen wat de oorzaak is geweest.
bezorger is nog steeds niet geweest. wanneer komt ie?
en het tijdvak v aflevering is niet gehaald, wat nu? komt de bezorger nog? ik kan niet de hele dag thuisblijven voor dit....
er is indd niet aangebeld gisteren, was de hele dag thuis...
welke mail? die vn dat ze morgen weer komen? ik snap t gewoon niet, hoe kan de bezorger onderweg zijn en niks afleveren
nou, pakketje toch niet afgeleverd? en nu?had t net zo goed ergens anders kunnen bestellen
belofte gebroken.... wat nu?
maar welvandaag toch???
oke! enig idee hoe laat?
hoelaat komt de bezorger? volgens de app had ie er al moeten zijn. 3scooz0609886
vandaag tussen 1214u had mijn pakket moeten komen,nog geen bezorger gezien.komt ie nog? of is t
sinds hulp nodig heeft dit seizoen.
wauw! 😃💪🏼🎉
al 1,5u in de wachtrij voor tickets
ik sta al 50min in de wachtrij.
wauw! gewoon weer 3pnt in de
neeeeeeeheeeeee!!! kom op nou!!!
😱#kanweljanken pfffff.....
opeens een e4832 storing vanochtend deed tv het perfect. storing? zo ja, wanneer verholpen?
kak, wel een heel mooi doelpunt vn due ene gozer. 11
heeeeeerlijk! 01 😃🎉👍🏼💪🏼
yeahhhh!! 32 😃😃
yes!!! 31
brenet, je moet vòòr je man staan he?! pfff... kansloos op 10 achterstand 😔
dat geloof ik graag, de vorm van psv is nog alles behalve optimaal. hopelijk snel beter voetbal. nu geen punten morsen.
het arbitrale trio is echt de weg kwijt.
dat dacht ik😉
ik betwijfel het, tis nog niet echt een geoliede machine om naar te kijken, kan zo maar eens misgaan... hoop het niet😉
dat dan weer wel ja😉
bammmm!! 01 😃😃😃
geen idee, heeft nog niks gepost...
geen tv signaal in e4832 melding opeens tijdens t kijken. al enig idee wat de oorzaak is?
evt via een pb contact kan ook. figersscrossed voor reactie.
om jullie daar te zien optreden. je zou echt helemaal haar dag maken als je iets voor haar zou willen doen. alvast bedankt. 👍🏼🎉
je haar happybday wenst? ze heet dus charlotte en is 14jaar geworden vandaag. mega fan en gaat met kel&ampmij mee naar stoppelhaene
zou je op een papiertje happu bday charlotte kunnen schijven met je handtekening? en dan een foto posten? of een filmpje waarin
hi samuel, mijn nichtje is helemaal idolaat van je en ze is today jarig. zou je haar mayb een bijz bday kado kunnen geven?
hahaha! 😂 maargoed hopelijk zijn ze beide nog heel en lijkt de foto ernstiger dan t is... btw, wat denk je vnv 3punten?😁
buren van elkaar? of buren van jullie? hoe dan ook shit!
aanrijding voetganger auto? 😐
248769 vandaag ook wederom gemaild.
wanneer ontvang ik mijn geld terug? wacht al weken! 319€ graag contact en oplossing!
yeahhhh!! 02!
shit! verloren😔 ach, we worden toch wel kampioen😁
zooo... weer 3punten dichterbij de titel. nog maar max 5 wedstrijden winnen en we zijn weer kampioen😃
pfffff..... dit gaat m echt niet worden... 😔
niet met vrouwlief mee naar marcmarie?
volgens mij doet aan handtekeningen verzamelen.wat kan een lichaam lelijk worden door krabbeltjes.#geengeheel
pfffffieuwwww.... en zo staat t weer +2 voor 24
😃🎉
werkt de nieuwe versie van de al weer? staat nieuwe versie in appstore....
kampioeeeeeeeenenn oleeeee oleeeee
wat wil je ook met als scheids...
omg.... waarom zo spannend maken jongens?! pffff... 21
zo sta je 6punten voor op ajax, zo verpruts je het en komt ajax weer dichterbij. 😔
wie heeft ook het 06nummer in het voorstukje gezien en gebeld?!
hoppa! het kerstgevoel is er. welliswaar 2 dagen te laat maar t is eindelijk wit buiten 😉
woooowwwww!!! prachtig doelpunt!! 40
sterkte daaro!
aaahhh! te schattig! aaron is al behoorlijk gegroeid zo te zien.we moeten binnenkort maar eens langskomen om die kleine te zien☺️
wow! amazing! met
heeeeeeel veeeeel in !! 😃😃😃😃👍
wat een heerlijk weertje!
probeer al bijna een maand 2smartcards te laten verwijderen door , maar helaas ziggo belooft veel, maakt niks waar.
“@telegraaf de hitserie homeland krijgt een vijfde seizoen ” naiiisss😁👊
haha! goed bekeken van aaron.😉 nou ik duim v n punt en hopelijk 3 v jullie. tis toch t nl voetbal dat op de kaart gezetmoet worde
nu maar hopen op snelle gelijkmaker... aaron slaapt nog steeds? of heb je hem vrijaf gegeven voor de wedstrijd?
ziet de scheids er zo uit?
lijkt me wel beter ja. tja, maher had er gewoon moeten staan. pfff. maargoed, we kijken strx wel verder met 1oog.
winterstop komt er weer aan he, dan gaat t weer mis met 😢😔
yeahhh!!! ouderwets genieten! 02
nieuwphilips 32 te koopincl ambilight, full hd, smarttv
hallo, dinsdag zouden er 2smartcards verwijderd worden door medewerker, maar is niet gebeurd. help! wachttijd tel is nl16min!!
jochie? indd wel wat overdreven....
wat voor een is dit? ongeveer 2 tot 2.5cm groot&ampkan vliegen&ampkruipen. zat net bij ons binnen.#dtv
tadaaaaa!!! ik heb m!
omdat ik van hem hou. ❤️😘👊
vlucht cnd218 komt nu vanaf rhodos en niet vanaf kos? welke vlucht gaat er vanavond vanaf kos naar ams?
hello, klopt het dat vlucht cnd218 kosams wederom gewijzigd3e keeris en we nu echt midden in de nacht thuiskomen? 330aankomst.
grrrr.... 10 waarom? enneee als scheids zorgt natuurlijk voor voordeel
werkt alleen als je het ❤️ los stuurt.
whatsapp is aan t updaten op de achtergrond? emoticon ❤️ is opeens groot en kloppend.
bijnaaaaaaaa......
vanochtend gebeld om afleveradres te wijzigen maar niet geluky volgens mij. zsm alsnog wijzigen factuur aangepast iov aflever
oké, het seizoen is nog lang... ow wat een heerlijk plaatje is dit!! 😃👊
gm! today reizen en ik af naar voor 4 dagen 😃🎉
droom verder? is de dromer😉
iets met kampioen worden enzo... 😃😃😃😃😃 51
laat me raden... wint en alle ajacieden gaan nu vast zeggen ach, liever de competitie dan de jcschaal. tja...
kom ze vandaag halen. tussen 1617. gaaf joh! en op kantoor is het lachen geblazen ik in mn juichpak😜 jasje alleen😉
met of zonder harde krullen?
zeker! 😜 hoor morgen van je!
als jij voor mij 2 petten fixt en wat lekkers voor bij de wedstrijd morgen mag je de foto gebruiken😃⚽️👊
super!! gaan mn c1000 collegas vast gaaf vinden😜😁
hebben jullie nog 2 juichpetten met harde krullen? zag in de winkel dat de display leeg was😔. zal me goed staan c1000hq.
ready voor het
hallo, ik heb mijn 3s code nog niet ontvangen. hebben jullie die voor mij? ordernr109144
gefeliciteerd , ,
&amp &amp
voor elke gast een gave goodiebag?
bam!!! 31!!! maakt een prachtig doelpunt!
bammm!! 20!!!
prachtig statement van de ! 😁👍
pfff... wederom een fantastische wedstrijd van ... ahum.
goed bezig buurman!
gefeliciteerd!
21 ! je zult maar als kakkie nu tussen het schoonmaakmiddel zitten. je moet juichen lief doen terwijl je het liefst jankt ! 😜
eens! spannend &amp vermakelijk voetbal!
enn... ollie stond denk ik op de doellijn. bijna 21
ja, en matthijsen heeft wel iets weg vn poulsen.
haha! stuur maar een collo op, zullen wij proeven en jou advies geven. opnemen of saneren 😉
gm! strx 2 uur lang in tandartsstoel zitten... vullingen vervangen en wortelkanaalbeh.afmaken. jippie!
gm! weekend ging veelste snel voorbij.
. gefeliciteerd 020 tweeps. kansloze 2e helft vn 😢
balen joh! werk ze en moge de beste winnen 👊
24 !
spannend! nog 1 uurtje wachten tot de topper! ! goodluck 😉
👍
gm, weer een dagje ?
onderweg naar voor een met o.a.
gm! op naar de buuf, eerste vve feestvergadering is een feit!
.@alibouali snapt t! niet alleen elke vrouw, maar ook elke knuffelmocro moet een hebben!
doe je mee met de app? heb je net uitgenodigd v de poule.
zeker! knalt mooi door t huis! 😉
haha! ja mukmuk mn broer is ook van 020..... 😉
wow!! gaat voor €37.000 zometeen living doll doen!! 😁👍
kom op !! werk eens aan je doelsaldo!
echt hoor... al is het wel heel gaaf voor die 17jarige debutant!
zgan samsung smtc1140 decoder. factuur mt garantie aanwezig
philips hts3510 z.g.a.n. 5.1 home cinema met hd 300watt
“@klepdoos using viatube ” hiep hoi, ik ben weer jarig! 👍
ben je iets van je boodschappen vergeten? geen probleem is open van 8 tot 2100
open van 8 tot 21. bij moet u wezen 😉
weer c1000hq?
yes!! tv &amp radio weer nonstop aan... het is weer tijd voor
drama die tweede helft. enige dat telt is de uitslag. 3punten mee naar 15
top! als het 010 staat zal ik niet meer spammen
voor het eerst sinds weken
zolang ze cocu maar laten doen waar ie goed in is. bouwen aan een topteam!
echt lucky ajax... maakt het wel weer spannend daar boven. kan alleen nog maar van dromen voorlopig.
indd.. tijd v de ommekeer....
ready voor hopelijk staat er een ander team in t veld.
een of andere kerstfair ofzo. ook al heb je dakraam aan achterkant, was niks te zien... 😪
goed bezig buurman! gave lamp! 👍
buschjaeger usb wcd is binnen. straks maar monteren en testen. thnx to
pffff.... wat is toch een klein kind! kansloos geel pakken omdat je ff verhaal wil halen.
gm! wat vervelend wakker worden met dit als uitzicht.
gatenkaas!!! prutsers zijn het! 😿😡 25!
de man die eigenlijk al niet meer binnen de lijnen mocht staan maakt de 12
zou echt overleden zijn?
dat mag je zeker zijn! en zij al helemaal! wat een kanjer!!!
que? volgens . moeten we niet een verbod voor daken beklimmen opleggen?
ready voor de laatste ep van iii hopelijk komt er een seizoen iv
tja. mega mega kansloos ..... ze zijn gewoon nóg slechter aan t ballen dan zaterdag....
iets met vooral de liefde niet verklaren in de pauze van ...
ready voor een avondje ! avec
zit in de
zo! knap hoor !! terecht 10
ben je lekker vrij? kregen nl een out of office van je per mail. we hebben ellende in de kruipruimte
gisteren was top!ondanks slecht voetbal vn top plekken&amponwijs gezellig mt &amp
tnx! jij heel veel beterschap! jammer dat je niet mee kunt! 😿😽
today matchday! vanmiddag naar met &amp hopelijk ook als ze niet te ziekjes is.
woooowwwwww!!!! zlatan! wat een knal! 2 doelpunten in 4min!
“@iculture iosapp nest ondersteunt nederlandse en belgische postcodes door yessss!! 👍😁
mayb dan eerst de doc op tv zien? nu op ned3
haha! 👍
nxt time zal ik t van te voren melden dat dit op het menu staat! was erg lekker😁
eten jullie mee?
zaterdag al ontvangen via ! superrrrgaaaaaaffff! 🙀😸
ready voor de match!
jaaaaaaaaaaaa!!! happy bday!
beste medebezoeker van als je tegen iemands auto aanzit mag je dat best even melden....
gefeliciteerd! vet goed cijfer!!! 👍
hij doet t!
wtf! wat een hagel! het lijkt wel sneeuw.....
oh oh... schaars er af, hiljemark de aanvoedersband... als dat maar goed gaat....
. waar is de klok gebleven?
bril wezen shoppen met vanmiddag in
gm! ff ontbijten en dan naar de ...
en dan sta je gewoon al 02 achter... tja...
wauw! ze was echt super amazing! in
ready voor ! gezellig met 💙
wij zijn er bijna!
kansloos mr de scheids! wat fluit jij slecht vandaag....
wow! wat een doelpunt!! 32
beterschap buurman!
hebbbuhhh!!! 😁👍 kunnen we extra voorbereiden op dinsdag!
ja hoor, weer ouderwets in de file op de
dat is toch geen tijdstip?! sommige mensen slapen dan nog. zon grasmaaier onder je raam is dan echt k
grrrr!!! 😡😡 sinds half 8 al wakker omdat &amp zonodig lawaai moeten maken! dit is geen tijd om te grasmaaien!!!
toch byzonder. schöne komt er in, rode kaart celtic en opeens kan wel voetballen. iets te laat jongens. tja.
ai ai ai .... 20 een ding is zeker... is iig de manofthematch...
neeee.... ollie is voor de dierentuin. dat 010 wat pr heeft gedaan is fijn voor ollie. maar zeker weten
samen met ollie en de rest van nl zitten wij in
kast staat, nu kan het inrichten beginnen! 😁👊👍
ready om te knutselen met . schuifdeurkast in elkaar zetten. de zolder gaat een mooie loft worden! 😁👊
tijd om s verjaardag te vieren
dankjewel! &amp uiteraard jullie ook van harte gefeliciteerd met dochterlief😉🎉
oh oooh.... de regen komt zelfs naar binnen....
arias kan blijkbaar niet kiezen voor welke rkcer hij moet gaan. gevolg 11
iig een stuk beter ajax.
elleboog van de sa.. blom staat er bovenop.. maar nee, tuurlijk geen overtreding van de ajacied.
gelukkig heeft hulp van flutscheids want van t spelletje moet het vandaag niet hebben. go utrech!
moet lukken tegen een half rkc...
de keeper mist nog een mooi shirt!
ow wat is het fijn om zo lkkr dicht bij t centrum vn afoort te wonen.
schitterende goal. alleen in t verkeerde net... 21
wedstrijdje doen wie de meeste blessures kan hebben?
oh ooohhh! snel maar t eten opzetten en tijdens de wedstrijd maar op de bank eten. begint zo!
variabele rente tijdens de crisis sparen voor bier en wijn op het terras. weer een paar tientjes minder hypo betalen deze maand! 😁👍
aha! dingetje dus hoezo ben jij nog niet geupgrade?
gaf het icoontje van de klok in ios altijd al de tijd aan?
haha! nu opladen voor az &amp gae. moge de beste winnen
hè? in de laatste 7min vn de 2ehelft verlenging kan r eindelijk makkelijk gescoord worden. is dat niet heel zonde vn alle energie?
wow. vd hoorn gaat ff spelen als spits en meteen. bam. hoessen scoort! 32
hahaha beetje jennen moet kunnen
haha!
mooie trap... maar we hebben nog heel wat minuten te gaan... het goldengoal principe zou wel handig zijn geweest nu.
12 .... gaat goed met 😜 opvallend weinig tweets de afgelopen dagen
behoorlijk triest dit... de bekende ajax herfstdip volgend de media...
whahaha!!! 11 zit er mooi naast...
geweldignot. staat nu al achter. 01 voor ... telstar! tja. moet niet gekker worden!
en dan stapt opeens een er uit de auto bij
haha! iig een voetbal hart das al heel wat dacht ik zo😜👊
deze kat loopt bij ons in de buurt. wss verdwaald en huisje kwijt. wie is zijn/haar baasje?
iemand zijn of haar kat kwijt? loopt hier een los die wanhopig miauwt...
er hangt wel een hele donkere wolk boven huize ....
kampioenen!!!!! ole oleeeeee!! 40 en 100% terecht!
doen wij ook wel s
😄😉
kampioen? uh? 😜
als zelfs hiljemark kan scoren... dan is die club uit 020 wel heel kansloos bezig...
u2
bijna!! 10! laat ze een poepie ruiken!
ffies een paar stopcontacten in de meterkast gemaakt. we zijn van 2 naar in totaal 10 stopcontacten gegaan!
ok. hoe groot moet je kans zijn ? zelfs een penal krijgen ze er niet in... tja dan maar een 100...
nog 44min genieten van ios6. daarna als een malle alle idevices in huis updaten naar ios7!
have fun in barca! &amp hopelijk een goed resultaat voor jullie.
zo. partytent zit weer in zn doos. tuin ziet er weer uit als tuin &amp koelkast is leeg!geslaagde party!
de partytent staat al! morgen is het zover de housewarming!
de partytent staat! nog 2 dagen en dan is het
nog 5 stukjes plint te gaan en het huis heeft overal plinten!
bij het zien van onze meterkast, denk je dat er een man aanwezig is in ons huishouden. mooi niet! 😁
prachtige &amp tegelijk!
strx samen knutselen aan de berging met
moet je geen collegetour kijken? op
nee, wel een hupje van blijdschap! mooi stukje marketing op karton is het!
gelukkig! was al bang dat t niet meer mocht.
instructie voor het openen van de doos waar de nas in zit!
gm! thank god its friday!!
whahaha! iets voor ? voor als ze als puber strx dr paps wil dwarszitten? 😉👊