wow jullie gijs goed bezig vandaag bij bv!!!
schandalig!
voorlopig niet verkopen!! kunnen we nog heeeeel veeeel plezier aan beleven 😁
yesssssssss goed gedaan rood zwarten!
dubbele gefeliciteerd! !!
waarom??? 89e minuut....vriendschappelijke wedstrijd
✔ met mn 7jarige zoon die het de hele dag al nergens anders over heeft!!
ook op texel deze fantastische overwinning vieren 💪
wat ga je doen op texel??vogels spotten???uhhh ja dat ook en met een beetje geluk ook 😍
wittegijt????het is te triest. je aanval is je beste verdediging....tja kansloos!
gaat lekker....na 9 minuten.....pffffff come on psv we zijn begonnen!!! wakker worden!!!
jij moet nie naar buiten kijken maar werken 😂😂😂
mag hopen voor meer dan 6 miljoen als ze hem laten gaan
yessss lekker in t zonnetje 😊
cream and sugar in de goal....best lekker 😉
besloten trainen prima, maar ook heerlijk dat het zeker voor de jonge fans ook nog vaak open is. mijn…
ik kon n lach ook niet onderdrukken....en dat commentaar echt te leuk. lekker zuur!!!
maar.....in het verleden behaalde resultaten bieden geen garantie voor de toekomst 😉. de ladies gaan t anders doen!!
heel veel plezier!
nondeju rob, 27e in de top 500 vh foute uur
feestjuhhhhh
hoppa! nie meer afgeven mannen! !!!
ga t zeker doen....morgen. ..kan nu niet meer op de site komen! duim heel hard dat er kaartjes terugkomen!!!!
dank je voor de tip! zal me op de wachtlijst plaatsen al ben ik bang dat niemand kaartjes…
uitgeloot voor bij 😭😭😭...wat n baaldag!! dan maar genieten vh 🌞🌞🌞
nou gelukkig maar dan....liever feyenoord dan ajakkes!!!!!
top...gaan we t een beetje volgen!!!
hoe laat is de uitslag? denk je? xx suus mijn batterij is leeg
wtf.....da kan nie. wat word t dan in de morgen?? mattie zonder wietze is als friet zonder mayo! !!
goed gedaan jongens! gefeliciteerd! !!!
zo zonde dit pffff
phoxy......waar blijf je??????
miniem kansje is een kansje!!!
en dan denk ik aan brabant want daar brand nog licht
gunnen misschien wel maar de mooiste feestjes zijn in brabant!!!
hoger dan hoog! je moet iets over hebben voor middagje tennis met je vader
wat leuk! mn ouders zijn ook weer vd partij!!!
aan ineke, mijn lieve maatje! ze zal psv steunen tot aan t gaatje! !!!
👌 3 punten dat is t belangrijkst enne nu hopen op puntverlies voor ajax
dan liever de 02 als je t niet erg vindt 😉
zooooo schattig! thanks voor de leuke middag!!
zowat in de achtertuin, dan moet ik toch ff gaan kijken
uhhhh steef, doe iets met je eigen tip 😂😂😂😂
ik ben er sowieso bij, maar zou mijn 2 collegas er super blij mee maken!!!!
die v luuk de jong gaat naar enschede? ??? rijd ik nu vast aan 😉
ga jij kijken maar max????? gaaf!!!
haha inderdaad. maarja dan is ons marc al om half 7 wakker 🤔 das iets minder
yep idd...verschil tussen zilver en goud
erg jammer! hadden het in de reguliere speeltijd al af moeten maken! stomme goals tegen....
ja idd te spannend gewoon.....fingers crossed
hebben we bijna tzelfde alleen de eindstand niet...
waar was je in best? damn dit hebben we gemist...
suc6 in duitsland! houdoe en bedankt!!!!!
zou wel willen maarre moet nog bijkomen van het foute feestje van gisteren!
je was fantastisch! !!!
mooi! have fun! ik ben ook al halverwege!
bodempje voor we jaar guus gaan
gefeliciteerd giel! mooi dag om jarig te zijn 😊
gefeliciteerd mannen!!!!
jaaaaaa! eerst cursus in amsterdam dan snel met de trein naar t feestje in eindhovuhhhhhhh! !!!
mijn procentje! wat n ontknoping! !! eens per jaar......#fijnfisjenie
blijven hopen! vanochtend gaf ik psv 1 procent kans...zou dit mijn 1 procentje zijn?????
of de graafschap 1😉
dit is net van het tuterrein af. nu nog ff huiswerk maken dan echt weekend!!!
na wat magere jaren was 1415 een top seizoen
we hadden bovenaan moeten staan. belachelijke pingel!!!!
en hij is er gewoon bij...vd hoorn!
jaaaaaa graag! ik houd twitter zeker in de gaten! !!
niet erg...dan mag hij zondag meedoen! bied kansen!!!
humn zo ziet t er nu wel uit maarre ze hebben nog efkes te spelen!
gaaf hoor! hoop je zo ook bij psv te zien!!!
jeuhhhh je stem heeft de doorslag gegeven!!
hoog...maar we zijn erbij
wow goed gezien suus!!!
op weg naar utrecht...koffie nu echt noodzakelijk
nu ff niet maar t is verdomd donker!!! tot zo
hoe ist met je arm??wel zonde van je vrije dagen!!!
sluit ik me helemaal bij aan!!!! vorig jaar met via vierdaagse succesvol uitgelopen!!
buikspieren deze week al getraind. vanavond ns kijken hoe mn lachspieren ervoor staan
.@nespressonl mijn favoriete koffierecept is de ​#​sweetalmond. wat is jouw favoriet?
mijn favoriete cadeau zijn de wat is die van jou?
jeuhhh geen kaartjes voor adele wel voor guus!!!!
skon kadootje...3 punten mee naar eindhoven! hoppa!!!!
ondanks de regen super leuk in de efteling. thanks
blijft n super feestje!!!#culivers
was heerlijk samen met ❤ nu weer fijn bij kleine man
vanavond eten in maastricht maar waar? ?? iemand tips voor lekker maar niet al te duur???
spannend hoor
vast heerlijk met die truffelkaneelpepernootjes 😉
zo leuk zijn!!!
jaaaaaaaaaaaaaaaaaaa heel graag!
zoveel te zien....genieten met mn mannen
als ik n klacht heb, waar kan ik die indienen???
haha ja idd al vond ik persoonlijk die tegen spanje mooier 😉
hij zat er lekker in!!!!
leuk maar daar koopt psv natuurlijk niks voor! t is elke keer wel wat...
smakelijk eten! ik clubke aanmoedigen 💪
veel plezier! ps mooie lokatie ! hebben wij toen ook gefeest
wowwwwwww jaloers! veel plezier! !!
zo gezellig n trein met verder niemand erin
ik hoop dat ik nog wakker ben als heel holland bakt begint slaapverwekkend
joh we zijn al begonnen hoor pffff
gelukkig hoeven wij alleen maar te kijken 😉😂
oh yes snel weer in het philipsstadion!!!!!!
psv moet de kansen benutten maar zoveel officials hebben geen zin als ze allemaal naar tzelfde kijken dan overzie je het niet!
fraaie goal dat zeker maar die 12 moet je over de streep trekken!
goh jij durft 😉 maarre ik wil wel weer een feestje! !
dank je! erg blij mee!!!
hebbes!!!
zeker! kom maar op met die gladiolen!!!!!
3e dag gered! !! geen bloed, wel veel zweet en blaren. maar kruisje komt in zicht!!! al moet t kruipend!
voeten onder de blaren tijdens training niks 😕, maarre geprikt, afgeplakt en hoppa we gaan vandaag!!!!
en we hebben t nog steeds super in nijmegen. deze skon bloemen kwamen we weer tegen
dagje 1 was top. op naar dagje 2
thanks! leuk dat je er was. toch nog even gezellig n drankje gedaan!
top gegaan! mn maatje problemen met scannen waardoor we 2u bij centrale adm hebben gestaanzwaarder dan 40km! morgen weer!!
startnr is van susanne vd sanden, die loopt met mij en maakt zich zorgen. mijn loopnr 40k678 doet t wel.wil je dit checken?tnx
..4walker geeft geen starttijd. ben bang dat ik niet geregistreerd ben. wat nu???loopnr 40e421
dank je! plezier hebben we al..kom je vrijdag naar nijmegen??zoja,laat ff weten waar je staat! geen fontys shirt katoen 😕
we gaan je missen in ehvn! bedankt....enne veel succes in engeland!
opgestaan zonder spierpijn 😊 dus ik heb er zin in! nog n maandje! !
uitgelopen! mooie omgeving, mooie tocht. jammer dat de falconwalk stopt...
humn balen. dan overweeg ik n kortere afstand ivm lichte blessure aan mn kuit. kan dat ook??
wat hebben we t toch slecht...met mama naar cubanita dan guus meeuwis
kunnen jullie zeggen hoe de route vd falconwalk is? heb gehoord veel onverhard en heb wat kleine klachten dus twijfel nu!
ff onthouden
ai ai ai dat zal niet voor iedereen meevallen goede aktie
jaaaaaa ramon was een zeer geslaagde dag!!!!
ns kijken of we vandaag de 40km aan kunnen tikken mariamaand dus den bosch 💪
ff wat anders. wandelen in doorn
dat is snel zeg! suc6!!!
gefeliciteerd met je transfer! suc6 bij man united!!
heel veel plezier in enschede! !!!
gefeliciteerd!
il wil met mn gezin + schaal op de foto, niet met die dame! snap de link nie.....
heerlijke wandeling vandaag in geldermalsen, nu hup hup opschieten en naar het stadion
heerlijk! lig voor op schema dus 25 was heel goed te doen 💪
lekkerrrrrr tot zo!!!
pffffff al wakker.....en t word zon lange dag 💪
gezellig! tot morgen!!!!
haha ik ook! mn luikjes vallen dicht!!!
heerlijke dag vandaag
fijne middag dienstf
een keertje met de trein naar het werk heeft ook zn voordelen
vroeg!!!op weg naar t hoge noorden
alweer op voor een 2e wandeltocht deze paasdagen
heerenveen! thuis kampioen worden is t mooist!!!
al de hele dag inlogproblemen. word er doodmoe van
op weg naar nijmegen
top! dank je voor t snelle antwoord!!!
moet ik voor de bloesemtocht online opgeven welke route ik ga lopen?of wat staat er op het startbewijs? en de parkeerkaart??
veel plezier vanavond met zn allen enne rené heeeel veeeeel plezier in londen met !!!!
van 250 extra calorieën word ik niet zo blij....hoop dat t om verbruik gaat
dank je wel voor de snelle reactie! !!
ik heb me aangemeld voor de bijeenkomst morgen in breda. waar wordt deze gehouden??? heb ik de email hierover gemist??
mmmm pannenkoeken eten
jaja we zijn er klaar voor...eerst carnaval op school dan mama aan de rol
donderdagmiddagborrel
op weg naar tilburg. 23km wandelen...zin in
thanks voor de tip. komende zondag wordt t in ieder geval wandelen in tilburg, dat stond al gepland!!!
dank je! gaat goedkomen. heb er nu al super zin in! vaak aan wezen moedigen nu zelf aangemoedigd worden...fantastisch!!!
happy!! ik heb mn startbewijs in tha pocket! nu goed trainen en in juli knallen
hoe kan ik mijn gebruikersnaam v ziggomobiel aanpassen zonder telnr? heb bestelnr en emailadrew kunnen jullie daar iets mee??
tering wat vroeg...op weg naar groningen
om kampioen te worden moet je ook de lastige wedstrijd bij nac winnen
ajax komt binnenkort naar ehvn, dan moet het verschil toch 9 punten worden!
schaam je dood psv. naar huis lopen zal ze leren. alle ballen op de competitie. ..gaszzzzzz erop!!!
gefeliciteerd thijs!
zoveel clubs enne wij weer tegen rusland pfff
dat viel ons ook al op. sloeg nergens op. er was maar 1 team wat er voor ging en die heeft de 3 punten ☺
glazen zijn op haha ...krijg je vrijdag
beschaafd feestje thuis moet kunnen
mooie grijze staande lamp te koop bieden
lekker in amsterdam met papa
whoop whoop we zijn binnen...man man wat n file. maar dat mag de pret niet drukken. de kleine man heeft er zin in
met t gezin n dagje weg
er is maar 1 mevrouwtje appel met superrrrrrr mooie sieraadjes! maak je niet druk om die rotte appels!!
ohhhh maar das zeker heerlijk!!!
wat ga je voor leuks doen???
zeker mooooooi! ben je bij llafrance in de buurt??
niet echt vervelend als docent..uhhhh komt hij ook kennis maken bij dienst f???
kijkt die ff serieus......
gekkigheid! zoals we dat hier zeggen....t was kei gezellig!!!
gelukkig!!!!
klaar voor vertek...heb er zin in
zoet!!!
wanneer komen kaarten in de verkoop voor vrijthof 2015?
op zoek naar n fietsje voor mn bijna 4jarige bink. hoeveel inch???
ik reken t goed jochem!
mmm jammi. smakelijk ladies!!
geweldig maaike!!! suc6 en veel plezier! !!
onderweg naar amsterdam met pap en mam
gezellig vrijdagborrel vanuit t werk met collegas. ..moeten we vaker doen!!
tis zonde!!
samen nog moe vd spannende wedstrijd! !!
man man je zou er hartklachten v krijgen! te spannend gewoon
pfff te spannend gewoon
smakelijk! !!
goh lekker hoor....hoe laat eten we ??????
home sweet home!!!!
wat was t heerlijk en gezellig! bedankt voor de fijne tijd
heerlijke lunch ...nu weer op de fiets!!
zoooooo, goed bezig!
ik heb tzelfde net getweet haha....@doktertweets hij juicht zich suf
staat je goed dat pak hoop dat er ook wat te juichen valt!! flink aanmoedigen! !!
oh jawel hoor...de hele week al oranje op s1...de nagels zijn mooi oranje gelakt!!!
kei leuk! kan ze al roodwitblauw??? leuk voor wk....
omdat mark gewoon fantastisch is!
voor de tigste keer de ruste zelve kijken ....blijft zoooo leuk! ik zeg
goh, uitgestorven hier op s1...luxe paarden/ werkpaarden
graag gedaan...belofte maakt schuld vond t ook erg leuk en wat n mooie armbanden weer!!!
gezellig! lekker genieten met zn allen en pap nu natuurlijk met zn vrije tijd!!
ons gebouw dienstf ook???? is donderdag 29 hemelvaart en vrijdag 30 mei gesloten.
klaat voor grootefair in rosmalen...meet met ! uhhh hebben jullie zin in taart???
met de allerliefste op weg naar utrecht spoorwegmuseum
lekker in t zonnetje! goei muziekske, flesje jillz..mij hoor je niet klagen
ze hebben t heel mooi gedaan! nooit zo spannend geweest!
nee hoor, zijn er meer zodra de nieuwe uit is zit ik met papa in de bios! wat is erger
jaaaaa ....leuk hè als bondfan vind ik t niet zo erg....maarre hoeft niet iedere dag!!
wat n verwennerij. ..asperges...mmmm
ohhh marleen...leuk leuk leuk! fotootje als ie er is!!!!
tjee t is wel vroeg...hup hup op weg
jeuhhhh ik ben er ook! leuk leuk leuk op mn verjaardag!!!!
daarom zei ik t ook. ..heeft je vast wel n glimlach bezorgd...toch?!?
niet verwacht wel dik verdiend! proficiat pec zwolle
t was fantastisch! ik hoor je nie super!!! bedankt voor de fijne avond!!
n dag niet gelachen is n dag niet geleefd! gaan we straks maar flink lachen
helenaal mee eens bas. als de spelers eerst 2.5% salaris inleveren. dat lijkt me n betere optie! loon naar werken!
+3kg spieren 15kg puur vet...sojedu dat zijn 60 pakjes boter
psv moet zich schamen! ter compensatie van dit fantastische seizien zouden de seizoenkaarthouders korting moeten krijgen!!!
snoep misschien ???
ohhh wat leuk! t is ook een echt scheetje! we zijn er ook zo blij mee!!!!
10 tenen! ook bij dudes en divas in oirschot hebben ze leuke schoenen en daar helft vd prijs!
hij is heftig! ik ben afgehaakt
weer t normale leven...morgen weer werken. maarre wat was londen top. waar gaat de volgende reis heen???
hebben hebben hebben victorias secret
mam vond t fantastisch! ze was in ieder geval niet bang in t vliegtuig! !!nu mama mia jeuhhhh beetje moederdag
ohhhh maaike wat zijn we er blij mee...in vliegtuig gegeven naar amazing london
mmm dat weten ze bij mij thuis niet denk ik...voor mama is t fish &amp chips
hoppa velthuizen...01
heerlijk luie avond
leuk!!! dan vier in mn verjaardag in rosmalen en zoek ik n mooi verjaardagskadootje uit
wasmachine draait overuren, marc is ziek.....ook overuren voor pap en mam
haha ik hoor hier ook vrouwke en snollebolleke...t gaat nog ff door ben ik bang
ohhh heb ik je gewoon gemist marleen...heb inge en marieke wel gespot!
zo, de fanfare buiten gezet enne weer gaszz erop! ontbijtje bij dn ekker dan dweilen in best.....t kan slechter. ...toch?!?!
ohja zeker maarre ik had eerder moeten passen. ziet nu niet echt uit...ach,morgen is mn sportoutfit weer droog + biervrij!
humn..dan kom je erachter dat je carnavalspak van vorig jaar toch echt vuulste groot is
geziet v je minivakantie!!!
mmmm lekker. geniet ervan dames!!
heerlijk!! fijne avond!!
weer n goeie dag.....goud en brons
bedankt voor t gezellige feestje phoxy
duidelijk....park!!
wat zegt je voorgevoel???
gelukkig had je t mis wat betreft sven! 2 vingers in de neus! mooi hoor 1 2 3!!
verslaggever foxsport manu trekt de haren uit zn hoofd....uhhhhh welke haren
dat werd tijd ook!!
mmm lekker! gefeliciteerd! !!
super mooi! ! oma zal erg blij zijn!!!!
gefeliciteerd met mams!
jaaaaa die heb ik ook voorbij zien komen. leuk idee heeeeeel mooi!
vindt mevrouwtje appel vast niet erg! zon mooie nieuwe dingen weer. ...ik wil ook wel weer
welke kleur ist geworden? ?
wat was t n gezellig feestje in t klokgebouw gisteren bedankt voor de kaartjes t was top!!!
jaaaaaa leuk! ik neem t op. zaterdag manloos dus heerlijke meidenfilm!!
kan allebei. ..of lekker meidenfilmpje erin ofzo?!? bridget jones en notting hill zijn bij mij wel favoriet!!
idd ai! werk ze marleen!
wel heeeel veeeeel sale! en hoe fijn als n esprit broek weer n mt kleiner kan dan vorige mnd! en 50% korting
weet nie hoe t vandaag is maarre gisteren druk. hoezo ??
heb t opgenomen. morgenvroeg lekker met n bakkie koffie erbij! mmmm
dat werd tijd! heerlijk! nu knallen
uhhh dacht t nie steef....heb me nie voor niks uit staan sloven op n lekkere lasagna
club challenge en club cycle. bikkel! nu bankzaken!!!!
zo vaak als ie wil, maar er zit niet altijd wat in gelukkig begrijpt marc t schoen zetten nog nie zo
macaroni met heeeeeel veeeeeel groente. ook gezond!
wij zitten er klaar voor. welkom sinterklaas en zwarte pieten
ja echt fijn weer ja. wij zijn naar de kinderboerderij gewandeld. ..daar bij je paps...heerlijk!
ahhhhh maarre hij komt zaterdag al naar nederland dus dat duurt niet meer zo lang
passie en de strijd ontbreken! team moet zich doodschamen! !!
mmm gezonde culinaire hoogstandjes van bas en stefan. laura &amp ik proeven graag
wat n gaaf programma
op tijd eruit..lekker sporten. straks erop uit met schoonmoeder en schoonzussie
altijd gezellig leuke dingen doen met je paps!!
echt gaaf kado
heerlijk marleen! ik ken t gevoel!! je hebt er genoeg voor moeten doen, dan is dit n heerlijke beloning!
echt erg ja. onze jack russell is n beetje de weg kwijt
zo weer ff flink gesport, nu tijd voor bankzaken
belachelijk zo vroeg al! gelukkig heeft marc ze nie gezien die vind t nu al te spannend....
dat blijft n leuk item ja. is t gelukt??
heerlijk zon lang weekend. dinsdag pas werken...dus lekker lang samen met mn kleine grote man ♡
das balen! wij nog weekje bikkelen dan zijn we 2 weken vrij enne ok nog met kerst en nieuw dus heerlijk vooruitzicht!!!
bestse derby kijken op sportpark naestenbest wilhelmina boys best vooruit.....come on bv
dat snap ik! da is t liefste wat je kunt hebben!!!! ♡
widm eindelijk de ring! dik verdiend!!! gefeliciteerd
en mensen gewoon poepzakjes meenemen! is nie zwaar en ok nie zo moeilijk! !
ohhhhja...dat kan je nu nie missen. echt fris hoor!
haha dat was ook t eerste wat ik zei
gelukkig niet zon pijn al lijkt mn lip net zo dik als die v patty brard..fijn moedervlek verwijderen
jij ook al. ik word de hele dag al nie warm. bah!