we hebben kans want drama staat niet in de basis pfffff blij kom op
wat kan twitter toch spannend zijn. en dan voelen winnen vanuit florida. congrats to and roglic 💪🏻💪🏻💪🏻
knap gekoerst niet geprobeerd is zeker geen winst. mooie poging en super gave prestatie 💪🏻💪🏻
mooi project !!!
flikker die het land uit. waarom krijgt zon figuur nog zendtijd pffff
echt iemand die altijd het goede voorbeeld geeft😳 als psver blij met deze keuze onsportieve lul
eindelijk morgen naar onze berg mijn koppie ff leeg en in gedachte bij alle mensen…
de fietsen van team zijn geladen en onderweg naar onze berg
geweldige reactie op je zou lid zijn van zon klote organisatie fnv. ga toch werken…
klantenservice????? &gt10 min wachttijd 😳. waar staat woordje service voor? pffff
kruijswijk 3e op 3.19
wat hadden die van de week ook al weer gedaan? veltman speler in oranje???? blind is…
gelukkig geldt rode kaart zondag niet dus mag gewoon spelen tegen zon zwakke speler heb ik graag tegen. forza psv 💪🏻
lamlendige klootzakken verdienen dit seizoen ook niet meer. schaam je kapot wanvertoning wederom
omdat wij deze kunnen veilen voor alpe du best en daarvan de opbrengst volledig naar de strijd tegen kanker gaat
en wij niet van blind 😬
aanklager slaapt nog of heb ik iets gemist? niet normaal dat daar niet tegen op wordt getreden
mooi item toegevoegd aan de veiling van 115x75cm. opbrengst voor bieden kan…
voor de veiling voor de strijd tegen kanker!
een lekker avondje kunnen genieten in theater van en dan thuis komen en zien dat 020 uit de beker ligt. 😄
wooooow wat een prachtig groot aantal. goed bezig👍💪🏻
goed bezig👍
doneer aan marcel van kessel
mooi gebouw opende achtergond
nee een gemeente moet geen ondernemer spelen met geld van de gemeenschap!!
de keeper van remco pasveer hoeft vanavond niet te douchen slappe hap
nog steeds niet toch 😄
ik snap het helemaal maar er zijn spelers die ook nog wat cash willen. hier in za wil elke politieagent wel wat 😄
geld moet rollen 😄
wat ben je toch kritisch, geduld want wan het einde van het seizoen worden de prijzen toch pas verdeeld 😉
zelfs tot op kaap de goede hoop steunen wij ons cluppie
zou toch jammer zijn! is veel beter en heeft meer werklust dus geef hem de kans
spuitje geven is veel goedkoper
narsingh mag je weggeven levert toch niets op maar niet verlengen aub
gedoneerd natuurlijk voor alpe dkids
gemeenten moeten niet op de stoel zitten van ontwikkelaars met geld van de gemeenschap!
maar meer dan uur om plasje te mogen doen en dan half uur om terug te kunnen is niet normaal
wat een slecht georganiseerd concert. regenbuitje ff plassen en weg concert 👎👎👎👎👎👎
editie 2016 was weer geweldig. wat heb ik genoten en wat ben ik trots om deel uit te maken van deze club vrijwilligers bedankt!
mooie tussenstand donaties voor inclusief de toezeggingen &gt€ 172.000 !!!! dank aan alle donateurs.
team sponsorwerving heeft een uniek uitstapje geregeld voor trouwe sponsoren
wat een held respect dat je het gaat proberen! diepe buiging een heel veel succes gewenst.
nog plaats in de bus van alpe du best. vertrek 29 mei en terug 4 juni vanuit best €70 pp retour en fietstrailer
wat gaaf zoveel gesponsorde trucks met vrijwiligers te zien. zonder transport staat alles stil. dank jullie wel!!!
ook sponsortruck is klaar. 318 stickers a €100 levert ruim €30k op op naar frankrijk
uitzwaaifeest geweldig succes. tussenstand donaties &gt€150.000 dwz in 6 jaar meer dan €1.000.000 gedoneerd
zie deelnemers gerrit van heusden
super mooi sponsort naast ruim €40k ook nog eens 500 liter gratis diesel voor daar wordt je toch blij van!
er kan geboden worden! staat op onze site
super blij met de steun van voor shirt van voor onze veiling bieden !!
geef bergwijn dan speeltijd ipv strik erom en zelf wegbrengen
hoe kan je zoiets recht praten pffff
dat wil zeggen dat als we €130k ophalende jaar in 6 jaar met dit team boven de €1.000.000 komen 😄😄😄
mooi moment. schiet deze week door grens van €100.000 aan donaties. morgen spinningmarathon dus door.
weer een leuke actie!!! liever geen geld geven als sponsor? dan maken wij er geld van 😄
jammer dat zo veel werklust niet beter wordt beloond. succes want je verdient het
meereizen voor max €75 pp naar alpe dhuzes? vertrek 295 en terug op 0406 interesse? mail info@alpedubest.nl
wel erg vroeg voor maar we zijn er wel! jij ook?
ga gvd politiek bedrijven en ons land sturen anders hebben wij dadelijk 16 mio bedelaars. het wad mooi feest!
ga politiek bedrijven en meng je niet in zaken die je zelf niet hebt beoordeeld. zwaar overtrokken
dat wil zeggen 4 teams met elk 16 shirtsponsoren 64!!!! voor
kei leuk is het alsnog geworden 😄
€5 verliezen bij was zelden zo leuk. hi hi en wij staan boven aan en wij staan bovenaan
2016 gaat super. al weer veel donaties binnen. tussenstand €1.951.445 ! wat zou het mooi zijn als we dit weekend de €2 mio halen
die vissen bij texel maken er een potje van
kijk naar de presentatie van team sponsorwerving op de site van met praktijk voorbeelden en tips
aangenaam verrast door mijn cluppie kei bedankt voor dit mooie kado. opdrinken in april 2016 bij kampioenschap?
mijn inschrijving voor 2016 is een feit. als trotse vrijwilliger en teamcaptain strijd ik weer mee
onze eigen voetbalbond lijkt wel op de maffia bij . ongelooflijk wanbeleid bij oranje en geen eenduidigheid in strafzaken
geef gratis weg aub. 2x45 min mens erger je niet kan ik thuis ook doen opzouten aub
het ligt aan 3 dingen instelling, instelling en instelling
team is er zeker met veel inzet en passie. al 28 aanmeldingen en na onze film van 2015 gisteren volgen er meer!
heel veel succes!
spanning stijgt. dadelijk de première film 2015 gemaakt door ben benieuwd mooie herinnering
brede fietsschoenen van zijn fijn! en lekker ook brede mogelijkheden.
met een grote glimlach vertrek ik uit 020 hi hi
gemeenteraad wordt voor de gek gehouden lijkt me. discussiëren over supermarkt in dijkstraten die er niet komt 😁. vreemd toch
gewoon iedereen abonnement opzeggen van deze klotekrant . verslaggever ooit al iets voor ander gedaan?
ook onderweg naar cheque uitreiking. benieuwd naar het eindbedrag 2015. en ook in 2016 weer van de partij
heel mooi doelpunt van bij het roodzwart doet hem goed 😄
team krijgt vorm. al 28 deelnemers hebben zich gemeld dus het leeft op naar 2 juni
als voorbereiding op 2016 vandaag de stelvio beklommen. 48 haarspeldbochten pffff wat een klim
wat kan topsport hard zijn. maar heel nederland is trots op goed gestreden!!! 💪🏻💪🏻💪🏻
jullie gaan toch wel helpen in vandaag? laat ons land juichen want ⚽️lukt het ff niet
heel veel succes vandaag in de maar ons hele landje is nu al trots op je klasbak!
kan ik dan ook mijn vier eigen plaatsen terugkrijgen?
klasbak petje af. boven de 50 km/uur pfffff voor ons. man wat kan jij afzien 🙏
wat kan sport mooi zijn als je helemaal alleen zo ziet strijden. super gaaf
natuurlijk doe ik mee. mooie tocht en goed georganiseerd! ook mooi weer geregeld?
je zult met trots rondrijden in ad6 kleding en veel andere kanjers tegenkomen,ontmoeten!#trots
kleding van natuurlijk 😄
zoekt nog centrale verdediger. gratis af te halen in 020 maar niet doen aub!!!
over het weer? wanneer doen we het weer? 2 juni 2016👍
trots op de nlstrijders tijdens met en 💪🏻💪🏻💪🏻 met hoofdletters
, eveline, gegevens zijn leonie van gorp, w.overdijk1@upcmail.nl of via
mijn collega boekt in januari caravan in italië bij en hoort nu overboekt 😁. geen alternatief want alles vol
dank je wel voor leuk artikel in de laatste uitgave
aan de slag voor 262016 na weer een moeilijk afscheid van iemand die de strijd heeft verloren.
ben benieuwd ! laat maar xien😄💪🏻
na de zomervakantie verwacht september
film wordt gepresenteerd in lange en korte versie en wordt gemaakt door@creativepancakes
na de inspanning van weer tijdbom bloed te geven
onze truck van gaat morgen verrekken. trots op al onze sponsor !
de veiling van is gisteravond afgesloten met een mooi bedrag van €7.654 voor de strijd tegen kanker op baar €120k
met veel trots vandaag de nordeifeltour gefietst mooie tocht en mooi tenue
en dan heb je 2500 appelflappen verkocht voor met team dank plus erwin kenter en ton henst. ruim €2.000 voor
appelflappen verkopen voor bij 4 voor slechts €3,00 smullen en
er wordt al aardig geboden op veiling origineel shirt van 100%
er wordt al aardig geboden op veiling origineel shirt van 100%
3.000 gratis sponzen moet toch wel lukken? help deze kanjers aub !!!
mooi hé, 268 stickers a€100 voor de strijd tegen kanker fried en ad dankjewel !!
echte supporters staan op de spelersbus van met veel anderen. toch leuk dat ik daar tussen sta.
shirt geschonken door die ons steunt met ik zeg bieden maar
hoe kan het mooier op de dag dat een toptransfer krijgt wordt ik blij gemaakt met shirt van hem voor veiling
brands krijgt van veel mensen kritiek. hij zet fantastisch werk neer bij toptransfer maar nu hoor je niemand 😁
is erg goed wn keept fantastisch maar is buitenaards wat een klasse !
die nijhuis kan beter een dameskapsalon beginnen. pfffffggg
en de achterkant
en de andere kant ook vol
truck gratis ter beschikking door fried van de laar en ontwerp en beplakken gratis door ad van de meulengraaf van meulengraaf reclame.
en de achterkant nog
en de andere kant ook vol natuurlijk!
ontwerp sponsortruck klaar maar liefst 268 stickers a€100 verkocht! mooi he?
geweldige spinningmarathon top avond met allemaal enthousiaste kanjers
en mooie opbrengst van circa € 3.000 voor trots op en alle deelnemers! samen doelen bereiken. iedereen
met een handtekening zeker iets voor de veiling van voor 2015
mooi artikel over@@alpedhuzes motards in al deze vrijwilligers zijn onmisbare kanjers. bedankt tot 4 juni
spinningmarathon 10 april van nog paar fietsen beschikbaar. sportief, gezellig en goed doel steunen
happy verjaardag
uniek nieuw veilingartikel op vip arrangement proloog de france 2015. bied mee en 100% voor
spinningmarathon op 10 april en ruim 60 fietsen a 5 uur verkocht. nog enkele fietsen beschikbaar.
kijk op daar komt heel binnenkort de presentatie van team sponsorwerving van deeln.bijeenk. 7 mrt
ga toch werken !
vanavond ons koersshirt presenteren. alle 4 teams zitten vol met 16 shirtsponsoren a€500
vanavond teamvergadering tussenstand donaties en veel meer op agenda. ook presentatie jas/polos met elk 31 sponsoren
dit shirt fietsen we met team met veel trots naar boven. sponsoren bedankt ! gaaf hè?
team gaat naar limburg !!! genieten
vandaag zie ik de wedstrijd psvdor niet maar ik zie dat iedereen blij is met wissel van
wat een drama al weken dissonant van
wie is wij? inwoners ook gehoord?
matchfixing keeper gehuurd van 020 !!
de veiling op is geopend. schitterende schoenen van opbrengst voor bieden!
tijd om streefbedrag van actiepagina te verhogen want het gaat lekker. inmiddels de €5500,00 overschreden
zal me goed staan op de markt als ik het kampioenschap vier!
ondaan van willem ii
hopelijk meer verstand van fietsen bauke! forza
ik denk dat jullie moeten zoeken bij iemand die last van ongedierte heeft😄
fijn gijzelingen over maar moet ik nu blij zijn dat die klojos al dood zijn? had graag gezien dat ze langer moesten lijden!
erik van loon op grote hoogte! fijn zon kanjer in ons team! op naar4 juni!!! gas er op!
wij zijn nu al supertrots op ons teamlid van erik van loon, dat wordt weer knallen 4 juni
lekker afgezien op mijn tacx om te trainen voor 2015. nog 5 maandjes!
altijd welkom natuurlijk
en zo ziet het er uit tijdens de koersweek
teamalpe du best direct aande funish
mooie tussenstand voor ruim €35.000. sponsoren en donateurs bedankt! maar we gaan knallen in 2015.
jippie witte derde kerstdag! ho ho ho
ik ga aan gewicht werken want als je zwaarder bent daal je sneller
er zullen her en der wel weer wat eencelligen in het stadion zitten maar die gaan huilen
spanning stijgt voor mijn cluppie tegen 010. het hoeft geen 100 te worden maar 90 zou prima zijn. gas er op en knallen maar👍
dank je wel voor dit leuke en originele cadeau succes
nog iets over de veiling alpedubest.nl tgv 2015? mail naar info@alpedubest.nl
super blij met dit mooie aandenken ontvangen van team trotse teamcaptain met €110.000 opbrengst
op terugreis van 1e deelnemersbijeenkomst vol energie en mottivatie. trots om vrijwilliger te zijn van dit geweldig evenement
onderweg naar eerste deelnemersbijeenkomst op naar 4 juni. vandaag mensen motiveren om geld in te zamelen in strijd tegen kanker
blij met gezinsuitbreiding, 2 kroonkraanvogels en we noemen ze willem en maxima
psv zal toch wel goedkeuring voor castratie geven?
als je het plan ziet praat je wel anders. niet te pruimen!
kijk voor ideetjes van slimme acties eens bij de sponsorpakketten misschien ook interessant voor jullie
feliciteert en met de overwinning. we zijn niet voor niets gekomen
we zijn niet voor niets gekomen scoort voor super kj laat ons juichen!!
zin in om straks live te zien in een kolkend blauw stadion met maar liefst 105 businessclubleden. succes kj
morgen met 105 businessclubleden van naar om klaasjan aan te moedigen! hopen op een mooie wedstrijd!
goed voorbeeld moet maar een goed gevolgd worden !!! kampioenen
“@alpedhuzes ben jij er in 2015 ook bij? we zijn benieuwd wie zich allemaal heeft ingeschreven is er zeker bij!
“@alpedhuzessers sponsortip verkoop stickers op bus of vrachtwagen. in 2014 heeft deze bus ruim € 3.000, opgeleverd. pardon? €14.000 !!!
als team alpe du best zouden wij graag wat hebben voor de veiling voor alpe dhuzes 2015. zie
“@martijnvdijck brandweer uitgerukt voor uitslaande brand bij boerderij aan brokstraat. trauma heli weer weg zonder landing
als voetballer was geweldig maar als trainer heb ik nog grote twijfels. spelers niet voldoende gemotiveerd kennelijk. schande!
team wellicht met 4 teams komend jaar. gisteren kickoff met veel enthousiaste mensen
team alpe du best start maandag as maar wij wensen jullie veel succes. tot op de berg 4 juni 2015!
hoezo fanatieke fietsers zoeken? ad6 heeft niet veel met fietsen van doen maar met geld inzamelen!
vandaag in limburg en belgië 162 km weggetrapt met veel klimmen mooie tocht met goede organisatie. op naar 2015
en team is er ook bij! tot zondag
aanbod staat nog om aan te sluiten bij ons. als je interesse hebt. stuur een mailtje naar info@alpedubest.nl en ik neem contact
anders gaat het niet door. voorbereidingen starten binnenkort
en in 2015 alpe dhuzes?
dat wordt nog veel meer boeruhhhh boeruhhhh!!!
ja meerdere teamleden van zullen er bij zijn! zin in.
team zal veelal dezelfde acties doen omdat deze succesvol zijn. kledingpakketten, sponsorbus en uitzwaaifeest
zojuist mijn nominatie afgerond incl donatie. ja met ijs natuurlijk ook
ik heb heel veel over voor het goede doel alpe dhuzes maar dit gaat me te ver als echte psv supporter. suc6
om kampioen te worden!
ik zou graag wielershirt van een goede nederlandse renner krijgen voor veiling van alpe dhuzes 2015
die hebben ze al luuk de jong
vandaag verrast met een mooi geschenk van ivm verlenging van ons sponsorcontract. bedankt psv !
ook natuurlijk genoten van de winnende touretappe van ! 3 weken genieten van mooie prestaties.
bedankt voor 3 fantastische weken mooie sport! gefeliciteerd met de mooie resultaten
niet lang meer want binnenkort hebben ze geen leden meer als zo door gaan
grote netwerkstoring bij ? netjes werken kunnen ze al een hele poos niet van 40jr
heel veel succes maar met zon ontbijtje moet het lukken. go for it bauke.
ja egbert dat wordt dan gewoon deelnemen ook in 2015👍
heeft geen zin, luisteren doen ze toch niet en afspraken zijn niets waard!
ook jou het land uit flikkeren dan dwaas
zieke geest oprotten uit ons landje dan
klantgericht??? dan moet je niet bij de rabo zijn 😁
gogo laat ons landje vandaag 2x juichen, gogogo
nog 11km en zo hopen dat je vandaag wint go for it!
eindelijk die jankerd van naar huis.
ik hoopte op brazilië in de finale omdat ik dacht dat oranje daar meer kans tegen heeft maar de duitsers verdienen het wel
heel veel succes morgen. laat holland 2x juichen!!!!
super goed nieuws. ga door!
de rijwoningen zijn ruime gezinswoningen variërend van 422 m3 tot 500 m3 inhoud!
zij zijn tenminste nog bereikbaar en aan het werk op zaterdag
carolien op de tandem mee naar boven 2 maanden na haar hopelijk laatste chemo
voorpagina !!! mooi stukje over onze prestatie €110.000. tot volgend jaar!
voorpagina super gaaf. mooi stuk over prestatie €110.000!!
waar kan ik de foto naar toesturen van huwelijksaanzoek bocht 10 rens en cristel? via twitter gaat niet
bart van heeft alp op 56 liefst 8x verslonden en ook nog teamleden naar boven geduwd. chapeau bart keijzers
super bedankt voor het lenen van jullie bus tbv deze komt weer schoon terug!
goed gewerkt dan!
de is mer een bultje jonguhhh
en team is er ook zeker weer bij! even landen en 2 beentjes op de grond zien te krijgen en dan weer opladen !
wie geeft gisteravond iets gezien. malloten! als je iemand ziet met stickers 30x60 alpedubest graag bericht!
mooie week@alpedhuzes wordt naar afgesloten. vrijdag onze magneetstickers gejat to palais du soort wie waarom?
wat mooi! rens fikkers vraagt cristel seijger in 2e beklimming van in bocht 10 ten huwelijk. mooie moment
en dan moet je ff vol in de ankers bij de afdaling van de col doz. een boom op de weg
startklaar voor vertrek naar frankrijk met€16.000 in mijn bagage aan donaties en met meer dan €100.000. bedankt!!
de vlaaienverkoop bij plus erwin kenter best heeft vandaag €1.127,40 opgebracht voor 200 vlaaien verkocht door@alpedubest
vandaag 917 uur vlaai verkopen voor ons doel bij plus kenter en plus henst in best en dan naar frankrijk. smul en steun
streefbedrag van €16.000 voorbij en dan nog een gulle gift krijgen van pevesta helmond. super zo veel steun in de strijd tegen kanker. dank!
thanks elmar tot op de berg. chalet aan finish. van harte welkom. koffie en bier👍
zojuist ons bedrag van €100.000 gehaald door een hele mooie donatie van peter van elderen tcm praktijk xinglin
2 dagen voor vertrek op e 330,71 van de magische grens van e 100.000 af met . we gaan er voor! we zijn er bijna..
kijk op de site zij gaan met 8 tandems de alp op
dat snap ik, toezeggingen horen er bij. is betaald maar moet nog geboekt worden door organisatie. carolien heeft eigen pagina
leuke uitzending en leuk dat je mijn verhaal uitzendt. carolien en ik hebben wel al € 20.000 binnengehaald ipv € 13.000
de fotos van onze shirts, jassen en polos zijn te groot dus verwijs ik naar onze site
team is bijna klaar voor vertrek. tussenstand €94.754,82 dus de €100.000 komt erg dichtbij. dus even onze sponsoren bedanken
bedankt voor het regelen van vervoer naar de alp met deze luxe en comfortabele bus!
adres natuurlijk de plussen in best. rendierhei en dn ekker
31 mei vlaaien verkopen met voor het goede doel. 917 uur bij plus ton henst en erwin kenter. wij spuiten slagroom als je wil
dank voor jullie bijdrage aan alpe dhuzes. mijn streefbedrag toch maar verhoogd 👍#ad6 kijk maar
exact over 2 weken kan ik eindelijk weer genieten van een welverdiend pilsje. 1x met de tandem is zeker, hie veel x alleen maakt me niet uit
als team al bijna € 100.000! we gaan super en nog ruim 1 week om dit te halen
jippppiieeeee !!!! nog € 54,17 en ik kom aan € 15.000 als opbrengst voor check
wakker worden en mail checken en verrast worden met een gulle donatie van brandadviseurs en bouwmanagers. super mooi
gisteren mooi uitzwaaifeest gehad en 400 gasten. alleen veiling is goed voor €7.638 op naar €100k!!
vandaag uitzwaaifeest met 400 gasten die allemaal het goede doel steunen feest met loterij, veiling en veel gezelligheid
nee, maar op officiële ad6 shirt staan grote sponsoren en die verdienen getoond te worden dus vind ik dat gepast te dragen
accs biedt een schitterend veilingartikel aan . viparrangement van guus meeuwis op 14 juni. bieden maar
veiling van is open tot morgen 15 uur en opent nog even op ons uitzwaaifeest op 17 mei. uniek artikel en goed doel steunen?
mooi maar hopelijk niet voor op de koersdaling van 5 juni!
steunt met deze schitterende collage. guus begin en afscheid bij#psv met orig handtek.
zojuist aangenaam verrast door met een werkelijk uniek veilingartikel voor onze veiling een relikwie van guus!!
en nog een#sponsortip van jassponsoren 16 x€350 jas en polo worden gekocht door teamlid
nog een van@alpedubest voor ! mooie polos met 14 logos €250. wij lopen er mooi bij👍
mooi hè? onze sponsorbus met146 stickers à€100 per stuk alles voor beste sponsoren bedankt!
eindelijk een krant die positief durft te schrijven over
klaar voor de laatste teamvergadering met tussenstand donaties tadadadada € 85.000!! en we stoppen niet!!!
best kermis moet kleiner en voor bestenaren.
volgende week mooie loterij op ons uitzwaaifeest met unieke lootjes. 1000 stuks te koop
de bouw van t koetshuys in het centrum is begonnen!
en ook mijn streefbedrag op mijn actiepagina van ff aangepast want al weer bijna de €12.500 aangetikt. kijk maar
mijn blog is weer bijgewerkt. hier kunt u deze snel lezen nog precies een maand en dan en dan knallen!
vandaag getraind 157 km de la philiipe gilbert voor en flipke was er zelf ook. zwaar en voldaan
heel veel succes mannen!!!
mooie veiling op met unieke artikelen en alles voor het goede doel!
laatste keer feypsv ook moeten vluchten voor 010malloten dus jullie hebben er ook genoeg! forza
goed dat die pedofielenvereniging wordt ontbonden maar waarom moet daar zo lang over gerecht worden?
super gaaf dat jullie ons ook steunen. we gaan richting € 100.000 en met deze klompjes moet dat lukken
showroom voor online of nieuwe start?
gewoon keigoed!!. wat een klasse van harte gefeliciteerd namens superkritisch
schitterend voor onze veiling er wordt al veel geboden www. alpedubest/veiling
naar de film rio 2 bij pathé en daarmee team steunen? dat kan 13 april 14.00 uur eindhoven, spec. benefietvoorstelling
naar de film rio 2 bij pathé en daarmee team steunen? dat kan 13 mei 14.00 uur eindhoven, speciale benefietvoorstelling
“@wtcgrensland inschrijven voor ? vanaf € 7,00 ben je van de partij. wees er snel bij.” team alpe du best is er bij en jij?
team feliciteert jou met deze schitterende zege! wat een power!!!!
ik begrijp dat de uitslag van de scans positief is! super om te lezen. mijn kanjer gaat vandaag voor 11 vd 12. op 56 op tandem
1.24 op 75%, niet snel maar wel taai😄
vandaag weer heerlijk getraind met in limburg 77km en lekker veel klimmetjes. op naar 5 juni
is druk met opbouwen spinningmarathon. ruim 200 deelnemers. kom ons aanmoedigen. supporters van harte welkom vtc best
paste jouw maillot nog? 😃 en ging het goed? nog geen terugkoppeling gehad maar groep zal zeker genoten gebben. bedankt!
maar dat is toch ook een schitterend mooi goed doel. super dat je daarvoor inzet. respect en veel succes
dan kan die oude wel geveild worden bij team voor alpe dhuzes 2014 kijk op
zojuist erg blij gemaakt met het topmodel van voor onze veiling van alles voor
ook de bloemetjes buiten gezet zie ik
team is er bij om te trainen voor tot 18 mei!
succes wanneer uitslag? schoon toch zeker?
narsingh verdient de tribune. 2 wedstrijden geen werklust getoond en laat elftal in de steek met luiheid en schrik
de aanklager zal ibarra toch wel aanpakken elleboog
narsingh weglaten en nooit meer opstellen
labyrat
maar mijnheer van gelder is ook niets wat dan?
stuur die eikel van een jansma met pensioen of ik zeg mijn abonnement op!
maar we gaan door want hebben nog tot 5 juni en stoppen niet!!
van wie zijn de handtekeningen die op dit gave shirt staan?
heb ik te vroeg een nieuwe fiets voor lien gekocht? want wordt dit het nieuwe fietsplan van crh?
is dat de oude fiets van peter stravers????