je vergeet de onterechte corner waaruit 11 valt! 😉👍
afgunst heet dat 😉👍
vandaag de powerpro expert ontvangen dankzij niet alleen de vrouw is er blij mee 😉👌…
bedankt voor de info. enig idee wanneer dat gaat gebeuren en ongeveer een indicatie voor de daadwerkelijke rijbaan?
al bekend wanneer men eindelijk de stoep komt aanleggen bij tongelreep 1 t/m 11, in de lage heide ,…
gelukkig doet verder helemaal niemand dat in het voetbal verder
ook het niveau van de scheidsrechters is inmiddels afgezakt naar de kelderklasse
dat zou fantastisch zijn om ook eens een very important brabander te zijn 🔴⚪
volgende generatie hooligans 😂 phoxy dag!
ik begin de al bijna te missen. hoe staat het daarmee? 🔴⚪
bier bitterballen en een 3 0 overwinning. ik teken ervoor 👌😉 🔴⚪
ze zijn binnen hoor! 👌 thanks
1 kaartje voor decibel outdoor festival 2017 zaterdag op 19 augustus 2017 te koop
bekend wie wijkagent is voor lage heide? spullen aannemer weggehaald en rijden verdachte personen op zwarte scooter rond...
volgens mij moet ik eerst 538 smsjes sturen om te winnen niet? 😅😉🙃
natrappen is geen talent hoor! houdoe en bedankt!
samen mijn betere wederhelft 🔴⚪
aanvoerder en club held mark van bommel! 🔴⚪
mark van bommel!
wow super! leuk samen met mijn betere wederhelft zodat ik me niet te druk maak tijdens de wedstrijd haha 🔴⚪️
helaas weinig vrienden op twitter 😅
proficiat 🎉leuke acties ben benieuwd!
win een reis naar londen! wil jij naar een exclusief samsung event? deel deze tweet en maak kans
dikke prima 💪👌👍
wanneer kunnen we de prijzen verwachten voor de weekend accomodaties? 😀
wederom een teken dat men in amsterdam geen enkel idee heeft wat er in nl leeft... 🤢
maandag standaard baaldag. ideale tijd voor van 🍵☕
gaat niet goed bij de nos. heeft 16 zetels te veel.....
met jouw komen we ook nergens hoor...
dit is je stem op waard....
bedankt voor niks alvast dit is wat jouw waard is! u bent de zwakste…
dank voor niks 🤢
iedereen die stemt op dank voor de enorme lasten verzwaring voor ons land! 🖕 waardeloze…
jesse mag als een van de eerste. ligt ie tenminste toch nog een beetje op tijd in bed vandaag...
wilders niet schuldig aan val kabinet rutte 1 ‘excuus voor cordon sanitaire’
en wat was daarvan de oorzaak???
ik denk dat je wat te veel producten van je criminele vriendjes hebt geïnhaleerd....
zou inmiddels ook wakker zijn voor een reactie of is deze nog telekids aan t kijken in zn bibaboerderij pijama?
zegt de grootste weglacher....
jesse klaver heeft geen verhaal via dit is uw
je oogst wat je zaait! en nu kappen met die spam van
verdunning? krijg ik ook altijd last van na weer een aflevering van
ik vind dat we hiermee wel wat tickets verdienen 😂
gister de slechtste voorstelling in jaren gezien als ik er had gezeten had ik mijn geld terug gevraagd...
ik heb enkel wat slechte verkoop praatjes gehoord...
waardeloos idee! gewoon juiste persoon voor de juiste functie...
wat een geldverspilling dus weer! waardeloze weg is dat geworden zeg 😡😠 weet niet welke pannekoek dat weer bedacht heeft⁉️⁉️
jaja het is weer die tijd van het jaar! dn donderdag vur dn vrijdag vur dn carnaval! 🎉🍻…
jaja vanaf vrijdag mogen we weer!
schiet al op met de bouw! 🏡🚧
haha nee zoveel cijfers accepteerde ze niet 😉
ik doe mee aan hierrr met je rekening hoor je mijn naam op radio 538? laat het mij weten!
fijne kerstdagen! 🎅🎄🍾
drivin home for christmas! 🎄🎅
linkse helft is illegaal vuurwerk! wel benieuwd naar dat pakket en de black fiday p
haha omvallend vuurwerk. pot/cake is foutief bevestigd. ligt op zijn kant??? lontje brand nog ,is dus nog niks geschoten...
onzin! een pijl blijft niet uit zichzelf rechtop staan. enkel bij slecht gebruik valt een pijl om. gaat over cakes neem ik aan.
zou mooi zijn! groot fan hier d
ik ben een witte kuttekop en stink naar kaas. via
bestel via mij en wij delen €30,
enge man die spong. zet ze tegenover elkaar en je kan lachen 😆
hiddema vs spong dat zou lachen zijn 😆
beiden discussiëren niet en willen geen compromis maar alleen zeuren als kleine kinderen om zin door te drammen
20% toch blijkbaar via laatste peiling. gaf duidelijk aan in zijn speech dat ie voor hen sprak die hem gekozen hebben...
zet hem samen met sylvana in een hok kunnen ze samen roeptoeteren!
hij vertegenwoordigd de mensen die hem gekozen hebben. zei hij ook duidelijk in zijn speech....
heeft niks met aantal zetels te maken. men kan hetzelfde vinden als hem maar wil niet zeggen dat ze ook pvv stemmen
zegt degene die waarschijnlijk alleen die ene minuut op het nieuws heeft gezien...en man man als je…
ik heb het hele stuk al gezien faalhaas
die hem hebben gekozen wel goed luisteren voor je gaat
omdat? past niet in onze cultuur. onze vrouwen worden ook gedwongen in die landen hoofddoek te dragen en dus aan te passen
ik ben inmiddels wel een beetje moe
net zoiets als hoe mensen in hemelsnaam kunnen bedenken dat zwarte piet racisme me is..... ohw wacht...
wat een stemmingmakerij en al lekker in je slachtoffer rol voor er überhaupt iets gebeurt is 😂
€5k. maar bij veroordeling zijn we onbetaalbaar veel verder van huis in het inperken van onze vrijheid.…
en vergeet vrouwen niet
hahaha jezelf continu in een slachtoffer rol neerzetten en dan andere beschuldigen van calimero gedr…
klein detail. dat weet onze ovj bos wel weer recht te lullen
maar even serieus. kom eens uit die slachtoffer rol en doe wat aan je zelfmedelijden. het leven is te er te kort voor!
ik stel dezelfde strafeis voor aan de minder minder zwarte piet scandeerders!
geldt de boete van eur 5.000 ook voor mensen die roepen om minder minder zwarte piet?
ik herken mezelf zelden in discussies op tv
en mocht je met bedelaars die roma roversbende bedoelen nee was ik niet bij....
iets met iedereen over een kam smeren zijn jullie goed in....
krijgen. meningen van andere interesseren je niet zolang jij je zin maar krijgt. pas je naam aan naar zielepiet past je beter
bedankt voor je inhoudelijke reactie.je doet me denken aan een zeurend klein kind wat maar door blijft drammen om zijn zin te
lees dit eens misschien wordt je daar wat minder zuur van.... doe er…
de politie is je beste vriend zeggen ze wel eens 😂
winvuurwerk.nl win gratis vuurwerk 20162017 | home
heerlijk die tradities! net als elk jaar weer de intocht van sinterklaas met zijn zwarte p.... oh wacht
kabinet zegt dat het goed gaat, maar we merken daar weinig van via
dit dus
ik maak kans om mijn ultieme reis te winnen op 538 nieuwsgierig? via
surveillancevlucht tussen 0030u en 0130u? misschien volgende keer normaal tijdstip uitzoeken???
aanhouding+straf prima. maar waarom is het nodig 6 tot 7 keer vlak over huizen te vliegen voor een zogenaamde
doen we! 👊
meteen gedaan! 🔴⚪
ik denk dat gezonken is samen met hun pokeboat 😁
duimen maar 👌
wat kan men doen tegen een geparkeerde auto die er al maanden staat met een lekke band?
voeg me toe op snapchat! gebruikersnaam mvo1983
decibel door de jaren heen 2007 2015 officialb2s
volgens traditie meer dan 10 jaar aanwezig met zoals hier in 2008
done ✅done✅and done ✅👊
toevallig al enig idee wanneer er een start wordt gemaakt met fase witte berk in de te ?
done! zou mooi cadeau zijn voor vaderdag d
ik maak nu kans op een reis naar cuba met havana club. ook kans maken? doe mee en win
wat was je mooi! kampioenen 20152016 🔴⚪
top dagje met de mannen gister! eat sleep rave repeat 🍻😆
strippenkaart 12 bollen ijs via
na 3 tickets via presale nu nog ff 11 tickets erbij! zijn erbij voor 11de keer! 😎👊
please rt! ttip en ceta bedreigen de democratie.vraag ook om een en teken de petitie
nieuwe voor in de collectie!
tot de volgende 👍
ik stuur maar vast wat kratten richting doetinchem....
proost 🍻 om de pijn te verzachten
hopen op een wonder nu op de laatste speelronde... dan nog maar een 🍺
jaja dat was hem
op naar...
zon rondje mogen ze nog wel een keer weg geven 😉
hopelijk nu erop en erover!
neeeeee!
naast bier regent het ook kansen zeg
mooi voetbal weer! proost 🍺 🌞
met vrienden en wat lekkers 😜
helemaal klaar voor! ff vlug shirtje gescoord in de fanstore zojuist ⚪🔴
netjes was nog opzoek naar een shirt 😆
top thanks! vanaf hoelaat dan ben ik erbij 😉
wanneer worden de heritage shirts weer verwacht? begreep eind april? vandaag of morgen dus neem aan ook weer gewoon online verkoop?
ze lijkt echt op haar vader! of is dat ook beledigend? 😂
morgen dus? 😉 ook online neem ik aan? hoe vallen de shirts? had altijd l met nike....
schitterende uitzending weer! hopelijk kijkt men ook
ik maak kans op de kroegentocht van mijn leven! mijn paspoort is geactiveerd! ga je mee?
mochten er nog plekskes vrij komen dan hou ik me uiteraard aanbevolen 😉
tot dan heren! hopelijk de beslissende 😉
eentje dan nog!
1 taak de 3 punten! in the pocket. nu afwachten..
nog even wat extra om de laatste 5 minuten mee open te breken
hopelijk maken ze er nog een six pack van 😉
lestienne de witte motor! hopelijk kan hij nog wat potten en geen ramen breken vanavond 😉 🔴⚪
pfff mag toch wel iets strakker gedekt worden daar achterin
schaars/hendrix/guardado heerlijk hoe zij elkaar vervangen
netjes! 👍 nu die doelpunten nog!
nog even uit een ander vaatje tappen in die 2de helft en gaan voor monsterscore!
hopelijk drukken we door en werken aan het doelsaldo! 🔴⚪
pfff 1e helft 10.niet goed wel strijd! in de rust maar ffkes opfrissen 🔴⚪
solide verdeging weer vanavond! 🔴⚪
hopelijk na makkelie geen blinde vink vanavond 😆
come on boys 🔴⚪ werk aan dat doelsaldo!
🍻 mannen! prettige wedstrijd! 🔴⚪
vanavond maar weer in mijn eigen stadion kijken!
juichen inderdaad 😉 hopelijk 3 punten en een 30
hopelijk dit jaar weer zon mooi feestje. vanavond de volgende horde maar nemen!
zeker! nostradamus voorspeld een 31
dagske met de misses. maastricht, netherlands
ik zou de datum van veranderen zodat het niet meer de dag naar mijn verjaardag is 😅 feesten in de zomer is sowieso beter
dat zou zeker episch zijn 💪
bedankt ook namens mijn opa 😠 mensen die het land weer opgebouwd hebben kunnen dus in de stront zakken!
3 punten in de tas. niks meer over zeggen op naar volgende wedstrijd.
eindstand 50 kan nog 😉
dan wij vanavond ook maar de punten stelen hier in ehv
hopelijk hebben we deze niet nodig de 2de helft...
slappe hap. 2de helft toch uit een ander vatje tappen...
zijn er klaar voor!
doe mijn best vanuit het stadion. thanks voor de tickets nog 😉 maar vip zou ook mooi zijn. kan de zwangere vrouw ook keer mee 😆
zou mooi begin van t weekend zijn 😆
zou mooi zijn als laatste dag hier op mijn werk 😊
ik maak nu kans op een trip naar stockholm voor 2 personen met absolut! ook kans maken? doe mee en win
mx gp valkenswaard day2 eurocircuit
lekker hoor! bedankt top 👍 congrats ook aan de andere
iets met je geboorte stad rotjeknor en zomer carnaval 😂
proficiat! maar voor ons dus dubbel balen nu 😦
pfff deze maar weg tikken als troost 😢
volgens mij is geen bavaria drinker...drama
proost! op een betere 2de helft
rust! 31 kan nog steeds en hopelijk hebben we deze dan niet meer nodig
en de volgende aanval! 🔴⚪
nu nog de 3 punten 😉
hopelijk pröpt onze davy de volgende bal wel binnen de palen 🔴⚪
hopelijk dekt de verdediging de rest van de wedstrijd ook wat strakker....
het stadion is er in ieder geval klaar voor!
jullie ook. nostradamus zegt 31 🔴⚪
spanning stijgt al lichtelijk.hopelijk geven we 020 een schop onder de komt vandaag!
matchday! come on psv 🔴⚪
ze liggen al koud!
kan nog wel veilig tossen a.s. zondag zonder straf/sv te riskeren?
gelukkig is er geen echt nieuws verder ook geen echte problemen in de wereld waar we ons zorgen over moeten maken...man man man
ben ik zeker met je eens! iets met een mug en een olifant 😉
zonde had ie toch beter wat 🍻 voor kunnen halen 😉
hij was tenminste in madrid ipv een pc held zoals jij
mooie thuis wedstrijd dus op het 🚲
leuk verhaal lekker kort ook. praat niks goed maar dus omdat ik iets aangeef... iets met iedereen en een kam
en zo is het ook 👍
iets met niet iedereen over een kam smeren.. lees het verhaal eens van de makers van de filmpjes vande rusten en camacho
echt walgelijk inderdaad
maar nu opeens is het zo verschrikkelijk terwijl ze waarschijnlijk hun beste inkomsten hadden sinds maanden...
een aantal beelden die je zag?dit gebeurt dagelijks met die mensen daar, erg genoeg, zonder ook maar een cent te krijgen
jammer dat je weer aan het punt voorbij gaat.niks goed praten.was je erbij?of schreef je net als velen je artikel op basis
zwerver... neem een vb aan collegas ipv een mug een olifant te maken
als journalist verwacht ik toch wel wat meer van je ipv de moraalridder uit te hangen.. wanneer heb je zelf wat gedaan voor
hoe een mug een olifant werd....
een wat genuanceerder beeld van de gebeurtenis.misschien verstandig om te lezen voordat we mensen veroordelen..
congrats! zorg dat ee die punten binnen halen 😉
balen dit... errug jammer.gestreden als leeuwen nu focus op zondag zodat we volgend jaar in de herkansing kunne
en dat is 5
3 keer is scheeprecht
en dat is 4!
heel netjes
zoet bijna....
en dat is 2!
van ginkel ✅ 1 van 5
gelukkig is al ingeschoten vandaag. maar hoe zit het met de man aan de andere kant...
daar was ie dan toch nog bijna...
en ik geen bier meer...
ik zeg kom maar op met die penaltys! dit keer gaan ze er alle 5 in 👊 🔴⚪
muurtje graag!
denk dat athlerico sowieso een wat zoete nasmaak overhoud aan deze wedstrijd
hopelijk halen we het einde hier mee 😯 🔴⚪
die 3000 man hebben wel waar voor hun geld😆 maar geen@bavaria!
man man man spanning ten top! en meteen wat kilos lichter 😥
inderdaad! en laat die penaltys dan maar komen 😉
1tje maar? 😞
zou al trending topic zijn op twitter?
is het al tijd voor ons duracell konijn 😆
hahaha mooie mens
of edward linskens 😉 die weet hoe je moet scoren in madrid
zwetende billetjes, klamme handjes en dan die verdomde paal... 😢 yep dit is cl voetbal
onze blauwe muur staat weer als een huis vanavond 😆
toch maar goed dat we met 5 verdedigers spelen vandaag 🔴⚪
opbokken met dat athletico in de 2de helft dus 😉
hopelijk stijgen ze de 2de helft weer boven zichzelf uit en klaren we de klus 🔴⚪
rust 00 trots 👊 gestreden voor elke meter! 2de helft erop en erover 🔴⚪
rondje voor de 3000 aanwezige mannen en vrouwen daar van
zekers. gat in mijn glas lijkt wat groter te zijn als normaal
hij kijkt ze nu zelfs al gewoon over 😆
had daarom bij zijn 1e redding maar meteen alvast een kratje aangeboden haha 😉
superrrrrrrr strak strak in zijn trainingspak pak kijk is hoe ie alle ballen pakt pakt 😅
ook de scheidsrechter heeft al zin in een gele rakker
hier zijn de glazen al wat minder vol 😉
als psv voor elk fleske dat ik drink een doelpunt zou maken was de spanning er nu al wel af 😅
stuur maar vast een kratje namens mij zeg pfff
het thuis publiek wil ook echt bier zo te horen 😜
thuis publiek start fluitconcert. schenken zeker geen daar... 🔴⚪
vergeet de klamme handjes niet
laat vast even zien dat ie weer scherp is vandaag 😆
jazekers! en strijden voor elke meter
zeker met gezonde spanning voor de buis en een pilske om af te koelen 😉
prettige wedstrijd allen! 🍺⚽
haha inderdaad ik teken voor een edward linskensje vanavond 😊 11
mooie weetjes voor 😉
deze mannen moeten het doen vanavond 🔴⚪
matchday
alles geven morgen! 🔴⚪
eens luisteren of cocu nog wat voor ons heeft
hoppaa! netjes ben er weer bij dit keer 🔴⚪
mooie prijs! have fun
mooie prijs zekers! helaas zonder mij morgen 😢 nostradamus zegt 31
en gaat het lukken vandaag? 😟
oke top! ben benieuwd dan
dat dan ook.maar natuurlijk hoe sneller hoe beter ivm deadlines voor onze nieuwbouw...mits we een hypotheek krijgen natuurlijk
geen idee. adviseur heeft het nu direct aan iemand bij nn gestuurd.stukken zouden nu morgen beoordeeld worden.hopelijk gebeurd
chapeau nn!voor de 3de keer aangeleverde stukken mbt hypotheek spoorloos!hopelijk donderdag eindelijk definitief antwoord 😧
yep doen we!
geniet van de 3de helft 🍻!
50 doelpunten mooie mijlpaal! proficiat dat er nog maar vele mogen volgen! 🔴⚪
3 punten in the pocket! wederom veel strijd geleverd! 🔴⚪ kom maar op met die 3de helft 🍻
jaja hij kan het nog 😉 dat fleske heeft toch goed gedaan 🔴⚪ ⚽ 🍻
come on psv! nu erop en erover 🔴⚪
jaja eindelijk goal goal goal! loon na werken! verdient boys 🔴⚪#kroegpraat
misschien idee voor onze mocht het nog 00 staan net voor tijd...
gewoon net voor tijd eentje in prikken ⚽ 35 punten,zakelijke overwinning en we praten nergens meer over
koud flesje er tegenaan en ze zijn weer als nieuw 😉
oei geel voor bavarias.. uitkijken dus met die gekke higler....
en een andere scheidsrechter zeg pfff
kijk dat lijkt er al wat meer op 😆
gezapig begin van de wedstrijd. come on psv 🔴⚪ ff gas geven!
vandaag weer gewoon 3 aanvallers 😉
thanks! komt goed! voor elke helft een kratje 😉🍻
dit moeten 3 punten zijn. haagse reigers met hangende poten weer terug sturen
lijkt me wel voldoende voor de 1ste, 2de en 3de helft 😉🍻
41
matchday 🔴⚪ wij zijn er klaar voor
klopt al gedaan. ligt bij de beoordeler gaf hij aan en gaat er nogmaals achteraan...
helaas nog altijd aan het wachten op groen 🚦😰 terwijl de deadlines voor nieuwbouw inzicht komen.... 😡
mooi plan! ben bang dat de winnaar daar anders overdenkt 😅
00 psv compleet moe gestreden! zet maar een kratje neer in de kleedkamer namens mij! 🔴⚪
😫 zou hem zo gegund zijn
kan volgens mij ook wel een bavaria gebruiken op de tribune😉🍻
pfff dat wordt billenknijpen de laatste 20 minunten! come on psv 🔴⚪
spanning! 🔴⚪ nog 30 min.billenknijpen
hopelijk maken we paella van die spanjaarden in de 2de helft
zeker maar nu eerst een 🍻
gestreden als leeuwen! hopelijk de beloning in de 2de helft!
zekers 1 afpakken en door 🍻
zoet daar waar je hem nodig hebt!