dit is haar initiatief. met passie voor dieren. ❤️💪
10 jaar later, allebei inmiddels een andere rol, kwam leidy zijlstra een petitie aanbieden. ze kwam van diep, maar…
meer kinderen opgesloten sinds decentralisatie. dikke fail! meer kinderen belanden in gesloten zorginstelling
zeer terecht! stop die enorme werkdruk.
dat dat
vandaag was ik voorzitter en minister op met zulke leuke leden had ik een makkelijke klus 😉
ik vind dat steeds leuker worden....
die zag ik dus vanmorgen ineens! maar hoe kom je er? berlijnplein?
zinnige discussie op weg met boete op ziek zijn.
trouwens wel een mooie achternaam heeft u
meelopen is iets anders dan ernaar luisteren
ggzpatiënten moeten langer wachten op zorg.patiënten moeten t maar melden aldus de nieuwe stas.daarmee niet opgelost
rutte ik snap niet waarom we de arbeidstijden politie niet meer kunnen flexibiliseren werkdruk was al niet hoog..
roemer neemt u uitslag referendum sleepnet serieus? rutte we zullen de wet referendum uitvoeren.... oostindi…
1 op de 5 zorgbestuurders verdient meer dan een minister, stop daarmee. pak die verspilling aan! aldus
toepasselijk. de link is niet meer....
dat laatste.
gebruikelijk bij dit soort debatten is dat er schriftelijke antwoorden komen op de vragen van gisteren.
uur voor het debat verder gaat en schriftelijke antwoorden kabinet nog steeds niet binnen. ze doen werkelijk overal lang over.
elke dag zou moeten zijn. dit is middeleeuws. nederland keldert op ranglijst gelijkheid tussen m/v
kom op niet afhankelijk zijn van sponsoren en inzeten voor solidairiteit is beter dan in eigen zak steken. trots op
ah je bedoeld dat ik geen graaier ben. trots op!
gek. ik zie bevlogen heren met passie die goede plannen hebben.
denk dat t slim is in deze om dsm diagnoses en wat daaruit voort komt te laten bij de psychiater.
nee natuurlijk, heel verwonderlijk dit. we laten ze nog even wachten....
inderdaad, jullie regio. herkenbaar?
top plan hoor nieuw kabinet! we behouden de boete op ziek zijn en de premies stijgen.
jeuh koffie! goedemorgen gerard. en dank voor al j…
meisje suicidaal moet anderhalve maand wachten op crisisdienst ggz. gisteren nog gehoord van jeugdhulpverlener. 😭😡
hahhaaaaa. wat een mooie uitdaging en leuk!
en te midden van die rommel rommel! dreeeeef de torenspits van bie ba boooommel..... 🎶 ken je m?
hey heb je een nieuwe job!
ow man ik krijg t lied niet uit mijn hoofd! hahaha
op werkbezoek in een prachtige stad. wie weet waar. tip, ik heb de hele dag al een liedje in mijn hoofd over de ker…
seksueel misbruik in de zorg nog steeds groot probleem. hoe kan dit na commissie samson?
hoe is dit mogelijk!! maakt gehakt van ambulancetop via
ambulances vaak te laat door personeelsgebrek. actie en uitleg nodig. nieuwe minister moet aan t werk.
en weeeer gaan zorgverzekeraars op stoel behandelaar zitten. zeer schadelijk.
rom gegevens zijn ook niet betrouwbaar. dus dat georganiseerd wantrouwen is ook niet nodig
ja hoor en dan ben ik er niet.....
😭 dat
de pijnlijke ironie hier...
oooow ik ben officieel nu een beetje jaloers op jouw werk ❤️
schofterig is t juiste woord. voor een dubbeltje zorg voor kinderen willen inkopen. betaal
waar zie je dat hilmar?
i know. niks te hopen. mensen die dit de wereld in brengen, dat is pas schadelijk.
ja is een hoax
hahaha dat is echt onzin!
eens eens!
gokindustrie heeft ook flink gelobbyd om dit tegen te houden. ben blij dat t ze niet gelukt is.
beiden. maar verantwoordelijkheid industrie moet ook genomen worden.
vervuiler moet meebetalen.
ik doe echt niet anders.
een kerstbal! wow
kleurrijk inderdaad. maar ben niet zomaar de kamer ingegaan. vond namelijk dat…
niet t debat gezien lees ik. jammer.
niet ok!
gelukkig volgen ze mij allemaal dus hebben ze dat wel gelezen hoor. is hetzelfde
dit gaat zo mis inderdaad...
haal die luchtfotos van onderzoek anne faber weg lieve media. politie heeft gevraagd niet te filmen + lijkt mij niet fijn voor nabestaanden
hoera! geen aanbestedingscircus meer voor jeugdbescherming en jeugdreclassering. nu de rest van de jeugdzorg nog!…
heb vandaag een jurk met zakjes aan. te gek! 😜
heeeel vreemd
in de categorie koekoek... rutte schuift roemer de schuld in de schoenen dat er haast geen verpleegkundigen zijn. nee, wie had ze ontslagen!
vrienden moeten ook de waarheid kunnen vertellen....
pvda heeft nu nog de kans t naar de kamer te sturen. we geven een lief links zetje.
aanpassing patentrecht, magistraal bereiden van medicijnen een innovatiefonds etc
boeven zijn het, over de rug van zieke patienten! tijd voor aanpak farmaceutische industrie.
hahhaaaaa nou de natuur doet wat ie moet doen. een baby komt soms snel maar meestal doet ie er langer over 😜
en te weinig na bezuinigingen van een half miljard...
✅ boete op ziek zijn blijft, premie omhoog. ✅ bezuinigingen op ziekenhuizen, terwijl overal 1e hulp posten sluiten ✅ bezuinigingen ggz 😳😭
nou ik had je in mijn tekst staan hoor! omdat er maar drie vragen door mogen gaan van de ongeveer 20 aanmeldingen
mondelinge vragen over het schandaal dat verloskundigen niet het normale tarief krijgen voor hun werk gaan helaas niet door.dan schriftelijk
beterschap en succes oetze! even een zwaai uit den haag. gewoon omdat t kan
wat een enorm mooie overstap ineke! geniet ervan! warm ❤️ voor de eilanden.
wat zegt. maar laat ook een nieuw kabinet deze beslissing herzien.
nee was mijn bevalling. imke was de verloskundige. ik ben kamerlid en imke verloskundige. en mijn zoon moos
ja mijn bevalling. wat is de vraag?
basiszorg lijkt mij heel normaal als dat vergoed zou worden. iedereen met een kind zou dit snappen.…
verloskundige kreeg 6 uur vergoed van de 16 uur dat ik over mijn bevalling deed.betaal verloskundigen normaal tarief! ❤️
zorgverzekeraars weigeren normaal tarief verloskundigen te betalen. minister moet nu in actie komen!
gedetineerden zonder nazorg op straat is vragen om recidive. basale zorg nog steeds niet op orde.
spijker en kop!
de zorg voor kinderen staat overal onder druk en de stas geeft nog steeds niet thuis.jeugdzorginst. dreigen met stop
oooow nu heb ik je niet gedag kunnen zeggen! samen op een mooi nieuw terrein 😜
ben je nieuw, lees je je in, lees je alle stukken. struikel je over de namen 🙈 niet ged…
moet je de woordvoerder even vragen
t is verschrikkelijk bureaucratisch 😭
ja joh, kinderen met psychische problemen 40 weken laten wachten. absurt! wat een puinhoop.
stop prijzencircus en aanbestedingen in de jeugdzorg! zorg aan kinderen in 300 kwetsbare gezinnen onder druk
voor wie wilt weten hoe zon werkbezoek gaat vlog werkbezoek spkamerlid nine kooiman aan het cjg
met een heus vlog! echt te gek werkbezoek aan het cjg. 👏🏼voor de jeugdverpleegkundigen
nee dat is netto. netto krijgen andere kamerleden veel meer trouwens. als ik mijn afs…
liever het ziekenhuis in woerden behouden! ❤️
hihi ja! en we gaan door hoor! ps ik kon je vlog niet vinden ik wil alles volgen hoor!
er ligt bijna 300 miljoen op de plank voor de ggz, maar dat komt niet bij patiënten. en er iets aan doen? nee ho ma…
bij debat eigen risico laten het cu en cda de vvd vertellen dat ze hun verkiezingsbelofte breken. geen verlaging eigen risico. 🤥
jeugdpsychiatrie voelt zich gedwongen tot behandelstops en de minister weigert nu in te grijpen...
me ❤️ mijn partij. afdelingsvoorzitters van amsterdam tot hoorn achter de campagne on de buurt. campagne met, door en voor mensen.
fijn! en goed bezig!
seksuele voorlichting, onstabiele gezinssituaties, slaapproblemen, groeicurves, vaccinaties. het kwam allemaal voorbij vandaag
was geweldig! veel dank!
uitermate veel zin om dag mee te draaien met jeugdverpleegkundige in rotterdam. bij centrum voor jeugd &amp gezin
je weet wel dat je zo niks gaat bereiken toch? zo zonde van je energie. beetje boe roepen. van mijn energi…
❤️ we regeren met jullie mee. bv in amsterdam. ik stuur voor de zekerheid no…
beetje zuur zeg. neem een zoetje ❤️🎉
waar! krijg alleendit niet meer uit mijn hoofd...
spijker en kop
ow help een d66er die het debat niet heeft gezien. zucht....
bizar dat de vvd niet ziet dat vvd verantwoordelijk is voor uitholling ggz 😳
en om 1900 uur het debat over behandel stops in de ggz. zorgverzekeraar gaat op stoel behandelaar zitten. er is nog steeds geen oplossing.
mee hans, we stoppen niet tot het echt verbeterd
dan snap ik dat je niets hoort hahaa. nee serieus niet sikkeneurig worden. nooit gestreden…
ook zeer belangrijk. en daar is inderdaad woordvoerder op. dus goed als u haar blijft volgen
wouw mooi!
allebei plaatjes vandaag! ❤️
lief! hoop dat alles goed gaat met je! ❤️
net zolang de rest ook luistert
thanx voor de tip!
we gaan daar zeker mee door!
nee niet een statement door geen hoedje wel leuk gifje by the way. moest er wel om lachen.
mooie dag om je uit te spreken tegen het eigen risico.
goh noem mij waar dat is!
nee duh! na een bezuiniging van een half miljard. veel gemeenten hebben geen geld meer voor jeugdzorg
wijzen we op problemen, niet goed. doen we mee, niet goed. ik zeg veel succes ermee en fijne avond! en neem nog een zure bom
utrecht, brabant, wijk bij duurstede, heerlen, groningen, helmond, amsterdam, breda etc etc
ja kom op, we doen niets anders bunnen en buiten de kamer. zo zuur past wen cu lid niet.
oei wat zuur! als we een keer de vinger op de zere plek leggen....
mag niks zeggen want dan lek ik hoe is het met je roelof! zwaaaai!
ik kan ook niet liegen en toch een politica 😜 en longarts is wel een heel bijzonder beroep! ❤️
helaas niks gehad maar mail zeker ook onze woordvoerder
top, het kabinet lekt weer eens enkel het goede nieuws terwijl wij ons vandaag moeten houden aan het embargo. again…
phoe als de sp niet mag benoemen wat beter kan is t einde zoek. en lui…
jaaaaaaa en we pakken het weer met liefde op!
gaan we niet doen hoor! ❤️
heb je langdurige zorg nodig, dan moet je dat gewoon kunnen krijgen. verstandige woorden van
wat?!? zorgverzekeraars weigeren verloskundigen de prijs te betalen die ze minimaal verdienen. niet te geloven.
ik weet niet waar t over gaat sorry maar mail even naar n.kooiman@tweedekamer.nl
auw! hoe gaat het?
snap ik. nemen we mee
ook over gehad is en en
inclusieve samenleving. zeker!
nee de kamer beslist en de coalitiepartijen komen hun beloftes niet na. formeren…
dat is wat er gebeurd nu ze niet ingrijpen moet voor oktober een nieuwe wet worden aangenomen.
zoals het eigen risico verhogen? dat is wat er gaat gebeuren. nou chapeau!
status quo betekent dat de subsidie zal stoppen en nipt test niet meer vergoed.
vvd, d66, sgp, cda, cu en pvdd tegen blijven vergoeden van de nipt test. motie van en mijzelf.
of dat je een keuze hebt dat je ziek bent. zeer schadelijk dit frame!
migen inderdaad van ons in loondienst.
juit boete op ziek zijn
raar tegenframe. dan zou je moeten zeggen iedereen betaalt voor autopech,…
ja eens! zaanstad geprobeerd tegen te houden helaas niet gelukt. geen meerderheid kamer…
hoeveel noodkreten zijn er nog nodig om de toenemende werkdruk in het gevangeniswezen op te lossen? aldus in
vooral het stukje vooral in de zorg worden mensen rijk wtf! geld voor de zorg moet naar zorg!
de sp niet hoor
stop de boete op ziek zijn. vandaag stemmen we voor verlaging eigen risico. acties binnen en buiten de kamer. 💪
zo enorm ziek. over de rug van patiënten. ontwikkelen medicijn kanker kost fractie van wat industrie beweert
natuuuurlijk!
en weer een behandelstop in de ggz omdat verzekeraars op stoel behandelaar gaat zitten.
dat kan natuurlijk. maar ik geloof dat alle stappen in de juiste richting goed zijn. mocht je een idee hebb…
in en in triest. stop de behandelstops. psychiatrische patiënten dupe van strijd verzekeraars. dit is waanzin.
manifest ziekenhuisverpleegkundigen. wat een goede actie van en door ziekenhuisverpleegkundigen!
door decentralisaties zorg is kennis versnippert of weg. doodzonde. daarom onderandere tegen jeugdwet
zeker niet ons plan is doorgerekend met de verkiezingen in geheel haalbaar en betaalbaar geacht.
daarom ook het systeem op de schop. anders blijft ongelijkheid.
nou flut of flaterpolitiek is ook goed....
collega vraagt debat aan over verhoging eigen risico en formerende partijen vervallen in procedureel geneuzel. zwak!
weg met de marktwerking, goed idee
eens met 💪
zeker niet. doorgerekend en al. kom op waar een wil is is een weg!
gelul we hebben onze plannen laten doorberekenen. met nationaal zorgfonds is dat o. dus vete hoax
zorg mijden en velen in de schuld. zorgverzekeraars die miljarden op de plank hebben. en dan weer een verhoging? 😡…
zijn we ook geen voorstander van
wat verschrikkelijk!
ging je aardig goed af guan!
schaalverkleining, zorg dichtbij en persoonlijk, minder bureaucratie. dat is de toekomst. stop deze fusiedrift.
ik snap t echt niet
hoeveel langer nog voordat de minister gaat ingrijpen ipv van alle zorg verder uit te kleden?
verpruts je het als zorgvestuurder? dan krijg je een beloning?!? ging verhaal halen.
oei ingewikkeld allemaal. ik ben trouwens voor jip en janneke. 😜
hahhaa en een partner kan ook een vrouw zijn. en twee mannen vaders... opties te over.
er valt zoooooveeel te besparen in de zorg. zorgverzekeraars hebben bv miljarenden op de plank liggen. moet lukken zou ik zeggen.
geef alle zwangeren en diens partners die dat willen duidelijkheid. schrap eigen bijdrage nipt.
ik heb een hele dag met je mee gedraaid maar doe dat serieus heel graag nog een keer…
goedemorgen weer gerard!
wat is er solidair aan een belasting op ziek zijn?!? dat is pas ziek! schaf dat eigen risico af.
het verschil kunnen maken als kamerlid. dat kan zeker en ook in dit geval. kreeg kippenvel van deze mooie mail. ❤️
helaas heb je idd wel de hel…
op zorg deden ze het verschrikkelijk bv dus mij niet gezien. dan had…
toch een prestatie een van de maar ben t eens dat ik t ook onbegri…
raar heb toch de bezuinigingen op de politie kunnen tegenhouden.
6 maanden geleden zelf bevallen, sta ik vandaag aan de andere kant. met op pad. lucky me! verloskundigen zijn helden. ❤️
zeker niet, ook daar ladingen schriftelijke vragen al over gesteld. no worries
ooow wat mooi!
misschien moet je t debat even terug kijken. ik ben namelijk niet van de spelletjes.
dat is weer een wel aangenomen motie van mijn hand
wat denk je dat ik in het debat gedaan heb... vind alleen dat anderen die druk ook samen met mij mogen opbouwen! 💪
gecondoleerd!
je kan mij beste ff mailen! nkooiman@sp.nl dms lees ik vaak niet
en waarom mijn motie voor voldoende behandelplekken in de ggz is verworpen door de kamer is mij dus een raadsel...
het is opdat gezinnen voldoende steun krijgen en in het openbaar meer normali…
doen we ook! is daar druk mee bezig!
graag! mag cda en d66 voor ons kiezen ip…
wat denk je zelf...
gelukkig niet juist.
wat een ramp. vooral voor al die kinderen en ouders.
dus niet roken op een terras is top.
meeroken net zo schadelijk. ook didelijke slachtoffers dus niet zo gek hoor super goed trouwens!
kamervragen over deze zaak en het ontbreken van een inspectieonderzoek. reageer kort bij
kijk vind ik en mijn kindje super goed! op naar een rookvrije generatie.
oja maaltijden invriezen handig. een handige man is nog handiger
jaaaaaaa! netflix uitkijken, taarten bakken die ik best wil komen opeten en vragen negeren van.. is ze er al?!? 😜
reinier dit is bizar. is die info openbaar? zou je mij meer kunnen mailen?
thanx jij ook!
weet ik en dat moet zeker aangepakt worden! georganiseerd wantrouwen noem ik t vaak.
klopt daarom ook inspectie maar zorg voor kinderen moet altijd professioneel.
gaat erom dat kinderen veilig zijn! en lijstjes creeeren idd geen veiligheid.
walgelijke situatie en dat dit kan! geen beunhazen in de jeugdzorg en goed toezicht nodig. via
hogere eigen bijdragen in de ggz... zie hier het leed. goedkoop duurkoop.
snap ik, geen sorry hoor. dus super goed dat je dit zegt. was zelf ook erg pissed understatement
als je die idiote uitspraak bedoeld van iemand uit zoetermeer. dat is dus niet de sp
ja we hebben je wel nodig hoor! ik heb altijd super veel aan je gehad en die info mag niet verloren gaan. 🙃
net zo lang tot ze een keer gaan luisteren naar jullie. je doet wel weer mee he?
beste mensen bij de politie! dit!
omdat belasting en premiegeld…
als alle zorgbestuurders deze…
zie hier gevolgen afbraakbeleid. schadelijk voor personeel!
het is goed te doen hoor maar vind dit extra knap!
ik zeg toch niet dat ik het niet naar mijn zin heb met mijn grote wonder? alleen ben ik blij dat ik een…
manlief twee weken van huis en nu met kleine man thuis. even een 👏🏼👏🏼👏🏼voor alle alleenstaande ouders. zo, dat mag ook eens gezegd worden.
walgelijk dit. en dan wel personeel ontslaan en vertrekkende manager vult zakken...
wie…
gaat niet over wa…
kinderen en gezinnen de dupe door formulierengekte en verantwoordingszucht. stop deze waanzin...
inderdaad. maar ook even erbij zeggen dat dit dus geen sp standpunt is. dit is echt een krankzinnige uitspraak.
een idiote uitspraak. is niet het sp standpunt!
eens deze idiote uitspraak is dan ook zeker niet namens de sp gedaan.
nou ik snap dat je het niet eens bent met deze id…
zeer zeker niet!
dit is zeker niet het sp standpunt. distantieer ik mij ten zeerste van.
hier distantieer ik mij zeker van.
ik ben telefonisch bereikbaar maar helaas niet in staat om het debat te volgen. wet voor verruiming…
hele goede column en waar een rijk land arm in kan zijn.
ik vind dit dus echt heel erg jammer. nos journaal gestopt met zomercolumns
sadet heeft hier op gereageerd al. natuurlijk keuren wij dit geweld af!
niet de groepen die een auto kunnen veroorloven zoals die in uw profielfoto
omdat juist de kwetsbare groepen, waar babysterfte hoger is, geen gebruik maken dan van kraamzorg. essenti…
t was heerlijk. jullie veel succes!
nee en stiekem wel lekker...
hahahaaaa 3 keer raden hoe laat ik op de fiets zit geen jas mee. ff alles van mij afspoelen dan maar.
onbegrijpelijk! essentiele zorg.
ambulancemedewerkers dreigen met acties en terecht! voor veiligheid werknemers en patiënten. steun! via
stiekem met slippers naar werk. oke hakjes in de tas
marktwerking zou wachtlijsten doen afnemen. zie hier t resultaat.... wachttijden in de zorg blijven oplopen | nos
ik zeg dit is winst! mag veel eerder, maar absoluut een noodzakelijke stap.
sorry dacht dat u er niet mee was.
dan gaat pappa werken of een goede fin ondersteuning. man o man we zouden vrouwen geen rechten geven?
zag en net een boks geven in de bankjes. voorstel voor meer rechten voor zwangere studenten aangenomen. 🤜🏼
even een tweetje voor jullie... een hartje onder de riem voor jullie!
ja duurtlang! wil t nu wel weten! zoveel goede acties.... 💪 met en door de mensen.
vandaag met de sp langs de deuren in amersfoort.
check! tijn op
super interessant bezoek jeugdverpleegkundigen uit t hele land met ❤️ voor de jeugd. 💪 gaan we meer v…
maar de vraag is... hoe lang moet t volk nog wachten op die tatoeages! 💪
niet nav maar wel t onderwerp
mazelen is niet een onschuldige kinderziekte. potentieel dodelijke ziekte. daarom vragen minister.
dit is niet eens een questie van meer geld, er komen meer middelen vrij had hij toegezegd en org…
helaas wel
niet alles nog hoor en zeker niet bekend bij iedereen
streetart tweetje! initiatief van lokale schoenmaker in den haag. vind ik dus mooi ❤️
juist ivm wachtlijstbeheer etc eens eens eens
als je niet weet welke instellingen en behandelingen er zijn kan je ook niet googelen 😜
schattig, kent de afdracht van de sp nog steeds niet. en ons standpunt over voldoende woningen. of scheefwonen. etc etc 😂
afscheidssymposium van en spreekt henk toe. wat een mooi ❤️
je collegas hebben en doen momenteel weer verschrikkelijk goed werk. jij ook succes!
jullie hebben dit heel goed, snel en proffesioneel geregeld. hulde. sterkte verder.
ik hoorde t inderdaad. goede tip!
snap ik, ik vond je punt juist daarom even getwittert.
tip voor als je loopt met dit soort gedachten
laten we ook even stilstaan bij t feit wat deze hulpdiensten en machinist moeten verwerken nu ❤️
ja zo klok t hier ook. heftig merel...
veel respect voor jullie werk! ik zou niet durven, de klap alleen al was verschrikkelij…
in een trein waar iemand voor is gesprongen.kan mij niet voorstellen watvoor leed hier achter zit. sterkte machinist/hulpdiensten
check collega totaaal geen zitvlees hier hoor. elke dag spelen. vooral buiten haagse stolp ❤️
verschrikkelijk dit idd
is niet de eerste keer datvik er sta... helaas
is helaas niet mijn eerste debat aanvraag hierover 😭
zeker niet als t aan ons ligt, maar ik krijg 0 beweging bij de staatssecretaris 😭
wie weet volgen er dan meer
recht is sowieso gesloopt, daarom hebben we ook tegen de wet gestemd.
wat verschrikkelijk heftig. we hebben kamervragen gesteld en er komt een aanpassing op woonplaatsbeginse…
wtf ja, mijn ontbijt kwam plots omhoog.
hoezo emma is een uitzondering... psychiaters hulp aan suïcidale kinderen schiet tekort via
gelukkig een verstandig woord. laat ik daar nu net een hele opinie over geschreven hebben
maar iedere werker die zich…
hoeft niet andre, ik zei toc…
raar, want ik heb t niet ove…
was ik met zwangerschapsverlof? goed gedaan hoor, fijn dat t bij jullie wel goed gaat.
contact even