man man man, dat is noel op de foto, niet liam
svp stoppen met tappen op bestelling en zorgen dat er bier klaar staat. 10 minuten wachten is echt te lang
man man man weer die one liners, vorig jaar niet anders tijd om afscheid te nemen van co…
wat een zooitje die videorefs
nou toon, nu niet meer druk maken over een beetje rook, maar ga maar eens evalueren met philip en zijn selectie!!! schande!!!
als de uefa wil gaat barca morgen ook nog door tegen juve
het geld beslist wie de finale mag spelen
en zo blijven we de club waar geen lef wordt getoond met eigen jeugd. tijd dat de heilige huisjes naar de bank gaan
top service!!!vandaag een mooie set lungo en espresso glazen ontvangen ter vervanging van cupkopjes waar kleur vanaf is
wederom een drama, wordt pas gevoetbald als ze achterkomen, maar dan is het al te laat. alleen ramselaar snapt het!!!
wederom de enige met passie en strijd, voor jou kom je naar het stadion, onbegrijpelijke wissel, maar trots op jou!!!
uitfluiten mag niet, maar deze wantoestanden op het veld moeten wij supporters gewoon accepteren? schande dit!!!
beste toon, waarom wederom geen lichtshow?
uefa krijgt voldoende euros van de russen
verrassend mooi!!!!
wat een beschamende vertoning. de belangrijkste wedstrijd van het seizoen zo ingaan. schande!!!
wordt de wijnproeverij nog herhaald?
gaat de ticketwebsite nog in de lucht?
het wordt nu echt tijd voor harde woorden van cocu. het gif dat hij als speler had zien we niet terug langs het veld!!!
dat kunnen en willen we ook niet begrijpen!
de emmer liep over bij velen. al maanden is luciano uit vorm en pereiro is in vorm, maar mag alleen invallen.
leuk dat licht toon, maar onze jongens waar net zo verrast door het licht als door fifa16. wat een zooitje!!!
rijden vanwege staking. ga doen waar je voor betaald wordt
je hebt niks aan de politie, op zondag uit je bed dreunen door illegaal feest inde bossen bij waalre, maar ze gaan niet 1/2
dankjewel voor de snelle reactie!
houdbaar tot 31/8 maar zo tref je het aan, kwalijke zaak als dit de nieuwe standaard wordt
wat doe jij bij voetbal inside?
wat een kleuterbeleid om zon mooi affiche als oefenwedstrijd te verbieden. stad en stadion vol, is toch mooi
het is heel netjes opgelost! dank daar voor
dit stukje plastic zat in een van de oven kroketten. via de site al melding gemaakt maar geen reactie
die wil je toch ook niet volgen 😄
denk dan ook eens mee met de hondstrouwe aanhang €10 achter de goal €15 lange zijde, zit het zeker vol
uhmmm knjb kunnen we beter zeggen. blom instructies meegegeven zeker
uit welke film is de muziek die onder de aankomst van floortje bij st. helena zit? het punt op de boot met het eiland in zicht
😄 allemaal voor een heel mooi doel!!!! geniet er maar lekker van met zn drietjes 😉
kan die finale uitzending niet anders???? man man man anderhalf uur gezever voor 10 minuten waar het echt om gaat
yeaaaaahhhhh!!!!
toevallig nu aan het updaten naar ios 8. probleem deed zich al voor in de ios 7 tijd
range extender zend ook 2,4 uit
bedankt voor de info, ga ik checken!
iphone4s en en tp link range extender tlwa850re
dit is het instellen van wifi dat weet ik wel, maar zodra range extender is ingeschakeld heb ik vier streepjes wifi.......
yep, na installatie range extender heeft de laptop wel wifi maar de iphones werken dan helemaal niet
en de meterkast in een nieuwbouwwoning is net een betonnen bunker vol ruis
leuk en aardig, kpn heeft geen zin om de kruipruimte in te gaan en monteert de experiabox in de meterkast. ipv een centrale plek
heb ik al gedaan, wifi op iphones blijft dramatisch
hebben jullie tips voor goede wifi op slechts 6 meter van de experia box?
heb zelf een dochtertje met down, zie dit niet als aapjeskijken, maar om meer inzicht te geven.
mooi programma goede kijk in het leven van mensen met down syndroom, een half uur met een traan en een lach 😄💪
stop met dat trieste beleid richting de echte supporters die wel voor sfeer zorgen ipv dat theaterpubliek
wat zegt een voorbereiding, hoe vaak hebben we wel niet een fantastische voorbereiding gehad en na het seizoen weer lege handen
mogelijk op korte termijn. alleen een gereviseerde maar levertijd kan niet worden afgegeven
wat een slechte service bij hyundai nederland. bij mijn schoonouders binnen twee jaar navigatie kapot en geen oplossing......
zo hoort het!!!!!!
hèhè heerlijk!!!! kom aan belgië
onbegrijpelijk ja, hazard onzichtbaar, had er al lang vanaf gemogen
worden the stones uitgezonden op cultura
helaas dat is niets voor mij
get well soon kevin!!!
klasbak!!!!! great game working class hero!
iets voor jou nickske?
en daarom ben ik langgeleden al gestopt met vi kijken, wat een clown.
zit je wel te kijken??????? man man man, nostradamus kan beter met pensioen!
cocu, wordt eens boos voor de camera!!!!
inderdaad jammerlijk laat voor zon bedrijf, auto incassos ondervinden nooit last van storing. consument vs .......
wanneer is de tweede storing in korte tijd in de omgeving eindhoven opgelost?
galatasaray
ik vrees niet de ondergrens maar gewoon niveau
ach rik, als je betaald voor een seizoenskaart mag dat, is zeker niet genant!
sinds wanneer doe jij het weer presenteren bij rtl?
wanneer kan ik een reactie verwachten nav een klachtmelding op 4/9
thanx!!!!!!!! vanavond gaan we er een legendarische avond van maken
trots!!!! geniet van aankomende zaterdag!!!
genieten van dit nieuwe psv!!!!
goedemorgen kan het zijn dat er een storing is in het mobiele netwerk. krijg melding geen service
welkom bij de mooiste club!!!!
neymaaaaaaaarrrrrrrrrrr
ja daar is romario, ster uit rio de janeiroooooo
lekkere finale zeg!!!
ben er klaar voor!!!!!
mark bedankt! voor mij mister psv altijd strijd, passie en inzet.
hahaha verkeerde stad?????? geen serieuze 020 supporter dus
worden ze geboekt?
vind je het gek??? zuiger die onrust stookt
je kunt het!!!!!!!!!!
zal wel zijn omdat het geen psver is dit keer, opdoeken dat knvb orgaan
je kunt het
waarom krijgt koch nooit een kans, is hij echt zoveel minder dan wat er nu voor handen is?
stoppen met koopbeleid en jongens van de club/opleiding klaarstomen die wel trots zijn op ons shirt
dat zou wat zijn
oefffff heel fijn, hoe laat vliegen we?
edwin van ankeren
en de knjb is niet partijdig? alleen lens schorsen en de haagse kakkerlakken niet. wat een drama orgaan
en die feyenoorders zeker niks?
zeker!! wijk st.pauli is te gek en dan zeker een potje voetbal van fc st. pauli meepakken!
mond open houden en morfine pillen, dat waren mijn beste vrienden na de ingreep
welkom terug!
haha tis niks en zal ook nooit iets worden
das een gezellig cafe!
onbegrijpelijk, koch uit eigen jeugd geen debuut gunnen, maar ipv daarvan een ex 020 de eer geven
wat een lachertje die finale van gelukkig heeft de echte winnares haar vier prijzen al gehad
is dat the who.......ohnee het is direct, lekker hoor
jij ook sterkte
hahaha en bij city zeker bovenaan pickorde
zielig mannetje die ronaldo, waar blijft zijn why always me shirt
en wat is het antwoord??
geen idee
hoppa, lekker begin
succes en pak ze aan!!!
ouderwets genieten van jongens als van ooijen, depay en zanka forza psv
aan het lezen, heerlijk boek, je hoort gewoon zijn stem als je het leest
oef dat scheelt, link dat bocht altijd aan 020
hoe kunnen ze nou heineken tappen bij ado???????
speedfest!
proost!
knap hoor, het hele toernooi je krachten kunnen sparen voor de finale
leuke finale tot nu toe
bij copa geweest?
spanje speelt als barca maar dan zonder messi, geen venijn
hahaha, dat wordt een volle luier
bertje zet je trots opzij
eindelijk, het ek 2012 is los!!!! polen start leuk
hoe vet, blue moon rising
tis klote, overduidelijk weggegeven door die kt friezen, maar we hebben er zelf voor gezorgd toch?
de echte helden!!!
hopen op die tweede plaats! forza psv
ik ben al weken geleden gestopt met kijken
gaaf!!!!!!!
ik zeg, eigen jeugd ipv te dure b garnituur
sterkte en hopen op een wonder de komende weken
ach, daar sparen we voor x
hahaha, daar ga ik toch ook geen zinloze feitjes over melden, achter elkaar door maar over een broodje kroket daarentegen
dat was die zeker
schaam jullie heel diep!
eerste keer gevolgd, maar wie zal het zijn, hadewijch?
gek van, om 5.28 klaarwakker. dan maar een espresso om de dag door te komen
mooie overwinning en mooi gescoord, zondag weer een 100????
volgens sierd de vos weten wij alles. wordt niemand gek van die man
zit er klaar voor!!! forza psv
iedereen doet het, trek het je niet aan. forza psv!!
jemig wat een prijzen!!! maar 45, is goed te doen
kaartjes betaalbaar?
royaal is het woord
we hebben van kok johnny, kennis mogen maken met de witlof. fijn!
jaja, de kaasblokjes in de foodprocessor plaatsen. kan dat niet wat vlotter
en zondag knallen kevin!!!! op weg naar de platte kar.
van jou kan ik het hebben
hahaha, nee last van sapvirus
jahaaaaaaaaaaaaaaa it giet niet oan!!!! laat de lente maar komen
hopelijk halen onze jongens kracht uit de tussenstand in 020. forza psv!!!!!!
de telefoon geeft 19 aan in eindje, het zal toch niet echt???
lekker, pennywise hard door de speakers
en zo is het!!!!!! zon, warmte en vrolijkheid
goe gedaan, trots op jullie!!
real eeuwige losers, het 020 van spanje
jahaaa ipod op de shuffle nu lekker bullion van millencolin
wordt gek van dries zijn one man show forza psv
gaaaaaaaaaaaaap
nope!!!
yep, helaas maar 1 tv
ik ken het. ben behoorlijk klaar met de talentenjachten op tv
sterkte!!!
lekker lang van blijven genieten!!
rij jij tegenwoordig in een truck met oplegger?
vind je ook niet dat aguero teveel voor eigen eer gaat? twee keer geen oog voor medespelers
zoooo, dag 5 dat ik als een blok in slaap val s avonds, maar s nachts lig te spoken in bed
wat een geweldige terugkeer van thierry henry op de engelse velden
nog ruim een uur en dan aftrap cityunited
philips natuurlijk!!
woowww heel vetjes
zou dit dan de dag zijn dat de wereld vergaat?
en zo werd one geboren
op uitzending gemist de docu over u2 aan het kijken in het uur van de wolf. indrukwekkend en een mooie kijk in de band!
indrukwekkende aflevering van over noordkorea
hoe komt dit nummer in de lijst???? duet de leeuw kleinsma
en voor 2012 de titel, beker en dries als topscorer!!! geniet ervan!
vetjes!!!!! have fun. ik ga tussen kerst en o&n
volgend jaar marathon van eindje!!
zwaar belachlijk!!! wat een prijs.
dit is voetbal!!!!!! forza psv
europese clubs gaan zich nu echt melden voor manolev
klopt het dat liverpool, real madrid en juventus op de tribune zitten voor manolev?
dikke schaar van manolev
gewoon geniaal, wat een genie!!!
zo hoort het, kunnen wij nog veel van leren
in cafe mokum nog even kwartier psv meepakken.
josje josje josje
doet het weer, laat die vent stoppen met fluiten aub!!!
erg nieuwschierig geworden door tweets in mijn timeline over het is beschamend, maar zo hilarisch. goedemorgen!!!!
whehey its matchday!!! dadelijk hapje doen bij indonesia en dan psvfc groningen
hahaha, te laat
ha nickske, ik geef yf morgen een boek mee met een erg lekkere klassieker met een grote twist.
hahaha nu is het helemaal crisis in 020
vies woord
indrukwekkende 1 minuut voor rob. jammer van een enkele pummel uit dat gat.
de omgekeerde wereld, klant klaagt omdat het materiaal te goed is!!!!!!!! gek van!!!!
hanibal lecter in de spits bij nederland
en zo is het!!! man wat frustreerd mij dit onrecht.
cars tandenborstel en cars toilettas in de badkamer. daan is in tha house, morgen efteling!!!
misschien beter kunnen zoeken naar een ervaren transfervrije verdediger voor de breedte ipv spits
herkenbaar
20.50 zondagavond, mijn lichaam zegt, tis mooi geweest. lekker slapen nu.
mee eens!!!!
cas spijkers overleden, de man die nederland aan het koken heeft gekregen!
wat een poepie!!!
nog even match of the day voor het slapen gaan, moet city zien
seniele mies bouwman is slecht voorbereid, wat een blammage. proficiat dik verdiend
noel gallagher is een genie!!!
gelukkig dat noel in november naar de melkweg komt!!
wat een fijne plaat van noel gallaghers high flying birds!!! beady eye eat your heart out!
meisjes met uggs svp verbieden het ziet echt niet uit
op stratun met de boys van t
wheheeey its matchday!!!!! om 17.00 de wok op zijn kop met de boys van vak t en om 20.45 kickoff
owwwww das fijn!!!! nergens last van gehad?
proficiat klasbakken!!!!!!!
oeffff slechts 200 paar wereldwijd van de noel gallagher adidas originals. ik moet een masterplan bedenken voor deze mission impossible
wat een schoentjes!!!!! hebben hebben hebben
betrap mezelf op verslavend gedrag. het huis afgezocht naar een verdwaalde peuk en tadaaaa gevonden
ben blij als de crematie/begrafenis van jobs voorbij is
wordt gek van de
vanavond spelen in cafe de rode pimpernel in shertogenbosch vanaf 21.30
de broertjes verhoek gaan goed in de kuip!
bizar maar indrukwekkend om te zien!
toegevoegd aan de agenda 4 oktober a.s. olivier. live in cafe de rode pimpernel in shertogenbosch
wat een middag en oh wat haat ik 020 dan maar die drie punten bij de champignonteler ophalen
forza psv!!! stadionbar de aftrap w/ 2 others
onderweg naar de aftrap, moed indrinken
wowwwwwwwww het wokpaleis
fijne vakantie!!!
staantribune thuis te spannend om te zitten
waarschijnlijk de laatste dit jaar
de librije?
yesss kaarten voor noel gallaghers high flying birds in da pocket!!!
eindelijk!!!! thuisblijven kan natuurlijk ook
nice!!!!!!! daar doe je het voor!
mijn plekkie voor vandaag!!! komt allen.
tijdschema olivier. 13.00 13.20 / 14.10 14.25 / 15.10 15.25 / 16.10 16.25
vandaag hallo cultuur! in eindje met olivier. in popei, kom gerust want het programma is binnen!!!!
in de rij voor de beste friet. friture martin zwerts
goed man leuke nieuwe formats hopelijk wordt er iets mee gedaan!
heerlijke verjaardagspasta door
ik kom eraan!
geniaal!!!!!
zondag 4 september met olivier. live tussen 12.00 en 18.00
slim op de dag van psv020
na drie dagen praag en pivo zegt mijn lichaam tot hier en niet verder
de grootste dit weekend, 1 liter
laatste hele dag in praag, wat een heerlijke stad, alleen jammer de ze hier op zondagochtend om 8 uur al beginnen met werk aan de weg
dadelijk naar praag!!!! verrassingsweekend gekregen van mijn lief
het wordt wel spannend gemaakt
goed om te weten. vrouw kreunt tijdens de seks voor partner
op weg naar het stadion. met klanten naar
waar is dat feestje, hier is dat feestje op 1. nu nog
het kan alleen maar beter worden
nog 50 minuten wachten en dan eindelijk weer voetbal!!!!
welkom terug, je bent gemist
otten cup de herdgang w/ 2 others
na een korte nacht nu op weg naar de herdgang
op het terras met de nieuwe eindhovense sensatie sherlock volume
geweldige set, wat een man, wat een charisma
in de rij niet de enige die vooraan wil staan
todays the day!!!! eindelijk ga ik hem dan live zien cant wait!!!!
heerlijk zomersweer in eindje
koop of huur? mijn appartement staat te koop
zo zo klinkt goed, maar mis wel de foto
wat een top idee is helemaal opgegeten
zoiets? nu de oven nog in
espresso laat op de avond is geen succes, stuiterend in bed dus even een slaapmutsje pakken
klaar om te bakken
het deeg is gemaakt, nu laten rusten en dan kan er gebakken worden! focaccia jammie
kofte kebab en de film awaydays goeie combo
kofte kebab ala jamie in de maak
vrijdag tekenen en dan is het huis van ons. oplevering augustus/september 2012.
spannend! de makelaar aan de lijn om te vertellen dat we het gaan doen
wat een tour!! gewoon genieten
ben toch echt een pub mens
happen en stappen met collegas trafalger pub
op tijd thuis voor de alpe dhueze
nu genieten van avondetappe met
im at mcb valkenswaard john f kennedylaan 3159, valkenswaard
heerlijk avondje koken voor mijn schoonouders achter de rug met coquilles en zeeduivel. het was weer heerlijk en gezellig!
fok!!!! dat geloof je toch niet...... sterkte.
jahaaaaaaa het bier smaakt weer na 2 weken pijn!!!!
de tiger tiger
jaha ben weer aan vast voedsel gaat weer stukken beter
na een week ijswater en waterijs is daar het moment.....
hahaha kofferstress, ik ken het
en dan krijg je opeens een pakketje! wat hou ik toch van
de keelamandelen zijn eruit. nu aan mijn dieet voor de komende dagen
vandaag neem ik afscheid van mijn keelamandelen, het was een mooie tijd. rust zacht 19772011
deze dus!!!!!!! omega!!!!!
en na een heerlijke vakantie met kom je in venray pas achter het vakantienummer van de dominicaanse que tengo que hacer van omega
vanmiddag mijn schoonvader zijn eerste gitaarles gegeven, hij heeft talent, maar moet nog even soepele vingers krijgen
wat een aap!!!
weer thuis na heerlijke dagen in sluis en knokke met topweer!! olivier.
net heerlijk mosselen gegeten in sluis. van die grote, heerlijk!!!
weet iemand waar je lekker kunt eten in sluis?
im at fletcher hotel de dikke van dale hotel sluis st annastraat 46, sluis
lekker op de kamer na een dag wellnessboot, nu pas noodweer gelukkig hampshire dormylle hotel & spa
dadelijk lekker een dag ontspannen op de wellness boot met