doet de ns eigenlijk er iets aan om te zorgen dat mensen niet voor de trein springen?
aawh maar toch geen id? haha
saraaaah wat studeer je nou eigenlijk?
gewoon zonder iets om te roepen een trein ertussenuit knallen, dat kan alleen de
beter heb je morgen nog een beetje een stem haha veel plezier man!
anna drijver, wat ben je mooi !
hoop echt op rekik man! hendrix bakt er bar weinig van...
wat wordt er weer slecht gevoetbald....
als je een keeper nodig hebt, hoe kom je dan in hemels naam bij lamprou terecht?
haha voor de wedstrijd al helemaal bij met die lamprou in de goal
hoop toch wel nog op rekik bij want vind hendrix toch geen zekerheid
vorm mag er nog even voor de vorm in
niet zo mijn dag
hoe vol is the hive? als ik morgen middag kom, is er dan nog n plekje?
wij komen pas de donderdag middag aan op de camping, is er dan ergens online te zien welke campings vol zijn? dit ivm parkeren
goed geregeld! veel plezier iig!
haha okay en jij bent zo sociaal dat je de eerste avond al niet meer alleen zit wss p
wow super chill! dus jij komt als neger terug? hahah ga je trouwens nog met meer mensen?
aawh super lief! en niet verkeerd haha heb je daar nog wat vrije tijd of wordt het hard werken?
aah vet, denk mn gitaar, en wat wil jij laten zetten? en half jaartje naar?
nicee, ik ga wss kijken na de zomer aangezien je er niet mee mag zwemmen enzo
wat voor wil je?
suarez gewoon schorsen voor het leven
kutgevoel...
ja want die meldingen helpen . investeer eens in optijd rijdende groot genoegen treinen ipv randzaken als groene stroom
wow goed gezien, maar ik sta voor de zoveelste keer, terwijl ik ook al vaker heb aangeven dat jullie te kleine treinen inzetten
gaat ooit een bedrijf worden waar mensen tevreden om kunnen zijn?
ja dat snap ik maar waarom heet het niet spoor 7?
waarom is het in ehv perron 1,2,3,4,5,6 en dan ineens perron 34?
hans lieberg wat een baas!
kunnen we even contact hebben?
vandaar dat je niet reageerde p hoe kan ik je t best even bereiken? dm?
ic 1012 uit weert naar ehv gaat, maar t is duidelijk dat jullie weer niet door hebben dat wo onderwijs geen vakantie heeft
waarom verbaast het me niks dat de grote van treinen weer verkeerd inschat in de vakantie tijd
klopt, goede coach, maar blijft pannenkoek!
niet nu weer veel gaan drinken omdat je m weer hebt want dadelijk ligt die met jou in de bosjes p
wss wel aangezien ik er niet ben om je naar huis te brengen hahahaha
die moeten echt eens normaal doen eeh
paar keer maar je stuur vast gepakt zodat je niet de bosjes in ging p
ja je kon echt niet meer fietsen haha
gister vooral hahahaha
in nl is er alleen een in amsterdam
ja, je kan online n afspraak maken
hoe lang heb je je iphone? want als je nog in de garantie zit kan je m omruilen voor een nieuwe bij de apple store
gewoon dikke elleboogstoot, moet gewoon rood zijn voor ibarrra
piet velthuizen bedankt haha
nu is t duidelijk, susan is dus de mol
van gaal kan veel namen doorstrepen promes, boeitus, schaars, sneijder, martins indi, clasie...
deed jij trouwens je scooter te koop?
tis weer eens zo een wapp gesprekje
klopt, en die baan is lang dus dat moet hard, maar ze hebben allemaal ook n eigen mic dus hoor je t op tv echt hard
ic die om 812 in weert is naar eindhoven, die zit altijd sowieso vol...
ondertussen moeten jullie de cynische ondertoon gewend zijn, was er gewoon gaan zitten omdat het anders simpelweg niet pasten...
wauw , ik zit gewoon eerste klas omdat tweede klas én het gangpad vol zitten/staan
psv, wauw wat spellen jullie weer kut...
okay dat ga ik dus zeker doen! kan echt uren naar die vent luisteren
fack, is dat vandaag in t munttheater?
sander van de pavert, wat een arrogant mannetje toch
was uiteindelijk dik een half uur dus misschien toch maar eens werken accuratere reisplanners
wanneer gaat mijn treinic weertehv rijden ik moet een tentamen en n persoon van t spoor verwijderen duurt echt niet zo lang...
wauw je voelt de pijnlijkheid toen de random stranger zei vind je het goed als ik verder lees?
je levens verhaal vertellen in de trein aan random strangers...
dadelijk weer !
ludovico einaudi op en slapen maar
bedoel je met dure fender mn custom shop gitaar of mn fender twin reverb amp?
“@smoelyy okeee eventjes grappig terug doen hahaha ”
had ook 3x al n rode kaart moeten zijn bij colombia
imagine dragons blijft toch echt op mn lijstje van must see live!
the real slim shady live gezien, avond kan niet meer stuk!!!
zusje had kaartjes geregeld
bij ziggo dome, nog even wachten en dan
dit nummer jat gewoon stukjes van wonderwall oasis...
wacht maar tot rolf dat hoort haha die zei me laatst dat jij niet veilig zult zijn in weert haha
meen je die? facking nice!
mis mn maatje eigenlijk wel 😕
nu eindelijk dan de ios 7 update van whatsapp?
veel plezier maatje, ben 3 jaar geleden geweest, je gaat het echt geweldig vinden!
jozefzoon is echt niks waard...
nicee, moet nogsteeds trouwens langs komen hahaha
krijg hier toch echt wel even respect voor van gaal
whatsapp doet het niet, laten we hopen dat dat is omdat eindelijk de ios 7 update komt
prem is zo een zielige vent
sommige unis hebben geen vakantie...
wat is deze onzin ic die om 1012 vertrekt uit weert richting ehv is weer veelte klein
ja ik flipte m toen de app zag en die ook ic storing gaf maar gelukkig kreeg ik te horen dat die wel gewoon rijden
alleen de sprinter tussen ehv en weert rijd niet... dus kortom jij wordt echt genakt
dan zou ik wel wil wijzen op dat de iphone app storing aangeeft waardoor t lijkt of de ic ook niet rijd
wanneer denken jullie nou dat er eindelijk weer treinen gaan rijden tussen weert en eindhoven?
pap me opgehaald uit ehv
ben dus nog wel even in eindhoven... dus dan maar even langs de kfc
nee alleen als je op deze knop duwt komt de foto in je story
snapstories is dat je een foto kan posten die 24 uur lang zichtbaar is
wanneer spreken we af dan? p
dijks mogen ze echt een rot schop geven met zn theater
bedacht door mensen met veel fantasie
alysa niet zo depressief, brighten up, het komt allemaal goed
klopt, maar als je die shit allemaal uit zet scheelt het wel weer
haha ik heb ook geen idee, zal dan ook wel niet belangrijk zijn ofzo
aawh, snap je het nu wel allemaal een beetje?
ik vind het ook minder mooi maar sommige functies zoals dit zijn zo fijn
je bent zoveel chiller dat ik bijna ga huilen
moisander laat de vrij zien hoe het wel moet
hahah ik heb daar ook zo vaak schijt aan x
ik ben in deze afgelopen anderhalve week al een held geworden om een trein net te halen
waat? haha nooit geweten o
speel jij gitaar? sinds wanneer? x
vnv afscheidsavond van mn maatje gehad! gvd wat ga ik die kerel missen
echt mijn vrijdag rooster is kut, moet nog beginnen en pas om half 6 klaar...
kut situaties enzo
morgen na drie maanden weer eens school
shop till you drop haha ofja volgensmij meer tot dat je geld op is
haha zeker omdat je diehard fan bent van de tweede kamer enzo
wat een klasse verschil als je de voorhoedes langs elkaar legt
nou dat is dan dat
thomas heb jij volgende week ook nog vrij?
bier cantus, echt geniaal!
fack dat moest 10 zijn
“@vangoor we zijn er klaar voor
awh sterkte alysa! x
waauw, zakaria bakalli, wat een held
sws wil ik balotelli live zien, laten we hopen dat ac milan net zo slecht speelt als in de voorbereiding...
facking hel, als ik terug ben in nederland moet ik gewoon zo hard opstap
gewoon al n weekje er letterlijk ziek van, hoofdpijn, misselijk, alles
neee ik vind het allemaal prima hoor o wou je gewoon een beetje plagen
hahahaha sorry zie elke dag wel zo een tweet van je voorbij komen en kon me deze keer niet inhouden x
“@lisssss zwem je mee langs de mac swim? hihihihi breng mij 20 kipnuggets dan
straat overstroomd
iedereen flipt m door een beetje regen haha
gewoon al de hele dag misselijk ervan
wakker en meteen weer kutgevoel
rt wedstrijddag! en wát voor een wedstrijd om 20.00 uur is in het philips stadion de aftrap van psvteam bommel.
zin om dingen kapot te slaan
gewoon totaal kutzooi
ongelofelijk ontiegelijk
hoort toivonen hier niet op te staan?
veel plezier en veel succes! x
fantastische band, vorig jaar live gezien op bospop, meteen een lp gekocht en handtekeningen erop
“@jornverheggen hockeyloverz, wauw.”
hoeveel heb je daar voor betaald? en zijn de fouten heel storend?
politiek 24 kijken dus
gvd kut inspectie allemaal zo lekker geregeld! slaan totaal de plank mis met weer uitstellen besluit...
gefeliciteerd maat! x
raad je aan ios 7 te downloaden?
zeker wel
nieuw thuis tenue van psv is echt mooi!
djokovic kohlschreiber op roland garros op tv, 3 jaar geleden zag ik die wedstrijd nog live
ben wel echt benieuwd naar alle opnames
optreden is zoo vet!
martijn ik ben er wel altijd voor jou! &lt3
uitzetten en in rijst leggen
ligt er aan hoe veel krassen erop zitten en hoeveel gb die is, vaak kan je op marktplaats kijken wat ze er daar voor vragen
psv sluit het seizoen weer in stijl af
gvd kut gevoel
er zijn twee lokalen boven in de d2 voor dyslexie en daar hangt voor iedereen als het goed is op waar je welk examen maakt
ik vind hem echt een talent voor de toekomst maar is in zijn acties nog niet constant genoeg om volledig mee te draaien
depay duidelijk nog niet klaar voor het eerste
duidelijk wat er deze zomer moet gebeuren half team verkopen en betere vervangers kopen
3x geen penalty, lekker kuipers
psv dus geen prijs dit jaar ofzo
zoals bij elke tegen goal van psv lekker verdedigd...
veel wijsheden op deze laten avond
volgende keer zijn sws wat bekendere bands dus wss wat drukker
eindelijk die tweede plaats weer een keer!
gvd yes, en nu hopen dat die mongolen het achterin het nog volhouden
verdediging laat weer zien dat ze in de europa league thuis horen...
hoppa feyenoord 20 achter
okay fluit alle eredivisie wedstrijden maar af dan is ajax misschien wel kampioen maar psv dan sws 2e
hahah ja ik ben een vreetzak
bea bedankt hea
rode jurk van
jaaaa dadelijk dus het
dadelijk dus lekker drinken op koning pils
maar we stoppen weer
oow wacht nog even dit willempie, gefeliciteerd!
je kan ook weer zien hoe vol nederland met rare mensen
maxima zag er ook weer goed uit
ik vind wel dat die lutz jacobi weer bewezen wat voor mongool ze is
zullen we dan ook maar even een paar tweets over
weet ik zeker
hahah nee vast niet, en anders zeg je gewoon nienke en dan weet ik het allemaal weer
aah okay kom de volgende keer maar hoi zeggen haha
ja soms sommige mensen.... arrogant en respectloos zonder dat dat nodig is
kan om zulke dingen echt boos worden...
wat zou ik graag jou gezicht verbouwen zeg...
zo facking arrogant eeh...
gvd kan ik het begin van psv niet zien, scoren ze meteen 2x...
hard gestreden maar uiteindelijk toch gesneuveld
en dat is 3
victorious liedjes luisteren met
holy fack, aanslagen in boston bij de marathon
average gesprek met
als ik advocaat was zou ik nu opstappen, niemand kan met zo een verdediging kan niemand kampioen worden....
ik denk dat ze bij de gemiddelde b1 beter verdedigers hebben dan bij psv....
pieters maar snel verkopen, kut spelers, vieze tering mongolen daar achterin...
en nu door lui flikkers, strijden! passie! laat een keer zien dat je psv waardig bent!
ben fan van psv maar niet van dit team, ongelofelijk slecht weer....
waar is die strijd?
de spanning stijgt!
wij trekken ten strijden!
gebruik je chrome of firefox? dan moet je adblock installeren, heb je geen reclames bij youtube
vet, ik heb de mijne sinds vrijdag, echt zwaar chill ding
hoe lang heb je de iphone 5 al?
het hele weekend was een hoogtepunt eerst zelf optreden op van horne pop en de dag daarna dewolff, allemaal in de bosuil
wat denk je dat ik probeer te doen...
nogsteeds gewoon klaar wakker.. wat is deze?
en dit psv heeft champions league gedachten? ben benieuwd wat ze dan tegen bayern zouden maken...
makkeli verdedigt weer eens mee
best wel irritant als de commentator redelijk partijdig is
sommige mensen mogen echt meer strijd en passie leveren tijdens een wedstrijd.....
tss hoe slecht is dat dan? waar is de fanta? fanta is toch echt wel de antikater drank hahah
word al weer ziek van al dat theater van barca
hoppa kees is de mol
ik ga denk ik een shirtje halen van marcelo, met daarop marcelo aka pannenkoek
derijck blesseert weer eens zn eigen keeper...
boeren!
klaarzitten voor feyenoord psv
dramatische penaltys van ajax....
penaltys, toch ff kijken
ja heel leuk werk!
waarom heb jij altijd zulke leuke dingen in je leven? je maakt me jaloers...
hjb, rossoneri zijn bazen!
waarom wil iedereen naar pinkpop? wechter heeft sws beter programma!
ik heb de oplossing! gewoon gaan hahah
iemand die rp1 of 2a goed gemaakt heeft en zo aardig is deze te delen met mij?
vet! ja zomer 09 dus ik wil echt weer terug! mijn pa is geboren in rhodesiëzambia/zimbabwe dus moet ooit nog daar naar toe
ben jij ook naar afrika geweest? o super vet!
tapas eten met gezinnetje
sorry x maar normaal plaag jij mij altijd...
heeft hem al een berichtje gestuurd op deze speciale dag? ^^
misschien vandaag verstandig zijn?
haha sorry, moest je even plagen... maar beterschap! x
je hebt toch geen pfeiffer hea? o
opstap met de jongens
helemaal naar de klote! hahha
helemaal naar de klote
hahha rood voor janssen, pannenkoek!
na al de afleveringen van widm wil ik gewoon echt weer naar afrika!
bekijk mijn opstelling voor nederland italië via
weer een prachtige goal van wat een baas!
haha knalt weer eens over een tegenstander heen
hoppaa dikke vrije trap van
godverdomme waarom gebruikt comedy central een nummer dat nog niet uit is voor het nieuwe seizoen van californication... echt een dik nummer
en nu weer nog zekerder dat kees de mol is
woaah lekker goaltje van wijnaldum
gezellig kijk er al naar uit om je in een jurkje en op hakken te zien d
jij ging toch ook naar het gala? x
is dat nummer van de 16 jarige eric ergens op cassette verkrijgbaar?
was ik ook niet van plan x
heb eerste twee uur vrij ^^
kees keek door een soort verre kijker tijdens de eerste opdracht, aflevering heet tunnelvisie, toevallig....
in een aflevering die tunnelvisie heette was tania de enige die deze woorden in haar mond nam dus dat zegt toch ook wat?
tania moet toch nu wel de mol zijn, ze zat volledig op tim en toch is ze door? of is tim er niet uit? hij kreeg geen rood scherm
met al die moois landschappen van afrika wil ik wel weer terug naar het afrikaanse continent!
hee het is wel zn verjaardag, dan moet iedereen los!
haha jawel, en dat jules je dan komt ophalen. zou echt mooi zijn!
of misschien omdat ze het vet vinden om tussen negers te eten?
ken je dat gevoel als je op de toilet zit de dag nadat je pittig hebt gegeten, ik denk dat kfc fans dat gevoel lekker vinden..
hij was een machine!
zat je weer in de f kantine?
okay tja kon ik maar gitaarspelen haha
was zelf weer echt even teleurgesteld dat ik het zo verneukt heb, was echt onaardig van me o echt sorry
ik was eigenlijk best wel gemeen tegover o maar gun het je echt wel dat je door bent!
wie heeft martijn gehosseld?
voel me een stuk beter na een week wat heeft nederland toch een hoop lelijkere mensen dan ik
gvd waar is mn capo?
heb je al een nieuwe?
en we beginnen de dag met hell yeah
foooo fightersss! ookay emiel roemer dat doe je wel goed!
tie your mother downn! wat een fantastische plaat toch
weer met tranen in mn ogen door
ach ga sws weer naar afterparty haha! kom jij ook?
maat ik ben niet door en ga sws afterparty!
en hoe gaat het met je anon? heb geen aks meer van hemof haar gezien hahah
krijg ik eigenlijk nog antwoord op mijn super asks? d
zal wel goed komen, morgen wel gewoon diehard tekst leren
haha maakt niet uit was wel leuk om weer even met je te repeteren!
waarom had geen cake voor me mee genomen eigenlijk? p
vnv repeteren d
dat is geheim 0
ja wij hebben n klein beetje geoefend maar vnv waarschijnlijk nog n keer dus hopelijk gaat het morgen dan goed
doe maar niet je best, dan heb ik meer kans om door te gaan d
aight, ik ben er nog wat meer zo overal aan het bekijken maar als ik er een van jou wil dan laat ik wat weten
wat heb je allemaal voor de iphone 4?
verkoopt nog iphone hoesjes?
duss tumblr, waarom doe je het niet?
mooi
moeten we de woordjes van nederlands ook letterlijk kennen?
ja zou ik vet zijn als je er stoned van word hahaha
boereeehhh! 3 0
okay kan het nog mooier, ac milan dus nog met 2 4 gewonnen
psvvvvv! 1 0! wat n lekker actie van manolevje, en mooi ingetikt wijnaldum!
kippenvel! een stadion zo mooi stil!
haha ben je gaan volgen
woaah van persiee, wat een baas!
haha heeft een aanbidder
no problem je speelde trouwens echt goed!
nee die had geen vervanging geregelt maar moest eigenlijk nog veel leren maar vond het gemeen als jullie dan niet konden spelen
haha was wel onverwacht, ga ik naar de wedstrijd van mn zusje vragen ze ineens of ik ook nog ff n wedstrijd kan fluiten
neeee, messi gebleseerd
twitteren terwijl je op hbs zit? foei foei frederique! haha