ik heb de race moeten missen, maar ga hem denk ik niet terug kijken..
in zijn debuutseizoen gebruikte hij dit nog wel eens, later helaas niet meer
ik ook, heb uitzicht op het einde van bocht 1 dus hoop dat max het overleefd haha
polskibus waarschijnlijk
niet de grootste, wel een hele grote
wist niet dat je een doodwens had rik
willems + haller kan best een dodelijk duo zijn, maar als willems fan zou frankfurt wel tegen vallen tbh
ah ja ik zag het net, ben erg benieuwd waar dan naar toe
nee? dacht dat ie nu keuring had daar
zei die dat nu of in het verleden?
eerst valetta thuis maar even kloppen toch?
vettel!!
tony martin natuurlijk!!
stan the man manolev natuurlijk
moet dit weer gebruikt worden? clicks te weinig jongens?
gelijkspelletje. en thuis speelt cambuur mvv van de mat.
gudmonsson lijkt in bloedvorm te zijn, waarom gooit cocu er dan een spits in voor een buitenspelerspositie?
nederlandse teams doen het een stuk beter in europa league en kunnen daar veel meer punten verdienen tho
weer verloren?
anders top 3 xgchain spelers per team benoemen met de bijbehorende waardes? dan is het wa…
zat ik ook al over na te denken, makkelijkste is om gewoon wat tekst in de graph te zetten maar mooi is het niet..
misschien een drempelwaarde in stellen dat spelers alleen een ster krijgen als xgchain &gt 0,5 is ?
eens, dure fout lijkt het nu
tja hij moet wel raar springen om m te ontwijken
ter stegen een 6 terwijl ze een expected goal van 1,5 tegen kregen hahaahahah
ik vond ze allebei wel leuk eigenlijk
tada
had meteen dreiging met zich mee en heeft zowat niks fout gedaan. lekker debuut.
heb nog geen pro account, binnenkort wel
schat je valbuena niet zo hoog in of zie ik het verkeerd dat valbuena toch ook vooral linksvoor speelt?
prachtig filmpje!
1/3 klaar nu
help! isn maastricht zoekt nog een penningmeester? eentje die goed is en die ook van de top 2000 houd
luisteren naar de op oudejaarsavond met de beste mensen uit het mooie maastricht!
verstappen al genoemd?
vermist penningmeester. laatst gezien afgelopen dinsdag, cafe de alla. beloning 10 bier
big bootie mix 5
propper? gewaagde zet
dit zeg ik al maanden, het gebrek van een plan b? is gewoon overduidelijk
volgens cocu nu toch gewoon een 532
juan mata heeft er een
onderschat in het oog van gemiddelde voetballer/coach imo
mijn account is gehacked en ik sta al een uur in de wacht bij jullie, komt er nog wat van aub?
enige speler in de bundesliga toch? dacht ik ooit gehoord te hebben
eigenlijk is alles onder blind slechter, behalve het gene wat telt. heeft hiddink echt zo veel pech gehad?
als het bij eenmalig blijft, dan wel. ik heb vroeger ook wel eens een grapje gemaakt bij de tegenstander
welke speler heeft tegen de meeste clubs gescoord?
dus alle andere teams mogen wel spelers wedstrijdritme laten opdoen in b teams maar psv/ajax/utrecht niet?
zou je me kunnen helpen mijn pakketje te vinden? track&amptrace zegt dat hij bij afhaalpunt is, maar afhaalpunt heeft niks voor mij
justin eet en is een frietpan
ik ben wel jaloers tho
al gevonden thanks!
vijf spelers voor drie posities. prima toch, zeker als er blessures komen en die komen altijd.
ergste commentaar wat ik in weken heb gehoord
uhh van riessen😜?
welke website gebruik je?
ik vind deze trofee toch iets mooier
haha tja ooit komt er de dag dat hij iets niet weet!
rustig jan, ik was gewoon benieuwd
yes nu weet ik he weer, tegen tsjechoslowakije! dankje!
weet jij toevlalig wanneer de laatste keer is dat duitsland met penalties verloor op een groot toernooi?
op sporza werden ze uiteindelijk best pissig
payet dan?
ik nam deze screenshot een seconde voor ik mijn 60 puntjes verloor
vorig keer eerste in mijn poule, nu nog geen enkele 90 punter. wat een ek!
opvallend is het relatief moeilijke begin van psv t.o.v. ajax, bestaat er data dat zegt dat moeilijk beginnen beter is?
why? en had je kaartje?
heb je deze ook met npg?
fifa commentaar ten top
morgen grote kans op regen &gt chaos. plus als ie achteraan begint betekent alleen maar meer inhalen
kijk nou wat er gebeurt als je pique naar voren stuurt!
maar met nog 3 spelrondes te gaan zijn er wel andere mentale tikjes + spanningen
vorig jaar ook vaak dat sainz sneller was in quali, maar is geen probleem
wat ga je in milano doen? tip bezoek la fontanella, mijn favo bar daar aan top locatie
de roon sws een kans geven
2
hey dit is echt een ongelofelijk toeval, je raad het al haha, ik heb ook friet gegeten vandaag.
hij was al twee maanden geleden uit tho
beluister de instrumental versie op youtube, die is 10x chiller
heb jij toevallig de xg waardes van psv feyenoord 100 van paar jaar geleden? en de procentuele kans dat het echt 100 werd?
hey is dat niet nitshj van schalke?
nee, maar ik ben dan ook geen triviaheld met een geweldig geheugen he😜
kan je echt geen slechtere herinneren?
gaan brenet en isi niet ruilen?
veel blessures he..
cruciaal europees seizoen gaat tot nu toe wel echt heel dramatisch....
heerlijk
mijn duits is te slecht
hopelijk gaat cillesen zijn eerste pentaly ooit tegen houden vandaag dan zijn we overmorgen ook van dat gezeik af
vrees dat er geen q1 komt en dat hij de race op een 20e plek moet beginnen
moterproblemen, heeft pas een rondje kunnen rijden.
voelt kwalitatief uitermate teleurstellend
wordt een mooi seizoen... psv goed tegen grote tegenstanders, maar waardeloos tegen de kleintjes
laatste maand ben je geweldig bezig joshua, keep it up!!⚽️⚽️🏆
wat is er met narsingh aan de hand dan?
lijkt ook wel of dijks brumas arm naar beneden trekt
raakt de tegenstander niet? misschien moet je toch maar eens naar de opticien voor een nieuwe bril
al rekening gehouden dat lestienne de wedstrijd mist?
tja, compleet ingestort vandaag, zonde. hopen op willems snel terug
goede tweede helft, geeft hoop voor ajax uit. maher wordt veel afgezeken maar geeft wel twee cruciale assists.
moet zeggen dat de defense het enorm verpest, de rest doet het wel oke
tijd voor alcohol
relatie nederlandrusland is toch eeen beetje veranderd /
leuk boek he
nou als psv verliest staat het excuus als klaar, en als ze winnen staan er weer psv fans met een grote mond winwin
de vibubble is al lang geleden gebarsten
ik dacht dat je niet mocht inhalen bij safety car, kun jr mij dit uitleggen?
idd. enige positieve aan dit is dat max veel gaat inhalen wat ze helaas niet altijd laten zien tho
de rest wordt opgehouden door andere autos natuurlijk
shitzooi!!! hoeveel pech heeft verstappen wel niet dit jaar!!!!!
gaat zeer lastig worden met mercs ferrari en red bull voor zich, maar hopen doen we zeker!!
scoreboard journalistiek in pure vorm
het is een wonder dat dat niet gebeurd is. en toch blijven mensen frank de boer praisen....
en niks schrijven over de veels te late smalling op guardado..
psv eindhovuhhhhhh im getting so drunk tonight
scoren is niet zo belangrijk als goed spel, vooruitgang is de maatstaf voor onze jonge spelers
hoe zijn de verhoudingen verder?
stadion... alle sponsers moeten afgeplakt worden hè 😓😓
dit is bij andere stadions toch ook niet de zaak of zit ik nou zo fout?
wijnaldum en promes erin aub
wel beetje murphys law dit, las ook ergens dat er maar drie teams dit ek eenslechter reddingspercentage hebben
snap niet waarom pieters en van dijk geen kans krijgen.. narsingh ook meteen wisselen aub
its over
wat vind je van erik pieters in oranje?
eh pitstop... 1 of 2 pitstopstrategie denk je?
ongelofelijk hoe dat niveau is gezakt na het einde van vorig seizoen, begrijp er niks van
hou toch op, eerste schot op goal van ado dit
werkt perfect
niveau can commentaar is weer hoog dus..
wat een lekker illuster rijtje om tussen te staan
omdat ik stiekem behangsdvies nodig heb voor mijn nieuwe kamer
niet bepaald.. toch heeft psv van alle nederlandse clubs de meeste punten binnen gehaald, nog meer dan az of ajax
dus ajax en az loten tegenstanders van het niveau van rapid volgens de euroclubindex... kan nog lastig worden
die zie ik nog wel eens rood pakken tegen az
hoeveel mitchells gaan er spelen in de eerste speelronde?
tegen anzhi hebben ze het helaas wel een beetje verpest maar dat kan gebeuren
doe normaal man
enig idee wat plan b is?
nog twee, let maar op
het had nu al 04 kunnn staan 😢
el ghazi... geweldige speler maar hier maak je geen vrienden mee.
welke clubs heeft de meeste wedstrijden in de cl verloren?
en niet de eerste keer dat zo iets gebeurt...
wat voor shirt heeft het kereltje achterin aan? heel mooi!
hey thijs, waarom heeft psv eigenlijk geen engels instagram account? ik zie vaak zat buitenlanders commenten die niksbegrijpen
eerste keer cl in jaren en ik ben op mijn semester abroad 😓😭
goede tijd kerel!
haha kerel heb je het wel gezien? max heeft maar een rondje kunen rijden en de rest van de tijd in de pit moeten zitten
hiljemark?
veijnovic
nooooooo
is dzsudzsak niks voor psv? zijn contract loopt af en ipv een groot salaris aan te bieden gewoon veel tekengeld geven?
heb je wat insideinfo voor ons over deze club?
ja dat denken wij ook, maar 8e plek is ook prima
ja neem ook aan dat iemand zijn plekje overneemt volgend jaar maar weet nog niet wie
mooi begin toch? alleen jammer voor kimi /
en nu nog een stage?
congrats man!
mwoh.... roda uit is traditioneel lastig voor psv, vitesse thuis en pec uit zijn ook niet simpel!
veel onnodig balverlies door onzorgvuldigheid in de paas, zeer zonde en apart.
liever lens dan narsingh
odds waren 6x... ik heb ooit 5 euro op een unibet account gezet, uiteindelijk 15 van gemaakt. wilde nu gewoon alles of niet
in maastricht met sebas en ruben, 15 euro op juve ingezet
godverdomme. is gewoon niet eerlijk meer hoe goed die aanval is
toni
doon
dit begint toch aardig verdacht te worden hahah
huhhh? iets klopt er niet
wkhouder japan zit er ook niet in
het voelt als een wedstrijd op footballmanager
ongelofelijk als dit 00 blijft..
doe eens stil svp
meer van dezen aub!
zat er geen clausule in zijn contract?
omfg i just spat out my drink
kan cocu ook nog bij
nederland al 5 wedstrijden gespeeld toch
great game right?
schone
geen bakkali?
nog niet eens hooliganisme want de wedstrijd in polen heeft mag geen thuisofuit supporter
bruma of veltman, moeilijke keus
volgens mij bestaat dat al joh
4
ja dat snap ik ook wel maar er zijn toch zeker centrumverdedigers die beter zijn dan rekik op het moment..
rekik in plaats van van dijk....
wk 2002
depay wordt liever niet bij zijn achtetnaam genoemd door zn verleden met zijn vader
ah nevermind. het gaat over de training.
ja snap ik, dan is het toch juist een gepakte kans?
hoezo een gemiste kans?
zusje van de vlaar en guzeman spelen echt goed
haha toch wel jongen? volgende keer moeten we iets minder shotjes doen...
proficiat knul!! dat je dr een mooie dag van maakt! werken vandaag?
jij dus blijkbaar niet?
kerstavof was de 24e kwezel
overdrijven is ook een vak
volgens een aangeschoten twintiger + aanhang ben ik 122% van de tv en hebben ze me vorige week minstens 10 keer gezien op rtl 4.
hiljemark twee keer geel maar hoeft er niet af?
vooral limburgse
zelfs de beker niet
komt omdat wij erop zitten nu
nooooooooo manlolev geblesseerd...
ja daar heb ik dus niks aan
weet je zeker dat je niet zwanger bent dan?
een klein beetje maar
je denkt dat het niet erger kan, totdat je de kijkt...
en de feestmarathon gaat maar door, vandaag is aan de beurt.
hahah zeker mooi avondje
voor je eigen best wil haha
onzin. of hij nou in de finale of in de finale verliest van italië, dat maakt geen moer uit.
lekker weertje eh btw ik ben ook geslaagd
dat zijn mooie normen om mee wakker te worden. zeer mooie normen. ik duim voor de rest van jullie jongens!
en hoe laat?
zo. dat was zeker weten een van de beste examenstunten ooit.
vandaag de dag dat de vakantie eindelijk kan beginnen....
niks te doen kamer opruimen dan maar...
vikings/sherlock, met de gedachte dat je die nog niet hebt gezien.
geen kans frans
morgen frans eens aanpakken of aangepakt worden en dan mag je zoveel zeuren zeiken zemelen wat je maar wilt jorn
karma omdat je al zo vroeg vakantie hebt
wiskunde examen. de dag die je wist dat zou komen is eindelijk hier ben je er klaar voor? kun je dat ooit echt zijn?
fuck dat was een rare droom
hahah ach ja, we zijn bijna klaar en desnoods hebben we herkansing nog
we leven nog! ik heb inderdaad ook na elk examen zon 5,5 gevoel, niet echt lekker inderdaad. morgen wiskunde eens aanpakken.
nah, doe ik wel na wiskunde morgen. bij jouw gaan de examens ook niet even lekker zie ik?
had gister het examen van vorig jaar gedaan en daar een 8,8 voor, heb nu de helft nagekeken en ontzettend veel fout...
engels echt onder de maat gemaakt, ik stel mezelf weer teleur.
zo, een 8 voor oefenexamen engels, dat lucht op.
btw economie viel best mee
wat? justin die een wielrenner sympathiek vindt? wie ben jij en wat heb je met justin gedaan?
mensen, het kan nog altijd erger
ik adviseer dat niet te doen joost. vaak worden antwoorden die je zelf hebt opgescherven nog goedgekeurd + wisselvallige nnorm
ga voor de robben
wedden dat we het eurovision song festival hadden gewonnen als we zanger rinus hadden gestuurd?
ik zou een klacht indienen op , dit kan toch niet door de beugel roel
damn, de kwaliteit van mn tweets is wel erg gedaald het laatste half jaar.
10.000 al, je loopt achter rolf.
ai. dat nederlands correctiemodel. met een beetje geluk en soepel nakijken en geen spellingsfouten heb ik een hele kleine voldoende.
pepijn doet huilie huilie
als ik zes jaar school overleef met niet al te veel te doen, moet ik deze examens met heel erg veel doen toch gewoon kunnen halen?
kaal met een kuifje?
ben ik de enige die de antwoorden van de orientatietoets van examenbundel.nl niet kan openen?
ach. ik vond psv de betere ploeg, az had geluk met arbitrage en counters. maarja. zo gaat het met verliezen altijd.
hij valt wel makkelijk maar hij wordt duidelijk geraakt. en niet zo zacht ook want zijn schoen was uit.
volgens mij kennen de fans van psv nog wel een liedje over de moeder van kuipers.
ik blijf mijn geliefde subsidieclub trouw.
laat het inderdaad maar eerst 22 worden.
kan een zelf benoemde voetbalexpert mij even uitleggen waarom die goal werd afgekeurd?
ach ik ga toch naar maastricht. 21 trouwens en het ziet er naar uit dat het nog gelijk gaat worden ook .
achja. 100% hands daarnet en nu weer een gigakans. grote kans dat psv er nog een paar maakt.
twee mooie doelpunten van az zelfs..
tis niet om aan te zien
wat is marcelo toch een idioot
arrogant hoor, zon shirt bestellen voordat je feitelijk kampioen bent
zo. na mijn feestje van gister is vandaag het jeu de boulle toernooi in acht aan de beurt. tijd om die oudjes aan te pakken.
de buurt vandaag weer onveilig gemaakt, excuses!
wat gun ik dit die duitsers toch!
bayern heer en meester, barca zwijnt weer met zon scheidsrechter..
ach dan heb ik mooi een categorie voor mezelf
vandaag laatste wedstrijd bij vce/psv, 11e plek nog mogelijk bij een zeer zeer zeldzame 40 overwinning.
zo kennen we je weer
eens kijken of mijn lies het vandaag niet begeeft, ik waag t om weer te gaan trainen.
prison break eerste twee seizoenen kijken en dan er meteen mee stoppen
aan alle mooie dingen komen een einde, dus ook aan het twitter account van
nu jij nog haha
ajax overwinnaar bij gebrek aan beter
maar ik speelde niet mee, ik was assistentmanager
ohja we hebben gewonnen vandaag
voor de mensen die niet het privilege hebben om vrienden met mij op fb te zijn
mijn tweets zijn echt waardeloos laatste tijd haha ha
wat een opluchting poepoe
tosti maken met kaasblokjes, bij gebrek aan beter
uitgevallen met een liesblessure, morgen doktertje pakken
gekke nerdje
haha alleen het 4e en het 6e les
dr op of dr onder. we zullen het zien
kom op leraren, zo moeilijk is het niet om een toets na te kijken. heb nog geen enkel cijfer terug.
damnnnnn, life of pi is echt een dikke aanrader !
er was eens een wedstrijdverslag
je hebt me door
door de pww zou je toch bijna vergeten dat zondag gwn het facking nieuwe seizoen van begint!
had je minder moeten tweeten jongen, was je misschine nog op tijd geweest
ik ben totaal niet zenuwachtig. is er iets mis met mij?
ik doe dat ook, alleen per ongeluk altijd
goalmaker eerste goal op t wk toch?
helaas.. t was een mooie strijd, komt nog wel een rematch een keertje toch?
vast niet zo erg als 16x op rij verliezen. urgh ik ben boos
cloud atlas, in bruges, oldboy, en hot fuzz?
nou vanavond nog even compenseren voor gisternacht!
wat dacht je van de krant
oh man nog nooit zon geweldig einde aan een feest gehad
ja had het gelezen haha
goh moet je nagaan wat ik elke week wel niet moet doen.
zal wel aan de sfeer liggen.
och omdat ik me eindelijk realiseer dat psv ons gewoon enorm afzet? deze prijzen, korte wedstrijd en een matig psv nope