park ji sung alex tiggelen van romario isimatmirin cocu kuijlen van der mooi rijtje!👌🏻
waar lagen ze?
het zit diep bij ze!
ge kunt de groeten uit eindhoven krijgen!!....#psv
winnaar van het weekend! zwaarbevochten overwinning, maar wie maalt daar om! uitgelopen op zowel…
hopenlijk kunnen we een gat slaan op onze grootste concurrenten en
klaar voor psvfc twente💪🏻 gaat de concurrentie op respectievelijk ajax 8 en feyenoord…
wat gaaf zeg!
het was idd een snelle ommekeer, van 01 naar 21 in 5 minuutjes...
van harte gefeliciteerd judith! 🎈🎁
zal geen makkie zijn geweest!😉
van harte gefeliciteerd!🎈🎁
mijn speler van de week bij voetbal inside is jürgen locadia via
is met de arena ook altijd t zelfde liedje!
goede bochten van hoor!👌🏻#gpmx
hopenlijk wringt zich niet in vervelende bochten.
eat your heart out!!! 💪🏻🔥#psv
en 10 punten achter!!!💪🏻😂
een dikverdiende overwinning aad! niets op af te dingen...
heerlijke overwinning! beste seizoensstart sinds 1999/2000
moet t nu niet weer spannend gaan maken...
vindt de 14 maar een magere afspiegeling van de krachtsverhoudingen😉#vitpsv
en de tweede van de middag! 💪🏻
een onofficiële hattrick voor locadia!
van harte gefeliciteerd jorieke!
domme kaart van pereiro
zuivere pingel op de jong onthouden...
iets van de laatste weken?😉
en in de gewonnen ec1 finale tegen benfica!
wel te verstaan 1988. meen dat alleen in de europacup i dit shirt droeg
heb dit shirt!👌🏻
dat heb ik nu met 16.45 wedstrijden!..
xabi alonso
bij winst van ons kunnen we al op 10 punten zetten!
mooi eerbetoon aan de pas overleden suikeroom nol hendriks...
spelen eerst thuis?😂 wanneer is de return?😉
vvvvenlo voor de beker thuis!
volkomen terechte kaart!
wat een fenomenaal doelpunt van
dan moet je geen studio voetbal kijken! 😒
dan zit je met de gebakken peren!
das idd waar! en dat begint al in oktober...
belachelijk dat studio sport niet met dé koploper van de eredivisie begint aan de uitzending.
eclatante koploper!!!!
en de bevrijdende 20 van van ginkel! 💪🏻
wat een fucking prachtige aanval/doelpunt!
de strijd zal ontbranden! 🔥
op naar wat een hele mooie middag zou kunnen worden!💪🏻
frank lammers in het eindhovense voor opnames...
we mogen weer naar de koploper van de eredivisie gaan kijken! vandaag een thuiswedstrijd tegen…
in het stadion!
matchday!!!🔴⚪️ psvheracles almelo⚽️ gaat de lijstaanvoerder de voorsprong vergroten op de…
een splijtende pass voorafgaand bij de 11 van shakhtar...
wat een splijtende pass van shakhtar bij de 11...
ben bang voor feyenoord dat ze er kansloos afgaan...
laat t maar niet horen!😉
veel succes vanavond tegen shakhtar! 👊🏻
wat een geweldenaar! 😎👌🏻
heb ik iets gemist? pererio? nieuwste aanwinst?😅
wauw! adembenemend!
dit is de sleutel tot succes!🤔
ter ere waarvan heb je mogen ontmoeten?
of t terecht rood is? of was t enkel een mening vragen? want hier kan toch geen discussie over ontstaan?..
twijfel je daar aan dan?
wedstrijd per wedstrijd bekijken...😉
ben blij wat van je te horen! hoe staat t leven?.....en feyenoord? hoe gaat t daar mee?😉
het word er alleen maar beter en mooier op!..
hij is op de goede weg terug!👍🏻
dit is een goed stel hoor!💪🏻😉
dit is een goed stel hoor!💪🏻😉
tweet een 👍🏻als je club het dit weekend goed heeft gedaan...
zou hij ondergedoken zijn?
ik dacht er daarstraks nog aan! hoe zou t toch met zijn? maak me oprecht zorgen...
wat een lekker weekend he? en dan te bedenken dat het volgende week alleen maar mooier en mooier kan worden! 💪🏻😄
en dit op een nazomerse dag in oktober! 🌞🍺💪🏻
uitwedstrijd bij vitesse op monikkehuizen 24
prima uitslag, al kan t spel beter! koploper! 💪🏻
mauro junior scoort bij zijn debuut! 💪🏻 24👌🏻
nog ruim ern half uur om de schade helemaal te repareren en dat tegen 10 man van vvvvenlo. come on you boys in blue! 💪🏻
waar zijn we mee bezig?!
das zeker! hij moet gewoon zn handen thuishouden...
makkelie meet met twee maten!
veel plezier! neem de 3 punten mee terug!
bij winst morgen van op de marge op regerend landskampioen tot 5 punten! come on you boys in red!💪🏻
het onvermijdelijke is waarheid geworden...rip anne...💔😢#annefaber
uitmelken van de eigen tribunestoeltjes van vervangen en verkopen aan de eigen aanhang voor €7,75 😂
iemand tips voor een leuke tvavond?😅#wruned
dag dikkie dick, tot de volgende keer! 👋🏻👋🏻
na de uitslag van zwedenluxemburg 80, kunnen we nu echt definitief ern streep door t wk zetten...
van harte met je moeder!
goede actiefoto!
onbegrijpelijk! een degelijke/goede wedstrijd en twee uitstekende goals.
welke oudinternational heeft t dan mogen beoordelen?
welke verslaggever heeft zijn optreden dan mogen beoordelen?
ik zal je 24uur per dag blijven stalken😉
vervanging nieuwe vorderd gestaag.👌🏻
geen woorden, maar daden!...😉
expsver marcelo krijgt een onbegrijpelijke rode kaart...
mijn speler van de week bij voetbal inside is hirving lozano via
vreemde gewaarwording, stadion camp nou leeg bij fc barcelona
volgens gaat de wedstrijd gewoon door.
psv lijkt de koppositie te gaan verstevigen. concurrent staat op achterstand tegen
hoezo tegen de verhouding in...
lekker achter overleunend, kijkend wat de concurrenten en vanmiddag gaan doen…
matchday! psvwillem ii🔴⚪️ passie strijd vertrouwen💪🏻 psv is na de eclatante overwinning van…
mooi stukje leesvoer van en nagenieten van een memorabele middag voor in utrecht! 💪🏻👌🏻
met volle overtuiging ingeschoten!
wij zijn gelukkig van ons penaltysyndroom verlost...
zelfde als bij
wederom gerechtigheid. na ook nu een onterechte penalty voor tegen
hij stak er wel met kop en schouders bovenuit!🤔😉
thuiswedstrijd tegen rbc eindigde in 11...
mogen wekelijks terugkeren!😉
heb m die van gisteren ook vergeven!😉
had brad jones eigenlijk wel verwacht!
mijn speler van de week bij voetbal inside is jürgen locadia via
waanzin, nac en vitesse verliezen midweeks voor de beker van ama. en in t weekend winnen ze resp. van feyenoord en ajax
dat word genieten geblazen!
wat een topweekend voor zelf winnen met 17 bij en concurrenten en zien verliezen! 💪🏻😎
bovenaan in de stand, en bovenaan op nieuwspagina 101 van 💪🏻👌🏻#psv
is niet alleen vandaag. gisteren na de wedstrijd van feyenoord waren ze ook niet echt snel met t bijwerken van de stand...
sssttt niet te hard roepen, geen slapende honden wakker maken!😉
en zo geschiedde het!💪🏻
nog één doelpunt en we evenaren de grootste uitslag op 17 van 19 nov 1989
eerlijk gezegd ik ook niet. zeker deze hoge uitslag...
utrechtpsv staat altijd garant voor grote uitslagen, meestal in t voordeel van ⚽️💪🏻
zijn ze bij de van de leg?! staat inmiddels 14 bij maar op pagina 818 staat doodleu…
waarom krijg luckassen hier geel voor? speelt overduidelijk de bal...
steekt ook al weken in een uitstekende vorm!💪🏻#psv
prima tweede goal van 13💪🏻#utrpsv
een briesje!😉
het is t weekend van de kansloze penaltys krijgen...
bij deze!👌🏻
en geen daden...
ik ook! brengt een stuk frivoler voetbal in t team!
zeker! dan pas is t weekend helemaal geslaagd!
zou gio de kerst halen?!
de parel van t zuiden!!!
02 voor nac!💪🏻#feynac
sarcastisch neem ik aan? feyenoord krijgt er voor minder wel eentje...
gerechtigheid! waar nac een 100% penalty had moeten krijgen, krijgt feyenoord m voor veel minder.. en mis!
scheidsrechter had dit ook met t blote oog moeten waarnemen. en niet moeten wegwuiven...
ongeveer 23 jaar geleden...👌🏻💪🏻
alleen dan de logos omgekeerd😉
eerste wedstrijd van de loting fc volendampsv
sdc putten heeft 4 minuten langer de nul weten te houden dan landskampioen feyenoord afgelopen zondag in t philips stadion
prachtig doelpunt van maher!👌🏻
bij mij om de hoek! wie is hier verantwoordelijk voor? 👌🏻💪🏻 😎#psv
vandaag viert de enige échte ronaldo zijn 41e verjaardag!
mijn speler van de week bij voetbal inside is jeroen zoet via
vergeet een rode kaart aan berghuis te geven!
lozano kreeg vorige week voor minder een rode kaart...🤔
thanks!
veel plezier! op naar de 3 punten!💪🏻🍺
nog een paar uurtjes voor de wedstrijd
aanwezig op west!
goede wedstrijd gewenst!
pijnlijke avond was dit. vitesse thuis, 26...
dat gaat verdomd snel!
welkom in de cl!
veel succes en plezier vanavond tegen manchester city! 💪🏻geniet van het champions leagueavontuur!⚽️🏆
gefeliciteerd!
dagelijks bedenken...
ik zou zeggen, ongeldige poging!😛
eindelijk laat zijn staart niet hangen naar de en gaat t in beroep.
zelfs vindt t absoluut geen rode kaart! protest aantekenen hij de tuchtcommissie!
de overtreding valt opzich mee, alleen is t erg riskant bij deze manier van inkomen.
psv speelt in deze dingen altijd het braafste jongetje van de klas...
of men moet in beroep gaan...maar dat zou wel erg naïef zijn.
zal het wel accepteren...
ja... 20 achter, op t middenveld zon overtreding.... onbegrijpelijk!
lozano... dom, dom, dom!!! volgende week ook de topper tegen feyenoord missend...
luckassen en paal 2... man, man...
5 minuten onderweg, wedstrijd gespeeld! 😡#heepsv
blundertje zoet...😡
van harte jordy🎉 op naar eindelijk weer eens 3️⃣ punten in heerenveen!💪🏻
fantastic game! terwijl we voor 99% zijn uitgeschakeld... maar t was geweldig! gelukkig hebben we de beelden nog…
thanks voor de leuke attentie!👌🏻
dankjewel voor de leuke attentie 👌🏻🔴⚪️
tof dat mij nu ook volgt!
zelf buitengezet?!😉
moet ik m komen weghalen?!😃
vandaag mijn eerste werkdag na mn vakantie...😖😃
europaleaguewedstrijd tegen het portugese estoril.
contract voor t leven geven!
had minimaal 50 moeten worden.
wel op tijd binnen gekomen?!
zou je t blad kunnen opsturen? en als je vanmiddag naar psvroda jc gaat, kunnen we mss afspreken...
connor mcgregor is rijp voor de sloop!
moet nog beginnen, maar het hoogtepunt van de wedstrijd hebben we in…
zit al een uur wakker, maar nog steeds geen
de jeugd heeft de toekomst!😉
laatste weekend voor ik maandag weer mag werken. lekker weekendje met verjaardag van mn oudste zus en neefje, en morgen natuurlijk
prachtvrouw!👌🏻
psv was een aantal jaren geleden over twee wedstrijden volstrekt kansloos tegen de russen...
drie maanden geleden nog in de elfinale, nu geen europees voetbal!..
geen ajax én psv in een europees hoofdtoernooi! ooit eerder voorgekomen?
minstens top4 weer!
zoals ieder seizoen weet fcu altijd een representatief en goed elftal bijeen te brengen.
hij kon ook niet echt rekenen. 1+1 was bij aad toch 5?!🤔😃
zo is hij toch ook bij de bekerwedstrijd tegen heracles met rood weggestuurd, en direct bo…
mooie, maar zware loting!
tijd voor een nieuwe foto! is t nog dezelfde bikini, of weer een nieuwe?😊😃
had je al een keertje gedaan! maar die is door onverklaarbare redenen nergens meer terug te vinden!🙈😉
ajax is gek dat ze een bod van €50 miljoen euro weigeren op dolberg... krijgen ze wss nooit meer dat bedrag voor.
hij zou in de media en daarbuiten met de grond gelijk worden gemaakt!
van harte gefeliciteerd!
geniet ervan!
tweede stadionstoeltje van ook binnen! nu met mn eigen stoelnummer!👌🏻💪🏻
kunt ze t niet vroeg genoeg leren...
thanks hanneke, voor de prima service en super afhandeling! 👌🏻👍🏻
gefeliciteerd kirsten!
fijne vakantie judith! geniet ervan!
respect en bewondering voor!👍🏻
das eigenlijk ook t beste... maar kan me voorstellen dat t nuet makkelijk is, zeker gezien met jonge, opgroeiende kids.
hahaha😂😂... eigenlijk niet om te lachten... maar is grappig!😉
volgend jaar kan de kampioen van nl ook voorrondes cl gaan spelen...😞
daarom ook een reden dat t je exman is geworden?!😂
na vanavond zal hij t shirt niet meer aan willen!😉
europees voetbal voor ook op de tøcht...😉#ajaxrosenborg
hoop dat marcel brands zich geen loer laat draaien... 😉
minuut na zijn magnifieke goal, onterechte tweede gele kaart vanwege een vermeende schwalbe voor cristiano ronaldo..
wat een tweede helft bij 😍👌🏻#barcareal
is niet om aan te gluren!
spreekt daar een kenner?!😉
mijn speler van de week bij voetbal inside is hirving lozano via
echt genieten! en dan zijn we pas in speelronde 1!...
erg vermakelijke wedstrijd, de derby van het noorden!
wie heeft de beste indruk achtergelaten van de traditionele top3? ik zeg momenteel psv...
meer dan 50m voor sanchez!😱 waar gaat dat heen?!
kleuren mss bijstellen van de tv...😉😂
vanavond iig erg van hem genoten! smaakt naar meer...
zie ik dat nu goed?! heracles op voorsprong?!
wat een genot he! word een sensatie als hij zo doorgaat!
dank!
niet dagelijks dat deze legende eindhoven aandoet!..
brenet laat zich de kaas wel erg makkelijk van zijn brood eten!...#psvaz
en zo is t maar net!
azijnzeiker! 😉😂
psvfeyenoord 2010, 100.. had hij een bijdrage in!😉
das idd een regelrechte schande! 😉
voorbereiding tot daaraan toe, maar de el was beschamend...
er moet idd veel verbeterd worden, willen we enige rol van betekenis gaan spelen.
hij heeft t bijna altijd bij t kortste eind...😉
de competitie moet nog beginnen, en word al tot de grond toe afgebrand...
van harte gefeliciteerd!
thanks! 👍🏻
nu je het zegt?!🤔😆
hanneke, weet jij wanneer ik de gepersonaliseerde versie van t psvmagazine binnenkrijg? dit omtrent…
alles op de beker en competitie!!!💪🏻
beide! de een op tv, de ander op de ipad! 💪🏻👌🏻
nou zie ik t helemaal niet meer zitten!...☹️
geniet ervan!
dr zwart/witte streepjes zijn momenteel in t straatbeeld niet te vermijden... bijna iedereen draagt ze!
zwart/witte streepjes zijn helemaal 2017!👌🏻
in tilburgcentrum kom je ze ook gewoon tegen! psvsupporters!👌🏻
hij betaald?!
genderneutraal... jij hebt utopia zitten kijken!😉
echte uitgespeelde kansen werden er niet gecreëerd...
omdat t moet!😱
beetje laat...🙈 maar alsnog van harte gefeliciteerd met je verjaardag!🎉
klopt, helemaal vergeten 😊
krijgen geen nieuw pasje. word gewoon weer verlengd...
zet m op spaarstand! helpt wel wat!😉
heb oprecht medelijden met je!
een borreltje dan?... 😂😂😂
heb je gem een ijskoude coca cola gegeven?!😂😉
diep respect zo ga je om met tegenslag! 🙏🏻⭐️
geen woorden voor...😢⭐️#staystrongnouri
geen woorden voor...
vrouwtje lekker vreemdgegaan!😱🤔
aangenaam, mijn naam is... ik ben...😂
einde voetbalcarrière sowieso... maar erger, hoe hij nu door t leven moet..☹️ sterkte
als rafa maar wint op t einde!😉
wat een wedstrijd he? 👌🏻💪🏻
wat een partij!
thanks voor de reactie wat betreft het psvmagazine. top dat ik eind juli een nieuw exemplaar tegemoet kan zien! 👌🏻
stoer zeg!👌🏻
veel succes!
dank jullie wel! zojuist gedaan. wacht op een reactie.
afgelopen week de nieuwe gepersonaliseerde inside gekregen, alleen is deze niet ongeschonden verstuurd. is daa…
wauw! dan betalen we nog rond de €75!🙃
das fors hoger dan voorgaande jaren! was meen ik altijd rond de €75.
idd! ieder een kleine bijdrage, en de merchandise kan worden opgeschroefd!
daar zal luuk toch niet zenuwachtig van worden?!😂
om een sterke bank te hebben!😉
geniet ervan!
ben mss een azijnzeiker... maar is toch zonde.
een klein minpuntje, maar daar kan niets aan doen, de kaft is door de postbezorging licht beschadigd...😟
supergaaf en origineel van
wat een staaltje creativ…
zeer gaaf en origineel gedaan!👌🏻
de meeste scchouders komen al jaren van buiten eindhoven!
dat was een soap waar geen einde aan leek te komen.
je ziet t helaas bij meerdere clubs tegenwoordig...😞
leuk zeg! is iets om te bewaren!
ik tel er 4, buiten de spelfouten, ook in de laatste zin... ado moet donderdag z…
niet op kleur gesorteerd? valt me een beetje tegen...😉
€75, net als voorgaande jaren.