wordt volgend jaar ook voorronde
ik denk dat de klassieker eindigt in een gelijkspel.
donker gesterkt been op volle snelheid als lozano de maatstaf is is dit 6 wedstrijden
eerste helft vergeten af te maken heer en meester
goed kijken vettel snijd ook
obisbo erin en isi naar rechts
in engeland lachen ze hier om geel was op zijn plaats
kunnen we niet beter stoppen nu
isi naar rechts obisbo erin en hendriks naar lb en rigo erbij
zou altijd voor zoet gaan keept elke week maar alles bakt er niks van
goal is cillesen aan te rekenen keeper altijd beentjes dicht
geen linksback mar wel nieuwe stoeltjes??
dus geld is op
waar zijn al die miljoenen van de verkopen en de cl
of ze hadden de wijs erbij moeten houden
of de wijs erbij houden voor lb nu gewoon obisbo en carolina doorschuiven
snel obisbo en carolina er bij halen samen mauro en gudmonson
die gaan protesteren tegen beleid gerbrands en brands
geld is echt op hoelang is willems al weg tijd zat gehad
en al iets bekend over loca
dan de z van zenden staat al onder contract
die hebben al wel een links back
en numan een optie
zal donderdag gaan voor spot prijs
zullen echt wel clubs bij zijn zaakwaarnemer hebben geïnformeerd e toen schrokken van se prijs
moet psv niet een deel afstaan monchen gladbach bij vertrek de jong
luuk arias en ook zoet zullen toch nog wel vertrekken
vrouw hendriks heel hoog zwanger die gaat zeker niet
geld is echt op
waarom defensief werken aan doelsaldo cocu is veelste verdedigend
gewoon paal houden als lb en carolina en obisbo doorschuiven
en alonso dan zou het ook aan hem liggen
in 2019 riccardo naar ferrari en max naar mercedes
zal vanavond of morgen wel bekend worden we zullen zien als invalt
klasse werk van de ned politie je rijd toch niet elke dag met een bus vol gasflessen
hoeveel verwacht je 8 a 9 doorverkocht wordt ie toch nie meer
waarom nie weer in de kijker spelen is beter dan jaar banke
er gaat toch ook een deel naar münchengladbach
je moet er wel iets fatsoenlijks terug voor kunnen halen lukt op lb ook nie
die zal wel gaan
wat is de prijs van santos 6 miljoen moet toch nog wel lukken
loopt zijn contract niet af na dit jaar snel verlengen
dan maar paal laten staan
schijnen interesse te hebben
gewoon deal maken met chelsea hun arias wij van ginkel
bergwijn eraf gudmonson erin en locadia ook met zijn grote bek
snol van boekel hij gleed gewoon weg
minste tegen afgelopen jaar 💪💪
volgens scheert psv langs de financiële afgrond
vorig jaar volgens mij minste tegen
doorschakelen dan dit os drama nieuwe lcv ook isimat drama
swaab ook met isimat
isimat burnley wat is daar van waar
wat is geen vetpot volgens afgelopen jaar rek ongeveer 30 miljoen op de bank toch
belachelijk 2.5 miljoen voor alle betaald voetbal clubs is minder dan het gaat opleveren
starten met de wijs en isimat obisbo erbij halen
die vd kraan van de telegraaf zei dat bij de tafel van kees
sterkte en heel veel beterschap
zoet arias lukassen de wijs brenet hendrikx propper van ginkel bergwijn locadia lozano
maar wie zou het anders moeten doen na 2 kampioenschappen en overwinter cl enig krediet
wie zou het dan moeten worden ik zou dan denken aan verbeek
is toch geen optie voor wil aan zijn trainers carrière werken
sevilla en welke prijs kennedy zal ook wel komen dan
eruit en verkopen
waneer is de afscheidswedstrijd van mi amigo
panelen weer ik heb er 20
nu nog zoet verkopen gomes terug en koopmans 2 keeper en jurjus nr 1 volgend jaar
meestal over de winst
wij betalen toch geen 10 miljoen of meer voor een speler
dan gaan we verder met de wijs niet goed genoeg voor
echt geen psv 1 keeper
uit zonneenergie wij zitten op 17 kwh welke app is dat
bij brands is ontkennen binnen kort presenteren
zit er klaar voor
volgend jaar bij ons
totaal geen overtreding
kan hij er alvast aan wennen nieuwe nr 1 spits
wij zijn goed voorzien met 20 zonnepanelen
zo bijzonder is het nie
tuurlijk nie kan niet eens op de been blijven tegen excelsior beter hoedt speelt in de serie a
de onze 2 weken
oranje waardig 😂😂
blind is niet meer serieus te nemen geen van ginkel ramselaar propper
wel of geen doellijn technologie maar ook geen video ref voor overtreding op de keeper
doorselecteren in de zomer zoet willems arias propper moreno guardado zullen wel weggaan
waar rook is vuur
gokken en verliezen
min 25 miljoen en zo nie meer
min 25
1 miljoen aan doorverkoop ongeveer toch ??
waarom geen 5 jaar
de animo is er wel gewoon een stadion van 45,000 is groot genoeg huidige stadion verbouwen onmogelijk en anders duur
rake we dan nie achterop fey nieuw en groter stadion ajax ook
van jong psv ja niet van 1 😂😂
fox sport 1600 morge tegen freiburg 1700 uur ziggo sport
zou graag wel willen weten wanneer mijn diensten geactiveerd zijn voor de extra gratis paketten
vandaag geweest voor installatie 👍
ben benieuwd wat er bij komt nog
van ginkel siem is gewoon exit
en een constructie ala bruma
kunnen ze niet zon constructie doen als met bruma
en morge door naar voor
mijn top 5 1 2 3 4 5
beiden is nodig siem is niet goed genoeg
wie is de opvolger
kan hendrikx mooi beginnen tegen en na 60 min mooi gewisseld worden voor#miamigoguardado
toch weer meegenomen
wat houd er nog aan over
mooi zulle nodig hebbe volgende week
ramselaar de pingel
komt door middenveld totaal geen voetbal
hoop ik ook alleen de realiteit is anders
rigo
overgestapt naar per jan 2017
mag nu al beginnen
kijk je mee
nee gelijk is voordeel aanvaller
eigen schuld
zegt genoeg
i know mar kreeg datums mee van 4 8 of 11 okt
vanaf waneer wordt mijn contract opengesteld ivm
de jong erin en zinchenco
trug naar 433
ik denk dat vanavond wint van fc rostov. wie denk jij dat er als winnaar van het veld stapt?
normaal gesproken zonder hoofdwond
misschien heel gek maar een jaar huren
zie zeker voor ajax en az wel een goede kans fey moet beetje geluk hebbe op plek 2
groep met mogelijkheden op voorhand plek 2
plaats 3 en vechten voor 2
fijne vakantie
mag transfervrij gaan toch is ook gratis gekome
en dan volgende zomer transfer
daar zijn ze goed in
en lunqvist als talent erbij
ramselaar toch ook met oog op vertrek
41 bergwijn 2 maal de jong pereiro
meld praat met
volg mij aub voor een dm
lijstje ??
dan de portomenee
werk aan de winkel
luuk tekent bij
moet geen poging wagen voor ipv willems
transfervrij dan
nergens last van gehad
deze man moet toch in een ned ploeg rijden
zal mee vallen
meende dat brands altij 15 % bedingt
ik verwacht toch nog vuurwerk
gewoon kopen
met de vlam in de pijp
volgen aub voor een dm
komt goed zal alleen effe duren had vernomen dat hij graag wou komen
paal
snel doorschakelen naar vervanger optie transfervrij
wat is de vraag prijs
wat is de status van en psv
wat zou de vraagprijs zijn voor zijn ontwikkeling zou het goed zijn
komt er nog een leuke aanbieding voor psv supporters
tekent toch nie bij gewoon 20 vangen en naar engeland toe sture
en zoet
dan komt hij naar
schietschijf 100
wat verdient de top bij fey ??
ik ga voor 100
tielemans is veel te duur voor
wat levert psv op is veel belangrijker
kan ie mooi spelen tegen moet min 100 worden
wat gaan ze op jaarbasis betale
spelregel kennis ???? duidelijk geen hand naar de bal
is dat niet
wanneer is de eerste open training zou graag met mijn zoon willen komen
nieuwe psv watchers en geen meer ??
en paal erbij halen
buttner proberen te hale
ajax krant
reclame voor ned voetbal
nu wij een nieuwe meter hebben krijgen wij dan ook een nieuwe afrekening mvg rob
moet je toch nie wille en gaat uit eindelijk tochweg en als opvolger hale
volgens hebben langeler en heereveen met elkaar gesproken
dan moet polsen
direct inzet baar toch voor zondag donderdag te vroeg ??
geef brands contract voor leven
top deal
gewoon ziyech ophalen
dan pereiro naar midden en hendrikx als controleur
propper
aan doelsaldo werken
pol van boekel gepromerveerd naar elite
waneer zijn afscheid
en dan zondag tege twente
kuit blessure meldt
gaat psv verlaten aan einde van seizoen
heb je een dm gestuurd
laatst is hier nog een monteur geweest
en we hebbe al 4 boxen gehad
ga niks meer halen over 2 weke toch bij jullie weg
nu na 15 min weer zelfde probleem
triest bijna einde contract nu elke 5 min geen internet
gefeliciteerd en win voor ze vanaaf🇳🇱🇳🇱🇳🇱
waneer wordt hij gepresenteerd
internet valt steeds weg en dat is sinds een maand
laatste maande van schaars in toch
sinds wij het contract hebbe opgezegd is het internet wel heel
komen veel verlengingen aan waneer is aan de beurt
gaat brands ook verlengen ligt toch ook nog mar vast tot juni 17
arbitrage zeer slecht
waneer is de evt loting
propper behoorlijk onderschat
hier ook in de reeshof
heel veel sterkte
gefeliciteerd op naar debuut 🇳🇱🇳🇱
dit zegt genoeg over
dit is voor de aanklager
nee volgens mij mar 7. mar als niuwe sponser ook dat betaalt zit je in totaal op 10 a 11 win win zou ik zegge
dat is zeker philips blijft voor ong 3 a 4 milj blijve sponseren en zonder naam op shirt mar wel op naam stadion
volgens mij wil voor begin 2016 nieuwe sponser hebbe
voetbal is een contact sport
wat een vrijheid
wordt het ergens uitgezonden
mijn fam kent hem ook
onzin wou heel graag naar psv alleen salaris was doorslaggevend
daar hebbe ze toch een potje voor
wat is er met poulsen als hij nu al nie speelt
wat is het nieuwe sponsorbedrag van mandemakers
liever nos
ik pleit voor voort veel stabieler
wij als nederlanders moete voor die trui zorgen zondag
toch 34 voor memphis toch nie slecht
en cilliseb blind vd wiel riedewald
ned is zelfde als ajax in europa
en keepers trainer bij voorkeur geen ajax keeper
zonder al die ajacieden
brands moet contract krijgen voor het leven
volgend jaar obispo bij psv 1
pieters doet het niet slecht in engeland
yep geen vrij verkoop meer
gefeliciteerd met jullie huwelijk
gewoon cavani kope
verkope
heeft zijn geld alweer bijna terug verdiend
is dat met of zonder salaris te goed van espanjol
waarom morgen niet met alberto spelen als lcv heeft mij in de voorbereiding verrast
hoeveel maanden moet hij nog krijgen bij 3
heeft psv doorverkoop op
weer een nieuwe soap#moreno
soap 3.0
volgens blijft ie heeft hij ook al kenbaar gemaakt
zeker terecht opteken geld na salaris 1 miljoen evt premies bij kampioenschap is volgens mij max 350.000
😀#onzetitel
vraag mar na bij psv is salaris plafond 1 miljoenevt bonus alleen bij kampioenschap
psv betaalt niet meer dan 1 en bonussen zijn er alleen als ze kampioen worden algemeen bekent
1 miljoen salaris staat in statuten eerst goed informere dan pas roepe
hoorde dat hij al 2 keer heeft mee gespeeld met espanjol
ok mooi vanavond keure en tekenen en voor morge inschrijven toch??
waneer wordt verwacht dat hij wedstrijd fit is
zal wel lukke anders kome zie nie zal wel indicatie hebben afgegeven
verliezen van kun je gelijk stoppen met voetbal
jammer dat het altijd over de voetbal supporters moet
is er een mogelijkheid voor fan artikelen op de herdgang of moete we ervoor naar stadion
wie staan er nog meer op het lijstje
wordt ook uitgezonden
wordt het ook uitgezonden
zenden jullie psv valencia uit
alberto ook een baasje
voor de kaartjes
fox kanaal 1
kunnen jullie mij volgen kan geen privé bericht sture
brands toch goed bezig goed aan en verkoopbeleid
sinds bij psv zit is de beste
hoe zit het met frenkie de jong
veel succes in de
brands weet ook dat alles rond mar brands maakt alles pas bekent als handtekening staat
propper al op weg naar en brands verdient een
volgens mij is mijn oplader poort kapot 6 heb em pas sinds half febr
wat zou berghuis moete koste
tutto mercato meldt dat dicht is bij komst van pereiro
inzette op 25 min 20 een beperkte speler als blind levert ook al 18 op
gefeliciteerd thijs
spel op de wagen
tyton naar stuttgart voor 3 jaar??#psv
gacinovic zegt jou dat iets
janhanbasch een optie ??
nieuwe erin
als willems vertrekt poulsen op lb en ajs stand in
nu augsburg europa ingaat levert het psv dan ook extra geld op
daar hebbe we toon en marcel voor rvc alleen voor controle en eind beslissing
is jammer wij wouden nog een keer zien aangezien we toch al kampioen zijn
waarom beslote zaterdag onze vince wil ook een keer naar training kome kijke
brands bedingt toch meestal 15 zoals bij strootman
thijs dit kun je nie vergelijke heb je hoog zitte als journalist
en dan verwisselen 25 ook met 34 zeker bbc
staatsomroep onzin lijkt me onzin
staatsomroep zal geen leugens vertelle en alle media in engeland zeggen min 25 milj pond sports
topper die brands