thomas 48 uur in vliegtuig voor duel met psv wil ik zeker niet missen
psv opnieuw in de race om braziliaans toptalent
het is geen ajaxspits, maar hij kan het psvniveau aan
psv heeft voorin kwaliteiten, dat is het verschil met de concurrentie
in de wandelgangen psv komt in zoektocht uit bij internazionale
psv haalt met 100% voetbal nieuwe partner binnen
swart ze komen in eindhoven iedere week weer goed weg, dat is geluk
psv speelt nog steeds niet als een topclub, het blijft kwetsbaar
sjaak swart raakt gefrustreerd van lucky psv
gijp die isimat en brenet werken echt op mijn lachspieren
koeman reageert wil hij bondscoach van oranje worden?
cocu bij psv doet dat veel beter dan keizer bij ajax
room claimt aandeel in zege misschien hem een beetje vertrouwen gegeven
zoet dronk kopje koffie met advocaat we gaan gewoon lekker verder
pragmatische cocu weet psv naar 24e titel te loodsen dit seizoen
psv koopt rechten van psv musical
wat ik goed aan cocu vind, is dat hij zijn eigen team niet overschat
psv sluit contract af met franchiseketen 100% voetbal
cocu geeft van vlerken en ritzmaier kans bij eerste selectie
derksen haalt uit bergwijn moet door de tuchtcommissie aangepakt worden
psv is een ontzettend goede counterploeg
video | nog even nagenieten sfeerverslag psv fc twente
fc twente genaaid tegen psv op een misselijkmakende manier
de fans weten ook hoe hard ik hier voor heb gewerkt
arias meldt zich geblesseerd af voor interlands colombia
de jong dankbaar de supporters zijn me altijd blijven steunen
caffee 1913 in philips stadion gaat dicht psv heeft ons een voorstel gedaan
video | oudpsver belaagd door fans vaker naar de kleedkamer gerend
memphis zuchtend voor de camera ”je probeert dingen in mijn mond te leggen”
nieuwe partner psv grootste voetbalspecialist van nederland
de jong geselecteerd voor oranje ging al wel een beetje rekenen
wijnaldum gaat in op gek verhaal dat was wel raar, joh
ajax en psv vechten om handtekening aanvaller
van ginkel leeft mee met ploeggenoot dit is zeker zuur
vraag me af hoelang ze dit voetbal nog pruimen in eindhoven
juve en milan hebben miljoenen over voor psver
memphis en tete moeten rennen heel agressief
opvallende nieuwe speler in de spits bij oranje
video | de mooiste jeugdgoal van afgelopen weekend bij psv?!
wijnaldum bespreekt oranjezoektocht geen gekke gedachte
dat zegt iets over de kwaliteiten van cocu als peoplemanager
dan kan begin december de platte kar al uit de schuur
de jong terug bij nederlands elftal zonder geluk vaart niemand wel
boere positief na psv het is heel zuur, maar dit is ook iets waar we mee verder kunnen
acht punten na elf wedstrijden, dat is zeker ongelofelijk
psvfans dromen al voorzichtig over kampioenschap lijkt mij duidelijk
ik heb genoten, met dank aan fc twente
dreun komt hard aan bij ajax ‘we hadden de druk op psv moeten opvoeren’
psv is in kampioensvorm, maar één zwaluw maakt nog geen zomer
psvspelers in elftal van de week, vi deelt onvoldoendes uit
keizer over titelrace acht punten is niet onoverbrugbaar
videos | depay, rekik en willems maken indruk in europa
gewild talent stelt psv voorlopig teleur ‘ooit wil ik wel hogerop’
enorme ontlading bij psv je merkte het op de tribunes
psv aanvaller luuk de jong mag alsnog opdraven bij oranje
psvfans vertrouwen in titel, maar niet te vroeg juichen
cocu had het geluk dat zijn basiswissel geen punten kostte
gullit neemt oranjebeslissing en spreekt wens uit
verbeek ik ben ook niet gefrustreerd, maar wel teleurgesteld
advocaat roept psver op voor oranje na vijfde afmelding
ophef na oranjegrap wat een wanbeleid!
breaking de jong opgeroepen voor nederlands elftal update
ook dost en locadia haken af de jong opgeroepen
locadia meldt zich weer af bij oranje een flinke teleurstelling
mogelijke oranjedebutant meldt zich af ‘er lagen mogelijkheden’
psv vervelende affaire naar tevredenheid afgesloten
zoet baalt te makkelijk om te zeggen dat het daar aan ligt
tegenvaller voor jong oranje en psv bergwijn geblesseerd
psv heeft zich opgericht tot een zelfbewuste doelpuntenfabriek
video actie memphis laat fransen watertanden
als psv de komende vijf wedstrijden wint is het bijna kampioen
bergwijn geblesseerd jammer steven, hopelijk snel weer fit
psv richt pijlen op 19jarige aanvaller als er een zot bod komt...
video | samenvatting psv wint spektakelstuk van fc twente 43
zes punten teveel voor psv de mazzel zal toch wel een keertje op zijn?
‘geen ruis op de lijn, die goede communicatie moet ook bij advocaat liggen’
woorden advocaat verrassen zoet dan moet het ook bij de bondscoach liggen
cadeautjes voor psv tegen fc twente een weggevertje van de scheids
‘was het onterecht? dat weet ik niet, maar dan heeft psv geluk gehad’
video memphis depay scoort voor olympique lyon in derby
‘brands naar belgië om anderlecht af te troeven’ ‘nog geen concreet bod’
psv spits luuk de jong ziet na scoren last van schouders vallen
psv kruipt door het oog van de naald het geluk van de kampioen?
‘psv meldt zich in belgie voor erg populaire speler’
sensatie bandé kroont zich tot strafste tiener van europa “nu al een topspeler”
het geluk van de kampioen? nog heel vroeg om over de titel te praten
scorende luuk de jong het zat me niet hoog, maar het lucht wel op
psv slaat kloof met ajax na 43 winst op fc utrecht
zoet tevreden ondanks tegentreffers die 11 mag nooit vallen, dat is geen corner
van ginkel en oudpsver genomineerd voor speler van de week
brenet lost van aerle af spannend was het zeker, leuk pas op het einde
de jong opgelucht dankzij treffer het heeft even geduurd
bergwijn is zich van geen kwaad bewust een terechte strafschop
psv in slotminuten alsnog langs tukkers door ongelukkige goal
brenet pakt clubrecord en droomt stiekem verder daar gaan we voor
psv pakt winst met geluksgoal tegen fc twente het ging niet makkelijk
“met hele team er voor gevochten”
strijdend fc twente komt net tekort voor gelijkspel 43
psv loopt uit op concurrentie na zege op fc twente
video | einde aan doelpuntendroogte de jong spits kopt raak
psv boekt benauwde zege op fc twente en loopt verder uit op concurrentie
verbeek houdt niets over aan sensationeel debuut tegen psv
ajax en feyenoord weten niet te winnen gouden kans voor psv
ajax verliest in eigen huis van fc utrecht
frustratie bij ajax ‘dat hoeven we echt niet van jullie te horen’
bergwijn in plaats van de jong bij psv
labyad velt zwak ajax met dubbelslag in amsterdam
assaidi ontbreekt tegen psv, thesker in de basis
psv, ajax en feyenoord kunnen brandley kuwas niet betalen
koevermans locadia kan er dit seizoen 15 tot 20 maken mits hij fit blijft
vorig seizoen was veel beter was verlopen als hij niet geblesseerd was geraakt
advocaat over ontstemde jeroen zoet “waarom hij niet keept? cillessen is gewoon beter”
feyenoord heeft minder kwaliteit dan psv en ajax, maar...
‘bij locadia weet je die maakt vijftien à twintig treffers in een seizoen’
bij locadia weet je dat hij 15 tot 20 goals maakt
cocu moeten nu vooral niet verslappen
brenet ik kan mijn koppie er niet meer bij laten hangen
flitsende robben niet naar oranje het was wel bizar
cocu we zijn veel bewuster bezig en dat maakt ons sterker
lozano geniet van voorkeur de viser neres kan daar net niet aan tippen
cocu die tennisballen waren niet eens zo verkeerd
pereiro nu toch zeker wel het dubbele waard van vorig seizoen
cocu ziet progressie bij isimat tennisballen goede zet
gastón pereiro schat de waarde van mezelf in op 14,5 miljoen
de jong moet gewoon lekker voetballen en zijn taken uitvoeren
cocu spreekt wens uit het publiek bij psv net zo hard
oranje strikt twee toplanden voor interlands
hersenschudding voor castaignos, pec mist mokhtar in arnhem
psv al een jaar zonder puntverlies in eigen huis vertrouwen is enorm gegroeid
geen verwarming tijdens psvduel niet veilig genoeg
gaat de jong einde aan droogte maken tegen oude liefde fc twente?
piet de visser als ik mag kiezen ga ik voor lozano
‘bij ajax krijgen zelf opgeleide spelers altijd het voordeel van de twijfel’
verbeek moest noodgedwongen uitwijken met fc twente
psver pereiro reageert op transferwens en schat zijn waarde in
pereiro droomt hardop over volgende stap dan ga je altijd luisteren
brands ziet verandering in psvjeugd dan hoorde je nou, koop maar een nieuwe
‘psv kocht me voor zes à zeven miljoen, ik ben nu het dubbele waard’
verbeek ziet voorbereiding op psv verstoord worden
piet de visser lozano is net iets completer dan david neres
mexicaan in bloedvorm het &amp#039lozanoeffect&amp#039 bij psv
jong psv brengt fc volendam eerste overwinning daarvan konden we niet profiteren
verbeek voor volgend probleem fc twente, grasmat kapotgevreten
fc twente mogelijk struikelblok voor psv gemakkelijk zal het niet worden
toch is hij op dit moment in een dienende rol belangrijk voor psv
geïrriteerde sneijder belde bondscoach advocaat op
onder jouw niveau als je alleen zo nog van waarde bent
opvallende oranjestelling ronald koeman dan als assistent
afstraffing voor jong ajax, nec nieuwe koploper
advocaat heeft duidelijk advies voor onzekere oranjepion
de jong stoïcijns ik doe niets specifieks, hier doe je niets aan
verbeek ziet kansen tegen psv toen lieten ze de teugels vieren
matchday jong psv op jacht naar driepunter op bezoek bij fc volendam!
ik doe mijn best om luuk de jong aan een doelpunt te helpen
als jeroen naar me toe was gekomen had ik het hem uitgelegd
video mauro junior, braziliaans jeugdtalent van psv
video | ali riza krijgt flink pak slaag in edivisie deze moet ik snel vergeten
advocaat omdat ik cillessen een betere keeper vindt, daarom
drie spelers van psv 1 met beloften naar fc volendam
“hopelijk geeft het de spelers extra energie”
oranjedebuut lonkt ‘hij is een jongen die voor de goal altijd scherp is’
psv op recordjacht zowel in goede als slechte tijden niet in de war raken
psv hoopt mijlpaal te bereiken
advocaat veel mensen vinden hem geen echte spits, maar ik wel
advocaat doet zegje locadia is geen linksbuiten maar een spits
cocu waarschuwt dan is de kans groot dat het fout gaat
cocu waarschuwt psv verbeek kan andere accenten leggen
memphis door goed optreden in europa league efltal van de week
cocu houdt vertrouwen in de jong hoop dat die snel gaat vallen
psvtrainer cocu komt met goed zag er weer prima uit
meevaller voor psv hij heeft vandaag weer getraind en is er zondag bij
advocaat wijst zoet terug
langeler presenteert selectie jong oranje psv hofleverancier
advocaat reageert op kritiek zoet vreemd dat hij het zo laat weten
bondscoach advocaat baalt van zoet beetje vreemd
advocaat neemt drie psvers op in definitieve selectie nederlands elftal
pérez wanneer gaan ze dat in godsnaam afschaffen?
video memphis depay scoort voor lyon tegen everton
ik durf het niet te zeggen, dat soort dingen verdring je liever als spits
die zullen erop gebrand zijn het beter te doen dan het eerste elftal
van hooijdonk ‘als ik zijn tegenstander was, zou ik er meteen over beginnen’
zoet maakt indruk heeft teleurstelling omgezet in brandende ambitie
psvroutinier goud waard van buitenaf hoort niemand mij misschien
nu zeggen mensen opeens dat psv heel goed is
het komt voort uit een stukje medelijden met de jong
lozano kan tegen debuterende gertjan verbeek opnieuw record breken
hij zal de gouden schoen niet snel winnen, maar dit is extreem
manchester unitedfans tweeten massaal over memphis
nederland raakt cruciale plek op uefaranglijst kwijt
locadia twee keer genomineerd voor doelpunt van de week
stunt twente bij psv? het gertjan verbeekeffect noem ik dat
pröpper enthousiast ik hoop dat psv dit lang kan volhouden
het was een verkeerde beslissing terug naar psv te gaan
psv hofleverancier maandelftal, ajax levert één speler
lof voor psv ze hebben de draad goed opgepakt
dan zijn we niet eens direct geplaatst voor de champions league
nederlander volgt koeman op bij everton
psv kent weinig tot geen problemen in aanloop naar fc twente thuis
‘mijn rol is hier anders dan dat die bij vitesse en psv was’
jong psv vrijdagavond met rigo, gudmundsson en mauro junior
lof voor psv ze hebben de draad goed opgepakt
pröpper geniet daar ben ik uiteraard erg tevreden mee
psv topfavoriet? tien punten op feyenoord is echt al heel veel
hoe hoger brenet het record zet, hoe beter het is voor psv
gertjan verbeekeffect bij fc twente? ik zeg psv gaat winnen
clubicoon is record bijna kwijt alleen maar beter voor psv
video | dijkhoff vs. baudet psvers komen ook niet van hockeyveld
video | classic fc twente boekt monsterzege bij psv 26
joshua brenet over zijn wederopstanding ‘natuurlijk ben je woedend, maar ik kan er niet in blijven hangen’
sollicitatie bij oranje knvb moet mij bellen
nieuwe editie björns vondsten met amerikaanse josh harty
ewald frensch stopt als hoofdtrainer van psv/lifovragen.nl
geen gemakkelijke klus bij psv op getallen pin ik me nu niet vast
cocu krijgt goed nieuws uit ziekenboeg topschutter gewoon inzetbaar
psv heeft grote plannen ‘net zoals eerder in zuidkorea en brazilië’
frans janssen nieuwe commercieel directeur van psv
lof voor rustige lozano maar eenmaal binnen de lijnen is het een roofdier
zomeraanwinst grote man in eredivisie hadden wij ook niet verwacht
lozano schittert bij psv of hij de beste is?
janssen toen psv me benaderde, zag ik dat als logische stap
ergenis rond jong psv in jupiler league dat heeft toch geen zin
brenet erkent ging er vanuit dat hij weg zou gaan
stevens heeft maar één oplossing voor vormcrisis feyenoord
opluchting bij psv arsenal gaat voor speler van rivaal chelsea
onthuld dit is de meest aanvallende club van de eredivisie
van der gijp maakt gehakt van psvbasisspeler pleur toch op
psver lozano krijgt heerlijke in formkaart op fifa
transfertarget ajax en psv wijst geweldige competitie aan
gijp pleur toch op, hij loopt voor spek en bonen mee te doen
fraser geeft mount basisplaats tegen zulte
hoop voor psv denk echt niet dat hij in de winterstop zal verkassen
psv zondag op volle oorlogssterkte locadia gewoon inzetbaar
jeroen zoet het is verwarrend dat ik niet bij oranje onder de lat sta
video | amerikaanse proefspeler direct trefzeker bij duel psv onder 19
psv nagenoeg fit voor thuisduel met fc twente, locadia traint apart
psvtrainer cocu gewaarschuwd ook in de kleedkamer
psvmiddenvelder denkt aan transfer we gaan in de winter kijken
‘hij zal beste zijn waarde hebben gehad, maar feyenoord mist kuyt niet’
pröpper maakt geweldige bliksemtransfer
van hooijdonk hij is de beste speler van de eredivisie
joshua brenet record ‘een blessing van god’
de mos hij gaat messi en ronaldo achterna
‘ik moet me nog inlezen, maar psv is een club met heel veel mogelijkheden’
arsenal meldt zich in januari met 34 miljoen euro in eindhoven
verliezen voelt bij psv en feyenoord anders dan bij willem ii
zoet vol onbegrip over beleid advocaat dan zou ik niet zulke uitspraken doen
zoet haalt uit naar cillessen absoluut niet zelfs
cocu schrijft die namen nu als eerste op het wedstrijdbord
keuzes dick advocaat leiden tot irritatie ‘dan telt dat ineens niet’
inzet bij voetbal kostte politie ruim 300.000 manuren
politie is weer meer manuren kwijt aan voetbal
de mos verwacht dat psgspeler messi en ronaldo achterna gaat
geflopte psver wil in winterstop toch echt vertrekken
dat is hartstikke mooi, maar ook weer geen reden voor euforie
de mos hij gaat de opvolger worden van messi en ronaldo
linssen lyrisch echt goed van psv om dan zo toe te slaan
die is toch niet meteen geschikt voor ajax, feyenoord of psv?
psver uitgeroepen tot speler van de maand oktober in eredivisie
janssen van fc eindhoven naar psv
psv denkt aan argentijnse doelman mocht zoet vertrekken
janssen naar psv ambities en plannen spreken me enorm aan
toon gerbrands psv heeft een hele andere beleving dan az
psver kan clubrecord breken ik denk dat het een zegen van god is
toon gerbrands werken bij az of psv is verschil van dag en nacht
zij vragen zich af waar de jong dat vertrouwen aan heeft verdiend
gerbrands stelt psv gerust van mij zijn ze voorlopig nog niet af
van hanegem kritisch dat geldt voor ajax precies hetzelfde
knvb maakt scheidsrechter voor wedstrijd tegen fc twente bekend
swart baalt van zege psv het leek wel een vogelverschrikker
had je kunnen weten! jan boskamp slaat expsv’er na dolletje over feyenoord “klootzak joh!”
psvhuurling geniet als je dan hoort hoe het publiek je naam noemt
psv laat smaakmaker niet gaan alleen bij gekkigheid kan er iets gebeuren
psv zegt alleen ‘bij gekkigheid’ wellicht ‘ja’ tegen winterse transfer lozano
psv heeft al vervanger gevonden voor doelman zoet
büttner en ja, dan komen er mooie duels bij kijken
nee, ik heb nooit getwijfeld of ik deze stap wel had moeten zetten
koevermans locadia heeft zich neergelegd bij deze rol en dat doet ie goed
hendrix ik moet het op het veld bewijzen, dan komt die oproep vanzelf wel
koevermans geniet hij kan afwerken als de beste
locadia tussen grote namen in toonaangevend weekelftal
fraser hekelt ophef na tegengoal de zon scheen
waterreus kritisch is het jou al opgevallen dat hij in geen enkele grote wedstrijd ooit een goal gemaakt heeft
oud psv spits koevermans vol lof over locadia hij scoort veel
boeve lovend daarom is ook hij ongelooflijk belangrijk voor psv
de jong al ruim duizend minuten droog ‘het is bijna een beetje aandoenlijk’
steun voor de jong hoe blij psv met hem is blijkt wel...
daar moet locadia dan weer antwoord op geven
het is niet terecht te stellen dat psv vooral vanuit de defensie speelt
ik baal enorm, psv heeft momenteel het beste team van nederland
eredivisiespeler moet standin lewandowski worden
psvers in elftal van de week, derksen nomineert locadia
jong psv wint oefenwedstrijd van beloften fc dordrecht
brenet op gelijke hoogte met van aerle ja, dat is een aardig recordje
winstpunten voor amazones psv de jelgersmaruiters
matchday jong psv start met carolina in oefenduel
brenet onthult geheim achter psvsucces iedereen is blij
psviconen onder de indruk ‘locadia en lozano kunnen door hem excelleren’
pasveer baalt als je een bal niet ziet, kun je moeilijk gaan duiken
psv gaat als een raket naar het landskampioenschap
brenet wijst aan dat hebben we nu omgedraaid