dit ziet n blinde nog. ontzettend stom van isimat.
wat het ook is, je zou terug verlangen naar de stoomtrein 😉
dat is dan een schrale troost. 385 euro eigen risico is al buiten proporties. zie de winst van de zorgverzekeraars
tegenwoordig staan er meer treinen defect op het spoor, dan er rijden. waar zouden we zijn zonder de trein 😡😡😡
op oost nul problemen... ligt vast aan de alcohol 😂
inburgering verloopt moeizaam 😉
je mond is er in elk geval groot genoeg voor...
uiteraard
terugweg hetzelfde liedje, structurele problemen...
ik wel, maar vanaf apeldoorn is het wederom overvol. deventeramersfoort
overvolle treinen, zelfs in het weekend
geen nieuws toch? onze club staat financieel aan de rand van de afgrond.
die had afgelopen jaar buiten moeten werken en had daarna zelf ook op moeten stappen.
niet goed genoeg voor nu
maar bijvoorbeeld wel een kaartje kopen voor je kinderen.
je zet jetro een jaar in de etalage en 13 uur voor het verstrijken van de is er nog steeds geen linksback.
mens erger je niet
ik moet zeggen dat het perfect geregeld was. zit in de bus naar eindhoven. hopelijk vanavond vanaf ...
de conducteur in de trein gaf aan beter door te reizen naar tilburg en daar de snelbus te nemen ipv uit den bosch. klopt dit?1/2
enge honden? bestaan die dan? de eigenaar maakt ze zo...
je ziet er ook ineens een stuk beter uit
dat staat als een huis, met paul in het centrum
isimat en luckassen, je zou ze samen in het centrum op durven te stellen.
klopt. maar liever dat dan een speler die zich niet kan motiveren... zo geef je als trainer toch ook geen signaal af
verbazingwekkend dat hij in de basis staat
locadia vandaag wel gemotiveerd?
terug naar topsportklimaat! alles moet wijken voor resultaten! vanavond beginnen met de grote schoonmaak.
zoals we het seizoen eindigde, beginnen we hem ook schaam je kapot
uiteraard!
tot volgend seizoen!
wat ik constateerde, is geen enkele plek. er ontbreken hele groepen. overal vlekken van stoeltjes. geniet van je brunch!
omdat de mensen die er nu niet zijn, vast niet allemaal werken... door het hele stadion veel lege plekken...
zondags kan ik er wel eens een overslaan, met het werk niet altijd haalbaar.
als mijn club in eindhoven speelt, ben ik er. en dat al bijna 30 jaar.
wat een lege plekken in het philips stadion. blijf volgend seizoen dan ook lekker thuis!
geniet ervan
lekker bij oma op schoot?
wij draaien zoals gewoonlijk op voor het mislopen van cl miljoenen!
over die 2e plek ben ik het met je eens. verder is het een rampzalig seizoen!
tijd om de organisatie tegen het licht te houden! topclub onwaardig!!
om in hard te lopen?
niet geheel onlogisch lijkt me...
op de geplande datum, met vooraf goede communicatie en levering sim over naar goed werk !
het roept weer irritatie op bij me als ik er aan denk!
eerst een perronwissel en vervolgens dit.
het waren een man en een vrouw. waarvan de vrouw nog enigszins de moeite deed om te begrijpen.
amersfoort zwolle, vertraagde stoptrein van 711 uur. op station amersfoort. ik heb in schothorst nog mn beklag gedaan.
overigens vind ik, dat jullie je er zo makkelijk van af komen. geen excuus of reactie. na alle vertragingen, het staan, nu dit!😡
terwijl je een blinde helpt om in te stappen vind ik ronduit schandalig! dit gaat alle fatsoensnormen te buiten!
vertraging kan gebeuren. maar dat een conducteur nog niet het fatsoen heeft om even te wachten 1/2
de groeten aan toeter!
de koning, kind van de rekening. wat verwacht je dan van een trainer met een ongeschikte en incompetente selectie?
lucius verkiezen boven van aerle is complete waanzin. theo mocht berry zn veters niet een strikken!
hoeveel kost dat per goal?
dat kan ik eindeloos doen. er wordt weinig mee gedaan, is mijn gevoel
het houdt maar niet op hé! zelfs in het weekend overvolle treinen... wellicht helpt een klacht bij
tuurlijk niet
volgende week weer?
verblijfs of tapvergunning?
die zero maakt het dan weer af...
fijne vakantie!
op zn best mensen naar zwolle adviseren om te reizen via deventer en er dan een treinstel afhalen. staan in overvolle trein.
nu snap ik je warrige appje 😂
daar ben jij expert in toch?
ik kan iedere avond inmiddels dezelfde foto maken. weer mis ik de overstap op amersfoort. iedere dag sta…
als er niemand klaagt, doen ze er zeker niets aan...
haha, moet ik nu al regelmatig. maar vaak valt er niks meer hard te lopen.
ik reken nergens op, maar je motiveert mensen niet om de trein te nemen voor het dagelijks woon / werkverkeer.
in de oude dienstregeling was het mogelijk om vanuit vathorst de trein richting hoofddorp te nemen. hierdoor had je 2 opties2/2
de trein vanuit zwolle heeft vaak vertraging. dan blijft er van die 4 min. weinig over. 1/2
nooit meer aansluiting in amersfoort... goed voornemen voor 2017? 4 min. overstaptijd in amersfoort is te minimaal!!!
wat een fijne winkel, wat een klantbeleving! eerste keer, zeker niet de laatste! complimenten aan het team daar.
ik ben er klaar mee! kortere treinen, beroerde aansluitingen, langere reistijd.
en mn buik
mn hoofd moet ook mee...
niet gek, van een lange dubbeldekker naar een lange niet dubbeldekker.
als een mensenpakhuis in de trein.
wat een dramatische pot weer!
geen buitenspel!
de winter is nog niet eens begonnen...
sterkte!
wat een ellende weer
gefeliciteerd!
zoiets heb ik hier ook gehoord sinterklaas heeft veel geld, kijk eens naar al die cadeaus die we altijd krijgen...
we rijden idd. bedankt voor de info.
bedankt! dat wist de conductrice namelijk niet zeker.
hoe laat kan ik van apeldoorn naar amersfoort. deze trein dev. rijdt niet verder dan apeldoorn.
ben vooral benieuwd wat het te weeg gaat brengen.
nee... noem het gezond boeren verstand.
ik heb niks met de clintons, maar dit wens je de wereld niet toe...
op koers van het witte huis. ik heb het nu 2 uur laten bezinken en het dringt niet door. dit moet je als wereld niet willen!
neem nog een slok azijn
uiteraard!
niet als psv thuis speelt...
mooie uitspraak van de herdgang.
hard werken verslaat talent, als talent niet hard werkt.
door griep, geen philips stadion vandaag. op de bank met de verwarming aan, een vreemde gewaarwording.
er onderdoor hoop ik...
gefeliciteerd!
tuurlijk! je kent m toch....
neem nog een slok. is ie nu leeg? ben bang van niet!
voor ons gelukkig niet het eind van de wereld, wel hinderlijk als je iets nodig hebt.
op de site staat dat vestiging deventer vandaag geopend is. dit bleek niet zo te zijn. sta je dan me…
we zullen het er op houden, dat de frustratie inmiddels wat is gezakt.
met het vooruitzicht op morgen zijn de punten idd heilig.
tsja. op zeker tegen sparta. ik denk er het mijne van...
pardon? wat een wissel tegen met alle respect sparta. dan ben je in mijn ogen een angsthaas!
voor de krantenbezorger van het jaar verkiezing moet je niet bij het zijn.
wanneer loopt mijn zaterdagabo af? wéér geen krant vanmorgen. zal de machtiging vast intrekken. €16,95 p.m , er komt toch niks.
eerder persoonlijke fouten...
defensieve zekerheid is prima, maar tegen persoonlijke fouten en onoplettendheid doet een extra verdediger ook weinig.
mooi he? kinderen voelen dat feilloos aan.
dat kan uiteraard gebeuren, de gebrekkige communicatie eromheen vind ik erger. er wordt geen enkel alternatief omgeroepen.
ambtenaar werktijden 930 beginnen...
3 uur onderweg naar amersfoort. dat icm een nieuwe dienstregeling, doen je afvragen of je dit nog wel wil
en we brassen rustig verder...
nijhuis.... idioot!
sensatiekanaal...
idd!
ik mis de held van bernabeu...
zo ook in deventer
uiteraard.
ja, dat kan ik niet begrijpen...
doelde op je vorige tweet...
wie maakt hem 😂
gaat het goed met je?
2e keer deze week, dat je jezelf zoveel te kort doet 😐😐😐😡😡😡
tegen wie speelde jullie gisteren of vanavond?
dure punten...
fraai is dat!
ik denk dat vanavond wint van fc rostov. wie denk jij dat er als winnaar van het veld stapt?
bedankt voor de reactie, ik wacht af...
inmiddels is mijn vodafone thuis geïnstalleerd. wanneer en hoe krijg ik de extras op mijn mobiele abonnement?
ik kan me nog een opmerking tijdens de superbowl herinneren. iets met kindjes...
mooie gelegenheid!
mooi weekje! op teenslippertjes en in een korte broek
met als hoogtepunt een overheerlijke cheeseburger!
keuken is dicht
niet meer
zag net de herhaling, dat kan toch niet!!!
zo erg ja?
van een trein met hakkende gabbers naar een trein met gillende meiden...
wie laat zich dan ook in zon pak hijsen...
is onderstaande een reden om op te kunnen zeggen?
wat is sport weer bizar, ligt verdriet en blijdschap extreem kort bij elkaar.
kippenvel bij het zien van de valpartij, en erger nog, hoe ze bleef liggen...
gefeliciteerd!
met een rwe shirt aan? heeft floor hem waarschijnlijk buiten gezet...
ga jij ze voor ons tappen?
hans bedankt! vandaag je presentje ontvangen. nogmaals bedankt voor de service!
idd! al valt het in het hopelijk mee...
geen idee. al zitten we wel met 2 shirts opgescheept waar ik vreselijk aan moet wennen...
daar is toch gewoon journalist voor...
hier een kind 6 in tranen! wachtend op zn dinoplaatjes van oma! envelop aangekomen, plaatjes eruit... en nu???
het geluk straalt er van af! geniet ervan!
uiteraard...
slaan we gemakshalve over. deze wedstrijd kan me op voorhand niet boeien.
wat een traptechniek en overzicht heeft de beste man!
zeker weten! als is het maar om voor jou een dürüm op te halen...
als je slaap tenminste niet wreed verstoord wordt door een autoalarm en een vlug opspringende oosttimorees!
prima hotel in een prima wijkje met fantastische parkeergelegenheid!
dan blijft de schade beperkt. bedankt voor de snelle reactie!
gaat de trein van 648 uur vanuit deventer wel naar amersfoort??? die van 632 is namelijk uitgevallen...
zonneschijntje 😂
de trein die om 552 in almelo vertrokken is. volgens de ns app ritnummer 7018.
nee helaas, ben al uitgestapt.
ik ben inmiddels uitgestapt, dus treinstelnummer heb ik helaas niet. is de sprinter van almelo naar apeldoorn.
smerig! dezelfde troep als gisteren ligt nog in de overvolle afvalbakken en op de vloer.
inderdaad... maar waarschijnlijk is de aanklager al met vakantie...
wat een klote club... volgend jaar naar hemond sport
en dat alles onder het motto van veiligheid 😐
proest!
succes!
gewaagde uitspraak... ik besef echter dat als ik zeg prima hoor, dat ik spoedig een euroknaller in mn brievenbus zal vinden 😏
ik ben geen lezer. maar het boek over een van onze grootste psvers mag niet ontbreken. vanmiddag in de bus als het goed is.
ik kom bijna iedere dag op vathorst. morgen ook weer. dan deponeer ik daar de sleutel.
fiets staat daar buiten. sleutel heb ik mee. zoals al 1 keer eerder
dropbox? nooit van gehoord... alleen om extern data op te slaan 😏
er staan meer ovfietsen op vathorst dan dat er kluisjes zijn. nu staat jullie ovfiets het weekend onbewaakt. dat is regelmatig
goedemorgen! onderweg naar amersfoort. benieuwd hoeveel collegas een kater hebben 😂
hey wat doen jullie nu met het gat in jullie uitzending?
met mn mond dicht 😂😂
en nu breken ze de stad af...
kampioen! tranen gelaten hoor...
moet je niet met de politiek bezig?
is dit zon dag?
dan gaan we er straks eentje drinken hoor!
wat een uitzicht!
have fun!
sterkte vrouwke!
reserveer jij?
hét hoogtepunt! water loopt nu alweer in de mond...
wij hebben hier ook vol verwondering gekeken naar je fotos. goede terugreis kerel!
gefeliciteerd! maak er een mooie dag van!
gefeliciteerd!
bedoel je de vervoerder die me wel thuis brengt?😏
ik reis nu met arriva naar zutphen.
staan we weer! nu gestrand in apeldoorn... weer een defecte trein. iedere dag weer een survival!
theorieën zeggen mij niets...
vooralsnog zijn de 3 punten vanavond belangrijker!
ik moet om 2045 in het philips stadion zijn. nu onderweg naar huis colmschate en dan gelukkig! met de auto naar eindhoven!
he ik wil naar huis! vanavond om 2045 uur speelt mn club en moet ik nog vanuit colmschate naar eindhoven!
gelukkig heb je meer verstand van andere dingen...
deze scheidsrechter draagt een fifa badge. dat zegt veel over de nederlandse arbitrage...
dan loopt ie nu vrij rond, krijgt ie een huurhuis, uitkering en kinderbijslag voor zijn zeven kinderen.
je speelt vooral tegen jezelf
wibi? kun je deze keer ook passen?
maar dan kun je wel bepalen wie je binnen laat...
sommige dingen worden door de natuur bepaald... 😏
lachend het vak af lopen na zon braspartij... dat kan alleen in eindhoven. zon mensen begrijp ik niet! wat een kut week!
eerder volle chocolademelk...
mooi te horen dat jullie weer veilig thuis zijn!
te weinig. net als de rest
de enige die ruimte creëert.
gevaarlijkste man aan psvzijde...
met 3m voorsprong door buitenspelpositie
heeft vast moeite met de prestaties van zn clubje...
bedankt voor de info, ga ik dat dadelijk regelen
dat is een schrale troost. echter reis ik met een business card. geldt dit dan ook?
inmiddels onderweg naar huis. vanmorgen defecte wissel en vanavond geen perron vrij... al met al 2 uur langer onderweg
het is zon dag komt ie wel of niet... wat een puinhoop weer
sterkte!
daarna weer mac?
wil waarschijnlijk een signaal afgeven na de wanprestatie in de beker. hopelijk pakt het goed uit!
voor feyenoord is dit toch een soort europese thriller?
ik ben ook de enige die er de humor van in ziet, zo lijkt het...
goed vooruitzicht! ik zit in de trein tussen jammerende supporters van beide clubs 😂
woensdagavond 1830 uur competitievoetbal...
links nederland staat open voor andere culturen, niet voor andere meningen! dat moet toch ook ergens botsen?
rechts? dit kabinet? alles komt uit de portefeuille van diederik...
maar goed, leef je droom... over 10 jaar zullen we de realiteit zien!
ik kan er geen hokjesdenken aan ontdekken. alle regelgeving wordt door brussel door onze strot geduwd!
is geen hokjes denken john, ik heb een andere mening...
jij noemt het sneu, ik realistisch. links nederland gaat toeterend de straat op...
nederland democratisch? de beste grap sinds het nieuwe jaar begonnen is.
wordt tijd voor een rotterdams kampioenschap aldus de
een scheidsrechter uit dordrecht, die slaapt in een fluit . dat kan alleen in nederland!
heel bijzonder idd!
geen filmpje van? ik had jou wel eens aan het werk willen zien levensgevaarlijk
het kan ook een hint zijn natuurlijk...
ze weet dat jij niet veel eet...
ons autootje is niet zo groot, scheelt een hoop gezoek wanneer je je bril kwijt bent...
mwah, niet waarschijnlijk... hier hebben ze wel goede friet sate
het verplaatsen van problemen is geen oplossing...
wat een vechtlust!
tobjaar
we zijn door!
als ik net uit bed ben, moet ik geen geouwehoer aan mn kop. nu inmiddels 538
we tekenen 11215 644 uur, mijn eerst gehoorde kerstnummer is een feit!
het in de laatste wedstrijd van de gewoon nog in eigen hand hebben is in deze poule gewoon knap! geen discussie!
geschokt maar niet verbaasd.
beveiligen? in het vliegtuig naar het land van herkomst en grenzen dicht! we halen de ellende met open armen binnen!
waarschijnlijk heeft ie ook een uitkering en huurhuis... isbeul is hier veilig via telegraaf
wat een heerlijk avondje
heerlijk begin!
vreselijk dit! 2e keer in deze week
deze had op de stip gekund
we mogen niet mopperen
beginnen beide aan de tweede helft
het houdt niet op.... niet vanzelf! brusselse boevenbende!
die zitten er inderdaad tussen, teveel inderdaad!
misschien ben ik te scherp geworden door je collega valentijn
daar is toch gewoon shoarma en zijn de cheeseburgers te eten?
je steekt zonder paspoort een zee over. als je dan aan de overkant bent is alles slecht / waardeloos... de werkelijkheid in 2015...
wij begrijpen elkaar!
weet het weer eens in negatief daglicht te zetten! je komt voor je eigen ploeg, niet voor de tegenstander!
wat een ontzettend dom gelul
hopelijk lees ik morgen iets over een wonder...
om 400 uur de wekker morgenochtend. het is tijd om afscheid te nemen van blind en zn mannen. slaap lekker!
wees blij dat er mensen nog iets van humor in zien! dit oranje is bar en boos!
je zou bijna vergeten dat je tegen tien man speelt...
zeker! mooi feestje!
tijd voor de op een na grootste act op de nederlandse velden!
scheelt weer! hoe meer en ik hebben 7 februari.
die gaan er dan beter in bij je als chickenwings, spareribs en cheeseburgers...
jij ook niet
dank je. nu in ieder geval een zitplaats vanaf den bosch naar eindhoven
de touringcar door jullie geregeld van vorige keer was een stuk comfortabeler als de overvolle statrein van nu!
gefeliciteerd!
zijn huis is in ieder geval al gereserveerd... asielzoeker opgepakt voor moord op ex ad.nl
alles verloren op zee... paspoort, verblijfspapieren... allemaal naar de haaien 😊
wa zedde gij?
meer ??? tuurlijk! en de zijn immers zeer succesvol opgelost! en
valt best mee 😂😂😂
wat een machtsvertoon!
is die vierdaagse werkweek iets om de gemiddelde stemmer, rustig aan het arbeidsproces te laten wennen?
ik ga al zon 25 jaar van kinds af aan met mn zusje. best herkenbaar, aangezien zij dr mond ook voor niemand houdt...
niks rustig! iedere wedstrijd het zelfde gezeik met die ouwe gek
wat een prestatie! gefeliciteerd!
begrijp ik! ik eet daar nooit geen kebab meer! 😂😂😂
bewaar ik allemaal voor jou! jij lust geen spareribs
in asfalt gaan geen haringen.....
illegaal aan land komen is een, maar ruim dan tenminste je rommel op!
tuurlijk niet! slappelingen
zeker weten! veel te lang geduurd!!
de vriend van cc
heel verstandig! duitsland heeft schijt aan het verdrag van en gaat de eigen grenzen weer bewaken!
dat lees ik ook... ik heb daar niks van gezien! zonde van mn kostbare tijd 😉
ik ben gelukkig dat ie m geeft. maar hier worden we het niet over eens... 😉