motorclub shrinks on bikes rijdt 6.500 euro bij elkaar voor en projecten!…
een goed idee voor het voorjaarscongres 2018? dien uiterlijk 2 oktober een abstract in. lees meer op
psychiaters op pad voor het goede doel!
motorrijdende opgelet een mooie motorrit maken én steunen? doe mee aan sponsortocht sh…
bestuurder en jeugdpsychiater bertine lahuis reageert op spoeddebat van vanavond
hierom willen psychiaters nú hulp voor kinderen met ernstige psychische problemen
korte inventarisatie onder kinderpsychiaters tientallen ernstige situaties gemeld
opnieuw uiten kinderen jeugdpsychiaters van de hun zorgen over de huidige situatie in de jeugdggz!
heel fijn, deze duidelijke animatie over zorgstandaarden!
nvvp ziet forse knelpunten bij wetsvoorstellen over gedwongen zorg. lees de position paper van op…
blij met dit heldere overzicht aan feitelijke informatie over gebruik antidepressiva bij depressie!
gezamenlijk pleidooi bij onderhandelende politieke partijen voor bescherming vluchtelingenkinderen en hun gezinnen
hanna van loo won onze ramaermedaille. haar lezing op werd ook zeer goed beoordeeld. nogmaals van harte!…
nvvp mediaprijs eervolle vermeldingen voor malou van hintum en menno oosterhoff! van harte!
jessica villerius wint eerste nvvp mediaprijs voor haar docu emma wil leven. gefeliciteerd!
het is alweer tijd voor de laatste plenaire sessie van
geïnterviewd door onze oranje videocrew? zie jezelf dan om 15 uur bij de afsluiting op groot s…
sturen op kwaliteit. hoe? lees het in het nieuwe nvvp kwaliteitsplan 20172021. af te halen bij onze s…
wie wint de ramaermedaille voor de meest verdienstelijke bijdrage aan de psychiatrische wetenschap?
volop aandacht in het auditorium
heb je al een poging gedaan om niet te struikelen?
voorzitter nvvp krijgt bezoek van koningin maxima in amc!
motorrijdende leden opgelet nvvp motorclub shrinks on bikes rijdt op 27 aug. haar 2de sponsorrit door nederland!…
onze officiële social media &amp video reporters. deel mee via
op dag 1 van het publiceert vier opinie artikelen over online
de officiële opening van het voorjaarscongres 2017. fantastische opkomst en veerkracht!
in de leer over de veerkracht van hun patienten en zichzelf op 45ste nvvp voorjaarscongres!
welkom op het voorjaarscongres! fijne congresdagen gewenst
vanaf morgen verwachten we 2.500 deelnemers aan het voorjaarscongres volg &amp twitter mee via…
verwijzingen ggz vereenvoudigd per 1 april. zorgaanbieders, verzekeraars en minvws maken nieuwe afspraken…
nog 15 dagen tot aan het voorjaarscongres van van 5 t/m 7 april in maastricht. wij hebben er alvast z…
afsluiting sp door zaal uitgeroepen winnaar van het debat
vanaf 15.30 u voor iedereen live te volgen via of politiek24!
nvvp vandaag op goed om te herhalen dat gaan voor meer inhoud, minder vorm. tijd vo…
behoud rom voor de behandeling!
blij met steun kamerleden en trots op effectieve samenwerking met en met veel dank aan
zeer tevreden met wijze waarop tweede kamer heeft ingestemd met wetsvoorstel verplichte ggz
welke partij kiest voor ggz?
nog een paar plekken beschikbaar!
inschrijving voorjaarscongres 2017 voor nvvpleden geopend. ga naar en maak gebruik van vroegboekkorting!
liever gevaarscriterium dan veel vagere begrip nadeel in
geen observatiemaatregel. wel vol inzetten op voldoende zorg thuis.
delen van sommige informatie in niet altijd proportioneel stelt ook
stelt dat beveiligingseisen in wvggz onwenselijk zijn. moet behandelwet blijven.
en pat. die via de strafrechter in wvggz komen geen bemoeienis van justitie meer. gelijke rechtspositie in ggz
observatiemaatregel in wet verplichte ggz dient enkel politiek doel. zie…
goed eten, goede gesprekken, goed gezelschap er zijn weer diners voor leden! start 14 feb. in haarlem. eet je mee…
late breaking abstract nieuw onderzoek gestart of net resultaten bekend? indienen poster kan tot 30 jan.
uitreiking 1e nvvp mediaprijs tijdens kandidaten kunnen t/m 13 jan. worden aangemeld! waarom en hoe?…
zullen we de discussie voeren op basis van de juiste getallen? psychiater over
huisarts over het bericht dat nutteloos zouden zijn ⇢ via
het wetsvoorstel dat de voor jeugdhulp schrapt is ook door de eerste kamer
psychiater dirk de wachter geeft zijn visie op verpleegkundigen in een column voor ⇢
de nvvpmedia prijs welke journalist/programmamaker bracht in 2016 de het meest zorgvuldig in beeld?
psychiaters hanteren geen neprichtlijnen. psychiater jet roobol over in
lees hier een kort interview met over
gotzsche zaait onnodig angst en wantrouwen onder onze patiënten. onze reactie op berichten omtrent antidepressiva
op weg naar een positieve psychiatrie? interessant stuk van met een vooruitblik naar 2017 ⇢
de governancecode zorg 2017 is gelanceerd. de bestuurlijke waarborgen voor het bieden van goede zorg staan centraal
het grote zorgdebat 2017 zorg voor de toekomst! kom jij ook? ➡️
nieuw de generieke module zelfmanagement, handvatten voor om het proces van zelfmanagement vorm te geven➡️
hoe zorgen we dat onze gezondheidszorg goed, toegankelijk en betaalbaar blijft? kom naar het grote
de maakbaarheidsgedachte knelt. psychiater interviewde hoogleraar neurobiologie dick swaab
elk jaar bekroont het tijdschrift voor de 3 beste artikelen. wie zijn dit jaar in de prijzen gevallen?
de gezondheidszorg wordt het belangrijkste thema bij de komende tweede kamerverkiezingen, stelt
het handboek psychiatrie en is uit, voor professionals die te maken hebben met deze doelgroep…
dag robert, dat is nog onbekend begin 2017 wordt het debatprogramma samengesteld. uiteraard ben je ook van harte welkom!
nieuwe governancecode zorg van afvinken ✅ naar aanspreken 💬. ➡️ via
.@zorgvisie sprak &amp yvonne van rooy over de governancecode zorg 2017
minister schippers van gaat ambulante zorg versterken ➡️ via
het schakelprogramma voor personen met verward gedrag is vandaag gepresenteerd aan de tweede kamer
op 20 februari 2017 doet de samen met o.a. en vele anderen mee aan het grote zorgdebat! ➡️…
de welke journalist/programmamaker bracht in 2016 de psychiatrie het meest zorgvuldig in beeld? ⇢
1 op de 5 volwassenen krijgt te maken met een in zijn of haar leven. ⇣
de neemt vooralsnog geen standpunt in ten aanzien van standaard vergoeding taperingstrips ⇢
dank voor het delen van jouw verhaal, laura!
mooi interview met psychiater door het over ⇢ p. 30.
therapie bij alcohol of cannabisverslaving levert de samenleving miljoenen op, blijkt uit onderzoek van ⇢
zangeres plaatste een indrukwekkend bericht op facebook ze kreeg de diagnose zware depressie ⇢
op 16 januari vindt het weer plaats, een avond om meer aandacht voor te vragen ⇢
decentralisaties hebben bureaucratie nog niet verminderd, schrijft
adhdmedicijnen op lange termijn niet schadelijk voor kind. lees meer ⇢
onderzoek draagt een digitaal briefje een ander risicoprofiel met zich mee dan een papieren afscheidsnotitie? ⇢
wat moet er anders aan de zorg &amp hulpverlening? vul de vragenlijst van &amp in!
elke gemeente een eigen koers de in de prakijk. heb jij dit artikel in de al gelezen?
psychiatrische hulp thuis in de knel ambulante zorg komt niet op gang
van 2x per week thuis, verschuift het contact naar eens in de 3 weken op kantoor van
.@jeugdzorgned over tekort budget dit heeft grote gevolgen voor de veiligheid van onze kinderen 👉🏼
meer dan de helft van de gemeenten zegt dit jaar en komend jaar geld tekort te komen voor hulp aan kinderen
ernstige ontwikkeling om hoeveel psychologen gaat het, heeft het cijfers?
wanneer je open kunt zijn, zul je eerder hulp zoeken, waardoor de kans op verzuim terugloopt
dit ben ik, ik kán werken. mooi stuk in over werken met een psychische stoornis met o.a. 👇🏼
er moet onafhankelijk toezicht komen op hulptv, vinden verschillende grote partijen in de tweede kamer
het is tijd om de overeenkomst tussen en te onderzoeken, bepleit
dit gaat niet over moeite hebben met het maken van je huiswerk. over het diagnosticeren van bij meisjes…
.@bndestem interviewde psychiater rob van dijk, over het behandelen van eetstoornissen
heel indrukwekkend document van het gevecht van een veteraan tegen depressie, ptss en drugsverslaving ⇣
samen sterk komt met gouden woordvoeringsregels voor berichtgeving zonder ⇢
om 17.00u is van te gast bij met om te praten over
psychiaters in engeland zijn woedend bedragen gereserveerd voor de zijn miniem ☞
onderzoek naar het aandeel suïcides door patiënten waarvan de ggzbehandeling niet meer vergoed wordt
interessant magazine van ter ere van hun 10jarige bestaan. 👉🏼
onderzoek breng tijdens verblijf in de opvang zorgbehoeften van vrouwen in kaart en bied ook psychische hulp aan ⇢
nic van pleit voor meer samenwerking tussen huisartsen en sociale teams in de route naar de ☞
.@meek2training sprak klaas, die een rolconflict ervaart binnen het sinds de ☞
ziek zijn is geen schande. mustsee college over door psychiater ⇢ vanaf 2520 👀.
.@ellevanrijn, &amp vragen aandacht voor psychische problemen op dag
mooi interview met over dat het taboe rondom psychische aandoeningen wil doorbreken
gefeliciteerd met jullie prachtige lancering en dag! 🎉
maar liefst 1 op de 2 mensen ervaart problemen met in de zorg, blijkt uit onderzoek van ⇢
worstel jij, of iemand uit jouw omgeving met een eetstoornis? neem contact op met
emma filmde haar fatale strijd tegen anorexia. vanavond, 21.20u. is de documentaire emma wil leven te zien
.@tvpsy zorgwekkende stigmatisering door containerbegrip verwardheid ☞ zie ook
de zorg en behandeling bij eetstoornissen moet beter, stelt bekijk hier 10 voorgestelde onderzoeksvragen
vanavond is de documentaire emma wil leven te zien op 21.20u. ⤵️
de nvvp heeft input geleverd aan kamerleden voor vragen om in te dienen bij het wetsvoorstel verplichte ☞
wat is het foetaal alcohol syndroom? websites en geven uitleg |…
im calling for a culture change in how we think about addiction. verslaving als geestelijke ziekte in de vs…
in chicago wordt in aanloop naar de feestdagen een speelgoedwinkel voor kinderen met geopend…
vier nijmegenaren met een psychische kwetsbaarheid komen op 91 billboards te staan ▶︎…
.@mjrijn wil het gebruik van psychofarmaca binnen verpleeghuizen verminderen en gaat dit bespreken met specialisten…
het biedt drie gratis online trainingen aan om pieker, slaap en stressklachten aan te pakken ⇢…
wie wil er vrijwilliger worden van
hoe ga je om met de is eind september een campagne gestart
.@parool meldt dat meer dan 500 kinderen in amsterdam op de wachtlijst staan voor jeugdzorg
vanaf 2017 verplicht voor ggzaanbieders informatie geven over de behandeling en kwaliteit van zorg ⇢…
bekende zanger robbie williams is blij dat depressie en angststoornissen tegenwoordig bespreekbaar zijn ⇢…
lees er ook meer over via de website van
over nog geen twee maanden het op 16 januari 2017 om precies te zijn ⇢
volgen jullie al? veel interessante onderzoeken passeren de revue.
indrukwekkende clip over zelfmoord en de noodzaak van hulp inschakelen ook met dank aan stichting
een moeder met obsessievecompulsieve stoornis vertelt haar verhaal op engelstalig…
een zakkaartje wat is dat precies? in een interview op de wordt het hoe, wat en waarom uitgelegd
lees hier ons standpunt over de onder andere ook over de administratieve last ⇢
vandaag is giny norder gepromoveerd aan het umcg over voorspellers van psychisch verzuim. lees er hier meer over…
het is de week van de werkstress! lees er meer over via de website van ggz connect en volgtip ⇢
wat zijn voorspellers van psychisch verzuim? een umcgpromovenda deed onderzoek naar de factoren…
.@vgctwit heeft patiëntenvideos gemaakt over cognitieve gedragstherapie bij onder andere paniek of depressie…
psychiater was te gast bij televisieprogramma de afspraak. dat is terug te kijken via
ect bij patiënten met een psychotische depressie op latere leeftijd is zeer effectief via
en de feestdagen hoe pak je het aan? de website heeft zes tips op een rij gezet…
dit platenlabel gaat aandacht besteden aan de mentale gezondheid van haar artiesten en muzikanten, meldt
hoe is het om last te hebben van paniekaanvallen? deze tekenaar probeert het uit te leggen in comics…
rené kahn over de effecten van alcoholgebruik strenger of juist soepeler omgaan met drank?…
mocht je het gemist hebben ons statement over de stand van zaken binnen de kinder en jeugdpsychiatrie ⇢
de nvvp uit haar zorgen over de kinder en jeugdpsychiatrie de belemmert een goede uitvoering →…
jeugdwet belemmert goede uitvoering jeugdpsychiatrie. landelijke afspraken en passende financiering met spoed nodig!
running therapie wat houdt het precies in? vijf vragen worden beantwoord op ggz nieuws
wat voor invloed heeft zelfredzaamheid voor kinderen? over een onderzoek naar de scouting…
wie wil er voor bezoek de website!
hoe wordt de behandeling van depressie beoordeeld? grotendeels positief, maar er is ook nog plek voor verbetering
.@wiepkecahn wil helpen om de muur tussen somatiek en psychiatrie af te breken. haar column
rake vragen welke vragen moet je stellen aan kinderen na een traumatische gebeurtenis? dit initiatief wil helpen…
vandaag is de speciaal voor deze groep heeft een cursus opgesteld…
psychiaters tasten in het duister tijdens najaarscongres#njc2016
afgelopen weekend in een open brief van clara die bipolair is. ze wil een correct beeld schetsen…
wat is de impact van zonuren op je mentale gezondheid? in engeland werd er onderzoek naar gedaan…
had jij een postit achtergelaten op het te gek!? festival?
wat voor effect heeft een trauma op een kind? het initiatief rake vragen wil helpen om de juiste vragen te stellen…
psychiater jan swinkels werd vorig jaar rondom zijn afscheid geïnterviewd door trouw. je leest dat stuk hier…
psychiater jan swinkels zat gisteren bij aan tafel om te praten over het boek judas…
icymi vanochtend in het journaal ging het over de zorgen van de kinderombudsvrouw item ii…
geregeld flauwvallen kan ook een psychiatrische oorzaak hebben. het wil dit bespreekbaar maken…
de kinderombudsvrouw constateert dat er nog te veel drempels bestaan in de toegang tot
deze maand is de campagne aan de gang. ze vragen aandacht voor o.a. mentale problemen bij mannen…
zoeken mannen net zo snel hulp als vrouwen? een onderzoek van de mental health foundation laat een groot gat zien…
lees hier onze position paper wij spreken niet van verwarde personen, maar over mensen met verward gedrag ➡️
lees hier de nieuwsbrief van vol nieuws van de afgelopen weken omtrent de
de gemeente heeft twee petten op. schatkistbewaker én doorverwijzer, zegt jeugdpsychiater ronny tanpaap
er is een belangrijker, systematischer probleem de gemeente bemoeit zich inhoudelijk met onze zorg.
kwartiermaker stelt 4 afspraken voor om de transformatie van specialistische jeugdhulp te realiseren
lees dit artikel uit nrc handelsblad macht gemeenten ondermijnt jeugdzorg
&amp stuurden een brandbrief naar de tweede kamer t.b.v. de begrotingsbehandeling vws
waarom kampt de één met psychische klachten na een traumatische gebeurtenis en de ander niet? onderzoek
complexe problemen horen niet thuis bij wijkteams, stelt jantine van
mensen vallen tussen wal en schip. ps de spreekt niet van verwarde mensen, maar mensen met verward gedrag…
lees het antwoord van staatssecretaris op de vragen van over tekort voor in almere
onze voorzitter, op ⤵️
onderzoek uit het vk naar de invloed van financiële problemen op het ontwikkelen van psychische aandoeningen.
onderzoek decentralisatie en werk pakken in kleine gemeenten beter uit…
mensen met psychosociale problemen wonen te lang in instellingen, vertelt tweede kamerlid aan
aantal jongeren met blijft gelijk, schrijft
vandaag was de hoorzitting over de lees hier onze position paper waarin we pleiten voor een versimpeling
ook in blok iv geen draagvlak hiervoor te bespeuren.
nvvp pleit komende maandag voor vereenvoudiging van wet verplichte
stynke castelein, die bijzonder hoogleraar psychisch herstel wordt, over het bestrijden van eenzaamheid
suïcidepreventie is geen hopeloze taak het is haalbaar binnen de ggz en de samenleving zelf.
onderzoek naar het maatschappelijk rendement van internetinterventies bij stoornissen in het alcoholgebruik
op weg naar een duurzame suggesties voor een doelmatiger zorgverlening binnen de huidige stelsels ➡️
geestelijke ongezondheid kan ook in sectoren buiten de gezondheidszorg tot kosten en baten leiden. lees…
.@healthwiserug en onderzoeken samen de financiële baten van
het &amp patiëntenfederatie nederland pleiten voor een doorzettingsmacht volwassenen ➡️
het tijdschrift voor psychiatrie neemt ook op. beluister ze hier
aandacht geven aan hoe doe je dat? geeft tips
kosten en baten van de een nieuw themanummer van 👉🏼
van je angststoornis af dankzij virtual reality
indrukwekkende reportage over de geestelijke gezondheidszorg in indonesië ⬇️
je kan je ‘cirkel van invloed’ vergroten, als je je concentreert op dat waar je invloed op hebt
platform pleit voor meer helderheid rondom de zorgplicht van gemeenten op het gebied van jeugdggz
opgelet morgen is de allerlaatste dag om je voor het laatste van dit jaar aan te melden 2/11 in utrecht!
‘basiszorgcoördinatie loont voor kinderen van ouders met psychische problemen’
meld je aan via het ledennet op voor het laatste van dit jaar 2/11
extra geld voor begeleiding naar werk bij psychische aandoening
linda schreef uit ervaring een stappenplan op wat te doen als het niet goed met je gaat? …
het gaat goed met thijmen. sinds kort gaat hij weer naar school heel voorzichtig, in hele kleine stapjes
thijmen 11 jaar, pddnos deed mee aan het zorgprogramma prikkelverwerking van het
i cant run. i cant breathe. i cant speak. desiree van beschrijft een paniekaanval
elektroconvulsieve therapie ect blijkt zeer effectief bij oudere patiënten met een psychotische depressie
instagram richt zich op suïcidepreventie we laten mensen die het moeilijk hebben zien dat ze niet alleen zijn …
column omdat ik er niet uit zie naar het beeld wat jij van een autist heb, trek je mijn in twijfel
beperkt onderzoek toont dat kinderpsychiatrie kosteneffectief is en baat heeft voor kind, gezin &amp maatschappij
almere heft de gedeeltelijke toegangsstop op de jeugdggz per direct op
verwijs kinderen door naar een jeugdhulpaanbieder waar het budgetplafond vd gemeente nog niet is bereikt
.@bartlutters beschrijft de wereld van de neurostimulatie in het boek vonken in de meterkast ➡️…
‘de westerse mens is overprikkeld, egocentrisch &amp hoogmoedig. mooi interview met psychiater
de eerste omgaan met depressiecampagne is hard nodig, schrijft
staatssecretaris relativeert de tekorten in de
mijn burnout zou jou ook kunnen overkomen. journalist pim brasser zat vanuit het niets thuis…
kan een virtual reality bril helpen bij het behandelen van anorexia? reportage van
zorgwethouder wil dat opvang en vervoer van personen met verward gedrag beter geregeld wordt
geld dat bedoeld is voor de ggz blijft over aan het eind van dit jaar, terwijl ggzaanbieders in de knel zitten
bekijk eens hoeveel er van uw gedrag bepaald wordt door angst, psychiater op
psychiater was te gast bij luister het interview over angst hier terug
op 29 november organiseert een publiekslezing over meld je hier aan ➡️…
kinderen en volwassenen belanden onnodig in crisissituaties door langere wachtlijsen in de
lees hier een interview met lowijs perquin, over de voorstelling die hij maakte
ons bereikte het droevige bericht dat ons lid van verdienste lowijs perquin is overleden
mooi portret van kinder en jeugdpsychiater wim bisschops, die al bijna 30 jaar een praktijk aan huis heeft
het wordt hoog tijd dat de ggz doet wat ze haar patiënten adviseert voor zichzelf opkomen, zegt
er is een nieuwe wet in de maak de familie van mensen die verward gedrag vertonen, krijgen een belangrijkere rol
voor kinderen en volwassenen worden de wachtlijsten bij psychologen voller. hulp laat vaak lang op zich wachten
bekijk de uitzending van terug over het betrekken van de familie van mensen die verward gedrag vertonen.
vanavond 18.15u. over het betrekken van familie van personen met verward gedrag
schokkende cijfers uit het verenigd koninkrijk over zelfmoord 2/3 had recent contact met
het is vandaag world mental health day waar denk jij aan bij eerst hulp bij psychische aandoeningen? 👉🏼
een ode aan de slenterwandeling
mooi verslag van het festival van en
het gaat lukken met maar dan moeten we in de zorg meer gaan denken als marketeers,
aandacht voor psychische zorg cruciaal in conflictgebieden, onderzocht psychiater pieter ventevogel
stelling van aanbieders, professionals, gemeenten en rijk kunnen tekorten jeugdhulp oplossen ➡️
waanzin is geen probleem. interview met daniel strassberg, psychoanalyticus en filosoof
zorg dat de basis voor kwetsbare mensen op orde is, roepen cliëntenorganisaties maatschappelijke opvang op
veel onvrede en frustratie bij schrijft
burgers krijgen de mogelijkheid om vanuit huis hun eigen medisch dossier in te zien
jongeren die worden opgenomen in de gesloten jeugdzorg verkeren vaker in crisis, 0,25€ via
latisha 18 hield een gedetailleerd dagboek bij over haar verblijf in de gesloten 0,25€ via
er moet nog veel gebeuren, stelt minister schippers nav een rapport over de zorg voor verward gedrag
wat is de impact van ontwikkelingsstoornissen zoals adhd of autisme, op kinderen die tweeling zijn? …
vanavond start het nieuwe seizoen van anita wordt opgenomen, om 22.05u. ga jij kijken? …
prachtig initiatief van ervaringsverhalen om het stilzwijgen rond te doorbreken
.@vprodorst interviewde over de documentaire die ze maakte over de zelfmoord van haar zusje
miljoenen extra nodig voor de in overijssel
lees hier onze position paper over verwarde personen ➡️
.@ingridkamerling over haar documentaire in het hoofd van mijn zusje, over de zelfmoord van haar zusje
onze voorzitter reed met zijn team shrinks on bikes 200 km. naar de finish van de 🏍
1 vd 10 vrouwen krijgt een postnatale depressie ik dacht toen ik hem in bad deed als ik loslaat, is het klaar
een hallucinatie is eigenlijk een foutje van de hersenen. slaapgebrek is daarbij een belangrijke oorzaak
de zus van ingrid 35 pleegde zelfmoord er was iets aan te doen geweest via…
onderzoek naar gedwongen opnames vanuit een en een spoedgevallenafdeling van een ziekenhuis tussen 20052014
welke patiëntkenmerken hangen samen met noodmaatregelen zoals separatie of noodmedicatie?
wat doen die stresshormonen eigenlijk met je lijf? over
.@studiedepressie van zoekt nog deelnemers. help jij het onderzoek naar terugval na herstel van depressie?
onderzoek naar de werkwijze van ambulante psychiatrische crisisdiensten in nederland
ik begin me wel af te vragen wanneer positief blijven onnozel wordt, psychiater over de
lees het verhaal van lynelle 23 over haar het is nooit in me opgekomen dat het een depressie was
zorgwekkende zorgmijders tussen wal en schip. interessante casus in het tijdschrift voor
.@ggzfriesland biedt dit najaar gratis trainingen aan voor mantelzorgers van naasten met psychische problemen 👉🏼
een nieuwe website van hoe herken en hoe praat je over een
hoogleraar iris sommer legt bij uit hoe waarnemingen kunnen bijdragen aan hallucinaties
het laat me niet los. de van over waargebeurde nachtmerries
sorry, de is op. lees of luister de column van psychiater op 👉🏼
vanavond om 21.00u. op de documentraire over de postnatale depressie. 👉🏼
de shrinks on bikes van het 1ste uur. dag gereden voor editie 2017 met 50
begroting van geld voor dementie, depressie en digitalisering ➡️
het geld dat beschikbaar is, daar moeten we bij kunnen, zegt van ➡️
nog even en dan gaan de shrinks on bikes van start met de 1ste nvvp motorrit voor
‘nodig? mensen die in je geloven. indrukwekkend interview door met sija, werkzaam bij
van wijk tot wetenschap we moeten elkaars kennis echt beter leren vinden. hoogleraar ontwikkelingspsychologie
voorzitter vd afdeling kinder &amp jeugdpsychiatrie van de ‘er is sprake van
deze instelling uit canada combineert de aanpak van verslaving met therapie voor psychische aandoeningen
helpt virtueel zwemmen met dolfijnen tegen dat testen psychiatrische patiënten van 👉🏼
de uit nieuwegein laat iedereen dansen tijdens het op 25 september! kom je ook?
maanden op wachtlijst met autistisch kind, bang voor nieuwe crisis
of een kind met psychische problemen hulp krijgt, hangt op dit moment af van zijn woonplaats ➡️
op 5 okt. is er weer een in zwolle! nog plek voor 8 meld je aan via het ledennet op 👉🏼
voor mensen met psychische problemen zou het een goede antistresstherapie kunnen zijn, aldus psychiater
stop met de term drang, adviseert nic drion op formeel bestaat dranghulp niet eens.
bevindt het wereldwijde onderzoek naar dementie zich op een kantelpunt? een stand van zaken van
wat doet met de zette een aantal belangrijke zaken op een rij
het start met een publiekscampagne om bespreekbaar te maken ➡️
column van oogst van een gewone dag 👉🏼
budget alphen aan den rijn en kaag en braassem is veel te laag
psychiatrisch verpleegkundige ‘een cliënt zei je kijkt, maar ziet mij niet! een les die ik nooit vergeten ben’
op 23 sept. gaat de van start, om te eindigen op 25 sept. op het te gek?!festival! 👉🏼 socialrun.nl
zijn er echt veel meer verwarde personen? ze waren er altijd al, zegt psychiater flip tabeling in het
forensisch psychiater ‘het is gewoon één grote puinhoop.’ via
emdr helpt mij om de eerste stapjes te maken in de lange weg van heling.
indrukwekkend en openhartig stuk van vertrekkend
volgend weekend is het al zover het te gek?!festival van ben jij erbij? 👉🏼