☝️kan ook nog steeds hoax zijn.
die laatste natuurlijk
de audio al paar keer teruggeluisterd, enige bevestiging dat er iets seksueels besproken wordt komt uit mo…
dan kan het nog steeds over een ander incident gaan.
kan ook over ander incident gaan.
of beperkt aantal letters.
één van de weinige vrouwen die tweet wijdt aan prominente nlse journalist die aanranding lijkt toe te geven in audi…
werkgever van prominente journalist reageert op audioopname waarin deze een aanranding zou bekennen
test, te zien aan andere p2000 berichten
de krijgt geen reactie van de werkgever van de prominente journalist
een 2e journalist, vroeg om commentaar bij de werkgever van de prominente journalist
toen geen bewijs en er lag geen aangifte tegen prominente journalist
10 jaar geleden kreeg ook een melding over vermeende aanranding door de prominente journalist
journalist vraagt om opheldering bij de prominente journalist
vrouw beschikt over opname waarin prominente journalist aanranding in lijkt te bekennen, met zulk bewijs zou je toch een aangifte verwachten
schijnbaar normaal belgische rijkswachtmunitie in kanaal, geen link met meldt waalse media
prominente nederlandse journalist lijkt in audioopname aanranding te bekennen
twee wagens hebben schade, een combi van lp en een auto van fwp
artikel wagens politie in de prak én daaronder burgemeester van krijgt rijles…
dank nog voor de uitleg van gisteren, boeiend gebruiken zo te leren kennen.
interessant artikel dna onderzoek onder nlse turken, kleine kans dat zij één van hen willen impliceren om moord op te lossen.
vrouw rijdt klaslokaal binnen in sydney, twee kinderen overleden, daarnaast 23 kinderen gewond
fascinerende docu een hart voor door hoe een kunstenaar een mijnstad weer een hart wil geven
22 kinderen in sydney gewond, twee zwaar, nadat bestuurster school binnenrijdt met auto
nederlander veroordeeld tot 9 cel in belgië vanwege betrokkenheid bij smokkel cocaïne. morgen meer in krant.
daar mag ook best een referendum over komen
60 exrijkswachters, oudcollegas van vermeend ‘de reus’, samengekomen in aalst
belgische nh90 transporthelikopters mogelijk ingezet in mali bij missie, kunnen dan mi…
aanranding gorinchem, verdachte blank met donker haar
na lezen van dit volkomen begrijpelijk dat hij panorama niet te woord staat
prima. maar wat was hij dan? kapper, ondernemer, slager, manager etc.
klopjacht ten einde, verdachte van invalide schieten groningse student gearresteerd
adresboekje gevonden in stacaravan van de reus van de bende van nijvel door journalist
rellen in asielcentrum helchteren in belgisch limburg, twee medewerkers gewond
japanners vertrouwen erg op wat de media brengt?
wat bedoel je met gevaarlijk?
het mooie aan japanse demonstraties vind ik dat ze meestal zo netjes binnen de lijntjes blijven in opto…
duitse leger oefent op nieuw burgeroorlogterrein, complex met dorpsplein, moskee en zelfs voor in t riool gevechten
zit wat in. en qua veranderen, ongetwijfeld niet.
niet zo vreemd wel, half texas plaatst fotos van wapens op social media.
loop op zaterdag een gemiddelde stad in europa in, over de koppen lopen, fysiek winkelen nog lang niet dood.
zitten door heel europa, kopen groot in, korting bij leveranciers, meer marge dan menig webwinkel.
journalist ajouad el miloudi doet aangifte tegen vlogger na afpersing
mesaanval in islamitisch centrum in helmond, het is nog onbekend of daarbij iemand is onthoofd
euh belgië had geen apart calamiteiten hospitaal nodig bij aanslagen brussel, want beschikt over militair ziekenhuis.
opmerkelijk, tweet in het nederlands van catalaanse expresident zal welwillendheid bij de vlamingen w…
algoritme amazon helpt bommenmakers de ingrediënten bij elkaar sprokkelen door koopsuggesties naast product | h/t…
belgische lokale en federale politie krijgen semiautomatische wapens met oorlogsmunitie in strijd tegen terreur
colombiaanse drugsdealer vrijgesproken van schuldig verzuim bij overlijden 16jarig vlaams meisje
antwerpse allochtoon verdacht van dubbele verkrachting, verloren bril deed roofdier de das om
beter toch niet, bij crash met hitte smelten de zolen onder je weg.
en over granaataanslagen. zwaar geweld niks nieuws daar. 10 jaar geleden de motorbendes met bazookas. net zo zot.
dat snap ik.
begrijpelijk. landelijke zweedse media noemen meestal geen etniciteit, soms een signalement. lokale krante…
yep. en dan in het zweeds ook eens zoeken op aanranding en verkrachting, en in google zoekopdracht instellen afgelopen jaar.
en gisteren weer raak
zo, weekend.
maak een facebook event aan met tekst in het engels/spaans/catalaans, zal vast zo viral gaan.
disney boycot krant wegens artikelen over band met stadsdeel anaheim waar het disneyland staat…
ipv twitter app.net herlanceren, voor facebook kan hyves of ello alternatief zijn en zusje van youtube bestaat al…
uitzending al geweest, was om 20u
dat zien we zeker de laatste jaren. las laatst artikel over coke wat opgeslagen werd want teveel ingevoerd, ook bizar.
dat is een grapje zeker?
filip dewinter het is overigens islamsafari
mitigation betekent verzachtende omstandigheid, betrof tweets die deze had verstuurd, alleen maa…
precies while running, als obama had gewild dan was de zaak geseponeerd. staat dus los van trump.
flinke schade bij frontale botsing stadsbussen aan in
onzin mbt trump, vervolging al ingesteld tijdens bewind obama, die had hem net als manning generaal pardon kunnen verlenen
mooi ingericht huis, grotendeels bestrate tuin met vogelhuisje en vaste barbecue
frontale aanrijding stadsbussen aan bij meerdere gewonden bij het busongeval
fyi nlse volgers in belgië noemt men een politieagent inspecteur. een belgische agent best vergelijkbaar met een stadswacht of boa.
niet zomaar een inspecteur belette dewinter in te gaan, commissaris van dienst voerde opdracht zelf uit
huisaanhuisverkoper verdacht van aanranding in turnhout, deed zich al dan niet terecht voor als stroomverkoper
en nog zon zaak vandaag
tabel bij die vraag en stel je daarbij voor, donker, kijkt eerst naar linksniks, rechtsniks, link…
dewinter op de grens van stad en
dewinter met woordvoerder van rooy onderweg naar
twittermedewerker haalt op laatste werkdag het twitteraccount van president trump offline
wanneer een goed uitpakt, heerlijk! h/t
ingang nachtclub in opgeschrikt door explosie, bij wonder geen doden of gewonden
explosie bij ingang nachtclub in geen slachtoffers
dat zal wel meevallen. zoveel voorgaande zaken met bekende amerikaanse sterren.
en dat is wel het einde van met kevin spacey, nu ook beschuldigingen van tijdens productie van…
pijnlijk voor brainport maar net in de top 100 op plek 98.
wifi uitzetten en van 4g terugschakelen naar 3g, overgrote deel van andere toeschouwers zit op 4g, en 3g komt dieper gebouw in.
wanneer je tweet van jou deelt blocked, in instellingen onder privacy en safety onderaan tweet med…
nederlandse twitteraarster kreeg bezoek van londense politie vanwege haar tweets
vlaamse mp neemt het op voor na &amp opnieuw politiek geluid
politici kunnen bezoek aan herdenkingsmonument slachtoffers aanslagen brussel nog overwegen
zij zijn wel een van de betere, en weinige die ongemoeid worden gelaten dat er geen parodie oid in bio hoeft te staan
eén van de terreuraanslagen waarvoor abdelkader merah is veroordeeld was die bij de joodse school in toulouse…
mocht je de serie van gemist hebben
aan de rand, t stadsdeel in is er nog weinig veranderd, net als jij gaf in zijn minidocus aan dat…
het trieste voor het stadsdeel in 30 jaar weinig verbeterd of veranderd panoramareportage uit 1…
woordvoerder bezoek met aan afgeblazen, geven wel persconferentie in
kan een land dat democratisch verkozen leiders de toegang ontzegd tot een stad zomaar li…
komst vast goed, en anders maar een herdruk
even deur uit in dan kunnen krakers je huis innemen, oa tijdens weekend weg, en je kan er weinig tegen doen
dank je, gaat op lijstje voor de feestdagen
ben jij bekend met een artikel waar iets uitgebreider staat waarom nk zulke jonge mensen ontvoerde? lees er graag meer over.
na verbiedt ook burgemeester &amp het bezoek en tour door hoofdstad
klopt, als wijsneus destijds aangekaart bij directeur, leerlingen van andere etniciteit mochten wel vl…
eis voorbereiden terreuraanslag 8 jaar cel uitspraak 4 jaar eis bij moord 22 jaar cel…
beeld vanaf balkon na aanvaring op amsterdamrijnkanaal
het liquid transport ship manouk 3 kwam vanuit de europoort in rotterdam |
de manouk 3 is een zogenaamd liquid transport ship, nog onbekend of er chemische inhoud werd vervoerd.
chemisch transportschip manouk 3 vaart thv tegen aangemeerd vrachtschip enja aan op amsterdamrijnkanaal
in tegenstelling tot wat zei tijdens de vpro staat nog niet online, nog één nachtje slape…
en 13 jaar later niks veranderd, dagelijks verworden tot verwarde man, thee drinken en people of a city will…
goede gedaan bij pauw 👏
servers vpro momenteel overbelast.
turkse onderwereld vete in rotterdam, drugs weggetipt en achterovergedrukt, engelsen en colombianen betrokken
honderden turken willen flat bestormen waar verdachten schietpartij in limburgse blerick zich zouden schuilhouden
dit jaar, in 2017
met de monoloog was grotendeels niks mis, er stond alleen hint in wanneer het vermeende feit was vo…
ik mag toch veronderstellen dat iedereen dat wel snapt, hoe dan ook had in het arabisch erbij gemogen.
vrouw uit vlaamse roeselare slachtoffer van de islamitische terreurdaad op manhattan in nyc
belgische omgekomen bij terreuraanslag op manhattan in nyc
mijn twitterbio maar even aanpassen, maakt onzinnige domme grap
je zou het bijna denken.
verdachte aanslag manhattan nyc sprak nederlands, dat meldt nos amerika correspondent.
incident op manhattan in nyc, meerdere gewonden op voetpad in park, onduidelijk nog wat zich afspeelde
daarin staat niet hoeveel twitteraars de tweets zagen, melden alleen percentage weergaven
meer details over manahattan incident nyc bij
mogelijk aanslag in manhattan nyc, naast aanrijden voetgangers en fietsers ook melding van schieten op mensen
het aantal maar deels relevant, meer hoe breed deze gedeeld zijn, het bereik, hoeveel twitteraars zagen die tweets.
nee, onrechtmatig gebruik van het beeld, niet voor betaald.
voorlopig einde netflixserie house of cards, productie seizoen 6 stilgelegd na beschuldigingen aan het adre…
allah in europa documentairemaker reageert messcherp op commentaar uit islamitische hoek
onlangs paste manier van reageren op artikelen aan, alleen met volledige naam, reacties stuk genuanceerder
uitstekende duiding door vanaf 2m voor wat in brussel voor belgië betekent
bij onderzoek naar doet belgië een beroep op nederlandse magneetboot
opgetekend, wat gebeurde afgelopen week na vrijwel anonieme jbc getuigenis in krant speculaties, afschuw,…
de ontkenning in het het is toch geen shownieuws.
jan mulder kunnen we ook afstrepen, die zit bij de vlaamse tv vanavond
ongeacht of belgische overheid het wil of niet, hij kan asiel aanvragen in belgië, de staatsecretaris l…
in belgië, je kan geen asiel aanvragen in vlaanderen.
interessant, wel andere plek dan kanaal brusselcharleroi, verrassend.
bende van nijvel munitie?
heldere uitleg door belgische staatssecretaris over hoe en wat bij mogelijke asielaanvraa…
catalaanse president in brussel
rust in ook nog niet teruggekeerd bussen beschoten en bekogeld in
politie neemt tientallen slagwapens in beslag bij rellen in
zowel metoo als annefaber zorgde voor meer lui op twitter, daarnaast zie je dat algoritme veel doet,…
volg even voor privebericht als u wil?
toch wel dingetje suspended, vraag je je toch af, welk nlse of vlaamse verified account wordt de 1e?
politie meldt mogelijk vuurwapenvertoon door relschoppers aan de softgunwapen gevonden
rust lijkt wedergekeerd aan de in om 01.30u wel nog samenscholingen
de schade aan de in na nieuwe rellen
politie in bekogeld met vuurbommen bij rellen aan
beeld van journalist ging kijken naar situatie in in
na verwijderen tweet probeert met screenshot van die tweet het alsnog recht te breien
veel kijkers vanwege max wellicht, te weinig server capaciteit
opnieuw onrust aan in politie massaal uitgerukt
ja, het vertelt het verhaal bij de isis beelden van kinderen die getraind worden tot jihadist, waarna werkelijk ingezet.
het is
meest scherpe beelden van de reus van de tot nu toe, uit het vtm nieuws videoarchief
die tweet verwijderen kon je van ver zien aankomen
en het nog zonder gêne tweeten ook.
onhandig naam bekendmaken vooraf oa twitterhandle aanmaken en nog vrij
handvat boller, zoals bij een priem
iets met een houten handvat
droevig
belga meldt dat het om syriërs gaat en niet om roma in te
roma en buurtbewoners van vreemde origine met elkaar slaags in te
honderdtal mensen op de vuist in men gaat elkaar te lijft knuppels en verkeersborden
zwaar ongeval in pretpark bobbejaanland bij turnhout, man gewond
en gingen als beesten tekeer in ondermeer slaan met knuppels en stenen gooien
nog niet verdiept in systeem, wat ik nu begrijp alleen digitaal, vluchtlijsten matchen met databases oa interpol.
belgië voert identiteitscontrole in op vluchten naar schengenlanden
mijn achternaam doet haar naam eer aan, 357.
actrice veerle baetens en geert vlegels stiekem getrouwd op 27 oktober 2016, hun dochter was bruidsmeisje
wat een smeerlap die man
meneer, ik hoop dat hij veilig kan gaan. het lijkt mij uitgesloten dat dit mogelijk is op de manier voorgesteld door fdw.
lezen, beveiliging rondom daar reken ik ook de minister van j&ampv onder.
dubbelganger van man die student invalide schoot in groningen al twee keer geviseerd door de politie
koerden lieten touringcar met opzet door in rijden, scandeerden leuzen en provoceerden…
eerwraak op school in gent, vier leerkrachten gewond
aanleiding vechtpartij in mogelijk koerdische bijeenkomst vanavond | h/t
aan in touringcar te zien met daarop öcalan pic@janlambr
foto situatie in na hevige vechtpartij tussen turken, oproerpolitie op straat…
zwaargewonden bij massale vechtpartij tussen turken in politie sluit brederodestraat deels af
nog steeds een wonder dat er toen geen doden zijn gevallen onder belgische politie en molenbeekse moslimjongeren.
lijkt mij ook uitgesloten dat beveiliging rondom akkoord zou geven, denkende aan rellen na aans…
eerwraakzaak in belgië, kosovaar krijgt 26 jaar cel voor doden van zijn vlaamse vrouw en ontvoeren kinderen
nederlander veroordeeld tot drie jaar cel voor doodrijden bejaarden in antwerpen
zit wat in.
de beeldenstorm is opnieuw begonnen in nederland standbeeld piet hein ter discussie
meten met twee maten dan, jullie zonden wel interview van vranckx uit met gevangen nlse isis jihadiste.
die zat ook in gevangenschap?
maar het is lucht, alleen een code. er hangt niks achter.
ik snap de waarde van bitcoin nog steeds niet. waarom is 1 bitcoin 5800 dollar waard?
helaas tegenwoordig nodig, anders kopiëren andere media zonder credit en/of betalen niet voor de beelden.
hln opent samen met vtm nieuws digitaal loket om geheime of vertrouwelijke informatie aan de media…
fries vrijgesproken voor verkrachting van vrouw uit delft ondanks dnamatch
honderden met een block, hier ook, paar jaar terug al eens gezien, toen heisa over, niemand weet waarom.
de reus v/d loopt daarbij over straat tijdens een onderzoek in t jaar 2000 in t belgische aalst
video van de reus van de uit het archief van vtm nieuws
jongeren melden vondst wapens en munitie in kanaal na uitzending vlaamse opsporing verzocht over
persbericht rtl nederland over verhaal van jelle brandt corstius tijdens zijn werkzaamheden bij barend &amp van…
gelukwensen van de 🇧🇪 belgische premier aan het adres van en zijn nieuwe
video zingt bij de rijkswacht 👮🏻
oprichter speciale eenheid belgische politie over “dacht meteen zullen er toch geen van ons zijn?”
man met zwart haar, een zwarte baard en bruine ogen drogeert en verkracht studente in brussel
cds over de duitse transporthelikopters in die een vliegverbod hadden gekregen van
uitleg hier, zijn wel beelden, maar niet live voor het publiek
eerste belgische isisjihadist voor de rechter om moord in syrië 30 jaar cel gevorderd
77 amerikaanse legerhelikopters landen even in zeebrugge
allochtoon krijgt tien jaar cel voor extreem agressieve verkrachting van 86jarige vrouw
daar niks over, ze noemde het aantal aanrandingen en verkrachtingen.
verschil van mening? mevrouw heeft een mening, feiten aantal aanrandingen en verkrachtin…
staat op website van volkskrant
mevrouw moet zich weer lekker met de royals gaan bezighouden, dit gaat nergens over.
stond met naam in zelfde artikel
deze kop is te grappig 😂🙃😂
de minister biedt personele versterkingen aan bij onderzoek naar en laat zich vaker informeren over de stand van onderzoek.
belgische minister geens meldt niks nieuws dan wat afgelopen week al over in de media stond.
livestream belgische minister geens in het nederlands over de laatste ontwikkelingen in onderzoek…
geens over nu, eerst in het frans, ligt voor de hand, zaak bij hof in wallonië.
nieuwe foto de reus van de op vakantie met andere rijkswachters
eerst antwoorden op vragen over wapenwet.
stream in link, zie voorgaande tweet
minister geens begint met spreken.
livestream belgische minister geens geeft uitleg over bende van nijvel
3. verdachte vermissing zat vast voor gewelddadige verkrachting
2. tbser op proefverlof valt jonge vrouw aan in groningen
1. verdachte metromoord zuidoost was psychiatrisch patiënt op verlof
amsterdam maakt het 3e bekende incident in 2017 waarbij een persoon uit een instelling iemand heeft gedood of verkracht.
meen die wel al eens gezien te hebben.
beste cds, vliegen de duitse transporthelikopters ook weer voor nlse strijdkrachten? deze mochten in oktober niet vliegen.
en ook de ex van de reus spreekt in over wat zij zei over de tegen haar partner.
vandaag weer onthullingen in zaak in een 2e verdachte waarvan de naam bekend is en het is niet de reus.
en dan lees je tussen de regels door, bekijkt zijn wikipedia, lijkt het antwoord daar te staan
precies, en de russen zaten al in de email van minbuza in belgie en bundestag in duitsland.
onderwerp
in de franstalige media nog bijzonder scoops over tueurs du brabant?
en niet van zo moeilijk is het niet een email versturen waarbij ad…
het zou mij nu niet meer verbazen als de geheime gast is van vanavond
een tweet die de geloofwaardigheid van gaat maken of breken.
slachtoffer getuigde bij politie over herkennen bende van nijvellid, pikte daarna verdachte uit foto lineup
slachtoffer bende van nijvel ik heb één van de daders nadien gezien op rijkswachtbureau
wat treurig voor die mensen.
wat zeggen ze dan?
klm vlucht kl651 wijkt uit, oorzaak nog onbekend
250.000 euro beloning bij gouden tip in zaak bende van nijvel
ook veiligheidsprobleem met de duitse transporthelikopters in mali
expoliticus over belgië naar aanleiding van onthullingen in zaak bende van nijvel
hoe is het met de dader afgelopen na zijn gevangenisstraf?
ook opmerkelijk dat een staatsomroep dit brengt.
brit die tegen isis vocht voor rechtbank in birmingham, zie draadje van voor live verslag
wat ik mis in hele discussie, waarom moet oosten en noorden lijden onder vakantievluchten randstad, waaro…
zwarte sinjoor eens proberen ook wat pittiger
ware veldslag in brugge na clubantwerp 3 zwaargewond, 120 arrestaties, hooligans van ado en willem ii betrokken
gewonden bij rellen door ado den haag en willem ii hooligans in brugge rondom wedstrijd 1 2
volgens medewerker kwam gijzelnemer voor de manager
directeur bowlingbaan
het eerste schaap in den haag is over de dam
goed live blog bij lokale media over gijzeling in nuneaton, daarin ook onbevestigde melding van twee gegijzelden
gijzeling in bowlingbaancomplex in plaatsje nuneaton ten noorden van coventry in centraal engeland, livestream…
ondertussen in brussel, jonge vrouwen massaal aangerand door eu parlementsleden, tekent o…
besloten bijeenkomst of dadelijk live verslag?
snap de zever van deze vader sowieso niet, want zijn zoon zit in een turkse cel
kan er weinig wakker van liggen na beestachtig onthoofden journalisten, afslachting in bataclan, afgerukte ledemate…
verrassend, pec zwolle staat momenteel 2e, negende speelronde nog niet voorbij, maar toch onverwacht
documentaire over bende van nijvel, wat deden ze en wat is er bekend
als dat zo dagelijks doorgaat met onthullingen weten voor het einde van de maand wie er allemaal in de bende van ni…
klopt, alleen geen journalist
de reus van bende van nijvel, verkleed als piraat tijdens feestje, opvallend zelfs haarlijn identiek aan robotfot…
ah, toch niet, het witte huis over wat wordt vrijgegeven mbt jfk
en daar is er weer eentje
apart, twee dagen op rij een mesaanval door een autochtone europeaan, in polen en duitsland.
digitale editie krant nu te lezen via
wow, dat gaat interessant worden
oh, das wel een dingetje, chili geen veilig land meer om onder te duiken
en de 18e of 19e, weet ik niet meer precies, is dat ding naar richting de oeral in rusland gevlogen. k…
bron de serie achter buurten van ad met vlogger ismail ilgun is afgelopen.
straatintimidatie, mishandeling, aanranding, beroving etc, tientallen nlers getuigen in draadje over ervaringen met…
gebouw deels ingestort aan in geen terreuraanslag
gevel gebouw aan in ingestort, rechts aan plein gezien van station, minst drukke kant
gebouw ingestort in antwerpen aan astridplein plein voor centraal station, welk gebouw nog onbekend
nieuwe minbuza lijkt twee twitteraccounts te hebben open, laatste rt 24042017 en slotje.
aangezien de politie het facebookbericht heeft verwijderd mag je wel veronderstellen dat de identiteit inmiddels bekend is
de beste zullen wel naar de particuliere alternatieven zijn vertrokken of er zelf een hebben opgestart…
in nl niet mogelijk vanwege irt affaire
gebeurt in vs continue, google maar eens op confidential informant terrorism, geld geven, wapens voorstellen, handleidingen etc
die advocaat had beter niet bij kunnen gaan zitten.
niet bewezen zeer waarschijnlijk, wat het waarschijnlijk maakt wordt niet gemeld
koning der belgen schiet met scherp voorpagina
initiatiefnemer van vlaamse meldt wie van de drie losse handjes had
laatste interview met de de de en meest recent de
desalniettemin een significant aantal, dank voor verhelderen.
die 22k is dat afspelen of downloaden en mogelijk afgespeeld?
vlaming 33 bespuugt en bedreigt kinderen vuile ga terug of ik maak jullie kapot
spanje razend op belgië na interview premier over catalonië, steun benoeming belgische bij europol ingetrokken
de onderwereld kan het hebben schijnbaar, nog genoeg cocaïne opgeslagen
nlse politie meldt in haar persbericht niks over het volgen van de cocaïne van naar
5,3 ton cocaïne onderschept in haven belgische en nlse politie lieten transport door naar fruitbedrijf in
in twitter een list maken met daarin iedereen die je volgt, zelf vorig jaar gedaan na 1e blog over…
ik kreeg meer het idee dat niet iedereen opleiding me heeft gehad, veel beelden gezien waarbij het meestal goed ging.
begin 2018 zullen we weten of dat zo is