ik vind een leuk de bank bij ajax kan ik niet serieus nemen voetbal inside
tuurlijk vorigjaar had feyenoord nooit blessures en speelde het meestal in de zelfde 11 nu is het h…
ik vind een leuk brenet ` altijd vetrouwen gehouden`
daar drinken we er paar op
wij gaan uitlopenn..!!
wij gaan uitlopen heujjj
laat utrecht winnen
zou zo mooi zijn gelijkspel van utrecht zou ik al zo blij mee zijn
dit wil je ook niet zien😉
100% een tweede gelekaart mafkees. .!!!!
100 % een tweede gelekaart
wat worden ze weer weg gespeeld kan zo lachen om dat feyenooit😂😂
gefeliciteerd
ik vind een leuk afterparty
was wel een harde bal hoor
locadia geeft in de tweedehelft gelijk antwoord en hoe....
locadia prachtig😍😍
11 rust eigen doelpunt locadia wat is die scheidsrechter slecht zeg was een zuivere penalty
en alweer een mooi uitgespeelde goal van lozano
helaas niet
zeker niet 😂😂
en dat is gelukt super
ken jij dat ene woord feyenooitt 😂😂
ja dat is helaas niet overal zo 😄😆 al zouden we het wel willen
zometeen weer naar het
alvast gefeliciteerd
wat een spanning via radio 1 luisteren
was een heerlijk sfeertje gister boys
heerlijk dm
van philip? gaston is altijd een cam geweest dat cocu hem op de flank heeft gezet is zijn fout hij luisterd eindelijk naar ons😂
helemaal gelijk
dat snap ik zeker
heerlijk mauto scoord in zijn dubuut wedstrijd 24
haha nu zat de scheids toch echt met die corner
kijk je ook heerenveen veel overtredingen he
ik vind een leuk live stream fox sports
dat klinkt zo ver weg
je speelt toch geen pes bah
ik denk aan zijn laatste interland
nou gewoon even 70 van zweden winnen en we zijn erbij
wie dan wel?
idd wat gaat het slecht zeg
kan altijd nog als frankrijk twee keer verliest 😂😉
hoe je mond
laat ik je zien hoe fifa 18 moet
gezellig
verlies denk ik half 7 potje fifa?
succes wat denk je van oranje
oke
servier toch?
aha oke dan nee viel me gewoon op haha was niet in paniek bedankt voor de snelle hulp top..!!
hoi ben bij mij heeft die nooit 4g netwerk aan gegeven alleen lte netwerk wat houdt dat in betaal uiteindelijk ook voor 4g
waarom speelt barca in een leeg stadion ziet er gek uit ..!!
ja maar was geen buitenspel blunder van de grens
onterecht doelpunt afgekeurt van az wat een blunder van de grensrechter
je hebt het verdient max heerlijk
dit is toch lekker wakker worden
dan hadden we geluk hahha
heb de overtreding niet gezien
uiteindelijk met 40 gewonnen maakt het slechte spel van de eerstehelft toch iets goed
haha wat een klootzakken!!
wat een sloom en slap spel zeg waar zijn we mee bezig net gewoon een terugspeelbal van locadia
heerlijk blij voor jullie vrienden
gaat wel heel makkelijk he
wat een lekkere goal steven💪❤🔴⚪
ik vind een leuk fc utrecht psv 17 highlights 24092017
als het zo gaat hebben wij psvers een heel goed weekend
wat is dit lekker zeg niemand heeft dit verwacht 17 tegen utrecht
makkelijk gegeven
juist niet jullie krijgen weer mooi penalty mee
psv heer en meester spelen echt sterk was makkelijk gegeven penalty anders stond het gewoon 02 in utrecht
heerlijk
om even lekker te winnen heerlijk
hij is zo slecht kan niet eens mee voetballen
dat mag jij wel eens leren cocu
zoals altijd druk is door man
ik vind een leuk opkomst putten psv
blijf onze gochelaar
30 psv❤❤🔴⚪
psv bayern man u barca
maar alsnog is het een verrasing je verwacht het toch niet
je verspeeld je tijd maat😉
top keeper je was zo goed
was rood
altijd
daar wacht ik ook al twee jaar op bij cocu
precies
wat voor bond zijn jullie man amateurristisch volk in engeland zaak lozano nog niet eens geel en hier drie wedstrijden schorsing
ja haha😂😂
ik vind een leuk top 10 voetbal kleinste voetballers ooit!!!
gefeliciteerd
veel sterkte wat een kut scheids is dat
gingen 700 man mee van de 1200 plekken
als psv in beroep gaat tegen het voorstel van locadia speelt hij gewoon tegen feyenoord net als vilhena toen
idd nooit meer wat een vervelend ventje
en nou word l.de jong niet om ver geduwd zeker flikker tich op man blom
hoeveel bier heb je op was het bier zo goedkoop in het stadion
tuurlijl geen rode kaart
man man man al derde keer dat blom ons een onterechte rode kaart schenkt
klopt helemaal niks van
wat een spanning kunnen we de goeie lijn door zetten ik ben benieuwd come on ❤❤❤🔴⚪
afgelaste wedstrijden tot nu toe
dramatisch voor nec
komt goed forza
21
hoeveel staat het?
zekerss
nou mooi hele seizoen met paal spelen wij wouden toch jeugd zien? maar als je iets beloofd moet je het ook doen
ja paal omdat die niet anders kan en gudmundson en rosario kregen paar minuutjes heb je allemaal ni…
het beleid naar de klote een coach die geen jeugdspelers toe past dit word weer een seizoen om nooit meer te vergeten😅😅
hoee lang moet het duren idd amateuristisch
amateuristisch
hoee lang moet het duren idd amateuristisch
ik vind een leuk nature vlog 3
is jarig vandaag en alweer 104 jaar van harte gefeliciteerd en op naar de volgende 104 jaar!! onze mooie club…
jeroentje zoet...!!
ik vind een leuk jeroen zoet ik blijf heel relaxed onder transfergekte
hoeveel kaarten zijn er al verkocht voor heerenveen uit
is gewoon amateuristisch dat de poortjes het nog niet doen
zeker toontje gaat de goeie kant op
wat een kut zooi wat had je besteld?
weer eeen drama?
maar niet twee keer
schandalig een keer kan dit gebeuren
wat goed bezig dat wa swel keer nodig daar
uhmmm sorry mulder nog geen fout gemaakt dijkstra idd slordig
sponsor van 020
die mogen het niet uitzenden van ziggo vies jodenvolk is het
maakt niet uit hoe je het weggeeft als je het verliest verlies je het
doei 020 en maar lachen om psv
wat een spannende wedstrijd
come on zou een hele grote stunt zijn als jullie door gaan
bedankt voor alles maatje veel goals gemaakt voor onze mooie club
wat is je insta
ik zeg gewoon wat ik wil zeggen
nu nog scoren maatje
hij wou laten zien dat hij er was
hoe ging de goal
hoe doe je voorspellen in de psv app
gefeliciteerd
snap ik heel goed zo arogant ventje
realistisch en positieve jongen die jurjus
heerlijk biertje😍😍
ik ben helemaal geholpen bedankt
nu is het gelukt bedankt
kan me slaap niet vinden kan iemand helpen met zoeken😄😉
tuurlijk
flikker op met labyrat
ik wil al drie dagen mb extra aanvragen en drie dagen staat er ben is in onderhoud
ik heb de zon zien zakken in de zee😍😍
😂😂😂
maar hij ziet wel dat paal moet spelen
dankjewel komt helemaal goed hoe is het weer nu in nl?
weet mijn fox acound niet eens😂😂
komt goed hahha
ik pak gewoon een stream haha
heerlijk bij malia in de buurt kom hier elk jaar
heerlijk hier
niet het zelfde maar als je paar dagen niet gebruikt dan meestal wel een probleem denk als ik terug…
ik heb hem nou echt gemist
te lang niet gebruikt jonge heb je altikd problemen
thankss
wij genieten nog even op kreta
zeker 02
mooi man fijne terug reis
😂😂😂😂
hahaah😂😂😂
vrij gezellig
helmond!!!!
hahaha
sebn is altijd goed geweest
feestje word steeds groter hier op kreta
lekker aan t feesten hier op kreta wat hoor ik 11 daar!!
flink aan t feesten is het 11 in almelo!!!!
lekker man
heerlijk eerste 3 punten zijn binnen maar moest het zo spannend zijn op het laatst
hoe kun je hier nou weer een penalty voor geven
heerlijk 21 mooi
bij mij nu prima
jaaa
zon kans moet lozano toch inschieten kom op
moet je ook niet doen
ik heb da niet
zit er klaar voor op kreta fijne wedstrijd iedereen
ik vanaf kreta
gefeliciteerd
31
hum zijn slim
het is weer fucking matchday vanaf kreta kijken we ook gewoon
heerlijk genieten 😍😍😍 nog 26 graden!!
jij ook fijne vakantie!!
ik ga jullie allemaal volgen vanaf mij luie ligbed😍😍
ikke morgen naar kreta
tegen az er helaas niet bij maar tegen roda thuis zeker weer van de partij
partijvorm met elf tegen elf en pereiro op de nummer tien positie jorrit hendrix en marco van ginkel speelden voorde verdediging
hazes junior zomerfeesten nijmegen 2017 via
zomerfeesten nijmegen 2017 via
20 miljoen voor prōpper was realistisch
dit kan toch niet?
zoveel geld binnen gekregen wist gewoon niet meer wat ik moest kopen een anusreinigger op was wel toepasselijk😂😂🤣
ik vind een leuk my first vlog the forest and nature
moet ecgt gebeuren al veel te lang gewacht
het is natuurlijk wel een clubheld heel veel respect voor hem maar als trainer totaal niet
moet cocu psv verlaten
wat een gezeik zeg
dat doe maar wat een slappe lul zeg
precies
flikkerv dan toch op man
zonder
ik vind een leuk premier league darts mvg vs barny
dat duurde bij mij een dag twan maar ligt er natuurlijk aan hoe druk ze het hebben
goede vlucht
niets veel bijzonders zo eventjes de frisselucht in
yess
die smaken goed doaar he in kroatie
deruit die stijve hark
334 gewaagd hoor weet niet of dit kan tegen osijek 😉😂
eindelijk ziet cocu dat locadia de spits in moet
en ik snap niet dat je zo iets on respectvols kan zeggen
op dit moment vrij weinig op naar wijchen
goed geplaatst hoor
ik hoop het dat er een goeie komt zeer zwak achterin
voor het niveau van psv voldoende
nelom is naar mijn weten welkom hoor
en psv maar niet in gaan op haps snap er niks van
mooi man voor je kamer
ramselaar?
team op sleeptouw neemt want die hebben we ook niet
klopt goeie reactie maar hier moet wel wat aangedaan worden minstens nog drie aankopen nog een verde…
tuurlijk 800 %
veel slechter als dat
het is eindelijk weer zo ver matchday!!!!❤❤❤ vanavond eindelijk weer in het philipsstadion❤❤
van de beek na goal ‘deze was voor appie’ video via
klopt niet best van bijde kanten
knap
sinds de 11 idd beter nu weer iets mindere fase
mooi dat van de beek hem maakt voor ajx de belangrijke 12
comee onnn bestellen een vol philipsstadion😍😍
heerlijk publiek hebben wij❤🔴⚪
veel plezier
ha ha ha de liters per seizoen moet genoteerd worden hahah😂😂🍻
weer mooi gedaan door
super bedankt voor het snelle antwoord
wanneer krijg ik me seizoenkaart binnen is der al meer duidelijk over?
straks weer lekker naar zomerfeesten voor mij dag 3❤🍻😍
1900 donderdagavond
het was weer geweldig dag 2 zf🍻🍻
ik vind een leuk `blij dat ik er weer ben`
nu willems psv waarschijnlijk verlaat is haps dan niet 1 serieuze optie 😀
en ik mis de eerste wedstrijd tegen vakantie geboekt wat is dit jammer maar twee weken later zijn we er wel
vakantie geboekt
en ik mis de eerste wedstrijd tegen az
tjaaa..!!!! als het even niet meer lukt
ik vind een leuk luckassen na drukke dag officieel psver
welkom bij de mooiste club derrick luckassen ....!!!!!! prima deal
bedankt voor deze reactie😊
volg dit acound op instagram wil meer volgers!!!!
dit is mijn acound mensen op instagram
is toch logisch je gaat hem nou toch niet als zielepietje gebruiken
komt goed
zeker een versterking nou andres en hector weg zijn
yes akkoort met luckassen 5 jarig contract ligt klaar
wat een pech weer wat een drama
wou net zeggen come on max maar hij is er al weer uit niet te geloven zeg!!
het seizoen begint weer waar het seizoen geeindigt is
is nu alles weer goed met je bartjee
werken jij😂😊
niet dat betis gvd
ik wel hij is zo goed
zekerr
goeie aanwinst voor vitesse ben benieuwd
waar is de videoscheidsrechter een 100% penalty boor chili word niet gegeven
goeie coach voor nec
die jongen komt er wel maar moeten hem wel kansen geven
de was toch echt het mooiste van de dag zeg..!! wat een race was dat
helemaal waar wat een gekut weer he
heerlijk kieken kom op jonguhhh
hier hebben we hem dan onze chuckie lozano wat is die snel zeg ik zie wel degelijk iets in hem…
hahaha dat is dan wel heel snel😂😂
heel erg benieuwd naar ruslandmexico en vooral naar hij staat in de basis
hoe laat begint het en welke zender
hoe laat begint het en hoe laat?
wat goed is tegen de kou is ook goed tegen de warmte
zon speler moeten we hebben
ik vind een leuk wij zijn eindhoven !! seizoen 20162017
heel erg welkom bij onze mooie club
die gaat het maken volgend seizoen
en is der nog meer duidelijkheid dan dit..?
en wat is de reden?
die gaan we zeker missen
toch best wel een leuke pot
heerlijk aan het relaxen