dikke vette pluim voor de helpdeskmedewerker van voor de hulp bij het installeren van ons nieuwe modem
enig idee welk tijdstip?
sorry... zoontje 5 had mobiele gegevens uitgeschakeld 😂
is er bij jullie iets bekend dat mobiel internet eruit ligt? omg roermond
deze gezien? noel is baas
space x wil een bemande vlucht naar mars, en noemt zijn project bfr big fucking rocket. i love it
weet je nog was een toptijd!
ik ben erg benieuwd wat je van het nieuwe album vind. nog steeds pijn in je hart?
zou wellicht kunnen verklaren dat het even niet zo lekker loopt in de band
hey deze is hilarisch, liam verteld even hoe het zit
hahaha, ga je ervanuit dat het je lukt om kaartjes te scoren?
wat een prachtig eerbetoon aan chester bennington. de frontman van linkin park die een einde aan zijn leven maakte
hey iemand roept je
noel is mijn favorite. maar die branie van liam! lange jas aan, handen op zijn rug, mic net iets te hoog... heerlijk
het oude materiaal wel ja, maar nog niks van het nieuwe album
dat mag. wordt zoiets eigenlijk overlegd binnen de zender? zo van deze pakken we niet op, en deze…
dat zal toch niet? waarom hoor ik wel qotsa en 30stm enzo? kwalitatief gelijkwaardig en zelfde lee…
blijf me afvragen waarom ik nooit de nieuwe single van the killers run for cover hoor op
klote he, maar volgens mij was het alleen tijdens de eerste maanden toch? neemt niet weg dat je zon tour…
ik denk dat jullie deze bedoelen van the killers voor op 3fmlive
netjes, jong psv begint te leven onder de supporters. terecht overigens
me too! en heel erg benieuwd naar de rest
dit is toch wel een beste single hoor
nope....maar wel lekkere punk! schijt aan alles
waar kun je dineren in omgeving tips zijn meer dan welkom
hou die mauro in de gaten, laat hem niet wegkwijnen in de jeugd. en sadilek, geweldige middenvelder met veel potentie
het nadeel van je zoon zindelijk krijgen. tijdens het uiteten 5x naar het toilet moeten
voor degene die nog 3 kwartier over heeft vanavond...dit is één van de beste concerten waar ik ooit geweest ben
500 mtr hier vandaag is de jaarlijkse sinti bijeenkomst. met mijn ogen dicht waan ik me even bij de hotel entertainment op vakantie
ons braziliaantje weet het netje wel te vinden
the killers openden toen elke show met mr brightside met de zaalverlichting aan
en dan is er s ochtends ineens een nieuwe killers track. heerlijk nummer
als je voor spek en bonen mee mag voetballen
mr brightside rond kwart over 9 bedoel je?
haha, helemaal eens met je knipoog.
ekdom als duo met stenders in de ochtend? de avond met veenstra is tot nog toe ongeëvenaard
neeeeee , niet de radio edit van bubbles. zo zonde. dat einde is zooooo lekker
je hebt altijd baas boven baas 😂
, zo op het podium klink het totaal anders dan ervoor. en hoor dat publiek eens
ik moet eerlijk toegeven dat ik weer wat beter kan verdragen sinds afgelopen maandag. nu nog wat meer album pareltjes
geef de persoon die dit bedacht heeft een dikke vette bonus
alleen al qwa inzet en doorzettingsvermogen een aanwinst
het was inderdaad best wel zware kost
en precies daar gaat het mis kies eens voor een albumtrack. de bekende nummers worden al op andere zenders ge…
yessss, dit weekend is glastonbury weekend!! hd recorder gaat overuren maken.
iemand enig idee wat de oorzaak is van dit rookspoor? omgeving
voor vaderdag alvast verrast worden met een high bier/wijn ipv een high tea....me like very much
zo hey, dat is een ander geluid dan ik verwacht had. beetje vreemd, wel lekker. niet de doorsnee killers song.
waar blijft die nieuwe single van the killers?
je weet dat er vandaag een nieuwe single uitkomt van the killers?
zwemles 2.0 zwembad laco haelen
misschien ook maar beter dat ze niet mainstream worden. al hoop ik toch dat ze ooit ook in…
dont get me wrong...ben ook een groot fan. maar als je ziet hoe ze reading headlinen, mán,…
weet jij waarom biffy maar niet kan doorstoten naar headliner? en waarom ze geen backdrop,…
na 7 jaar eindelijk weer eens mijn helden van gezien
eens
wie had eruit gemoeten dan?
en zo sympathiek gebleven ook. noks geen kapsones
biffy is zo onwijs onderschat aan deze kant van het kanaal.
weet jij waarom biffy clyro hier niet doorstoot naar headliner? terwijl ze in gb wel geweldig headlinen...
als je het hele veld in beweging krijgt, dan sluit je de pinkpop dag goed af. en garrix deed…
als je het hele veld in beweging krijgt, dan sluit je de pinkpop dag goed af. en garrix deed…
wanneer je bij de achterburen iemand in het zwembad hoort springen, en zeker weet dat ze iets anders doen dan zwemmen
nou, zo bijzonder was die trekking ook niet van de staatsloterij.....
oh echt? kreeg hem net niet gevonden
wanneer komt de festival top 100 online op spotify?
eindelijk weer eens! vlug stoppen met die hitparade muziek van de laatste tijd en weer terug…
yesss, accreditatie voor pinkpop is binnen
vet hoor!!
jij snapt het
net mijn stem uitgebracht voor de festival top 100. wel jammer dat de hemelse 100 is komen te vervallen
dit vind ik de meest zorgwekkende opmerking dit seizoen van hem.
bedankt voor de ontzettend leuke avond! het was keigaaf!!!
yes
morgen naar in heerlen laatste keer stond ze in het voorprogramma van coldplay
al aangemeld via spotify
vanavond 2x gedraaid bij roosmarijn hoor ik net. beide keren gemist 😵
kruitvat reclame.....weer te laat dus? 😖
crap, gemist. vertel vertel, hoe is ie?
de oprit aan het afspuiten met hoge druk, ik ben maar tot halverwege gekomen
dank voor jullie reactie
whahaha.....die reactie is op zijn minst een gratis weekendje weg waard broer
hey , voor de 2e keer vandaag geen water op park het vennebos te hapert. kansje dat het snel wordt opgelost?
erg jammer dat hij 3fm stage mag aflsuiten ipv biffy clyro
oh ja hoor, zo fuckin veel zin in biffy op pinkpop
dat denk ik ook ja, en een nieuwe telefoon....
ik hoop dat het met die gast oké gaat die daar omver wordt gelopen
jammer, ik heb geen fox sports. dank voor jullie reactie!
verschijnt deze ook nog online?
weten jullie wanneer de volledige docu over uitkomt bij psv tv?
ik luister ook steeds vaker stubru. super toffe muziek. ben wel blij met de huidige djs op 3fm.
ik moet eerlijk toegeven, slaat de spijker op zijn kop wat de toekomst van betreft
gelukkig heb ik voor een fantastisch concert gekozen, op reading 2016
het werkt écht
biffy fucking clyro op de pinkpop maandag, ik ga mijn helden weer zien, front row
na vraag van zoon 5 een mooi gesprek gehad met hem over waarom we mogen stemmen
nog 1 nachtje, dan weten we wie er allemaal op de poster staan voor pinkpop 2017
prachtig verhaal over het ontstaan van grounds for divorce
,wat is wordt gevolgd door ben howard en band. webside heeft alleen maillijst en staan op
kijk dit dan
gaan we zeker proberen dan!!
wow wow wow! oprecht kippenvel bij het horen van bij . hoop écht om ze dit jaar te kunnen zien
eigenlijk wel ja...slecht hè
ik zit écht met open mond te kijken naar floortje naar het einde van de wereld. wat een prachtig programma is dat
neem je haar mee op je theatertour?
oh inderdaad, lowlands....was ik totaal vergeten
één van de weinige festivals waarop ze vooralsnog staan toch?
wanneer ben je jarig?
zingt rihanna nu bitch bij de hema ?
geen pinkpop dus
damn, wat klinkt dat groovy
ik ben al blij als ik een capri sonne met een muesli reep mee naar binnen krijg
wie neemt er nu zijn gitaar mee naar een concert?
weer een datum erbij voor . ik hoop toch zo dat er voor juni ook nog een aantal datums komen
dan is carnaval afgelopen. trouwens....carnaval heeft niks met mij
zo, net een heerlijk brand bockbiertje genuttigd. mijn laatste voorlopig. nu een maand geen alcohol meer
of gewoon penaltys afschaffen
zeker, van mij ook the killers aub.
die overtuiging ook dat ie ook écht de bal speelt 😅
lijkt het erop dat scamacca de verwachtingen van groot talent toch niet waar kan maken?
komt er wel hoor, zeer gecharmeerd van zijn spel.
wij zijn niet thuis, zitten met hele familie bij mekaar
whahahaha....ik bewaar de enige échte stieve remmel voor vanavond 😀
waar een club groot in kan zijn, is niet alleen een voetbalclub maar ook een familie
jullie ook toon, jammer dat ik voorafgaand aan rostov thuis, niet even de hand kon schudden
come on...had dan geen verdediger ingebracht. alles of niets
check dit
zeer grote brand in ramen en deuren gesloten houden
hell yeah! zijn in europa komende zomer. ik hoop dat nog wakker is
hedendaagse hitlijst muziek is wegwerpmuziek
klopt haha, boots is een serieus nummer met een boodschap, dir andere zijn vooral een parodie op zichzelf
wow , zo zuig je iemand een nummer in
dat zijn toch dikke pluspunten iedere keer voor psv
klopt, en noem eens een band die de afgelopen 10 jaar is opgestaan die headlinewaardig is.
eens!
laten we het hopen zeg, en dat we dan meteen bam kunnen zeggen
ik zou hem wel eens in de spits willen zien. in het centrum is hij op zijn gevaarlijkst
de vierde van links, die een beetje angstig kijkt 😉
iene miene mutte...welke pisbak zal ik eens kiezen
via eventim.de dan is een presale. hoezo, keulen is een uurtje rijden
klopt, donderdag al voor keulen. wel erg prijzig....twijfel
even verlof aanvragen
phil collins gaat weer een kleine tour doen. daar moet ik dus bij zijn
goedemorgen, ik zag net de spelersbus bij venlo de grens overgaan. worden de spelers in münchen met de eigen bus vervoerd?
s avonds draaien ze nog toffe muziek bij 3fm, overdag is het dramatisch de laatste tijd helaas
wij waren er 2 weken geleden, nergens langer dan 5 minuten gewacht
zo is dat! dank je!
bedankt psv voor deze vriendelijke prijzen, mijn zoon 4 heeft nu ook zijn debuut mogen maken
yes hoor, dit gaat voor mijn zoon van 4 zijn eerste wedstrijd worden
dit was de die afgelopen donderdag in te zien…
cocu ziet het als een hele goede leermeester. eerlijke en reële samenvatting van de wedstrijd.
oh.....nu snap ik het
jammer, zo zuur. deze hadden we niet hoeven te verliezen.
watereus, ga dammen ofzo. of kaarten. in ieder geval iets anders dan jezelf belachelijk maken
beste concert ever waar ik geweest ben... the killers in de kleine paradiso
krijg nou de hik, teletekst pagina 353 bestaat écht
wat denk je zelf?
de zomervakantie van 2018 kan ook weer geboekt worden
iedereen gefeliciteerd met alle ramen kunnen tegen mekaar open dag.
denk je wel aan de batterijen?
betekend dat, dat je je guitar hero ook weer van zolder hebt gehaald?
zonder op de link te drukken, wist ik dat het even flow moest zijn
deze bedoel ik
en de meester op de achtergrond trots toekijkend. je komt er wel stevie!
dat was toen
eens, laten we hopen op meer mooi succes vanavond.
ik had liever iets gezien met
nice!! knap gedaan
zie jij het ?
dank je, bloed, zweet en tranen
my god....ik zag het net voor het slapen. zieke wereld
lang naar gezocht, eindelijk gevonden
kom op houd ons niet langer in spanning
yessss, vandaag de nieuwe
facebook, wat doe je? ik zie al 2 dagen dezelfde berichten in mijn tijdlijn
dat ja...belachelijk. ook die opmerking dat ze lenen bij muse.
die boys hebben goud in handen!! nog zon tweede album en ze worden big!
zouden de boys van nothing but thieves weten dat ze goud in handen hebben, check die livestream via
glastonbury is begonnen, mijn hd recorder gaat overuren maken
glastonbury begint morgen.....hd recorder gaat overuren maken
hey, de zon schijnt
okay. ik verlang naar nieuw werk
oke, thanks. vreemd dat ik die mail niet gehad heb...ben toch victim
serieus??? waarom weet ik dat niet?? is het wel zeker dat het album doorgaat? en ze doen nu toch ook sporadisch gigs
waarom zonder mark?
en dat the killers een beetje opschiet met hun album
vanavond maar eens editors terugkijken op best kept secret...schijnt best goed te zijn geweest
ja hoor, 4 minuten kippenvel bij dit nummer van athlete op bij
ja, onbegrijpelijk
bijzonder knap hoe toch al nagenoeg de hele uitzending over ajax lult ipv de kampioen
met co adriaanse had ik binnen een minuut ruzie, met willem vissers zou ik best een biertje willen doen
alles van oasis
dankje wel het is de dag van de servicemonteurkes
jaaaaaaa, helemaal los op de nieuwe biffy clyro
hoort in de basis, ik zou alleen niet weten ten koste van wie.
hoe lang duurde het na je kruisband blessure, dat je niet steeds bij elke beweging/actie aan je knie denkt?
op welke termijn verwacht je scamacca bij psv 1?
ik word er anders gestoord van
125 retweets en 91 likes krijgen....terwijl ze eigenlijk een andere ralph peters bedoelen
taken
net zon gezwets als tijdens de tafelgesprekken bij voetbalprogrammas. jammer, was ooit een échte clubman
ondertussen maakt steeds meer datums bekend. zou er ook op een plekje ingeruimd zijn?
wow, muse is zojuist naast coldplay bekendgemaakt om glastonbury te headlinen
so hey, die lineup van werchter gaat wel heel dik worden
done!!
hahahaha. wat een koekwous is het ook
waterreus, zit niet te zeuren kerel
de selectie van atlético heeft niet zo goed geslapen vannacht
afgelopen jaar mochten ze doorgaan tot 2400
traditioneel leesvoer op deze pinkpop verkoopdag
algemeen niveau van studio voetbal, met uitzondering van
yessss, chemical brothers zo meteen bij
hope so. probeer 3 jaar met mijn broer naar wttv te gaan, hij friesland, ik limburg. daar biertje doen is top!!
dank voor alweer een briljante kerstvideo! niet alleen groots op het veld, maar ook daarbuiten
geen pearl jam op pinkpop
bedankt voor de leuke kaart, opa en oma tunnel
in 2012 zag ik in de .nu verkopen 3x moeiteloos de ziggodome uit
ik hoorde het ja, waanzin. normaal lukt het jou toch vrij makkelijk. ook met coldplay bv
jij en geen kaartjes....hoe is dat nu mogelijk
phoe...200 euro voor 2 staanplaatsen, buiten het voorvak ook nog. coldplay fan van het eerste uur maar dit is wel pittig
bij weer nieuwe kansen voor coldplay kaarten
die bergwijn gaat er wel komen
arrestatie team op weg naar verdachte situatie
klasse partij gespeeld kerel!! jammer van het verlies maar thuis nog 6 punten pakken.
hij is zo heerlijk donker hè, niks goedkope hits scoren. maar dit pareltje van een album afleveren
altijd weer leuk om iets van in de brievenbus te vinden
beste man aan psv zijde, samen met hendrix. dreigend, knokkend en sleurend
in 2013 stonden ze al op laat ze dit maar eens zien
goooooooaaaaaaaaaallllllllll
dat is toch de zotheid ten top
hahahaha....gewoon lekker laten lopen
ik zou niet eens de moeite nemen om te gaan zitten
dat is een domme reactie, dat weet je zelf ook
3 minuut en 28 seconden, die tijd wordt er besteed aan in studio voetbal. schandalig
waar zijn jullie geweest?
mooi aandenken aan de vliegreis voor onze kleine man, dank aan voor de geweldige kindvriendelijke vlucht
spijker op zijn kop
ik zag het! top guys!!!
mogen wij ook weten welke website voor het muzikale kraamkado?
oh dear....
ben howard doet dat ook bij een nummer van zijn laatste album met zijn hoofd in een gitaar
hahaha...haat aan de zaakwaarnemer
yessss, voor de eerste keer in 8 dagen wolken
hahaha.....met dit bandje neem ik op dit moment ook genoegen succes jij
dit weekend is glastonbury, anderen hebben bandjes voor down the rabbit hole of rock werchter.....ik heb deze
3 dagen pinkpop in 344 minuut. je was tof...tot volgend jaar
kolere!!! flikt het even op hele veld uit hun plaat
heerlijk die pinkpop voorpret op
al zin in pinkpop? kijk om 2230 op npo3 naar een vooruitblik naar komende editie
yeah baby!! het hele concert van muse staat online van bbc radio 1 big weekend
de nieuwe destine! vrijdag met naar de albumpresentatie in tivoli
white lies op , bij in 2009 stonden ze allebei in het voorprogramma van coldplay in het goffertpark
gefeliciteerd beide
dinsdag in de vvk
dat zit wel snor met zijn muzieksmaak
iets voor
eindelijk
resort vaals
ja natuurlijk
werd ik nou net gebeld door op ?
toch nog kaartjes kunnen scoren?
trusten
volgens mij wordt de komst van kanye west op glastonbury niet echt gewaardeerd
8 mei naar de albumpresentatie van destine met
morgen de eerste track van het nieuwe muse album, ik ben er erg benieuwd naar
fuk...ga ik ook eens bier halen voor moestuintjes
top dag voor je!!
ondertussen is de wolf ook weer terug in nederland na 150 jaar
hahaha, die ze niet leuk vind. geweldig
de eerste single van the wombats glitterbug was greek tragedy
hallo, verkopen jullie nog weekend kaarten voor pinkpop?
storing in vaals meepakken. hier is alles ram sjiek wa of hendig ........ invullen wat van toepassing is
matchday
wat een kut muziek, maar wat een show van beyonce en jayz. waar zit de band of spelen ze een cdtje af?
jij gaat niet?
ik lees dat er overal al rijen staan voor de verkooppunten voor , ook digitaal. dat had ik niet verwacht. hoop op een druk feestje
yes, pinkpop persconferentie dag!!!
ik ben erg benieuwd
ik zou elbow zeker vermelden
lijkt mij inderdaad ook niet...
coen swijnenberg zat ook op dat balkon aan zijn post te zien
htc one m8 zonder twijfel
vanavond super vriendelijk geholpen bij roermond na problemen zelfscan
volgens mij hebben ze hier am van arctic monkeys op staan in de de cockpit
waar ben jij niet bij veel plezier vanavond bij
ik wil heel graag maar is zo goed als geen optie ivm werk. jij?
was ik ook bang voor. tent is te klein. het einde om 23 uur gaat ze steeds meer dwarszitten ben ik bang
nog een goede week en dan weten we de lineup van
toffe post vandaag
en zelfs foutloos typen
hoe vet zou het zijn als op zouden staan
iemand ondertussen al getagd in een pornovideo op facebook?
dit zou niet mogen gebeuren in deze wereld...net als zoveel andere verschrikkelijke conflicten
oef, die kwam hard binnen zeg
en vandaag ook nog nieuwe namen voor welcome to the village. ben erg benieuwd
altj en noel gallagher op bks festival. ik hoop toch echt dat ze ook op staan
deze vroeg ik vrijdag live aan op om het weekend te openen, ik sluit het er ook mee af
ik hoop het!!!
ken ik niet haha