ik vind een leuk van dijk over uitspraken sneijder deed mij helemaal niets voetbal
ik vind een leuk bankzitters spelen cod ww2 funny moments!
ik vind een leuk bij andy in de auto van ginkel over gemis van kroketten bij psv
ik vind een leuk elite halen in de weekend league?!
ik vind een leuk tien keer raak met arjen robben
ik vind een leuk oranje in actie bij quick boys
ik vind een leuk lozano niet te stoppen bij koploper psv
ik vind een leuk elite 1 halen onder invloed van alcohol? + walkout!
ik vind een leuk reageren op reactie over mijn disstrack!
ik vind een leuk top 25 goals | week 44
ik vind een leuk psv support movie psvfc twente 5/11/2017 43
ik vind een leuk best day in tenerife! siam park! first person water park! gopro hero 4
ik vind een leuk brenet ` altijd vetrouwen gehouden`
ik vind een leuk psv sfeer voorafgaand psv fc twente 5nov 2017
psv sfeer voorafgaand psv fc twente 5nov 2017 via
ik vind een leuk rikkert wordt ontslagen new kids turbo
ik vind een leuk katy perry ft. juicy j dark horse parodie gamemeneer kijk eerst naar
ik vind een leuk matthy/fifalosophy disstrack
ik vind een leuk liedjes in het echte leven deel 3
ik vind een leuk de raarste schoolspullen van de action!
genakt van psv...
ik vind een leuk ik heb eindelijk weer gescoord!! en geupload
ik snap t nie? 😕
ik vind een leuk de beste icon draft?!
ik vind een leuk de beste nederlandse icon van de toekomst?
ik vind een leuk koken in een achtbaan opdracht
ik vind een leuk wie kent het nederlands volkslied? met touzani &amp rarko!
ik vind een leuk antipieten verstoren sinterklaasfeest
ik vind een leuk 10 voor zwarte piet!
ik vind een leuk ik wil even met jullie praten... best wel persoonlijk
ik vind een leuk rotterdam gastvrij
ik vind een leuk moonraker 360 galactica foire du trone paris
ik vind een leuk dolle met zwolle courtois slopen met saymak &amp nieuwe aankoop!
ik vind een leuk make free coins opening these packs... fifa 18 free coins
ik vind een leuk samenvatting jong psv jong fc dordrecht
ik vind een leuk 88+ rated walkout &amp mijn weekend league rewards!
ik vind een leuk sierd de vos groet jasper cillessen
ik vind een leuk top 15 pestkoppen die krijgen wat ze verdienen!
ik vind een leuk locadia`hier droom je van`
ik vind een leuk van philips die branden het best ! vitessepsv 29/10/2016
ik vind een leuk ajax verspeelt kampioenschap tegen de graafschap
ik vind een leuk eindhoven de gekste special edition!!
wat maakt vitesse toch vieze overtredingen op psv. vit 2 4 psv
klok zo weer verzetten 6min uur terug
ik vind een leuk reactievideo! disstrack milan knol
ik vind een leuk grand theft auto 5 gezellig spelen nieuwe adversary condemed eerste keer
ik vind een leuk van ginkel `ik raakte de bal precies goed`
ik vind een leuk psv verloor nog nooit in de gelredome
ik vind een leuk huh? black ops 3 livestream
ik vind een leuk 2 walkouts en 4 if’s met roelie!
ik vind een leuk walk out uit sbc + weekend league rewards!
ik vind een leuk | fcroelie vs defano holwijn | studio edivisie 1718
ik vind een leuk vrijdagmiddaborrel s03e11 met o.a. yoeri van den busken &amp wes beuvink
ik vind een leuk zwembad challenge vs luuk de jong
ik vind een leuk touzani en fifalosophy op blind date! euromast in rotterdam
ik vind een leuk psv jeugdvlog psv o19
ik vind een leuk samenvatting fc volendam psv
ik vind een leuk het esports schandaal rond psv en tony kok
ik vind een leuk vi vooruitblik vvv psv in 1 minuut
ik vind een leuk fifa 18 psv. brenet ik ben de beste bij psv, ramselaar de slechtste.
ik vind een leuk infinite warfare livestream
ik vind een leuk 01 mvg
ik vind een leuk screaming eagle 360 degrees
ik vind een leuk kamperen in een kampeerwinkel opdracht
ik vind een leuk gta v oppressor op titan landen!!
ik vind een leuk volley challenge met ali riza &amp romal voor roodwit gevlogd
ik vind een leuk happy soccer physics
ik vind een leuk top 10 hakgoals
ik vind een leuk halloween ravage opdracht
ik vind een leuk heppy soccer physics
ik vind een leuk jumpsquare
ik heb een video toegevoegd aan een jumpsquare
ik vind een leuk nieuwe controller ps4, playstation switch compatible? origins en meer!
ik vind een leuk psv support movie psvheracles almelo 22/10/2017 30
ik vind een leuk fifa 18 gameplay psv omroep brabant
ik vind een leuk milan knol loyaliteit 💯 dylan haegens &amp gamemeneer disstrack
ik vind een leuk troy toverland onride rct3 hd pov
ik vind een leuk bas ronaldo van velzen
ik vind een leuk magic morata wat een begin!
ik vind een leuk lieke martens fc barcelona skills &amp interview
ik vind een leuk highlights hongarije oranje onder 17 13/10/2017
ik vind een leuk edivisie | psv heracles almelo
ik vind een leuk mijn beste spits voor in fifa 18?
ik vind een leuk az binnen een minuut met negen man
ik vind een leuk dnp liedjeringtoon versie
ik vind een leuk vette voetbalchallenges – touzani vs. rarko!
ik vind een leuk psv eindhoven, mijn club
ik vind een leuk psv club lied
ik vind een leuk luc nilis de man met de gouden rechter
ik vind een leuk 60 jaar betaald voetbal luc nilis
ik vind een leuk tanja jess verlaat te wit dorp
ik vind een leuk mijn vader die werkte bij philips vvv venlopsv 15/10/2017 25
ik vind een leuk wij zijn eindhoven vvv venlopsv 15/10/2017 25
ik vind een leuk feest in het uitvak vvv venlopsv 15/10/2017 25
ik vind een leuk racisme na vvv psv aanpakken en uitroeien | nos studio voetbal 15 oktober
ik vind een leuk voor ons mooie psv ale ale ale aleee vvv venlopsv 15/10/2017 25
ik vind een leuk never ending glory | een nieuw team voor de weekend league!!
ik vind een leuk kud te laat
ik vind een leuk psv is jarig!
ik vind een leuk opkomst
ik vind een leuk de eerste van mauro en schwaab
ik vind een leuk psv clublied 2015
ik vind een leuk nog een keer genieten van psv willem ii
ik vind een leuk facts vvvvenlo psv
ik vind een leuk pokémongekte is terug van weggeweest
ik vind een leuk het dak ligt eraf remix!
ik vind een leuk team fix vs. team baard – try not to laugh met fifalosophy vvbasvv fc
ik vind een leuk wie wil er samen met geert?
ik vind een leuk vlogmalloot in onderbroek op snelweg
ik vind een leuk genieten | robben nog steeds te bewonderen in bundesliga
ik vind een leuk fixen op habbo?! random games
ik vind een leuk beste friend tag ooit ft. getsiepunt
ik vind een leuk samson vs. dora
ik vind een leuk dora is een aandachtshoer!
ik vind een leuk diego is een homo!
ik vind een leuk wie is hier nou de snackbar?
ik vind een leuk loyal lads sbc solution fifa 18 ultimate team
ik vind een leuk top 5 de mooiste goals!
ik vind een leuk gareth bale klopt lyon op fenomenale wijze
ik vind een leuk stamford bridge ontploft na wereldgoal hazard
ik vind een leuk 60 jaar eredivisie wereldgoal rené van der gijp
ik vind een leuk 60 jaar eredivisie snelste gele kaart ooit voor hans kraay jr.
ik vind een leuk hattrick | lionel messi leidt argentinië naar het wk
ik vind een leuk interview | robben voor nu stop ik ermee, maar zeg nooit nooit
ik vind een leuk wij zijn terug | edivisie 2017/2018 | vanaf 12 oktober
ik vind een leuk hoverboard challenge touzani tv 😱🔥
ik vind een leuk eric dikeb ik schreeuw het van de daken
ik vind een leuk psv bijna landskampioen 2014 2015
ik vind een leuk psv mix
ik vind een leuk de zware jongens de chinees doet veel meer met vlees
ik vind een leuk nie fokke mee brabant, en ok nie mee de new kids!
ik vind een leuk psv eindhoven ajax amsterdam / 10 sjaak swart na de goal
ik vind een leuk pvv de grootste in helmond
ik vind een leuk burgers zoeken mee naar wietplantage
ik vind een leuk meisjes en ongesteld... +aankondiging winactie || inge &ampjoyce
ik vind een leuk samurai slicer! voice over deel 20! 205records
ik vind een leuk takwrap!! voice over deel 19!! 205records
ik vind een leuk keeper sweeper! voice over deel 10! 205records
ik vind een leuk heeee hooo psv eindhoven psv ajax 20/3/2016
ik vind een leuk world of hardstyle 2017
ik vind een leuk top 10 | afstandsschoten
ik vind een leuk helmond nog lang niet rustig
ik vind een leuk telstar trekt een van de beste spelers ter wereld aan
ik vind een leuk rutger bij het kampioensfeest van psv
ik vind een leuk psv doet stadionstoeltjes in verkoop
ik vind een leuk psvsupporters woest om penalty
ik vind een leuk psv betaalde john troost 10k
ik vind een leuk huldiging psv
ik vind een leuk antipieten niet welkom in rotterdam
ik vind een leuk turken verpesten demonstratie
ik vind een leuk greenglider!! voice over deel 14!! 205records
ik vind een leuk ouwe egberts reclame! 205records
ik vind een leuk big announcement signed for psv eindhoven!!!
ik vind een leuk bassistent in zwolle als pec 101bas.
ik vind een leuk boer heeft haan ingeslikt | remix
ik vind een leuk battlefield heroes funny moments
ik vind een leuk oplichters in het buitenland kees van der spek grijpt een zakkenroller
ik vind een leuk putten loopt uit voor psv
ik vind een leuk live weekend league op twitch! link in beschrijving!
ik vind een leuk new kids vuile kut fries
ik vind een leuk new kids de ultieme kut compilatie
ik vind een leuk psv benfica finale europa cup i, 25 mei 1988
ik vind een leuk freestylen met arjen robben !
ik vind een leuk battlefield heroes 2017 montage | reviveheroes
ik vind een leuk world number 1 fut champs rewards! 6 ultimate tots in 1 pack
ik vind een leuk 5th in the world in squad battles! top 100 rewards in fifa 18
ik vind een leuk verkeersruzie eindigt in bizarre confrontatie....
ik vind een leuk de gouden tip op makkelijk te kwalificeren voor weekend league!
ik vind een leuk touzani bij cristiano ronaldo thuis !
ik vind een leuk never ending glory | kwalificeren voor de weekend league!!
de oorzaak is dat er een paar hebberige frikandelliefhebbers moesten poepen en hebben ze t e…
jou meneer steenvis. dat komt omdat er file staat op de snelweg
ik kan helpen want ik ben heel slim 👌🤔😭
morgen eerste pack opening gaan doen! zin in
held! gas erop en laat zien dat je de beste bent! 💪🔴⚪💪👊⚽️
ik vind een leuk psv support movie psvwillem ii 30/9/2017 40
ik vind een leuk bankzitters pack opening mark packt een 89 walk out!
ik vind een leuk never ending glory | goede speler voor ons team uit sbc + gratis pack!!
ik vind een leuk never ending glory | onze eerste dure aankopen!!
ik vind een leuk gta 5 fails &amp wins best gta v funny moments compilation
ik vind een leuk new kids samurai zwaard scene
ik vind een leuk mooi stoeltje!! voice over deel 6 205records met rob stenders!!
net eerste poging gedaan op nieuwe legend pokemon. 13 man en niemand had hem gevangen... next time better! 👌
ik vind een leuk van ginkel na 40 tegen willem ii
ik vind een leuk spelers feesten met de supporters
ik heb een video toegevoegd aan een grand theft auto v franklin and lamar
ik vind een leuk wondertrim!! voice over deel 11!! 205records
ik vind een leuk mooi kussentje!! voice over nl deel 3 205records
ik vind een leuk blox!! voice over nl deel 2 205records
ik vind een leuk heeeey, daar ben ik weer! bassistent remix!
ik vind een leuk onverwachts enzo knol en vriendin dee uit elkaar rtl late night
ik vind een leuk ron cena!
fijn als servers volzitten!
ik vind een leuk psv wil ook winst op willem ii
ik vind een leuk never ending glory | de beste start voor fifa 18 ultimate team
ik vind een leuk fifa 18 experience! voor roodwit gevlogd
ik vind een leuk jaaaa we packen een icon!!!
ik vind een leuk selectie test fifa 18
ik vind een leuk durawallet!! voice over deel 13!! 205records
ik vind een leuk what if psv kept their players?! fifa 17 experiment unbeaten?!
ik vind een leuk fifa 18 top 10 goals
ik vind een leuk pablo rosario van jong psv tot eredivisie
ik vind een leuk psv jeugdvlog psv o14
ik vind een leuk hee daar ben ik weer! ft. bassistenje
ik vind een leuk rundfunk duitse leraar remix!
ik vind een leuk ik ben met de king
ik vind een leuk top goals eredivisie
ik vind een leuk top 10 bloopers en missers
ik vind een leuk je hebt ver onder niveau en je hebt daaronder
ik vind een leuk zondag was het de dag van jürgen locadia
ik vind een leuk psv support awayday movie fc utrechtpsv 24/9/2017 17
ik vind een leuk fifa 17 | north american tour sbc cheap fifa 17 north american tour squad
ik vind een leuk pet blanket!! voice over deel 16 nl!! 205records
ik vind een leuk vuurwerkkrómpke!! past r mee op! reclame voice over! 205records
ik vind een leuk boze man is erg boos! oh nee meneer
ik vind een leuk gta v nieuw snel vliegtuig in gta!
ik vind een leuk bo3 nuke???
ik vind een leuk labyrat kom nooit meer terug ! fc utrechtpsv 24/9/2017
ik vind een leuk 17 steven bergwijn 90 fc utrechtpsv 24/9/2017
ik vind een leuk oranje internationals terug op de herdgang
ik vind een leuk het wordt een geweldig seizoen. echt wel.
ik vind een leuk baas van het veld
ik vind een leuk shirtje ruilen met maradona. regelen we.
ik vind een leuk juich mee voor psv.
ik vind een leuk 10 manieren om de klas uitgestuurd te worden! deel 3
ik vind een leuk afterparty
ik heb een video toegevoegd aan een grand theft auto v prologue
ik vind een leuk bo3 stream
ik vind een leuk naar stoke city met matthy!
ik vind een leuk het best mogelijk eredivisie team in fifa 18!
ik vind een leuk wat krijg je uit honderd 7.5k packs? fut 18 pack experiment
ik vind een leuk de beste goedkope manier om veel coins te verdienen aan het begin van fut 18
ik vind een leuk wraptastic!! voice over nl deel 1 205records
ik vind een leuk nog een keer genieten van psv feyenoord
ik vind een leuk bizar einde bij psv o17 raja casablanca o17
ik vind een leuk vrijdagavond latenight stream!
ik vind een leuk kud ik doe het morgen wel
ik vind een leuk kud blauwe vinkjes
ik vind een leuk kud nieuwe pieten
ik vind een leuk african tour sbc completed cheapest solution! no loyalty! ! fifa 17
ik vind een leuk psv jeugdvlog psv o17
ik vind een leuk opkomst putten psv
ik vind een leuk exeredivisie team met icon ronaldo, bergkamp &amp gullit!
ik vind een leuk de ergste beledigingen ooit op de nederlandse tv
ik vind een leuk kleen kut! voice over deel 24 205records
ik vind een leuk engelse bijles! prankcall deel 20 205records
ik vind een leuk rocket league weer plezier hebben en nieuwe mods
ik vind een leuk zou jij alcohol kopen voor een 14jarig kind? | mensenkennis
ik vind een leuk papa ik zie nog een trein | remix
ik vind een leuk samenvatting psv o19 nec o19
ik vind een leuk fifa 18 packs + start fut livestream
&amp omg tering kan dit filmpje 5000x terugkijken blijft mooi! 😂🍌
ik vind een leuk kud eet me niet
ik vind een leuk kud rommelmarkten
ik vind een leuk kud peter pan
ik vind een leuk crossy ron 20.000 abonnees special!
ik vind een leuk ze zei kloothond tegen me
ik vind een leuk bo3 m16!!!
ik vind een leuk yakuza 0 gameplay part 1
ik vind een leuk bankzitters disstrack matthy milan knol
ik vind een leuk mandcraft survival!?
ik vind een leuk het beste nederlandse team in fifa!
ik vind een leuk cristiano ronaldo haalde grapje uit met lieke martens rtl late night
ik vind een leuk samenvatting psv o17 heerenveen o17
kun je ergens op hem stemmen of zoiets?
wat een helden... 😂👊
ik vind een leuk road to division 1 | livestream w. king
ben geaboneerd! 👍
oh want dat gebeurt ook nergens anders... vast ook al tog keer op andere plaatsen gebeurt
ik vind een leuk fifa 18 met tommert
ik vind een leuk knvb beker we gaan weer beginnen!
ik vind een leuk clash of clans legers kiezen gowibo
haha wat is hij toch lachwekkend! 😂 sukkeltje
je was weer echt baas heb ban minuut 1 tot eind weer achter he gestaan. jij bent mijn idool! 💪🔴⚪💪👊⚽️
ik vind een leuk lukt het klaas om vrijetrappenspecialist bas van velzen te verslaan?
ik vind een leuk samenvatting psv feyenoord
ik vind een leuk ik bood 1 euro op ronaldo en zidane werd boos..
ik vind een leuk flitspaal versieren opdracht
ik vind een leuk jeroen zoet redt twee punten. daar heb ik wel van geleerd
ik vind een leuk sfeer op vak zz psvwillem ii 9/4/2017
op na eindje voor psv 010
ik vind een leuk het einde
ik vind een leuk alex scheldt jury uit na zijn auditie idols
ik vind een leuk probeer niet te lachen 😆😆😆
fifa 18 met tommert via
ik vind een leuk fifa 18 met tommert
ik vind een leuk jonna fraser op de vlucht jachtseizoen17
ik vind een leuk road to russia fifa world cup 2018 guaranteed limited edition packs
ik vind een leuk ik pack ronaldo! met de pack koning? fifa 18 pack opening bassistent.
ik vind een leuk zombie nation kernkraft 400
ik vind een leuk jordy de wijs kind van de club
ik vind een leuk daarom blijf ik altijd zingen, voor ons mooie psv! ale ale sc
ik vind een leuk stromae papaoutai
ik vind een leuk jordan teze wereldgoal ging viral
ik vind een leuk nieuwe kans lonkt bij psv voor luuk de jong
ik vind een leuk road to division 1 | livestream w. king
ik vind een leuk psv feyenoord 24102010 videoverslag vanuit het uitvak
gullie joodjes vinden alle overtredingen rood van psv of feyenoord...
ik vind een leuk hoe kon psv zo kansloos verliezen van sc heerenveen?
ik vind een leuk jeroen zoet na heerenveenpsv