dat moet lukken
ja mag ook wel is. 11 was ook geen corner voor twente.
😂😂😂😂😂heerlijk dit
heeeeerlijk dit
nou seizoen is nog heel lang... maar lekker is het wel
ja en nee. met spoorbevoegdheid mag je overal komen, maar je moet officieel ook een werkopd…
ze staan nu wel optijd klaar voor morgen ochtend 😂
werd me helaas wat teveel tussen de nachten door.
bovenleiding spanning eraf zo dus is een beetje chaos nu.
zo staan ook al weer klaar voor morgen ochtend. staan hier ivm buiten dienst gaan van de tuin.
aha dan kan ik er 4 nachten van genieten 😂
nee is de werkplaats in eindhoven. heb nou nachtdienst in ehv
proficiat en sterkte😂
zo keuken van opa en oma ook weer gepoetst.
kom je al die vrouwen tegen bij een stadion tour 😁
oke succes morgen
wat ga je doen wilco😊?
gratis voor het goede doel😇?
lullig voor roda eindelijk puntje erbij en dan wint sparta
prima overwinning! ondanks de waardeloze scheidsrechter vandaag.
en weeer elleboog niet gezien
waarom nou altijd verdedigend wisselen 😡
neeee niet deze wissel cocu
wat een eikel die butner, mafkees
wat is die butner een naai zak
psv al 33 doelpunten dit seizoen, totaal niet verwacht aan het begin van het seizoen.
heerlijk doelpunt weer!!!! yes
wat een goal!
echt weer zo’n scheidsrechter die de wedstrijd wil beslissen
let maar op dadelijk krijgen we wel pingel tegen
en ook penalty weer niet gezien, uiteraard... als dit geen vasthouden is
ja hoor krijgt van ginkel wel geel
volgens mij is dat een elleboog en dan niet effe beelden terug kijken🙄
ga m’n bed maar is in, wekker weer om 0930
geen idee
nee. zijn aantal witte loks en 1 bla/gl zonder ns logo. is paar dagen verhuurd geweest aan goederen…
mis je altijd😏😂 nee het logo van ns mist op deze lok.
ben benieuwd hoe dat met gestyled haar uit ziet
ben benieuwd of dat dan gebeurd
dus nu weten ze nergens vanaf? goed bedrijf dan😳
maar thuis komen is dan wel een probleem. ze zullen echt niet in elk dorp een vuurwerkshow geven.
dus je mag geen eigenvuurwerk afsteken en ook niet drinken... gezelligheid zeg🙄
steek mooi m’n eigen vuurwerk af voor m’n eigen huis, stuk gezelliger
en dan met alcohol op terug naar huis? lekker veilig
wat een onzin zeg! en dan allemaal dronken mensen vanaf de vuurwerkshow naar huis...?!
hallo wil gewoon m’n eigen vuurwerk afsteken. ga echt niet naar een plein met allemaal onbekende mensen🙄
leeg mat van std naar hrl.
en de dienst begint zo mooi😂
helaas op het andere perron in deurne😓 en ik ga de zeik ook niet opzoeken.
steekt er een de sporen over bij deurne, zeg je er wat van... ikke niet begrijp.
fluit maar af
ook van eindhoven naar helmond niet
ook van eindhoven naar helmond niet!
je komt nog is ergens
denk dat ik daar mn hypotheek niet mee kan betalen😅
krijg ik er een als ik strand in de tunnel? of mag dat ook zonder te stranden😂
als ik daar hetzelfde salaris voor krijg...
hoppa helemaal terecht proficiat!!!
komt bij mij meteen de vraag op hoe doen ze dat met duizenden mcn met een vast contract...
hoop het niet. is voor mij en heel wat mensen hun inkomen.
begin van het einde 😪
maak je ook autos voor andere😇?
wil toch niet ruilen met ze...
hopelijk gaat ns gewoon meebieden en niet onder abbelio
zo 7 uur en de eerst 2,5 uur van mn ret dienst al gehad.
belachelijk. rsdddr stopper ns / bdddr bijv arriva🙄 werkt toch niet
psv stond ook 20 in de rust toen het 100 werd tegen feyenoord.
toch niet te hopen😖
oooow dan ben ik wel thuis. ret dienst tot 1400😂
komt omdat ik vrij ben vandaag😉
nog 0,05 te gaan en het gaat de kluis is
vinden ze het gek dat de punctualiteit zo slecht is op de hsl...
ja😅 dat ze mij er nou uitknippen oke, maar jou ook...😂
dat is toch niet te geloven he... juist zo mn best gedaan😂
houdoe!
zover ik weet verdienen we daar te veel voor
wat dat dan? zorgtoeslag?
denk het wel
helaas is 5,5 ton een beetje boven mn budget als machinist...
motiverend zeg...
nou fijn hoor... waarom tegen psv wel volle bak kunnen voetballen😓
az heeft vandaag niveau roda, echt niks gaat goed daar. kan makkelijk 06 worden als fey aanzet.
nachtje mee lopen tijdens het weekend😂
zo stom he, win je fey en utrecht verspeel je nou punten...
denk dat hij daar niet zon zin in heeft...
geen trein naar helmond?
daarom mijn voorstel
ja mag wel, maar max 40 km per uur. dus als spoor normaal in dienst is niet wenselijk, voor drgl.
is het geen optie om nedtrain 700 uit eindhoven te laten komen? daar zijn ze ze juist geschikt voor
nedtrain 700 lokje uit eindhoven laten komen een optie?
misschien even aanpassen, rijdt ook niks van helmond brouwhuis naar eindhoven.
bedankt! succes daar! hoor graag als er een hulp trein aanwezig is
gaat deze afgesleept worden naar eindhoven?
waarom spreekt hij dat niet uit🙄
nee de ic treinen rijden nog met aanwijzing dus toeteren
oke zie het wel verschijnen, succes
geen idee, psv is verdedigend erg kwetsbaar. maar dit is erg lekker zon overwinning
jup niks aan te doen helaas.
ben via schiphol gaan omreizen. nu bij bijlmer, maar had al in eindhoven kunnen zijn.
nou effe dagje wegleren enkhuizen word een flinke dag, ivm storing amsterdam utrecht.
ver van huis
goeiemorgen, vandaag helemaal naar enkhuizen voor wegonderhoud.
kan ik ook een bestelling plaatsen voor nl voertuigen 😂😇
iemand wat verloren op spoor 3 te helmond...😂
ja dat ook. aanwijzing voor suïcidaal persoon langs de baan lijkt me een goeie reden om wat later te zijn.
en aangezien ik graag mijn baantje wil houden, hoop ik niet dat ns zn consessies kwijt raakt.
voor mij maakt het ook niet uit. alleen de overheid rekent de ns af of te laat rijden, dat…
en ik weet heel goed wat er op het nederlandse spoor gebeurd. zit bijna elke dag op dat nl spoor.
nee ns heeft niet alleen recht op het spoor. ze moeten niet alle passeer mogelijkheden weg…
maakt mij het uit of ze in de nacht of overdag rijden, als ze maar niet in de weg zitten steeds.
toch niet te hopen zonder machinisten.
schaft in roosendaal. lang geleden dat ik hier geweest ben.
jup, +10 aangekomen in den bosch. meteen reizigers boos, snap niet dat wij hier steeds op afgerekend worden😓.
goedemorgen. begint al weer goed met mn 1e treintje. iets met goederen en altijd in de weg😓
naar relatieplanet misschien 😂
nou je verwacht winst ajax en winst feyenoord... krijg je deze uitslagen 😍
man man man, psv roept het weer over zichzelf af😖
gerechtigheid!!!
je kan dus iemand zn ribben kneuzen/breken en geel krijgen. normaal noem je zo iets mishandeling🙄#psvfey
en dan krijgt psv straks rood , als er niks is... let maar op
wat een vieze smerige schop ploeg dat feyenoord
ze blijven met verschillende maten meten bij de knvb
zijn spelers die voor minder 2 wedstrijden schorsing krijgen...
bizar zon smerige overtreding afdoen met geel!
je zal maar een jaar gewerkt hebben voor je vakantie en ryanair helpt het zo om zeep!
knvb maakt zich weer is belachelijk!
dacht dat jij laat/nacht draaide 😂
nou inderdaad!
trouwens dat elftal van vitesse is een stuk beter dan psv!
die matavz bakte er nooit wat van bij psv, bij vitesse weer prima bezig!
psv was ook kansloos ten onder gegaan. dus ben blij dat die niet speelde uitgezonderd op de miljoenen die psv dan wel gehad had
zijn er meer gevuld dan bij 020 en psv samen op dit moment😂
bizar kramer krijgt geel voor een actie waar lozano rood voor kreeg🙄
nee klopt dus? psv heeft ook een waardeloos elftal waar ze 3 of 4e mee worden in de competitie. maar daa…
psv speelt toch niet vandaag?
en dat allemaal voor 2 extra treinen per uur?!
ga maar weer slapen!
vorige week dinsdag ook gehad bij acht, is wel heftig😪.
10 km per uur te hard rijden en de straf is al zowat hoger😖
gaat weer lekker😓
bezig met wegleren op schiphol😂?
heerenveen , feyenoord , utrecht punten verspelen en seizoen is zo goed als klaar.
psv had ook geen verdedigers nodig he🙄 was te verwachten dit!
tja en volgende week ook geen punten, directie dan in paniek. iets wat de fans al lang hadden gezien!
en dat is 3!
ja is direct melding gemaakt. niet door deze mevrouw jammer goed die had ook k…
mooi zo! hopelijk word de dader gepakt.
de beelden komen niet van mijn webcam maar van
ja dan word je gek! hopelijk pakken ze deze man nog op.
bij overweg bij station helmond t hout. wat een gek!!! levensgevaarlijk
cocurentie subtiel tegen werken 😂😂😂
ja dat doen ze gewoon😎😂
meteen een klusje om 1417, niet voor niks gekomen
onderweg naar eindhoven voor een extra reserve/ret dienst van 1400 tot 2200 voor
zorg is echt niet betaalbaar meer! en zie bij mij met mn rug operatie, niet in pakket dus toen €8000 zelf kunnen betalen.
dag 2 na de vakantie. hsl dienst van 1559 tot 0014.
waardeloos bedrijf daar in woerden
bedankt! weer een jaar ertegenaan.
onderweg naar amersfoort vanuit arnhem.
vandaag 1e werkdag na bijna 3 weken vakantie. dienst van 1720 tot 0141.
zon claim hadden de fransen ook na de 1e wereld oorlog🙄
hoeveel kansen wil die janssen hebben zeg
tja propper had je bij psv toch goed kunnen gebruiken dit jaar🙄
cillessen zou ook niet effe een bal tegenhouden he
vandaag laatste vakantie dag😱 morgen 1720 beginnen
lekker sfeertje in de arena😂
nou inderdaad😓
transferbeleid? waar? ik zie het niet?
belachelijk dit!!! en dan komende 3 wedstrijden punten verspelen en dan zijn ze opeens verbaasd bij psv.
bijzonder als je al zo krap zit in de verdediging 🙄
ben al vaker naar tsjechië en hongarije geweest. dit jaar macadonie en albanië. laatste 2 landen zijn w…
stuur je meer fotos als ik thuis ben.
ja zeker! bijzonder land om te zien
de moeite om nog ooit terug te gaan naar dit land!
gelukkig dus genoeg keuzes, iedereen heeft een andere keuze
ga ik voor 538😊
vandaag een dagje naar albanië. ben benieuwd!
u rijdt op een weg in macadonie en er lopen stieren over de weg. wat doet u?😂😂😂
gok op 3 of 4 punten voor psv met dit elftal.
naar albanië willen we ook nog inderdaad. of alles gaat lukken voor vrijdag weet ik nog niet😂
daar gaan we donderdag heen met een excursie schijnt inderdaad heel mooi te zijn.
prima opvoeding gehad dan🙄
wat een slechte verdediging zeg😖
verkoopkraampje in ohrid macadonie plankje op een kinderwagen😂
haarlem , maar ook bijvoorbeeld valkenburg of schin op geul of simpelveld!
moeten dit soort overwegen in de toekomst dicht?
tussen den bosch en tilburg zo te zien
en weer geen penalty voor psv, je word toch zo moe van deze scheidsrechter
dan zal zo wel iemand van psv wel rood krijgen...
wel penalty aan nac geven en geen rood aan vloet🙄
ja knap is het wel!
volgende week weg dus!
belachelijk 🙄
even zitten kijken in mn archief naar plaatjes van de zinkertstrein naar budel.
strak vloertje weer in de schuur 😎
zou iemand vandaag mijn auto komen kopen, zijn ze niet opkomen dagen😓
klote volk altijd 😡
ja eerst stroom eraf halen altijd he😇
weer thuis naar een erg vermoeiende dag, wel paar erg leuke plaatjes gemaakt
ja bij budel heb ik die ook een aantal keer gezien. kan je de fotos wel sturen als je interesse hebt.
je oud werkgever kwam ik vandaag tegen in een bijzonder mooie omgeving!
op je 17e al je leven weggegooid🙄. kan je toch nooit fatsoenlijk een opleiding/baan hebben.
😱en dan over 5 jaar 3 kinderen van verschillende vaders 🙄
werk ze, en vergeet je schoenen niet😂
goedemorgen, onderweg naar spontin belgië.
vakantie!!! morgen 1e dag van de vakantie vroeg op, dagje belgië op het programma
laatste ritje voor vandaag, van heerlen terug naar eindhoven.
dat zijn geen spelletjes! goed bezig sanne
2 slagen maastricht gehad, nu nog een slag heerlen.
en weer terug naar sittard, daar schaft.
heb meestal in mei/juni vakantie. dus word wel tijd😊. thanks! komt wel goed!
vanuit maastricht weer terug naar eindhoven.
goedemorgen! laatste dienst deze week en dan 3 weken vakantie😎.
nog een verdediger erbij, vragen om problemen dit!
belachelijke wissel weer, verdedigend wisselen bij deze stand
nou bijna 2,5 wedstrijd geduurd maar psv heeft gescoord
haal die brenet eruit!!!! wat speelt die weer zwak
wat is psv verdedigend zeer zeer zeer zwak
brenet gaat weer is hopeloos de fout in😓
komt goed! doen we wel een keer
ik had alleen iets meer moeten lachen 😳
met dank aan
hopelijk vandaag wel de motivatie 🙄
ik zie het! ga het straks thuis openen.
komt u maar met de email😊
pauze gehad in zwolle, nu weer terug naar den bosch.
dan was het tenminste gezellig werk ze vandaag!
zeker! is een keer geen ehvgvc
goedemorgen
1 van mn 2 autos. mn vriendin heeft werk heel dichtbij dus aan 1 auto genoeg.
mensen met wie je wat afspreekt op marktplaats en vervolgens niet op komen dagen😓
doe mij er 2 in helmond 😂
nee 1,5 week die ik thuis vrij ben eerst. wilde in de voortuin/achter tuin gaan klussen.
nog half weekje werken en dan zomervakantie, alleen maar regen op de planning hier😓.
proost!
beenruimte genoeg!
shop shop, kan je mn buik ook wegshoppen😂😂😂?
bedankt dan heb ik weekend 😊
juist weer van alles opgelost omdat de controles vannacht niet goed zijn gedaan.
ik ben onderweg met de 1100, dus....😂
goeiemorgen den haag
eindhoven is altijd leuk😊😇
goeiemorgen, vandaag een pendel dienst.
dan nog, ik betaal al voor een pakket. en ga ook niet nog is rente betalen over mijn geld. zal ook echt n…
nog 0,15 te gaan en al mn geld gaat van de bank af!
dit mag je een wanprestatie noemen! mogen wel 11 nieuwe spelers gekocht worden😓.
wat een slecht team heeft psv dit jaar😪
hoe veel kansen heeft psv nodig zeg😖#osipsv
nou dit word me een dramatisch seizoen
dat heb ik al snel, na een dag of 2 😂😂😂
danke! jij ook
helemaal goed! ic naar bad bentheim?
dat zijn de betere dingen om te doen!
goedemorgen, trein gereed gemaakt en nu onderweg naar den haag.
bijvoorbeeld de dolime van db rijdt overdag op dit traject elke woensdag.
ben ook erg benieuwd hoe dit gaat passen met de goederentrein op traject utrechtden bosch.
wauw😂😂😂
gaat helaas niet. systeem van flirt schakelt automatisch minder op, ook al geef je 100% tractie
dacht dat we in nederland 1500 tot 1800 volt hadden😂
kan het me niet voorstellen😳. maar ben benieuwd 😊😊😊
alleen jammer dat je geen teksten zelf erin kan zetten...
onderweg met de 875 van utrecht naar maastricht. effe kijken wat er daar voor me klaar staat terug naar eindhoven.
goed voorbeeld doet volgen
1906 uit utrecht met de ic naar amf 1911 langs bilthoven
dat wel, en goed ook op een zondag😊
passagieren wegonderhoud.
de tering😱
maar even remproef gedaan...
u bent welkom in mijn trein dan😊
even bij de hondjes langs geweest
word ook niet even gevraagd of personeel het er mee eens is🙄
heb ik ook is gehad. helft van de zending kwijt. heeft 2 maanden geduurd...
maar als man wil ik helemaal niet aan gesproken worden als of ik geslacht o ben🙄
competitie , 1e wedstrijd tegen az kansloos.
schijnbaar ziet iedereen dat behalve psv zelf🙄
vandaag kon je 11 spelers vervangen.
zie het zelfde team als vorig jaar, slappe hap.
seizoen alweer afgelopen voordat het begonnen is...
elke week hetzelfde verhaal
lekker ritje!
schijnt wel verschil in te zitten. ik heb het niet gemerkt.
nog meer oud spul gevonden
leeg mat van arnhem naar nijmegen. 1e keer in een nieuwe virm.
wel raar bij zlsm en volgens mij ook andere museumbanen hoor je er nooit wat van.
daar zorg jij zeker voor😂
alweer!?
zou zeggen probeer het, wie weet word je rijk😂😂😂
wel vaak raak laatste tijd met voertuigen op het spoor!
buitje van 3 min gehad, viel mee hiet
wanneer moet dat in eindhoven/helmond aankomen?
50? je mag daar 60...
dat kan ook natuurljk.
zeker!
dat is effe geleden ondertussen!
klaar voor vertrek!
uitzicht wat ik van ons mam krijg waar ze nu zitten😱...
moet je na gaan😂
je mag mijn plek wel!
ov in limburg