beter met 20 winnen dan met 60... 😅
zweden vindt het wel prima zo.. dat balbezit
berken, santanas, king boleet, heksen en buisjes zwam in het midden zonder steel?
geslachtoffert door de kamer en eigen partij.. en ??
heeft zich ziekgemeld... wow, daar kunnen veel mensen een voorbeeld aan nemen.
doe maar even een led schermpje naar
so... eeeh.. fie
keurig de bal gespeeld..
school verplicht kinderen water te drinken, ouders boos water is voor honden kind ik lust geen water.. 😩
heren kijken jullie even mee..?
slecht uitgevoerd.. die andere pionnen vallen helemaal niet.. 😂😬
ben je wel naar buiten geweest vandaag? het was een prachtige dag.. 😉😎😂
wat kan die man dichten hè..
leuke party daar in de arena...
😂 altijd een reden voor een feestje in brabant 🍺
iets met druiven en zuur?? 🎉😜
wat een lelijke pot zeg..
songfestival inzending ??
had nou dijsselbloem maar lijsttrekker gemaakt..
je mag niet pesten hè.. 😂
gefeliciteerd eredivisie
genaaid door
rustig blijven dan krijg je wat je toekomt
👍
slecht nummer keus voor hij mag dus niet winnen van
ik wilde me net inschrijven voor het volgende seizoen maar nu na laat ik het maar
433 en wat een pass van 😍
heerlijk die en maakt er helemaal een feest van 🎉🍾
de jong bijna een tsss
en ook me begeleiding opweg naar huis als hij zo door gaat..
van boekeltje.. van boekeltje doe toch nie zo stoer en trek je kaartjes
geloof in je trainers ok maar dit ringbaardje...?
gaan werken met bruno mars via en nu naar huis met bruno via 😎
of allemaal met de zelfde tram naar huis
bij deze
haha wat een aandacht.. blij dat je naar de middag gaat
lul toch niet zoveel...
leuk maar liever niet terug bij
je kan onmogelijk zo snel je arm weg trekken, speler kijkt bovendien weg
zo... spits eruit, extra verdediger erbij en dicht die deur.. 😂
grappige reclame van aldi in duitsland
sneue lui van totaal niet oplossingsgericht of klant gericht..
tip.. koop nooit tickets van waardeloze vouchers, slechte klantenservice
geïnteresseerd. pb kan ik echter alleen sturen als u mij ook volgt. bvd
een interessante mogelijkheid, maar wat zal de kern zijn aangezien veiligheid een breed begrip is?
met het oog op de finale bekijkt hoe het vanuit achterstand toch kan winnen
philip doe ff een penalty kamp ofzo..
ff serieus giel, de nieuwe is toch wel volgende week??
doet gratis een paar
die handboogschutter is alweer thuis toch? kan hij ff uitschakelen hier op
enige worp mogelijk is
kijkt vanavond lekker thuis naar het met een koude klets.. 🍺
al de zoveelste keer dat ik de tv ontvanger moet resetten om tv te kunnen kijken. maar vaak
hmm.. waar laat je je hockeystick tijdens het juist, tussen je ballen
maakt mij niet uit waar haar hart zit.. ze heeft er een! 💪❤️
leuk... rijkt de medailles uit voor wielren dames
wint voor nl en dankzij
aldi publiceert eerste duurzaamheidsverslag
het wordt tijd voor die reserve spelers aangezien het ek voor over is..
ik dacht al dat er iets onreglementair was.. 😉
ff kijken of jullie scherp zijn... 😜
ik dacht dat de bal naar voor gespeeld dienst te worden bij een aftrap
sous vide is super.. behoud de vitamines etc. gaart in eigen vocht, wel veel plastic afval..
ik zie het graag tegemoet
hunkert naar vlees en 😏 goeie docu 👍
hoe lang duurt het voordat mijn order binnenkomt ?? als u niet kunt leveren of aan de vraag kunt voldoen dan graag geld terug..
damn wat een lekker nummer..#esf16
mijn zoveelste momentje
vakwerk van hollandse bodem
wat een weekend.. heerlijk weer, super getennist en 🎉🍺🍾
wat is en blijft het toch een beperkte organisatie communicatie van niks
flink aan het doelsaldo gewerkt...
heeft een nieuw programma, een terug bij af...
en scoort 2x...
ach.. punten verdeeld. psv pakt ajax in eigen huis en andersom. nu de druk weer in amsterdam om niet te morsen
nog graag voor
zo zonde... lekker op tijd klaar werk, sta ik al 30 min stil in de file.. 😆 wel heerlijk zonnetje en
het was nog nooit zo druk op zaterdag ochtend in
nadia doet huillie huillie
oke mijn heeft een ea189 dieselmotor, minder schoon en zuinig dan belooft, maar met een diesel prijs van €0,99 pl klaag ik niet 😃
stationair in zn 1 naar het
knuffels vergeten in zonder problemen opgestuurd! voor de service 😊
ik vind de meest originele en veelzijdige komiek van ons land.. wat een klasbak!!
van het jaar. de dagen worden weer langer!! 😄
hooikoorts en lente in de kerstperiode /via dat dus... helemaal
hoe een drukke dag heerlijk kan eindigen
hoe is het daar op ? houden jullie het een beetje droog? liefs aan eva van haar vader.. 😉
bedankt voor de reply
werkt interactieve tv weer in regio woerden ??
aanslagen in terreur is zo dichtbij.. brr
ik had wel verwacht dat erin zou gaan, maar gaat geen record worden dit jaar zonder
true, maar zo een hebben we allemaal wel eens gemaakt te laat.. dan maar stukje tegenstander 😁
nu alleen nog maar schieten op doel!!
jongen das de keeper.. nie de bal..
lekker hoor te gast in het uit zn dak..
om gek van te worden.. staat op, maar mag nog niet worden gegeten! pas morgen... 😋
top concept, maar als je iets vergeet en je moet snel naar buiten ben je een kwartier zoet
volgend seizoen graag verhoogde werkbanken pls ik krijg last van mn rug alleen van het kijken naar
heerlijk sport avondje
2x niet lekker gekeept overigens van
lekker op vakantie volgende zomer..
flink team heeft al opgebouwd deze uitzending van
hoge school van
voetjes op tafel, biertje in de hand.. dit wordt genieten
presenteert alsof hij aan boord staat van een viskotter..
de boer psv voorbeeld ajax 😉
wat ben je aan het zuurpruimen, gun die lampies ook weer eens een leuke overwinning! 😉 wie het meest scoort wint
fijn dat ie er nog stond.. 😁
jammer dan maar geen is ook wel eens goed voor nederland
dat begint er op te lijken.. lekkere aanval met aardige combinaties
groot gemis voor nos radio. succes en hopelijk kan je lekker schreeuwen 😂
heeft geen kind aan feyenoord. wel wat sullige momenten waar het zichzelf onnodig moeilijk maakt..
weinig vernieuwd.. ja ze lezen nu zelf de files, veel reclame, slechtere muziek programmering.. jammer, ik blijf bij
mensen.. snelheid aanpassen, ruimte laten voor elkaar en ritsen.. simpel
ondanks de hele nacht marcheren met de rode baretten?
nederland is weer terug van vakantie leer toch eens
is nog open nu?
kunnen de emails worden doorgestuurd naar mn gmail account ? 2/2 vr gr
beste ik ben ondanks overgestapt naar kpn en kan mn casema emailbox niet meer in. 1/2
heeft kees een spraakverbod?
ja die punten hopen niet bepaald op.. eerst maar zien
moet nog op vakantie?
we love our wat een sfeer in het land!
nu het gas er weer op!! 💪
bedankt. dan komt het vast goed! 👍
ga, ik heb een tirup stoel gekocht maar ben niet tevreden. uit elkaar halen lukt niet. kan ik hem terug brengen met de doos?
in de race dankzij twee lampies 😉 😂
5 slokjes verder is er niets aan de hand
jammer van al dat theater iedere keer bij een overtreding. accepteer gewoon dat je moest ingrijpen..
naar mn bedje..
gebruik anders in de nieuwe reclame..
goeie maar blijft toch de leuke bruiloftsfeest zangeres van de band..
graag even dm ivm gevoelige info.
ik zal morgenochtend even informeren bij mijn collega fl van aldi baarn voor eventuele beelden
jammer, slappe hap en tevens verbeterpunt!
kampioen!!
leuk hoor met en
wat een onzin, er niemand die zn niveau haalt.. andere speelwijze helpt ook al niet. nl wint noot van een handbal land
wat slecht!!
gelijkspel over de twee wedstrijden met zelfde doelsaldo
laat m eerst maar de gelijkmaker maken
wat een vertrouwen.. 😉 laten we het hopen!
kom ik net van de af hoogtestage 😉 verneem ik de heerlijke uitslagen uit het betaaldvoetbal.. en proost! 🍻🎿
die willen wij wel van tv cromwijck! 😉
door het oog? of overmacht?
erik for president! zoek je nog een chauffeur? 😉
zou weten dat het intussen spekglad is in de stad? waar zijn de
dan pakken ze 3 punten 😜
👍 laat ze maar weer gauw langer zijn..
jaaaa wie anders!! van het jaar
ja ook wij hebben zojuist het aangezet..
wat een weelde.. buiten en bijna
een afrekening in het criminele milieu?
speel es een keer naar voren of anders beweeg eens voorin wordt zo moe van dat
het was geweldig! wat een organisatie!
zowaar werkt de ook een keer mee! treinkaartjes geregeld door
we are on are way! belooft een mooie dag te worden.
kamer 10 is romantisch 😂
is eigenlijk ons geld hè..
wanneer gaat weer een als een spelen? met passie en de wil om te
ik begin een beetje beu te worden..
check.. check.. ik zeg
stop er lekker mee
jeuj!
ik twitter gewoon nog een keer
blijkbaar.. op het veld maar geen geluid 😔
weer een maffe nederlandse of is het al ? blij dat ik weg ben geweest
hou je tieten dan ook eens bedekt.. 😉 safe flight
ingrijpen onderzoek schiet zo niet op!! het moet nu! erheen ingrijpen!!
heel veel sterkte voor alle van en lijkt mij verschrikkelijk moeilijk om het gewone leven weer op te pakken
sterkte voor de nabestaanden van de overleden passagiers vlucht
pijnlijk hoe de is op het
daar gaat je voorste kruisband
met de van
the wat een lastige pot zeg
hm.. zou bewust inhouden? oogt niet echt
het is te hopen voor de fans ter plaatse dat ze hun veilig kunnen bereiken na deze wedstrijd
stap maar meteen van het veld als je er geen zin in hebt
is de
nope..
dochter van moet scoren!!
doet maar moet nog wat oefenen
maar 32 heb je ook vast niet 😄
kan ik maar beter aan beginnen!
indrukwekkend team dat wordt wen pittige klus voor
lekker hoor dries voortaan in de congrats
amai nu doet echt de deur dicht..
dat wordt een 51 tje voor waar heb ik dat meer gezien?
nederland kan gewoon worden hoor.. zeker als dit het niveau is.
bedankt voor een heerlijk weekeind.
niet erg veel spektakel bij maar gelukkig zaten we droog
altijd met de wat ben ik blij dat ik haast nooit meer met de hoef. wat een stelletje
dat maar zon blackout mag hebben tijdens het
heerlijk was het! gefeliciteerd met je ouders
een bas en een harmonica. waar komt de drumbeat dan vandaan ?
ik kan het nummer wel waarderen. gaat hoog scoren
de eerste die een beetje swingt..
wat een heerlijke vrije
eens!!
anders zet je ff in de fik
lekker hoor heerlijk weer en en dan zo wat een finale!
heerlijk gegeten bij mette in linschoten. heerlijke klassieke gerechten en hartelijke service
haalt uit met kids. 2 verschillende sokken, schijnt traditie te zijn..
kinderen moesten 2 verschillende sokken aan voor de traditionele foto...
daar lijkt het op.. en dan die weifelende scheids.. omg
samenvatting gezien van wat een zwak psv zeg.. zo blijf je niet bovenin.
stel je voor! voor nu lekker bezig in ieder geval
kampioenen
alweer stemmen 😳 hihi
staat op een kratje of zijn die raadsleden zo klein?
laat je horen!
weer bezig!
wat een stakker is het toch die
nice! column van daarnet bij dat was billenknijpen giel!
omg ik moet naar de op zo super gaaf!!!
zo.. die is voorlopig klaar op hoog internationaal niveau
meteen site plat van echt te gek dat komen!
met plezier inde rij bij is nu echt begonnen.
we schrijven 5 maart 😊
verse sneeuw vannacht in en vandaag de
eindelijk weer eens skiën in februari!
wow.. is te doen voor
yes!
blijft een dubbel gevoel
check dit.. een echte op mn
sterk van om door te gaan en spel aan te passen. kan wel echt goed tennissen had ze graag allebei op 100% gezien.
wawrinka verslaat nadal, was zo niet moeilijk. wel zonde om zo een grand slam te winnen.
again.. zon waarheid..
back in the day 1999 fantastische ervaringen opgedaan
genoten van met stem van zoon zwaar onder de indruk! en papa ook
super fijn met heerlijke uit het
opbrengst gaat naar
heb net een portemonnee gevonden in van n van der veer lid van noah leerling van wie kent noah v der veer?
weer eens wat anders..
leuke playlists .. eerst happy en daarna birdy tegelijk ..
heeft duidelijk geen hart.
op naar volgend seizoen maar weer..
zo lekker aan het ben weer even terug in
wat een sfeer in en kom je ook nog tegen!
lijkt wel de avond van vals en vergeten tekst ..
vergeet zn tekst maar stunt door
druk weekend voor de boeg.. loving the good life
wat is van dijk akelig dun zeg.. pas maar op wendy
utrecht. te gekke etappe. na de giro nu ook de
fijn dat u er weer bent inwoerden leuk ook om u weer van zo dichtbij te zien! 😊
misdaden voorkomen door batkid via
genoeg volk in de van
prima dagje voor om binnen te varen morgen!
haha de eerste ruit van dit najaar
je moet wel gek zijn om als leraar in het voortgezet onderwijs te werken opinie vk via love it!
je hebt zoete honing en je hebt zoete honing.. heerlijk
yeah!! gezellig hoor mensen!
nice! geniet ervan saampjes
😊 heerlijk, wat vliegt de tijd. vorig jaar op curaçao, dit keer in
het topteam van het intercontinental amstel amsterdam is na een spannende culinaire strijd vandaag als winnaar...
heb intussen maar even gebeld met helpdesk..
ligt eruit in of heb ik alleen daar last van
dag van de allemaal
klaar voor mn presentatie over
wat kan die toch acteren hè?
tennis opbouwen
wat is toch een heerlijke uitvinding
gelukkig hebben alle topclubs moeite met het
heeeerlijk weekeind gehad en dan droogt ook ajax nog af... damn
in de warme de vastleggen
in de basis
schaamte heerst wat een blamage pot. verdediging staat te kijken naar de 02 ik hou mn hart vast
de nederlander geeft geen geld uit man.. soms denk ik dat ik alleen de draaiende hou.
lekker bezig de werkende met
en intussen boeken
open tcwoerden gd. gisteren ook twee wedstrijden inde regen gespeeld, maar nu echt te veel regen. geen zin in
warm en droog op de bank ipv wedstrijdje
toppers!
wat een heerlijke
future 2027 poseert met de huidig missen 2013 bedankt dames!
ja ook dit jaar weer naar op het veld
parijs leert aardig te zijn voor toeristen via
its
en een vingertje van
na nu ook het toernooi van gewonnen samen met leuk toernooi en leuk
leuk hoor prima bediening, prima eten en erg leuke animatie voor kinderen! bedankt!
slechte restaurants in kaart gebracht middels ontevreden tweets
havenvistijn heerlijk gebakken schol happen.
toch handig toets en je telefoon geeft de code. anders, zo zegt mr de politie, heeft aangifte geen zin.
zou nou nog geschminkt worden?
te gekke finale bij bijvanck hd3 vader en zoon staan heerlijk te spelen. come on!
lekker hoor psv nog even wat meer scherpte bij de kansen, maar al goed ingespeeld
haha die hebben zij vast wel voldoende
bedankt voor de tip. zal m spoedig deponeren.
mooi! maar terug naar de kern ook al zijn er nog niet voldoende vuilnisbakken, dan neem je toch je troep weer mee?
weet jij nog een goede accountant?
nou.. ik zie daar wel mogelijkheden..
op het officiële deel wel, maar er heel wat volk elders rond de plas, het onofficiële deel vanuit
is bij het strand lekker druk, maar mensen wat een is het echt zo moeilijk je troep op te ruimen?