haha dan weet je in ieder geval zeker dat je gaat winnen🙈
haha door zijn emotie denk ik
ja ze gaan in beroep en terecht
geen woorden voor haha wow
nog een reden om deze fantastische stad snel een keer te bezoeken! ✈️🇺🇸
ik heb een bevestigingsmail met qr code gehad. vanmiddag afspraak gemaakt. is die dan ook ongeldig?
aanwezig bij de klanten dag van met oa als doel welke invloed heeft de nieuwe gdpr wet op ons als…
hmmm ik zou johann vogel🇨🇭 in de basis zetten en dier op de bank😜
mooi jiry! geniet ervan
pulled chicken! echt leuk daar
behalve het restaurant vane is het ook prima lunchen op het dak van de groene toren in eindhoven!
⚽️⚽️ mooi interview van oud speler en vriend koef! exspits van psv is nu verdediger in de vierde klasse
vandaag de dag dat mijn toekomstige iphone, applewatch en appletv gaat aankondigen! kijk al uit naar 1900📱…
haha!! in usa kreeg je het zelfs in een 0,5l blik
ooit nog eens ‘erbij’ gedaan! het vak flink gegroeid laatste 10 jaar
kan niet wachten totdat jullie de hoogte in gaan👌🏻
als er geen trappen in parkoers zaten had ik 25 gehaald🤔
onder de indruk van dit hele mooie nieuwe bleuthoot boxje van
daar heb ik niets van gehoord, zal morgen eens proberen
yep.. zeker al is het soms ook handig
toch maar de public beta geinstalleerd! 1e indruk minimale veranderingen, betere interface en tot nu toe er…
die van is wel mijn favoriet
alsof ze voor elkaar gemaakt zijn😜
overigens niets dan lof over de oplossingen die geregeld heeft!
26h reizen met alle vervoersmiddelen van een bekend liedje van twee doorstarts ✈️ en een uitwijklandin…
wat een eer! vaders 50 jaar in dienst bij de zelfde werkgever
succes vandaag 🦁 en in het bijzonder en…
deze is ook leuk
in de ontour app ging de beroemde foto alweer rond ja🙈😜
veel enthousiasme ook bij het publiek😜😜
vandaag een leuke en interesante ict tour door het abe lenstra stadion en nieuwe net als psv ook klant van…
haha zag het ook! prima deal🚴
dat fietsen toch ergens goed voor geweest 😜
laat het seizoen maar weer beginnen dan 👌🏻😜
je eten en drinken afrekenen met een chip in je voetbalshirtje! bij kan het
ik ben een beetje jarig vandaag 🎊weet jij nog wanneer je je hebt geregistreerd bij twitter? ik wel!…
wow gaaf! de nieuwe skyline van onze stad over een aantal jaar?
na meer dan 1 jaar voorbereiding zijn we live met nieuwe kassas. gekoppeld aan webshop, mscrm en exact…
gefeliciteerd en veel succes🏆 hopelijk ben ik er een we…
ook met groots zijn we volledig connected! top wifi verbinding in het
nieuwe desktop macs eindelijk, en last but not least de ben benieuwd!
daar was ik bij😜 samen met met het vliegtuig van ehv naar groningen✈️⚽️
wat hebben highbury en dit roemruchte europese stadion gemeen? beide niet meer in gebruik en bezocht door mij!…
😍 aanrader
dankzij mijn nieuwe horloge precies weten hoe ik geslapen heb. samen met de scale van dit merk alle relev…
nog een keer nagenieten van het bizarste kampioenschap ooit dankzij trots om dit van zo dichtbij te h…
heb hem ook mogen testen! ben benieuwd naar de snaps morgen 🤓🤓
onze huidige ticketing software leverancier overgenomen! kwestie van tijd tot psv voordeel van gaat krijgen!
danny koevermans van supersub bij psv tot wedstrijdbeschrijver van sv brandevoort 1
finale!!!! het was nog even spannend maar we zijn doorrrr!
mooi om te zien dat onze ict partner flink aan de weg aan het timmeren is en er 300 nieuwe mensen zijn om…
nou. design is beter van deze mk. wear2 beter dan vorige, maar ios en appleos toch fijner
alleen design. alleen adroid2 wel al verbetering
nice, sinds vandaag op mijn mk smartwatch. benieuwd naar de nieuwe mogelijkheden en integratie
zo!! nooit meer ellende met het gros van de reguliere taxis laatste jaren in de stad die je lieten staan omdat…
en dan wordt er vandaag ook nog een tacobell de eerste in nederland geopend. eindhoven de eerste👍
we horen er voortaan echt bij😜 uber rolt taxidiensten uit in eindhoven via
klinkt als een 1 april grap! maar wordt echt door de spookjes in mijn straat achterna gezeten😜
iets voor kenzo om te leren?
topaffiche op de herdgang! tegen die van ajax. samen met testen we hun camera…
beste cafe van heel eindhoven! 🎉🎊 gefeliciteerd!
mooi dat we in 1,5 jaar tijd van 4 verschillende systemen naar 1 zijn gegaan voor onze online en offline ticketsale…
en wie heeft er gewonnen?
en dan lees je op twitter dat je de mooiste wedstrijd gemist hebt omdat je moest zaalvoetballen🤔
meten is weten! daarom erg blij met mijn nieuwe body cardio weegschaal van ook nog eens connected met ve…
oke, zelfs dit gaat voor mij ook wat ver😜 maar toch erg blij met mijn connected machine!…
kan niet wachten om hem op mijn te zien!
zo eren we onze wereldkampioenen! hoop volgend jaar 😜🏎
dat ziet er goed uit die impressies! unieke werkomgeving om full service te werken op de mooiste locatie van nl.…
en wat is het geworden?
zeg toch zelf, dit zijn de betere kookinstructies 😜
bij deze!
gefeliciteerd! zowel zakelijk als prive altijd uitstekende tailored service!
samen met en begonnen met het vervangen van alle switches. dit weekend de herdgang!…
hmmmm testexemplaartje richting de frederiklaan😜
gaaf! zelf strikkende schoenen! vanaf eerste keer 2 film gezien op mijn verlanglijst!
wat een heerlijk artikel! must read! de graafschapuit, het was een wedstrijd als alle andere via
omdat nummer 5 pure schoonheid is daar op gestemt! kijk zelf, stem ook en help onze aan de winst! ⚽️🥇🏆
en nog een keer verwennerij! 🎄lunch van yummie
heerlijke oliebol van voor iedere collega als dank voor de leuke samenwerking! wat een top idee van…
en ook nog eens het ek! kunnen er niet veel zeggen! ook nog een keer op deze manier gefeliciteerd trappa! 🎉🍻
genoten van twee dagen dank en voor de uitnodigingen! oja en…
onze aanmoedigen! en extra beetje voor
en nog 3 dagen tot het einde van de maand 😂
vandaag de eerste tastbare onderdelen binnen van een mooi project waar we samen met en volop…
het scanpunt in de stad is weer geopend! over een uurtje is ook omwisselpunt stadion geopend bij gate7…
we zijn weer binnen! hopen dat de vlucht zo vertrekt! het wachten dragelijk gemaakt dankzij een heerlijk kopje koff…
tot zo!
voor de tweede keer dit jaar, maar was de laatste keer ooit, onderweg naar dit stadion!
deze ook eens op draaien zou helemaal top zijn.
tipje voor al mijn nederlandstalige muziekliefhebbers! heerlijk nummertje die heerlijke meid van crist coppens ♫
geslaagde klantendag van gehad. leuk om andere axians mensen te spreken en zelf iets…
genoten van met mijn ouders. leuke sfeer en mooie shows en lichtkunstwerken. ook leuk de route door…
kerstliedjes in de auto! niet omdat het moet maar omdat het kan.
beter dan dit kom je niet aan op een luchthaven!
bam! om het ook maar even in het voetbaljargon te houden 😜
de voorpret is begonnen! nog een paar nachtjes slapen.
haha ik vond het verdacht rustig bij basic fit eindhoven 😂
wat wij in een heel seizoen aan data verstoken, doen hun in een raceweekend 😬😳
hoe gaat red bull racing om met hun data en ict! informatieve chefs table ontbijtsessie bij
gisteren bij de cd presentatie stralend van crist coppens alias de zingende slager geweest in horst! wat een fees…
wordt jij collega van mijn goede vriend janwillem? ⬇️⬇️⬇️⬇️
nog twee dagen wachten en dan ontvang ook ik stroom van onze hoofdsponsor
goed initiatief! als volgauto 2 ondersteun ik morgen de fietsers! zet hem op mannen en vrouwen 💪
dat wel! heel mooi
hij is inderdaad wel erg mooi😜
en ik klaag nooit dat apple spullen duur zijn! hardware mac pro en imac maar ook cinema display al maanden tot &gtjaar niet geupdate!
geen update macpro / imac, geen nieuwe ipads, een app alleen voor usa appletv en een dure macbook pro in nl. teleurstellende keynote
erg coole tekening van onze mooie stad over 50 jaar in krantje 🚝🏣🏫
forza psv
eerste dag scannen in münchen zit er bijna op! misschien volgende keer in de voorwaarde toch maar opnemen dat a4 de…
😂😂👌🏻 mooi! zal er vast een bij zitten met een mooie herinnering aan 8 mei 2016 😜
de leukste kerst schaatsbaan die ik ooit heb gezien. alleen een beetje druk 🙈⛸
vandaag aanwezig in het bij de van
slaap goed! tot morgen 😂
mooi! gefeliciteerd aan al mijn collegas die betrokken zijn bij jong psv.
vandaag is het all about it security in de voorwoord van beloofd veel goeds!
we hebben dan geen tram of metro, maar wel de mooiste bus van het land 😏
een van de mooiste films die ik de laatste tijd gezien heb! wow
en de wedstrijd erna in de competitie verloren we een jaar geleden! zou mooi zijn als dat feyenoord ook overkomt😜
vandaag een kijkje genomen op de op uitnodiging van
sws de jet black maar wel de normale 128gb😜
als dank voor het vele testen alvast de final release van gekregen van apple!
ook best fijn, vliegveld met veel bestemmingen langs de deur! nu nog een keer vluchten naar de vs 😜
nu de hamvraag hoe zie jij eruit op de playstation 😜
haha ze verlagen alle prijzen dus blijft niet veel over. als je echt interesse hebt dm me
weet je nog iemand die mijn watch1 wil kopen. ik wil die nike versie 👌😂
ok. ik heb de pokemon rage links laten liggen. nu hij naar de iwatch komt toch maar eens overstag gaan😜
vandaag naar de opera in antwerpen om te kijken naar hun ticketing processen en vnv release en iwatch2?
leuk! siri heeft in een spoedcursus gehad!
succes kika!!! prik er maar eentje in of twee😜
een drone van gopro? toch maar goed dat ik nog even gewacht heb een drone te kopen!
mijn scorito team krijgt klap na klap te verwerken🤔😥
yes! dit wordt een mooie aanvulling op mijn installatie thuis💡
de ict afdeling vult ook weer een belangrijke rol bij de afronding van de transfers deze periode😜
uniek! uitverkocht voordat tegenstanders bekend zijn. eendracht maakt macht! 🔴⚪️⚽️
was gisteren nog alles groen, vandaag is weer alles ucl blauw! 💙💙
weet niet waarom, maar heb het gevoel dat het atletico of manchester city uit pot 2 gaat worden😬
morgen gezellig loting met collegas in kijken! ik hoop barcelona, arsenal en celtic!
vandaag ook alleen maar groene thee ipv koffie💚💚 😜
dan zien we je wel rond de lunch! zal vragen om extra snacks voor je😜🙈
ondertussen van geïnstalleerd. heel stabiel al met mooie functies. benieuwd naar de
drie seizoenen op rij bij winnen en koppositie pakken in de jupiler league! erg knap hoor👌#vvvjps
haha, weer mooi bedacht! welkom
hmm toch interssant! en jammer dat onze leeuwinnen niet hebben gehaald als je dit zo ziet🤔
wat een mooie foto! gisteren officieel handbalfan geworden!
gaaf, wat een mooie foto⚽️!
wow! zeer mooi geworden! tot zondag✌️
zo.. dat was een mooie dag om de vakantie mee te beginnen😜
samen met het personeel in amsterdam voor de 14e
jullie zijn te veel met dat pokemon spel bezig mannen! 😜
gefeliciteerd 🎉🎊 idd op naar de 40! had er met jdj nog over afgelopen vrijdag 🙈
best indrukwekkend al die testversies van en vooral de woning app icm mijn lampen.
jazeker, al rekening mee gehouden.
benieuwd hoeveel wij er al hebben op ons account 😜
de ouderlijke nummers van 😜
vanaf vandaag ook cashless betalen in onze fanstore met je bankpas.
ik niet
dank je voor de gastvrijheid en de leuke sportieve wedstrijd!
zo, dat was hem weer nu snel kijken hoe onze het doet!
ook dit is de live uitzending van streamend in het
klaar voor de concerten. zelfs het wifi netwerk aangepast inclusief veld dekking
vooral die wedstrijd dat we afsloten in de panacia😜
escape room eindhoven. ontsnapt uit het kantoor van dr. jones
lekker hoor
zou onze niet overkomen toch 😜
helaas net niet de finale gehaald😜, maar een heel leuk en sportief voetbal toernooi gehad🏆
de inspiratie bij de redactie van de is ver te zoeken zo laat op de avond😂
tijdens onze lunch in eindhoven live de training van in china kijken! hoe cool is dat!
dat is een goed stel! 🏆
zelfs in deze compilatie is het weer even spannend! mooi gemaakt👏🏻
wow!!! en alweer een mooie sport zondag! 🏆
de spanning begint toe te nemen😵
jazeker! ook veel andere leuke apps.
mooi dat de videos van nu via de app op de apple tv 4 zijn te bekijken! goed werk
wederom kippenvel! mooi gedaan collegas 👏🏻
dank je! de taart was heerlijk!!
pre match run! nu klaar voor
ze zijn niet uit kampioen geworden, maar kampioen geworden zonder te spelen😁 desalniettemin mooi om thuis die prijs te krijgen 😂
hier wordt ik niet blij van 😬☔️⛈🌧 waar blijft dat mooie weer🌞
lekker in het 🌞 10km 🏃
gefeliciteerd welkom terug! ook zeer blij voor mijn twitterloze vriend koef! geniet ervan🎉🏆🏆
kom er maar in dit is nog eens marketing😂
pas een beetje op berk he😂😜
iets voor
lekker max! ook nog verstand van voetbal dus!
zo! laat de wedstrijd maar beginnen! spaanse taferelen rondom stadion! mooi!
en de bbqs
thx mannen!! en gefeliciteerd mer dit puntje
maak kans op de psv linkedinseats bij psv sc heerenveen
dank. hebben deze melding meer gehoord en gaan er mee aan de slag
wat was de foutmelding daarvoor? daar kan ik iets mee richting de leverancier
toch wel gaaf. mijn stad, mijn buurtsuper en zelfs mijn huis in 3d op apples kaarten.
vandaag al? succes!
dank je! meer kampioenschappen? 😜 altijd bezig met leuke nieuwigheden.
thx! ook voor al jullie hulp tijdens het traject!
je kunt ook je relatienummer invoeren, die is uniek namelijk. anders kun je beste even contact met psvfandesk zoeken
zou je nog eens kunnen proberen. bij mij doet hij het op verschillende devices en netwerken wel.
na maanden van voorbereiding en hard werken onze nieuwe kaartverkoop site live! blij met het resultaat!
lijkt me een mooie vraag voor
bam! lekker hoor! en bijna alleen maar onze psv supporters horen zingen. 🔴⚪️
jij ook trapp. goede boom trouwens 😜
helaas geen mcdonalds
haha.. dat voordeel heb je ja😂 maar heel fijn zo! 📱
en ik weet zeker nummer 1 qua cloud score
succes! mocht je in eindhoven een repair adres zoeken dan laat maar weten
als hij thuis gevallen is valt het onder de inboedel verzekering
balen. dan zou ik hem toch naar een repair centrum brengen
hamer is hij gevallen?
google opent werkplaats in eindhoven via
tussen stand van geeft de kracht van de bundesliga aan en benadrukt nog maar eens extra de knappe prestatie van gisteren
kan je niet verplaatsen? beterschap!
had zo maar mijn verhaal kunnen zijn. helaas hadden wij geen psv prof in het dorp wonen😂
ondanks slechte resultaat een leuke dag gehad!
haha ben al een tijdje actief hoor! leuk dat je me volgt 😄
daar zul je geen spijt van krijgen. werkt ook verslavend
yes, eerste grote update van mijn is binnen! ben benieuwd!
veel plezier en niet te veel ....
toen won psv ook van manchester
op naar las vegas vanuit los angelos! wat een mooi land
al 24h op! maar dat mag de pret niet drukken! ook een leuke huurauto meegekregen😂
met collegas, supporters en veel media de loting kijken. benieuwd wie we krijgen! ⚽️🔴⚪️
misses psv haha
heel veel succes!
cool! laat ik nu net in albufeira zijn 😂
pas maar op
in het warme albufeira de eerste prijs van het seizoen zien winnen!
gefeliciteerd!
mooie foto van
3 maanden en 3 dagen na de titel mogen we weer! philips stadion
haha mooi! erg leuke winkel. zet hem op daar en tot snel
dan probeer hem maar eens een week. ik wil niet meer zonder 👌🏻
haha lekker zoetje!
vrijdag een heerlijk broodje gegeten met van in de
lekker zoetje😂
ook via deze weg! welkom hans! vanaf nu avondjes psv
notificaties, sport metingen ook voor jou fietsen heldere display en op zijn apples mooi afgewerkt! siri verlengstuk ook top
hier idem
sports spacegrey 42mm de grootste
ik twijfelde ook, maar versie1 is tijd redelijk te verkopen van apple producten
bevalt heel goed. nu al onmisbaar. in oberhausen apple store hadden ze hem op voorraad.
na de zaterdag gekocht te hebben, nu abbo op genomen! horloge nu al topaankoop.#ios84
iphone6
wat leuk, vandaag is mijn twitter verjaardag!
heb je gekeken trappa?
wat een fantastische foto van het
lekker dre!! volgende week in een ander stadion
wow mooie foto van een mooie dag
flying dutch! we zijn er
mijn favoriet is de saucijzenbrood op de terugweg
gefeliciteerd kampioenen!!!!
dit gebeurd er bij 30 min geen water uit de kraan 😁 maar goed dat er geen oorlog is hier.
als geboren noord limburger maar inwoner van brabant mixed feelings vnv! maar heel veel succes! jullie horen te blijven!
gefeliciteerd!! lekker gevoel he! kampioenen!!!
mijn vuurdoop bij een echte basketbal wedstrijd! en wat voor een!
vandaag live aanwezig bij de laatste wedstrijd van het seizoen van ons
43 gewonnen van maar veel belangrijker, een super leuke avond gehad met zijn allen!
voetbalschoenen uit de kast! vanavond psv personeelsteam vs in het philips stadion!
al pijn in de rug van de hoezen leggen?
nog een keer dan!
lekker guus! goed bezig😂
mooi lijstje! bijna net zo mooi als teletekst pagina 819😆
was even leuk, maar raak je ook snel op uitgekeken
wij zijn er ook bij!! psv collegas on tour
keurig!!!!
dank! op naar meer mooie jaren!
bam
thx jullie succes in de arena vanmiddag!
ik neem aan bij ook zo
mooi dat je er was! klein feestje nu en dan op naar de volgende
jazeker. op de cover. toch geen teken he 😉
dit weekend mijzelf dit boek kado gedaan! ben benieuwd
iets met hoek en klappen! sterkte
misschien moet de ene kampioen de andere komen aanmoedigen😂 kve 2130 veldhoven.
breur neem aan dat jij de balletjes hebt getrokken
spelen we een uitwedstrijd of zo?
als ik een oplader vind wel! gaat zo ook nog een stukje zenden
wie komt ons technische dienst team versterken? medewerker technische dienst gezocht, voor meer informatie zie
voor mij ook 😂 mooie tijd!
in navolging op de tweet van gisteren! hier ooit zien scoren. dacht de 11
lang geleden, maar ooit in dit stadion live de volgende ronde zien halen dankzij oa goal van
ik las eerst psv les haha
komen jullie ook naar het stadion! 😂
kan niet wachten om hem te gaan koppelen en ontdekken! zet apple weer een nieuwe trend?
dan hadden we elkaar kunnen tegen komen..
de ict case van psv gepresenteerd tijdens de cloudconversaties in het
leuke en interessante dag gehad bij dank voor de gastvrije ontvangst!
ik hoop dat hij ze allemaal goed heeft 😂
toen lachte hij nog 😂😂
trappa!!! niet normaal! tegen top engeland!
zeer mooi gedaan! complimenten
parkeren was even lastig, maar xl en grootgrutter is hier wel op zijn plek, wat een winkel
gefeliciteerd! top!
daarbij wonnen we hem in 2008 ook
vanaf eindhoven rechtstreeks naar new york! dat zou heel mooi zijn!
treintje! dat biedt perspectief voor de na borrel!
gezellig! dan drinken we er vnv een lotte
haha wel erg blij ja! zo actie van een totaal ongeschikte scheids kan je zomaar 3 pnt kosten
na het zien van de herhaling is de kaart nog dubieuzer!! zeker de manier waarop blom hem geeft! graag enkeltje hoofdklasse of zo!
het begon slecht met een 18 nederlaag voor koploper maar we kunnen toch wel spreken van een uitstekend voetbalweekend!