zijn wij dan echt zo achterlijk.......?
nep club! nep stadion en amper echte supporters een stuk of 10/15 duizend
nu winnen we maar guzubujeuk floot echt een 5! arrogante kwal bah bah
juist echt een ongelofelijke ll
waarom mag deze gast in hemelsnaam fluiten? hij ziet niets en zwaait met belachelijke kaarten
irritant ventje maar die heb je wel nodig in je elftal. desalniettemin op zijn knieen raken in de 2e helft!
bal had op de stip gemoeten, krijgen er al 4 tegen voor minder.
ook weer geen penaltie!
en nu weer niet op de stip, ik voorspel el wel weer eentje tegen!
2x geen geel of rood geven en bij v. ginkel terecht wel. dramatisch niveau!
als je maar van je fouten leert 😏. succes in de jl!
wellicht dan zelf de herhaling afwachten ipv een bericht posten......?
maar wel een feit 4 uit 4 om je voor te zijn 👍
dus ik vind het geen goede vergelijking.
deze penalties scoor je makkelijker als de wedstrijd al gespeeld is. maar op 00 nog geen gehad dus min…
kunnen abonnementhouders zaterdag 2810 gewoon overdag naar binnen zonder naar halloween te gaan? of moeten we reserveren?
ik volg de wedstrijd via social media omdat ik onderweg ben naar parijs voor een concert van the rolling stones!
dit spandoek is afkomstig uit breda van enkele weken geleden.
wat denken we van 1999?
waarom raakt hij arias niet, omdat arias opspringt door zelf goed op te letten, zo niet weg enkel....
de intentie van lozano was om te stoppen tegen heerenveen maar glijdt weg op het veld e…
als ik zo kom invliegen met 2 benen vooruit hoop ik ook dat de tegenstande opspringt!
gestrekt been vooruit!
fouten moeten er echt uit! hele seizoen al zwak....
issie al klaar voor oranje? grapje he
corner of penaltie is een verschil hé
komt als een dwaas invliegen! geen intentie tot de bal of wel? lozana glijdt uit en ook rood 4 wedstrijden dus!
dat zeg ik toch ook niet. schandalig als we hier niet winnen. wel een feit dat we geen overdu…
hele seizoen al wel tegen en niet mee op een belangrijk moment. de pingels tegen utrecht en wiionterec…
maar hands is niks???
hele seizoen hetzelfde verhaal wel tegen nooit mee
al hele seizoen zo
ik zocht op anwbwinkel oeps als het goed is gelukt!
hoe stuuk ik jullie een dm....?
dank je wel. er is een winkel in ehv woensel en dan betaal ik parkeerkosten, hebben jullie geen t…
ik bestel online omdat ik niet kan rijden ivm een gebroke enkel en nu dit. als ik naar ehv ga da…
vandaag internet bestelling binnen gehad alleen 1 probleem hoe kunnen we dit oplossen want ik kan niet…
het is de schuld van blind in bulgarije
waar slaat dit op?
nog bedankt voor het aanstellen van danny blind!
we danken ook blind voor zijn onkunde!
dat zeker wel, hij lijkt me ook erg geschikt voor die functie! man van de club he met ervaring 👊👊👊
ja echt kansloos toen. van dat elftal waren er ook maar 2 feyenoord waardig
dat is ook volkomen logisch als je een jeugdspeler opstelt.
we moeten eigenlijk de naam van de vorige bondscoach niet meer noemen in alle facetten!
naar het nederlandselftal kijken is ook al een tijdje griezelend 😂
alleen toen tegen 10 man.
blind kan niet voetballen! zeer overachatte voetballen, maar speelde in amsterdam en dus wereldtop
je bent uit in zweden ook zwaar genaaid hé
helaas 6 wedstrijden te laat....
zeer beperkte over het paard retilde spits en dat zeg ik al vanaf zijn az tijdperk
het is toch een duidelijke penaltie..... gewoon ontzettend dom!
geen file naar huis! ps je kan na 10 min weg dan is het al 01 👊
waarom ziet niemand dat janssen een zeer beperkte spits is voor de top?? leuk voor groningen, az, vite…
successupporters bedoel je is eigenlijk hetzelfde
en weg?
welterusten en koopinhetzand
dit gedrag missen we juist! we missen etterbakken! of denk jij nog steeds dan we in 74 en 78 de v…
ola heeft iets wat heeel nederland mist en niet kent namelijk winnaaramentaliteit. zolang je geen zlatan heet ia het
knvb moet nadenken over het aanstelelen van blind, deze man is ongeschikt voor allle functies bij de knvb#nu deboerofkoeman?
ik voorspel dat danny blind het verknalt heft daar te licht op te stellen!!!!!
niet zo aanstelle hé!
terecht toch het is een zweed!! ginne hollander
metjekutdebutant
weet nog goed dat nijmegen 1995 de eerste en laatste keer zou zijn voor mij, toen 14 jaar
sonny is vooral bekend vanwege zijn gemiste penaltie! 17 en dan zo veel 5,5 en 6sen dez…
als je met 1zeven verliest dan kan er gewoon niemand genomineerd worden uit het verliezende elftal!
zojuist lid geworden, maar ik kan geen account aanmaken, krijg steeds een foutmelding
klopt alleen moeten we de 2e helft tegen roda en feyenoord en de wedstrijd in friesland niet vergeten! werk zat! start is top
klopt. niet benadeeld? feyenoord had 2x rood moeten hebben na 30 min!
help me ff welke situatie was een penaltie...?
ik heb utrecht hoog zitten maar 110 in 2 wedstrijden omg! penalty 2 voor psv was er 1 meter buiten
vorige week had jan arie rood moeten hebben met zijn vliegende schaar vanachter maar krijgt nik…
luckassen geel terwijl hij de bal speelt en dus zeker niet te laat is. niveau in nederland is gewoon 1 groot drama!
lucassen speelt de bal en krijgt geel waarom?
hij speelt gvd de bal!!!
toen was het elftal echt heel erg matig alleen nilis en v. nistelrooy waren goed. nu meer kwaliteit
ook bij de montmartre abbesses erg mooi!
klopt helemaal! vanaf de avenue een mooi uitzicht op de arc! mooie art deco stijl!
klemmen gebeurt vaak rond de middelijn/ 25 m voor de goal en nooit wordt er voor gefloten zo wel dan al…
waarom wel een penaltie en 5 min daarvoor 10 meter over de middelijn géén overtreding op locadia? arm is arm...
12
feit 5 min daarvoor 10 meter over de middelijn hetzelfde bij locadia en niks dus klets niet man!
niks aan de hand!
volgens mij ooit 04 in de play offs??
gij objectief 😃
ongeschikt voor het vak wat een mafketel!
is er een kritische journalist die deze pseudo scheidsrechter durt aan te pakken hetzelfde geld voor de…
speler van feyenoord trekt aan de arm van de nac speler waardoor deze valt en de feyenoorder meeneemt…
andersom penaltie en rood voor de uitclub bijna nooit in de kuip gewoon eng!
hij heeft toch gelijk? 2e helft echt diep door de ondergrens gezakt net als bij heerenveen. hetzelfde geld v…
berghuis is te laat. zal dit echt niet bewust doen, maar rood was op zijn plaats net als bij janarie m…
wanneer zien we de realiteit eens onder ogen ipv die positive tweets de wereld in te sturen! dit komt zo niet goed dit seizoen!
schorsen? wat een amateur en dit is de top in nederland?
hij zit 3 stoelen achter me!
als je tijd hebt, leg dan de verhuur van de wijs eens uit aan de supporters.......
de verzorging is top voor diegene die wint 👍
hopen op een punt? wat mankeer jij aan je ogen 🤔
vraag na de wedstrijd aub voor ons supporters op welke grond de kampioenswaardige selectie gebaseerd is?
voor de tv en de fans in het stadion is het niet te begrijpen waarom er niet is geinvesteerd in de verdediging
en marcel brands zijn jullie echt blind? flikker toch op met je to…
hoe kun je de wijs verhuren zonder backup links achterin. swaab is zeker niet beter. je weet 365 dagen…
geen paniekvoetbal en ook al geen europeesvoetbal..........
en we spelen ook al geen europeesvoetbal 😂
zonde dat hij bij ons geen kans krijgt! succes jordy en volgend jaar sta je gewoon bij ons in de basis!
nogmaals dank voor alle goede zorgen vandaag.
kunnen we ergens apart parkeren zoals op de website staat of gewoon rond het stadion?
ik heb ooit in almelo op dat veld gestaan die ondergrond is net beton!
super gaaf!! en wie wat waar hoelaat morgen??
als er een rolstoel plaats vrij is ivm de gebroken enkel van mijn vrouw graag!! kan ik haar mooi verrassen
er is een bedrag van 0,58 ct afgeschreven van mijn rekening hoe kan dit. abonnement is allang afgelopen!!
lastig de bal wordt vanaf 12 meter hard ingeschoten en ook nog door arias getoucheerd waardoor hij een lastige stuit krijgt
leuk die gifjes bij een goal maar waarom het oude logo van psv gebruiken?
mooie wedstrijd hé
volgens mij valt dat wel mee qua salaris want de gemeente kijkt mee. maar je kunt creatief zijn met bonussen ed.
ben blij dat die slapjanus zonder ruggengraat niet de kar moet gaan trekken. kansloze missie
beste toon al 1,5 jaar oogt psv als een mislukte plumpudding waar is de passie, strijd en plezier g…
beterschap en sterkte
ik was er ook bij, echt ongelofelijk wat er torn gebeurde op 294 en 85 na dan hé
ergens op het net voor 65 euro! dan wel geen bedrukking
komt er ook nog een foto met details en van de achterkant van het nieuwe shirt?
gister 2x wat zou elvis doen en 2x het is een nacht
dubbele nummers gisteren ook al. gewoon zn setlist?
sorry mij de aanvaller van ivoorkust schiet op het hoofd van cillessen. hij gaat goed naar de hoek maar heef…
blij maken altijd 😂
hartelijk dank!
vandaag is roze de kleur van winnen! klasse
eindelijk een keer gewonnen 👍
gomes, uit bij de graafschap!
ik was ook niet onder de ondruk van het tactisch plan van mijnheer bosz nul kansen mijnheer bosz nul!
zometeen weer berichten van alle nederlandse media over trots enzo. in nederland moeten we leren dat alleen winst telt!
wij kijken thuis gezellig een dvdtje op de bank. in min 89 overschakelen.
nou echt niet iedereen!
nu niet en 21 jaar geleden ook niet! enquête
inderdaad!
klopt maar zal daar volgend jaar niet spelen. ach gelukkig is dit seizoen ten einde. nieuwe ronde nieuwe kansen
hendrix is geen lb dat zijn willems of brenet
het enige positieve van de middag 🤓
dit is historie, een huldiging in eindhoven of amsterdam is gewoon 😜
vroeger soep bij rbc, bij heracles en de graafschap altijd goede ontvangst!
zullen we niet gewoon stoppen met deze onzin?
volgend seizoen 442 met locadia in de spits en pereiro er omheen. lees je ook mee
maar chris gelukkig gaat het sportief in ieder geval top! al die randzaken vallen nu negatief uit. niet slim van
ik gaaf mijn mening over zijn houding op het veld. zo komt hij op mij over, persoonlijk ken ik hem niet nee.
klopt, maar als er vijf scheidsrechters in het veld staan + een 6, 7 of 8e man die dit alles miss…
zon vies zelfingenomen persoonlijkheid ofwel een nare man op het veld
ik blijf het belachelijk vinden
belachelijke 2e gele kaart zeker als je ziet dat hij hem aan madrid 2x niet wil geven!
speelt gewoon de bal!
waar maken we ons nog druk om, seizoen verneukt en zondag gaan we er ook dik af met deze instelling en coach
dan moet jij ze wel kunnen motiveren!!
het seizoen van psv in een notendop!
hartelijk dank!
over 1 week gaan we naar camping 1fif6. we hebben caravan 4f. zijn er dekbedden of dekens aanwezig of is er een inventaris lijst?
ofwel een simpele 30
jonathan reis natuurlijk!
ja dat gevoel heb ik ook nog steeds.......
inderdaad
je voelt nog steeds de pijn van 12 jaar geleden
wat denken we zelf na donderdag???
als dit als dat feyenoord wint gewoon met 23 en wij hebben het voor de winterstop zo laten afweten man man ..........
1 sagan 2 van avermaet 3 boonen
dat maakt na donderdag ook geen zak meer uit!
doe het dan ook
heb cd en de hele wedstrijd op dvd
ja dat deed ik!
en terecht laffe knvb
geen verplaatsing van psvajax supporters boeken speciaal een vakantie vanaf maandag om erbij te zijn
mensen boeken een vakantie na een voetbalwedstrijd dus niks verplaatsen grrrrrr
wij vertrekken maandag op vakantie ipv zondag! niks verplaatsen!
achterlijk knvb!
is er een telefonie en internet storing in geldrop? 5665gb
1 iemand! vertel mij wat blind heeft gepresteerd als trainer ps de 04 is zijn hoogtepunt 😜
gelukkig neemt het elftal bij de hand
waarom wissel je wijnaldum ipv strootman? je bent echt een kansloze trainer
wie neemt pierre serieus? ggz?
nee natuurlijk niet, deze man is totaal als coach
inderdaad held
ik zou zeggen lekker naar huis!
gelukkig waren wij bij zijn debuut als coach van 020 🤣😜
hoopt op zak met geld
herinnert iemand zich nog het debuut van blind als trainer van 020?? 😂🤣😂 en nu
noem 1 hoogtepunt van blind als coach en dan niet zijn debuut wedstrijd als trainer van 020 👍
overal mislukt als coach en dan aanstellen als bondscoach
lul niet man
misschien eens op zoek naar een bondscoach die niet overal mislukt is als trainer?
blind is toch niet voor niets overal mislukt als coach!
lekker danny
die is al jaren aan de gang, viespeuk!
of blom is de mol of blom zit niet echt lekker in de wedstrijd
lekker bezig blom
de penaltys waren schandalig, marcherano moet eraf bij 31 met rood en een pingel voor psg.chapeau barca met hulp
dit was een duikeling
nogmaals waarom zitten er geen koekjes meer bij de koffie? kost 1 munt maar op oost dit jaar geen koekje te zien
belasting 13 ingevuld, nu lees ik dat er een fout in het programma zit als je een hypotheek hebt voor 281012 wat nu?
blijft raar ene stadion wel andere niet. eerst was het met kunstgras nu met doellijntechnologie
staat met zijn neus bovenop de overtreding van berghuis bij van ginkel als je dit niets vind ben je ongeschikt!
waarom zitten er geen koekjes meer bij de koffie? kost 1 munt maar op oost dit jaar geen koekje te zien
prima lijstje!!
vorige week online een trui vesper gekocht. trek ik vandaag aan en zie ik later op de dag een gaatje onderin de trui, wat nu?
dat was wel te verwachten toch van een gehypte speler? voor mij is het geen verrassing!
waarom kan ik geen filmpjes kijken via twitter???#help
jammer..... heb alleen de hele wedstrijd zwollepsv en natuurlijk de hele wedstrijd psvvitesse 51 👍
waar?
memorabele wedstrijden staan in je geheugen!
psv kreeg nog 1 mega kans met cocu net voorlangs. daarna hadden we ee…
ik vind het doelpunt van pröpper de mooiste van psv in 2016. en jij?
heerlijk moment
ik begreep dat er nog psv kersttruien over waren vandaag? als je ze kwijt wilt hoor ik het wel 😇
ik wil ook wel zon trui. zal hem met trots dragen!
volgend jaar alleen maar witte, zwarte en roetveeg pieten ipv al die belachelijke carnavals pieten??
mijn zoon mist pietje paniek ook, maar waarom niet alleen witte, zwarte en roetveeg pieten ipv al die kansloze carnavals pieten
raakt de man niet dus belachelijke gele kaart
belachelijke gele kaart bedoel je raakt de man niet!
waar blijft het antwoord op mijn vraag??
gister al gedaan...........
het vreemde is dat hij sommige disks prima afspeelt maar een disk die eerst probleemloos werd afgespeeld geeft nu een error
hoe kan ik de lens schoonmaken en de speler resetten?
ik zie alleen maar carnavals pieten
ergens in luxemburg geloof ik
feyenoord speelt thuis dus dan is het geen vraag maar een zekerheidje.......#triest
goude tip! bedankt!
man zonder persoonlijkheid. ooit studio voetbal gezien met hem tov van gelder wat een verschil!
die het tom is een dramatische presentator meningloos!
vorig seizoen na 8 wedstrijden ook 2x gelijk en 1x verloren, wedstrijd 9 werd ook gelijk
dank voor de juiste info! is de omleiding via someren?
is de snelweg a2 zondag ochtend 0500 uur wel of niet open van eindhoven naar maastricht?
zojuist een mail ontvangen alleen is mijn bestelling van 12 juni en niet van 15 juni, waarom ontvang ik dan de 12e een mail 😜
enig idee waar mijn bestelling van 1 week geleden blijft? bestelnummer 101182230
opnemen en opnames terugkijken is ook defect!
tussen de pers en op het stadhuisplein met mijn vrouw! kampioenne!
tussen de fotograven op het stadhuis
met de kinderen voor de tv op zondag!
vandaag nieuwe kabel gehad maar weer geen geluid als ik van kanaal wissel! na aan/uit zetten nergens last van het ligt aan box
een foto ter verduidelijking 😉 hier missen we een bankje om op de kinderen te letten
de foto is toch niet aan de kant bij de speeltuin...?
in de coevering is bij de brede school een mooie nieuwe speeltuin geplaatst echter missen we een bankje en een prullenbak!
goedenavond, krijg ik nog een reactie op mijn vraag? of moet ik iedere dag een bericht sturen zonder antwoord?
we hebben al 5 dagen geen geluid op de tv tenzij we de mediabox van de stroom afhalen en herstarten. is er een oplossing voor?
we hebben al 4 dagen geen geluid op de tv tenzij we de mediabox van de stroom afhalen en herstarten. is er een oplossing voor?
en daar zijn we trots op!
phillip cocu vindt mij een onmisbare schakel in het team van volgend seizoen! kijk deze video.
inderdaad. ik wil ze graag nog een keer live zien!
en weer geen rood echt ongelofelijk!
wat denk je can blind die werkelijk geen idee heeft wat hij moet doen
ik ben toch niet gek🤓
al antwoord gehad 👍. vraag me alleen af waarom alles zo omslachtig moet gaan.
vraagje, ik land 153 om 17 uur in madrid, voor 18 uur omwisselen is dus onmogelijk! graag een oplossing!
vraagje, ik land 153 om 17 uur in madrid, voor 18 uur omwisselen is dus onmogelijk! graag een oplossing!
ik vind dat niet erg hoor zolang wij maar om de echte prijzen spelen! de beker blijft toch soort van troostprijs...
hans? waar was je kritiek op alle kadootjes die feyenoord in het begin van de competitie kreeg vanaf 11 meter
kan kraai ophouden met huilen over de penalty van psv, ik hoorde hem ook niet toen psv hem tegen kreeg tegen heerenveen en ado!
alle punten heb ik nog! 12800👍👌
schande over ado en dan zelf dit doen, kansloos volk!
en maar janken over ado den haag! laffe club!
klopt had ik gedaan maar pas bij de 3e site om in te loggen zat ik goed 😇. dank voor reactie! prettige avond!
dank!, wel omslachtig om op 3 sites alles in de gate te moeten houden! mijn 1.overheid 2. belastingdienst &amp 3. toeslagen
vraag we hebben een standplaats geboekt op eurocamping santantonidecalonge enig idee op welke zone dit is? 257 tm 88
voorlopige aanslag 2016 digitaal ontvangen maar ik kan jullie bericht niet openen want dit is in ontwikkeling!
bij airen was een rood scherm te zien bij het invullen van de test. check dit aub!
waarom kun je de vliegreis nu al wel boeken? oneerlijke concurrentie!
johan, wat is het verschil tussen ola toivonen en kramer? elleboog of slaande beweging blijft hetzelfde
in een shop kun je dit abbo tot mrt 16 laten doorlopen. ik verwacht dat jullie dit voor mij gaan regelen!
aanbod??? 350 euro beltegoed weg noemen jullie dit een aanbod stelletje dieven zijn jullie!
kennelijk willen jullie mijn abonnement omzetten om het eenvoudiger te maken maak ik ben daardoor €350 beltegoed kwijt...
dit lijkt me geen vereenvoudiging maar geld klopperij!
kennelijk willen jullie mijn abonnement omzetten om het eenvoudiger te maken maak ik ben daardoor €350 beltegoed kwijt
inderdaad! maar dat ontgaat kennelijk iedereen!
alweer dramatisch traaaaaaag of geen internet! gvd!
in geldrop en in eindhoven is het internet zo snel als een slak. drama sinds de overname....
geen link aub naar wifi verbeteren los gvd jullie probleem eens op! 2/2
weer trage of geen wifi. bedankt sinds de overname van upc is het een stuk slechter gewoon zwaar beroerd de 1/2
ben zelf 15 jaar keeper geweest ik zou niet weten wat jullie hem willen verwijten. prima redding vanaf 10 meter
klopt het dat we sinds de overname van upc de zoveelste internet storing hebben in geldrop?? om moedeloos van te worden!
inderdaad! we misten vandaag 3,5 basisspeler
klopt met een gelijk spel was ik op voorhand al blij. nu 020 overklast! geeft vertrouwen voor de rest van het seizoen!
aan de gelijkmaker ging een overtreding aan vooraf.... maar dat vergeten we natuurlijk maar even behalve als het moreno was geweest!
hij raakt de speler niet eens! wel slim gaan liggen natuurlijk!
inderdaad maher exit!
kaarten voor eindhoven in the pocket!
shirtje meteen gekocht overigens 👍
een juweeltje! ps. is er ook een echt goede foto van beschikbaar?
hebben jullie ook een mooi promo filmpje inzake penaltys? het niveau van jullie scheidsrechters is om te huilen!
staking politie niet op prinsjesdag, stelletje mietjes!!
kun je de heren duidelijk maken op knie hoogte inkomen met gestrekt been donkerrood is! ongelofelijk dat jullie die goed keuren!
mijn vrouw en ik hebben gelachen gister avond!!
hoe kun je nu een tennisser als analist gebruiken? we gaan toch niet iedere wedstrijden supporters uitnodigen hé
kloppen de tijden van de herhaling wel? op fox staat het namelijk andersom eerst op fox 5 s avonds op fox 3!
succes in newcastle en bedankt voor de titel in 20142015!
in 2010 was 1 dag voor de tour start kwartfinale wk brazilië nederland 12 dus daar had iedereen het over!
goed bedacht! nu al tevreden met de gestreepte sokken!!
gedaan!
hoe kan het dat ik geen bevestigings mail heb gehad van mijn reeds betaalde online bestelling?
vreemd dat de filmpjes op youtube beter geluid hebben als op tv. op tv klonk guus slecht bij stem!
helemaal geen enkel nummer gemist! ben zaterdag en zondag geweest dus ik spreek uit ervaring! eerst feiten checken!
gaaf jasje met een mooi logo op je schouderblad!
het voordeel is dat ik nu geen muntjes hoef te betalen om mijn 🍺 te halen!
de regisseur is ook wakker geworden geloof ik! voor de reclame een drama nu al stukken beter of snel monteren in 7 min
geluid is nu stuk beter na de reclame!! semi live concert