geef raph nog klap van mij really whats up dok😜 usagi is cool heb zijn comic,s jei is een demon
lol die mensen in de studio of de champions league gewonnen is😆😆
noor maakt wel kans denk ik
ik durf nu al niet meer te flirten met chicks door dit gedoe
je was geweldig en nog steeds geweldig snoep enge mensen😆😆 ik ho u van dit feest mensen laten schrikken wat is er nou leuker?
mikey leeft? maar hoe?🤔🤔 en die opoffering leo ,s woede tegen die salamander tank toen hij dacht dat je nog dood was😎😎
goed progamma alleen ben niet echt fan van geraldine met dit onderwerp mag dat?
lol i know maar het is niet eerlijk mij favo turtle en sterkste in de comic,s zo onde…
ehum mikey waarom ga je zo vaak dood in seizoen 5🤔🤔 je bent de sterkste turtle sorry jij de slimste😉
jimmy gaat voor varia wedden
mijn man niet hoor die is voor mij lol😆😆
1 seconden teveel damn indrukwekkend hoor🙃🙃
dan vragen ze een ouwe man voor deze test lol😉😆😆😉
damn je moet wel heel goed kijken🙃🙃🙃
net thuis van werk goed dat psv door is maar dit kan niet.. verlenging nodig tegen fucking volendam🤔🤔🤔
nou waar kan ik me opgeven wil me skills wel laten zien bij een coole chick😉
ik zou het wel durven om mezelf op te geven voor die leuke mooie chicks lol 😉😉
wauw een maagd cool wel respect dat ze niet de eerste de beste pakt om gemeenschap mee te hebben😎😎
in november uitgegaan?🤔🤔 november moet nog komen right?😉😆😆😉
die tatoo heeft wel de looks hoor😍😍
vorige week de clowns nu een tatoo episode 😆😆
hey ik ben heb ook surinaamsbloed en kom niet uit een groot gezin teminste is een gezin met 4 groot🤔🤔😉😉
lol nu je het zegt ouder dan zijn date denk maar geen haar meer hard too tell😂😂
ik scoor goed bij de schoonmoeders😆😆😆 lol
een tatoo kan cool zijn als het een mooie betekenis heeft.. maar dit is overkill lol 😆😆
serieus dude een klein kind dit spel laten doen
oh nee ik voel wraak opkomen waar was de tijd dat mensen gewopn met elkaar praten?🤔🤔
geweldig dit moet vaker op tv komen zie het nu voor het eerst😂😂
lol wordt gefuckt geweldig😂😂
lol minefuck😂😂 geweldig kneep zijn keel dicht een verlamde vrouw laten staan 😆😆😆
heel veel mensen weten dit niet... maar freek is ook een hele goeie ghetto rapper😉 check met brainpower
lol jeroen moeielijk he lezen😆😆 freek vs jeroen 10
dit heeft sander al eens eerder uitgelegd bij 🤔🤔🤔
heet dat zo? thanks bro✌ ik dacht dat mannen altijjd betaalde🤔🤔
lol je kan je aanmelden moeten het wel hele mooie chicks zijn😉😉😆😆
namen bedenken voor je kinderen serieus lol
mooie chick laat clown schieten lol
die tyson kijkt op die water ziet branden lol😆😆
die clown heeft wel een mooie chick om mee te pronken als het iets wordt😆😆😉
lol een clown als date hahaha geweldig 😆😆
kickel wat een naam lol😆😆 maar lijkt me wel een coole chick😉
bro vrienden met je ex kan bijna nooit worden komt er wel overheen😉 en blijf jezelf en de juiste mensen blijven je bros👊👊
jeroen amsterdam wordt goed beveiligt de rest van nederland bestaat niet als il het zo hoor🤔🤔
de man overleefd het
ik snap bij een scheiding dat je elkaar wel kan vermoorden figuurlijk maar waarom ook echt doen🤔
als ik ooit een relatie krijg kook ik nog steeds zelf zeker na dit🤔🤔
dus als je relatie niet meer goed is kan je scheiden maar ook je ouwe liefde omleggen🤔🤔 dat ze zo gehersenspoeld wordt🤔🤔
ik denk nu dat haar man vermoord wordt gok ik
hele nacht in donker gefietst stuk of 30 kilometer van mij stad na beesd en leerdam houdt je scherp
wow stom exuus altijd en die kaart gaat niet op racisten really?
daar heeft johan gelijk in is iemand die mensen goed uit evenwicht kan brengen zoals matthijs als die wil😉
ik hou ook van jullie als stemacteurs guys in zo,n duistere serie😉🐢🐢🐢🐢 love splinter
mikey ben je dood nee😢😢 lol donnie ik hou ook van de boze donnie bijna iemand vermoord als leo niks zei
hij is gewoon trots op katwijk😂😂
katwijk gezeur alweer lol
aflevering van afgelopen week.. aankomende dinsdag zeker geen firstdates omdat oranje speelt🤕🤕
what the... een politievrouw maar ergens begrijp ik het wel hoe erg ook is dat erg?
is zo goed gemaakt ik wil meer..... klote dat zo snel afgelopen is😣 hoop dat ze alles in 1 keer uitzenden
wauw wauw heftig hakt erin.. inderdaad politie doe niet of jullie die girls gaan redden
is zo heftig en duister maar nu weet ik waaarom ik het heft in eigen gand zou nemen😡😡 doe iets politie
jullie ook bedankt he voor het kijken naar porno lol sophie is cool
kan jeroen geen uitzending met hardcore of heay metal maken? en nee angela dit was niet mooi
de waren mensen die deden dingen... en de waren mensen die deden dingen🤔🤔🤔🤔
wauw jeroen weet te shockeren juf en leerling na j aren weer samen lol😉😉
komt er dit jaar weer een roast van nederland? en met sophie hilbrand en braboneger als roasters
ben wel benieuwd of mensen na deze aflevering allemaal na katwijk willen?😆😆
zo hoort het wel ben ook een jager en de vrouw is de prooi lol😉😉
lol een vent die op me jaagt en dan pas ga ik plat lol serieus😆😉😉
een meisje die gamet kan sexy zijn hoor maar winnen van je no way😆😆😉😉
katwijk is geweldig zo te horen moet er eens heengaan denk😆😆
ik ben geen standaard paardenmeisje hoor lol wat is de standaard dan??
een gamer en een gamster a match make in heaven lol
over de top 3 willen beginnen en dan ajax noemen?🤔🤔 staat nu 6de
ja of die andere azie krijgt die gele maar afrika en wij die blauwe denk
godinnendans en schreeuwen eh oke lol
na mij stad culemborg is tilburg ook ghetto😜😜
wow misbruikt waarom vertel je het niet aan je ouders?? als ik kinderen had en dat hoorde slacht ik die dader 🤔🤔
echt waar jeroen aan studenten vragen of ze het zouden doen lol😆😆
ik ben geen fan van de sgp maar hij heeft wel een punt.
kan ik uitslapen hoor ik bij wnl dat mij town wereldnieuws is
lol iedereen wordt agressief op facebook😂😂 ik zou een selfie maken😉😆😆
lol en ze komen ook voor in oss succes 😉😉
is heel gewaagd wat ik nu ga zeggen maar geef mij een kans bij monique😍😍😉😉
monique is wel knap alleen johan heeft niet de skills haar te krijgen🤔🤔
serieus was dat de grap? 😐😐
is ze 39?🤔🤔 wauw gewoon wauw ziet er nog vet knap uit😍😍😉😉
dit is zo pijnelijk 😆😆 oh man
christian en zijn date zag ik van kilometers afstand aankomen cute
een ronnie fan en op de bruiloft oh man rennen lol
lol die christian is vet grappig😆😆
cassette 7 side a mr porter voor het niet zien en helpen van hannah god damn it
cassette 6 side b bryce walker voor het verkrachten van hannah 😡😡 damn wat haat ik courtney…
thanks mevrouw renee👊 personelijk vindt ik 4 of 8 jaar te weinig als je iemand leven steelt. maar dat zal wel zijn
eerst 4 jaar krijgen en dan 8 jaar voor moord serieus??🤔🤔
lol renzo met wedstrijd cool ik zou meedoen😉😉
damn wat heftig maar ik hou wel van deze onderwerpen zo duister.. wie is die chick van reportage? die pepijn vervangt?
best raar dat ze heerenveen niet bespreken🤔🤔 staat 2de
serieus dude zelfs de korte corner gaat over ajax🤔🤔
oke nu feyenoord ga weer tijd checken psv 5 minuten ajax 30 minuten en feyenoord de overige 45 minten?🤔🤔
5 minuten psv en nu over ajax en vitesse al 20 minuten en alleen over ajax vitesse komt er niet eens in voor🤔🤔
5 minuten over psv dat 17 wint serieus?? nu weer na ajax of feyenoord
cool nou az nog verliezen en we hebben strike 😎😎
17 lol goed bezig eindelijk weer een keer met grote cijfers winnen💪💪👊
net op tijd thuis even boodschappen halen omkleden en i am ready😉😉 battle battle
bij de sgp zijn er zo en zo geen vrouwen😜😜
in mijn jeugd hoe oud is die ?😆😆 lol hahah
ik wist niet waar ik hem in moest steken? serieus 😆😆
bnn is jongere omroep lol😉
wat slecht geacteerd lol
een vrouw laten klaarkomen is een kunst hoor ik zo lol 25% is vrij weinig zijn die mannen dan zo slecht?🤔🤔
wauw just wauw dit is 1 van de beste afleveringen ooit lol dat lied over telefoon in je auto lol😉😆😆
&gt kan ik niet nuchter lezen 😣😣 cassette 5 side a clay jensen oh man here were go
cassette 4 side b ryan shaver voor het stelen van hannah gedicht en openbaar delen op school😡…
dat neem je haar niet kwalijk? als dit die vragen zijn die je eigenlijk niet kan stellen dan kan iedereen het🤔🤔
waarom raakt het je? serieus? allemaal open deuren. verder goed progamma
mark en evelien zijn cute liefde spatte van het scherm
sanne eerlijkheid is beter pleister er helemaal af op den duur ga je het leuk vinden😉
een rotterdammer en een amsterdammer gaat nooit werken blijbaar lol😂😂
45 heb ik aan gegeven. en hoe oud ben jij? dat ben ik vergeten lol😉😆
die stiltes bij de date van sanne😆😆
open relatie eh oke een soort swingers dus🤔🤔
serieus over sm praten😆😆 en stoute dingen gedaan? lol
damn jeroen 😆😆 u zat naar boven te kijken niet omdat u daar iets van verwacht lol soms is die cool jeroen😉😆😆
soms denk ik echt waar hebben we het over rechtzaak over een bed??? goed bezig jeroen😉👊
heel erg voor die burgemeester uit amsterdam maar ben meer met me eigen stad bezig 😉😉
makelijk praten denk ik maar dat is het altijd als je niet van dichtbij meemaakt
blijkbaar niet
esther sister dan was ze zeker ern ander verhaal aan het ophangen geloof me
stockholmsyndroom mevrouw🤔🤔
misschien omdat ze dan gaan toneelspelen dat hun het slachtoffer zijn? heb je dat geschreew gehoord?? te erg
stockholmsyndroom mevrouw heese maar ik kijk objectief😉 je dader heeft zoveel macht dat je ondanks alles bij je dader blijft. brainwash
ja mannen slaan elkaar eerder op elkaars bek vrouwen zijn gemener kunnen iemand mentaal helemaal breken.. dat geschreeuw damn
stockholmsyndroom kan niet zonder haar. maar u heeft gelijk ik kan er ook niet tegen
kan het stockholmsyndroom zijn denk ik mevrouw anke?
indrukkenwekkend goeie docu damn dat heb ik niet vaak wauw
serieus je wordt mishandelt en toch blijf je bij de vrouw die je slaat?🤔🤔
vrouwen die kleiner zijn dan de man zegt dus niks als ze doordraaien 🤔🤔
wow serieus zo schreeuwen ik had terug geslagen en ik heb echt respect voor vrouwen maar zo😰😰
ik heb me ingeleefd. na de mac gegaan wat bestelt en me opgesloten tussen mezelf en een muur🤕🤕
lol die uitzendingen van jeroen worden steeds cooler
lol hahahah ik heb nog nooit een pedo super saiyin zien worden lol haha battle battle😉😉
jeroen die aan de zaal vraagt wie krijgt er geen orgasme lol serieus?
je mag hem zo vasthouden kan je het goed zien ? lol goedele 😂😂
zo zonde vitesse had moet winnen
als dit in dit tempo doorgaat wordt het 100 🤔🤔🤔
die scene dat waldek vertelt en je die flashbacks ziet is zo goed
deze stijl bevalt mij wel met die flashbacks cool thuiscrew really cool 👊👍
oh oke we gaan dus flashbacks zien cool ook van julia denk ik
is geweldig lol
mooi progamma maar ben geen fan van bij zo,n onderwerp
dat doen jullie goed cool progamma 👊✋ lol😉😉
boks he serieus lol😆😆 dit is niet te filmen 😂😂😉😉
lol waldek met die kopstoot😉 in engeland wordt dat gecensuurt
wow die julia actrice speelt zo goed psyo lol damn ik begin haar te haten😉😉 teken dat ze de rol goed neerzet
wordt de roast battles competitie van jeff ros van gister nog uitgezonden vandaag? heb het gemist😑😑
wel een goed feest gehad maar nu even bijslapen😉😉
ik lijk wel gek in dit weer maar you know what no guts no glory here i come😎😎
nee joh dit is beter voor de conditie😉
thanks dan maar regenjas ov is niet echt mij stijl ben er zo met mij snelheid😉😎
ik wil vandaag naar appelpop in tiel maar blijft het dit weer?😑😑 moet namelijk helemaal fietsen vanuit culemborg en ben net beter
jeroen vs leo lol😉
lol slimme zet hoor van die telefoon nummer😆😆
serieus lol elkaars naam vergeten hahaha😂😂😂😆😆
wauw ik kijk nu eerste aflevering thuis sinds lang en die preview lol😆😆 die spuit zieke dingen lol
renzo wat kan de liefde toch mooi zijn tamara ja wauw wat zei ze dat sexy lol 😉😉😍😍
gefeliteerd 22 al weer was ik dat nog maar😆😆😉 maak er een fijne dag van👊
lol sexleven van andere mensen in relatie 😎 ben erg fan van goeie roaster sophie raak haar niet kwijt
het is haar show 🤔🤔 eva je bent cool maar niet overdrijven
wil je iets goeds zien leonie check thirteen reasons why en blijven luisteren naar hannah baker 😉 m…
wat zou advocaat denken? je zag van een kilometer afstand al dat strootman rood zou pakken🤔🤔
dit is zo slecht waar zit ik na te kijken ?🤔🤔🤔
nee dat niet daar heb je gelijk in.. maar heb bij laat haar maar mooi zijn. dit…
》 de meeste verkrachters zijn bekende van het slachtoffer.. maar vrouwen kunnen ook verkrachten
nu zo hoor over sexule misbruik 🤔🤔 wat gaat zij ons vertellen ze kan zich niet eens inleven. &gt
wanneer gaan we street fighter spelen ? je krabbert toc h niet terug?🤔😉😆😆
trump blijft de wereld verbazen?🤔🤔🤔 is het niet trump blijft eva verbazen???
probeer kunst te maken om te eren😉 if you re listening you re too late😔😔
wauw chicks die me dochter hadden kunnen zijn op straat lol 17 18 jaar jammer dat ze me proberen te versieren daar doe ik niet aan..
heb nu alles in 1 keer gezien die zelfmoord die verkrachtingen. ga er zowat kapot aan en daar moet je veel voor doen😢😢
wauw wow indrukkwekkend zet me steeds aan het denken prachtige actrice moet dvd hebben
een boom knuffelen serieus ga kapot lol😆😆
een jaar lang een boom volgen🤔🤔😆😆 waar zijn we mee bezig?
oke dat kan.. ik heb vaak het idee dat ze veel meer met amerika bezig is... denk dan ga daar dan w…
u niet dan? als ze een show maakt zonder trump gaat het over katten of over oranje vrouwen🤔🤔 enige 2 keer zonder trump
gast chil zal wel nepprofiel zijn ben niet bang voor je damn wat ben jij leijk zeg
nee geen medelijden ben geen fan van hem.. maar elke dag dat trump geouwhoer wordt ik wel moe mevrouw anna
gaan we schelden?? makelijk he zo via internet
oke het is officieel eva heeft een obsessie vooor trump is ze jaloers op hem wat zal het zijn??🤔🤔🤔
weer dat trump geouwhoer jezus eva 🤔🤔 die man is een obsessie voor je aan het worden
het niveau was echt slecht😐 zijn die bners zo wereldvreemd🤔🤔
worden er nu ook samenvattingen van de vrouwen eredivisie uitgezonden?🤔🤔🤔
ja maar miedema zou de robben sneijder van het vrouwen elftal zijn
miedema wordt weer opgehemeld🤔🤔 de wedstrijden die ik zag was ze niet zo goed.. lieke en jacky waren beter in mij ogen
dat was me een feestje weer met een bro van me alleen in de stad waar ik liever nooit meer kom
nu ik brainpower zie hoop ik dat die weer gaat rappen beter dan die wannebe rappers
eva had beter van uit kunnen nodigen die is dam kampioen van zeeland😉😉
is zo,n goeie acteur jim 😎😎😉😉
intressante onderwerpen altijd... moet alleen wennen aan die chick lol😉 ben pepijn gewent
een horrorfilm waar de goeie winnen ze moet nog veel leren😂😂 waar is de plotwist? kunnen wat leren van 😉😉
zeker in nederland lol hahaha😉
oh het is thijs van lol 😂😂😂 goeie acteur lol
wat een slechte horrorfilm lol
is dit horror??🤔🤔 lol niet alles gezien. maar oke dit genre masr niet meer doen in nederlands lol😆😆
goddammit telefoon in trein laten liggen toen ik op perron was en me telefoon terug damn me hart tekeer
nou ja scoren? bij mij scoort ze hier niet mee🤔 en dan doet ze een thema uitzending... gaat het over katten
nee ik vindt dat er ook andere onderwerpen te vinden kunnen zijn. geef mij de kans om een show te maken en je blijft kijken.
maar dat trump geouwhoer ben ik zat. ik ben ook geen trump aanhanger maar elke dag hetzelfde😑😑
schakel net in heb niet alles gezien sorry😉
weer weer eva je woont in 🤔🤔 heb het dan over die kermis ramp als je zo nodig over amerika praat🤔🤔
2 seconden thuis tv aan en weer trump serieus eva?🤔🤔
hoop dat ik de deadline haal moet die blauwe vogel vangen voor maandag😑😑
lijkt me vooral een gemis voor nieuwsuur😂😂 die man is geweldig
waarschijnelijk werden ze overmoedig. hoe krijg je het voor elkaar🤔🤔
nederland moet wel 20 maken dan kan het nooit meer 11 worden😉 style lol
dat zal best. maar ze moet het nu laten zien op een eindtoernooi ek wk,s en dan…
ja zei is ook goed. zal de druk zijn denk miedema zal de robben sneijder en weet ik niet wat van het vr…
ik ook lol😉 en van wat ik hoor zou zij de sterspeler zijn. 🤔🤔voor mij is dat lieke en van de sanden
sorry hoor masr als miedema niet kan scoren tegen dit belgie als sterspeler🤔🤔🤔 lieke martens is wel goed
1 antwoord en steven is weg lol kortste finale ooit
lesbos serieus wisten ze dat niet??😆😆
suikerspin is dat een kapsel 😂😂
die moeder van merel westrik weet veel lol
henry schut verder hebben we geen kattenfilmjes lol😆😆😉😉
misschien een idee om jou hond ook een eigen twitter account te geven 😉😆 lol
dat kan. maar ik zou zo nooit zelf willen winnen
zo zou je eigenlijk niet willen moeten winnen wijze woorden van johan
dat vind ik niet echt een sport lol😆 ik denk altijd aan lichamelijke inspanning bij sport en competitie😉
wielrennen is niet echt mij sport hou van alle sporten behalve wielrennen.
wow ze luistert wel naar de fans tot nu toe geen trump geouwhoer
ja ze ziet er goed uit en lijkt me wel cool. maar dat trump geouwhoer en amerika moet eruit. van een…
nou nee atie🤔 een keer is niet erg maar de hele week over hetzelfde wordt echt vervelend lol😉
ik gok morgen bij eva weer een trump item three in a row lol😉
de cijfers uit amerika😑😑 eva ik weet nu wel dat je uit amerika komt maak ook onderwerpen over nederland. ga anders show daar maken🤔🤔
ik weet niet hoor maar hij zal vast wel iets goed doen anders kiezen ze hem niet. en daarbij het is a…
weer trump😑😑 kan eva 2 weken een show maken zonder trump🤔🤔
ach eva hou op man dit is humor vrouwen kunnen ook mannengrappen maken hoor je die huilen?
ik hou van johan zijn eerlijkheid altijd😉
ik weet niet..... eva die over sport praat🤔🤔 wat weet zij nou van sport?
een relatie met god🤔🤔 ik geloof niet. maar heb wel respect voor mensen die dat wel doen.
weer die trump grappen van eva zou ze een week zonder dat kunnen🤔🤔
het meisje wat skills heeft looks en kan maken oh man hoop zo die te vinden😆😉 roti en kousenband is voor mij…
eh eva bij de nijmegse vierdaagse denk ik toch aan stax 🤔🤔 of die man van dit was het nieuws
lol dat wordt straks met frank snoeks 😆😆
come on kees ergens is het wel te begrijpen toch? 🤔🤔
eva geeft altijd haar mening is niet altijd objectief voorbeeld trump
&gt de hindoestanste zoals divali holi maar goed.
eva bij deze vraag ik of je mij uitnodigt bij jou ? geloof nergens in maar van huis uit heb ik de nederlandse feestdagen geviert en&gt
waar zijn we toch mee bezig?? serieus je krijgt vrij om je feestdag te vieren en nog is het niet goed🤔🤔
oh boy moet op hond van me ma en zus passsen liet ik hem los om met hem te gaan rennen kilt die bijna een kat lol maar was er snel bij 😉
spelen met hele ouwe mannen met een gezin lol blijkbaar houdt het jong😆😆😆 en de enige die die niet geketent is lol🤔🤔😉😉
kast in elkaar gezet en alleen van slaapkamer naar woonkamer gedragen💪💪 nu de rest nog😉😆😜😜
die marvel crap is niet echt mij ding
dat eeuwige trump geouwhoer van eva ik weet nu wel dat je geen fan van hem bent.
huh een vrouw die de voiceover is🤔🤔
die man mister steal you girl moet echt respect krijgen voor chicks up too the next🤔🤔
nu hopen dat sharon zich niet laat doen door jordi🤔🤔
ik ga lachen als alisa zoiets zegt als vriendschap voor jordy
dat blijkt 😉
nu weer hersenen doodmaken lol😉
wow dat meisje op kan goed zingen lol cool liedje wauw just wauw😉😉
dan zit je daar en mag je niks zeggen waarom zit je daar dan?🤔🤔
is een geweldig progamma met good job 😉😆
gaan jullie nog door met seizoen 5? nu shredder vermoord is? en fishface zijn stem is veranderd toch?
als dit kindertv was damn🤔 in mij tijd had je beugelbekie rocketpower whats with andy shin chan dat waren tijden😉😃😃😉
hoop zo op chili anders gaat portugal weer ijsland zijn stijl stelen
lol wees gewoon eerlijk😉 doet misschien pijn maar net als pleister moet het er in 1 keer af😆
zenden jullie deze zomer nog uit? en komt er nog een seizoen?🤔🤔
kinderen een stem?🤔🤔 in mij tijd moest je gewoon doen wat de juf of meester zei. als je kinderen alles laat beslissen🤔🤔
ah man mijn ijzer net te laag god damn it mij bloed red levens 😔😔 baby
jullie moeten meer progamma,s na nederland halen zoals are you the one maar dan nederlands gouden tip😉😆😆
jordi helpen? serieus die man is gestoord ziet dingen die er niet zijn bas🤔🤔🤔
alisa die 2 dagen waren echt wauw 😆😆 lol hahaha love her bas gedist
jordi bang voor dieren serieus?😆😆 zal vast nooit een paarde nmeisje gedate hebben lol😉
waarom die boliling muziek steeds op de achtergrond😣😣😣
die cliffhangers van thuis worden met de jaren zieker lol😉 alleen tamara in de clifhanger😔
yeah heavy metal rules heerlijk om te luisteren lol leuk om de duistere kant te zien van tine te zien lol😉😉😎😎
nog een verdediger en we zijn er ben zelf niet zo onder de indruk van ginkel zie liever hendrix propper en ramselaar
ook die ene waar die opa zich voor de auto gooit😉😆😆 lol
hannah serieus je kan hem ook loslaten die mister 😆 nu ziet iedereen wie hij is. dus geen chicks buiten het progamma lol😉😉
return off mister steal you girl wat een bijnaam ook 😆😆
lol ja vast😉😉 en ook gewoon blijven wachten lol
dit geloof ik gewoon niet ben je bezig komt er iemand kijken serieus nikki?
voel je je rot nikki? karma duddette van wat je alisa heb aangedaan geen medelijden met je
ben geen fan van nikki maar die bas mijn hemel🤔🤔
ja eindelijk de ex van nikki eat it hoop dat ze gaat branden😆😆
ik wil ook aan meedoen coole moves. en kan ik mij kracht en lenigheid testen 😉😉😃😃
dat meen je niet van alle psvers😣
van alle psvers waarom hij ?🤔🤔😣😣
eindelijk nikki krijgt volgende week karma voor wat ze alisa aandeed 2 weken terug
wow verloofde van yoshi dit is echt de hell lol
aan de andere kant nikki is ook niet zo aardig van nature die mag wel wat hell ervaringen opdoen daar
hoeveelste keer van bas is dit dat hij het een soort van uitmaakt? alisa nikki🤔🤔
lol een waarzegster really serieus 😆😆
wat is het toch een geweldige keeper die hart van engeland man die vrije ballen had me ma nog gepakt🙃🙃🙃
check this out en hoe goed ze schakelt tussen de stemmen ze heeft dumpert gehaaldt 😉
1 van mij crush back in the day als 😍😍😍 leuk interview ze kan zelfs een jongenstem doen lol😆
als het mij kind was had ik al zijn botten gebroken😡😡😡
dat een partner je kan vermoorden waar je eerst zoveel van hield? damn🤔🤔🤔
nu even wat serieus kijken