gewonnen, dus nu is het grappig om te kijken
samenvatting van het voetbal van vanavond in 24 seconden
ze hebben een compilatie gemaakt van jouw fifaacties. van de lijn!
hahaha inderdaad.
nu al zin in schwaab en isimat zaterdag
pikken we nog ff mee op de valreep
snap ik met messi op de training
goeie vraag
hahaha, altijd leuk
genieten
dat hebben wij ook altijd, alleen met everton komen we er nooit uit
de tweede.. je hoort het goed goed verdedigd
gewoon ff kijken
dat mogen ze in onze carrière ook wel eens doen
kan toch niet dit.
haha, dan viel bulgarije nederland nog mee
inderdaad, heerlijk
tja, hebbon
ff seconde 11 tm 16 kijken p
ik heb het hoogtepunt al gezien gelukkig, is zonder geluid. ff zoeken...
en deze
wat kost zon seizoenskaart, hoelang is het met de trein en hebben ze daar een bk?
hij deed mee
deze bedoelde ik
ze hebben het gezien gisteren
heerlijk, welterusten
gewoon schwaab, de wijs en alberto erbij zetten
gaat lekker, hahahahahahaha. oh, fuck, bayern...
dit filmpje zegt nog niks, maar ja ola schoot in het filmpje toen alle vrije trappen er in..
hebben we voor gekeken.... kun je p.p. ook een seizoen bij fce voor zitten
hoor dit al dagen, zit ie op de bank...
gewoon ff keertje kijken joh, is leuk
helaas mis ik de eerste prijs van het nieuwe seizoen..
hoeveel van deze ballen zouden zelfs niet over lamprou heen de goal in gaan? allemaal?
gewoon ff kijken. de eerste keer dat ik er om kan lachen
voor als je niet genoeg kunt krijgen van afgelopen zondag, nog even genieten
haha, gelukkig
deze had ik het over
.... ook even reactie op dat bericht kijken
vooral die laatste, de penalty
subotic ook meteen halen dan
30 voorsprong...
scheelt weer massaal letterlijk naar boven kijken
volgend seizoen weer dus..
met deze bemoedigende woorden in mijn achterhoofd op weg naar
even de reacties lezen p
nu nog omrekenen naar gulden? wakker worden, het is al 2016.
hahaha, blijft mooi
nog 1 keer kijken
ik kijk niet graag goed voetbal.
deze live gezien? niet normaal
ja, dat kan gewoon. weet ik voldoende. dankjulliewel!
verlengd, nieuw abbo, zelfde nr. via site geactiveerd. heb wel netwerk. volgens brief zou ik bevestigingssms moeten krijgen
nee, had al contract bij jullie.
mijn abbo liep gisteren af, heb een nieuwe simkaart binnengekregen en geactiveerd. alleen heb geen bevestigingssms ontvangen.
aad heeft altijd gelijk, dus het wordt niks.
eerst vieira bij nycfc, nu dit..
vandaar dat... nou ja, dat dus
vandaar dat we niks zagen
dat dachten ze bij de nstwittert ook, alleen verwoordden ze dat anders
om 2245 al 5 minuten voor een station met 14 perrons stilstaan omdat er nog een trein op het perron staat. go .
deze misschien? of is dat te verwarrend?
heeft ook een goede conditie en is snel, dan ja
zaterdag nieuwe carrière beginnen dan maar?
is ook dit seizoen weer een fantastisch programma!
ik ken nog een goeie opticien.. ga je misschien beter van zoeken
haha, zo is dat!
wat gaan en doen zondag?
lijkt me prima. ergonomisch gezien niet handig i.v.m. constant draaien van de nek niet verwarren met nec
pino?
heb ik mares nooit zien doen
deze niet
zonde van ons geld
lekker
enige? denk het niet
zware? haha, ze maken hem gewoon
deze reactie tot slot
kijken dan
dit kan echt niet hoor..
maar even serieus, dit lijkt toch nergens op? nederland kan nog geen 3x overspelen naar elkaar..
doen? kunnen we een seizoen lang 2x/week wij staan bovenaan en helemaal niets in rotterdam zingen.
doet dus mee voor spek en bonen? nice.
haha, inderdaad p
och, is het weer zover? zit ik ineens middenin een uitzending van ajaks tv
hier in het zuiden ¶
haha jongens, ik stop, ik ga vissen, houdoe! oud eric gerets 60 kondigt pensioen aan ik ga vissen
ongelofelijk. helemaal terecht!
heeft alweer 1x gezegd, pff..
lekker verdedigd hoor!
uhu, klopt. reijnen sc cambuur is geen real madrid
wie is hier de verslaggever? speelt toornstra op 10? karsdorp hangend op rechts? en boulahrouz rechtsback?
vroegâh, toen 514 gewoon kon van zondag op maandag
is dus normaal en groentela. rare naam eigenlijk voor de koude biervoorraad.
mag wat kosten politie melding van gijzeling is aanleiding voor inval maar melding bleek loos alarm.
glibberen en glijden naar huis toe!
whut?! nijmegenden bosch vertraging en uitval van treinen door een fiets die vast zit onder de
ho! ho! ho! niet vergeten! kijken vanavond! met de r van ronald 2014 vr 26 dec, 2235 uur op npo 1
trein vught &gt den bosch vertrok 711 i.p.v. 713, nog liever 2 minuten later dan dit. ligt niet aan mn horloge
zeau, puntenverlies voor ajax, nu tijd voor southamptoncity
definitief psvfeyenoord opnieuw uitgesteld. geen topper in het philips stadion op dinsdagavond.
dat je nog even iets voor stage wil doen op je laptop, maat dat je dan alleen kunt zitten op zon stang bij de deur of grond...
de kleinste trein die ze hadden, is ingezet tussen nijmegenoss..
haha, natuurlijk. het account is gehackt. eerder verschenen tweet is niet van hem.
daar issie weer! het blijft een klassieker, deze. elk jaar weer goed voor n glimlach!
kou, regen, wind.. precies een jaar geleden warm, zon, turkije, zwembad.. het kan verkeren.
heeft iemand een baan voor sjaak polak? de tranen staan in mijn ogen..
lekkerrr! om 9.00 uur aan de spaghetti, best vroeg?
dat dus. en je kunt ook vaststellen dat de wissel maher voor hiljemark dus gewoon slecht uitpakt bij
wij gaan dan naar eindhoven manolev terug in eindhoven! haha. speelt bij dinamo moskou.
theo serieus? pff, ga nou eens met pensioen!
lekker
het erge is dat je straks toch gaat zitten kijken hè.
bah, niet voor tijdens het eten paul george injury last night!
bijna
na dag werken, verstand op 0 en lui op de bank kijken.. niks mis mee
net een geweest binnen 20 minuten van station naar perry sport gelopen, sporttas gekocht en weer terug naar station gelopen.
louis is een
de tering, wat is het of iemand ff een raam open wil zetten in de maar goed wel
hahaha, natuurlijk. cillessen staat na het wk onder de lat bij real madrid
aan om alvast in de stemming te komen voor vanavond..
haha, gelukkig hebben we jack van gelder nog
bij deze bedank ik voor de 10 minuten vertraging, gelukkig komt er toch geen voetbal op tv ofzo.. 1810 thuis.
speelt wel erg matig zeg..
goed bezig! gefeliciteerd
johan cruijff als italianen één kans krijgen, maken ze er twee.
lekker jack hoort ons op dit moment niet.. goed begin van het
dat zag niemand aankomen! goed geheim gebleven officieel louis van gaal is de nieuwe manager van manchester united
iedereen van die juicht schaam je kapot. oioioi.
oioioi, dat wordt wat vanavond frituur, bier, chips, notjes, barça atléti en de vos.. 2 keer 45 minuten genieten.
of het hoort zo rode vlak rechts en ik moet er aan wennen, dat kan ook
het geluid bij filmpje over reclamedeals zie foto, tijdens jingles praten, gekleurd vak bij het weer.
over 24 uur zijn we al bijna een helft volop aan het genieten..
of ik kijk toevallig naar een slechte uitzending, of ze lopen voortaan te prutsen bij
lacht ons uit.. de vermoedelijke opstelling van oranje tegen ecuador morgen
ontzettend irritant, hoeveel zal die krijgen per keer? koeman die steevast kool blijft zeggen
de vos! dat wordt genieten.
barbarbar slecht@joerybo holland casino lijdt recordverlies, dat ligt in ieder geval niet aan de bezoekjes van aan het casino
ze mogen wel op mijn stoeltje gaan zitten of ze willen ruiz nog een jaar huren omdat die zo goed was tegen feyenoord.
maakt morgen bekend dat de prijzen voor seizoenkaarten omhoog gaan. prijsverhoging gemiddeld ongeveer 2,5 %.
vandaag een lange dag cursus op school met en dat op vrijdag..
schande, alweer 2 wedstrijden achter elkaar slappe hap.
begrijp ik, hopen dat psv ook snel uit die vertraging komt
ja, laten we beginnen het friese volkslied. je moet er van houden zoals ik. gaat beginnen.
hoelaat zal ik in db aankomen? zal de bussen inzetten of sta ik een paar uur in
voor voetbalwedstrijd wordt vaak foto van leeg stadion getweet met tekst nu nog rustig.. vandaar copyright
nieuw seizoen wat een mensen zeg
jack arsenal mist jack wilshere een week of zes. breuk in zn voet opgelopen tegen denemarken, gisteravond.
moet je met gewoon stagelopen, is de bus te laat en is de verwarming in de bus kapot.
utrechttwente, feyenoordajaks en atléticoreal.. ik vermaak me wel vanmiddag!
pff, nog langer.. wijnaldum is waarschijnlijk nog een aantal weken uitgeschakeld bij rugblessure is deels terug.
heerlijk begin!
topaankoop! kost een paar centen, maar dan heb je wel een goal tegen
lichten bij vallen uit, ziet er gezellig uit
als zijnde schaam ik me kapot
handige waarschuwing vandaag gaan militairen van de landmacht bij de ijzeren man met boten oefenen. kans op luide knallen en rook.
1 lingobal kost €150,? dat verandert het kijken naar voorgoed.
neem aan dat vandaag ontslag neemt? of heeft hij hier nog zin in?
haha, tempo van wawrinka ligt hoger dan bij een gemiddeld gabberfeest. wat een fantastische start.
weg lees ik.. zonde, laatste hoop op terugkeer in is weg. nu wachten totdat een topclub hem oppikt..
lekkere muziek in de bus, van degene die een paar stoelen verder zit.. hè?! of die wat zachter kan. of doe je ook aan verzoeknummers?.
een nieuw jaar, een nieuwe das logisch.
op naar de laatste van dit jaar, nog één keer genieten..
zojuist een nieuw woord geleerd, leuk voor overeenstemmingbeoordelingsprocedure.
wel eindelijk weer eens wat vechtlust, vooral genoten van oscar is helaas gewoon beter.
tijd voor een heerlijke pot voetbal!
eens! vandaag met een aanhangwagen de moerdijk over rijden. dan ben je toch niet goed bij je paasei?
dat je met te lang haar een kapsalon binnenloopt en dat de kapster bij binnenkomst vraagt kan ik je helpen?
jonge gast voor mij checkt uit ritprijs €4,60. saldo €106,40. nooit gehoord van automatisch opladen?
waar kan ik tekenen? ik denk/vrees 30 is zeker van zn zaak. 11. en nu op naar de kuip.
in de trein onderweg naar de van de om te helpen bij eerst en dan ben ik er klaar voor!
zegt nou dat die er een paar uit de basis gaat flikkeren voor zondag? het zal toch zeker niet...
wat is dat alarm dat afgaat in de buurt van
ff wakker worden met blijf je vana, na, na, na, navond bij mij
haha, ben benieuwd hoe dat smaakt. en ben benieuwd wat de maker van deze kop heeft gewonnen in de weddenschap om dit te doen.
jaja, ze maken hem! werknemers unox vrezen bij caoonderhandelingen worst case scenario
op vi.nl je vraagt je af hoeveel leermomentjes ik nodig heb. eeh, ja inderdaad.
pff, nog één.@jeroenkapteijns jetro willems haakt met knieklachten af bij oranje. blessurelijst wordt voorlopig niet echt korter bij
aanrader
goede trainingsaanpak van bijna het hele elftal is dit seizoen wel eens geblesseerd geweest bij
bij 1/2 bedoelde ik uiteraard 140114 als datum van aflopen van mijn abbo
2/2 als mijn abbo binnen 4 maanden afloopt. dus ik kan nu niet online verlengen, terwijl dat wel zou moeten kunnen.. wat nu?
1/2vaker gehoord probleem wil mijn abbo verlengen loopt 140113 af, maar geeft aan dat dat pas kan
je abbo van willen verlengen maar door een probleem dit online niet kunnen en in een winkel niet geholpen kunnen worden.
tis allemaal nie om aan te gluren inderdaad.. teams als zwolle, groningen en roda doen gewoon mee om de eerste plaatsen
wederom het aangluren niet waard, alsof je naar de zit te kijken. daar betaal je dan zoveel geld voor..
oioioi kansloos verdedigen en amper iets creëren.. 2x klop van in een week tijd, pff. doe mij en maar.
in de basis, mooi! wat heb ik hem gemist, nu krijgt weer minimaal 5 redelijke/goede voorzetten per wedstrijd.
ah, alle seinen zijn kapot, dus nog meer vertraging.. geef mij dat maar om de tijd te doden.
nu staan we met die trein ook nog eens stil bij een overweg,
17 minuten vertraging hebben en dan in die trein aankomen met een voor de dan heb je lef
voor welk goed doel dit keer? zou iemand ooit nog aan waylon denken als hij niet in ieder tvprogramma op zou dagen?
terug in nederland na een mooie week turkije nu snel weg uit dit lilleke amsterdam en op naar het mooie zuiden
mooie kool? hoppa. feyenoord gelijk. vind ik vooral leuk voor wat stond die weer te zeiken zeg.
en in engeland gaan ze lekker verder met uitlachen, heerlijk david moyes next week
mooi om de mee te maken, 2h en 15min. is niet slecht gezien de voorbereiding nu bijkomen.
zeau, nog een dag werken, dagje aan school werken en zondag de ff lopen en dan een week
onderweg naar om daar een voorlichting te geven over op de voorlichtingsavond van het
ronaldoooooo! 23, wat een slotfase!
oioioi schaam je!
pff, keepertje hoor
wekelijkse tweet wij accepteren schikkingsvoorstel aanklager betaald voetbal. naam speler is hierdoor tegen ... geschorst
toch raar dat tegelijk valt met oma en de hond verwennen met een wandeling en traktatie?
sprinter rijdt ergens tussen den bosch en tilburg en dan hoor je die stem het volgende station is utrecht lunetten.
eerst een teleurstellend seizoen waarin verlengd ipv dat die ontslagen wordt en dan nu ineens ontslaan?
dat ligt aan theo zelf. maar een doek voor zijn mond lijkt me overigens prima
das waar, maar dan hebben wij gewoon een ander beeld van de functie van een commentator.
dat blijft raar om te zien ja, niet dat op kunnen brengen tegen az en cambuur etc. maar wel tegen ajax..
denk dat er ook geen rekening mee houdt dat er zo onderdoor springt, maar stond inderdaad te ver naar voren..
de beste keeper van staat eindelijk weer onder de lat! hopen dat ik hier over 40 minuten nog steeds zo over denk..
vanavond naar javier in de in zin in!
en genoeg landen waar het wel goed gaat met treinen.. de duitsers zijn daar allemaal een stuk beter in, zelfs in nederland
ja hoor het is weer zover, de faalt. vertragingen en uiteindelijk allerlei tegenstrijdige info wat nou de ic is en wat de sprinter
het weekend wordt steeds gekker.. mario balotelli mist een strafschop!!!
neem aan dat frank de boer de positieve punten weer meeneemt naar de bekerwedstrijd tegen volendam
voorspellende gave, om 16.38 dit tweeten heb zon idee dat vermeer een hoofdrol gaat spelen.
heb ik gedaan, jammer dat er weinig tijd was voor de lezing, voor mijn gevoel bleef het nu wat oppervlakkig.
onderweg naar health &amp technology in arnhem, benieuwd of het interessant wordt of dat er keihard open deuren worden ingetrapt.
ligt vandaag in de winkel en ik heb het te druk met school om hem te gaan halen en m te spelen..
haha, dat eerste is niet slim.. maar je huiswerk niet af hebben, maakt toch niet uit zolang je maar goeie punten haalt
goed bezig wat heb je allemaal uitgespookt?
wakker. op naar eindhoven voor het eerste oefentoernooi van het jaar.
laat zich rood aannaaien door een paar willem 2 supporters.. ongelofelijk, totaal ongeschikt voor die gast.
wat verdedigt jong dramatisch zeg bij dode spelmomenten..
3 jaar gescout.. pff. bij jong wordt santiago weer als een clown uitgespeeld, 20 voor willem ii door boymans.
had louis verwacht dat je met de vrij, martins indi, willems, strootman en schaars in één team aanvallend genoeg kan brengen?
zeau,
ah, de sprinter van vughtdb is kapot en die van vughtboxtel is 5 minuten te laat, we zijn er weer hoor! lekker
het is toch een hele week goed gegaan om met de trein naar school te gaan, maar het eerste half uur vertraging is een feit!
het is eigenlijk geen tweet waard..
om 23.00 uur barcelonaatlético. met neymar én messi voor het eerst in officieel duel samen in de basis. voetbalporno.
flink gelachen, goed programma!
wat een saaie pot zeg, pff.. maar we houden vol!
henk prima en leuk interview na de wedstrijd!
staat laatste
wat een waardeloze commentator zeg van bij spelers krijgen elkaars naam en worden ook nog eens verkeerd uitgesproken..
ondanks de enorme regenval, tot nu toe een leuke pot om naar te kijken het gezicht van die in de regen zit als hoogtepunt
intussen heeft pec zwolle nog steeds meer punten dan ajax en feyenoord bij elkaar.
willem gaat voorlopig niet redden denk ik, met op goal blijft het lastig..
hahaha! nu ook te horen broers van de kerkhof ‘dit psv kan de champions league winnen’
weet iemand ondertussen al wat op zijn hoofd heeft?
deze hoort zonder twijfel in oranje.
al zin om te beachen vanavond?
vind ik nou een heerlijk programma voor de zondagochtend om rustig wakker te worden..
jaa! we worden kampioen! 01
theo reitsma?! pff, ga eens met pensioen!
klatst alle clichés er weer uit, heerlijk!
pff wat een blunder van
ik ben heel benieuwd
tikkie breed, tikkie terug..@pieterzwartnl niklas moisander verstuurde vandaag 150 passes, waarvan 98% een medespeler bereikte.
jezus, ademt zij wel?
gaan ze het nou over egypte hebben? pff.. doe mij maar vrouwen die over praten!
haha! ze is wel lekker vrolijk ik weet niet wat er fouter is, tegen porno zijn of een tuinbroek aantrekken naar
helemaal eens, behalve dat het is
ik ben er nog niet uit of ik blijf kijken of niet..
mooie pot voetbal! 23 83 en gescoorde en gemiste pingel anderlecht
dus tijd voor ronald
weet iemand al wat op zijn hoofd heeft?
ohja het is ipv om het makkelijker te maken.
dadelijk toch maar de aanschouwen tot de 20
bij vi waren ze al goed wakker vanochtend breaking news...
leuk dat die alles retweet over zn mooie goal waarbij hij vrij mag schieten, maar kan zich beter focussen op het team 14
stappen er überhaupt wel spelers uit die op de van spelers hè, geen jeugdspelers die in het tweede ballen.
bij en een bezoekje aan prima uitzending!
ik zie maar één sportheld “@johnvanlottum met koning zlatan !! ” twee sporthelden bij elkaar!
zo, die is binnen. op naar de volgende voorronde loot tegen zultewaregem in de champions league. moet te doen zijn!
das meer zijn niveau.. boy gaat voor 2 jaar naar karabükspor, de nummer 15 van turkije. bron vi
is er iemand die al vanaf 13.00 live zit te kijken?
we worden kampioen!@rikelfrink ruststand arminia bielefeld psv is 30. blamerende eerste helft van psv tegen club uit de 2e bundesliga.
oranjevrouwen trekken veel bekijks maar liefst 770.000 nederlanders keken gisteravond naar
ooit fit geweest dan? op zon warme dag is een laat rondje heerlijk
vanaf donderdag draaien er geen films meer bij jullie volgens de site?
topscorer van het toernooi. 4 tegen
wat een geweldige wedstrijd was dit zeg..
jammer dat ik de finale niet kan zien. misschien morgen ff terugkijken da zou ik zikkers doen ja, wat een wedstrijd
wat een begin zeg
nu eindelijk, kom maar op! ik ben voor
jack van kreeg het nog net zn strot uit dat een goede aankoop is voor
om het in te luiden even traditiegetrouw met op de achtergrond knallen.
op vrijdagavond lekker aan school aan het werken gelukkig op de achtergrond wel
gaat lekker rugbyen bij city. 3,5 miljoen na twee hele slechte jaren, lijkt me prima!
op het ek#vrouwenvoetbal onder 17 kijken.. ff verstand op 0 en straks beginnen met het laatste verslag van het schooljaar.
benieuwd of het met rust al beslist is.. of zal italië kunnen verrassen zonder malle mario?
enige indicatie wat gekost heeft voor
naar kom op zeg.. das alleen handig voor de breedte als hij gratis is.
valt in en scoort binnen een paar minuten!
hoe belabberd het gras in erbij ligt zeg.
raar dat ik twijfel over zn voetbalkennis? bedoel meer of het bijzonder is dat ze scoren.
zo, ik zit klaar voor de topper van de dag tahitinigeria
vandaag weer helpen op de het opstarten op mn vrije zaterdag blijft lastig, maar over 2u ben ik er klaar voor
kijk, aan zulke teksten heb je iets als je nog ff voordat je gaat slapen op twitter kijkt kira wuck!
haha of toch een alternatieve straf voor messi twee jaar stoke city.
jammer dat we er door de witte vlek precies in het midden weinig van kunnen zien..
lekker rustig tennis kijken
aha, van 1,5 week turkije word je wel bruin ja.. wel lekker dan!
en we hebben amper zon gehad tot nu toe, hoe kan dat dan? o
in de schaduw is geen zon
applaus voor robin die in het interview in de een keer niet zegt dat hij zo vaak een slechte loting heeft.
nu toch echt zo goed als officieel terug bij dat wordt weer genieten
ik citeer de station rrrosmalen.
lekker veel blabla en in elkaar gemept worden, haha!