ik heb net een dm gestuurd, dank alvast!
woensdag heb ik een url gekocht, maar registratie is nog niet afgerond. kunnen jullie status checken? ik heb wat haast 🙂 dank!
fijn licht ochtendleesvoer
ik had 2 artikelen besteld, maar zit maar 1 in de doos. wat nu?
ah, dank voor de verduidelijking! zou de doorspoelbeperking voor commerciële zenders dan afgeschaft mogen worden? 🙂
als ik via tvgids iets terug wil kijken, dan start het altijd +/ 8 min. te vroeg. staat dit al op de bug list?
yes, net gestuurd
vanochtend telefonisch contractverlenging besproken, maar beloofde bevestingsmail met overzicht heb ik niet ontvangen. help please
is er wat aan de hand met bustraject adamamstelveen? oa 170172174 veel reizigers wachten zonder dat er bussen komen
dank, gisteren telefonisch ook al contact gehad en zending moet inderdaad eerst aangeboden voor retour. zonde van de benzine 🙃
door logistieke storing wordt m’n gekoeld pakket morgen pas afgeleverd. ik ben dan niet thuiskan ik ergens de aflevering aanpassen?
yes, net dm gestuurd
gisteren via fb chatbot standen doorgegeven, maar heb nog geen bevestiging ontvangen per email…
oei blokker en marskramer sluiten 200 winkels, 1.900 banen weg
lekker hoor hemas rookworstvlaai voor 10 personen
scherp! inderdaad mooi om dat te benoemen goed voor linkedin endorsement 😄
leuk artikel yoshi, kan het van dichtbij beamen
hema’s megaoperatie technologie en werkwijzen grondig aangepakt
😄 tvreclame google home activeert per abuis luidsprekers in huizen
bedankt, ik ben het direct aan het downloaden
bedankt alvast. bestelling was rond 15.30u en wil het graag downloaden voor morgen 18u 🙂
dag na bestelling is status nog steeds ‘betaling wordt verwerkt maar wij hebben de bijschrijving nog niet ontvangen.‘ wat nu?
bedankt, zojuist dm met alle info gestuurd
dit weekend ovfiets gehuurd en ingeleverd, krijg nu mail dat ik fiets nog in bezit heb. wat nu?
volgens mij had ik juist inspiratie gekregen van pathe app die dat eerst wel had 😀
twitter verkoopt appontwikkelplatform fabric oa crashlytics aan google
oh damn ik loop achter..
nice! 22&amp23 maart naar conversions@google in dublin wie zie ik daar?
grote stroomstoring in amsterdam en omstreken nog 200.000 klanten zonder elektriciteit, grote problemen met het ov
haha, ik email mijn collegas nu over dit plan van aanpak!
stuur je mij daar een appje van dan?
abonnement todo tool weer voor een jaar verlengd nog steeds tevreden en geen idee hoe ik zonder zou kunnen werken
ik heb op 27 dec aanvraag voor onderdelen gedaan hebben jullie een status? 🙂 gaat om denon hifi ahc50ma bk music maniac inear
de top 10 online ergernissen in 2016 + 4 oplossingen
maandag is nieuwsbriefdag
dat was een goede dag met concept test met klanten uit de winkel!
en die zon was zo mooi!
ja hele logische stap! zelf ook blij dat de beslissing is genomen tijdje terug, stay tuned!
work in progress, achter de schermen al een mooi project om aan te werken! hema lanceert loyaliteitsprogramma
middagje workshoppen bij google google amsterdam in amsterdam, noordholland
gratis ijs zelfs lekker!
90 jaar verjaardagslunch strakkies at hoofdkantoor in amsterdam, noordholland
ja verkeerde woordkeus misschien.
true, maar zie dat nog niet veel bij webshops, jij?
vaak een ondergeschoven kindje qua beheer ja, maar heus wel veel mogelijk.
haha, das lang geleden!
feedback op de interne zoekfunctie “het is een orakel meer dan een zoekfunctie”
eerste keer verwarming aan sinds voorjaar ☃
burger op maandag breekt zo lekker de week burgermeester in amsterdam, noordholland
google gaat voor mobilefirst het is meedoen of afhaken!
thanks, da’s het doel!
ik heb vorige maand deze gekocht maar ben 1 oordopje in maat m kwijt. kan ik die los kopen?
dagje meewerken in winkel ijburg at in amsterdam, noordholland
house deep, tech, future, electro, progressive, normal ik houd het niet meer bij joh!
ben nu bij afl 5, en hoorde dat ze van s02 geen kopie wilde maken
zo beginnen met benieuwd!
at in amsterdam, noordholland
ik ben er alleen morgen 😁
geen goede voetbalavond s
graag even mij volgen zodat ik kan dm’en
da’s ook goed! zie dm
m’n betaling ging verkeerd, maar order is wel doorgekomen en heeft status ‘in behandeling’. is deze te annuleren? dank!
ja verbaasde ik mij ook over haha! tis in ieder geval een overzichtelijk document 😁
het is je vergeven. en waarschijnlijk wel ja!
beterschap! en idd zit weinig energie in laatste maanden..
hallo weer, ben ik misleid met de zonaankondiging?? ☀️😉
haha, kan ik mij voorstellen! ik mag tot nu toe nog niet klagen wat betreft processor en camera. kan natuurlijk altijd beter..
ja vanaf 4 begrijp ik dat maar vind het het geld niet waard om eerlijk te zijn..
m’n iphone 5s lijkt sprekend op de se, en de 7 valt wat tegen. oftewel jaartje simonly en de 8 volgend jaar verkennen 😀
leuk! altijd verrassend wanneer volgende episode is
komt misschien omdat ik iphone engels heb staan? heb wel een nl appleaccount en dus nl app store…
gefeliciteerd! alleen geen responsive website &amp link naar app is van thefork? lijkt mij verwarrend voor gebruikers?
ik zou €5 voor linkedin connectie vragen
knappe keuze! meerdere ervaringen rijker, en nu volledig focus en nieuwe mooie dingen?
slim van uber
wat is het lekker weer hé!
hier doen we het voor bij binnen half uur online bestelling klaar in winkel
geen diner maar feestje in dat geval dan
haha, er zal vast nog meer te vinden zijn. good find, deze mooie overlay case gaan we oppakken!
kijk, jij bent mobile first aan het kijken!
yes! nieuwe site van is live! benieuwd naar reacties en resultaten
leuk idee! ook daar horizonvervuiling denk ik
een tijdelijke windmolen 😀
hoe kom je aan deze foto? 😜
75 dagen zijn voorbij gevlogen bij 😀
de el niño viel in ieder geval in de smaak bij adam cs! 😊
hahahah
ik zit er niet helemaal bij vanaf het begin, dus dan zou m’n hoop bij de hema blog liggen
mooi compliment, dank! en we hebben mooie plannen
goed zoeken naar de grapjes
yeah! nieuwe hema website publieke beta is live! heb jij em al gezien?
ging ook om eerste indruk we hebben nog wel een wensenlijstje voor de komende tijd
scherp, dank! wat vind je er van?
heerlijk ff douchen zo na 3 dagen blubber bij wat helemaal top was! 😀
oei, ik zou bijna in m’n blubberkleding direct naar kantoor gaan! next time enjoy!
de groene heuvels
op naar
haha, tuurlijk! regen dat vandaag valt, valt morgen niet ☀️
heerlijk, ga ik ff 5 minuten naast je stoel stuiteren
zin in lekker eten. heb jij morgen bananenbrood mee?
jaaaa! psv informeert naar ziyech
wel buiten op terras met de zon neem ik aan? ☀️
dat verwacht ik ook haha! maar als alternatief heb ik zelf bananenbrood gemaakt jij ook nog gefeliciteerd leuke dag gehad?
apple werkt hard aan europese uitbreiding apple pay
met deze 5 oefeningen werk je efficiënter en voorkom je een burnout er is iets mis, we voelen het allemaal
gefeliciteerd met fw 6.0!
en natuurlijk ook
kleurrijk van buiten, zwart/wit van binnen
m’n moeder is heel blij met dit cadeau ⚽️😀 helemaal niets in amsterdam
ik geef mijn moeder vandaag het kampioenschap voor psv
ik had nog een bosje liggen in de keuken
dat begrijp ik en dat ga ik je uitlegen mn wortels werden slap dus wilde ze snel gebruiken d
zometeen mijn 1e experiment van zelfgemaakte wortelsap ervaren/overleven...
ja verbaasde mij ook
leuke herinnering precies 3 jaar geleden kwam mijn boek uit
klinkt als een rare bbq
zo. dat waren de eerste 2 maanden bij ecommerce tof!
goed idee consumentenbond wil losse vliegtickets overdraagbaar maken
ja, rss wordt helaas minder ondersteund tegenwoordig s
leuk dat je enthousiast bent! en idd dat is het lastige van papieren boek. goed alternatief is feedly
naar leuven! station amsterdam muiderpoort in amsterdam, noordholland
mijn mobiele assistent is een fan
oh, dat is inderdaad wel fijn.
succeswens mag altijd goed om te horen! ook reistijd ok?
jazeker! sinds 6 weken happy aan de slag als product ecommerce, zie
dank tristan! eerste 6 weken bevallen goed. en bij jou bij
heerlijke week tot nu tor bij begin lekker in m’n rol te komen 😀
ik spreek namens allen we kijken er naar uit d
als ik recept nou eens deel?
en dat allemaal op je vrije dag
kant van buiten amsterdam neem ik aan?
laten we morgen maar een fittie doen met en
morgen herkansing
beste blok bedoel je mijn blok mee? p tot morgen!
stiekem doe ik dat al een tijdje en moet ik er om lachen gefeliciteerd met je nieuwe huis!
ik wil dat helemaal niet weten joh
“rome is ook niet in parijs gebouwd” 😂
“de resultaten van onze webshop zouden prima zijn als we niet zoveel hoefden te investeren.”
fyi poortje 1.5 op station muiderpoort spoor 2/3 werkt niet goed helft gaat niet open. fijn weekend!
dank, fijn begin van de zaterdagochtend
ga ik ook lezen, leuke discussie
eens kijken of de kantine bij vanmiddag iets soortgelijks heeft
vind de comments hier ook nog wel interessant
oei “opnieuw reorganisatie bij winkelketen blokker, 390 banen weg”
aan guido heb je een goede!
aan deze late reactie begrijp je dat ik wat tijd tekort kom hoe gaat het boek?
helemaal duidelijk, helder.
dank! hoewel al 8 uur verder
week 6 al weer! at hoofdkantoor in amsterdam, noordholland
hoe activeer je de leden in je community? 22 tips
leuke vacature bij de voor community manager
een goede basis voor gelukkige gebruikers zo schrijf je een user story
dank alie, helemaal duidelijk.
ik heb op 23 maart 2 pakketten verstuurd naar maar status is nog steeds zending nog niet te volgen
dit weekend in de wondere wereld van pensioenoverdracht duiken...
idealapp laat gebruikers met qrcode betalen
is wittenburg op vrij wel open tot 19u volgens website? stond om 1845 voor dichte deur namelijk
jazeker, bevalt goed en mooie online ambities!
zeker weten!
zo. dat was de 1e maand bij leuheuk! 😀
ik denk het niet
op bezoek bij hema bakkerij benieuwd! hema bakkerijen
wat zijn die downloads via toch altijd lekker snel
alle mensen in rij kledingwinkel hadden blijkbaar geen backup...
en de consumenten zijn in paniek 😁
superhelden kijken met
heb de aanmelding inderdaad al enkele keren gedaan de afgelopen weken, dus ik dm zo met alle gegevens
sinds enkele weken heb ik naast mobiel ook een allesin1pakket. alleen kpncompleet werkt niet wil graag hbo kijken
supervet gedaan!
kinderen shoppen liever in de winkel dan online
zwaai je even naar rechts richting hq?
cool! succes!
daredevil s2 er doorheen gejast op naar nieuwe knaller!
dat was een nuttige én leuke scrum product owner training dank
handig check met builtwith met welke web technologieën een website gebouwd is
duur pleepapier moet beschermd worden 😎 coffeecompany javaplein
klopt inderdaad! functie is product owner ecommerce bezig met vernieuwingen webshop en app
dat is wel een desktop screenshot ipv mobile
zonder dollen jazeker! morgen en overmorgen ben ik bij filiaal linnaeusstraat te bewonderen 😎
bezig met hema basis kassatraining ik wil graag pinnen alstublieft! d
welkome nuancering hoewel iedereen op internet koopt steeg het marktaandeel met niet meer dan 1.3%
die nieuwe fietstunnel onder amsterdam cs is echt top zeg!
zo doet zalando aan conversieoptimalisatie op de productpagina
week 2! at hoofdkantoor in amsterdam, noordholland
yes! is back!
zeker! lekkere producten ook
eerste hulp bieden bij opzet nieuwe magentop webshop van bieren in amsterdam
klaar voor 4 uur knallen met ziggo dome
haha, dank! leuk dat je mij indirect financieel ondersteunt 😉 alles goed! leuke 1e week met mooi aankomend project
haha, die saaiheid is het niet! compenseer ik als ik een keer op bezoek bij bakkerij ga ^bm 🎂🍰
nou het ging meer over het online bestelproces van gebak haha! opletten dat ik niet elke dag wat meepik
leuke en afwisselende 4e dag bij grote strategie bijeenkomst, intro in gebak en meetings over apps
bedankt alain, jij ook!
geen probleem, maar ik liever dan verwijdering/nonactief in jullie database als dat kan om herhaling te voorkomen.
hi ik ontvang toch nog jullie papieren magazine. kan ik van de lijst?
dank, en dat lijkt mij inderdaad goede focus
handigste is vacature te delen en ja, volgens mij staan er de nodige verbeteringen op stapel
dank kim
bedankt martine! product owner van de door jou geliefde website
here we go! vandaag start bij at hoofdkantoor in amsterdam, noordholland
mooie en rustige aflevering weer van ‘langs de oevers van de yangtze’ doe je goed
haha, dat mag altijd dank!
leuk om te lezen enno! ik zou ook echt niet meer zonder kunnen
ja, vooral recensie de lonely planet voor de online werker spreekt mij erg aan
maar ok, ik zet de notificaties wel uit handig boekje lijkt mij dat!
ik heb alles over schutting geflikkerd dus dit is meer ontspanning dan werk haha
the dude
is dat familie enno? p
ja hoor es, moet ik daar ook al rekening mee houden!?! p
laatst 3 jaren eigenlijklijk al minder, alleen laatste maanden wat actiever geweest. rest vd familie blijft werkzaam
haha, ik verwacht dat daar anderen nu al mee bezig zijn
dank, vooral even doorwerken voor laatste puntjes op de i
zeker! en lekker dicht bij huis ook haha
dank, dat gaat vast lukken!
weet ik nog niet helemaal haha! maar de webshop is een goede kanshebber
jazeker! ik start maandag als product owner bij hema
jazeker! ik moet linkedin nog bijwerken, maar start maandag als product owner bij hema
historisch moment laatste werkdag bij at in alphen aan den rijn, zh
héérlijke maaltijd weer vandaag via
google adwords welkom top 4, vaarwel advertenties aan rechterkant
even acclimatiseren na weekje kaapverdië, maar zonnetje hier in 020 doet het goed! ☀️
never say never! misschien is m2 wel een sitecore commerce killer
dank dank! ja, het wordt afscheid van magento voor nu, maar blijft
historisch momentje vandaag laatste magento release die ik begeleid voor
vooral leuk! al tijdje professioneel niet meer met social bezig, dus was benieuwd naar huidige cases
nogmaals dank! 🍻
dat was een leuke 1e keer bij dank
voor het eerst present bij pakhuis in amsterdam, noordholland w/
ren een
thanks, zal wel niet hoogste op backlog staan
morgenavond maar mijn smc amsterdam meetup hoe krijg je leads door middel van social business?
nieuwe aanwinst verkennen van de 3 wijzen uit het oosten louie louie louie louie
zo, nu even tijd om webinar scrum van te kijken
dank voor de rt!
vraagje aan alle scrum helden wat is hét standaard boek over user stories?
nieuw leesvoer!
dank, vooral te danken aan designs van goed weekend!
we hebben je mobile template beetje gepimpt
vandaag weer blij en tevreden met
oh ik houd van ticketingsystemen
deze toestemming voor drive heb ik nog nooit gezien daarbij om eerlijk te zijn.. misschien relatief nieuw?
voor alles een eerste keer en ik zie dat het al opgelost door hulp van
de bedrijfsnaam bol wordt ook een verkorte url in je tweet heb dat zelf ook wel eens haha
ik begrijp het. er zullen in ieder geval klanten blij mee gemaakt worden
ik heb niet het idee dat het hoog in de backlog staat ik zie net mijn tweet van mei vorig jaar
waarom kan ik een wachtwoord langer dan 10 tekens kiezen? zo onveilig!
hoe kan ik het ontvangen van post van jullie stopzetten? heb genoeg aan de digitale kanalen dank alvast!
zal ik doen! jammer dat ik niet bij koffietijd was vanochtend om alvast mijn gezicht te laten zien.
monkey bob was er altijd al, alleen was de mailchimp monkey wat dominanter
het werd ook tijd
oh yes! mijn favo todo tool is volledig vernieuwd! de beta beviel goed, dus nu voor het echie!
mooie vacature volgens mij! morgen maar even reageren
kan ik voorstellen succes en plezier!
pasta al la norma van de altijd goede kok tony 🍴🍽
fijn toch weer dat
dingdong grootste ddosaanval ooit verstuurde 500 gigabit per seconde
had verwacht verwacht dat ie al eerder gesloten zou zijn obv snelheid loont. duidelijke vacature iig!
best tof die nieuwe treinradar in de app van
zeker, ken utrecht ook niet echt goed qua bars. tivoli altijd leuk!
zeyn is praktisch naast station
je hebt een goede ambassadeur in
haha, one step!
interessant cases en altijd leuk te spreken met en
op naar de station amsterdam muiderpoort in amsterdam, noordholland
magento 2 vs magento 1 wat je moet weten voor je overstapt
hehe
kassa in de administratiekosten
inderdaad, dat ja. ‘automation is de toekomst!’
op meerdere devices+plekken getest, en ondervind het nu weer zit. zit dus wss of in de applicatie, of iets met mijn user.
zekers! nu door naar fase 2 voor geoptimaliseerde frontend
nee, getest op meerdere browsers. telkens als ik inlog en naar programma ga, zijn de sprekers weg s
mission accomplished van deze ochtendrelease
heerlijke start!
en vooral goals, maar met deze stand kan ik leven
interessant de chatbot is het nieuwe marketingkanaal door
eens koesteren van de jeugd zullen ze hopelijk ook doen. ik ben de doelgroep niet meer dus let er niet zo op
ik vond het in ieder geval een fijne flexplek voor klein jaarlijks bedrag.
dat eerste. er zullen vast wel andere manieren zijn om dat te verbeteren, maar het viel mij gewoon op.
het heeft wel de speeltuinactiviteiten verminderd moet ik zeggen er waren eerst geen drempels.
ik gebruik ze amper haha. ligt er natuurlijk vooral aan met wie je wat wilt doen
beterschap! hopelijk snel herstel
jammer dat nieuwe locatie van de branderij geen tafels en bar heeft zeg! succes met verhuizing
dat kan het ook zijn voor de consument, alleen tegen bepaalde investeringen
handige cheat sheet om je linkedinprofiel te optimaliseren.
da’s een leuke vorm!
zonder dollen het begint te komen ja helaas.., maar de foto vertekent heb ik gehoord van objectieve? externen
maandag eerste versie mobile magento shop live werd tijd en kan niet wachten
in mijn persoonlijke beursplan worden mijn geselecteerde sprekers niet opgeslagen exposanten wel. hoe kan dat?
19 whatsapp trucs die je misschien niet kent??
unfollowfollowunfollowfollow jullie weten ook niet wat je wilt
dan is het maar goed dat je via die tweet aangeeft waar het te vinden is
print is toch dood?
weet niet wat je budget is, maar ik ben tevreden klant en fan van
kom ik opeens virtueel tegen!
dure reis om naar nederland te gaan
acht kijkshopfilialen omgebouwd tot neckermannwinkels
indrukwekkende aantallen
dat zijn wat call reductions
qua “gezond” bedoel je dus een “level playing field”. stuk van 3 jaar geleden lijkt inderdaad nog actueel ja!
goed stuk. gezien je laatste zin wat denk je dat gaat gebeuren?