vandaag ging de schop in de grond voor 26 appartementen voor jongvolwassenen in rosmalen. eindelijk!
ik wens jullie een goed d…
hadden kwetsbare kinderen ook maar een hugo borst
ik was in kenia in februari. de massai daar hebben het nu extreem zwaar door droogte, mensen en vee sterven doneer!
trots om aan deze app meegewerkt te hebben. superbelangrijk voor jongeren met hersenletsel!
van jou of van de burgemeester?
ik geloof dat deze tweet de afgelopen dagen wel 20 keer heeft gepost... beetje veel?
wat zit erin?
hersenz groeit naar zestig locaties via
tekort aan personeel heeft met loon te maken. flexen verdient meer dan vast dus kiest men daarvoor, slecht voor cli…
bij inspiratie opdoen voor peacec and justice. peter van uhm spreekt over verantwoordelijkheid om te kieze…
wat doe jij in de bosjes?
gewoon fietsen heren in dit dorp!
wat jammer, had de uitzending graag nog teruggezien.
maar hoe kan ik bv uitzending met vd laan terugzien online?
waar kan ik de vorige afleveringen van terugzien ??
geen telefoon en geen internet en een half uur wachttijd en pas maandag een monteur? geen beste beurt
storing rond den bosch? geen internet en geen telefoon en klantenservice niet bereikbaar?
wat zijn hiervan de consequenties voor het onderzoek?
stuitend en kortzichtig is het. ook is de dupe door wethouders die niet verder kijken dan de volgende ge…
herkenbaar. ons ouderinitiatief in telt bijna 50 aanmeldingen beschermd wonen maar heeft slechts 26…
onrust onder wajongeren over dreigende korting economie
goed plan. vorig jaar was een crisisaanbod nog een extra bed in de gang
goed plan, vorig jaar was een crisisaanbod nog een extra bed in de gang!
goeie journalistiek van maar vraag me oprecht af wat degene die gelekt heeft beoogt.
eindelijk zou ik zeggen
daar wordt aan gewerkt wat betreft
volgend jaar in de moskee samen?!
dapper om uit de kast te komen als katholiek. ik verliet de kerk. warmte, sociale bewogenheid maken leven mooier…
maar dat is het niet zoals je weet
lijkt me prima maar laten we vooral eerst zorg bieden en daarna kijken waar de rekening heen gaat
daar zal heel blij mee zijn, en met hem veel meer ondernemende wajongers!
en ondertussen 13 eurocent per woord betalen aan freelancers
kinderen de dupe, maar ook personeel dat hard werkt maar geen middelen krijgt &gtcrises&gtleegloop personeel &gtcrisis
fijn nieuws 21,5 miljoen euro extra voor jeugdhulp
hier hebben we toch drie jaar voor gewerkt! trots! mooi dat deze groep jonge mensen straks toffe plek hebben!
zowaar een lepelaar in het bossche broek
mooi initiatief! wist je dat er voor mensen met ook in denbosch behandeling is!
helaas is en blijft dit erg herkenbaar. veel goede wil, weinig visie en te daadwerkelijke samenwerking.
verlang naar aardige postbode ipv bezorger die weg verspert en auto stationair laten draaien. en je uitscheldt als je iets zegt
draag 25 euro bij aan en ontvang een gaaf boek met interviews van youngmasters of peace!
in young masters of peace vertellen acht jonge mensen waarom zij een nelson zijn. nu te koop!
vanavond eens kijken hoe onze oranje leeuwinnen het doen in galgenwaard
topmanier om snel iets te kunnen doen voor kwetsbare mensen bond wldbcommunity
tegen die tijd moet het ons toch wel weer lukken hoop ik fifa wil europa zestien tickets geven voor wk 2026
we konden er op wachten.
mooi, neem in dat overleg dan ook graag de lvbjeugd die geweigerd wordt in de wlz mee!
mijn pleegzoon wil wel maar zelfs in vso zijn klassen van meer dan 17 leerlingen
interessante opinie hoeveel storten de afrikaanse leiders eigenlijk op giro 555? via
en wie gaat staan voor jeugd die niet onder zorgkantoren valt? daar mag ook wel wat autoriteit aan te pas komen
even in verwarring over of
uitstekende longread! en nu aan de slag, ook ouders in die taskforce!
laat het in ieder geval iemand zijn die verder kijkt dan 020.
klinkt van bovenaf en als 1richtingsverkeer. oplossing ligt in regio, ism ouders en in wil zaken te doorbreken
we schuiven ze als hete aardappels en liefdeloos door. terwijl de oplossing op termijn niet duurder is. w…
dit blijft doorgaan omdat we niet kiezen om echt maatwerk te bieden maar alleen vanuit de opties van instellingen t…
ademinademuit
knap dat je zo positief kan blijven. en ik hoop vooral dat progressief nederland nu samen gaan werken!
links verliest dramatisch. winst groenlinks levert het land in sociaal opzicht zo niets op
start met zijn darmproblemen. en dan komt ook nog monasch voorbij. pffff
wie niet kan werken komt in de bijstand door uitgeklede wajong via
dank voor de tip! ik heb frans 30 jaar geleden in varanasi ontmoet en was toen al onder de indruk.
ik speel kamergotchi en ik moet voor sybrand zorgen en nu wil hij een pilletje uit leende. kamergotchi.nl
het klopt niet dat factuur van uit augustus 2016 nu pas ingediend is bij waardoor ik eigen risico 2017 kwijt ben
wat een goed en belangrijk initiatief! ploumen wil abortusmaatregel trump teniet doen via
leugens uit het witte huis en leugens uit het torentje over en dan verbaasd zijn dat het vertrouwen in de politiek zo afneemt
als we moeten doen of wegwezen van de is het dan niet ook tijd dat opstapt na zoveelste leugen
dat sinister wat wil!
tegenstanders van vaccinatie, lees deze voorbeelden en huiver via
op iedere baan past een beperking
en vooral een witte mannenwereld
lees meer over kabinet stelt 3,5 miljoen extra beschikbaar voor begeleiding naar werk
goed werk!
kijk, zo kan het ook!
help! heeft een secretaresse nodig
dat vindt de boze witte man vast fijn...
we moeten af van de angst om uitzonderingen te maken. wat ben ik blij dat daar in wel voor gekozen is!
mooi verhaal hoe ouders samen met kleinschalige zorgaanbieder liefdevolle zorg biedt aan daan
ik word zo moe van al die popups en advertenties van zorgverzekeringen. ik kies er denk een die niet zoveel zorggeld verspilt
hoe dan wel?
ik ben benieuwd naar een goede doorrekening van dit plan! basisinkomen voor 60plus via
wat was ook alweer de bedoeling? binnenlands bestuur
op zoek naar een slim cadeautje? niet verder zoeken
nik heeft genoeg van wijn en boekenbonnen
wachtlijsten beschermd wonen herkenbaar in denbosch. op onze lijst staan er 42 nu.
gelukkig maar, anders zouden twee oudere dames van 74 en 77 op straat staan
hieruit blijkt maar weer hoe nodig een progressieve samenwerking is!
nu de wereld de verkiezingen heeft verloren via
ik pleit voor stevige en constructieve samenwerking op links voor de verkiezingen in maart om een blok tevoren tege…
schippers ‘implementatie ehealth is een probleem’
idee om samen een progressief blok te vormen ipv te strijden tegen elkaar?
vraag patiënten welke ehealth tools nodig zijn
leven met een beperking in de participatiesamenleving
veel aandacht voor aangepast sporten in sportplan provincie via
echt een aanrader
al die mensen bij zon intake kosten ook geld en bovendien is het gesprek tussen client en psychiater privé.
het slimste cadeautje voor de feestdagen
’jongeren met beperking van kastje naar muur’ via
aanrader voor nieuwsgierige mensen
tijd voor actie en beschaving
trots om als communicatieadviseur een bijdrage te leveren aan en herman wijffels zelf met een brok in de k…
vandaag wordt duidelijk of hersenz winnaar wordt van de herman wijffels innovatieprijs 2016.
over bomen en het bos in ehealth vraag patiënten welke ehealth tools nodig zijn
kapitaalvernietiging in de zorg. geen aansluitende zorg na opname, geen dagbesteding, geen woonplek
hoorde vandaag voorbeeld van vrouw met die heen en weer geschoven wordt door wijkteam we kunnen het zelf wel,…
mogen we wat suggesties doen? logeeropvang
beste pvvstemmer, dit is ervoor nodig om uw partijprogramma te realiseren via
indrukwekkend verhaal
burgemeester steunt campagne
wat een burgerkracht is er toch in mooie maatschappelijke initiatieven vanuit de burgers zelf. bijeenkomst innovatiefonds
miljoenen in pgbpot gemeente den bosch onbesteed
ik ben niet op mijn achterhoofd gevallen en ik ben mondig genoeg, zegt
zit uit toch mooi bij om te praten over zijn droom ruimte voor talent…
zeker niet, kijk maar op nederlandonbeperkt.nu naar de panelleden
nik van hoogstraten uit een van de gezichten van in gesprek met de media
mooi, sluit ook goed aan op vgncampagne die donderdag start
banenafspraak is gemaakt om hier verandering in te brengen. juist daarom zijn recente cijfers nodig
dit zijn cijfers uit 2011... hoe is het nu na banenafspraak en participatiewet?
sjonge, jonge dit moeten we toch niet willen in nederland deel jeugdhulp almere stopt geen geld meer via
dat rechter nodig om te zeggen wat iedereen tijden ziet aankomen. rechter verbiedt wurgcontracten via
dat is heel mooi en heel nodig!
dat is heel mooi en heel nodig
mooi nieuws. hersenz, behandeling voor mensen met hersenletsel, is finalist herman wijffels innovatieprijs
ben ontzettend blij dat in door is doorgepakt en er een prachtplek is voor deze jongeren
miljoenen extra nodig voor jeugdzorg overijssel
is voor sommige mensen echt nodig..
politie stopt met opvang en vervoer van verwarde personen via
bij gehandicaptenzorg moet het individu weer centraal via
nieuw netwerk hersenletsel
reinoudvanuffelen.nl over doorpakken en doorzettingsmacht
inderdaad een ideale combinatie!
ik schreef eerder blog over astrik, bewoonster noodopvang. via
informeer eens bij
je houdt het tempo erin?
kleinschalige zorg, dichtbij en in vertrouwde omgeving met maatwerk voor de kids vind ik niet verkeerd.
gelukkig wordt in denbosch actie ondernomen door gemeente kwetsbare jeugd waarmee gesleept wordt krijgen snel een goede plek
dat klopt, maar ciz bepaalt toegang tot welke wet kind wordt toegelaten. en hanteert keiharde 1qgrens terwijl die niets zegt
ciz weigert lvber standaard als iq te hoog is, ook bij allerlei complexe problematiek erbij
hoe inclusief is dit gezelschap? nauwelijks vrouwen, nauwelijks kleur. toch jammer.
rijn roept op bij twijfel over jongeren met ingewikkelde multiproblemen cce in te schakelen gedaan maar nog steeds geen plek
zorg pompt moeilijke kinderen rond. gemeenten moeten regie nemen gelukkig lijkt dat in den bosch te gebeuren!
zelfredzaamheid werkt niet
buiten de boot?
nou ja, wales is ook een soort gallië in voetballand
als de belgen verliezen voelt het alsof ik opnieuw afscheid moet nemen van de poppys
hou op met werkgroepen verwarde mensen maar lever zorg! via
stroom uitgevallen in someren, hagel slaat autoruit stuk
heel goed! farmaceutische bedrijven krijgen flink hogere boete bij medicijntekort via
toch eigenlijk te gek voor woorden dat dat niet gebeurd weeg raad familie mee bij psychose en dwangverpleging
ik ben voor!
een kleine stap voorwaarts is voor sommigen groots!
goed voorstel van via
raket gaat arbeidsgehandicapten mét talenten lanceren
eindelijk een wethouder die doorpakt hier heb ik een jaar op gewacht!
chapeau! utrecht trekt meer geld uit voor beschermd wonen
goed initiatief, gaan we dat in ook doen de psycholance via
gelukkig wordt hard gewerkt aan goede oplossing! te weinig bedden in brabant voor complexe kinderen als jonas
of zorg dat er voldoende beschermd wonen wordt gerealiseerd!
ik zeg los de problemen op in de complexe jeugdzorg in de regio!
nou, daar kunnen toch wel wat knelpunten van opgelost worden
wie o wie neemt verantwoordelijkheid? zorg werkt slecht bij complexe problemen
laten we hopen dat het terugvloeien van deze pgbgelden gebruikt worden om knelpunten op te lossen in de jeugdzorg
instellingen trekken asn de bel bezuinigingen in gehandicaptensector zijn onaanvaardbaar via
afwentelgedrag wie doet iets? patiënt met complexe zorgvraag vindt moeilijk de weg via
hoeveel signalen moeten er nog komen ook in regio zorg werkt slecht bij complexe problemen
hersenz houdt komende weken diverse informatiebijeenkomsten in de regios. kijk op de website voor meer informatie.
ankie van hezewijk presenteert in volle zaal persoonlijk relaas over dementerende moeder
prachtig boekje over de dementie van haar moeder!
dank! ideetje voor sgl?
gemeenten aan zet investeer in beschermdwonen
voor swz maakte ik een brochure over mensen met hersenletsel die zorg krijgen van swz. indrukwekkende verhalen!
kijk, dit is toch echt top! christel uit hostel den bosch is toe aan nieuwe stap
jongerenplatform oosterpoort voert actie voor betere jeugdhulp jongvolwassenen
echt verder met
minister koenders vindt multiculturele wijk boschveld in den bosch inspirerend
herkenning moeten we wachten tot er iemand voor de trein springt?
blog echt verder met hersenletsel
beschaving? psychische hulpverleners moeten patiënten weigeren door te krap budget verzekeraars
kijken ! met de verkiezingen in in aantocht requiem for the american dream | idfa via
tijd voor vernieuwende ideeën rond beschermd wonen zoals bv chapeauwoonkringen
echt een juweeltje!
overeenkomst tussen en gemeente ? contracten van vijf jaar die rust geven aan zorgaanbieders! verdient navolging
goeie reportage bij over
dag ma! mooi kleinood voor wie met dementie te maken heeft of wil weten hoe dat als dochter of zoon is
slow down geldt niet voor
samenwerken in de zorg mei 2016
bijgepraat met van ze gaat vooral schrijven over zorg in de regio brabant, volgen dus!
nu nog ritwinst voor tsallingii
niet alleen de kamer hoop ik, toch vooral ook gemeenteraden v via
en 44% houdt geld over op jeugdzorg budget! is er daarom geen geschikte zorg voor complexe jeugd?
is het daarom zo moeilijk om geschikte dagbesteding en hulp te vinden?
vier uurtjes mantelzorgbureaucratie achter de rug met ellende, wachtlijsttelefoontjes en nutteloze aanmeldingen etc
iedereen schuift de meest complexe jongeren door, niemand neemt verantwoordelijkheid. dat moet aangepakt worden!
stoppen met die geldklopperij schippers bescherming farmaceuten te ver doorgeschoten via
apothekers willen maatregelen tegen schofterige praktijken farmaceuten via
dank voor de info!
maar verkeer staat wel stil richting den helder
utrecht wil asielzoekers meteen binden aan de stad via
we zoeken jonge mensen met hersenletsel die mee willen denken rt
steeds meer verwarde personen in den bosch, gemeente neemt extra maatregelen via
het gaat ook om het nare gevoel dat ambtenaar die je op straat tegenkomt alles van je weet via
het gaat ook om nare gevoel als ouder van zorgkind dat ambtenaar die je op straat ontmoet alles van je weet
ik moet een formulier invullen om het ciz in gebreke te stellen omdat ze te laat op spoedvraag om zorg hebben gereageerd
een spoedaanvraag bij ciz voor zorg duurt nu al ruim zeven weken...
veld geschokt door zuinigheid gemeenten
mooi!
zorgorganisatie verdacht van miljoenenfraude met pgb ad.nl via
zorginstelling pantein kondigt bezuinigingen aan 170 banen verdwijnen
zorgvrager komt bij gemeente terecht in bureaucratisch mijnenveld
goed dat hier onderste steen boven komt. bewindvoering moet betrouwbaar zijn. hier klopte veel niet weet ik.
cz nam aanvragers pgb terecht in bescherming tegen zorggroep helmond via
‘indicatiestellers pingpongen met jonge kinderen’
ik hoop dat jarenlange wachttijd zo slinkt cello wil nieuwbouw in den bosch waar jongeren volwassen kunnen worden
tsja.. niet echt gek toch wéér wachtlijst in de jeugdzorg ad.nl via
beschermd wonen verdient prioriteit, en goed respijtzorg voor de jeugd voorkomt later problemen.
verplicht leesvoer voor raadsleden en wethouders personen
met dank aan piet fiers en buro 3o in rosmalen die de keukendeur open zetten! top!
nu nog zorgen dat beschermd wonen ook echt verwezenlijkt wordt in
minder zorgkosten en meer tevreden cliënten na behandeling hersenletsel
mooie kans wachtlijst beschermdwonen aan te pakken! extra tijdelijke sociale huurwoningen in de groote vliet. zie
lees dit artikel uit nrc.next fraudebestendige zorg begint bij jezelf, overheid
tsja, morgen maar weer eens testen met vier nieuwe contracten en wat wijzigingen
ook vvd wil pgb op de schop nemen via
met alle respect marianne, ook heeft nog veel te leren als het om gaat
lees dit zeer herkenbare artikel uit ad &amp#39tot 2015 was mevrouw tevreden en ik gelukkig&amp#39
wat een schandalige ontwikkeling bij
zo hoort het
toch mooi nieuws mensen met hersenletsel en hun naasten hebben veel baat bij nieuwe behandeling hersenz!
groei aantal ‘verwarde personen’ is dubbelhartige ggz, zorgverzekeraars en overheid aan te rekenen
op zoek naar voorbeelden vermindering regeldruk jeugdzorg brabant. sorry, youre looking for something not there
dat is zeker herkenbaar.
er zijn wel verschillen hoor, noordoostbrabant en regio eindhoven zijn harder dan bv breda e.o
tijd voor politiek debat waarom kiest deze regio voor zware bezuiniging jeugdzorg thuiszitter 2 via tillyvuffelen
waarom kiest deze regio er toch voor om harder te bezuinigen op jeugdzorg? alarm om bezuinigingen reinier van arkel
vandaag was ik bij cello nog een crisisplek vrij op de gang, voor overprikkeld kind. en 5 jaar wachten op woonplek
ja, dus als of lapje grond overhebben voor 6 tijdelijke huizen, regelen we met pgb zelf zorg wel
ja, vijf jaar. voor de ingewikkelde onder ons...
ook even navraag gedaan voor crisisplek voor overprikkeld kind in regio er is nog één bed vrij, op de gang.
vandaag overleg over goede woonplek voor complex kind in de regio . ik moet rekening houden met een wachttijd van vijf jaar
ophouden met vergaderen, bezuinigingen temporiseren, stoppen met kafkaiaanse bureaucratie en gewoon zorg bieden
al twee jaar lang een wachtlijst van 30 jongvolwassenen in den bosch voor ouderproject project beschermd wonen.
mooie woorden, nu nog daden en burgerinitiatieven rond beschermd wonen echt ruim baan geven in den bosch
geestelijke gezondheidszorg gemeenten niet op orde /via beschermd wonen ook wachtlijsten in den bosch
hoeveel noodkreten wil je hebben? hou op met die loketten maar biedt zorg! nu
niet hoogbegaafd maar lvb
vooral op zoek naar geschikte maar dat is er nauwelijks
zoon14 is sinds vandaag hoop dat het goed komt
klachtenstroom stokt maar problemen pgbs blijven
of waardoor er goede zorg thuis ingezet kan worden terwijl ze jaren moeten wachten op een beschermde woonplek
kranten betalen freelancers hongerloon
geheim advies wijst uit zorgbudget blijft n rommeltje ad.nl via
of dat een pgbexpert vertelt tegen een jongvolwassene met complexe psychische problematiek dat hij heel duur is.
dat een medewerker van het bureau jeugd in de gemeente vraagt of autisme overgaat met een pilletje.
dat je clientondersteuner adviseert geen energie meer te steken in pgbaanvraag gemeente omdat t zinloos is
brabantse zorginstelling heeft primeur in strijd tegen papierwerk
martin van rijn, komt u nu ook uw oversteekdiploma inleveren? via dekennis
10.000 minderjarige vluchtelingen vermist in eu via nos
dit plaatje komt me helaas iets te bekend voor jeugdzorg in nederland anno 2016
ik zeg vergaderen op grote lijnen
grote zorgen pvda den bosch over beschermd wonen.
den bosch | zorgen over beschermd wonen
de wmoraad inventariseert knelpunten in jeugdzorg en wil ouders en cliënten horen. melden via info@adviesraadwmodenbosch.nl rt
zo zelfonderzoek houdt ggz gevangen via
goed verhaal in over beschermd wonen. tijd voor actie ons ouderinitiatief telt 35 wachtenden! al 2 jaar
broer van bossche ggzpatiënt die zelfmoord pleegde bezuinigen tot dood erop volgt
goed stuk over seksisme, racisme in relatie met vluchtelingendebat
burgemeester eist onderzoek zorginstelling na dood jesse
bedrijf failliet van vrouw achter via nrc
veel beginnende ggzkrachten krijgen alleen onkostenvergoeding via nunl
goirlese moeder streed zeven jaar voor goede zorg
waarom zo vaak herhalen, deze blog?
stijgend aantal rechtszaken wmogebruikers tegen gemeenten cijfers waalwijk en oss vallen op
herkenbaar rekening dubbel afgeschreven
advies wlz ook voor cliënten met psychiatrische problematiek openstellen
heftig en indrukwekkend
zo waar, ook door de ongelooflijke bureaucratische muur bij overheidsinstellingen.
en straks is men weer verbaasd dat er zoveel verwarde mensen rondlopen
reinier van arkel stopt met beschermd wonen psychiatrische patiënten in schijndel
huishoudelijke hulp is recht
is al gebeurd maar blijft zichtbaar in oude links geloof ik..
sp uden stelt vragen over bezuinigingen op specialistische hulp kinderen met autisme
393 doperwten via dekennis
vijf bestuurders boven de balkenendenorm via nos
tijd voor oud denken beheerst besturing decentraal stelsel via skipr
oplossing in zicht voor kinderen die noodgedwongen thuiszitten
benieuwd naar de uitkomst!
tegenkracht
misschien bij de oud directeur van der ree?
tegenkracht via tillyvuffelen
in heumensoord zitten veel christenen uit syrië die gewend zijn kerstmis te vieren. neef stijn heeft een mooi idee
tegenkracht
van fraude verdachte psychiater in helmond geschorst
bewindvoerders tsn sturen zeldzame brief naar tweede kamer via nrc