niet met een nieuw adres dat t systeem nog niet kent....
wil je verhuizing doorgeven bij kan alleen in de ochtend not
verwacht niet altijd een reactie, maakt t relaxter voor jezelf
super! 11 2017 mooi voetbal
zkt ervaren bewonersbegeleider projecten. tenminste 70% akkoord bij bewoners is jou niet vreemd!
erg bijzonder!
jammer.....niet doordacht in de weg
ook bij aandacht voor de
heeft iemand 2 vrijkaarten voor de beurs excellent luxury living eindhoven, komend weekend?
zoekt ben jij snel, deskundig en heb je veel kennis van
zoekt tijdelijk een projectleider bij de afdeling
hoofd wij zoeken een inspirerende en coachende leidinggevende
hoofd wij zoeken een inspirerende en coachende leidinggevende
vette start kracht van samenwerken
heb je kennis &amp ervaring met digitalisering &amp informatiemngt? coördinator
heb je kennis &amp ervaring met digitalisering &amp informatiemngt? coördinator
zkt klantbeheerder. heb jij ervaring met intern. studenten &amp online dienstverl.
op zoek naar een uitdaging? heeft senior
ben jij onze nieuwe collega met relevante werkervaring op afdeling?
wat? kan helaas niets zien 😳
directeur financiën &amp bedrijfsvoering bij nieuwe functie....
vanuit een onafhankelijke rol het financiele geweten van zijn
mijn lijstje zweden, engeland, nederland, rusland, australië
gaat t om t liedje of de jurk? kroatië
hoofd inspirator, resultaatgericht, coachend en ook zelf aan de slag in het werkveld
projectmdw bewoners begeleiden. je bent de ‘smeerolie’ &amp vertaler tussen techniek &amp klant.
heb jij leidinggevende ervaring? is op zoek naar hoofd administratie!
het is nu al onduidelijk in de kruisstraat! ben benieuwd wat daarvan geleerd is voor de volgende straat!
veel plezier!
zkt tijdelijke adviseur ervaren in boeimethodiek &amp conditieregistratie conform nen 2767
pff... nu liggen de zenders vanaf rtl 4 eruit, gecodeerd...@ziggowebcare
geen toegang tot dit kanaal myzen hd
en andere zenders zijn ook hd....die zijn goed
dank voor de suggesties maar daar nu geen tijd voor en raar dat t bij 1 zender is. is te omvangrijk om te doen
blokjes, soms zwart beeld, geen signaal en alleen bij deze zender
via televisie, kanaal 14
wat een slechte verbinding bij finale wereldkampioenschap handbal
hbo administratieve achtergrond, ervaring rondom servicekosten en excel specialist
bij psv!
hebbes! zo trots! 60 miljoen tegen 500 miljoen boeruhhhh
wat een geweldige speler lestienne! 👍🏻
dank voor de reactie. hoogstraat in eindhoven.
nooit gewerkt. je gebruikt toch geen vakjargon richting klanten?
wat betekent deze aankondiging bij de vleeswaren?
is jouw specialisme? klopt jouw hart sneller van
gestart met 3 dagen sportvasten
al 20 jaar corrupt bezig 😳
ben jij een en kent geen geheimen voor jou? heeft
eens, klaar met ...#esf15
klaar met ....
ben jij een en kent geen geheimen voor jou? heeft
wat blijft er over van het catharinaplein zoals t in oorsprong bedacht is? zonde van de investering!
wat een leuke verrassing. ontvangen voor mn feedback 👍🏻
eens!
kennis van administratie? zoekt een medewerker rapportage &amp analyse. lees onze
kennis van administratie? zoekt een medewerker rapportage &amp analyse. lees onze
ben jij 3e jaars en op zoek naar een uitdagende dan zoekt jou.
niet handig, de schermen zijn op de tweede ring, rij 13 niet te zien
wil jij als senior medewerker rapportage &amp analyse bij aan de slag? lees dan hier de
goed idee! is wel beter maar spetterend is het niet. denk dat hiljemark straks weer erbij moet ipv maher.
woonbedrijf zoekt projectleider met ervaring in renovatieprojecten
“@geertjep ben nog gewoon aan het werk, 1e klas stilte coupe vol gillende kinderen” misschien helpt aanspreken?
tv signaal. per week meerdere keren niet helder..
en wat heb je nu?
pfff wat een slecht signaal. zo wisselend qua kwaliteit... al maanden...
ben jij dé senior medewerker die ervaren is met heeft een
verrassing! leuke verjaardagskaart ontvangen van de wat attent
zoekt projectmedewerker bewonersbegeleiden, ben jij de geschikte kandidaat? lees dan onze
wil jij werken als medewerker financiële verslaglegging bij lees dan onze
wat een sufferd! depay!! iets verder denken dan je neus lang is....#psvpan
nee! 2 uitgebreide gesprekken in de tweede ronde!
sollicitanten voor vastgoed ontvangen op locatie beviel goed!
onze teamdag bij driessen hrm! welkom gevoel!
senior medewerker klantinformatiecentrum. ben jij sterk op administratief vlak en bekend met vve beheer
senior projecteider nadruk complexe nieuwbouwprojecten
op zoek naar leuke parttime baan?#woonbedrijf zoekt fiscale controller &amp internal auditor
senior projecteider nadruk complexe nieuwbouwprojecten
top! eindstand psvvitesse 20. psv wint ook de vierde competitiewedstrijd!
gefeliciteerd,een fijne dag en mooi levensjaar! liefs huug en ellen
rij 14 stoeltje 21, vak d is kapot! zit niet echt lekker nu!!
het gaat goed maar t lijkt alsof de jong niet mag scoren
eten was goed maar betalen voor een karaf water... sorry hoor vette domper! geen fooi eindhoven
wil jij als medewerker servicedesk bij aan de slag? lees hier de
wil jij als medewerker servicedesk bij aan de slag? lees hier de
vacature senior medewerker financiele verslaglegging bij interesse? ”
“@maryfiers040 op naar nummer 1 ” ik ben voor!
“@dvanliempt ze hebben me te pakken 😀 op de door veldhoven !! ” veel plezier!
“@rikelfrink bryan ruiz, met de r van rendement. viel niet mee bij maar beslist nu wel een wkduel.”was de voorbereiding bij psv?
overgeschakeld naar sporza! beter die commentator! kan die nederlander wat van leren
“@kanzor weeeeer een scheidsrechter die blundert. wat een mafketel zo eens!!!!!!
wat een hoop geschreeuw, hoop beelden.. druk druk, druk ....
jullie ook bas 🍳! vrolijk pasen!
top! in | creative director, roger gerards, aan tafel bij matthijs. ”
gezocht hoofd ervaring met optimalisatietrajecten en ervaring als leidinggevende
groot eindhoven onderhoud bij woonbedrijf | |
ik ben officieel geswitcht! dag 4 van suiker naar vetverbranding. het trainen met het vasten gaat goed! 👍 begeleiding door
afbouwdag 2 en dan is een groentesoepje een feest!
zoekt senior klantbeheerder strijp. interesse? bekijk dan de
maandag met starten met onder begeleiding van bas de louw!
bedankt voor de erg interessante workshop linkedin smaakt naar meer workshops op gebied van social media
dat heb je soms....
zo meteen workshop linkedin door@ssteenbakkers voor hrm
radio royaal lijkt open op website 👍
niet normaal! 3x nederland op 500 meter
herkenbaar nog n compliment voor zondag met app buiten beter een melding gedaan, maandagmiddag al opgelost!
“@gemeindhoven het tarief bedraagt % van vastgestelde wozwaarde. aanslag kan klein beetje lager zijn. ja” als je percentage maar ophoogt!
“@raboev over het jaaroverzicht in mobiel. verwacht hier begin volgende week bij jou op terug te komen, akkoord? gr. ^edwin 2/2” dank!
vanaf nu finan jaaroverzicht 2013 in je berichten inbox ” komt dit ook beschikbaar voor de apps?
aanslag gemeentelijke belastingen binnen, woz daalt met duizenden euros, aanslag welgeteld met 6 euro?
let op! twee interessante vacatures bij reageren kan tot en met zondag 26 jan. voor meer info, lees
twee interessante vacatures bij voor meer info, lees
bizar. 2e klas vol. veel reizigers staan, 1e klas leeg, waag t niet daar te gaan zitten. op de heenreis mocht t wel! wie is de klant?
woonbedrijf zoekt leden voor de raad van commissarissen. meer informatie lees
twee interessante vacatures bij voor meer info, lees
twee interessante vacatures bij voor meer info, lees
bij zoeken we een nieuwe collega als
“@xevavdweijgaert morgen naar eindhovenn gezellig!
verlichting overdag aan geen punt?! verwijderde prullenbakken in anne frankplantsoen is zichtbaar ”
op zoek naar nieuwe uitdaging in 2014? reageer t/m 30 december op hoofd concernadministratie
ook een benadering..@gezondweerop verwoonkamering het nieuwe huiswerken op kantoor ”
op zoek naar nieuwe uitdaging in 2014? reageer t/m 30 december op hoofd concernadministratie
woonbedrijf zoekt medewerker wil jij ons team versterken? bekijk de
“@xevavdweijgaert jill” sorrie
waar liefste nichtje 👍 aan je fanatisme te zien ben je nog niet afgehaakt 😏
eens die battles nu vind ik een grote fout in n verder prachtig seizoen. nou valt één van de twee beste zangeressen af!”
twee mega talenten, ieder met eigen sound in de halve finale... jammer juliacheyenne
zo beu dat wudstick zijn tekst vergeet.... ik haak af
woonbedrijf zoekt medewerker wil jij ons team versterken? bekijk de
woonbedrijf zoekt medewerker wil jij ons team versterken? bekijk de
zoekt medewerker wil jij ons team versterken? bekijk de +
succes en blij dat live staat. iedereen die geholpen en geïnspireerd heeft enorm
behoren kernbegrippen als betrouwbare administratie in relatie tot planning&ampcontrol cyclus, jaarrekening opstellen, …
vacature voor 1 jaar bij woonbedrijf, afdeling vastgoed! heb jij als senior projectleider aantoonbare meerdere jaren…
het was gister een feest om de estafette marathon in ehv te lopen!
“@meebeweger ik hoor het al volgend jaar mee op de fiets vraag het maar eens aan . als dat lukt? petje af...
mooie vacature bij woonbedrijf! districtsmanager gestel. kernbegrippen voor de functie visie ontwikkelen &amp concre…
gaaf ik ben, zonder omslaan, in rubberboot, kanaal over naar ”
leuke ideeën hoe val je op tussen de bergen brieven en cvs? inspiratie opdoen voor origineel cv ”
en park? hiljemark vandaag een openbaring bij kerel werkt als een paard. ook speelt prima.
“@evenck we zijn er fiskebar w/ ” is top fiskebar!
ben jij accuraat en heb je lol in het maken van verslagen? dan is deze vacature iets voor jou bij ””
rt“@wilbertvanbakel ben jij accuraat en heb je lol in het maken van verslagen? dan is deze vacature iets voor jou ””
“@dwdd we hebben het straks in over wat dat is? legt het uit! ” gaaf
samen sterk“@floorganize zet tv aan beeld blijft blauw, naar kanaal hdmi1 en klik op de upc knop van de afstand bediening
fiscaliteiten, risicomngt bekend terrein, toe aan een volgende stap zkt financial controller
“@stfmstr 11091985” proficiat! een super start van je nieuwe levensjaar gewenst!
fiscaliteiten, risicomngt bekend terrein, toe aan een volgende stap zkt financial controller
investeringen woonbedrijf in beeld | |
wij zoeken een medewerker documentenbeheer met een pioniersinstelling ter ondersteuning van hnw bij
wij zoeken een medewerker documentenbeheer met een pioniersinstelling ter ondersteuning van hnw bij
heerlijk gegeten bij strand90
proficiat! “@geertjep vandaag 18 jarig huwelijk! vieren we in de zon!”
helemaal mee eens“@hugolinevhoorn het motto voor de komende dagen van en mij! ”
fiscaliteiten, risicomngt bekend terrein, toe aan een volgende stap zkt financial controller
dank je! “@syndesmodv leuk ellen! we reserveren een plekje voor jou en voor
26 nov kom ik graag met “@syndesmodv tipje van de sluier op 7 november bij zie ”
fiscaliteiten, risicomngt bekend terrein, toe aan een volgende stap zkt financial controller
10 tips voor ontspannen werken!
heerlijke afscheidslunch in vietnamese stijl van stagiair i.h.k.v. mai bedankt! ”
schitterende goal van eva de goede! 11
doen ! “@anyawiersma zoals deze dit staat en prima! ”
wauw! wat mooi! “@maryfiers040 wat is een mens toch klein..... ”
1 team“@psv en zo trakteert bijzonder jong, energiek psv uitverkochte philips stadion op een heerlijke zege!
interessante zkt adviseur op het gebied v vastgoedinspecties boeiend
heb jij een achtergrond en leidinggevende ervaring dan heeft een interessante
“@ikzie wie macht gebruikt om te veranderen, houdt in ieder geval de macht in stand” mooi gezegd!
“@hanniedebar goed, trots! aangemeld voor 1e hardloop wedstrijd, 8 km op 21 augustus.” ik ga misschien ook!
“@xevavdweijgaert uit bed, douchen en klaarmaken en daarna met mijn neefje naar friesland weekje met een boot ” ! veel plezier! x
“@hanniedegroot fase 2 van de renovatie in begint eind september ””
“@kojkoning ik ben zó verdrietig! herman claas is dood. het is niet te bevatten ....”
mijn daglenzen waren niet op tijd voor vakantie! mooi alternatief gekregen bij oogwereld oosterhof. super service
gedaan! was enorm gezellig en lekker! jij succes in je nieuwe functie bij
we verhuizen begin 2016 naar nieuwe locatie ”
top “@annajel29 waarom heb je dit talent 4 jr voor verborgen gehouden. wat kan jij zingen, wow!” hihi, dank je! ☺
mooi interview in zij aan zij. ik herken je erin!
was erg leuk rob! “@rjlindhout alles is opgeruimd! zo... en dan weer gewoon aan het werk bij het leukste bedrijf v nl
en krijgt interessante vragen “@rjlindhout mooi socialmedia benadering te horen! geeft helder verhaal bij ccb inspireert
gaaf “@ssteenbakkers geertjep aan het woord over inzet social media bij chinook op achtergrond ”
maakt een mooie verbinding in samenwerking hrm communicatie voor werving nieuwe collegas via social media
onze wim van dr leegte wil graag een wim ipv of naast
rt “@ssteenbakkers ons corporate magazine de w is binnen, ziet er super uit! komende dagen verspreiding onder stakeholders
goed bezig! “@xevavdweijgaert huiswerk op de vroege morgen maar ik heb zoveel te doen 😓”
ben jij op je best als je kunt communiceren en coördineren namens een manager. zoekt ”
ben jij op je best als je kunt communiceren en coördineren namens een manager. zoekt ”
ziet er goed uit! “@marcelclerx ellis speelt viool op de feelgood market ”
is voor t goede doel! gaan we bowlen ...🎳 “@xevavdweijgaert vanmiddag huiswerk, morgen gelukkig wel een leuke dag ! ”
“@claudiadebreij veel van de liedjes die jan en daniel mooi vinden duren mij tweeenhalve minuut te lang
nieuw scheidsrechterstenue griekenland
ijslandse brad pitt zingt jij bent lief!
chauvinistisch maar wat een stem! top !
mag ik een shawl lenen van iemand van armenië?
hoeveel miljoenen euros worden hieraan besteed?
“@kroossara ik moet nu cateren. tot straks” heb ik net gedaan pfff. ...
lieve dokter uit malta, blijf bij je vak!
ik ben voor finland! protest i love it!!
moldavië... shit tv valt weg... ze heeft de haren van eva simons maar eva zingt veul beter
“@geertjep hij ziet er wel lekker uit is niet altijd genoeg..
“@froukjedeboth omg wat heeft die presentatrice aan?? iets uit de middeleeuwen in een nieuw kleurke?
wij ook! “@dvanliempt het gaat beginnen zit er klaar voor. go
inspiratiesessie van gestart in t spelershome
samen positief! plezier en zelfvertrouwen! basis voor succes!
mis wel gratis wifi! moet bij samen sterker ook op de kleintjes letten!
fan van psv en .... dat verdient toch een shirt! geloof in beiden! samen sterk en winnaarsmentaliteit
aftrap met interview door jack van gelder met top van rabo ev en de lage landen in t stadion
bij de ledenavond ehv
leuke ideeën het nieuwe vergaderen, 10 tips ”
dat is een interpretatie maar er zijn meer opties...“@geertjep veel thuis werken dus!”
ga je morgen zeker doen “@xevavdweijgaert lekker eten”
nadenkertje!@reiskostenblogtueindhoven denkt over betaald parkeren voor werknemers
ga ik vandaag doen! als je met je gezicht naar de zon loopt, valt de schaduw achter je.”
logistiek/voorraadbeheer/processen de kern van de vacature! past dit jou? solliciteer
succes met de selectie“@werkwoonbedrijf ontzettend populaire functie, vele sollicitaties binnen.volgende week 1e selectie!
wel met kassabon? “@josvanwijk “@fmetsemakers “@wiiiemalexander wie we nu toch bij de ah tegenkwamen ”
“@mvdijk040 benieuwd naar interview willem alexander en maxima”vergeet niet
mooie update, snap de spanning die nu opbouwt, fingers crossed! “@stfmstr na 4 weken...#schandalig .. een update! ”
heb ik mazzel, uitnodiging in the pocket heb je daar niet een minimum saldo voor nodig 😝”
ik kom“@raboev voor onze leden een bijzondere ledenavond op 16 mei in kom jij ook?
wijkt af van regeringsbesluit. geen huurverhoging naar inkomen. kijk de filmanimatie voor toelichting ”
top! “@markostrijp op het eind van deze week 10 nieuwe bewoners
hnw geen geheimen! solliciteer gezocht het nieuwe werken. lees meer
neem contact op met onze klantenservice via 0402434343, dan kunnen we hierover in gesprek.
hnw geen geheimen! solliciteer gezocht het nieuwe werken. lees meer
mooie kans! ns zelf ervaren hoe een stadswoning eruit ziet? open huis aanstaande zaterdag en zondag van 12 tot 16 uur. op strijps
wij doen dat hier zo ongeveer elke dag! el grande“@geertjep deze eet je als
kiest voor betaalbaarheid. huurverhoging 4% voor alle inkomensgroepen. ”
wat vind je van? zelfstandige professional in verbinding? “@floorganize mooi de term
betere definitie!! “@floorganize mooi de term is zo 2.0 !”
“@dwolfhrm verwar leiderschap niet met leidinggeven.” dat verwar ik niet! allebei een hele kluif 😃
welke kleur? kom je morgen ook? “@xevavdweijgaert nageltjes gedaan”
zo waar! “@floorganize niet alleen de manager geeft leiding maar ook de medewerker! ”
wij ook! op weg naar guus heeft er nog alle vertrouwen in en zingt ze dadelijk naar een overwinning!!
interessant voor “@jandebreet duurzaam hoofdkantoor ricoh ”
niet goed!“@minpres is volgende week met de prins van oranje en prinses máxima aanwezig bij de inauguratie van de nieuwe paus franciscus i.
stadion golf gespeeld, eerste prijs! “@hugolinevhoorn bedankt voor de super avond top die holeinone”
ben jij onze nieuwe manager portfolio &amp planmatig onderhoud lees hier meer ”
“@guestopedda wat heeft psv te weinig? 1. strijdlust 2. klasse 3. verdedigers 4.leiderschap” 5. samenwerking ? werklust?
jaloers ! “@geertjep heerlijk de zon schijnt weer! ”
proficiat! “@boefjes to all my followers mn mattie en ik, deze ochtend, eerste toernooi overwinning!
dit is je 1e, proficiat@hugolinevhoorn dank, ik kijk er ook naar uit!“@floorganize vol verwachting kijk ik uit naar je eerste tweet !
anders ik wel!“@floorganize vol verwachting kijk ik uit naar je eerste tweet ! veel plezier op twitter
“veel plezier!@nansatdynamo parijs here we come. bus vol dansers. ik laat me een weekend onderdompelen in deze scene.
proficiat jos! ben benieuwd@josvanwijk zojuist mijn boek fluitend naar mijn werk gepubliceerd op mijnbestseller.nl
yes, kees is de mol!
“@atmarielle ik zit er klaar voor! me too
geweldig verhaal v beste kapper v maastricht gaat niet om het haar, maar wie er onder zit ” inkopper?!
vrouwen in eu werken 59 dagen gratis tja.... geen nieuws!
“@atmarielle wie schrijft die........@floorganize ben er blij mee! ” wordt t een collectorsitem?
reageer op vacature die vraagt sterk in onderhandelen, met passie bouwen aan afd inkoop inkoper
ik ben altijd blij als ik aan de verwachtingen van een ander voldoe.. weet dat dwolf niet is
sterk in onderhandelen en wil je met passie bouwen aan de afdeling inkoop? senior inkoper
training verzuimbeheersing met en voor leidinggevenden bij
britse lagerhuis stemt in met homohuwelijk
sterk in onderhandelen en met passie voor het vak bouwen aan afdeling senior inkoper
de teksten zijn voor iedereen bizar, na 32 jaar kan ik nog steeds alle nummers van meezingen in het
de voorbereidingen voor amalia kunnen starten, over 33 jaar staat zij er?
let op! alcoholcontrole op de kennedylaan, de stad uit!
lees ik dit goed?blij!“@rjlindhout yes! opdracht binnen. heerlijk, we gaan met prachtige betaalbare proeftuinen creëren..#ons
mollen is de mol?
leuke en interessante kandidaten ontmoet voor vacature
me too! “@hanniedegroot trots is genomineerd voor de dcmaward. lees meer en stem op ”
“@floorganize zo dadelijk naar de van de buurt in
geniet ervan! heerlijk zwembad! gaat goed komen! osmose spa &amp fitness ”
rt“@werkwoonbedrijf woonbedrijf straks aanwezig bij speeddates met hrm studenten. benieuwd naar dat jonge talent den bosch”
en wat dacht je van deze topper? vacature manager portfolio &amp planmatig onderhoud woonbedrijf. zie ”
je kunt nog reageren op deze top vacature manager nieuwbouw &amp renovatie woonbedrijf. zie ”
rt “@ingriddeboer040 durft het bijna niet te zeggen...weer nummer 1, ja ja basis2010, maar wel trots! ”
interessante vacature manager portfolio &amp planmatig onderhoud m/v werken bij
interessante vacature manager renovatie &amp nieuwbouw m/v werken bij
ben jij de doorgewinterde communicatieadviseur op t gebied van social media toepassen in communicatie vraagstukken?kijk
zo eens met “@wilbertvanbakel paus haalt opnieuw uit naar homos. zieke geest, fijne kerstgedachte ”
3 mooie vacatures! ? ”
“@ivgeindhoven ik ben klaar voor het werken bij goed bezig ingrid! trots op jou!
ben jij de doorgewinterde communicatieadviseur op t gebied van social media toepassen in communicatie vraagstukken?kijk
doen! “@psv op elk stoeltje ligt respectuiting’ van knvb en psv vraagt iedereen om deze omhoog te houden tijdens minuut stilte
“@rjlindhout eventjes geduld en... ” gaat lukken, heb er veel zin in
ben nieuwsgierig mooie sessie met klik en prettige gesprekken. in mijn hoofd krijgen de proeftuinen al vorm
er is geen betere zangeres! sandra
pfff kunnen ze stoppen met de omgedraaide stoelen. gelet op t commentaar over de repetities, heeft dit geen toegevoegde waarde#tvoh
team sick en simon kan t hele team in 1 keer vertrekken
“@geertjep mannen zijn veel behoudender dan vrouwen! lezing frits spangenberg” is dit nieuws?
welke vergaderopstelling is t meest effectief? vierkante tafel, ovale of hoge tafel met barkrukken? tno,voor proeftuin?
we hebben de voice gevonden! sandra
ohh wat is ze goed! laurrhie
eens met over ron!
nu weer een paar toppertjes uit team trijntje
“@ssteenbakkers weer een onderwerp erbij in het visueel jaarverslag 2012 ” blijft super gaaf!
zo naar officiële opening op atadhuisplein
mijn lief zegt dat marjet wel appetijtelijk is om nasr te kijken en te luisteren, kan t niet ontkennen
klaar om de eerste live show tvoh te gaan kijken!
“@geertjep weekend gaat van start met een visje! fiskebar ” heerlijk daar!
“@wilbertvanbakel manolev speelt als vanouds...#prutser niet eens, zie je wijnaldum!!
heerlijk met pv tapas maken bij el quijote
“@geertjep niet veel vernomen van mij op twitter?! klopt bedolven onder mails op vacature communicatie adviseur!” samen aan het selecteren!
veel belangstelling! communicatieadviseur 210 keer bekeken, inmiddels meer dan 25 reacties binnen.
en ik! kom ook herfstbokje, rood wijntje, fijne mensen, ingredienten voor herfstborrel.vrijdag in baron
leona van laat ook van zich horen bij clubtour ! zij is zo ongelofelijk goed. een pidiumbeest!! gaaf
oeps, ron link zingt bij clubtour maar sorry, valt door de mand! toch bij musical blijven?
zo naar in de effenaar!
“@jvdw040 misschien wel de laatste. of wil jij de gids voor je spouwmuur?