bedankt, rik. de jaarverslagen zijn niet zó gedetailleerd merkte ik net, maar ik veronderstel dat psv d…
of weet jij dit wellicht,
thijs, kan ik vinden hoeveel psv jaarlijks in de psv foundation investeert? ik schrijf een artikel als schoolopdracht. dank!
klinkt super gaaf! jammer dat ik in mijn laatste jaar hbosportkunde zit...
geweldig toch! echt een droom die uitkomt. je verdient het!!
super juul! ben heel blij voor je 😄
bedankt, geweldig om me in te mogen zetten voor zon mooie organisatie! 💪😊
het gaat om workshops waarbij ik alle leerlingen uit klas 1 tijdens schooltijd leer hoe ze het beste presentaties kunnen geven.
beste, ik ga workshops presenteren geven op voortgezet onderwijs. valt dat onder 0% btw bijles, dus niets afdragen van omzet?
tegen die tijd hoop ik in een luxueuze autostoel te zitten. wel in eentje van een auto zonder uitstoot uiteraard.
ik wilde je standpunt even bevestigen dat de stoelen in de nieuwste intercity die nu rijd…
van zulke scheidsrechters krijg ik echt de kriebels, bah bah
zoiets had ik kunnen schrijven bij
reizigers waaien en regenen weg op sloterdijk, moeten onoverdekt buiten in kou wachten, terwijl de bus er al staat. zoals altijd!
bedankt voor je reactie, thomas. zou je me wellicht kunnen volgen? dan kan ik je een pb sturen.
thomas, geef je wel eens colleges aan studenten? we zouden het ontzettend interessant vinden! minor high performance sport
gaan jullie mij local hero van de nieuwe decathlon in tilburg maken. binnenkort komt de…
leek mij ook, maar volgend seizoen zal zoet vertrekken, kunnen room en jurjus strijden voor…
punten krijg je niet maar moet je pakken 💪
vandaag kennisgemaakt met astep. nu in de bus naar jinja. straks steek ik de grens met uganda weer over en maandag…
gelukkig vliegt derrick met marcel mee. succes! 🖒
stroomstoring in kisii. gelukkig heb ik een kaars van het hotel en powerbanks. en lees ik niets over het nieuws in…
stempel voor kenia is binnen. kort bezoekje aan tanzania geweest. wat ik gezien heb een prachtig land waar ik heel graag met auto terugkom!
update 5/7/17 ik leef nog 😉 boot bukoba &gt mwanza bestaat niet. zit nu in de bus naar mwanza. blogs volgen! hakuna matata 🐗
officieel in tanzania! nu nog een stempel fixen.
ik vraag me dan wel af of dit exemplaar ook onderdeel was van de beroemde big five. dank jullie wel!…
zojuist per toeval samen mogen reizen in de trein naar utrecht met mevrouw beckers leuk om weer eens bij te praten! 😊
aanvoerders van 9 andere kleinere clubs komen ook in opstand. overigens hebben ze best een punt toch? wa…
geniet ervan, maarten! kampioenschappen zijn mooie dingen.
op de website kan je doneren én mijn reis volgen. op twitter volgen via plaats ik telkens…
officieel op twitter deze zomer ga ik 2000 km om het victoriameer fietsen voor het goede doel astep. help jij mee…
hartelijk dank voor jullie reactie. hoe zou ik mogelijkerwijs in contact kunnen komen met deze partners?
2/2 ik zou hopen dat klm het vervoer van mijn fiets wil sponsoren. de balie kon mij niet helpen, maar misschie…
beste klm, zojuist was ik op schiphol om jullie te vragen of ik een fiets als normale ruimbagage mee mag nemen…
lijkt me desalniettemin geen straf. bovendien wordt merci over het algemeen ook wel geaccepteerd.
en bakken respect voor bob. wat een klasse man is dat! als mijn broertje zo over me zou praten zou ik da…
daans verhaal is werkelijk prachtig neergezet. enorme complimenten voor het meenemen van de kijker in zi…
mark van bommel! 💪
je moet iets met 20 achter. strootman lijkt het verschil niet te gaan maken in ieder geval.
nu de man zelf nog
mocht ajax deze el winnen dan telt de 3e plek in de eredivisie eigenlijk als 2e t.a.v. de voorronde cl 17/18, nietwaar?
wat is uw mening over topvoetbal, eindtoernooien en andere grote sportevenementen naar nederland hal…
waarom kan dat in spanje wel en in nederland niet bij manu?
jeetje, hij pakt wel goed uit in ieder geval 🍾🎂
dat ie, naast dat ie het überhaupt overleeft, haar ook nog eens een cadeau geeft 😂
pröpper, pereiro, ramselaar kunnen ook bij dat rijtje + klappers gemaakt met memphis en gini. conclusie waardeloze td is onzin.
was verhuur geen optie dan? snap niet dat hij na 1 seizoen afgeschreven wordt
dat had dan uit de fotos moeten blijken. toch nog steeds raar wat er gebeurd is. wordt niet heel duidelijk.
daarmee wil ik uiteraard niet zeggen dat alleen nlers zonder migratieachtergrond aan die eisen kunnen voldoen!
aan de andere kant is dat ook wat bij een selectie op het veld gebeurt. moet iets toevoegen én moet in team passen, lijkt mij.
ik geloof wel dat bij twee dezelfde cvs de nl kandidaat gekozen wordt omdat die beter in het team past? kan kwalijk zijn.
op het veld zijn andere nationaliteiten kennelijk beter, achter de schermen blijkbaar niet. zou kunnen toch? is niks mis mee.
eén iemand wordt genegeerd, niemand lijkt zin te hebben in het trainingskamp😂 leuk gedaan dit, psv marketing &amp communicatie, chapeau!😊🖒
laat maar, ik lees het al in jullie reacties 😉
doe gewoon je werk en ga praten bij onvrede. geen reizigers benadelen! dank
bedankt voor de reactie, zal ik doen!
wat houdt het precies in?
vandaag weer een fantastische groep les mogen geven. stuk voor stuk…
jammer vooral, ook omdat sporting beter werd
in mijn ogen niet veel. klein opstootje.
een ontzettend leuke workshop gegeven aan deze toppers, goed gedaan…
wat is dit mooi! ik vind de showbizz verschrikkelijk maar kan immens genieten van de prachtige verhalen die maakt. heldin!
was erg geslaagd, bedankt we gaan er een mooi seizoen van maken!
wederom arbitraire onkunde van jewelste.
dus onterecht afgekeurde aanvallen en wellicht goals vanwege vermeend buitenspel blijven we zien?
proficiat maarten, ook ik ben blij!
bedankt! goed om te weten ivm uitchecken
vanaf hoe laat nederlandse tijd kunnen zaterdag passepartouts gekocht worden door clubcardhouders? zit namelijk in buitenland.
ongelooflijk gedreven sporter en persoonlijkheid. dat de brinkmanmentaliteit lang in de sport mag blijven!
alleen jammer dat de erdoganaanhang zich niet goed kan uitdrukken
of een nachtje doorhalen 😉
in ieder geval een stuk constanter dan nederland
uiteraard, altijd subjectief. de lichtblauwe kleur vind ik wel erg mooi, maar het had spannender gekund.
die lichte kleur blauw vind ik wel mooi overigens. ze hadden daar in mijn ogen meer mee mogen doen.
het uitshirt valt mij persoonlijk een beetje tegen. weinig spannend en erg rechttoe rechtaan. lijkt een beetje een trainingsshirt.
ik vind het thuisshirt wel prima. uitshirt lijkt met alle respect een beetje een trainingsshirt, jammer.
wat een resultaat een 10 voor onze business case bij tesqua. verschrikkelijk trots op ruben en…
door verstoringen te laat bij laatste tentamen van sm&ampo dit jaar. mocht m later alsnog maken, top service 😊
maar toch niet als dit talent meer potentie zou hebben?
dat geeft geen antwoord op de vraag waarom jij vindt dat een talent nederlands moet zijn.
waarom? als dit toch een talent is, waarom moet hij dan nederlands zijn? arias is ook geen nederlander.
de jongens van winnen met 21 de spannende shootouts van marnix en pakken daarmee de derde plek!
kom op kleine finale om plek 3
hockey tussen 11.30 en 16.00 uur bij hurley en pinoké?
afijn. fijne avond nog in ieder geval en een goed weekend, lb!
ruilen? 😉 in de trein is de zitplek wat minder dan in de bus. hier bestaat die namelijk uit een stukje trap. kan iig nog zitten.
daarom😂 bovendien weer jeugdsentiment voelt net als n schoolreisje, zo met 20 tienermeisjes die achterin meezingen.
door t onderhoud van kom je in die stopbus eens op plekken die je nog nooit gezien hebt. en ook nooit meer wíl zien.
zonder twijfel aan te raden. tijd voor een avond ontspanning met goed toneel én veel humor? ga absoluut! bien hecho👏
dat met dit voorstel het lot van en in handen heeft, lijkt mij te bizar voor woorden,
bovendien is t nu onduidelijk waar de wedstrijden tussen willem ii &amp nac over gaan. waarom zou dit nu naar buiten moeten komen?
als twente 18e is, zou cambuur of mvv tegen gae spelen en graafschap of almere tegen nac. oneerlijk voor mvv en almere?
ajax en rusland lijken wel een beetje op elkaar. de euforie van het niet winnen van de concurrent is net zo groot.
blijf het apart vinden dat leemans moet vertrekken
heel slecht inderdaad. ook een walgelijke afsluiting met gelach als psv genoemd wordt. afijn, wij vieren ons eigen feestje wel!
gelukkig gaat het nu over naakt / in onderbroeken presenteren n.a.v. de titel van leicester city. interessante journalistiek.
prima consequentie! wel lastig om meer betrokkenheid bij maatschappelijke projecten als straf te definiëren. enfin. closed.
avondtrein kwelling. huisvrouwen, wiens man heeft opgegeven te luisteren, luchten hun hart bij elkaar. in mijn bijzijn. zucht.
slechte nacht gehad, de speaker op utrecht centraal roept aan één stuk door mankementen uit heel het land om. sterkte maar weer!
yes, ik kan zo goed zoeken op google. tot vanavond!
gaan de presentaties hetzelfde als voorgaande jaren? dus met een markt en meerdere presentatierondes
uiteraard huur lijkt me?
protocollen worden niet voor niets voorgeschreven. lijkt me niet handig redenen te geven daar vanaf te wijken.
doen ze niet aan in amsterdam, 8.30 it is! beste wensen
dank ruben, insgelijks!
sorry, late reactie. ligt aan de plek denk ik. had ze allen geprobeerd. op de piste 4g, hier niet helaas. niks aan te doen!
waarom met lbundel in fr eerst heel even snel h+ internet en daarna meteen heel langzaam e? erg irritant en wel €24,95
waarom met lbundel in fr eerst heel even snel h+ internet en daarna meteen heel langzaam e? erg irritant en wel €24,95!
uiteindelijk wel, alleen te laat op mijn afspraak
waarom stoppen intercitys niet op alle tussenliggende stations als sprinters niet rijden tilburg ↔ eindhoven
volgens mij wordt er standaard door elke scheids weggekeken van als hij in de 16 is met bal. hij krijgt nooit een penalty mee!
en nederland virtueel 3 zeges verwijderd van weer een extra club in europa die punten kost op de ranglijst
het is een teken we worden kampioen!
er is nog hoop. zou je zeggen althans.
rik, is het realistisch dat lestienne cska haalt, nu narsingh wegvalt?
twijfel je om iets met sport te gaan doen? be there!
overwintert misschien eindelijk n eredivisieclub in de mag de kampioen binnenkort niet meedoen
hoeveel van je salaris krijg je terug als je meer dan 2 uur vast staat in een ijskoude trein zonder licht?
spijt me zeer, maar jullie stellen me alweer teleur op de maandagochtend. en dan is het nog donker ook in de trein.
moet gezegd ik heb heerlijk geslapen in de trein en, uitgerust en wel, meteen mijn aansluiting gehaald. allemaal dankzij
uiteraard, uiteindelijk kom je met de ns altijd op je eindbestemming. ik hou jullie op de hoogte vanmiddag!
vooruit, deze telt nog voor s ochtends, maar nu staan we bijna een kwartier voor amstel te wachten op een trein die stil staat
weddenschap dat dat vanmiddag nog lukt? lukt het dan tweet ik rest vd week positief, zo niet dan jullie rest vd week sorry tim.
is maar net hoe je het interpreteert haha 😉 good guess, but no den bosch amsterdam. sta ik al op de zwarte klaaglijst?
daar blijven de treinen tenminste wel rijden!
dank en insgelijks!
den bosch sloterdijk en vice versa. komt wel goed, maar het is gewoon irritant.
vijf keer met de trein geweest deze week, vijf keer een kwartier vertraging. doe er wat aan
heeft de uefa een andere regelgeving betreft de stadionverlichting dan de knvb? vanwaar vanavond geen lichtshow?
of veltman in de 94e?
hoe kan het dat psv dit soort wedstrijden vorig jaar over de streep trok en nu niet? mentaliteit lijkt zo anders tov vorig jaar
en over niet beinvloedbare momenten zoals een niet gegeven penalty die geen 99 maar 100 procent een penalty was. bah!
als je van persie na een half uur laat warmlopen dan geeft dat toch je zoveelste onkunde aan?
stond wss file op n65 maar t is zoals elke dag de laatste tijd vervelend dat als de tijd afloopt er dan zo weer 15 min bij komen
zit nu in die van 17.44 die er rond 18.00 uur was
ik wachtte op deze die weer terug naar tilburg ging vanuit den bosch, maar is vgm nooit aangekomen
waarom telt de meter van hoe lang het duurt tot de bus komt bij steeds op ipv af en verdwijnt de bus vervolgens op het scherm..?
geniet van jullie 200jarige verjaardagsfeestdagen en en betrokkenen!
waarom gaat de buschauffeur één halte voor het station wachten op mensen die toch niet komen terwijl de inzittenden hun trein willen halen?!
kunnen we niet allemaal philipsspandoeken en vlaggen meenemen morgen?
volgens mij is het jaar ook nog niet over hoor frenkie
heerlijke cappuccino op bij en geholpen door twee hele aardige dames!
geen probleem, hoop dat het een incident was. goed dat het doorgeven wordt! groet, tim
ze wisten bestemming niet. owijk asielzoekerscentrum zeker? moeilijk als je geen nl kan en daar betalen we belastinggeld voor.
chauffeur 140 den bosch tilburg van 1417 had enigszins racistische uitspraken over twee donkere meisjes die geen nl spraken.
voelde me net weer een jongetje van 13 😄
hahahah ik zat al op jouw reactie te wachten p
denkt ik scoor even een gekke goal op mijn verjaardag. proficiat!
kom alsjeblieft snel weer terug...
tijd om scheidsrechters eens fatsoenlijk op te leiden bij de sowieso een hele matige eredivisiestart wat arbiters betreft!
fer zou voor een niet al te hoog bedrag best een nuttige speler zijn, ook al heeft psv al drie basismiddenvelders, lijkt me?
dank voor uw reactie, zal ik zeker doen!
beste guus, ik zoek voor volgend jaar een stage 2e jaars sm&ampo aan de hva. zou ik hier mogelijk contact over kunnen hebben? gr. tim
heeft psv interesse in alex / is er contact geweest met hem of acht psv hem onhaalbaar of zoeken ze voor nu geen cv meer? gr tim
toch jammer dat ik je al dan niet grappige opmerking niet kan liken omdat ik het wel grappig vind...
wedstrijden worden keer op keer beslist door individuele fouten van de tegenstander en doelpunten vallen telkens uit dode spelmomenten
voor het wk was ik best optimistisch over de kansen van de status van het vrouwenvoetbal, maar tjonge, wat een tegenvaller is dat!
dat is dus precies wat ik ook dacht. misschien wordt in ieder geval nederland morgen beter gepresenteerd.
jaaaaa dat zou echt heel gaaf zijn!!
heb nog nooit zien tennissen nu ik hem in één minuut zijn eerste game op love zie winnen van nadal. ik ben fan!
zeer geslaagd nk bubbel voetbal 2015, volgend jaar weer! sv houten
haleluja klinkt ergerlijk door de coupé als de treinspeaker meldt dat de machinist wat laat onderweg is. opgefokt nederland.
zaterdag geweldig nederlands kampioenschap nl bubbel voetbal gehad! vandaag in n krant, morgen in dé metro?
hoi igmar, het nk bubbel voetbal is goed gegaan! morgen zouden we even bellen. weet je ongeveer hoe laat? groeten, tim
leuk! ik organiseer het, vandaar. tot maandag.
ik wil wel even bellen over het nk bubbel voetbal. 0657579687 groetjes tim
rik, wat heb je op dat je nu nog zo actief bent?
gelukkig is het een lekker open wedstrijd door al die fouten en het niet geheel onpartijdige commentaar maakt ook iets goed
als u dit bericht hoort en u moet reizen naar sloterdijk............dan zit u in de goede trein.
misschien kan ik je daar een mailtje voor sturen?
20 juni vindt dit evenement plaats. mijn vraag is of het je leuk lijkt om hierbij aanwezig te zijn.
beste mike, zou ik je een vraag mogen stellen voor mijn stageopdracht bij het nederlands kampioenschap nl bubbel voetbal? gr.
die marieke van de wal zou niet misstaan als keeper bij in plaats van jelle!
bedankt! ja of niet op schiphol is het lekker donker dus slapen moet daar helemaal lukken
de trein νan 6.39 in den bosch staat voor me klaar en ook nog een heerlijke bank voor mij alleen. top
ontzettend bedankt, khalid! als je zelf zin en tijd hebt om mee te doen, kunnen we wel iets regelen.
beste thijs, wil je misschien mn laatste bubbel voetbaltweet rten? en lijkt t je leuk mee te doen? vriendelijke groet, tim
beste khalid, zou je svp mijn laatste tweet over nk bubbel voetbal kunnen rten? en lijkt het jou leuk om mee te doen? mvg, tim
schrijf je snel in voor het nederlands kampioenschap op 20 juni in houten!
dank, insgelijks!
ik neem mijn woorden terug stipt op tijd. de trein stond op me te wachten.
we gaan het zo zien
en als gevolg daarvan is er geen licht in de trein
politie op het station, jammer dat het zo moet
en weer een schietpartij met dodelijke afloop. misschien dat de kamerprijzen dan eens zakken in wild west.
trambestuurder amsterdam rijdt door met overleden man in tram sommige trambestuurders zijn echt gek!
de enige reden om naar fc emmen rkc te kijken is het commentaar van
heb je anita al even bekeken?
hahaha ik denk dat ik me per direct aansluit bij de antizwartepiet groepereringen
bedankt voor vorige week, was heel gaaf!
nu ik toch weer een keertje op twitter zit wat een heerlijke goals bij emmen roda!
mountainbiken met de beste instructeur van super bedankt voor deze vette
mountainbiken met maureen en ivo
klettersteigen en abseilen met maureen en eileen
rotsklimmen met
ballonnen kapot schieten op de 20e verjaardag van
we wensen iedereen die zich betrokken voelt bij onze school een heel fijne herfstvakantie toe! hahaha vanwaar zo ruim?
als je nu geen fan meer bent van tsjonge wat is die man goed zeg!
dag churandy, zou ik misschien per mail een vraag kunnen stellen? het heeft te maken met de hogeschool van amsterdam.
is ie eindelijk in vorm, maakt ie zon domme overtreding. wel een belabberde arbitrage overigens!
dag andré, ik studeer sport, management &amp ondernemen aan de hva. ik zou je graag een vraag stellen, kan ik deze ergens kwijt?
ik heb een vraag mbt het organiseren van een sportgerelateerd evenement voor de hva. zou ik hierover een email kunnen sturen?
maar jij staat op twee hoor khalid!
volgens mij scoorde net als nu, ooit 6 keer in de beker voor
hahaha willem 2. hoe kan je als eredivisionist in godsnaam van een eersteklasser verliezen... beetje jammer
die boetes van de uefa zijn vergelijkbaar met de politie die automobilisten die 2 km/h te hard rijden bekeurt. cashen...
wat zat er in de koffie van vanmorgen...
overigens, cilic heb ik in februari nog live zien verliezen van berdych. toch een knappe prestatie nu in de finale van de
toch nog maar gekeken, wat een teleurstelling! morgen zelf maar weer aan de bak. welterusten!
dubbeltje met papa. eens kijken of we voor het derde jaar op rij clubkampioen kunnen worden
om de juiste koers te varen met de wind in onze rug, geniet met volle teugen labyad komt nooit meer terug. haha mooi
vind ik niet leuk!
hoeveel tweets ga je nog plaatsen over nikita? ik zou ze allemaal kunnen retweeten namelijk
die wifi in het stadion is echt snel! tweet de goal al voordat ie is gescoord... en is zo goed!
zit je aan het lac de serre ponçon?
nieuws uitingen onder voetbalshirt verboden belachelijk!
jajajaja voetbal blijft toch zo leuk!
zojuist een foto geplaatst venezia, italy
terwijl de kisten stuk voor stuk voorbijrijden, schieten de tranen je in de ogen. bizar. onwerkelijk. sprakeloos.
daar is geen twijfel over mogelijk
hier kon je ook prima bruin worden!
en ineens heb ik er met shimarajpg nog een zusje bij noordzee residence de banjaard kamperland
zusjelief fleurmoorenx noordzee residence de banjaard kamperland
lekker! goed gedaan
heb elkaar lief, geef om elkaar, help elkaar. we zijn allemaal hetzelfde. wat maakt de een beter dan de ander? om uit te kotsen deze wereld!
niet alleen deze crash, over heel de wereld verkankert iedereen het voor elkaar. stelletje egoïsten zijn we, stuk voor stuk. onbegrijpelijk!
man man man, dat mensen elkaar verdomme gewoon in hun waarde laten. waar is dit toch allemaal goed voor... denk eens na en geef om anderen!
zin in zeeland met liefje 💞😊 ik heb er ook zin in!!
lekker gespeeld mo, veel dreiging!
waar ga jij naartoe vandaag
goed bezig jan!
gerechtigheid!
oh ja. matchday. dus. haha ik zou het ook bijna vergeten
gelukkig mogen we zaterdag lekker om de derde plek spelen. dat wordt me toch een zaadwedstrijd...
wat is robben ook op mentaal vlak een topsporter geworden, hulde!
cillessen lijkt in de goal op een playmobilpoppetje. zucht. precies dit, wat een dode zoutzak. alsof ie weet dat ie verliest
lekker nou vanavond oranje ook even!
maar 50 lukt niet, wtf man
op kan je terugkomen van 40 achter, wie weet wat de fifa nou voor ons in petto heeft
wel een groot talent nietwaar?
oeee spannend hoor, zou ik wel over gaan...
man man man wat is dit spannend. veel erger dan gisteren!
woooooooooow wat een goal!!!!!
djyelo de ijzeren man
vanzelfsprekend ben ik 9 juli tijdens de bovenbouwbqq alweer in volle glorie te bewonderen op het terrein van beekvliet
wij jullie ook hoor. bedankt!
haha als uruguay weer tegen nederland zou moeten, is suarez er weer niet bij. wat een mongool zeg.
tsjonge, ronaldo weer beslissend op het laatste moment. wat een goede voorzet en een lekkere wedstrijd! amerika had meer verdiend. bedtijd.
en nog inconsequent ook. onbegrijpelijk.
hoe kan het niveau van de arbitrage zo slecht zijn op het belangrijkste toernooi ter wereld. twee benen op de schenen en niet eens geel...
middagje voetballen met ervaren erik, superman tjeu, topschutter tim, boomlange bart en mijn geliefde…
die mentaliteit zou iedereen in het voetbal moeten hebben
jammer dat je relatief weinig volgers hebt, want je zegt nuttige dingen
haha mooi, is weer 2 miljoen meer waard. maar ja, liever dat hij nog een jaartje doet!...
lekker dames!!
we worden wereldkampioen
missertje van de arbitrage..
dan verschillen we van mening of dat wel of niet nodig is. enfin, over tot de orde van de dag slapen. welterusten.
misbruik je populariteit niet zo joh en spreek haar gewoon privé aan op haar misplaatste reactie ipv zo publiekelijk
ik word nooit wakker van onweer oid maar dit was best heftig dacht ik zo. niet bang zijn kiddos.
van harte gefeliciteerd!
ik hoop dat het wk zo snel mogelijk over is voor nederland als ze zo spelen. wat een doorzettingsvermogen nodig om dit 90 min te aanschouwen
dat is al een overwinning op zich, proficiat haha
wat is n gefrustreerde haase toch grappig altijd. schreeuwen tegen de scheids doe je zelfs bij voetbal niet, laat staan bij tennis...
tjonge wat sneu voor rkc dit zeg, wat een slechte afsluiting van het seizoen...
gefeliciteerd! goed gedaan
was ook gekomen toen wij tegen haar moesten vorig jaar haha, veel succes!
die interviews tussen en van gaal zijn honderd keer leuker dan de wedstrijden van oranje zelf!
wat een oprechte mix tussen woede en verdriet van documentaires maken kan hij wel!
en dat is dag 7 achter elkaar regen. sinds dat ik terug ben uit spanje is het nog geen dag droog geweest...
gaat niet helemaal lekker bij volgens mij...
ik stem ook voor!
overigens ben ik wel uitgenodigd voor de fuif toch? moet ik zwemspullen meenemen en word ik weer met volle maag afgezet?
komt voor de bakker. plan je je vakantie ook vast even in? dan kan ik daar rekening mee houden. dank je wel, collega.
gelieve mij ook een vacature aan te bieden, ik kan na mijn examens beginnen. psst, dan worden we collegas rob!
lieve rob wil heel graag een baan. hebben jullie nog wat in de aanbieding voor deze intelligente, gemotiveerde jongeman?
wordt het niet eens tijd voor een baan bij psv?
zelfs een wil me niet... haaren
twee zenders met ajax, laat de rest van de wedstrijden nog even zien anders?...
was het niet goed gegaan?
heeuujjj willem ii terug in de eredivisie
wat je met een beetje vechtlust kan bereiken.. mooi!
was nou een stuk leuker geweest om in de kuip te zitten dan vorig jaar
prachtig! heerlijk gestapt ook ajax hahaha
hahaha wat een heerlijke wedstrijd!!
wel een lekker sfeertje zo met al dat vuurwerk... stelletje malloten uit amsterdam, je eigen keeper bekogelen
zo hee, wat een knal van van rhijn!
jumbotaferelen bij huize mooren vogelhuisje, check. regenpijp, check. vrolijk pasen!
onderwijsinspectie motivatie nederlandse leerling kan stuk beter | blik op nieuws goh, je meent het
chocoladetaart voor laatste les
wat een monsteractie van bale, beter ik kan kaartjes krijgen voor real valencia
net nog een griekse tekst gedaan en morgen de wekker op 8 uur. ik. moet. slagen.
noooo waarom heeft de daar gaat mijn avondje en dat voor zon stom wedstrijdje
ben je gevallen?
lekker in bed, eerst en dan prima
we gaan het wk dus serieus winnen!
nog één avondje leren en dan zijn we eindelijk voor een paar weken weer klaar!
en toen was het super mooi weer en zat ik nog steeds binnen grieks te leren, wat ik al de hele dag aan het doen ben. nog even volhouden...
voetballers die voor de camera staan te schelden...
wat is toch een goede nederlandse serie! eindelijk weer terug