vind je dat je voldoende ambitie hebt getoond met dit college de afgelopen jaren? ik vind namelijk van niet.
zou twitter nog overwogen hebben trump voortaan maar 14 tekens te geven? vast niet hè?
wethouder ‘wat er bijkomt moet betaalbaar zijn.’ maar dat is dus niet zo in amsterdam nu. sociale woningen is flink gedaald!
hele vage teksten bij ingestudeerd en niet zoals je zou verwachten van een sper/links politicus. maatregelen!
vandaag in ‘dingen die nooit gaan gebeuren’.
moet alleen nog wel even palland erin zetten
als die japanners humor hebben laten ze trump een bonzaïboompje met een heggeschaar te lijf gaan. of een zentuintje…
ja, of gewoon lieke mertens..
prodemos zoekt raad van toezicht leden! spread the word.
mooi, ik ga 19 november in rotterdam..
in texas minimaal 27 doden in een kerk bij een schietpartij. wat bezield mensen toch..
wow hahaha. en het mooie is dat het nog verkoopt ook.
ze weten het niet meer 😉
speciaal voor
dat ziet er echt niet goed uit.. kijk je uit?
oh en dan gaan die ronald de boer en kenneth perez nog lekker zuur lopen doen op heerlijk.
‘in een kolkend philips stadion in eindhoven’
lekker voor je 🤣
hoe groot is het veld bij jullie nu? en wanneer uitslag?
heerlijke pot in de lichtstad. 33 en we gaan nog een kwartier door!
eindhoven is los! als zelfs luuk de jong weer begint te scoren worden we echt kampioen! hoor dat publiek dan.
kom op psv! 20 minuten alles geven! luuk de jong 32!!
heel knap. is nyc echt zoveel langzamer dat dit in r’dam een 2.08 zou zijn geweest?
wel koud. beter ergens in maart.
of voor iemand als wenger die nu ook weer met 31 een topwedstrijd gaat verliezen.
ter avest gaat vol op de hiel staan van lozano. vermoed geen opzet, want tijdens afzetten. maar lozano bleef lang liggen..
hebben julie ook zo’n heerlijke zondag tot nu toe? 🤣
wat is eigenlijk de laagste positie ooit waarop een kampioen het volg. seizoen eindigde?
ik zal niet de hele dag tussenstanden gaan tweeten. maar deze snelle goal van feyenoord is het vermelden waard. 01 in den haag.
klaar voor een mooie voetbalmiddag in nederland en engeland! eerst adofeyenoord.
hele leuke middag. kandidaten haagse pvda leren elkaar kennen via ‘wie is je vader, wie is je moeder’ en wat drijft…
het nieuws dat fc oss volgend seizoen top oss wordt heeft niet geholpen..
de partij van de arbeid heeft echt een hele toffe voorzitter. werd vandaag toegezongen door volledige raad en colle…
dit lijkt me een heel goed idee.
fc oss wordt met ingang van volgend seizoen weer top oss! what a glorious day!!
wel leuk voor de begeleiders van die hebben binnenkort weer een mooi verhaal erbij in de plenaire zaal..
jullie begrijpen dat die 100.000.000 ‘wisselgeld met voorbedachten rade’ was van de coalitie toch? maar mooi dat het van tafel is.
van aartsen lijkt me een uitstekende keuze voor een jaar amsterdam als waarnemend bm.
inmiddels aangepast
ja en ik kan linksback van psv worden. even unlikely. gaan ze nooit doen.
met oa myrthe hilkens over idealen en hoe je die kunt behouden terwijl je toch ook mee wilt regeren. meer info…
laatste zin is meest interessant ‘we stemmen nooit meer op de pvv &lt..&gt dan is baudet een goed alternatief.’
ga dan ff uitzoeken wie de pa van bijleveld en van stientje wordt. dan zijn we rond..
heeft niks te maken met maar ik mis diederik in de landelijke politiek 😔.
dan bij deze het compliment aan hem. ik moest lachen.
wat een briljante gif huub
zijn jullie ook zo tevreden met feyenoord als nlse cl club? volgend jaar zal psv wel weer voordoen hoe het moet..
had ik kunnen vermoeden natuurlijk. enjoy!
heeft ze al een pa?
doei! veel plezier! waar gaan jullie heen?
alvs zijn mijn minst favoriete pvda bezigheid.
overigens is de serie ‘lucifer’ op netflix geregisseurd door jerry bruckheimer. niet de minste.
ja want deze jongen eet morgen pasta.
en na een verrassend gezellige alv nu een goed glas fanta en de netflix serie ‘lucifer’.
dus geldt zeker voor een aantal journalisten ook gerenommeerde media eerst checken, dan pas verontwaardigd worde…
complimenten voor mariëtte hamer als vz van de kandicie van de haagse pvda! en felicitaties aan oa 2 en 4!
de haagse pvda stelt de lijst ongewijzigd vast!
het duurt even, maar dan heb je ook wat
en als hij gewoon toegeeft als hij het gedaan heeft ook. maar vrees dat beide onrealistisch zijn.
zo langzamerhand is het gênant dat hij opnieuw geen minister wordt. aldus elsevier over van baalen bij de top 100 van rutte.
2/2 is wél een voorbeeld voor anderen. als hij de kracht kan vinden om hem door te zetten, wat me al moeilijk genoeg lijkt.
zeker. en zoals ik gisterenavond al tweette is het ongelofelijk dat pauw daar een podium voor biedt. m…
het moeilijke aan dit is dat na zoveel jaar het zo ongelofelijk moeilijk te bewijzen gaat zijn voor een rechter. ho…
pff. moeilijk hoor. ga er hierbij maar eens achter komen wat er nou echt gebeurd is..
dit. hier moet pauw zich ook niet voor lenen. wat er ook waar of niet waar is, dit is voor alle partijen schadelijk.
wat stáát hier in vredesnaam? mooi initiatief in theorie hoor dat stroom. maar geen mens snapt dit soort hipstertwe…
als het niet over zo’n ongelofelijk bizar invloedrijke posities ging was het smullen geweest.
de spingame is wel genieten vandaag hoor.
papadopoulos is al opgepakt op 510 maar komt nu pas naar buiten. en schijnt drie wk geleden via fb op zoek te zijn geweest naar book deal.
trump administration op dit moment.
staartjes. kwispelen. alles.
de laatste zin van is hoopvol, maar volledig kansloos helaas
er zijn nog geen pas voor en ank bijleveld?
hij is niet eens zo heel veel kleiner dan cor zo te zien
en ik dacht waarmee had ik het vorig jaar dan zo druk in november. maar toen was de interne campagne natuurlijk haha. nu tijd over.
ok.. ik blijk dus uurtjes over te hebben en nu kan ik van 14/12 tot 9/1 met vakantie.. das best lang.
een van de oudcampagneleiders trump is dus degene die indicted wordt door de grand jury.
introductiedossier vws nieuwe bewindspersonen
overdrachtsdossier ienm nieuwe bewindspersonen
introductiebundel bewindspersonen defensie
introductiedossier bewindspersonen financiën
hier het introductiedossier bewindspersonen ocw
wow! myrthe hilkens komt spreken tijdens dit pol. café over idealen in de politiek. wordt een bijzondere avond!
deze tweet gaat buma deze week achtervolgen. en is de eerste test voor d66 en rutte iii.
het is niet goed genoeg van bonjasky. zonde want dan komt ricobonjasky er nooit als hij dit verliest.
hoe ruzie te krijgen met vechtsportfans ‘dan kun je wel zeggen dat voetballers mietjes zijn, maar de kickboksers doen maar 9 min ipv 90’.
technical knock out 1.22 tweede ronde door knie. bonjasky wint.
ja en hij is slécht
nou dat was ook een leugen . 23.00u dan denk ik haha.
die jeroen glas is trouwens wel echt de worst caller ooit. wat een nep. pak dan iemand die goed engels spreekt.
wat heeft deze tweet te maken met buurtpreventie?
kamerlid heeft een mooi plekje in topsportcentrum almere en wordt uitgebreid gecomplimenteerd door commentatoren spike. leuk!
verder totaal niet relevant. maar ok. en daar moet je dan iets aan doen door actief…
dit soort twitteraars roepen dus nu meteen over vdlaan dat hij een antidemocraat was en veel erger. vanuit hun ano…
tja. iemand die over mladic zegt ‘laat maar vrij’ is sowieso niet de discussie waard. doei!
het is bangmakend en ziekmakend hoe snel zorgt voor een kakofonie aan geschreeuw en geroeptoeter. bah.
ik laat u verder vanuit uw anonieme account lekker schreeuwen tegen de werel…
dat is het wel
je bent een beetje te snel denk ik..
haha prima. maar ik vind dat hij nogal hand boven hoofd wordt gehouden. andere vleugelspits en dan locadi…
try 1.5 jaar. dit kabinet gaat ek verkiezing nooit overleven.
ik niet. ik vind dat geen referendum een beter uitgangspunt is voor toekomstdiscussie dan dit referendum.
allemaal waar. maar, niet schrikken, ik zei gisteren nog dat de partijen zoals we die nu kennen bi…
eens. maar dan moet het uitgangspunt niet een nietwerkend referendum zijn. met een stomme opkomstdr…
zeker en zeer eens. en wellicht dat in zo’n nieuw systeem directe democratie wél een rol moet hebben…
dat jij dat geen goede reden vindt doet niet zoveel terzake. voor mij is het nl. wel een goede reden…
dan zou ik ontvolgen, want ik tweet nu eenmaal veel over politiek en over voetbal. al 9 jaar .
wel pas 22.30 ongeveer dus we moeten nog even geduld hebben.
en ik ben nu eenmaal een groot voorstander van representatieve democratie. dus wmb geen referenda. ook niet correctief.
2/2 1 vd grote problemen vh referendum is dat mensen niet stemmen op het onderwerp. maar om hele andere redenen.
ik vind het twee losse dingen. ik heb gisteren ook meteen geroepen dat die uitspraak van buma heel a…
manhoef heeft bonjasky zelf uitgedaagd he.
nee. daar gaat het dus niet over. en dat is dus precies de reden waarom het goed is dat we stoppen met referenda.
vettel nieuwe neus. hamilton dus voorlopig geen kampioen.
verstappen p1!! hamilton eruit met flat tyre. vettel problemen?
ah. weer wat geleerd.
dat zou zomaar kunnen
hoe staat büttner in vredesnaam nog op het veld?
psv speelt sowieso dom af en toe. stomme overtredingen van bijv. arias. het lijkt te ontbreken aan voetbalintelligentie.
ongelofelijk dat hij nog steeds speelt. is dit tunnelvisie bij cocu? of zijn de jonkies nog niet goed genoeg?
luuk de jong mist weer voor open goal zo’n beetje. 1000 minuten zonder goal in alle competities. zet nou eens lammers of gustafsson erin!
is er nou vannacht ufc op en zo, hoe laat?
twee weken spanje en dit is je comeback? jezus..
ik ben ook tegen dit referendum, maar dit is wel heel erg de arrogantie ten top zeg. mon dieu.
morgennacht wintertijd! dus een uur slaap cadeau. lekker zeg.
ik durf het bijna niet te zeggen, maar ga nu baywatch the movie kijken.
ja daarom. ze zijn toch de constante factor in een turbulente tijd.
ok. terwijl ze toch best een bijzondere positie heeft op zo’n eerste moment.
in je eigen formatievlog . wacht.
zeker. moet toch iets.
ik vraag me al dagen af wie die dame was naast rutte in de treveszaal. weet jij dat?
klopt. ik mis ook nog de ‘van’ en ‘voor’. ging vnv even over de pa’s
zijn er ook
tot nu toe 22/24 bekend roomwit, jong, partijtijgers, politieke ervaring en talentvol.
haha dat denk ik ook. maar of jullie me 50min kunnen boeien gaan we zien .
derk moor zou kunnen voor ank
tof heren! morgen even luisteren!
jan mist dezelfde stientje vveldhoven en ank bijleveld.
lol je deelt één haags lijstje en meteen word je gevolgd door 67 lobbyisten. zwaait
bijleveld en stientje nog.
update rutteiii. zijn er bijna..
lol zijn er bijna!
we missen nog de pas van zijlstra, wiebes, bijleveld, ,
van den of van de?
yes. vond ik ook.
dit is de nieuwe pa van staatssecretaris menno snel financiën, d66 eddy zondervan adviseur dg belastingdienst
kijk, zo komen we er wel!
heb ik jouw mail? anders even dmen aub
en ja, ik weet dat er ministers voor en ministers van zijn. ben te lui om dat aan te passen.
laat ik het hier ook maar even in de groep gooien als er nog lui zijn die het handig vinden dit in word te hebben,…
ik leef voor lijstjes, dat weet je. moet ik je de digitale bewerkelijke variant sturen? dm dan even mailadresje
ahh mijn oud collega bij prodemos
check. ik hou je in de gaten . als het volgende week rond is, zal ik het lijstje nog een keer delen.
dit is overigens een overzicht van alle tot nu bekende pas van de nieuwe bewindspersonen cc
directeur van spreekt volle raadszaal den haag toe in het kader vd afsluiting ‘race naar de raa…
oh, ik heb geen idee waar je het over had. maar zag de rant.
hebben eigenlijk al verteld wat ze met het formatievlog gaan doen na deze week?
2/2 gaat niet om de poppetjes, maar om het beleid. en in dat beleid heb ik een stuk minder vertrouwen. dat lijkt me belangrijker eigenlijk.
heb het peil.nl onderzoek maar gewoon eerlijk ingevuld. heb eigenlijk best veel vertrouwen in aantal bewindspersonen merk ik. maar het 1/2
ah en klijnsma! zij ook natuurlijk.
nee? wie mis ik? oooh van dam!
bruno bruins begint met een approvalrating van 9%, lol. arme man.
dus ze doen het al 50 jaar zo, maar jij vindt het verkeerd klinken dus moet het anders? ehm. ok..
weinig te zien vanaf hier.
deze tweet is niet zo slim. iedere bewindspersoon in ieder kabinet ooit heeft een politiek adviseur.
ik mis nog de pas van zijlstra, bruins, wiebes, bijleveld, vnieuwenhuizen, blokhuis, vveldhoven, vark, snel, visser, keijzer en harbers..
maar het nieuwe kabinet is er nu. en de zit nu in de oppositie. dus de fluwelen handschoenen gaan uit. de bokshandschoenen aan. go!
en ook dank aan diederik samsom zonder zijn inzet had dit kabinet nooit als 1ste in lange tijd de eindstreep gehaald.
zij maakten nederland in hun rol als bewindspersoon sterker en socialer. gelukkig blijft een aantal in de tweede kamer!
veel dank aan lilianne ploumen, jet bussemaker, jeroen dijsselbloem, bert koenders, martin van rijn.
arme man..
wanneer wordt eigenlijk bekend wie waarnemend burgemeester van amsterdam wordt?
wat paul zegt. ik vrees dat het juist met zon antwoord aannemelijker wordt.
psv supporter hier de klassieker is veel minder tof zonder uitvak. voetbalpassiestrijd. ook in aanmoe…
ik ben ook al klaar met een aantal kandidaatbewindslieden..
bijzonder stuk over de socialistische partij in arnhem.
deadlines wegtikken. defqon.1 powerhour op de oren, cafeïne, suiker en gaaaan.
zit iemand even terecht hoog in zijn adrenaline . het is lodewijk, ons land maar vooral al die mensen die ook kei…
het enige echt interessante zou overigens de antwoorden op de mails zijn geweest.. maar die krijgen we vast niet te zien
terwijl jullie aan het buitenspelen zijn over een spfrecordje, is 48u voor einde termijn nog keiharde resultaten aan het boeken!
wow nice. lekker campagnevoeren ftw.
zou een beetje vreemd zijn twee dagen voor het constituerend beraad vind je niet?
huub, op hoeveel achtereenvolgende gl lijsten sta jij nu eigenlijk? landelijk en lokaal?
was lieke martens de geheime gast van rtl late night maar..
bijzondere tweet..
zou niet verkeerd zijn geweest vandaag..
jullie krijgen één kans om serieus genomen te worden pls dont be a childish prank..
oenpensioen. een nieuwe bijnaam voor het toekomstige pensioenplan van dot kabinet is er vast
overigens wordt in het kader van nieuwe verhoudingen minstens zo interessant wie de nieuwe vicefractievoorzitter van de vvd wordt.
thanks
ik heb er wel zin in. worden belangrijke dagen voor enkele fractievoorzitters. btj zoals koeman tegen arsenal dit weekend .
woensdag? is constituerend beraad niet vrijdag?
daar gaan we al wat rutte betreft dinsdag en woensdag volgende week
ja, maar het blijft den haag, dus ben benieuwd
wanneer het kabinet inderdaad komende donderdag op het bordes staat, wanneer is dan het grote debat over de regeringsverklaring?
fluit maar af.
wat een calimeropubliek heeft dat feyenoord zeg. totaal niet zingen. alleen maar zeiken bij iedere miniscule overtreding. kom op.
ik zeur vaak op hem, maar brenet speelt echt een hele goede wedstrijd vandaag. alle passes zijn heel goed.
ik mocht vnv weer eens ouderwets tegen 150 man aanpraten op de publieke tribune vd tk en mini masterclasses geven.…
ik vind je een beetje zuur op deze zaterdagmiddag.
als ik goed zie nog sámen met groningen ook 😂
en daar maakt het ok? vreemde redenering
linkje is dood
komt wel waterstaat bij toch?
inderdaad. want limks moet opstaan, vooruit en schuilplaatsen bouwen als rechts het af laat weten.
vind ik een hele bold move tweet als je partij 5 mannen en 1 vrouw ook nog op ienw minister maakt.
on. ge. lo. fe. lijk.
mooi van d66, maar jullie hadden ook richting de anderen met de vuist op tafel kunnen slaan. bent n…
dit is echt een heel slecht stuk. waar is het mbo? overigens is ingrid v engelshoven nu tweede kamerl…
willemii op 01 tegen 10 man van groningen. sol is de naam.
ja ok, maar dat zijn ook wel echt trollen
groningen door met 10 man.
ja hoor, die kati komt op het partijbureau en er is meteen een regenboog. some people..
jahaa zie volgende tweet..
lol oh ja jij zit erin. sorry tom. lange week geweest.
lol groningen momenteel
heb jij enig idee van een tijdspad van die cie?
tuurlijk heb je gelijk. maar echt handig was dat ook niet. zeker toen timmermans e…
toegegeven het is ongelofelijk klweer in groningen.
het is niet gebruikelijk dat één partij beide bewindspersonen heeft op één departe…
nou die oproep van arjen robben van een tijdje terug heeft niet geholpen. er zit geen hond in het fc groningenstadion.
is er al een nieuw formatievlog eigenlijk
econoom benoemt een opvallend punt in podcast haagse zaken nog nooit hadden we vrouwelijke minister van szw of financiën.
nu d66 vier vrouwen nomineert en twee mannen, betekent het dat vvdcdacu in totaal maar vijf vrouwen en dertien mannen nomineren.
wat ook altijd helpt is een companycreditcard met onkostenrekening. oh, en natuurlijk gebruik van de…
nee joh! ik ben sociaaldemocraat! weet je wat dat kost? is allemaal belastinggeld he! sure, ik dm je even
hehe van mij wel. als het maar interdepartementaal is en minimaal in 15 andere landen werkbezoeken vo…
jij snapt den haag nog steeds niet hè.. kunt beter een half jaar wachten en dan speciaal adviseur woo…
pannenkoeken zeker 😂
is die motie nog praktijk dat alle biologisch smerig en veganistisch moet zijn lieke?
dit is een grapje toch? kop had moeten zijn ‘iets minder gênant weinig vrouwen in rutte iii’
directeur opent een bijzondere dag bij aanhang, vrienden, kennissen en relaties zijn vandaag t…
wat gaat die stas op bzk doen?
ed anker wordt genoemd als stas. weer een zwollenaar. leuk
zou eigenlijk in het regeerakkoord moeten worden geregeld alsmede de landelijke introductie van ‘het…
stas zorg?
lossen jullie meteen even op als je daar toch bent ? veel plezier!
lodewijk kan dit nog heel vaak erbij pakken met verschillende nieuwsberichten eronder. gelukkig kunnen we 21 maart…
precies. en dan kun je wel zeggen er zijn twee vrouwelijke vicepremiers maar incl. de premier is dat dus ook gew…
zeer lezenswaardige analyses van het regeerakkoord v tal van experts, gevraagd door dit is erg fijn!
ambassadeurstijd! zo te zien moeten ze haar/hem nog ophalen, of zijn ze net terug van noordeinde.
wat een powervrouw! 40 jaar lang! is één van de kloppende harten van de mooie haagse pvda.
mochten als 18 jarige broekies andijviestamppot komen eten op zijn kamer in 2002. ook met…
oud rotterdamse wethouder en was nu bm westland. cda politicus.
dat vraag ik me met deze partijen ook af ja . dit zijn de belangrijkste onderwerpen. portefeuilles zijn groter.
kan iemand dan alstjeblieft andere bloembakken in de grote marktstraat zetten?
zeker. maar aangezien sociaaleconomisch de grootste hervormingen worden geïnitieerd, verwacht je toc…
bevestigd aan alle kanten so i dont dispute, maar is het oude belang van ‘de vierhoek’ dan weg aangezien cu daar niet in komt?
ja en toen stond er dat volgens de nos bijleveld vicepremier zou worden. dat werd later gewijzigd.
nou goed. ‘aanpassing’. ongeveer hetzelfde. zal hem weghalen
ja tuurlijk. niet op gelet. maar je hebt gelijk. recordaantal zelfs.
dit is een goed punt.
nee. lodi is lodewijk bleijerveld. lo is onze politiek leider
boek van ferdinand grapperhaus rafels aan de rechtsstaat werd genomineerd voor de prinsjesboekenprijs. toch maar eens lezen denk ik .
ik zei al bewust je. maar jullie kwamen tegelijkertijd met voorspelling.
dit is in ieder geval 10
nu ja, 10 minuten geleden nog niet
haha dit bedoeldel ik. journalistiek strijdje tussen nos en ad over wie er gelijk krijgt bijleveld of de jonge cc…
maar dit wordt interessant. want ad zegt nu dat de jonge vicepremier wordt, en nos dat bijleveld vicepremier wordt.
ja maar wel maar 5 ministers vrouw en 11 man.
dit is nederland in het nos scenario de komende 3.5 jaar
ik denk dat de nos gewoon iedereen de moeder aan het trollen is. die zitten reactie uit te lokken. kan niet anders.
die gooien even alles helemaal om
kajsa als vicepremier op een uitgekleed bzk? geloof ik niks van eerlijk gezegd.
idem voor de 40 jarige maarten smit bij de vvd als cora van nieuwenhuizen naar den haag komt.
als esther de lange overigens naar den haag komt, krijgt de 40jarig chantal van den berg toch nog een ep zetel
sigrid kaag hoor ik op os
hehe oh en je ontwijkt de grootste uitdaging. want wie gaan in vredesnaam venj doen .
die laatste zou een goede stas familiezaken/szw zijn. en je mist nog ingrid van engelshoven op bijv. bzk.
dat... is een hele goede vraag van jou hahahaha
en koolmees kan niet want dan zou cu niet in de vierhoek zitten?
je hebt berichtgeving net gezien?
carola schouten vicepremier voor de christenunie!
wel slim om iedere avond een paar namen te laten lekken. heeft niemand het nog over de inhoud .
tja. angelien eijsink op defensie had ook gekund.. of diederik samsom op klimaat en een btj ez.
raymond knops bijvoorbeeld.
dat zijn incl. mark rutte 5 mannen en 2 vrouwen. en al 3 vvd, 3 cda, 1 cu. dan moet het dus van d66 komen vwb vrouwen.
nu zeker wopke hoekstra fin, carola schouten szw, huge de jonge oudzorg, ank bijleveld def, halbe zijlstra bz, wiebes minezkl
ja wat dan? meneer samsom? d? sirius?
ik zet mijn geld op paul blokhuis.
die heeft een aardige metamorfose ondergaan. jan kees de jager is er niks bij..
als dekker klopt zit de vvd op 4 mannen en 0 vrouwen voorlopig..
eens. er moeten overigens ook stappen gezet worden door v…
en, verder d66 kan hoop vestigen op kajsa ollongren, wethouder in amsterdam, en ingrid van engelshoven
oh wacht er is wel nieuws. zegt dat sander dekker genoemd wordt voor v&ampj.
ik vind dat het te weinig namen lekt uit het nieuwe kabinet . whos next?
de dag goed begonnen op een mooi plekje in den haag.
volkskrant heeft geen eigen namen kunnen achterhalen, dus gaat de diepte in met bekende namen. slimme zet.
ah ok. maar nog geen officiële tegenkandidaten?
wie zijn de tegenkandidaten en wanneer is de verkiezing?
loool krijgt het voor elkaar ook nog mona keizer in het artikel te zetten. welke stagiair was dit??
ik vind het zo gênant dat de na 5jr nog steeds dingen als kleinsma en samson schrijft. niveautje wel.
hoeveel maanden zou het nog duren tot zegt f... it en gewoon vast gaat runnen?
is dat echt zo? zou een moeilijk te verkopen maar niet onwelkome way out zijn voor veel britten denk ik.
hier zit een hoop slagkracht aan tafel!
de man heeft een punt.
en anders wat sjaak swart? dan moet hij degraderen naar de jupiler league?
ja als dat niet werkt dan verdienen ze die boete ook. dan ben je wel zo dom.
je zult keylor navas zijn...
na ez+klimaat voor de vvd kan alles . zou me niks verbazen als ze teev…