huisarts onthult “we worden voortdurend bedonderd door de farmaceutische industrie” via
met de rug naar de samenleving via
gediscrimineerd in eigen land via
trump gaat de geheime documenten over de moord op jfk openbaren via
prehistorische fossiele tanden van 9,7 miljoen jaar oud kan de evolutionaire geschiedenis van de mens… via
een echo uit het verleden via
denemarken sluit wegens dreigend terreur gevaar de grens met duitsland via
aarde weigert halstarrig gevaarlijk op te warmen
aarde weigert halstarrig gevaarlijk op te warmen via
uitslag stelling veel scepsis over rutte iii via
catalonië opent vele ogen europees centralisme begint vrijheden te verdrukken via
onleesbaar...
27 miljoen? ‘ik zal er niet minder om slapen, hoor’ via
urbanus ik, een rechtse zak? laat ze maar zeggen via
jullie zien er al behoorlijk blauw uit
thierry baudet fvd wij gaan voor minimaal 20 zetels! via
rusland stuurt 100.000 troepen voor oefening bij navo doet denken aan koude oorlog via
facebookrobots ontwikkelen eigen geheimtaal via
tja, ik ook, maar dit jaar dan wel?
de naam mensen niet waard.
het demoraliseren van contant geld als laatste stap naar een politiestaat via
nee, wij hebben ons al lang geleden neergelegd bij de geweldloze inname door de eu.
zou wel te gek zijn...@helskabaal
absoluut mee eens.
turkse overheid neemt ruim 50 christelijke kerken in beslag, westen zwijgt
gratis bestaat niet via mooi verhaal, ook doorklikken naar pamelas prachtige blog met veel humor
stoppen met islamkritiek is een historische vergissing
zo pakt belgië vakantievierende asielzoeker aan via
justitie grijpt niet in ‘eritrese asielzoekers vieren massaal vakantie in eigen land’ via
breaking italië wil haar havens sluiten voor economische gelukszoekers via
duizenden pagina’s onder de pet via
duizenden pagina’s onder de pet via
generaal pardon vanaf var einde zolang er geen sluitende wetgeving is, dat zet ondernemers in beweging naar zzp to…
waar bemoeit de overheid zich mee! via
baudet formatie is een poppenkast! via prachtig betoog.
cnn producent samenzwering trump met rusland is inderdaad nepnieuws voor wie het nog niet wist...
het gelijk van trump pers fabriceert nepnieuws
25.000 migranten binnenhalen via
zegt toch genoeg over wat dat geloof inhoudt?
dit zal toch niet waar zijn?? stop het ‘bidden’ van schoolkinderen in de moskee! via
waar zijn de imams die dit terrorisme met volle overtuiging veroordelen? zegt genoeg toch?
opzeggen klimaatverdrag zou best verstandig besluit zijn van trump via
aantal bijstandstrekkers stijgt, vooral door migranten via
het faillissement van de rechtsstaat? via
onderaan pagina staat leave a reply, kun je proberen. misschien geven ze nog wel antwoord zonder subsidie?
euministers komen met richtlijn voor censuur van sociale media via
nieuw in de kamer ik doe nu nog alsof ik van niets iets begrijp via
waarheid als een koe! via
gefeliciteerd en via
flauw hoor
kleine dictator wijffels is een komediant via
moslims mogen legaal verkrachten in europa via
mislukte emancipatie, mislukt feminisme via
’ene controleert de andere helft’ via
dorine hermans ‘koning heeft monarchie gisteren opnieuw uitgevonden’ via
asielzoeker woont in irak en krijgt 85 000 euro sociale bijdragen van zweden haha succes met terugvordering...
turkije wil russisch raketsysteem via
geen enkele ‘vluchteling’ heeft recht op asiel in tweede betreden schengenland via
britten gestraft voor brexit? het is werkelijk schandalig via
justitie grijpt niet in ‘eritrese asielzoekers vieren massaal vakantie in eigen land’ via
islamisering verstopeieren van de hema via
geert wilders wordt geïnterviewd door ebru umar via
ik moest zeggen dat ons mam ook trots is...
islamisering frankrijk wil pasen en pinksteren afschaffen via
we worden steeds ouder met zn allen via
hoog optimisme in de vs door trumps toespraak voor het congres via
opinieblog roger l. simon de nacht dat de democratische partij stierf via
meer dan 300 wetenschappers roepen trump op zich terug te trekken uit de vnklimaatconferentie via
machtigste man van europa ‘mijn revolutionaire eugenetische plan’
wilders komt niet naar nieuwsuur, want dat vindt hij niet leuk via gemiste kans voor pvv
de overheid schiep alle voorwaarden om geert wilders uit te schakelen de verkiezingen moeten worden … via
verplicht vaccineren bij vogelgriep?
christenen van asielzoekersboot in zee gegooid moslims aan boord veroordeeld via
pendeltruc ontdekt migranten halen in meerdere eulanden uitkeringen op via
pinguïndans aanstootgevend voor islamitische school
technasium, mooie opleiding dtw 2016 onderwijs jongeren en techniek via
noorwegen pompt meer oliegeld in aandelen via
zouden zich niet met vis, vlees, bloemen en autorijden moeten bezighouden...
van de rijkste landen van de wereld naar armlastig...
felle kritiek op reddingsoperatie middellandse zee missies zijn veerdienst geworden via
franse regering weet het ook niet meer....muslims riot in france! via
haar eerlijke niet politieke mening..vvdkamerlid berckmoes ‘westeuropa wordt soort eurabia’ via
pvvstemmers houden dat geheim via
hongarije gaat asielzoekers opsluiten ‘om schengen te redden’ via
de managers ziekte via leuk stukje...
gezellig stukje tsjechische tv over de toestand in duitse ziekenhuizen via
wetenschapper wij hebben global warming data vervalst voor klimaatconferentie parijs
dit zeiden ze eerder via
er was eens een referendum president oekraïne wil referendum houden over navolidmaatschap via
het stille verdriet en de woede van nederland
so gehts zweedse tieners nodigden afrikanen uit voor feestjeeindigde in geweld/verkrachting via
nigel farage in het europees parlement over de overwinning van trump via
vs grote meerderheid staat achter het tijdelijke inreisverbod via
man zegt tegen 2jarige jongen dat hij zijn handen omhoog moet doen. dan doet hij het ondenkba… via
interview dick schoof nederland is uitvalsbasis islamterreur via
trumps euambassadeur verwacht dat euro en eu binnen anderhalf jaar instorten
migranten ja, geen vluchtelingen..
hoe ‘geheime’ wetten de eu nog minder democratisch maken via
moslimleiders in 2023 leidt turkse president erdogan het islamitische kalifaat
poetin en assad hebben mijn leven gered | nieuws | ad.nl
het ongemakkelijke gevoel bij velen is om reden dat men niet weet waar het eindigt of waar de limiet ligt tav buitenlanders
gigantische fiasco voor de links liberale kabeltv tijdens de trump inauguratie ceremonie via
ze waren al gek daar, maar nu helemaal....rechtbank de zweedse politie mag gestenigd worden via
voormalige baas zdf &amp#8216duitse regering bepaalt het nieuws&amp#8217
bij partijcongressen komt één ding terug rutte moet weg via
trump voorspelt meer landen gaan eu verlaten via
cnn is medeplichtig aan karaktermoord op trump via
te gek voor woorden.
alarm! 15 miljoen afrikanen op weg naar europa via
met brexit engelands economie sterkste in de wereld 2016 via
lees je niks over in de nederlandse reguliere media...
duitsland 1000 allah akbar blèrende mohammedanen vallen politie aan en steken kerk in brand via
leeglopen via
politie keulen belooft dit jaar geen massaaanrandingen via lees de reacties...
vn verklaart oorlog aan joodschristelijke beschaving.
massagraven met burgers gevonden in voormalige rebellenwijken aleppo via
sylvana verlaat denk ‘vooral bezig met mediaaandacht’ via lees de commentaren....
standbeelden van christus en andere christelijke figuren worden in duitsland beschadigd en vernield via
aleppo bevrijd, de pers gaat door op zijn heilloze weg via
duitse straten vervallen in wettenloosheid
ultieme poging obamaclinton kliek om verkiezingen van trump te stelen via
nigel farage de eu heeft niets geleerd via
het wordt tijd voor een nieuwe evolutie via niks nieuws onder de zon dus...
pentagon vs. obama legerleiding vs probeert derde wereldoorlog te voorkomen via
kamer wil geen pauze in overleg eu en turkije via
ik stem pvv, maar loop er niet mee te koop
trump en putin samen op isis jacht.
spetterend duet trump en farage bron leuk
mag de rechter wilders veroordelen op basis van louter gevoelens? via
duits gerechtshof shariapolitie die mensen intimideert is niet illegaal via
frappant inzake madeleine mccan
er is een veenbrand en die woedt van jewelste via
merkel met obama het internet is een verstorende kracht, die beteugeld, gemanaged en gestuurd moe… via
frans timmermans krabbelt terug na uitspraken over rol gülen via wat een flapdrol, niet de eerste keer.
heeft hillary clinton toch nog kans om president te worden?
trump roept in overwinningsspeech op tot eenheid via
juweeltje im in telegraaf vanmorgen
steun dit project raffie chohan in hoger beroep | kijk op via
zwarte piet is nooit een slaaf geweest via
duitsland leert asielzoekers hoe ze seks met blanke vrouwen moeten bedrijven via
haha fcutrecht fan gaat tonnen? winnen.
het amsterdam waar ik zo trots op ben, bestaat in het verleden via
asschers spoor van mislukkingen steeds net op tijd vertrokken via
het ware gevecht achter zwarte piet via
obama besluit vandaag over militaire actie syrië
de endlösung voor de oudjes volgens vvd, pvda en d66 via bah
unesco keurt resolutie goed waarbij joodse historischreligieuze banden met jeruzalem w… via
er wacht ergens een ongeduldige dictator. die laat niet los.
trump ‘hoefde 18 jaar lang bijna geen belasting te betalen’ via heet verliescompensatie en volkomen legaal
ons drinkwater al decennia lang vervuild met asbest via
goed artikel. de krankzinnige syrische oorlog van rusland en het westen via
merkel wil vluchtelingen inzetten als vrachtwagenchauffeur
angela merkel wil wir schaffen das niet meer herhalen via
voorzitter van de europese raad bekritiseert de politiek correcte landen die de asielchaos veroorzaa… via
algerijnse auteur kamel daoud het boerkiniincident in nice was doorgestoken kaart via
322 rendieren gedood door bliksem. wie gelooft dat?
hongaren raden de leeftijd van eenzaamkomende vluchtelingkinderen in zweden via
hongarije ‘migratiecrisis bewijst dat europees systeem kapot is’ via
nabestaanden mh17 doen beroep op eu via
het probleem is dieper dan een burkiniverbod via
amsterdam brievenbusbvs niet stoppen via
turken te vriend houden amerika valt gülen en syrische koerden af via
charmeoffensief eu gaat turkije helpen bij verkrijgen visumvrij reizen via
dit is de reden dat we dingen op facebook delen
“wij zijn merkel´s gasten” asielzoekers weigeren te werken via
kwart nederlanders weet van christenvervolging middenoosten
dat stemmetje diep van binnen via
microsoft lekte golden key van backdoor | automatisering gids via
creatief met kinderen islamitische staat stoomt 1400 yezidi kindslaafjes klaar tot wandelende bom… via
eindelijk een bericht waar je van opknapt! via
gloednieuwe airbus 340600 crasht tijdens test in toulouse, oh wacht dat mogen we niet melden aangez… via
geen stroom op incirlikbasis geen probleem, zegt amerika via
de euro, een tragische mislukking observaties van econoom joseph stiglitz via
juncker hoe erg de migrantencrisis en het terrorisme ook worden, we zullen onze open grenzen nooit … via
project smeergeld. reuzel via ik propageer dit niet, laat dat duidelijk zijn.
vraag je eens af waarom hij zo snel visumvrij reizen voor turken wil...wat zit daarachter?
overzicht hoe komt uw bank uit de europese stresstest? via
is dreigt met de atoombom. er is reden genoeg dat serieus te nemen
dit doet inflatie met honderd gulden
wissen is bij whatsapp niet echt wissen | automatisering gids via
terreur wat is het en hoe werkt het? via
merkel moet weg! duitsers gaan zich verzamelen in een grote demonstratie tegen het asielbeleid via
de vlaggenkrijgers via
ta record en ploeterbeurzen via
open brief aan om waar blijft onderzoek naar haat, dreigementen tegen andere prominenten? via
is vrijheid een illusie? via
duizenden negers vallen politie aan, steken mensen neer, plunderen mcdonalds, in... londen via
nice weigert verzoek camerabeelden aanslag te wissen via
nederlandse websitebouwer werkt voor jeroen en kees, maar niet voor souad via
volkskrant moet begrijpen ‘nice’ was aanslag op onze manier van leven via
betalen voor spaargeld in aantocht de zakelijke klanten moeten er al rekening mee gaan houden dat zij straks moeten betalen voor deposito’s
erdogan stelt noodtoestand in voor drie maanden /via
de link zakelijk op werkt niet. rest wel, klopt dat?
turkije schuift 15.200 leraren aan de kant in nieuwe zuiveringen via arme kindjes allemaal gehersenspoeld
na mislukte staatsgreep pleegt erdogan zijn eigen coup via
erdogans invloed aanhangers mobiliseren zich door heel europa via
turkije weert amerika van luchtbasis na ‘rol in coup’ via dit lijkt hele gevaarlijke ontwikkeling..
meer dan 3000 rechters ontslagen. dat lijkt niet op democratie. rechters zijn toch geacht onafhankelijk te zijn?
het waren hoe dan ook vrijheidsstrijders. moet met alle middelen zorgen dat hen niet de doodstraf wacht.
de nos na brexit het is allemaal de schuld van wilders. ja hoor.
italië omvallende banken, een antieu referendum, en nu ook nog een bankrun? via
brulaap timmermans is de ceausescu van deze tijd volgens
brexit!? fixit! achter de schermen van de
durf uw geliefde unie uit te kleden, frans timmermans! via
oppositie woest over procedure rond pensioenen
afgaanse aanrander mag volgens brugs parket gerust een 14 jarig meisje aanranden via
dat alleen domme, xenofobe mensen een huivering voelen bij wat er in brussel gebeurt, is een plat misverstand. zo is het.
eindelijk toont de staat enige integriteit. 21 jaar te laat.
duitse machtspolitiek kan zomaar het einde van eu inluiden via oosteuropeanen halen kastanjes uit vuur.
het geheime spel van europa via het was juncker, not tusk overigens met die laatste uitspraak.
nederlanders ‘den haag moet einde maken aan migrantenstroom’ via
waar zijn de eurocraten met hun vage taal over solidariteit? via en zo is het...
brekend. duitsfrans plan eu superstaat gelekt. merkel kiest vlucht voorwaarts!
hoe groot is de kans op een brackin? via
wanneer dit dan onze nieuwe stadswachters worden dan wil ik vandaan nog een referendum om bij ruslan… via
weg met juncker en zijn ancien regime! via misschien geen slecht idee....#eu
worden onze pensioenfondsen leeggeroofd? brussel kondigt eupensioenwet aan na referendum via
en dan dit..... brussel kondigt eupensioenwet aan na referendum via
vaarwel pensioen
duitsfrans plan voor flexibele eu moet nieuwe referenda voorkomen via beetje te laat toch?
brussel is heel dom als het weer voor de vlucht vooruit kiest via
ticket net aangemaakt, dank.
momenteel problemen met voip. errors server error in myvoiptiger application..
was zeker hele belevenis?
iets voor ons?
bravo minister van buza duitsland. oorlogszucht navo met rusland.
heel fijne herinneringen aan nac
“wij zijn door een ramp getroffen want wij hadden de illusie dat wij de islam konden aanpassen”. interessant artikel
mooie nieuwe uitdaging. op naar de domtoren!
perry hendriks naar fc utrecht
transfer communicatiemanager nac naar fc utrecht
ik dacht nog die edgar dean mitchell zal wel dood zijn en ja hoor overleden 4 feb 2016..
toetsenbordhooligans maken van nederland nog geen racistisch land via
echte zwarte mensen bestaan er volgens mij niet.
goed plan voor nationaal zorgfonds
buitenspel afschaffen? of buitenspel alleen vanaf doellijn?
geniaal. volgens mij heeft douwe de 12 punten van belgie al veiliggesteld.
hoezo onverwacht. ik zei het toch.. haha
hoogmoed komt ten val.
orwell 1984 niet ver meer weg...
nieuws?
wat een cluppie...
24 maart 2016 de dag dat nederland nummer 14 verloor /via
belgie enkelband voor teruggekeerde syriegangers is goed idee.
afd doorbreekt morele superioriteit van elite
als pvvaanhanger vrijuit mag spreken, dan wilders ook
waarom u niet meer kunt reageren op onze artikelen einde vrijheid van meningsuiting is begonnen?
haha lachen...wij willen dat de ratten verdwijnen.
new world order bijna voltooid en nauwelijks iemand die het ziet video | niburu
binnenkort verlengstuk van bvd.
goed verwoordt door xander
we zijn wel degelijk in oorlog
wat een dooddoener wij zijn met meer dan zij. maar zij hebben wapens die wij niet mogen hebben...#koenders
ecat laatste nieuws. binnenkort iedereen zn eigen energie opwekken?
witte huis bereidt zich voor op kilshot...
natte voeten of erger?
nasa betwist conclusies van ipcc massale aangroei antarctische ijskap groter dan verliezen
wordt het amerikaanse congres eindelijk een beetje wakker? video | niburu
de gifbeker is nu helemaal leeg, het kan nu alleen maar beter worden.#nedcze
ecat25augustus2015 patent verleend voor de ecat energie opwekking
duitse dominee luidt noodklok in veel duitse azcs geldt inmiddels de sharia | thepostonline
een treinreis door europa nieuwwij. aangrijpend verhaal
einde groupon in zicht. grootste probleem is nieuwe klanten vinden zonder te spammen.
slecht nieuws voor klimaatalarmisten afrikaanse woestijnen worden groener door hogere co2,,ninefornews.nl
explosieve sfeer op lesbos inwoners voelen zich bedreigd elsevier.nl fijne vakantie op lesbos...
“president obama durft niet de waarheid te vertellen over de oekraïense oorlog en mh17″
amerika geeft toe dat cannabis kankercellen doodt
actie in duitsland tegen komende derde wereldoorlog | niburu. en wij pang pang pang..te weinig munitie
ouderen op zwart zaad via diep triest dat deze regering het zover heeft laten komen
justitie gijzelt ook zieke mensen voor niet betalen bekeuring | schaamteloze overheid
nieuwe kleine ijstijd op komst brrr
turkije roeit de koerden uit, obama het syrische leger, die beide isis bevechten.snapuhetnog?
nou ja zeg, mijn vrouw kreeg bos rozen en excuus vanwege foute voorlichting aow en onbehoorlijke behandeling roermond, toch top!
global warming onderzoek uitgesteld vanwege ijs | niburu
president obama heeft iran vrij baan gegeven via
einde van onze democratie? gaat dit bij ons ook gebeuren?
eurommezwaai via geeft precies de gevoelens van nu weer voor velen, maar de politici blijven maar doorgaan.
volkomen terecht, slechts een schuldige mladics.
derde redding griekenland gaat europa astronomisch veel geld kosten
europese munt ook in verleden problematisch
grieks parlementair comité verklaart alle schulden aan de eu illegaal
wat een zieke lui bij inzake bah
tom staal trekt rioolput eu open brussel
column valentijn driessen fbi helpt blatter een handje via
prins claus had een vooruitziende blik als we geen miljoenen naar daar brengen, komen ze met miljoenen hier.
6 dagen wachten op beantwoording van een support ticket is echt te lang..
griekenland wordt energieknooppunt voor groot deel europa | niburu
van mij mag ambtsgeheim arts en privacyregels geschonden bij geesteszieke piloot
griekenland nu snel uit de euro en schengen laten vertrekken. nav laatste chantage om grenzen open te zetten voor
vaginale schimmels? reclame tijdens etenstijd. kan de 2e kamer daar niks aan doen ipv anti rook maatregelen?
het wordt kou lijden in europarusland staakt gasleveranties via de oekraïne | donquijotte
wetenschappers griepprik verdubbelt risico op griepbesmetting | ninefornews.nl
onbetrouwbare honderdduizenden die nog niet eens weten wanneer ze precies krijgen in 20152016
google wordt tijd dat ze fransebaan eindhoven eens updaten....
volgens ron paul, volgens mij de nog enige weldenkende amerikaanse politicus
mooie foto met snor op je twitteraccount...
rusland beschuldigt nederland van mh17 doofpot | niburu
maleisie opzettelijk buiten mh17 onderzoek gehouden | niburu
teruggave goud zwijggeld voor mh17? | niburu. ben gek op samenzweringen... mh17
je spaargeld bestaat niet echt | niburu