zal niets over dat einde zeggen, maar....nee lees zelf maar.
hahaha en die was slecht....!
mooi bovenop die berg zetten en er nooit meer vanaf laten komen.
dus we zouden meer voedselbanken moeten subsidiëren? of een mortieren fabriek moeten opstarten zodat vo…
die jankerd van een aanklager zitten kijken? als je nog serieus genomen wil worden, doe iets aan de nlscheidsrechters!!
toen kwam het ook goed, dus meer vetrouwen in die aanpak, dan in de aanpak van ons ingeslapen bestuur
hahaha dan zal ie het vast niet goed kunnen maken met 2 fusten bier.....😂
ben maar niet bang, wij zitten helaas nog wel een tijd met hem opgescheept....
deze directie en spelers raken nergens van in paniek, daar maak ik me nog het meeste zorgen om.
maar verder heb ik veel positieve dingen gezien
een cultclub speelt niet op kunstgras!
ja die van de 7 grooste ter wereld vinden het fantastisch, de rest ziet het verkeerd.
daarom zijn er 7 clubs ter wereld die op het hoogste niveau op kunstgras voetballen...…
geef een levenslang stadion verbod. zulke mensen maken het voetbal kapot
spelers en supporters willen het niet, zijn dat niet de belangrijkste redenen....
en weer werd er verdedigend gewisseld....pffff
precies, laat die ultrashit maar lekker in zuid amerika
beterschap
of een grote bezem
zal wel niet
niet alleen de coach, is toch wanbeleid ten top!
haha geen zin om trainer te worden....
met een management dat er totaal helemaal niks van snapt zal ie nog wel blijven zitten
krijgen we trending... same shit different season.
tja je hebt voetbalfans voetbalsupporters en consultants...…
zet die rood witte bril af en accepteer eindelijk eens dat het al twee jaar ruk is en nu weer…
je had timmerman moeten worden, je slaat de spijker wéér precies op zn kop...
das waar . al is het in de competitie al 2 jaar het aankijken niet waard....de wedstrijde…
dat is nu toch al.....we hebben toch niet verloren en den haag is natuurlijk een ijzersterke tegenstander.....#cocuout
2 jaar op rij angsthazen voetbal en te bang om te verliezen...klaar mee!!!#cocuout
hoe is het knoop...hij is toch aangesteld om zn elftal te laten voetballen!! al 2 jaar op rij is het…
wie nu nog durft te zingen over passie en strijd in combinatie met is denk te hard op zn bolleke gevallen!!!
pcies, het geeft niet direct energie.....
die zal dan wel aan de andere kant vallen....
haha gelukkig wel
tuurlijk waren er wedstrijden waarin ze het hebben laten liggen, maar dr penaltys die niet gegeven zijn is stand gekleurd
sommige clubs verdienen het om kampioen te worden, andere worden door de knvb kampioen gemaakt....#improudoffpsv
hey , stik lekker in je pretzel vanavond!
hahaha makkelie mag toch ook penaltys cadeau doen...
arias wordt in 1.5 weken omgetoverd naar middenvelder. hij speelt iedere ruit aan diggelen.
je kunt beter van 12 neuzen verliezen, dan zelf een neus te zijn.
fikse ze gewoon in stilburg...
gortdroog.....😂
staat ie al op het briefje voor de cl...???kunnen wel iemand gebruiken die bij penaltys wel scoort...#psvvol
de bekende 2 maten....
just posted a 0.50 km swim doel is 1,9 km in een uur....werk aan de winkel dus!!
vandaag geen man van wedstrijd, maar een clown van de wedstrijd....en ik nomineer...dhr hilger voor zijn geweldige optreden vandaag
zon club als roda verdient gewoon een failisement...kut moffen.
just posted a 41.66 km mtn bike ongeveer het globale rondje. mooie route dat wel
🎶 om de juiste koers te varen, met de wind in onze rug, geniet met volle teugen en narsingh kom nooit meer terug..🎶
penaltys in het vervolg maar breed leggen...#psvfcu
hopelijk is philip net zo klaar met narsingh en maher als wij zijn...not good enough for psv1
narsingh is zo onzichtbaar dat zelfs cocu vergeten is dat ie op het veld staat.
dat was het zeker. hendriks herpakte zich gelukkig en was na rust wel zichtbaar en dat is verschil met maher
naast verstand van bergen bouwen en woelrennen, ook nog van internationaal voetbal..tijd voor een clinic in zeist!!
er zijn van die ochtenden dat je wakker wordt en denkt tadadada dadadadada da da da eindhovuh!!!!! tadadada dadadadada da da eindhovuh!!!!
ik zeg 442 er is een nieuw koningskoppel en in town..!!!!
heel de wereld leert te voetballen om te winnen...wij willen eerst mooi voetballen en zijn vergeten dat het om winnen gaat
lekkere zomer hoor, zonder wortelmannen indianen en andere crap die niet in een stadion thuis horen.voor de rest shame on you knvb!
haha dat jullie nog data verspillen aan zunne kneup. pierre volg ik al niet meer sinds..... lang geleden
u zou zich drukker moeten maken over het munitietekort bij defensie dan over zon vuile overloper. heeft een punt!
graag gedaan. jij bedankt voor de goede verhalen
dat zijn die dingen die je voelt als je bergop fietst...anders weet ik het niet
het is weer 10 tegen 12.
tuurlijk niet, zn neus is te klein
zou eerder zeggen dat ik mijn skis uit de berging moet gaan halen en mijn schaatsen uit het vet.
haha houd je niet in, je weet waar je moet beginnen.
daar ben ik ook bang voor, anders had die krabbel er al gestaan denk ik
ik ga er vandaag weer goed voor zitten om onze zuid amerikaanse soap te volgen...hoofdrollen voor mafioso en
geef een grote cola ghb bij zijn steak en laat dat contract tekenen man man wat een droeftoeter van zaakwaarnemer
vlieg je fuckin veel kilometers....wil je tekenen, dan zegt je doe maar ff niet...#moderneslavenhandel
hahaha er zal toch wel iemand dichterbij zijn, voor ik daar ben zitten hun alweer op het vliegtuig ookal ben ik
kan iemand de zaakwaarnemer van van de trap flikkeren...die is namelijk niet helemaal goed bij zijn bolleke
de herfstvakantie valt vroeg dit jaar zullen we maar zeggen...#waarblijftdezomer
hahaha alsof het gister gebeurd is...
vliegenier van flight 1574 van ath naar ams dacht barst maar grieken...de grieken barsten niet, zijn ruitje wel. toorn vd goden?
en wachten en wachten en wachten op
schiet maar eens op met
hahahaha en dat allemaal met een ouwe pony twtd
stond de a58 toen ook niet onder de rook....na een paar schnitzels
een mooi begin van de dag toch.
enig idee hoelang deze storing gaat duren?
ik heb 9 km hardgelopen in 04300. dat is 447 min./km!
tja het is weer hetzelfde liedje...psv verliest in de kuip en feijenoord wordt geen kampioen...
hedde die brenet ook een subtiel trapje gegeven hahaha
nu heeft ie helemaal geen schoenen meer nodig...
subtiele trap....?
hi zal vast lekker slapen in je neuzenpyama.. nu je weet dat zelfs jij ons niet kan stoppen. haha blonde pisnicht dat je bent!#nacpsv
haha ben maar niet bang, we hebben morgen pas een date.
ik heb 7,7 km hardgelopen in 03735. dat is 453 min./km!
ik heb 7,78 km hardgelopen in 03751. dat is 452 min./km!
slaap lekker.....
niets is sterker dan dat ene woord, feijenoord...maar niet heus.. we are stronger and better and tonight youre worst nightmare! psv ehv
van harte proficiat berry. fijne avond!
ik dacht met rooksignalen merijn....
omdat estoril en de omstandigheden nog beroerder was dan psv is een 33 gelijkspel verdiend.
na een rust van 20 uur, de 2e helft kijken van psv...hopelijk zijn de boys nu wel wakker!!!
heb vandaag wel meer overtredingen gezien van hetzelfde kaliber die niet bestraft werden...
ah maakt reclame voor klassiekers....wel apart voor een bedrijf wat een oerhollandse klassieker buiten spel zet.
haha het lijkt meer op robben wil op de foto met zijn jeugdheld adriaan de acrobaat
jozefzoon en locadia, u bent de zwakste schakel. tot ziens....en neem cocu ook maar mee!!!!
zo jullie hoopte op cambuur als nieuwe nr 1...sweet dreams, wij zijn psv!!
dat uefa/fifa 1 x in de 2 jaar zomercarnaval organiseerd met voetbal erbij,prima,maar interlandvoetbal in sept. zou verboden moeten worden!
ik heb net een activiteit met runkeeper afgerond
bel de ongedierte bestrijdingsdienst, er heerst morgenmiddag een rattenplaag aan de frederiklaan...#uitfluitendiemafkees
is het niet zo als ze ehaa fir binnen vliegen ze in nl airspace zijn. wat anders dan nl grondgebied ivm 12 mijlszone
als supporters zich misdragen krijgt de club een boete, wat kun je met de doen als die zich misdraagt?
dat vraag ik me ook heel de dag al af
die moet verplicht naar school deze zomer...
in mijn lijst met minst briljante ideeën komt met stip op 1, op slippers friet gaan halen terwijl om de hoek ligt.
geen idee wie het best op rechts neer gezet kan worden, locadia was ook drama op die plek vandaag
we gaan gewoon verder waar we vorig seizoen geëindigd zijn
dat is zeker waar, die ballen van de zijkant komen al drie seizoenen niet. dat ze maar 442 gaan spelen ipv 433
narsingh is de laatste wedstrijden niet om aan te zien, dus deze keer denk ik dat cocu gelijk heeft
nu laat het maar zien boys...#psv
maak je liever druk over versterken van psv1 dan over supporters die dat bagger elftal al jaren fanatiek steunen!!!!
ja idd, psv liep al niet voorop qua sfeer maar nu gaan we 100 jaar terug in de tijd
wat bezielt jullie? na 7 magere jaren neemt de sfeer vanuit u s en t toe. ben blij met die steun ipv de sfeer af te breken.
blijven ook volgend seizoen achter staan. no matter what!
als iedereen blijft staan krijgen ze ons nooit zittend
kan de pot op, sinds geen uitvak meer is, sta ik daar al. sfeer leg je niet op, maar creeer je.
wat een raar mannetje zeg. vedette kun je hem niet noemen anders ging ie naar atletico, maar sporen doet ie niet
goeie vakantie
ik heb net een activiteit met runkeeper afgerond
hij bedoeld....we kijken wat wij en! andere in jeugdopleiding hebben...
tja standvastigheid kun je die partij niet verwijten
je zou als sponsor, uci of ploegleider die kleding moeten verplichten. vergroot veiligheid en scheelt kapitaalvernietiging.
das wel te hopen, uiteindelijk gaat het toch om winnen
zo, de wortels en indianentooien kunnen de kast in, voetbal is weer voor hen die het niet zien als carnaval.
zelfs het knmi is in de ban van de halve finale.. code oranje afgegeven. dat kan dus niet fout vanavond en anders.. begin van de competitie!
rvp heeft maag klachten...of die argentijnse steak valt zwaar op de maag of heeft ene klaas vaak uit hummelo vandaag gekookt?
romero die droomt over robben en rvp, wakker schrikt, getroost wordt door max. zorreguiete van oranje nassau
hahaha kan poch messi geen rondvlucht geven....#ietsmetvliegtuigen
chinezen, engelse en duitsers bouwde muren....maar costaricanen bouwde de stevigste...#nedcos
normaal scoorde ruiz in de 90ste minuut, we komen dus goed weg....
heeft de stilfunctie gevonden, als nu iemand rvp uitlegt hoe buitenspel werkt komt het goed...#nedcos
costa rica krijgt hulp van columbia denkt de verslagever....#nedcos
hahaha idd, zal blij zijn als we daar vanaf zijn
in een ruil met de jong betrokken?
met jullie spelers is het niet nodig om bescheiden te zijn. had van ons niet verwacht dat we door zouden komen, van jullie wel
ja idd, de kleinste die er nog in zitten, mogen er fier op zijn dat we zo ver komen
haha volgende week woensdag 22.00h....
haha felani zou zich zo bij het gevolg van klaas kunnen voegen...
in heel de zwarte pieten discussie blijkt maar weer dat er een kleine minderheid is die het verziekt voor de meerderheid....
en dat dankzij een oude neuzenspits...
voetbal is heel simpel. het duurt 90 minuten en uiteindelijk winnen de duitsers....uh nederlanders..#nedmex
wat nu klagen over hitte....in qatar is het nog heter.
je kunt ook alleen scoren als de bal tussen de palen is....chili wint wel met latje trappen....#brachi
nee joh, hij was zijn muilkorf passen
...moet dat niet zijn bijtende hond laat training schieten..?
haha dacht al dat je een autowasserij begonnen was.
haha idd, je bent al je vrije dagen hier al aan kwijt en dan moet de vakantie nog beginnen...
ziet er idd gaaf uit! eindelijk beleving op de tribune zoals het hoort....
belgen, wanhoop niet. spanje verloor in 2010 ook hun eerste wedstrijd...#belalg
belgen, wanhoop niet. spanje verloor in 2010 ook hun eerste wedstrijd...belalg
sfeer en gevoel moeten goed zijn voor onze vedette uit luik...mijn gevoel zegt dat deze snotneus de sfeer goed verziekt rot op
haha we hebben een liefhebber gevonden
zoals zondagen goan...
echt he. wat een ongelofelijke pisvlek
dolfijnen zijn jaloers op de tuimelaars uit spanje....bah bah
rob, moet je ons daar weer aan herinneren..hahaha. had net mijn trauma verwerkt dat ie zijn man liet lopen op 4 mei 2005..
moeten wij jou zaterdag rond kwart voor zeven komen halen? gr
vitesse bleek niet meer dan een luchtig toetje of moet ik zeggen kaartenhuis
kreeg toch gelijk, vitesse bleek niet meer dan een luchtig toetje
familietribune aanvallen bij de arena na een johancruijfschaal...
dancevalley ook met hagenezen, defqon enkele psvers.
aanvallen van den haag honk terwijl er maar een paar man binnen zaten...is het eerste wat me te binnen schiet.
vorige week feest omdat ze jarig was, nu feest omdat ze haar adiploma heeft gehaald
niet janken, als er 1 club is die vaak met een meerderheid enkele aanpakken, zijn het de neuzen wel
helaas niet, maar zolang we als europa allemaal andere budgetten hebben, wordt het nooit wat met 1 europees leger
als idd iedereen in europa eerst de 2% norm gaat halen en dan pas verder gaat praten zijn we op de goede weg
moet het niet zijn wat wil pec nog en wat kan psv nog...
waaruit blijkt dat ze blij zijn met ons...beroerd voetbal en een belachelijke prijsvehoging...#invoorentegenspoed
blijkt wel weer dat de media gekleurd is, ajax is namelijk de eerste club die 4x op rij kampioen wordt, lukte dat al 2 x keer eerder..
zowel in de lucht als op het water, goed druk met russen dan.
ze werkte voor spek en bonen
dat zon armoedig zooitje kampioen wordt zegt veel over het niveau in nederland...in 6 jaar tijd zijn we hard gevallen
nemen de uitspraak eindhoven de gekste wel heel letterlijk.. jullie doen er echt alles aan ons weg te jagen
ik zou zeggen dat de jas brits is en de broek nederlands
dat ie dan ook maar een goede technisch directeur meeneemt. 1 die wel weet hoe je een evenwichtige selectie samenstelt
ik mag het hopen, jaar in jaar uit faalt hij met het samenstellen van een selectie.
als we de play offs halen roep ik iedereen op om thuis te blijven, dit apathisch zooitje verdiend onze steun niet!
wanbeleid is ook beleid zullen we maar zeggen...tijd om op te flikkeren jij maakt de club kapot!
laat vandaag gvd maar eens zien dat jongens ook mannenvoetbal kunnen spelen. tijd van slappe excuses is voorbij! 3 punten is de eis!
op weg naar het station...those were the days.
het is idd kapitaalvernietiging en nog minder lutra capaciteit...die kist bracht zijn geld volgens mij wel op
is idd erg jammer, geld weggegooid en nog minder lutra capaciteit...
s6 dadelijk!
opgeruimd staat netjes!!!!!#overval
uefa heeft ingestemd met de nations league... nog meer interlands waar alleen een wortelman op zit te wachten.bah bah
maak er maar quick reaction alert van.
we hingen uitgestrekt in de touwen, de ref was bij de 6e tel, toen stonden we op en recht op onze benen delen wij nu klappen uit.
we hingen uitgestrekt in de touwen, de ref was bij de 6e tel, toen stonden we op en recht op onze benen delen wij de nu klappen uit.
klopt, helemaal mee eens.toch nog slaat meer op het heden waarin een aantal partijen zegt dat we wel zonder kunnen.
komen ze toch nog van pas..
hoe reëel is eigenlijk de kans dat dit van een regionaal militairconflict een mondiaal conflict wordt?
was dat niet iets met een stoplicht....?
jullie ook bedankt. goed gedaan!!
oudpsver labyad verwacht kriebels ik houd van psv....psv niet van jou, vuile rat! dat je morgen je geen maar breekt.
haha 2e, nog ff en wij gaan jullie voorbij...
hasj coke en pillen werkt vandaag niet...?
chronische rugklachten? of is het echt een tijdelijke blessure?
haha 10 punten voor je column
behoorlijke klapper op de a2 bij budel, vroeg me al af waarom het zo rustig was richting eindhoven
vind schaars al een tijdje beneden zijn niveau
gelukkig
hoe gaat het eigenlijk met je berg? laatste bericht op site is van een half jaar geleden. leeft het project nog?
van harte opper kletsmajoor!!!
con grats ireen. goed gedaan!
vaak heb je als je brons pakt je wedstrijd gewonnen en als je zilver pakt verloren en niemand wil toch verliezen
schop die blom eens door midden, vuile blonde homo dat ie er staat.
brands ook van huidige team zijn spelers goed door te verkopen verkoop ze allemaal en koop 11 goeie terug!!
ja dat kan ook, ik houd wel van zwarte humor.
das een doordenker, hoe lang heb je over deze grap gedacht? ik vind hem erg leuk!!
beter na 2 minuten achter, dan in de 88ste....nu wakker worden, mouwen omhoog en zorgen dat je wint gvd, blijf anders maar daar!!!!!!#campsv
geen leider, geen communicatie en 11 egos die denken dat ze de beste van de wereld zijn. volgend jaar voor een knaak naar de braak...#psv
haha alvast van harte..😉
jubileumjaar is voorbij. cadeaus hoeven niet meer uitgedeeld te worden, nu is het tijd om zelf punten te pakken.
dat is volgens mij al heel het seizoen, je ziet elke keer rond minuut 70 dat het niveau erg terug valt en de spelers leeg zijn
haha lekker aan de jup
ja idd, scheelt dat je dichtbij bels woont ken je daar gaan stappen. zou ik doen
haha zet het groot in mijn agenda. wel klote, vorig jaar mocht je het vieren met pils, nu met alcohol vrij bier
haha ik dacht dat het de 19e was. welke is het dan? 27ste?
mandy zat utopia te kijken, maar ik kreeg uitslag van dat slappe geluk. nog proficiat trouwens
morgen naar de dokter, de uitslag staat dik op mijn arm door dat
welke maat en wat moet je er voor hebben?
zaalvoetbalen...? zit je op de bank dan?
het is half januari en de winter komt niet op gang, maar toch kijk ik alweer uit naar de
haha van praag jankt over integriteit....heel nederland weet toch al lang dat de knvb op de hand is van onze amsterdamse vrinden...#psv
en wij krijgen celstraf als we een bank oplichten....
is dat niet het geval met alle apres ski muziek...
inderdaad!!!!
die storm was vannacht toch....
labyad heeft een club gevonden waar ie thuis hoort...dat ie er maar net zo gelukkig wordt als onze coke snuivert..
werd tijd....
ja daar is iets voor te zeggen, al heb ik meer met highbury en als ik bijvoorbeeld kijk naar schalke of dortmund weet ik het wel
helaas niet...maar ik hoop dat er beetje historisch besef is en dan we nooit in een sporthal moeten gaan kijken
over 15 jaar is ons stadion oud en versleten dus ik snap dat je wil moderniseren, maar bouw aub wel op de oude locatie op!!!#psv
alleen vandaag....😝
hoe heet deze aflevering????
oja heel nederland denkt dat ie miljonair wordt vanavond....dan denk ik dat psv kampioen wordt!!!
ik wens al mijn volgers een goeie jaarwisseling en een top 2014 newyear
je hebt weinig te lachen als je uit wales komt moet tan gedacht hebben,wat een ongelooflijke komiek is dat zeg. geef mij sanders/brands maar
ratten horen in breda, aan de frederiklaan worden ze opgeruimd met verdelgingsmiddel....#psv
klinkt als een goed feestje. gingen af en toe naar de atmoz als stratum dicht ging en we nog niet naar huis wilde
dat was idd een leuke retweet
bedankt, jij ook fijne dagen
haha gezellig op de camping..
ooit belde de pope robson na een 3 2 overwinning...nu utreg verslaan op eigen kracht.#utrpsv
leuk een spits voor het tweede....nu nog den spits voor het eerste
van harte turbo.
dat is zeker waar als je met passie en strijd niet kunt winnen, kom je kwaliteit tekort, maar daar kun je op scouten
als het in 121 jaar niet lukt, waarom nu dan wel ineens....
de gehuurde spelers..die half lege sporthal en een constante wisseling van eigenaar bepalen je identiteit iig ook niet
het geeft wel je identiteit en dat is iets wat jullie niet hebben...
zwakzinnig en schaamteloosheid...nee hoor, vitesse zal eerder vergeten worden dan dat psv er weer bovenop komt....
vitesse is als een luchtig toetje, het lijkt heel veel maar zakt snel in elkaar en het smaakt nergens naar
hahaha met die vijf fans die jullie hebben, zal een gezellig feestje worden..vitesse is niks en zal nooit iets worden.
hij had harder moeten schoppen...
geniet er maar van knulletje, volgende week is het weer anders. onze prijzenkast is stoffig, die van jullie leeg....
rug recht, kin omhoog en zeggen dat je de beste bent,dan komt het zelfvertrouwen terug want de passie en strijd was er al vandaag.
over ons wordt tenminste geluld...leeuwarden kent niemand
dat is zeker waar, als het over slaat van de tribune naar het veld komt het goed vanavond
voor alle lachende rdammers, het merendeel van onze supporters kan zich herinneren hoe het is om kampioen te worden...so fuck you!!
sjonge sjonge weer een zondag naar de klote! wanneer trekt de conclusie en tyft ie op...frits had echt wel gelijk vorig seizoen
leuk, een journalist die van het positieve uitgaat....
ik heb gestemd op bakkerij jack poell. stem ook en win een mooie tablet of een van de andere prijzen!
gerets...stevens....cocu clubiconen maar totaal ongeschikt als trainer. i rest my case
hoeveel krediet krijgt cocu, dingen die keer op keer fout gaan, zijn allemaal trainbaar en je spelers kun je ook motiveren
rapid wien fans stelen vlaggen en een trommel van genk... die trommels zouden ze overal weg moeten halen
haha je hebt helemaal gelijk. als nsa met ons mee kijkt is het een probleem, maar willen wel allemaal een bonuscard...
matavz kan romário passeren#psv....laten we het hopen...dan heeft ie niet alleen romario gepasseerd
ik zeg parijs
zouden ze overal in europa moeten doen....those were the days....
je hebt helemaal gelikk
zin om mee naar psv te gaan vanavond?
krijgen ze dan ook een grote zak mee en dragen ze een witte baard...
hoe kan het toch dat uitwedstrijden de laatste jare zon groot probleem zijn
tja als je een van je betere wedstrijden speelt en verliest, wil ik niet aan alle andere uitwedstrijden denken, die nog komen.
schaars, maher, bakkalie en depay
4 4 2 met locadia en matavz in de spits..#ikbencocu
zijn ze nog ergens de beste in.....
ik heb alleen last van mn oren
haha maar dan pas vaak op dinsdag, was wel een relaxed feestje in het klokgebouw gister
wij hebben tyton, die pakt tijd en zorgt voor blessures...dus dat komt goes
is niet nodig
dit is mijn twitter profile. groet toon
dat was tegen cambuur en ludogorets ook het geval dus niet voor het eerst dit seizoen
vandaag met mark meeuwissen gewerkt.
tja als je al weken uit vorm bent is het niet zo gedurfd
dat is ook alleen door combi vervoer.
het is de juiste beslissing, niet de leukste. met een vol uitvak leeft zon wedstrijd toch meer...
volgend jaar burgers in militair uniform langs de route vd gouden koets wegens sanering bij defensie?
kan iemand wijnaldum leren afwerken, wat een prutser.
en totaal ongeschikt in een voetbalstadion....
allemaal 1 pot nat, die een levenslang stadion verbod moeten krijgen.
gewoon niet, zo gastvrij zijn ze daar ook niet...
mooi, hopelijk houd ie zn poot net zo stijf als met de aftrap...maar dat zal wel niet
hopelijk halen ze nog vaker zon jubileum
haha die heeft zeker op die eerder vernoemde school gezeten en niet in het nls leren schelden