ja want met kunstgras is alles beter. keer verder denken dan je sentimentele gezeik.
nee alleen de eindstand met doelpunten makers staat op de site.
je heb de wedstrijd gisteren van fclienden niet meegenomen?
hoezo geen interview met van der neut?
kars vierwind had toch ook verlengd?
die hoop ik al opgegeven.
wie wordt de volgende lienden speler?
ja daar zit ik ook te denken, alleen ik woon niet om de hoek. kan jij niet iets voor mij regelen?
nee helaas niet. dan gaat een avondje nac dus helaas niet door voor ons. of is er een andere mogelijkheid om een kaarten te komen?
kan je vrijdag avond gewoon tickets kopen bij het stadion? zonder club klaart of iets?
waar is wiafe?
ik denk dat er meer niet carnaval vierders zijn, dan wel carnaval vierders
we kunnen niet met elke minderheid rekening houden 😉
welke spelers zijn er al benaderd door spakenburg?
ik denk dat ze niks aan heeft
zal ook zon leuke trui hebben?
is daar ook een reden voor?
kan psv wel zonder de cl inkomsten?
meneer hol moet beter lezen
wat is er bekend over de situatie rond loukili?
wie staat er dan in de spits?
nee hij valt uit. heb namelijk net gebeld...top service arriva haha
lienden lijn44. waar blijft de trein van tiel naar arnhem van 1955?
sinds wanneer mogen buschauffeurs roken in de bus? haha
is de exacte reden nog niet bekend?
had die in iedergeval wel meer speeltijd
is dat de uitrerloo die vorig seizoen bij telstar speelde?
wat denk je van bekijken?
wat ben jij voor downie?
van hussen al rond?
engeland met de top spitsen vardy en kane!
de opstelling van oostenrijk klopt niet, voor de rest schitterende ek bijlage
net zoals van gerwen en max verstappen.
als je een seizoenspas heb. dan hoef je geen kaartje te halen toch?
er zijn voor cruijff heel wat traantjes weggepinkt via
niet veel dus
oke was druk zeker?
dat ga ik zeker doen! ouwe feyenoorder
had dat 45 minuten eerder gezegd
hoezo is er dan ineens een soort van stop?
wanneer wordt de serie tessa weer uitgezonden?
dankjewel.
maar hoe is het dan mogelijk dat ijsselmeervogels een speler dan toch contracteert?
het is een vreemde situatie. heeft lienden al iets bevestigd?
zou je een foto kunnen maken van keeper van hoeven? keeper van hibernians. oud keeper van fc lienden
zou je een foto kunnen maken van het shirt van de keeper van van hoeven hibernians? oud keeper van fc lienden
oud bekende
ik zeg 5x, 5x, 5x en 5x
wordt er ook aandacht besteed aan de eerste betuwe derby in de topklasse? lienden vs tec
ben het volledig met je eens. gewoon uitzenden!
daar gaat je zakgeld gerrit
het wapen van lienden. ik wou de bus van 1914 pakken maar mocht ik niet in omdat die vol was
omdat er maar 8 personen in mogen?!?! dus dan moet je maar een uur wachten in lienden..#lijn44 2/2
als er een bus uit val is het dan niet slim om dan een bus later een extra grote te laten rijden nu een uur wachten 1/2
is er wat met jullie netwerk aan de hand? want er zijn nu al wedstrijden vroeg tijdig onderbroken en krijg ik verlies punten....
ik klopte nog op zijn raam maar hij stak nog vriendelijk zijn hand op en een paar secondes later reed die weg. ik hoop op reactie
de machinist van de trein arnhem naar kesteren van 1129 doet de deur om 28 al dicht! hierdoor moet ik nu een uur wachten.
eerste basis debuut van el jebli bij
9 ex eredivisie spelers!!! romero blind depay vorm aldewereld vertongen chadli eriksen en dembele
fout nummer 3 uiterloo heeft is het seizoen 20092010 bij fc omniworld gespeeld. staat niet vermeld
helaas nog geen reactie gehad op vorige fout. maar heb nu weer een fout, koch is naar psv en dus niet jongpsv
de eeuwige ranglijst klopt niet. of zie ik het verkeerd?
shirt van liendenroda al klaar liggen? hoop dat je nog weet wie ik ben
vernieuwend vooral dat rood met wit zo gestreept
hoezo haal tigahdouni van nac niet? als stand in voor de buitenspelers
michel op thoog is toch aangenomen als veldtrainer. maar ze willen er nog iemand bij?
wat heeft dit voor gevolgen voor fc lienden? komt er een vervanger voor hem?
geen geld voor van leijenhorst wel voor een matige buitenspeler?
iemand van lienden naar de graafschap?
die speelt een ander toernooi voor alle landen uit middenamerika
veenendaal
wie is volgens jullie de beste vervanger voor depay?
is die app al beschikbaar voor android? kan hem namelijk niet vinden
ajax heeft ook 15 miljoen supporters. en weet niet of je de laatste weken in de arena heb gekeken.
zet de seizoensgidsen allemaal apart op marktplaats? stuur wel de link naar mij dan😛
zou ik oude seizoensboeken kunnen overkopen?
mooie stap voor veerman. die eerst naar de topklasse zou gaan
hoe kan vejenovic zo hoog staan? speelt laatste weken dramatisch
ze staan 14 punten van de nummer 1. en nog bezetten ze bijna de hele lijst? moeten we jullie serieus nemen?
op basis waarvan?
mogen we ook concluderen dat ismiat tekort komt voor psv?
is tadic gepasseerd of niet fit?
wees blij dat professor dokter meester stompe er even niet is haha.
wachten op de bus. en dus maar hopen dat is die mobiele opladen krijg
nee 100 overwinning .
is arias nog niet wedstrijd fit? of hoezo zit die op de bank?
de mijne staat er nu ook haha. is de jouwe gejat of?
is het een versterking voor in de breedte? of is het de volgende wedstrijd al een basisspeler?
heeft een afgeschreven ex ajaxcied gescoord tegen ajax
ik denk dat die in het rijtje kishna ebicillo ligeon serero van de hoorn duarte riedewald bojan cuenca etc. etc. komt
hij was jaren geleden toch ook al in beeld bij psv?
hoezk staat er geen topklasse in de seizoen gids?
zeg wel niks liefs meer.
ja gaat goed, zit namelijk naast een heel leuk meisje. en met jou?
komt de vi deze week weer op dinsdag? of gewoon op woensdag?
krul!!! wat een held!
genieten van chili
weer terug van aalst er veld feest!
hij toch eerst naar fc lienden gaan? hoe zit dat precies met contracten in de topklasse?
toch een hele prestatie met zon waardeloos elftal kampioen worden...en ook nog zon mooie kampioenswedstrijd...
52 verloren...ging niet heel goed
wat gaat paus nou doen?
laatste maanden al niet meer echt. binnenkort wil ik wel keer gaan. maar heb sins kort weer vriendin kost ook tijd hé. en jij?
ja klopt. we zullen zien. volgende week ajax uit. als ze zoals vandaag spelen. dan komt het goed
tja heel veel blessures. en na dat succes werden ze beetje arrogant. maar talent hebben ze. en dat komt er vanzelf uit.
haha ja werd ook is tijd dat ze zo gingen spelen en je ziet dat park weer terug is. en wijnaldum ook weer bijna terug!
04 we pakken eindelijk een keer punten!
ac milan heeft toch gewoon heel de wedstrijd verpest voor dat gelijk spel. deedt ajax toch ook tegen barça na dat veltman rood had
tja acmilan heeft het netjes gedaan....
je denkt toch niet serieus dat ze nu wel kans hebben?
01 gewonnen!
gaat ook helemaal nergens meer over...#psvrod
21 gewonne.#fclienden
23 gewonnen.
gefeliciteerd x
heeft de gemeente eindhoven een paar honderd ajax supporters toch maar een hele vervelende terug reis bespaard
ik zeg niet dat psv kampioen werd. ik denk 2de maar hoop 1ste...maar jonge ploege.we zullen zien.nu 40 dus prima
moet je maar eve terug kijken. dan kan je zelf oordelen
haha ik praat voor me zelf en sta heel me leven al achter psv. en ajax zijn de arrogante succes supporters
hahaha
jaaaaaa maandag om 4 uur. tot dan he
leuk feestje gehad
vanaf volgende week meer sporten!
52 gewonne!
haha heb er al 3 maanden niet achter gezeten. anders had je niet gewonnen
als de nederlandse clubs zo blijven presteren zal er niemand overwinteren....#psv
gefeliciteerd
wedstrijd is nog niet om. en wij hebben bakkali nog.
onterecht afgekeurd. lucky ajax...
naar de mac met mijn plek in autotje de kofferbak liggen.. top chauffeur
ja dat wel ja..maar alsnog leuk feit.
leuk die feiten van de ajax 17 aankopen laatste 3 jaar. en maar 1 uit eigen jeugd doorgebroken.
hahaha mooie avond gehad met hahahaha
hahahaha elk weekend werden ze terecht bekritiseerd door lees ook de vi van vorig jaar maar is terug
ja dat zeker..daarom ben ik bij dat die in de premier league te bewonderen is
ja dat wel. maar 45 miljoen is veel geld..en als je nog isco en modric heb..meteen weg doen
mooi avondje gehad de
psv jaar!
horen we morgen. dus morgen aanwezig zijn
17 gewonnen en al 2 doelpunten gemaakt. goed begin
je snap voetbal niet. mening loze hond dat je rond loopt
kijk jezelf lelijke hond dat je rond loopt
zaterdag om 9 uur er zijn. doe eve je nummer. je oude nummer zit in groepsgesprek van de b1.
gefeliciteerd!
gaat goed! 20 locadia
haha eerste en de laatste van dit seizoen
gewoon de persoon linken... wie ben jij? niet je moeder .
gewoon de persoon linken...
prima avondje gehad!
owja wikipedia niet betrouwbaar....grote paginas worden voordurend gecontroleerd
kijk zelf maar op wikipedia.....daar staan de feiten
1985 was laatste formule 1 wedstrijd in nederland
was een formule 1 circuit...het zijn feiten sorry
nederland heeft geen formule 1 circuit. alleen een formule 2 circuit in zandvoort......
alsnog een hoog salaris in verhouding tot zijn prestaties. maar bedankt voor de informatie
laten we groot verdiener vukovic ook niet vergeten
gefeliciteerd! zet het bier maar vast koud
fer! winnen op zijn duits! lekker kopballetje
gefeliciteerd!
morgen niet de laatste competitie wedstrijd van het seizoen voetballen. maar werken
hou je bezig met je eigen kut club
hoezo geen bütnner?
geweldig kampioens feest gehad.!
kampioen! b1
gefeliciteerd
zucht...van bommel ook nog rood. frustratie, logisch met die verdediging...#psv
het gaat weer zoals gewoonlijk weer achterin fout
wat was het weer slecht...#psv
lekker verdediging .
naar huis. geweldige avond gehad in wageninge..!
marcelo want speelt die weer slecht. lijkt nergens op.
doelpunt 100 voor psv
ziet er tot nu toe gunstig uit voor psv. 10!
café torenzicht met &amp
en trouwens 2 gescoord!
010 gewonnen.!
dankje
11 dubbel gevoel...#titelkoers
1100 fclienden vs spero. 3 punten pakken
fijn dat je mij vergeet.
en zoet dan? jeugd krijg weer de kans niet. vin je het gek dat de toptalenten weggaan....
doei kampioenschap...#psv
eindelijk thuis. nu gaan slapen.
heerlijke slotfase 32
thuis na gezellig avondje met en
eindelijk thuis..geweldige avond gehad
en wie ben jij?
nou camiel. je bent trainer/voorbeeld he
hahaha wat denk je zelf
goed bezig. en nu voor mij verkopen.!
mooi avondje gehad. nu naar huis met
gaat goed .
24 gewonnen..!
hahahaha ook weer een keer gewonnen jullie.
ja 32 gewonnen. en jullie?
32 gewonnen van emm. en zo meteen weer werken...#vermoeiend.
hahah het is maar dat het moet. anders lag ik nu nog lekker in me bed
om 11 uur voetballen tegen emm. maar eerst werken..
jo dankje. we gaan weer 45 minuten genieten
nee is net niks he. maar ja gelukkig scoren we zoveel dan kan je zulke verdedigers achterin zetten
nee daarom juist. een aanvaller moet scoren zoals locadia..en een verdediger zijn man dekken. wat blind niet kan
laat blind eerst leren een mannetje verdedigen.
dan is die best goed als die nooit speelt. 5 doelpunten in competentie .en 2 in beker
moet je nagaan hoe goed die is
hahaha de presentatie gaat echt goed komen. ben je al begonnen? is vast al klaar
hahaha je mag der hebben ze klaag toch alleen maar. als je iets goeds voor der doet
joran eve dat je het weet. jij gaat zoiets niet tegen haar zeggen..carola is mijn schatje..!
kan aub elke ajaxcied zijn mond houden. suárez..! beste voorbeeld ooit natuurlijk
ja die heb je ook
ik wacht nog steeds.....
ja je reageerde meteen zo aangevallen...
haha zozo carola is vrolijk in de vroege morgen
heeft carola een leuke jongen gezien? mis ik dat moment weer .
morgen weer vroeg op haha ik ook. lekker werken..!
geweldig avondje gehad met
onderweg na sens met
je mag ook gewoon zeggen ton en camiel hebben jet goed voor elkaar
wat fijn zon zus
nee geen onzin.hofland tiendalli lucius, de cler. ken je ze nog? kan er nog meer opnoemen als je wil haha. ja veel respect voor010
tja...sommige clubs hebben alles 5 jaar geleden bij elkaar gekocht. en moeten nu nood gedwongen op eigen jeugd..dat wel goed gaat
owja 1 woord verkeerd meteen. ben je dronken.
in dat steegje waren geen marokkanen dus er durfde het wel.
bah bah die commentaar heeft wel 90 minuten zitten vertellen hoe goed ajax is..#irritatie
22..maar geweldige wedstrijd.
schitterende wedstrijd 12..!
01 mertens..! mooie wedstrijd.
lekker tries met mike met
de award voor chillste lerares gaat naar christine van manen van csv het perron in gefeliciteerd!
gefeliciteerd!
gefeliciteerd..!
20 als we ze er zelf niet in schoppen doet ado het wel voor óns
nou johan valt me weer tegen dat ik haar niet heb gezien
21 van bommel
heb wel 1e rang bij topwedstrijden. en krijg zelfs betaald daar voor..nu jij weer
ik zeg doen..! geld zat je heb zelfs een vriendin
trots op de mooie jaren van in de topklasse
nee ze hebben zaterdag team die 2de klas speelt..maar dat word niks....mooi dat we als zo klein clubje dit hebben bereikt
geen geld meer dus. stoppen ze.......
je staat erop zoals je bent
haha zoveel geluk. en nu weer achter..! schitterend
weer van richting veranderd. vandaar ook de naam lucky ajax....
en maar zeggen kut buitenlanders. maar wel hun taal spreken
niks als. je gaat gewoon
haha jaaaa gewoon met zn alle...!
de volgende keer ga je gewoon weer. en dan word het beter hahahaha
miet stel je niet aan...! stelletje mafkezen waren het
godverdomme nooit meer naar da kut sens!! kut tuig.. hahahaha
na sens met &amp
gefeliciteerd
ik draag nu weer met trots je shirtje. en nu hopen op een snelle comeback
gefeliciteerd. kan dik nog wat van leren
jullie falen het is lens
donder op...die potjes ervoor heb je allemaal verloren eve dat je het weet 30 en 73...slecht ben jij
haha dat is met voetbal zo. maar met darten ga het om je eigen scores en de dubbels he
ja ik doe het wellis. maar laatste 2 weken luk het totaal niet. maar die vrienden waar ik tegen darten elke dag dus tja..xd
ja hoe moet ik dat weten. dus nee gebruik het niet.xd
kush?
haha. ik vin me topvorm van zelf wel. en dan is een 9 darter standaard he. eve dat je het weet
ik 1 of 2 keer per week.....dus zal wel verschil in zitten
jaa dat doe ik ja. maar moet eerste weer eve me top vorm zoeken..xd
hahah ik dart nog vaak zat. gister zelfs nog met paar vrienden. dus zeg dat maar niet te hard
haha ja darten je weet wel toen ik eerste werd..xd
met school voor die activiteiten. of bedoelen met pijltjes gooien niet darten? haha
zijn jullie nog steeds over jullie verlies van een jaar geleden heen?
nee je heb gewoon geen recht van spreken
ja dat weet ik. maar die sanne moet de mond eve houden..!
haha idd. maar ja wel weer tegen het mooie fc lienden
gefeliciteerd
jaaaaaaa eindelijk in lienden met
naar huis lopen met vanuit uitspraak
zometeen richting uitspraakfiets..!
jullie praten echt weer onzin.
dat is eerder een reden om niet te gaan. maar ik zie nog wel.
dat weet ik nog niet zeker middags wel zeker.
nieuwe koers fc lienden met regionaal karakter haha lachwekkend
onderweg na sens
we zitten weer bij jullie in de competitie..!
haha word tijd. en we worden weer kampioen na 5 jaar.
en alweer 13 door lens en wijnaldum
als psv de kansen gewoon een keer afmaakte. maar als ze dat telkens niet doen. dan gebeuren zulke dingen
ben je dom? volgend jaar is het 2013. kan het geen 121212 zijn.
deze
haha ik kom er aan x
sins wanneer luister jij naar iemand?
is goed miet. hoezo ga je niet racen na de mac?
oke ja dan is het heel logisch.
oke veel plezier. je tweet is dan wel echt logisch?
het is afgelast...weet je toch?
ja ik heb geaccepteerd maar je sta er niet tussen. wat is jou msn?
zou pieters samen met koch niet een verbetering zijn? want derijck en marcelo laten elke week zien dat ze het niet aankunnen
eindelijk weer een schwalbe in de arena na suárez
o jaa daar kom de 020 arrogantie
wij snappen elkaar
haha gewoon doen.
haha pas makkelijk. gewoon stuk of 10 jongens?
beter gaan er met meer van oude klas?
oke ik schrok al....
was een grapje toch? of ben jij serieus?
ow...mmm dus als die tweet 1 seconde eerder was geweest was het wel goed?