metoo...sorry ikook heb verzoek ingediend bij zwarte piet. metoo u2.
al waren ze daden nog zo groot. dit is niet proportioneel.
exbestuurder kreeg ruim 1,7 miljoen euro van dordts ziekenhuis gedrag en beleid om ziek van te worden.
volgens mij moet hamilton zn klokje nog een uurtje terug zetten.
... iets met een korf
na 21 rondjes van 16 naar plek 1. het zal waarschijnlijk niet voor lange tijd zijn, maar hij flikt het wel
belachelijk rijgedrag van brandweer wagen nr 10 van op n322 n323. onprofessioneel en brutaal.
wat een verhaal. gelukkig geen jip en janneke meer in de auto. odette en dochters zaten in brandende auto.
uiteraard. daar mochten we ook naar kijken
playboyicoon hugh is overleden.de man die we zullen blijven herinneren aan het tijdschrift met het nietje op de verkeerde plek!
vet hoor deze usa versie. maar de karaoke versie vind ik ook top.
dank je wel, maar echt blij ben ik er niet van geworden. wat een belabberd niveau zeg. vooral 2e helft van psv was heel slecht.
bij teletekst zijn ze de weg kwijt. feyernood! vitesse mede koploper?
wat een ellende voor
wat een spanning
brandweer rukt uit voor een wel hele bijzondere release!
dit doet pijn 😩
welkom in de champions league. het waren 2 geweldige minuten!
op 2 autos van de baan en in de bosjes thv knooppunt gorinchem richting dordrecht. op parallel baan.
vreselijk zon orkaan
gisteren geheel onverwachts per post een mooie sjaal ontvangen. bedankt voor dit cadeau en warme gebaar…
dus als ik het goed analyseert kunnen we het wk in rusland niet boycotten in 2018 als we morgen verliezen.
ik denk dat nederland flink klop krijgt, maar hoop toch op een klein wondertje. advocaat gun ik wel succesje.hij doet het toch maar
wat een lekkere swingende sound zeg. opzwepend. is wel een toppertje hoor. zeker als hij hard binnen komt.
huh, omg kan niet wachten. 😅
idd effe wennen dit nummer. zal het straks thuis effe beter gaan beluisteren.
dansen 👠 is niet echt mijn ding. ik ben eerlijk gezegd meer een genesis type.
het financiële plaatje bij deugt niet. goh waar hebben we dat vaker gehoord?
grote brand woedt in pand in groningen poenheen, daar gaat nu een hoop geld in rook op.
ben je op de albert cuyp?
en 137 miljoen ben stom verbaasd dat optie 5 niet wordt genoemd.namelijk gewoon doorgaan zoals het nu gaat
warren barguil uit de vuelta. stuurt hem op vakantie. het leven kan soms genadeloos zijn.
weer eens wat anders dan de bus parkeren. suc6 met je cluppie!
goal! 20! 28 denis mahmudov. mis geen doelpunt met goal alert. kijk op
daar stranden wel meer mensen met dit weer!
nieuwe aanwinst gearriveerd in het philips stadion. met mooi shot!
lekker hoor! en wat is hij nog scherp!
gatverdamme nu ook al in cambrils. vorige maand zaten we daar nog lekker op een terrasje te genieten van onze vakantie.
ajax is dit seizoen bezig met een nieuw record neer te zetten. men zegt zelf dat het historisch is. nou ik gun ze het van harte
recyclingbedrijf coolrec aan de grevelingenweg in had last van in de koelkast. zelf vind ik dommelsch veel lekkerder
brand bij een recyclingbedrijf in
brand bij een recyclingbedrijf in
brand vanuit
bestuurders blijven vastzitten vanwege eierschandaal. waarschijnlijk nog niet uitgebroed. kan zomaar pasen worden
hinderlijk geluid zeg op achtergrond bij gisteren ook al bij andere eredivisie wedstrijden.alsof er vliegtuig overkomt.
triest hoor van bolt.
lozano is nadrukkelijk aanwezig met voldoende dreiging. nu de doelpunten nog. ziet er wel goed uit.
maar ja op het verkeerde been zetten is eigenlijk ook weer niet zo moeilijk
zat er eigenlijk wel aan te komen. voor de 01 al. gelukkig de bevrijdende 1e goal voor psv 11
kan er al geboden worden op het stoeltje van
gaat niet zo goed in pernis! wegafsluiting en treinverkeer stilgelegd door lekkage bij shell
ik zie een exit in het vooruitzicht 😂 u2?
best zaligmakend bezig alweer iemand op non actief gesteld!
nog aan het nagenieten van een schitterende avond. one day or thirty years ago u2…
zo is het maar net.
eredivisie wordt steeds leuker. kan komend seizoen zelfs geld verdienen als laatste wedstrijddag wederom geen 1e wordt maar
wij blijven gewoon lekker eten hoor uit onze tuin. wat een paniek voetbal allemaal.
hoeveel brandstof zou willems nog hebben? geen freiburg maar eintracht frankfurt wordt het waarschijnlijk.
stel.je was vandaag in tram 1 gestapt in 020.dan had je zomaar naast romário kunnen zitten
dat van en maak ik dagelijks mee op de nederlandse snelwegen. en meestal verlies ik vet
psv verbreekt contract met nieuwe esporter tony kok
een zeldzame papegaaiduiker retweeten. zeg het voort.
wat gaaf. heel veel plezier en een goede reis. dat het maar een mooie belevenis mag worden.
wat mooi gesproken henk
schadeformulier is ingevuld en ze gaan weer van start.
vettel verprutst effe zijn noclaim
rode vlag!
heel triest dat weer uitvalt. maar wat een race. het lijkt de kermis wel met al die botsautos
verdachte concert op vrije voeten. &gt &gtte gek voor woorden! met een zachte g
samenvatting van formatie nieuw kabinet tot nu toe yes ú nee
trekt zich definitief terug uit klimaatakkoord gek hé, ik word er niet warm of koud van.
ben al week bezig verzekering op te zeggen bij nog steeds niet goed geholpen.wat een slechte service zeg.
van p2 naar p1 in enkele seconden.
kunnen ze met deze stand ook degraderen ?
... stopt met weer praatjes. en terecht. ik zou ook stoppen op mn hoogtepunt. komende dagen wordt het immers z🌞mers weer !
zojuist vernomen dat de hoogte punten kampioenschap weer op videoband wordt uitgebracht. alleen betalen in guldens niet mogelijk!
wat mij betreft geen punt hoor dat australië mee doet.
en als deze nou met encryptie is geprepareerd?
je kan dus niet stemmen op eigen land gelukkig zijn er hier voldoende gasten met dubbel paspoort.of breng ik nu de stemming in mineur
zelfs met een reep milka is dit niet te versmaden.
mooie imitatie van schoolbord krijt
trump benoemt volgende week pas nieuwe fbi chef. voorlopig dus nog één groot geheim.
voorronde eurosong festival wint in ons huis momenteel van euro champions league
johan cruyff schaal
feyenoord bus gearriveerd bij de kuip.
ivm de verwachtte drukte is het wellicht verstandig om vroeg te gaan.
morgen ochtend maar schaaltje bitterballen scoren op de coolsingel.
vandaag woonkamer anders ingericht en tv ondersteboven geplaatst. en dan ziet het er allemaal toch iets anders uit.…
wat is het toch misselijkmakend hoe over brabanders praat. of het daar in amsterdam allemaal zo onberispelijk is.
als ik jouw was zou ik gaan voor een punt i.p.v. een bosschebol succes!
de jc schaal wordt vanaf komend seizoen gespeeld in stadion van de kampioen &gt kortom komende jaren voorlopig niet meer in
zojuist mijn bril weer helemaal recht gezet bij papendrecht. helemaal gratis voor noppes. kijk dat is pas service!
ben niet zon fan van boxen, maar dit was wel genieten zeg. zag hem effe niet aankomen.
best leuke wedstrijd hoor!
zeker weten nu er donkere wolken zich samen pakken boven onze mooie merwestad. moet hier nu heel sterk aan terug denken. yes 22
doe mij maar loeki bijl ipv koekoek
drecht komt langszij
lelijk eendje in modezaak dordrecht.
idd wat slecht dat dit niet gezien wordt op dit niveau. wordt gauw tijd voor videoscheidsrechter/waarnemer
scheidsrechter kan ook wel fluiten naar de finale champions league.
scheidsrechter ziet geen buitenspel
helemaal uit onze kraan vanavond!
idd scheidsrechter maakt niet zon streke indruk. ps. ik weet niet of scheidsrechter anders geaard is
nou wordt hij leuk! ala linskens
helaas hij flikt het weer. heel de wedstrijd niet gezien. ronaldo
thanx, aftellen naar eind juli
benzema is moe. hij wordt gewisseld
vragen om een kaart is op zn beurt ook niet netjes.
ik reken hem goed!
jammer hè. we waren afgelopen cl wedstrijden ook wel erg verwend met doelpunten. ik vrees een briluitslag.
languit op de bank. kijken naar robben &amp co en ben ze ma
onze paashaas heeft dit jaar kippenvel.
wat een drama zeg vandaag, dat psv. het is gewoon wachten op een tegendoelpunt.
roel van velzen kruipt dit jaar tijdens in de huid van judas. je ziet hem gewoon groeien.
hahaha wat een eikel ! insluiper raakt testikel kwijt door hekwerk dierentuin
wel gemiste kans om thv jumbo een rotonde aan te brengen.wegrijden vanaf de parkeerplaats richting de n3 is en blijft een ramp
sommige ballen moet je op bepaalde momenten gewoon het stadion uit schieten ipv mooi denken uit te spelen vraag maar aan jan heintze
mooi lijstje 😆 kijk uit voor dat je weet heb je zelfde schulden als patrick k. uit purijs.
voor psv ook een zware pil na deze uitslag.
als je veel van die troep gebruikt heb je dat niet meer in de gaten.
sommige twente supporters zullen er wel de p in hebben. ze moeten het stadion uit.
bizarre situatie in twente. supporters moeten stadion uit, terwijl wedstrijd gewoon door gaat.
vliegensvlug door het is weer mogelijk!
ik hoor zojuist dat danny de bus heeft geparkeerd in de
of je een foute band hoort spelen op een bruiloftsfeest. oeps wat slecht.
wat een knettergekke wedstrijd
komt zomaar de ponyexpress voorbij from
wat een goal. waanzinnig.
ik heb te doen met hij heeft weer last van opvliegers.
de den haag heeft de stoelen uit veiligheidsoverwegingen aan elkaar zitten.cliënten vrijpleiten wordt hierdoor wel extra lastig !
ben zeer benieuwd met welke deal van der steur vandaag de 2e kamer verlaat. het zal er waarschijnlijk niet om liegen.
als ik minister was zou ik groot onderzoek naar verkiezingsfraude aankondigingen van gewonnen verkiezingen.omg wat een zielig mannetje#trump
als ik president was zou ik op mn 2e officiële werkdag me niet met oliepijpen bezig houden. omg wat een zielig mannetje.
als ik president was zou ik diepgaand onderzoek laten uitvoeren en hertelling eisen. omg wat een zielig mannetje.
alsof ik naar een slechte b film aan kijken bent
nog steeds geen antwoord en krant gehad. blijkbaar stellen klanten met proefabonnement niet zoveel voor😣
op deze locatie langs de a12 was dus water in gasleiding terecht gekomen, waardoor sommige mensen in dagenlang…
vroeg afgelopen zaterdag waar mijn krant bleef? helaas nog steeds geen reactie mogen ontvangen. niet echt klantvriendelijk!
bedankt voor het aanbod. ik heb hem inmiddels digitaal binnen. koekje houd ik wel tegemoet. als het maar geen 020koeken zijn
hallo waar blijft mijn krant ? waarschijnlijk gladjes vergeten vandaag
ik weet niet hoe het met de goede voornemens staat bij de gemeente en/of slecht wegdek…
briljant dit! zeg maar een mix vanlost in new york en the pink panther 2.0
zeer hoge luchtdruk vandaag,zelfs boven 1045hpa in het zuiden.ik had al zoiets van wat voel ik toch op mn schouder!
zaadcellen verwisseld in ivfkliniek umc. nu is de vraag natuurlijk welke zaadcel zou dit op zn geweten hebben?
allemaal heel voorspelbaar. met hier en daar een traan.
van denk naar artikel 1. denk niet zwart wit zullen we maar zeggen.
real madrid achter in wk clubteams 12. dat kan nog een mooie kas kraker worden. nog 35 minuten te gaan
triest nieuws! haalt de kerst niet.heb altijd veel bewondering voor deze topkok gehad.vreselijk dat geen recept mocht baten.
het karweitje voiceover van sylvana simons zit erop. de bouwmarktketen wil geen voorkeur kleur in hun spotjes meer horen.
... dus black friday heeft niks met sylvana simons te maken?
en de cirkel is rond. mw. simons krijgt wat hulppieten om haar te beveiligen. heel nederland betaald er aan mee. dank u sinterklaasje!
mocht je toch naar buiten willen met dit weer. spoorbeheerder prorail en de ns zetten dit weekend extra geltreinen…
hoef van mij ook niet, hoor.
zo te zien heb je een dikke coltrui, dus het zal wel meevallen
ik heb genoten van de race, maar zeker ook van je commentaar.
wat is dit
daar komt volgende slachtoffer
ik ga het nu echt geloven. zeven rondes geleden lag verstappen nog 16de, inmiddels rijdt hij op plek 7. van red bull krijg je vleugels
woon je ergens achteraf?
ik snap niks van de tactiek van maar de race wordt er niet minder om. aan zulk soort mannetje heb ik altijd een hekel op de rijksweg.
... en ze zijn weer onderweg
ja, je kan ook gewoon met je bord op schoot naar buiten kijken..... maar hij doet het weer. alleen weer met
dat volg ik sowieso niet meer met blind aan het roer.
dat zou ik ook zo graag willen. alleen komt steeds op verkeerde moment met safety people tje.
ziggo trekt de stekker er weer uit. fijn hoor zon mannetje!
robben en sneijder mochten f1 gaan kijken van blind met bord op schoot
nog geen bij
lekker hoor zon pauze tijdens f1. effe banaantje wegwerken.
kan max effe langs komen met zn bolide? mn verbinding met werkt niet. fijn hoor
oeps toegang pitstraat geblokkeerd
is het vandaag nou 9 11?
messi doet het weer. ditmaal tegen valencia. 01
nou, klein beetje hoop kan alweer als verloren beschouwd worden. willems wordt te makkelijk afgetroefd. 31
bayern wankelt. kom aan
diep respect voor verslaggeving. zojuist gruwelijke beelden gezien tijdens het journaal. olaf.
die zit er wel lekker in
wederom lekker verdedigd zeg. lopen er gewoon 2 toe te kijken.
ja, zo geef je het wel heel makkelijk weg.
nee, dat niet. ik gun jullie het wel. ben wel erg benieuwd wanneer jullie inkakken.
nee, geen blauw bloed zo te zien.
hahaha, ik duik morgen onder mijn bureau in arnhem. en daarna maar weer gauw de weg op naar de klanten.
vindt het nog steeds heel knap wat max presteert en kan enorm genieten van zijn manoeuvres. helaas geen podiumplaats vandaag.
ja klein dompertje op feestvreugde,maar ben wel genoeg verwend hoor.jij gefeliciteerd met je clubje.mooi weekje hoor voor jullie
voor jullie een geweldige week. voor ons weer een stapje terug. maar de competitie duurt nog lang. gefeliciteerd.
en de opstelling van vandaag is. ...
dat wordt idd moeilijk. dat de beste dan maar mag winnen. jij ook een fijne verjaardag.
bedankt en dat het bij jullie ook maar een mooi feestje mag worden.
bedankt, en dat het bij jullie ook een mooi feestje mag worden. en ik hoop je veel en hard te horen bij ons in de woonkamer.
we gaan het beleven.maar ik ga eventueel persoonlijk op de moerdijkbrug liggen om het tegen te houden.
het enige wat ik vandaag op mijn verjaardag wil is 3 punten. en p1 voor max als kers op de taart.
moeder theresa is heilig verklaard. omg! god bless you!
heb ik weer. hebben ze rooie loper uitgelegd op ben iets later thuis jongens!
“@stefanraatgever van gelder op lowlands ” wat een power.geweldig knap gedaan.vol lof voor deze man
brazilië eindelijk gewonnen
sensatie bij voetbal.
mooi plaatje zo midden in de stad.
als nieuwe trainer van wil je natuurlijk alles zo snel mogelijk meemaken.volgens de huidige statistieken is peter bosz aardig op weg.
volgens de bankrekening app staan ze er nog steeds goed voor, aldus
de jong scoort eindelijk 03. keeper zwolle had hem volgens mij wel kunnen hebben. maar daar treuren we niet om.
mooie statistieken bij slechts 1 van de laatste 6 keepers bij ajax won bij zijn debuut in eredivisie
psv begint slordig aan 2e helft. dat zagen we vorig jaar ook meerdere malen. dat moet er toch uit met vrijwel zelfde selectie.
voor het geld wat voor cillessen waarschijnlijk gaat krijgen kunnen ze beter twee keepers voor kopen en beide opstellen.
dat verwacht je niet van jorrit. mooi afstand schot ver buiten strafschop gebied. 02 wedstrijd lijkt nu al gespeeld.
mooie kopassist van de jong op isimat 01.als zo blijft zitten we mooi op titelkoers
lekker avondje voetbal kijken. dankzij sterkte deal van met en nog gratis ook dankzij kpn compleet.
sorry hoor,maar als je hier zo lang voor getraind heb en geen enkele shoot out kan scoren, dan zit er toch wat mis denk ik dan maar
onterecht winnen groot brittannië.
ik neem aan dat je bij shoot out wel binnen moet schieten.
we gaan even filmpje kijken. wel zonder ondertiteling!
het is best spannend.
ik heb niet zoveel verstand van hockey, maar minimaal een plak zit er volgens mij wel in. kom aan nederland!
ben het met je eens, maar dat vloeken mag je best achterwegen laten.
van den hoogenband roept bestuur zwembond op te vertrekken. begrijp reactie wel, maar vindt timing niet gepast als spelen nog bezig zijn.
ik heb het sterke vermoeden dat het hier om oude taarten gaat! en dat doen ze tussen de bedrijven door. in hun pauze dus!
het zwitserleven gevoel. turner is 50 jaar
kan die helikopter piloot zijn geluid niet uitzetten als hij boeven aan het vangen is?
stond leuk artikel van je in de krant vandaag.heb het met veel plezier gelezen. net zoals de tweets die ik zo nu en dan lees
en de terug vlucht wordt gesponsord door heineken
pogba dus ook naar manchester united. het kan daar niet op. transfer wordt midden in de nacht bekend gemaakt. mocht niemand het weten ofzo?
zit je gewoon midden in de nacht met bord op schoot studio sport te kijken.dames handbal maken er wel een showtje van tegen argentinië
laat pool arkadiusz milik vooralsnog niet gaan deze transferwindow. blijkbaar moet er nog aardig wat verbouwd worden.
op zich knappe prestatie van de jongens uit 020.op zelfde niveau doorgaan waarmee ze vorig seizoen zijn geëindigd.
en de fransen hopen misschien nu op strafpunten voor portugal ivm onrechtmatig coachen van ronaldo op de zijlijn
coach van portugal verdient standbeeld. lef hebben om je beste speler al vroeg in de wedstrijd te wisselen en uiteindelijk winnen.
dat gun ik ronaldo wel. na afloop ook nog een ere rondje lopen
nee, zo erg is het nou ook weer niet.
idd en blijf toch hopen op een happy end.
zo dadelijk verlenging. motten we nog minstens 30 minuten naar deze afschuwelijke finale kijken.
lekker keepertje hoor die rui patricia! voor de niet kijkers. het is wel een kerel hoor.
wat nou motten op het veld. ik zie alleen maar haantjes!
dus portugal motten nu verder zonder ronaldo.
natuurlijk baal ik er van dat we dit keer niet mee doen met het maar van dat word ik pas echt chagrijnig. welterusten
wel stoer. helemaal jaren 80 style. ik had vroeger heel mn slaapkamer deur vol. 💪⚽👍
waarschijnlijk komt er nog een andere mat in. engeland begeeft zich op glad ijs.
rust. tijd voor een ice tea
eindelijk worden we vandaag beloond met goed voetbal. ook deze wedstrijd ziet er veel belovend uit. nu al 11
het voordeel van deze is natuurlijk wel dat je niet zo veel haar op je hoofd hoef te hebben.
van mijn mag hij komen hoor. alleen hoop ik dan niet dat 1 van mijn kinderen met zelfde kapsel gaan rondlopen.#theedoekcoupe
nieuwe trend op het ek. theedoek patroon in je haar.
lekker doelpunt zeg! zwitserland gevoel
zo dat was een aardige duikeling a.g.v. een val van een trappetje
en jingle van dit ek wordt weer ten gehore gebracht.01.waar ken ik dat deuntje toch van? ta ta tata ta ta ta ta ta tata ta ta ta
je zou toch bijna om een polexit gaan vragen.
arek milik schiet voor de verandering weer huizenhoog over. en zo blijft het 00 bij zwitserland polen
milik was nog niet helemaal klaar voor deze klus. zoals zo vaak. wat een blunder om zo over te schieten.
live op direct wantijpop t
het is natuurlijk zuur als failliet zou gaan door degradatie.maar om daar de nou de schuld van te geven vind ik te ver gaan.
dem uit de race
het voordeel als je achteraan begint. dan kan je tenminste inhalen. dat is ook tactiek
dit is wel genieten. inhaalmanoeuvre max
meest verrassende van vanavond is dat uiteindelijk een club uit madrid er vandoor gaat met de cup met de grote oren. 🏆
dubieus doelpunt. volgens mij buitenspel.
wordt afgesloten richting den haag vanuit amsterdam thv afslag voorschoten.
bij ajax zien ze door de bomen het bosz!
peter bosz dus nieuwe trainer in amsterdam. was vast 2e keus!
ajax moet titel op doelsaldo aan twentevrouwen laten
rusland publieks winnaar.australië nr. 1 bij de jury van het europese songfestival. mijn topografische kennis laat me in de steek.
oekraïne verslaat rusland. toch nog happy end
welke amsterdamer heeft deze punten telling verzonnen?
tussenstand australië op nummer 1. wie kan er nuchter blijven?
team de boer heeft vorige week al 2 punten weggegeven. nogmaals bedankt frank
nederland geeft dus 12 punten aan australië.hoe ga ik mijn dochter uit groep 8 uitleggen dat australië dit keer in europa ligt.
het niveau stijgt
het waren dus de engelse neefjes van nick en simon. volgens mij ook uit het zelfde palingdorp als
nieuwe heidi uit ?
wakker worden!
wie is de bob?
weer een nicht. weer vals. en wederom een haarlok
mag je zeggen dat dit de nicht van poetin is?
wellicht dit jaar naar cyprus op vakantie. ziet er gezellig uit.
zou hij zijn hond al hebben uitgelaten?
in amsterdam denken ze nog steeds dat ze eerste worden, aldus maurice de hond
die nicht van israël neemt tekst teamdouwe wel erg letterlijk op.
gelukkig nog geen 5 voor twaalf bij
kunnen ze volgend seizoen niet achter een decoder plaatsen van wat een armoedig programma is dat toch.
spelersbus van hadden ze vanmiddag nog even gepimpt !
tot nu toe nog weinig gehoord van mn vrienden uit amsterdam via de sociale media.waarschijnlijk zitten ze gezellig bij hun moeder.
matchday. heeft vandaag wel hele mooie hastag !
wel fijn dat wennemars alles herhaald bij zijn toelichting
klederdracht in zwolle spant wel de kroon. of ben ik de enige met wazig beeld?
wil je avond niet verpesten maar vooralsnog gaat psv niet uitlopen. maar we worden heus wel kampioen. op doelpunten saldo hoop ik.
scheidsrechter gözübüyük heeft puntjes genoeg zou je kunnen zeggen. en nu hopen dat hij ze vanavond maar niet cadeau geeft.
psv onderweg naar nieuw kampioenschap eredivisie.1 doelpunt verschil is genoeg
panda discussie barst los in nederland. gelukkig zijn deze mooie beren zwart en wit tegelijk!
man met pech in maastunnel krijgt lift van motoragent.
dadelijk bij veronica. als dat geen grap is!
ado den haag kan weer verder met pingelen. pingping is eindelijk binnen uit china
idd, als ze iets afzetten betekent het vaak geen goed nieuws
geen leuke grap! ongeluk scooter en vrachtwagen
boem! zo en we zijn weer thuis.
volgende week dus dolle dwaze dagen en tegelijkertijd prijzen circus bij alle 62 v&ampd winkels kijken³ en nu dus kopen
leuk vrolijk efteling soundje voorafgaande van de wedstrijd van chelsea. dat het maar een mooi sprookje mag worden
een hoofd vinden in de hoofdstad is niet grappig.
als hij een beetje slim is stopt hij op zn hoogtepunt.britse professor blijkt al jaren bij te klussen als pornoster
wat een aanval 02
vergeten voetbal schoenen van peet van der slot zijn opgehaald door escort service. zullen wel een paar geile schoenen geweest zijn!
cocu wordt dus weer vader. dat hij raak kon schieten wisten we al. heel veel geluk philip!
is er nu helemaal niks meer gezond in dit universum? nu ook al plastic in
groots onthaal voor ronaldo in rome
fries wordt opgenomen in google translate. zou het ook soepeltjes werken? it giet oan! of eis ik teveel?