kom ff kijken bij ingang 10, weer dramatisch om binnen te komen.
van harte gefeliciteerd met je verjaardag, maak er een gezellige avond van!!
, komt er nog een onderzoek naar de vitesse speler die een klap gaf of wordt het weer doofpot??????
wat vonden jullie van de scheidsrechter bij topper onwaardig, pedant mannetje is mijn mening.
zou dick advocaat ingevlogen worden bij fey na de nederlaag??? als je de analyses hoort kan gio er niks meer van
al zal de uitvoering niet perfect zijn, de complimenten moeten jouw en je team toch een boost geven om…
toch verkeerde keeperskeuze........
benieuwd waar hij nog terecht is gekomen, regionaal liga verwacht ik zo😎😎
pffffffffff remmers oid geloof ik, in elk geval nooit meer iets van gehoord hahaha
destijds tegen psv stond ook reservekeeper in de goal die er niks van kon, geloof 2x en 1x nilis
snap ik, maar dit is topclubonwaardig, bij de jeugd zal toch wel een betere keeper zijn. pr…
toch wel triest dat een topclub miljoenen over heeft voor spelers maar nog geen goede 2de keeper achter de hand heeft,
prachtsfeer destijds in t stadion💪💪💪
geweldige goal, doelpunt vd week en misschien wel van het seizoen👍👍👍
proficiat tim, veel plezier en succes.
op kunnen en dan is het drama niet te overzien. bijna iedereen moest scc…
benieuwd naar de reactie van en hierover. gaat zolang…
rob denk dat je bedoeld ipv ometoon. maar idd absurd die lange wachttijd,…
wie van psv is er vnv bij met de tuchtzaak?? brands, cocu???
scheidsrechters ni op 1 lijn, lozano rood, overdreven, overtreding op hendrix onbestraft, overtreding op leemans slechts geel
en als in beroep gaat en er is nog geen uitspraak gedaan, is er dan ook niet bij??
niks voor jouw???
nix mis mee, dacht dat het zijn team was! samen met en…
jij praat van het zinkend schip verlaten, dat is pas een domme opmerking, steun je club of wordt fan van sveb3
in voor en tegenspoed sta je achter je club dus je bent lkr bezig jordy
zichzelf overschattende scheids die mtrs langs zijn schoenen loopt. alsof hij de nieuwe colina is.
wederom een voorbeeld dat van boekel niet geschikt is voor dit niveau te fluiten, onbegrijpelijk st…
speelt in de reserveshirts van of hebben ze sinds je tweet van gisteren geruild😊😊😊😊
over en out voor brenet bij psv of niet????
zet je ado bril ff af aub, was niet best dat klopt maar gelijk het arbitrale trio zo af te zeiken…
geloof dat 3 wedstrijden terug zei dat eruit moest. sleept nl door halve en finale heen!!!!
idd, nou weet ik ook niet meer welke kant ze op gaan.zal toch ni geaccepteerd worde als ze een nieuw tea…
ben benieuwd of er nog steeds zoveel kritiek is als we en kampioen en de beker winnen. ietgekmaken
blind die zegt, ajax heeft meer kwaliteit als nice, daarom is hij extrainer van ajax en exbondscoach. wat een dwaas. volwassen worden aub
idd, ajax huilt, feyenoord lacht. wel een prachtige pot voetbal. genot naar al dat vrouwenvoetbal
dan verlang je toch al snel weer naar
commentaar van is niet echt onafhankelijk te noemen en pro ajax.
zijn de spelers van ajax onder de indruk van t eerbetoon aan wat een ontzettend slap begin
waarom iemand halen, zullen toch wel eigen jeugd hebbe en hem inpassen. messi&ampco als mentors moet toch…
moet ik je ook nog gelijk geven, ben bang dat dit seizoen dit t niveau wordt als er niks bij komt
wat verwacht je van de opstelling??? voorin met lozano of niet??
maar dan ben je weer negatief over vr voetbal. verwacht dat bijna elk hoogste jeugdteam van een bvo hier hogere ogen zouden gooien.....
wel tof dat iedereen meegaat in de euforie van het nl vr 11tal, maar zelden zoveel ruimte en tijd gezien voor voortzetting van t spel 1/2
veteranentennis hebben geen coach 😊😊😊
mooi stukje mag je ook trots op zijn.
zeer interessant willem, eens kijken of het ons gaat lukken om onze jongens op t einde van t seizoen d…
strafschop moet gewoon zitten. ben jij ook in waalwijk??? niks met afzeiken te maken
luuk de jong gaat door waar hij vorig seizoen mee stopte, strafschop missen en kansen missen pffffff drama
onderweg naar rkcpsv. eens kijken hoe we ervoor staan voor komend seizoen!!!!
wordt jij nacsupporter????
vond hem frivool spelen en weer zoals we hem graag bij zien spelen💪💪💪
echt weer een topactie,…
had imo minstens geel moeten ontvangen, had hem voor het inschieten dacht ik zo.
vergeet de scheids een kaart te geven voor de overtreding waaruit de strafschop ontstaat???#dtv
zééééér indrukwekkende minuut stilte, perfect gezegd het kan dus wel, gewoon 1 minuut stilte, chapeau
wat een sfeer, kippenvel van t volkslied,
kan niet iedereen een kans geven die goed speelt. lammers erbij gehaald, siem gehaald, deze jongen het…
is toch te gek voor woorden, hendrix bijna 25 min laten warmlopen terwijl middenveld bagger speelt!!!
klopt, al denk ik dat ze nu beter kunnen investeren in de toekomst en niet in gehuurde spelers, is mijn mening
kwa goals wel, maar moeten niet meer zeggen dat eigen jeugd kans gaat krijgen ipv een huurling.
toch ook heel normaal, roepen al een hele tijd, meer eigen jeugd erin!!!!! onbegrijpelijk dit van cocu
en of er geen schorsingen zijn neem ik aan?? dan blijf nog wel ff staan verwacht ik😉😉. succes in elk geval.
voor 1 keertje?? dus was dit je laatste wedstrijd bij sveb1?? heb ik die toch mooi meegepikt😉.alleen zonde wat na afloop gebeurde
alweer hersteld van de wedstrijd van jl zondag??altijd leuk om zon sierlijke voetballer te aanschouwen, met een typisch tim goal
mooi toch dat in de basis mag starten. zal ie zijn draai gevonden hebben nu????#psvnec
wauw wauw wauw wat een wedstrijd tussen en gelukkig wint king roger. toptennis,passie,beleving heerlijk
klopt srry voor t foutje maar zit nu wel met een big smile bij en
heeft morgenvroeg een big smile op zijn face bij
wedstrijd 9 minuten bezig en nu al meer misverstanden voorin gezien als bij een gemiddelde amateurwedstrijd
had het al gezien👍👍
herstel, halve finale
waar zijn en nu met hun commentaar dat t aantrekken van van ginkel een hype is???
had dezelfde gedachte
heeft die leo oldenburg de ajax pyjama overgenomen van ???
helaas niet. alles terug op zoet😂😂😂😂
hij moet simpel spelen en niet teveel willen doen. en stamp die pereiro uit de basis, wat een softie, gaat geen duel aan
idd, maar onze amigo raakt alleen de tegenstander maar geen bal fatsoenlijk
wachten tot extra tijd en dan beest ramos mee na voren💪💪💪💪💪
suc6 heeft toch mooi voor mekaar gekregen👍💪👍💪
en de pakjesavond is ook al bagger😏😏😏#rjcpsv
fascinerend onderwerp, thomas dekker in de eindelijk open kaart, benieuwd naar t gehele boek. zal nog minder wielervrienden overhouden
zagen er idd beide niet erg sterk uit. en dan ook nog met rob oudkerk op de proppen komen, hopeloos
als goedmaker voor deze blessure en gemiste inkomsten, een vriendschappelijke wedstrijd, psvmexico🙄🙄🙄
van boekel is gewoon een schijterd en dus heeft vd brom groot gelijk!!!!
was gisteren 4 minuten na t laatste fluitsignaal in de auto en weg😂😂😂op en top prof....snel verkopen
nou is t nog rustig bij villa madness
ben ik met je eens, goede uitslag voor mijn club, want als wij de kansen eens gaan benutten is er nog veel mogelijk!!!
wel tevreden met de uitslag??
geen klassieker aan t kijken, mis je tweets!!!!!
heeft ook maar 3 ballen op goal gekregen, tel ik terugspeelballen niet mee. staat er ook voor om iets tegen te houden!!!
sarcastisch bedoeld😜😜😜tis helemaal hopeloos met die man!!!!
imo de speler met de meeste dreiging haalt cocu eruit
idd dat van zon ervaren speler, frustratie zit hoog pffff
heb vernomen dat ie vader is geworden!! weet of hier iets meer vanaf??
verwacht jij nog actie over het negeren van de blauwe vlaggen door verschillende rijders?? straf voor volgende race bv??
werelddoelpunt.........niet overdrijven paul, wekelijks op de amateurvelden te zien😉😉#psvrod
dit is wat ik bedoel over isimat, alleen maar terug, terug, terug totaal geen snelheid in t spel brengen/houden.
klopt, vind isi ook verdedigend niet slecht,opbouwend gaat het erg traag, bij willems ook imo.zondag zelfde tactiek als dinsdag?
vind het toch zonde, imo brengt schwaab meer als isi. doet me soms aan nielsen denken, sterk, betrouwbaar en degelijk
en wat vond jij hoe swaab speelde?? vond hem zeer sterk, rustig, betrouwbaar. wanneer krijgt hij zijn kans ipv isi??
hahahaha
wanneer komt er een algeheel rookverbod in het stadion???
ben ik t mee eens, weet ni wrm je dit zegt want heb nix van de wedstrijd gezien maar v boekel is een eng mannetje
voor de tv voor de clloting. kijken waar onspsv tegen loot!!! hoop op real,dortmund en celtic!!!!#ucldraw
is er nog plek vrij bij t voor de graag 14 spelers en enkele trainers ophalen in rostov
benieuwd wat in de studio te melden heeft??
hoor jij dat ook 10,10,10,10?????#rosaja
koop scc van vvv
k vind bazoer,el ghazi,riedewald,younes,veltman,viergever,gudelj,tete,traore,klaassen &ampcillessen echt slecht!!!
wel naar de wedstrijden kijken en niet alleen naar !!!!!!!!
idd maken een zeer gretige indruk, iets wat je van v boekel ni kunt zeggen, wat een pannekoek.
pol is antipsv kijk de statistieken er maar op na, weinig penaltys en veel kaarten die psv krijgt van pol v boekel
wen er maar alvast aan, van boekel is antipsv dus zal niet snel een penalty voor psv geven.
belachelijke reactie!!!!!
ik mis op de training, geblesseerd ofzo???
is hetzelfde niveau als vorige week de 1ste helft pfffffff
wacht maar eens af, als ze zich ni plaatsen voor cl denk ik dat hij vertrekt.
heb nog eens die wedstrijd van gisteren trug gezien, als klaasen vertrekt zakt je cluppie ver weg, enige lichtpunt vind ik.
ik hoap dat gej vurleupig nog lang zeek op de bank ligt😜😜😜😜😜
topintervieuw met bij door rustig, emotie, gunfactor, verdriet, als als als, realistisch.
misschien wim jonk proberen😜😜😜😜
mooi man, succes ermee, zal je flink aan de bak moeten of niet??? stage bij cocu😉😉😉😉
wat is ramos toch een beest!!!!! voorbeeld,voorop in de strijd, altijd strijd, nooit opgeven, topverdediger💪💪💪💪.
idd te vaak geblesseerd, weinig kans op doorverkopen, wel goede speler voor box to box.
dan duurt alles lang pfffff
succes ermee!!! eendracht maakt macht💪💪💪
thanks, begint iedereen weer blanco aan het nieuwe seizoen, mooi!!!#zininnieuwseizoen
wat gebeurd er met de gele kaarten?? tellen die door voor de competitie??
dan mis je toch wel😉😉😉
of misschien john van loen terug halen, kopsterk, vechtmachine😉😉
is fisher nix vur ajaks😉😉
bin t wel eens mit lars,
verkopen of nog een kans geven??dure aankoop, ik zou zeggen geef hem nog een kans, veel wedstrijden, cl,competitie en beker.
kriegde gelijk gewicht ien de strijd durbej!!!
hahaha dat klopt ma 32 joar......is ni inzetten op jeugd, mja van mej mug ie komme
goeije speuler vur eredivisie😜😜😜
spelen vandaag wel als een team en staan verdiend voor imo. dat ramsey niet speelt is idd zonde
neem aan dat je wales bedoeld, zijn niks zonder ramsey
daar zijn ze het in de studio niet mee eens, mijns inziens ook 100% strafschop. heb t idee dat de scheids anti cr zijn
van spelers zien we allemaal vakantiefotos voorbij komen, maar hoe ziet jouw vakantie eruit?? wanneer heb jij vakantie??
ik geloof dat nu binnen 1 minuut al 14 x de naam aduriz genoemd heeft, is dat misschien familie van hem
snoeks, zou je aub eens soms je mond kunnen houden, teveel onzin informatie
wat een heerlijke pass hoe iniesta zijn medespeler silva vrij voor keeper zet met een strafschop tot gevolg.
opleider op het veld trainer, buiten het veld toch een taak van de ouders/verzorgers lijkt mij.
ik denk waar thuis duidelijk de kaders aan worden gegeven er minder problemen zullen zijn, op een club en in de maatschappij
vandaar dat als spelers afvallen bij een bvo ze vaak in een diep gat vallen. dan stort de wereld van de ouders ook vaak in
door tassen te dragen, zeggen hoe goed ze wel niet zijn, durven hun eigen kids geen spiegel voor te houden. 2/2
een klik hebben met spelers hebben is anders dan opvoeden, dat is toch een taak van de ouders, maar die pamperen hun kroost.1/2
club en trainers hebben toch geen opvoedkundige taak imo, als je goed met spelers bent oke, maar kids worden te vaak gepamperd
voor welke bedragen zijn de voeten/benen van de coureurs verzekerd?? bedragen net als messi&ampronaldo of ligt dat bij de f1 anders?
geweldige uitzending met zo nuchter, zo puur, zo klasse!! wat een baas!!! go go!!!!!!
mooi stuk over pepijn, bij het grote publiek niet bekend maar bij ons wel. begonnen bij net als !!
heerlijk toch💪💪💪💪💪
kun jij met jouw punten toch wel aanvullen😉😉😉
kan iemand sjaak swart uitleggen dat hij bij zijn eigen spelers moet zijn en niet moet afzeiken. wat een zeikerd.
vond de fotos van mooier🤗🤗🤗, maar die staan op facebook!!!
ff de bruna informeren. zal drukker worden als bij nicci french, succes thijs met je verkoop
zit je in de trein met die ons feliciteert met ons kampioenschap, kan nog iets van leren
oke thanks wij drinken er 1,2,3,4,5,6......
hoe laat komen de supporters terug in eindhoven??? gezelligheid bij de aftrap💪💪💪💪💪
nu nog een x gemeend
slechte verliezer man
welk blessureleed??? dacht dat ie een probleem had met de knvb!!!!
gezappige wedstrijd, weinig strijd, weinig vernuft, angsthazenvoetbal, wel terechte winnaar
van harte met je 39ste verjaardag.
proficiat, paar mooie goals sjiek man
oké, ik dacht al dat je daar was geweest. zou ik wel hebben willen meemaken, op tv zag t er al top uit.
mooi man, lucky boy. sfeer zal top geweest zijn!!
is toch een zielige bedoeling dat de aanklager een onderzoek naar zoiets gaat doen!! lijkt me een zaak tussen psv en arias.
wat een sukkel is die jan mulder een eikel zeg. arias een boete willen laten betalen van €30000 voor kapotte ruit.
dat is dan ook het enige lichtpuntje van deze wedstrijd!!!!!
wat weer een verdedigen van luiz pffffffff
al binnen bej de nog ff en t is showtime
willems moet eens ophouden met die ballen op de jong die niet aankomen en eens voor de makkelijke oplossing gaan
mwah, niet héél vaak negatief mja, goed is goed, slecht is slecht. zijn we ook van dat gezeik af, 0 azspelers in oranje
vind dat je vaak niet objectief bent als jouw cluppie speelt, maar tot nu toe heb je 100% gelijk, wat un slap spelend az
zal best wel ma enne goede scheids zo nooits un 2de gele kaart hebbe gegeave. arbitrale 6tet waad waardloos
aanstellen van godin is ook een kunst!!
wat een domme reactie, absoluut geen 2de gele kaart. scheids onbekwaam om cl te fluiten, wat een flapdrol#psvatl
geweldige tafel, nuchtere en eerlijke mannen, gudde en de jong. niks eromheen draaien maar klare taal.
hahaha suc6!!! oftewel prioriteiten stellen😉😉.
thanks, dus wedstrijdritme op doen voor atletico!!
al iets bekend waarom eerder stopte met trainen buiten??
wat is veldman toch een matennaaier, vallen en schreeuwen of zijn kop eraf word geslagen
geloof je👍👍👍
klopt, al hoor ik je wel eens vaker een verslag doen en je dan zeg jij, hij solliciteert naar een kaart, behalve bij veldman..
hoeveel overtredingen mag veldman maken voordat ie een gele kaart krijgt??
moreno!!!!!!!!
ach neeeee, zondag scheidsrechter van boekel bij psvtwente, hoop dat ie beter fluit als afgelopen zondag!!! raar mannetje die pol
oke, op naar de volgende wedstrijd.
waarom hoorde ik die optie dan niet bij kramer?? kwam bij mij over of jij zoet een kaart aan wilde smeren.
hoezo onverdiend???? is van beide kanten ni denderend dus kun je niet zeggen onverdiend lijkt me
geel willen voor en wat doet mag wel???? ben is neutraal man
makkelie marchandeert net zo met de regels als van boekel. en dan wetende dat wiedemeijer, vink thuis in de ziektewet zitten pffff
zkr voor veldman pfffffff aanfluiting
wat fluit die van boekel weer een waardeloze pot tot nu toe, al 5 x gezegd laatste waarschuwing, geen wonder dat ie degradeert bij de fifa
kan een hele mooie middag worden, winst winst en winst met een hattrick van lets hope
misschien vandaag 2 kopgoals achter vermeer!!!!!
denk dat hier nix aan kan veranderen, zit gewoon in de speler, hij wil t op t veld laten zien niet in de studio
dacht ik al hahahaha
dat zou kunnen, heb gewoon goed gevoel nog ni zenuwachtig ofzo, is meestal een goed teken. gokje 13
tja morgen.......afwachten ik heb er wel vertrouwen in morgen ondanks de korpschef!!!!
heerlijke tweede helft maar wel buitenspel!!!!! zo slecht is de arbitrage bij ons dus nog niet.
eindelijk radio doet t weer, lkr genieten van krijg je goede zin van😉😉
gvd radio kapot, geen op t werk, monteur waar blijf je??? batterij van telefoon bijna leeg. triest 😖😖
nix met ehv te maken, hiddink werd al afgemaakt voordat hij begonnen was. met name uit adam......
en hoe kun je in zon belangrijke fase jongen spelers als tete, reidewald enz oproepen. deed blind toch.....
toch niet slechter als blind, zkr gezien de spelers die hij tot zijn beschikking had.
klopt, zullen nu wel zwijgen!!!!
benieuwd wat hiervan vind.
lijkt mij meer een motivatieprobleem. waarom wel gas geven na de 01. kampioen worden is wel heeeeel belangrijk. forza psv
dit is alwer beater
idd die foto hahahahaha
kunt bijna analist worden😜😜😜😜
gelijkspel blijft evengoed treurig.
slecht plan, zal plezier achteruit gaan, gaat toch ook voor de jeugd om het winstgevoel te krijgen
blijft toch un lekker nummer lola heerlijk
kan me niet voorstellen dat ze hier mee wegkomen, is dat wel, dan is de aanklager niet meer serieus te nemen
zullen beide toch wel vervolgt worden lijkt me, gustafson toch zkr, wat een sukkel.
fluit die been ff terug met zijn commentaar over de elleboog van gustafson, is toch duidelijk in beeld. belachelijk!!
dacht toch dat gerard joling dat bekend mocht maken 😉😉#fail
strak plan. moet daar zelf niet mee komen??
jong psv maakt gehakt van jong united, 05 is het dan wel allemaal zo slecht in nl als ze zeggen???
misschien iets voor jonk om daar aan de slag te gaan😉😉
1 van mijn favoriete songs op lola van the kinks
danke
wie speelt er zondag tegen ajax dan😋😋😋zijn denk ik niet op tijd terug
lekker duidelijk keepersshirt van zoet, lijkt wel of nec met 12 staat.
zeggen veel mensen sportman van t jaar, ik zeg verdiend het meer, gister weer toppie. wat een baas!!!
vandaag net genoeg, voor de eindzege is het zeer krap. toch petje af, wat een baas!!
idd, ben benieuwd. wat verwacht jij als kenner, heeft ie echt kans???
thanks voor de tip.
komen er ook trainers aan t woord of alleen maar lijkt me wel interessant!!
suc6 met je herstel. come back soon!!!!
goede woordkeuze zwarte piet.......
oke thanks, hopen ma dat het bij een bui blijft en geen hagel o.i.d.
hoe laat ongeveer denk je???
graag gedaan😀😀😀😀
geef er niks om hahahaha. winnen wel verdiend.
nee zeg ik ook niet maar kuipers gaf aan doorspelen maar zijn ass. zei strafschop....
klopt ma fey heeft zoals jij al zelf zegt 3 onterechte gehad en wij twee misschien 3 niet gekregen!!!!
fout gezien.....laten staan en maher eraf, guardado aanvallende middenvelder en hendrix verdedigend!!! hebbe fey klem!
hoe laat trein???
welke pot zit feyenoord vur de loting strax😀😀😀😭😭😭
hahaha kan al ni wachte tot 2016!!!!!
doog gej kiekt miss wel ien de melderse😉😊. studde bej dees kermis ok op de flyer??? ik bin sjors en mit de kermis heb ik dors😂😂
zondag de winnende tegge fey en dan is t good anders nog ma flink ien de knip loate vuule. sveb2 op de bank...
wat is dat vur un vergelieking hahaha dalik kumt nog ien opstand of is den al verder gekelderd as sveb2?
is ritzmaier geen alternatief voor linksback ipv brenet of poulsen??? slechter als brenet hebben we toch niet.
idd als we ma winnen. ma zeik ni elke speler af als ie een kans mist. behalve brenet hebben we veel kwaliteit.
oke maar je stuurt alleen ma negatieve tweets, zeik ni alle spelers af. straks scoren ze en dan is hij weer onze held!!!!
alleen ma negatieve tweets over psv goed bezig zeg pffffff. in goede en slechte tijden ons psv steunen.
geen rood voor kappelhof....@yomuld heeft volgens mij een klap van de molen gehad
jij begon met die achterlijke , door een ajaxbril gedane, uitspraak van geen rode kaart.
en als topscheidsrechters de regels nog niet kennen dan kun je t ni verwachten van amateurs
regels ken ik wel, die andere jankers schijnbaar niet. misschien mag ik ze nog eens fluiten.
ik wil hem wel wegbrengen. of misschien kan ie met makkelie meerijden.
den jordy is ni wies. mja durrum is ie ok vur 020
deze actie was erger als die van rapid wien tegen ajax, dus reageer ff normaal.
proat normaal achterlijke idioot. is toch gen inkomen daarvoor alleen al rood
rode kaart voor groningen of niet???
hahaha dat snap ik. door het gestuntel van isi en brenet ga je bruma nog een goede speler vinden haha. seizoen is nog lang.
zover ik weet praten ze nog steeds en hoopte psv dat het vandaag rond kwam.
vraag aub of heintze zijn schoenen weer aantrekt want brenet en isimat kunnen het niveau gewoon niet aan. moreno aub morgen melden
vol ongeloof op de bank......als je zelf niet probeert te scoren en zo lamlendig speelt krijg je hem vroeg of laat tegen
wat is die isimat ontzettend slecht. geef wat extra geld uit zodat moreno zeker komt
eerste goede actie van luuk de jong maar boeije wij staan voor
vind tete wel sterk spelen
eerder blunder van de keeper als fantastisch schot......#azaja
dat doog ik ok al. bietje sensatiezoeker, rare uutsprake de laatste tied. ment dat ie god is onder de analisten
wat heeft de boer met elia te maken??
hahahaha geniet ma van jullie weekend!!!!
vind ik geen probleem kim hahahaha
gej ziet tenminste ni zu wanhopig as
waar blijft nou met zijn reactie over de wedstrijd van gisteren, of is ie op vakantie??
och niet meteen in paniek raken, hebt een heel seizoen om clvoetbal rechtstreeks te behalen😉😉
dat poulsen en bruma en isimat waardeloos zijn. locadia en pröpper het wel proberen en dat cocu nog veel werk heeft!!!!
is niet laat in de arena aanwezig?? iets meer als een uur voor de wedstrijd???
welkom en succes op twitter, geniet ervan.
en gelukkig ook geen studio voetbal meer met jack de neus van gelder dus zal t ajaks gehalte wel flink dalen!
afgesproake!!!!!
dus de urste paar biertjes betaalde gej?????
golden earing, the kinks wat een muziek op deze vroege zaterdagmorgen! daar wordt een mens vrolijk van nou nog u2 en the boss aub!!!
leuk dat warme weer, vroeg beginnen, vroeg klaar!!!
prachtig, vind uit zelfs mooier als thuis
beide goede opties al gaat mijn voorkeur uit na die van groningen, meer kopkracht,wendbaarder ma zullen moeten afwachten
had liever gezien dat bruma was vertrokken. mja het is graag of niet......
gefeliciteerd met deze transfer hoop dat je in deze functie ons ook van veel nieuws blijft voorzien over
juiste omschrijving!!!!
vandaag gepresenteerd en vanavond met oranje spelen......ik zeg goede voorbereiding!!!!!
is ie zondag wel van de partij??????
klinkt goed
van harte thijs, nu kunnen de slapeloze nachtjes beginnen.
hahaha
en kunnen jullie eens uitleggen waarom wijnaldum altijd slecht speelt tegen feyenoord???
mijns inzien solliciteert hendrix na een plek in het vi team van de week
buiten zijn goal, valt mephis alleen op met ballen die doodlopen in de verdediging van gae.
bin dur bang vur. vurrige x dreigde den doar al mit toen is t 3 moand dicht gewes. ze zoeken nou iets.
behalve t verlies motte we zkr ok nog op zeuk nur un andere kroeg!!!!! flapdrol den burgervader.
helemaal mee eens, wat een eikel