super dankjewel!
is de derby toevallig al begonnen?
weten jullie toevallig of de derby tussen swift en afc al is begonnen?
6 weken in india nu, kan geen naan meer zien
wtf, het gerucht dat ruben neves voor 20 mlj naar wolverhampton zou gaan.. mooiste competitie van europa, ?
en john cordoba voor 16/17 mlj naar koln, prima spits maar nog meer prima bedrag
paal, lat... told you
en portugal gaat de confed winnen. ik heb 5 minuten gezien en weet genoeg
ik heb altijd gedroomd van een club als deze
ze lachen zich al rot op malta en in san marino
marsman naar fcu, het is te hopen dat jensen heel blijft dit seizoen
voor het eerst dat ik deze club tegenkom sinds ik er in 2008 een shirt van kocht, vrij weinig meer o…
eindelijk pl, echt benieuwd wat die kan
ik moet toch altijd wel lachen dat de schermpjes in de trein plots uitgaan bij een vertraging
adler naar mainz, rare carriere gehad maar beter wat we hadden
over de verdere aftakeling van lagere competities, dit draadje 👇🏻
gruwelijk
beter gaan ze niet worden in een psv shirt, wat een beest was dit
dafaq moet dit voorstellen
moreno naar roma, over een dinsdagmiddagdip gesproken. een vd beste verdedigers in jaren. geen idee hoe en wie dit gaat opvangen
gefeliciteerd! zal je stukjes wel voorbij zien komen!
masterthesis ingeleverd, toch wel een dingetje
ja heb hem een keer gehighfived op een festival, was een mooie dag
ik vind lexer echt een koning. deze is heel fijn
alles van still vor talent &gt aanrader
best een leuke finale, mag ook wel een keertje
uit het boekje
zou en goede zijn voor ajax, had de pech dat malli werd verkocht al had die een half jaar om iets nieuws te bedenken
uit de oude doos maar wel een stukje realistischer geworden
valt nog mee dat die niet zegt dat die alleen van lekker eten houdt
of het lekker gaat met juventus? mwjah
nog niet eens aan gedacht, maar alsnje 62k kan mobiliseren is er wel sprake van een achterban
wereldrecord grootste standion in een amateurliga?
ik kan maar beter een sabbaticaljaar gaan nemen als ik zie dat al dat moois tegen de vlakte gaat
en dessers naar fcu, slim van alle partijen
helemaal gemist maar wint de topper van de seria uit 15/16. ze speelde zo te zien met het mes tussen de tand…
die zie je voorlopig niet terug, tenzij ze de tgv pakken
de reacties hierop zijn priceless
fransen doen waar fransen het best in zijn
nieuwe coach morgen gepresenteerd, erg benieuwd
huddesfieldreading typisch engelse pot, bar slecht maar vermakelijk door het publiek
hebben, wat een topplaat
als ik het goed begrijp 10 etappes die voor vluchters of sprinters zijn in de tour, daar gaat mijn zin in de
wakker worden op een roze wolk
stukje spectaculairder dan monaco die
nooo alonso eraus, wat jammer. nou weet hij natuurlijk wel hoe dit voelt dit seizoen
ga straks intergraal thuis de hele giro terug kijken
hartslag in de keel, maar lets go!
juichen op de fiets! maar wat was dat radioverslag slecht...
die penalty in de laatste minuut is wel een beetje utrecht in de notendop. hoop, juichen dat je er bent en dan missen
jezus haller, je belangrijkste penalty voor utrecht op nog ietsje nonchalanter nemen dan normaal
dan kan je er niet bij zijn en dan is het weer spektakel in de galgenwaard
het was 5tegen1 op de laatste berg, op 15 seconde eindigen is echt heel knap. echt blij dat bob en bau meereden, envelopje die kant op
ik hoef niet te sporten vandaag, dit was te inspannend
goh astana rijdt ook voor nibali
lewis wordt even gepakt door vandoorne. p13 voor hamilton
formule 1 in monaco, beter gaat het echt niet worden
laatste vraag zou froome er ook doorzakken als hij bij sunweb zou rijden?
als pinot hem pakt dit jaar, wat een sluipschutter is dat dan. nooit de druk en de spotlights gehad
1.20 morgen op quintana/nibali rn je kan nog winnen zondag. geen idee alleen hoe die zich voelt. wat is supporter zijn toch een kutbaan
voordeel is dat de bonificaties weg zijn
de obscuren reclames van eurosport altijd, fascinerend maar doe dat niet tijdens een live uitzending
jurgen vd broeck, voor altijd een held alsnog
mensen die zeggen dat dumoulin nu ook de tour of vuelta moet rijden, nederlandser /opportunistischer gaat het niet worden
dumoulin is beter geweerd tegen het manunited gewielren dan ajax gister tegen het manu voetbal
mourinho legt even sanchez en kluivert vast met een voorcontractje
om het bloed onder je nagels vandaan te trekken, mourinho de tacticus
best toepasselijk vandaag de dag nog
en wie gaat hem oppikken
contractloos na 30.06. dit was toch ooit de kroonprins van het duitse keepersgilde. waar ging het mis, naast de komst van neuer?
wat een finale, wat een spanning, wat een groep, wat een land!
lekker geparkeerd ook die auto
dit kan er gebeuren als je wacht
waarom wacht dumoulin op quintana? specifieke reden voor? kruiswijk zal nu wel zoch afvragen waarom ze vorig jaar niet wachtte
roda jc is het hsv van nederland
jezus wat kut dit
kek dingetje weer
alleen 10 mlj voor 1 guy als de hele selectie doorgeselecteerd moet worden, dat zie ik brands niet doen
ja goed punt, ga je natuurlijk ook niet meer vangen voor luuk na dit seizoen
dat ziet er dus zo uit als ik in fm een donderspeech geef
alles wat een beetje afwijkt wordt in een hokje gepropt, zeker als het om voetbal gaat. lekker laten gaan!
haha ik kreeg al zon vermoede 😅
waar kan ik wat achtergrond vinden die accuraat is?
goede analyse van de eerste week in de giro
ze hebben ervan geleerd daar bij city
dat was bij sneijder ook niet het geval helaas 🤔
feyenoord zet vol in op halloween
lasse gaat zo geel pakken
benzema hoort er nog steeds niet bij
dit zijn de mooiste fotos, geluk en verdriet in 1 afdruk
ah vandaar, bedankt!
hoezo 21 ploegen? dat is toch een heel onhandig getal of is er een achterliggende reden voor?
lekker eerst naar en dan raven in de school 😏
iedereen compleet doorweekt en toch blijven zitten en zingen. wat een magie, wat zonde dat ze naar een industrieterrein vertrekken
willemsen komt zo 🇳🇱de commentator is al een tijdje naakt
wat een heerlijke derby, blij dat er niks op tv anders was 😅
laat het maar geen voorbode zijn voor morgen
hoe zien die eruit dan?
andre kuipers loopt ook lekker te harken tegenwoordig of support die een goed doel oid?
lag het dan toch niet aan fdb
180 km in de aanval en solo op de etna, dan verdien je hem
00 daar schieten we niks mee op
heerlijk choke ook weer van brighton vandaag, voorbode voor andere wedstrijden?
de wedstrijd waar het eigenlijk om draait dit weekend. cmon!
wat een ongekende chaos mooi!, maar dit kan toch alleen maar escaleren als het misgaat toch?via
haha wauw, dat is ook voor het eerst. bedankt!
qua beelden dan he
is dit ergens live te volgen?
had liever wat talenten gezien in de basis, hiervan is de helft verdwenen over twee wedstrijden
maar de arrivideci van brad pitt blijft het hoogtepunt van deze film 😅
christopher walz, wat een zieke baas is dat toch
ohja dat is helemaal op de schop gegaan, bedankt voor de info! snap nu ook de 1a en 1b
waarom zitten roeselare en st gilloise eigenlijk in die playoffs? die speelde toch tweede klasse?
dat weer degradatie ontloopt mag ook wel gezien worden als een puike prestatie
deze standen in de bundesliga zijn niet heel gunstig voor mainz...
qua timing hebben ze bij de knvb ook niet zitten opletten in de klas he
feest in de tvg naar parijs
tim krul, hoe diep gaat die afzakken dit ene seizoen in nederland
next goal to win danmaar?
is de wedstrijd tegen chevremont al begonnen?
beste, is de wedstrijd toevallig al begonnen?
dus ook discounts op de oude!! gierigheid
mooiste tijd van het jaar, competitie ontknopingen en de onthulling van de nieuwe tenues
bij rtl boulevard wordt lsd op de werkvloer goedgepraat, wat mooi
hoe kan het dat gilbert, winnaar van twee monumenten dit jaar, zo laag staat?
dat was een portie spannend in de slotfase, grande valverde!!
ohja hij kwam van burton natuurlijk. klassiek verhaal verder.
speelt erg leuk bij ado, waarom mocht die weg bij qpr? toevallig een idee?
wat een jaar is die aan het doormaken
driesje messi veranderd alles in goud dit seizoen
onverwachte punten zijn het lekkerst 🍾
ongekend spannend onderin de
al denkt robben daar anders over 11
weet jij toevallig of die nu ook 2x geen doelpuntenpremie zou krijgen?
kan je eigenlijk met de supercup ook coefficientiepunten verdienen?
hier droomt toch iedere amateur van
we gaan wel lekker deze week
revanche nemen op die stunt in zagreb van lyon?
een van mijn helden toen ik voetbal begon te volgen 😢
ik zap in, rood, ik zap maar weer weg... wat een beslissingen daar in spanje
hoog calimero gehalte inderdaad. misschien even focussen op beleid ipv 2 boeken schrijven als respons op dat artikel
ik kwam torquay vaak tegen op fm, irl gaat het een stukje slechter helaas... randje van degradatie en chaos op de c…
pff wat een drama helaas. bedankt voor het artikel!
wat is er aan de hand met torquey? die speelde toch nog niet zo heel lang geleden l2?
dit is behoorlijk triest toch...via
erik dekker 2.0
is dit niet die dude die van de zomer wilde halen?
dit gaat een interessant seizoen worden anayway
iemand statistiekje van het aantal mensen dat wegzapte nadat max hem er naast zette?
nou, we kunnen met zijn allen wat anders gaan doen
wat een meesterijke sprint, lesje nooit opgeven van gilbert. petje af! rojas geeft een lesje verliezen
ik dacht even dat die assitjongen van basten ging nadoen, lekkere counter!
daarom twitter, loopt alles onoverzichtelijk door elkaar heen 😅
iemand heeft een betje gewonnen 🤔
volgens het officiele routeboek 16.57. dat komt perfect uit met de
deze hoek was wel heel lastig, maar het zijn wel dit soort dingetjes die je kampioen gaan maken
weet iemand de verwachte aankomsttijd vandaag?
nou tot zover de inbreng van maaskant. hoe zou de koning zich voelen? hopelijk heeft die er een mooie oprotpremie aan overgehouden
ah oke! dacht altijd dat het een amateurclub was haha. slecht te zien vanuit de trein zou ik maar zeggen 🙈
is dat die amateurclub die ernaast ligt? ziet er leuk uit voor een dubbel!
ja alles zat mee toen ik er was, speelt ook wel een rol bij een bezoek
fulham zag ik vroeger veel op tv, speelt denk ik ook mee. volgend seizoen maar eens tripjes naar die stadions plannen
de belgen zijn weer on fire bij mancity. wat is de bruyne toch een weergaloze speler, echt een artiest
mainz staat terecht voor. overwicht en de kansjes, hertha erg zwak vooralsnog. hopelijk kunnen ze overwicht doorzetten in goals
game time! tijd om die 6 nederlagen oprij achter te laten
hannover wint en zet een belangrijke stap naar de bundesliga, verschillen blijven echter wel klein. was een matte wedstrijd though
doellijntechnologie, wat een verademing
doel je dan op rb leipzig en hoffenheim, of komen er nog meer van dit soort geldbclubjes omhoog?
ja dat vind ik altijd de charme van de 2e bundesliga, erg jammer
ja klopt! met zijn drieën maken ze er nog spannende weken van. trouwens onderin is ook het spannend. nu…
tuurlijk gelijk na het drukken op send 10 voor hannover96, fullkrug kopt binnen uit een corner, torent er hoog bov…
vooralsnog was de aankondiging van spannender dan de pot zelf. gezapig potje...
hoezo beladen? supporters van eintracht gooiden bv een vuurwerkbom perongeluk naar de eigenspelers
maar nu eerst tussen hannover en eintracht braunschweig. beladen pot met veel promotie en eer op het spel
tot slot schmidt weet wat hem te doen staat, maar staat erg onder druk, zal de supporters spreken vooraf deze wedstrijd
echter heeft hertha de lijn weten door te zetten, waar mainz ieder jaar zijn sterkhouders zag gaan zoals choupo, karius, td heidel en malli
wel raar, 3 jaar geleden was mijn eerste pot van mainz tegen hertha. beide in de race voor europees en dat lukte dat seizoen feest!
met oa verliesbeurten tegen darmstadt en ingolstadt. het tussentijds vertrek van malli lijkt ze gaan op te breken
mainz daarintegen moet na een goede start vechten tegen degradatie, en gezien de vorm van afgelopen weken wordt het heel erg zwaar
vandaag wederom een finale voor mainz. tegen de ploeg die het goed doet dit seizoen, met uitzicht op europees voetbal
greg vertelt even hoe het zit, kan het er eigenlijk alleen maar mee eens zijn
sportief revanche nemen, het is je gegund clint!
ook blessures toch? soms komt het er gewoon ook niet uit inderdaad
gaat dat nog worden met die nick powell?
vraagje, hoe kan het dat mijn buren eerder de kansen zien dan ik, ligt dat aan de provider?
djibril cisse is tegenwoordig pimp van beroep
ik ben te laat geboren 😢
ik ben benieuwd welke spelers hiervoor in de eredivisie voor in aanmerking komen
thuishaven, altijd feest 👌🏻
zon topaffiche en dan leo oldenburger als commentator. contrast.
machtig mooi deze polygoon
een van de vriendelijkste clubs van duitsland 🤔 succes in de lagere ligas, waar extremisme veel meer aanwezig is
draadje weer hoor!
ik weet niet of dit eng of lachwekkend moet vinden
opvallend hoe weinig je eigenlijk mist als je je telefoon vergeet en een dag in de ub gaat zitten. levensles.
kramer 90+4 wordt dit
al viel die dit jaar een beetje tegen...
de mooiste strook van het hele wielerseizoen. geen discussie.
ai terpstra gevallen, jammer voor ons en voor boonen als superknecht
altijd fan geweest van deze held, nu heb ik eindelijk medestanders!
googlerecensies doorlezen, het heeft wat treurigs
wat een race, pfff
geen koffie nodig op deze manier
zo zijn we ook wel weer
terpstra!
sponsortechnisch is het natuurlijk niet optimaal dat hamilton heel de wedstrijd uit het zicht rijdt
pff arme stoffel, wat een bagger bak
prima dat ik hier voor ben opgestaan
fifagoaltje dit wel hoor
daarnaast is hard op weg naar de 2e bundesliga. vandaag werd er opnieuw verloren, ditmaal van freibrugdat knap 5e staat overigens
bayernbvb na 10 min 20, niet eens meer verrast... wat een verschil tussen munchen en de rest in duitsland
wat schieten ze ze der lekker en mooi in vandaag op white hart lane
alli. stop de tijd.
doe maar niet
met een verdediging mignolet, klavan, lovren ga je dan ook helemaal niks presteren in de premier league
uw wtf moment van de dag
bij is eirik bakke coach, oud leeds... zo kom je toch telkens weer mensen tegen op het internet
hmm briljante dubbel. eigenlijk nooit die regio in internationaal perspectief gezien
is dat riise? of ben jk blind
heereveen was hierin ook niet flexibel dit seizoen dusja
misschien wel de grootste en mooiste klassieker van het stel en dan zulke goedkope champagne 😅
zit daar beleid achter of/en een potje met geld? club uit me jeugd dus zie ze graag terugkomen naar een hoger niveay
de 10 achterstand bij ingolstadt is ook weinig hoopgevend. mainz is dolende de laatste weken na het vertrek van malli
het was weer billenknijpen dit seizoen
goedemiddag, is de wedstrijd toevallig al begonnen tegen maghreb?
zullen sommige supporters het wss niet mee eens zijn, maar ik zie ze ook echt als een aanwinst. kunnen de selectie…
dit was echt een galawedstrijd, zitten leuke gasten tussen
30 na 25 minuten. jong az is echt een klasse beter in de de derde divisie, zitten ook leuke spelers die wel gaan doorstromen komende jaren
jong az speelt wel heel makkelijk... 20 na 15 minuten en ze zijn al kampioen
telefoon helemaal gesloopt, bankpas kapot. stappen bij me ouders in de provincie geslaagd
maar dat is een verschil van hoe je tegen multinationals aan kijkt. werkgelegenheid vs belastinginkomsten
vind ik en lastige. ierland heeft een corperate tax van 12.5%, op gebied van fdi werkgelegenheid sta je wel 10 achter dan
tot hoelaat gaan ze door?
note to myself soms moet je social media en studeren gescheiden houden
koopt met dahoud weer een heerlijk talent. lijkt wel een beetje op mijn fm tactiek buy all the youngsters!
ja hopelijk helpt het, het is best druk op de woningmarkt hier haha
weet niet of je al bekend bent met deze site zo ben ik met wat geluk in het centrum beland
wat was ik destijd jarloers op die transfer
is bvb2 leuk? veel supporters die daar ook komen kijken?
hoeveel gelijk je in 1 artikel kan hebben. klasse stuk!
ik was toevallig 2 jaar geleden bij auckland city met ivan vicilich als aanvoerder. kiwitea road is een aanrader!
zul je zien dat morgen met 50 wint en gelijk een contract voor 2 jaar krijgt
dit zet me wel aan het denken
hmm de ligt is te jong maar traore houdt kluivert tegen, beetje dubbel deze
heerlijke rand bij ze kunnen het wel, over voetbal praten
klinsmann ging niet bepaalt lekker in vs, ten cate is vaker ontslagen dan en niet en gullit... ach laat ook maar
ik zou me ook bestolen voelen als bulgaar of zweed via
en we zijn los!
bij wordt altijd lekker de baantjes naar elkaar toeggeschoven. benieuwd welke usual suspects er vandaag uit de koker komen
verdomde mooie koers dit
jongaz kan op een maandagavond promoveren naar de jupiler league. typisch wel
sommige dingen veranderen nooit, zoals renaat op de motor
sinds het voetbal weg is bij sbs is het bergafwaarts gegaan natuurlijk
zitten er nou meer mensen bij de duivels dan bij de bekerfinale?
ik ben uit armoede kaarten voor necexcelsior aan het bestellen
zelfs de internationale personen die ik volg snappen niks van deligt/blind... man man man lachtertje van europa
ga ik zeker doen! sleur der gewoon mee
schoonfamilie woont om de hoek, dus heb voor de volgende keer een troef achter de hand
dit leest echt als een spannend jongens boek, hulde!
dan ben je in dordrecht, speelt de lokale fc niet...
greg!! die rijdt stilaan een top palmares bij elkaar. fijne ontknoping ook
studeren? prima ruggengraat weer
eurosport dacht ik
wat is de verwachte eindtijd? scriptieontwijkend gezien
haha daar kan ik inkomen. op je schoot onder het bureau had gekund
heb je geen ziggo on demand achtige app in belgie? ik kan op mijn tel tv kijken
wel een hele interessante maatregel. benieuwd iig of het verschil kan gaan maken
je ziet dit ook gewoon fout gaan
zondagavondstudeerhitje
zeg dat wel ja,had het zo erg niet verwacht. ieder jaar vertrekken de topspelers, maar zo halverwege het seizoen is echt balen
man mainz moet echt gaan oppassen
excelsior en clubs met titelaspiraties... dit is vaker voor gekomen
het verschil in de tackles van mohktar en de ligt 😅
assistje van manu, speelt gewoon bij de hekkensluiter 🔥🔥🔥
ijsselderby, nu al de vlam in de pan. lekker
heeft het uitvak van feyenoord nou pagina 819 op een spandoek gedrukt?
dit is toch wel erg schaamteloos. beter laat dan nooit?
we mogen weer 24 uur hopen en dan rond 1900 teleurgesteld het weekend afsluiten
dost is weer on fre, 2 goede spitsen goals 🔥🔥🔥
dat lijkt me idd ook de reden. had graag wat beelden gehad
zo kan je ook een wedstrijd over de streep trekken 😂
haha ja zit het toevallig vandaag een beetje te volgen... wonderlijke wereld daar in afrika!
bedankt! zou wat zijn, zij zijn de titelverdediger toch?
is mamelodi uitgeschakeld bij deze tussenstand? lijkt me dat daar ook de uitdoelpunten dubbel tellen toch?
ook in afrika slaat de kunstgrasmaffia toe
heb af en toe wat flitsen gezien op werk, maar niet super in verdiept nee. was misschien wat kort door de bocht 😅
verwonderlijk weer, promoveren na zoveel jaar en dan gelijk de deur uit als hetbwat minder gaat
valt dit onder een topsportklimaat?
wat genant dit
kan je dadelijk ook per stemlokaal zien wat er gestemd is, of alleen per gemeente?
had je beter bij vvsbgvvv kunnen zitten vanavond. wat een partij was dat
dat gaat allemaal officieel. ken wat vrienden die op zon dag wat bij verdienen
as monaco zal in de zomer ook wel worden leeg gekocht zeker nu?
210 euro en om 2100 moet er nog geteld worden 😅
het heeft allemaal wat weg van de intocht van sinterklaas bij de nos...
dit zou zo een screenshot kunnen zijn uit procycling manager
me ouders zo gek gemaakt een shirt uit rome mee te nemen lazio 1999
props voor het social media team zullen we maar zegge. 2/2
wordt even op zijn plek gezet door zijn eigen team 1/2
normaal gesproken zou allang gespeeld zijn, maar in deze gekke cl ronde is voor het eerst in jaren niks een zekerheid