werd al niet meer serieus genomen, maar nu met zon berg afzeggingen kijkt er helemaal niemand meer.
waanzinnig wat kan toch racen. &amp raken steeds verder achterop. nu nog heel blijven
het moet nie gekker worden!
inderdaad, opgelost.
waarom staat er geen programmainformatie meer in de ziggo go app windows 10 home 64bit?
pfff, vermoeiend zeg, die commentator bij op
de dia’s met muziek die voor de reclamefilms &amp trailers komen bij “stronger” 19.45u vrijdag.
toch grappig bij eindhoven de reclamedia’s van de regio arnhem zien ...
ik stel voor de ek kwalificatie 2020 woudenstein, jan louwersstadion en de toekomst voor.
deze generatie van heeft ook totaal niets te zoeken op een wk! zweden dwingt het af, oranje niet ...
wat een fijne eredivisie gaan we nu zien!
beetje laat, maar wat is het toch fijn om fools overture zomaar op de radio te horen
ouderwets eindhovens en begrijp ik?
italianen gaan helemaal los op maar zijn enige fout is dat hij te langzaam wegkwam. waren er liever achter gedoken?
nou, stilte? is het echt nodig de muziek met 97db gemiddeld de zaal in te knallen?
wat een azijnzeikers hier zeg over als je m niet meer leuk vind, zit er een knop op je tv toch ... je hoeft niet te kijken ...
te diep in het glaasje gekeken 😂
en dit is precies wat er mis is in het nederlandse voetbal. je verliest gewoon 2 wedstrijden, de rest is totaal onb…
terug naar af, leren verdedigen en resultaatvoetbal spelen. winnen en punten tellen, balbezit en kansen…
eens kijken wat er van alle beloftes over is
hoe is het bij heel arnhem niet naar de kuip?
hoezo mogen ze daar geen aandacht aan besteden dan? ze hebben tijd genoeg.
hoezo verwarring?
daarom moet er via microfoon uitleg komen door de scheids na de beslissing.
beide beslissingen gewoon terecht toch!
wat een farce, deze als je het niet kunt organiseren met 5050 publiek, last het dan af! niet koninklijk &amp jc onwaardig!
nog geen tekenen van verbouwing op de herdgang ☹️@psv nog een seizoen op een jupiler league onwaardige locatie?
wow, wat een wk finale van mo farah op de 10km
zelfs een blind paard ziet dat dit nooit meer recht gaat breien &amp dat zijn krediet bij de supporters totaal op is.
rust bij interbmg met 10. 2017
gaan we na de grootste sof uit de clubhistorie serieus verder zonder consequenties? dan bent u ook voor
iets met zachte heelmeesters &amp stinkende wonden. face it, is niet meer houdbaar.
was je daar vorig jaar niet op vakantie?
ik neem aan dat nu zijn vertrek bekend gaat maken ...
nou ik neem aan dat je het dubbeldikke sportkatern van het al vol hebt met alles over
heb ik maar niet gedaan, vr el!
hedde gij fox dan?
ik vind een leuk u2 dublin bad 20170722
de volgende wens is het wk
yes yes yes, super wint. zo lekker weer een touretappe voor nederland! gefeliciteerd
verwacht jij dat we nu nog laten gaan nu moreno &amp willems vertrokken zijn?
de chauffeur van lijn 15 veldhoven station aankomst 15.47u had veel haast!
en dat gaan ze niet terugdraaien?
is brands niet gewoon aan het cashen om vginkel te behouden? hij is toch uiterlijk in de wi…
dit heeft toch weinig te maken met videoref ja of nee. dit is gewoon een scheids die weigert rood te geven.
ik schakel net in, maar wat een enorme mensenmassa langs het parcours
wat een wereld van verschil tussen de rustige mooie nummers en de hoge schreeuwerige uptempo kijkmijeensrockennummers.
in 1 half jaar 4 keer parijs 4 keer ehvrdam vv. met de toch zon 6 keer vertraging of omleiding. das een structurele
fijn zeg, wal &amp shp afgesloten. bus 15 doet er 25 minuten over om van station naar grote berg te komen!
waarom stuur je renners naar een als je je kampioen niet met trots in roodwitblauw laat rijden?
een jaar lang niet in roodwitblauw,@teamsunweb moet zich schamen!
waar ga je dan na zondag in het roodwitblauw koersen 😉
stuurt altijd 1 chauffeur en kan deze dan zelfstandig het geretourneerde witgoed meenemen voor
hoe weten jullie of getrainde chauffeurs heeft voor levering en aansluiten witgoed voor
oh, dus 1014 dagen voor afleveren en aansluiten van een vaatwasser is in de ogen van redelijk?
en weer oorverdovende stilte van geen uitleg, excuses of zicht op oplossing. voor mij nooit meer wit of bruingoed van
die belofte hebben jullie al 4x gedaan. wat geeft mij de garantie dat er nu wel snel actie komt? gaat de c…
en komt wederom zijn afspraken niet na. mensen, bestel nooit een vaatwasser via service verschrikkelijk!!!!!
als ik slechts €3, op een jaarrekening moet bijbetalen, waarom verlagen jullie het voorschot €4, per maand?
en als je nu echt je werk had gedaan had je gemeld dat de tickets inmiddels verzonden waren!
das geen antwoord das de faq opdreunen. geef nu eens antwoord m.b.t. u2 of zijn jullie geen customer service?
moet je je tegenstanders daarmee niet verrassen op een os of een wk?
de shows van u2 zijn in de vakantieperiode. wanneer worden de collector tickets verstuurd?
la decima voor is nu heel dichtbij! 51 in de derde set ... wat een held!
dat lijkt niet meer fout te gaan voor 20 voor in sets, 31 in games, maar zelden in problemen op eigen service.
staat als een waanzinnige te spelen tegen het lijkt een korte finale te gaan worden!
finale gaat voorlopig slechts 1 kant op en dat is richting zal zich snel moeten herpakken
zometeen weer stereokijken ... op en op
nu op naar de finale van eerste break voor is binnen! begint wat frustratie te tonen.
wat een mooie en spannende dauphiné hebben we deze week gezien met een geweldige ontknoping! fuglsang 10sec voor
groots met een zachte g vrijdag 9 juni 2017
groots met een zachte g in het philips stadion vrijdag 9 juni 2017
misschien een tip om mensen backups van fotos en films te laten maken na overlijden van een dierbare?
daar heb je er weer één. fotos van een overleden dierbare op een telefoon en nu zijn ze kwijt! mensen maak een backup!
het zou me weinig verbazen als dezelfde setlist gebruikt als 15 jaar geleden, maar zo lekkerrrrrr!
het was de enige uitverkochte dag, de beliebers zijn wel tevreden. je kunt natuur…
het blijft geweldig om live op te zien ... i alone 23 jaar later en nog steeds kippenvel!
hoogtepunten maar even aan de kant geschoven voor met live ... blijft mooi!
en waar kijk je dat?
wat een verschrikkelijk lelijke pakken van dit seizoen trouwens
jammer dat de jury niet ingrijpt ...
vallen me niet tegen ... jammer dat de hammer climb wedstrijd op vrijdag viel, anders was ik wel naar limburg gekomen.
toch fijn dat even meldt dat de ook op te zien is! scheelt een paar honderd meter &amp veel reclames!
de commentator benadrukt nog maar eens schaamteloos zijn voorliefde voor
dan mag de rest in een minder voorspelbare competitie gaan spelen 2/2
misschien moeten we barca &amp real volgend seizoen een best of 17 tegen elkaar laten spelen voor de 1/2
godver en gatver ...
ik geniet toch iedere keer weer van die oude italiaanse meesters en voorheen natuurlijk
ik heb nu al een hekel aan die navas
wat een lelijke opkomst! heeft weinig met voetbal te maken &amp de liefhebber heeft er volgens mij niets mee
zonnepanelen heb ik al. wanneer zorgt d66 dat mijn 100+km/dag diesel betaalbaar omgezet kan worden naar elektrisch?
stelletje sensatiezoekers ... laat die mensen toch met rust! de impact van zon ongeluk…
en wat was daar de 1e wedstrijd?
wat is dit? regionalliga naar 3e liga of? daar zitten meer man op de tribune dan bij sommige eredivisieduels!
zijn er echt mensen nu aan het kijken? triest dat er in dit soort jaren in deze periode nog interlands gepland zijn.
je was echt verreweg de beste blijf jezelf, blijf met beide benen op de grond, stel je volgende doel en ga ervoor! 1/2️
yo ltd ook jij van harte gefeliciteerd met de mooie giro winst van
spanning gaat eraf denk ik 21, zou me verbazen als frankfurt nog terugkomt.
lekker hoor, schakel naar &amp schiet de 11 binnen! ook hier weer spannend!
de vroege treffer van heeft ervoor gezorgd dat het een geweldige pot werd! 21
beetje veel stadion &amp weinig verslaggevers, verder ok
wat een geweldige pot zeg!
je kunt ook naar bbc1
wat een lekker begin van de
het is ook geen ramp als de nr 2 van nl niet door de vr komt &amp wel de groepsfase haalt. bekerwi…
dit kan niet meer mis voor ... deze is binnen!
er waren volgens mij nogal wat mensen vergeten dat deze finale voor ook de enige weg naar de is.
dat het geen wereldrecord is boeit nu echt totaal niet! wat een held!
en het was weer hakken over de sloot werk!
met nog 1 te spelen staat hsv nu 2 puntjes achter en op doelsaldo halen ze het niet ... kunnen ze playoff nog ontwijken?
zit tegenwoordig ook bij op de tribune of is dat een imitatort?
we gaan zo beginnen
lelijk!
prima, we veranderen de regels gewoon even ... weird!
wordt het echt een gekke avond? 20 na 16min!
ik geloof henk ten cate via
lekker hoor die 20 van 20!
gaat all eyez on me ook in reguliere voorstellingen draaien in eindhoven of alleen in de pathé unlimited night?
hallo meneer de studio sport verslaggever het hoog geheven been was van de groninger, niet van sam!
applauswissel voor 30 met 2 doelpunten van dries toch maar weer lekker op dreef dit seizoen!
wint het wk snooker en verslaat met 1815 na een achterstand van 410!
nog max 3 frames. heeft er 1 nodig, heeft ze alle 3 nodig. 1715 en weer nachtwerk?
boem! wat een doelpunt zeg, emre can
nu favoriet op wk snooker 1512, nog 3 frames van winst
odds have changed op wk snooker van 710 naar 1311 in de middagsessie
je zal toch maar na 125 jaar moeten beslissen of je naar de steenstraat, de ketelstraat of het velperplein gaat..
t is duidelijk geen brabant daar op de korenmarkt in arnhem! bij de 10 zie ik geen enkel biertje de lucht in gaan! 01
augsburg was ook een concurrent en ze hadden die 36 punten toch graag gehad vandaag denk ik zo.wordt…
fc augsburghsv 6 puntenwedstrijd en dan wordt het 40. hsv alweer in degradatiezorgen met nog 3 wedstrijden te spelen!!
grote vraag bij de is volgens mij op dit moment hoe fit is az? moet vitesse az laten uitrazen en toeslaan?
wk snooker stevent af op een eenzijdige finale. 26 na de eerste sessie.
altijd mooi, een bekerfinale waarin beide clubs in thuistenue kunnen spelen!
het is maar een saaie vandaag ... 17sec achter ham, 29sec voor per p5 lijkt al de hele race maximaal.
wat een gezeur op het is juist geweldig dat de scheids het zo door liet gaan. nu is de winnaar echt duidelijk.
ook gewoon op rtl7 hoor ...
meestal zijn klitschkogevechten saaaaaaai! maar ik zit er toch weer klaar voor!
eindelijk, de ferraris zijn de mercedessen voorbij in de kwalificatie!
ik zie net rangersceltic voorbijkomen, 04 na 66. ooit waren dat spannende wedstrijden, maar rangers is nog niet terug op niveau.
eredivisie zaalvoetbal op zn kop als t knooppunt gaat degraderen de nieuwe stand speelt dan vandaag…
vandaag, vrijdag of morgen zaterdag?
wat mij betreft nooit meer een topper na speelronde 28 welke idioot had dit verzonnen?
als ik bij vers brood een stokbrood koop, dan mag ik er toch vanuit gaan dat het ook vers is en niet van gisteren?
ik ben benieuwd wat de persoon met gehoorschade daarvan denkt? 2/2
slechts €300, schadevergoeding &amp taakstraf voor vuurwerkgooier psvstadion. 1/2 via
pak de tissues er maar bij jullie dreamteam heeft 0 keer gescoord! 14
waarom toch continu die barca bril. voetbal &amp de gaan kapot aan weer real, atletico &amp barca in de halve finale.
dienst handhaving heeft zijn quotum nog niet gehaald, fout parkeren bij
nu al 24 verliespunten 2092 tegen vorig seizoen 18 2662 en daarvoor 13 2914 en ajax komt nog lijn
en als we als niet leren van onze fouten dan kunnen we dit verwachten.
en als we als een heel seizoen weigeren te voetballen zodra we op voorsprong komen ... dan kunnen we dit verwachten.
touwtjes in handen de controle van de 1e helft is totaal weg, komt geregeld links en rechts door.
gvd arias, waarom niet een stiftje in de verre hoek?
is nog steeds niet wakker na het buitenspeldoelpunt tegen scenario uit dreigt en dat roepen ze zelf op!
wie verzint zoiets? hopeloos ouderwets! niet over nagedacht!
kan een passagepas voor station eindhoven niet gewoon als een app ontwikkeld worden? weer een pasje erbij?
yes, lekker doelpuntje van 01 forza
lekker uptodate die promo van de serie a seizoen is halverwege volg het vanaf 8 januari? het is 15 april!
wat een ontknoping zeg! in de 80e minuut stond het nog 20, maar na 9639 met 5 minuten blessuretijd met goallinetech 22!
deze derby verwacht je zondagavond 20.30u, maar niet zaterdag tussendemiddag
dus de mevrouw die vanavond zogenaamd verrast uit bed kwam, dat was gewoon een toneelstukje. ze wa…
waarom blijft de thuiswinnaar niet uit beeld tot ze aangeven dat ze geen bezwaar hebben?
ik hoop het .. we pakken ze maar wat graag 3 punten af, al denk ik niet dat dat genoeg gaat worden voor j…
eerst massaal voor hendrix, daarna voor locadia publiek is de keuzes van cocu zat?
&amp kunnen veel leren van malaga dat tegen het grote barca met hart en ziel op zoek ging naar de 20
en als we als een heel seizoen weigeren te voetballen zodra we op voorsprong komen ... dan kunnen we dit eens verwachten.
wat een heerlijke aanval! locadia!!!!! 11
meest trieste van dit alles is dat dit volkomen voorspelbaar is
ik ben geen fan, maar wat een geweldige overwinning van gaat dit worden als het lukt
gewoon een stuurfout van lijkt me. de jas werd door nummer 3 meegenomen.
en toen was het gat nog maar 3 &amp 5 punten. kampioen? ik moet het nog zien
was dat echt het allerhoogste niveau daley? dit was het slechtste oranje sinds de 80er jaren!
tv uit, klok vooruit, wekker aan
we zitten op het allerdiepste dieptepunt van oranje sinds mensenheugenis &amp de commentator heeft het over haasjes voor debutanten
hoeveel kaartjes staan er nu tegen bodemprijzen op marktplaats?
ik stel voor dat de nlse pers de cameras en micros alvast inpakt als statement
zouden ze het durven bij de nos? danny, was dit je laatste wedstrijd als bondscoach?
er staan nauwelijks mannen in dit elftal!
die zweden lachen zich de zweedse ballen uit de broek als ze dit zien!
en vervolgens gaan we oudhollansch bal rondspelen om %balbezit wat op te voeren
bij jpsvhelmond werd er gewoon na 30min 2x gewisseld, maar danny zal niets doen ...
het is al bijna normaal dat een wedstrijd met 03 achterkomt en dan binnen een paar minuten weer op 33 staat.
danny moet gewoon legendary oranje gaan coachen. dan kan hij vd sar opstellen, maar stop aub bij
hebben jullie deze al gezien ... volgens mij een poging tot phishing
hé danny ... die de ligt komt toch wel in de basis bij danny dan hè
stembussen open tot 23.00u terwijl al 2 uur bekend zijn?
van het hoogtepunt verkiezingen nu over naar 365 dagen kabinetsformatie met een 4 partijenkabinet.
misschien toch volgende keer maar aan de techniek werken?
zoooooo jammer ... dat er niet bij is vanavond!
wat een indrukwekkend interview met ahmed bij maar woensdag niet op het stembiljet ...
waarom waren er maar zo weinig voorstellingen van miss sloane in eindhoven? krijg ik nog een kans?
zijn er echt mensen die dit leuk vinden? voelt voor mij meer als het einde van de cl
waarom volgen jullie pantic tot bijna in de kleedkamer?
erop en erover heet dat ... 23, 23
boem! wat een doelpunt zeg, die 22 van troupée
vanaf vandaag is het seizoen weer echt begonnen en een topfinale met
wat een waanzinnige pot zeg,
kan jullie nieuwsbrief ook tijdelijk uitgezet worden als je al een vakantie geboekt hebt net zoals bij de concollegas?
waarom moet de camera mee de catacomben in achter aan?
wat een mooie overwinning van marcel bij de slalom op het in
wat een lekker pak slaag krijgt zeg!
echt iedereen weet wat er gaat gebeuren, maar niemand kan m stoppen! geniaal
mijn top 5 van vandaag. 1 hidden figures 2 mein blind date 3 gold 4 their finest &amp 5 jackie
wat is het nut van het volgen van manu na zijn rode kaart in de catacomben?
het is bijna jammer dat de volgende wedstrijd thuis is ... 24 keer uit ongeslagen
ik ben er klaar voor!
... bestaat dat programma nog?
eerlijk is eerlijk, speelde cruciale rol bij 2 doelpunten
toch fijn dat geen geel gaf aan bij de penalty.
solide tikt helemaal dol score blijft wat achter, maar dik verdiende 12
voor dan maar? slechter dan dit kan toch niet.
ik zag het ... de tweet van kwam ongeveer 3sec later.
de hoeveelste 00 bij rust is dit van
toch wat een spanning in publiek is teleurgesteld ...
wat een mega heksenketel in bij de nightrace als naar beneden komt! winst of toch 2e? nu!
by night wat een geweldige sfeer!
klaar voor forza
mooie partij in gaat toch pakken in 5 sets
het was fris op de herdgang en jong zakt dit seizoen steeds verder weg. kansloze wedstrijd tegen al binnen 1 minuut
het is nu al voelbaar! 23
mooie plaatjes uit afdaling gaat vandaag wel door na de teleurstelling in vorige w…
thx door daughter vanavond in je show luister ik nu al een tijdje vs. &amp ten. ik pleit voor meer pearl jam in wout2day!
wat is een geweldige film, meesterwerk!
nu is uitgekomen is bij voorbaat al weer zeker dat de opnieuw de white peoples choice awards worden.
fout de wedstrijden in groepen van 4 waren juist saai. na 2 wedstrijden kom je nu in de mooie kofase van het wk!
wat een onwaarschijnlijk jaar van alle titels op de schoorsteen! gefeliciteerd!
set 8 gaat naar ook gewoon naar stand 62 in sets. nog 1, nog 1!
het gat is er, 52 in sets voor
vijfde set gaat naar met 30, stand 32!
en pakt de 4e set, de stand is weer gelijk!
en de derde set gaat naar anderson, hij is de eerste die de set breakt
tweede set blijft bij anderson, maar mist zijn kansjes. 11
lekker, de 1e set voor mooi begin en gaat wat worden als ze zo hun eigen legs houden
laten we alleen hopen dat morgen ook zo gooit zeg ... dit jaar moet echt bekroond worden
wat een heerlijke pot darts was dit, lijkt het opgegeven te hebben.
dit waren toch bijna wel de allermooiste minuten van de het instrumentale begin van fools overture standje burenruziekippenvel!
als ik zo die playlist zie vandaag gaat er nog heel wat halverwege weggedraaid worden!
heerlijk, steeds meer muse, pearl jam, pink floyd en u2 en nog veel meer moois op deze laatste dag
het was inderdaad een leuk tikje na van door zelf het bord te pakken!
yes yes yes kan het in 8 sets, niet eens in 9!
wat valt hieraan te analyseren dan? het vliegt werkelijk alle kanten op.
vecht zich keer op keer terug dit wk 43 in sets.
weer 02 achter, terug op 22 en dan toch de set verliezen, het is weer gelijk 33 in sets
eindelijk wat vuurwerk, 31 voor
kan iemand wakker schudden ... die is vast in slaap gevallen bij deze wedstrijd.
lekker van 02 in de set naar 32 en een 21 stand in sets
zijn er ook sprekende statistieken te maken van het aantal darts waarin spelers legs winnen?
de scores knallen nog niet van het bord, 11 in sets.
pakt de eerste set met 31 het loopt bij beiden nog niet soepel.#rtl7darts
klaar voor de klassieker barney tegen the power
wedstrijd lijkt al gespeeld, vooral omdat webster in de eerste 2 sets zijn kansen mist. 30!
ik weet niet wat er in het kerstmaal van heeft gezeten, maar ik heb het gevoel dat hij zijn supervorm kwijt is. toch 20!
moet waarschijnlijk even op gang komen maar wint de 1e set met 32.
en nu weer 32 achter wordt het nog een thriller?
lekker! pakt de derde set. 21 voor nu
lewis &amp gaan er een thriller van maken! 11 in sets
man man man, wat was dat spannend zeg! wint met 42, maar balanceerde op het randje van de 33
krijgt niets cadeau vanavond. 32 in sets. gaan we naar een 7e set toe?
wow, staat 31 voor, maar hij moet er wel zwaar voor vechten.
11 in sets onverwacht setverlies
en staat ook op 10 nu ... ook op weg naar 40 vanavond?
wow wat een wedstrijd zeg ... of beter het was totaal geen wedstrijd! 40 in sets, 122 in legs
wat staat lekker te gooien zeg, 20 in sets, 60 in legs. gaat hij dit volhouden?
opnieuw een lekker begin voor
the common linnets had je wat mij betreft prima over kunnen slaan ...
wat doen jullie nou? rappers delight zomaar middenin afbreken ... schaamteloos!
en 3,5 sec was voor gsw niet genoeg om 108109 om te buigen in winst 5e verliespartij gsw, cle blijft op 6 verliespartijen.
wat een geweldige pot nba op 1e kerstdag! 108107 met 13,5 sec op de klok, wow!
eerste nummer uit mijn stemlijst komt zo al, duelpropoganda op 1995. daarbij moet ik altijd aan frits spits denken
tweede set van was een stukje minder, wel makkelijk gewonnen.
lekkere start van als de finishes zo blijven lopen ...
net zoals de opkomst van is ook de opkomst van echt geweldig! ik ben benieuwd ...
two down, one to go. geen superset, maar had viljanen echt een kans?
one down, two to go. dat was een scherp begin nu doorzetten!
het blijft een mooie intro! succes
mooie hoor, de docu op over jan boskamp en zijn fascinatie voor de 2e wereldoorlog.
wanneer komt er eindelijk eens een teletekstpagina gewijd aan de
wat een rotnieuws! heel veel sterkte ...
wie slaapt er? staat voor door een eigen doelpunt van
zit er totaal naast met alleen een streampje van vuurwerk in het begin. als begint is het feest voorbij.
eigenlijk een geniale zet vd als bondscoach voor een wk in het land dat neerhaalde.
aantal tweets over is wel belachelijk zeg. ga voetbal kijken ipv tweeten!
clubs zullen blij zijn met er komen er veel met pijntjes terug!
wanneer laat eindelijk eens zijn voeten praten?
met alle hulpmiddelen, hoe beoordeel jij deze dan?
beduidend minder oudeindhovense trots bij de recreanten en meer &amp
de kopgroep bij de genderbeemd.
meer zin om parijstours te kijken dan ook maar iets van het wk!
mooie start voor ricciardo door de 1e bocht het voordeel van vandaag.
hé het is nu echt leuk bij celtabarca 42
waarom wordt het leuk bij celtabarca als barca op 32 komt. moet iedereen achter barca aanhobbelen?
jammer dat frank er nu weer bij zit bij hou het gewoon bij voetballers en geen andere bners.
nou, die moeilijke uitwedstrijd kunnen we nu dus mooi wegstrepen voor dit seizoen.
griezmann past perfect bij dit mist ook een pingel!
lees m maar snel uit want voor je het weet ...
wordt de prijs van bij nu ook aangepast naar €7.50 per maand?
schieten in eigen voet. paar landen doen mee, rest zal afhaken. kan me niet voorstellen dat sponsors daarop wachten.
ik kijk pas net en het 1e wat alweer opvalt is het gekleurde commentaar bij niet iedereen is altijd voor real of barca!
eigenlijk hoort deze wedstrijd op zondag 20.30u beter krijg je dit weekend niet meer
heerlijke pot voetbal hoor, 2e helft gaat door waar 1e helft gebleven was!
speelt city thuis? er is maar 1 ploeg aan het voetballen, dik verdiend 02