graag! bedankt voor het antwoorden en een fijne dag
het vervelende was dat we daar staan en er verder totaal geen oplossing of verdere informatie was.
😂😂🙈
ik verbijt me suf nu blijven ademen pfffff
waar! maar wat slecht was het 🙈 en slecht voor je hart 😉
ouderwets billenknijpen was het 🙈
2e helft niet anders 🙈
🔴⚪❤️ 3 punten blijven in rotterdam
hartverzakking 😲 niet te doen dit
is het niet rood /wit 🙈
kijken op groot scherm hier
😂😂😂
no words 😢
zekerssssss
wakker worden en dan dit trieste bericht 😢 zieke wereld.
yesssss blijft!
bij dit filmpje weer kippenvel. wat waren die 2 super dagen. 🔴⚪
op de coolsingel
onderweg naar de coolsingel!!!!! 🔴⚪🏆⚽❤
ga ervanuit van wel🍀
in slaap vallen was al drama. ik geloof 3 uurtjes geslapen en hoppa weer wakker.
hahahaha erg vroeg nog daarvoor
dat wel maar zenuwachtig niet normaal 😥
wordt nu wel moe van die achterlijke opmerkingen van gordon.
nee nee nee nee nee verder geen woorden voor! ❤ de kuip ❤
oh super!!!! bijna thuis kan ik ook effe kijken
goed dat je het zegt. zocht een kaartje voor mijn zoon.
klasse 👌 🔴⚪
kan me voorstellen
oh mooi voor hem.
en heel hard zondag gaan we het doen en we worden kampioen. oja hij vroeg nog naar damien of het al een beetje gaat met hem.
flauw grapje i know maar positief blijven meid. rivanio zat vanmorgen de hele weg feyenoord liedjes te zingen.
hahahaha ik zie dat omdat je zei dat je het niet meer wil horen. maar het komt goed 😉
komt goed!
the day after. positief deze week doorgaan. het komt goed! wij zijn rotterdammers wij houden vol.
gaat wel lukken. zal wel moeten. foccusen op volgende week is wat nu belangrijk is.
na een kut dag vandaag. een kom cornflakes eten en friends kijken en deze dag gauw vergeten. relax!
ja lach maar neusjes. ken me nog iets herinneren iets met de graafschap.
volgende week moet het dan maar. voor nu shit
gezelligheid feyenoord!!!!🔴⚪
niet te doen die zenuwen 😥
spanning stijgt nu nog meer. ken je voorstellen morgen. 😥
zo jij krijg antwoord van ik helaas niet😡aangegeven dat het schandali…
nee helaas meid. marktplaats kijk ik nu ook maar zie ook alleen hoge bedragen. hopen op een wonder
awh dat is echt lief van je ♡
en zo oplopend naar nog hogere en belachelijke prijzen.
zat net nog te kijken of ik een kaartje voor rivanio kon scoren. maar wat normaal een tientje is wordt…
serieus zag prijzen voorbijkomen niet normaal 😠
precies mijn gedachten.
de dagen gaan voorbij en de spanning stijgt elke dag meer en meer. 🔴⚪ 🏆
junioren die net een blauwe maandag een kaart hebben zitten gescheten en kinderen die v…
schandalig dat kinderen die niet onder junior vallen geen kaartjes kunnen bestellen.
toch maar wel?
alleen als er wat te halen valt hoor je ze 😣
met
wij ook aanwezig 🔴⚪
hahaha snap het de spanning lig hier ook hoog
sfeertje zit eral goed in!!! zin in zondag meis! 🎉
hoop het ook maar als rivanio niet bij mij kan ga ik niet. jammer dan.
ja ik heb ze wel. maar 2 verschillende vakken dus moet effe kijken of ik mijn zoon toch bij mij kan lat…
schandalig is het 😤
mensen die hun kaartje verkopen verrrr boven de vraagprijs schaam je ogen uit je kop!
een bitch die termememvol is 😂😂😂#spraakgebrek
nee pas na woensdag als er nog kaarten over zijn
2e helft geen moer beter
ik krijg er slaap van.😴
wat een verhaal😯 aan de buis gekluisterd
blijf de beste man rustig? of een herhaling van vorige week? spannend !!!😮😂
fijne koningsdag 😉
allemaal praatjes die de ronde doen.eerst zien allemaal.
wanneer supporters zich misdragen bij excelsior. het zal allemaal wel meevallen
van mij mag je ook blijven.
good morning!!
al stront zenuwachtig voor morgen. lets do this 💪⚽ come on feyenoord!!!!
hou me niet bezig met die neusjes. het zal me een worst wezen wat die gasten doen. tijdlijn echt niet vervuilen eraan 😜
had allang die vent de deur uitgetrapt.
vreselijke vent
help mijn man gedraagt zich als een puber! grow the f☆☆☆ up!!!!!
staan te maffen langs de lijn 😴
heerlijk en gelachen ook.
eruit met real! misselijke spelers
mijn knul helemaal links! en trots dat hij was bedankt!!!!!!!👍👍
heerlijk weer 3 punten! op naar huis weer.
zekerssss.
maar eerlijk dat doelpunt was wel mooi. mooi actie vooraf
gaat niet door.
zeiken de hele boel af. net als gisteren bij de nooit praten over voet…
ugh de eene week kruipen ze bij hun in de reet en andere week zeiken ze de jongens helemaal af. zappen!
geef het vertrouwen nog niet op. geloof er nog in.
dat is 1 en nu nog een paar. come on feyenoord!!!!
tuurlijk geef het gewoon cadeau mannen.😠
match day! come on feyenoord!!!
morgen gewoon knallen en die punten mee naar rotterdam.
komt goed!
volle vertrouwen houden.
nog genoeg tijd voor az
nou zit je klaar?
match day! vertrouwen in jullie.
maar respect voor de ouders van het jongetje. laat een kind zijn wie hij/zij wil zijn. 👏👏👏 respect!
zo heftige spandoek valt lekker op ook 😑
ik blijf positief en geloof in ze. alleen op dit moment valt het zuur na gisteren.😣
wat ik hoop is dat ze het licht hebben gezien en dat ze er wat aan moeten doen. ik weet dat ze dit kennen
opstaan met een kater na gisteren. positief blijven denk ik maar dan weer.
hou nog volle vertrouwen in mijn club. vandaag was slecht en nu is het de volgende wedstrijden gewoon herpakken.
er moet een wonder gebeuren in de 2e helft want hoe kan je dit weggeven????? wat is het slordig.
ze spelen slordig. onnodig dit echt onnodig.
nog 25 minuten niet te doen die zenuwen gek.
pfff ben vanmorgen opgestaan met zenuwen en ze zijn er nog 😥
hoe gaat het met de zenuwen meid?
nog anderhalf uur zenuwen zijn echt niet te bedwingen. come on feyenoord!!!!!
match day! zenuwen al flink aanwezig. come on feyenoord!
ken je nu weer slapen meid? 😑
krijg de schijt van dat mietjes gedrag! en dan die scheids 😠😠😠
wakker worden feyenoord!!!!!!!
gaafffffff!!! maar te ver 😬
stront nerveus onderweg naar werk met de radio aan.... hartslag 180 dankzij verslaggevers
heerlijke wedstrijd. wat een come back van barça 💪
en hoe 😂😂😂😂😂😂
hoop op winst groningen.. of een 00
duidelijk
dat is ook zo.
het zou gewoon niet mogen met of zonder kuyt.
irritaties op dit moment
irriteer me kapot nu wat slecht!
graag wel naar zuid
is al gelukt 👍
zoooo barça word flink te kijk gezet.
het was de metro rond 545 er werd later vermeld ivm een defecte metro. bedankt voor het reageren
hahahahaha ik was ook afgeleid.👀
😂😂😂😂 dat had ik dus ook. kan een toupet van zijn wenkbrauwen maken.
anders hier wel! nog 12 tegaan.
3 punten mee naar rotterdam 💪
graag gedaan 👍
jullie ook 🌻
en mijn complimenten voor de chauffeur die dag. 👍
heel graag gedaan
afgelopen zaterdag hulp gegeven aan een oude man die gevallen was. en als dank kreeg ik dit van jull…
het is nu wel frisser dan gisterochtend.
maar weer bij 1 lucky moment he!
van mij wel..ik kijk de tijd voorbij!
heerlijk!!!!
working! evening shift.
wat een bizar jaar in de muziekwereld.😢
lekker gedaan scheids 😤 pffff
het viel later nog mee gelukkig. 😄
is er een storing met metrolijn d? word namelijk niets vermeld maar tijden staan op 34 minuten
het ook weer wennen naar de opbouw van dit verhaal. ik beken eerlijk er waren moment dat ik dacht 😴
maar laten hopen dat een dipje was
ja idd. maar effe het moet echt beter hoor!
pfff wat een wedstrijd
wat een kans !!
wauw wat een docu was dit zeg!
zekersssss heellll blij!
hahaha dat word weer rennen dan!
is al gelukt! we hebben ze!!! yayyyyyy!!!!!
de code werkt niet voor robbie williams. en krijg bericht van vele niet! wat nu?
nog een uurtje bring it on!!!!!!!
wat een mietjes bij elke scheet gaan liggen!
flinke haal genomen die gio 😂 is echt een hele rare wissel
uuuhh niet zon klein beetje buitenspel
hahahahaha toch maar wel?
jajaja dan gaan we maar we touren!!!!
dan maar wachten op 9 november!
geef niet gauw op maar zit nu echt op max . duurt te lang voor er een liedje komt
heel frustrerend zit soms 6 uur tussen! bizar gewoon!!!!!!
pfff die is echt stressen hoor! uren aan de radio gekluisterd tot robbie voorbijkomt en vervolgens ernaast zitten😢
duurt wel lang voor er weer een nummer van robbie williams komt 😥
bijdeze actie is de stress factor torenhoog! wat je wel niet over heb voor robbie williams.😄
gelukkig wel 😉
ja ik ook. duurde lang voordat ik kon slapen ervan. en vanmorgen een twd kater 😣
in heb al die tijd dingen vermeden. ook niets gelezen. maar deze kwam hard aan gisteren 😨
idd abraham was 1 van mijn favorieten. ik was in shock! maar glenn zag ik echt niet aankomen daarna!
effe serieus! wat een aflevering. kan niet slapen 😨 cant handle this!!!!
neeeeee!!!! dit moet ik echt verwerken. what the f excuse my languages dit zag echt niet aankomen!
daar dacht ik dus ook aan.😣
nou met deze wedstrijd gaat dat echt niet.
jaaaaaaaaaaaa 10 en ik ben wakker! goeie actie bilal 💪
je kan gewoon een dutje doen zonder dat je iets mis 😪#feyzor
ze gaan maar effe wat doen want me wekker gaat om half 5 en ik wil niet chagrijnig opstaan.
nou het kan echt wat vlotter 😪
pfff stress factor 2.0 maar weer 3 punten binnen
kans dat robbie williams bij jullie langs komt?
trots op onze rick 💪
ik hoop dat ze ervoor willen strijden zo.
ik hoop een verschil 2e helft
tegen manchester veel meer lef
we zullen zien de 2e helft.effe flink de wind van voren geven. onnodig om zo te voetballen
zijn haar of de wedstrijd? 😜
dat heeft hij al zolang 😑
irritant dat fluiten
ready! come on feyenoord!!! geen woorden maar daden ⚽💪
mooie wedstrijd dortmund de betere ploeg vanavond
terecht de 22 dortmund gewoon de betere ploeg
gelukkig wel 😉👍
ik heb vertrouwen alleen nu op dit moment effe een tegenvaller 😦
wat een slechte eerste helft😑
er was nog een automaat die deed het wel 😉maar het is handig als die anderen het ook doen 👍
oplaadpunten op spijkenisse centrum 1 buiten gebruik aan de kant richting cs. 2 aan de kant richting akkers geen munten
trots op mijn feyenoord!!!!!!!!!!
respect voor de feyenoord en ado supporters! dit is wat voetballen mooi maakt
pfff dat is toch geen vergelijking! sorry hans beetje rare opmerking.
zzoooo ik weet niet wat erin die tuin groeit maar het is blijkbaar sterk spul.
we stalken elkaar 😂😂😂
hahaha nu zie ik je overal zelfs op het schoolplein 😂😂😂 💋
trots op de meiden in de wedstrijd de beste op het veld shoot out minder alle hoofd omhoog en trots zijn! toppers!!!
kan die tijd niet wat sneller??? pfff!!!!! niet te doen die zenuwen.
hoppaaaa en 32 nu volhouden
krijg de zenuwen ervan
trots op de meiden👏 geknokt tot het laatste moment. we gaan voor brons meiden. jullie zijn toppers!!!!!!!+
fox sport 1 zender ligt eruit! effe checken a.u.b
heerlijke zondag overwinning 05 feyenoord!
super bedankt voor je tijd!
thank you
gefeliciteerd!!!!!
gelukkig niet nodig 😉
ja hij is een goeie voetballer en ook geen show mannetje
ik ken hem niet uitstaan.
zo zonde van wales. die jongens hebben zich ten opzichte van portugal echt bewezen dit ek.
veel sterkte en beterschap!
wat een saaie wedstrijd 😴
tip voor volgend jaar 30 keer het zelfde refrein zingen bewegen als een gek die mega jeuk heeft.
gooooo douwe!!!!
topper!!!!
toppers!!!!!!
respect voor jou jongen de tijd die gaf aan de kinderen top!
leukkkkk!!! ik zie mijn zoon ook op de foto 👍
penalty feyenoord doet ie het of doet het niet 😓
klasse wat jullie doen! super docu 👍
barca verloren 😢😰 feyenoord houd de 3 punten in rotterdam 👐👐👐
gaat goed met het nederlands elftal pfff wat een lachtertje 😆
kippenvel net in de kuip de 14e minuut rip
rip 😢
neeeee niet weer verdomme! 😢
als ik zon bruidsmeisje had had ik haar allang de bruidsboeket in haar strot geduwd
deze reactie bij sommige mensen die het erg hoog hebben zitten
gaap 😴 gaan jullie nog voetballen?
eindelijk een overwinning feyenoord
niet te geloven! ongelooflijk
tja het is nu alleen maar hopen al is het vergaan die hoop
al een aantal weken rouw dit is niet te vatten
ik snap het echt niet meer! janken als je ook naar de wedstrijden kijkt
vertrouwen word minder en minder wat een drama
match day! bezorg me vandaag geen koppijn aub come on feyenoord!
achja vreemd zijn moet kunnen of ik kijk scheel 😜
oooww omdat ik op die andere nieuwe tweets zag vandaar
welk account gebruik jij nou?
laat je niet gek maken.. onthou dat het hersenloze idioten zijn.
fijne dag verder!
dus gewoon lekker blijven blauwe bekken...
geloof me dat als wij uitstappen nog steeds uit staan we hebben erop gelet ze gaan niet eens aan
elke ochtend en dat duurt langer als een kwartier voordat het opgewarmd is ? tip gelijk aanzetten meschien 😏
smorgens lijkt het mij een kleine moeite om de kachels aan te doen in de metro 😨
ik dacht ook al wat zegt hij nou? dat noemen ik nou lullen zonder verstand.
ja ik zag het tof van je ! 👍
laat je niet gek maken gozer!
match day! koppen omhoog en herpakken gaan staan als een team!
hahahaha daar zat ik dus ook naar te kijken
ik heb dat kleine beetje hoop toch tevoorschijn gehaald lets do this come on feyenoord!!!!
laten we het hopen en positief starten 👍
laten we het hopen.
ja dat is waar. maar ik probeer toch een beetje positief te blijven dat beetje hoop dat het goed komt een spankeltje 😉
ik ook maar het moet nu toch weleens duidelijk zijn dat het anders moet afgelopen 5 wedstrijden de zelfde fouten
match day! en nu eens voetballen nu eens doorzetten come on feyenoord !
de man die als laatste praat heeft het mooi verwoord .
bedankt voor de reactie hoop dat er een oplossing is.
laat je niet gek maken gozer! ✌
het is het een schande een lachertje
raak je toch gefrustreerd van 😤
zet nu een druk verdomme maak het nu eens goed af!
en nu jullie kapot gaan schamen feyenoord met jullie koppen in het zand
😂😂😂😂😂 ja ik heb al vrij genomen
zo ook het doel is gevonden knap hoor!
mentaliteit problemen en paniek voetbal is het ..iets afmaken kunnen ze ook niet
wat een drama weer 😢
maak nu eens iets goed af man!
je ziet het gebeuren hoe makkelijk wake up feyenoord
valt niet op dat erbij fox sport voorkeuren zijn voor clubs 😯
het is een schande! drama van de eerste orde..
wees idd blij! ik had de neiging om door die tv heen te gaan en effe te vloeken 😉
schaam jullie feyenoord echt! dag 2e plek
krijg je toch de schijt van daar gaat je 2e plek man man man
21 feyenoord trots! maar pfff wat een zenuwen man man man man!
ja dat hoop ik ook.en dat ze eindelijk is wat doorzetten dit is zo onnodig wat ze doen
het is echt om te janken! met lood in hun schoenen spelen ze.
wtf gebeurt er? wat een drama!!!!
komop joh feyenoord wake up! slappe bak nu gas geven en gaan!!
het geluid is hier ook slecht! lijkt idd of hij aan de telefoon zit
omg omg!!!! just omg!!! 😍😍
ja komt vast goed! goed voorbereiden en effe checken hoe en wat
er zijn idd nummers dan denk wauw! maar ook dat ik denk oef hier wordt ik depressief van!
knop toch maar door gehakt?
jeetje dat is idd raar! niet eens zo bekeken bizar!
jaaa heel tof zou het zijn! hopen dat het doorzet
wij nlse fans hopen al jaren op een album signing bij helpen jullie aub mee
ja druk met werk en zoon maar verder gaat het lekker! rustig aan! met jou?
jij heb het maar druk zie ik zo!
hartslag 180 strijden feyenoord!! 💪
staan ze te maffen daar langs de lijn?
eindelijk opgesteld!! 💪