is pech, maar de enige echte backup die we hadden was st juste. tapia is al een noodverband en van beek b…
balen , maar respect voor deze keuze!
sinds blessure bale vorig seizoen heeft real bijna niet meer anders gespeeld toch?
ja ik doe morgen wel ff
wat een kneus/baas
redelijk grappig!
hahahaha, drie handen in zijn gezicht, maar toch de selfiestick s?
haha kap ff man, je hebt al iemand een zetje meegegeven. is dat niet genoeg???
twee hele lichte penaltys en de eigen goal van ramos is ook hinderlijk buitenspel van lewa. dat ze f…
hahahahah
haha kalere
hahah, aardig in de bullseye?
haha echt sad bezig rockets
het heeft nog achterlijk lang geduurd voordat iemand bedacht om misschien eens die smerige onderkant te vervangen.…
hoezo staat nba2k17 niet in de webshop? is al sinds vrijdag uit...
hahaha nog slechter dan hiervoor?
hahahaha hij lijkt wel?
echt benieuwd
hahaha hoe kan je idd zoiets zetten
gruwelijk!
de winnende trainer heeft altijd gelijk ook al is het een kk nerd /
ja eens, of dus een echte laatste kansloze wanhoopspoging van de secularisten. gelukkig geen bloedbad, dat is de enige troost
puur natuur is wat leuker ja, eens!
ja ajax kampioen
hahaha, genieten
nice broer s
dit soort outofthebox receptjes zijn echt geweldig. hier gaan we zeker een zondag voor uittrekken!
vind hem oprecht prachtig.
hahah, in ieder geval geen verschroeide wenkbrauwen meer inderdaad.
eindelijk geen kkdebiel als coach... zeer hoopgevend
staat op, ty broertje
gruwelijk. helemaaaaal terug
is er een storing te zaandam?1504nw
nee maar het lijkt mij kapitaalvernietiging als twee van deze vier amper speelt... en daar doen we al teveel aan vind ik.
bleef bij een boete en een wedstrijd zonder publiek
ben het niet met je oneens, maar zie ajax...
vink to the rescue in de slotfase. voordeel van een grote club, ik ken het
dat we niet één nummer 6 op hamer na in de selectie hebben is wel erg triest.
wel opvallend dat hij miljoenenaankoop danilo er dan als eerste heeft uitgegooid.
daarom noem ik perez ook. de hoofdreden dat real al zo lang onder doet voor barca.
geef hem eerst eens de kans om met transfers de selectie naar zijn hand te zetten. rafa/perez heeft een zooitje samengesteld
dit had gio van te voren kunnen zien aankomen
waarom wordt sven wel afgestraft voor zwakke optredens, maar janarie nooit? en straks boos zijn als sven niet verlengt
dat kan nog wel eens uitgebreid worden met een wedstrijdje of twee.....
ja komt zwaar tekort en we hebben teveel middenvelders
kan ik ergens meer vinden over omleiding wibautstraat te zaandam? voor hoelang dit bijvoorbeeld geldt..
weet iemand welke geitenkaas gebruikt?
voetbalt zó makkelijk. heerlijk. eindelijk eens geen speler op tien die alleen maar meters maakt en de balans bewaakt
grootste zorg kuyt. heeft toch nog werkelijk niets betekent voor dit team?
tijd voor een spelregel hiertegen. keeper de bal geraakt? pas na balverlies of bal op helft tegenstandr mag hij hem weer raken..
en verkopen? we hebben een achterlijk grote dure oude selectie voor een club die geen europees voetbal speelt
iemand die talent van het jaar is geworden in de jl mag op zijn minst serieus genomen worden. verlengen en verhuren
haha gênant hoe wij met talenten omgaan. martin gaat deze club failliet achter laten
van geel is gek geworden, compleet het spoor kwijt
eindigt straks wel in een boetius scenario met kongolo en van beek en dat voor spelers zonder enige restwaarde...
ik zit in het buitenland dus bel liever niet, ik zag op het ns forum dat het via twitter of email ook kon.. maar niet dus?
hoi, ik zou graag mijn abonnement willen opzeggen. welke gegevens hebben jullie hiervoor nodig?
twee miljoen voor zon overschatte spits..... van geel is echt de weg kwijt jongens
zou idd aardig van de pot gerukt zijn als we kramer halen zonder te vrede eigenlijk ook kazim weg te doen..
neem aan dat feyenoord eerst een spits weg doet? enige beweging rond te vrede en/of kazim?
straks dus een gemiddelde voorhoede van 30 jaar... diep en dieptriest. van geel maakt deze club kapot.
boetius ook ziek?
te oud, te matig, de zoveelste in het rijtje v/d heijden, botteghin, wilkshire, kazim, etc. van geel haalt de zomer niet.
dat wordt een paniek aankoop... al dan niet terecht
achahbar gaat nu toch in geen honderd jaar verlengen?
beter dan immers en te vrede bij wie alles weer eens mislukt.
moet ik voor het gebruik van de ns stopbus gewoon in en uitchecken op het vertrek en aankomststation?
van geel heeft dus met andere woorden wéér eens geen schaduwlijst?
waarom lukt het estoril wel? zij combineren wel uitstekend op dit veld. zwak excuus.
wat bakken de knicks er weer weinig van. nooit gedacht dat ik tyson chandler a.k.a zou missen.
hoeveel van de tegengoals van feyenoord waren dit jaar uit stilstaande fases? gevoelsmatig lijkt het 300%.
volgens mij kan je al een streep zetten door de eerste seizoenshelft met deze gammele achterhoede en waardeloze spits
slecht. je weet al een jaar dat pelle en co. vertrekken. dan mag je nooit en nimmer met kazim, boulah en wilkshire aanzetten.
is inmiddels gelukt
..of vakkenoverzicht. nog een keer inschrijven voor het vak lukt niet, met de melding dat ik al ben ingeschreven. wat te doen?
hoi, ik vunetgot600 heb me ingeschreven voor een vak tijdens de storing. ik zie er echter niets van terug op bb, mijn rooster ...
ik begin de hoop wel een beetje te verliezen nu. voor de derde leverdag op rij. hebben jullie meer info dan chauffeur onderweg?
is hij vannacht wel door de sortering gekomen? x
3smit0098219, gaat hem niet worden of wel?
atletico moet inderdaad hopen dat real wint bij valladolid en celta. dan lijkt een salonremise in de maak op de slotdag.
het pijnlijke is dat hij het wel ziet, maar niet in staat is om een simpele pass over vijf meter te geven.....
erwin slaapt nu, lullig van je..
geef hem een krijtje en een schoolbord en geniet.
laat hij eerst eens leren uitkomen en voetballen... vandaag heeft hij niets oranjewaardig laten zien. zet je psvbril eens af.
omdat hij telkens fout stond en dingen moest repareren. dat ging hem redelijk af ja.
vind het ook onzinnig. de discussie is vaak dat je bij corners helemaal niet op de bal moet letten maar op je tegenstander....
heeft zijn club smartno naar het kampioenschap van de sloveense tweede divisie geleid.
my bad. ik dacht dat je meende dat t lucky was, omdat je nu de fyra kon gebruiken en dat sneller is. maar niet dus, sjurrrrrrrie.
dat is juist aantrekkelijk!
de omhaal van bressan fiorentina tegen barcelona was toch een stuk lastiger en mooier.
pfff,
dat wordt wat morgen !
pijnlijk om zon schat zo te zien...
bekijk mijn opstelling voor belgiënederland via
weten jullie misschien hoe het zit met dat az 50% van de transferrechten zou bezitten?
neeeeeeeee waarom, watvoor en waar
u was bij de hoorzitting over de hoogspanningsmasten oostzaan. u leek bezorgd. hoe staan de zaken nu?
ode aan de zwarte voetbalschoen via
namens mijn oma in oostzaan zou ik graag vragen hoever het staat met het plan uitkoop bewoners dichtbij hoogspanningsmasten
101 barz opnemen met
kon ik maar verdwalen in je decollete....
kon ik mn tanden maar in je zetten, zoals in een mcmaarssen...
je marokaanse krullen en je perzische bil, zijn de enige dingen die ik op deze moment wil...
heerlijke perzik van me.
hoer, hoer, hoer..
zal ik een gouden tand nemen?
een zwaar verneukt slaapritme p, en morgen gelukkig vrij
slaap lekker en succes met opstaan xx
het wordt tijd dat en/of eens een twitcamsessie houden.
kreeg ik maar een euro voor elke meid die met mij de liefde wilt bedrijven...
waarom tweet nooit meer
33% van de potjes zelfs $
aardig live on
ik beeeeeeeeeeeeeeeen verliefd. &lt3
zooooooooo verliefd op dat meisje schuinachter wilfred genee.
wat een triest kankernieuws weer. r.i.p.
één van de eerste dagen in mijn leven, dat ik niet trots ben te kennen. s
gaat één keer naar een verjaardag en gelijk voelt ie zich te goed voor mij w
heeft zijn békéscsaba club naar een nieuw record geleid met hun 60 winst tegen dvsc ii.
je leest nu op facebook vastwel, waar over ik dus dat gevoel had..
pffff, ik heb hier zon onheilspellend kkgevoel
ben kkbenieuwd wat danny voor heeft gehaald!
leegstaand distributiecentrum man.. brandt pas een uur of 7, wp. s
veel plezier met dat kutcadeau van je!!
was ik maar geboren in tsjaad
had ik maar een gemiddeld kankersaai burgerleventje
pfff, heeft 6 uur een iphone en hij voelt zich al beter dan mij. haat aan dat kkapplevolkje
kijkende voor de wiiiiiiiiiiiiiiiiiiiizaaahaaaaard. 8
hahahahahahaha
bekervoetbal, niet ons pakkie an.
noem mij maar voortaan gregory !!
ik ben echt toe aan vrienden met meer intellect.
je kwam er bij 50 in en was debet aan de tegengoal? o dear!
ik hoop dat 90 min gebankt heeft en niet te genieten is $
wat ben jij trieeeeeeest om dat meisje te laten zitten
ik ben echt de enige die nog regelmatig op msn zit ofniet?
lang geleden dat ik me zo nieteenzaam heb gevoeld. s
sommige mensen moeten echt even die strijdbijl begraven.
kknerd, kom eens online ofzo?
dit broodje döner is voor jou en ons,
dat altijd man &lt3
ben je doen? o
laat de mensen maar praten over
roostermakers moeten echt aan de hoogste kkboom
ik ben zooo slecht nagels vijlen w
trouwen?
haha | o dear s mij durfden ze ook gewoon tot half 6 op die kk uni te houden. ben zooooo chagrijnig s
&lt3 ben je doen? trainen s?
jij hebt geen recht van spreken, nu je twee dagen ineens actief bent he &gtp twitter is/was kinda...dood.
hahaha, nooit een gegeven ciabata in de bek kijken man w
ik gun je een stukje van mn ciabata die nu vers uit de oven komt &lt3
wp jomanda s
verveel me kapot w
dat worden weer een aantal weken jupiler league voor blom, en terecht.
eigenlijk moet je na zon beslissing van het veld afstappen. schaam je blom.
ik ben alvasst aan het sparen voor new kids nitro, wordt leuk met en
wat heb je aan? s
geen emoties meer, ik zal niet meer te huilen..t enige wat je hebt gedaan is deze lieverd vervuilen..
ben je verder doen?
mja, zet je toch aan het denken man.... als je gepasseerd wordt voor een tienervadert s
eerste zes studiepunten binnen, like a boss.
zelden zon kutwedstrijd gezien als deze.
mag ik een hulplijn gebruiken? s 5050?
wie is de chef kijken, in mn eentje. haat aan
jij kwam ineens aanzetten dat we drie keer konden wisselen man, ik had net een mooi team opgesteld dat nu weer is verneukt.
haha en een hattrickherotje. s de jong pakt ook even geel, om zijn assist ff ongedaan te maken &lt/3
haha janko nog een golaso, ik geniet s
wel handig dat de shirts van utrecht en psv niet te onderscheiden zijn, maakt het een stuk spannender.
woonde ik maar bij in de straat... chillen tot in de late uurtjes &lt3
keek ik nu maar samen darten met
genoten van zaanlandia 3. heel knap het aantal tegendoelpunten onder de 10 gehouden. chapeau
lekker zon avondje geen tuig dat ie is.
zonder robben en sneijder heb je gewoon een armoedige selectie, met kutspelers als v/d wiel. face it.
stage? s
waar ben je? s
| s kap met pesten man, ik zat in de lijn 94 van 804. rotkind.
waarom denk je dat ik amper nog ga p jullie trainingen zijn echt laag niveau man pff
geniaal gesprek met
als dit je niet opbeurt man liefs!
ben je doen mop?
bedankt voor het verslag mop $
voetbalzone.nl drukke opkomst verwacht op eerste training zaanlandia za3, na succesvolle transferzomer.
wanneer heeft ajax voor het laatste zwaar geloot hey? s ik zie een complot.
opmerkelijk nieuws fenerbahce mag niet meedoen aan de cl dit jaar.
hahahaha, uit de cl gehaald. héérlijk hey. nu nog naar de bank aysa lig.
ze wou je alleen helpen man, jij bent echt raar.
ik vind het zoooooooo triest als eieren barsten/ontploffen in je eierkoker, fucking pussys.
samen met de jel ophalen van schiphol !
ideaal weer om hard te lopen idd.
haha, ik volg je niet voor niets he $
is echt opgepakt in griekenland? | voor wat?!?!
ik reed met 92 langs vanuit andere richting, en toen keek k in je bus en keek ik net precies hoe jij je zusje op een stoel zette.
ik dacht al dat ik je zag met je zusje! instappende in de bus. p
weet iemand misschien waarom de laatste dagen niet online was¿
6.01, tijd voor een douch
zo uitzwaaien op schiphol
mis dat rotjoch al behoorlijk....
heerlijk hee, daar is de storm !
waar blijft dat onweer? heeft me zo laten stikken vandaag hey, geweldig.
zin in dinsdag... !
echt triest dat de burger king wel aanneemt, en mij niet. ik haat positieve discriminatie.
afscheidswedstrijd van veelvoudig bowlkampioen marco van vuure was indrukwekkend. mooi eerbetoon!
let niet op hij heeft weer van de buien. slaap lekker princess
het is deed ie net ook bij mij
op dit soort ochtenden weet ik echt dat ik de meest trieste studie van nederland doe. laat me gewoon met rust zeg, teeeeeeeering
weer geen cadeautje gehad van mn zoontje, ondankbaar joch
awww, is een beetje ziekjes helaas, en ik dacht dat mn laatste grap eergisteren niet zo goed viel bij je $
dan niet, varken s
kan je ook niet slapen lieverd?
de piemol van te makkelijk, i know
ik overweeg een sekscoach...
nog twee dagen en ik sta ook 21 jaar droog, geweldig. $
wat een race, en wat liet schumi weer zien gewoon de beste ooit te zijn. &lt3 &lt3 &lt3 het was de vier/vijf uur meer dan waard!
hahahaah, ik vind dat zon clichematige kutfilm. en zoooo voorspelbaar. maar stiekem vind ik het heel lief van je hoor. $
wat is goodfellas toch een geweldige film, kannnnnnnnedresj.
aanrader voor mijn followers op sbs6 goodfellas.
hahaah dit is toch wel de lievste foto van oooiiiiit!
wanneer gaan we weer eens qingobingoen?
hahaha, youre losing the control already? bedankt voor mijn ochtendhumeur nu trouwens! j/k
haha ik wou hem uit de tent lokken, want er is niemand zo loyaal als hij. hij is het al jaren aan mij &lt3
is niet echt monogaam laat het een waarschuwing zijn !
hahaha, ik denk dat een vriendinnetje heeft ofzo ze is gevallen voor zn liefdevolle facebookstatussen p
ik weet het wel zeker... hoe ken jij hem eigenlijk? $
heeeeey! ehm, ik vind dat een baard moet nemen, wat vind jij?
haha ja, was een grapje, maar hij is niet meer zo actief, daar moet na die tweet verandering in komen
echt kut dat zijn twitter verwijderd heeft
rijden ze wel gewoon naar amsterdam? ik weet dat ze niet staken, maar is wel vaker geweest dat ze niet naar 020 gingen
hahaha, ja ik wil het moeilijk doen als smoes om een beetje te laat te komen/meer uit te slapen $
jaa, lekker met die rege die bussen vanuit hoofddorp/schiphol naar zuid rijden wel toch? dan ga ik daar wel heen met de trein p
gvb is zooooooooooooo triest met dat gestaak. en dan heb ik nog verplicht college ook s
die kluun is wel een baas zeg. andere vrouwen neuken terwijl je vrouw kanker heeft, er miljoenen aan verdienen en er nog mee wegkomen
nog drie dagen college van 9 tot 5, i can do it
ben ik weeeeeer!!
nog een uur of 48 en ik ben weer thuis $
wie wilt er een sekstape maken?
voor welk programma dan? p wie weet word je wel ontdekt als de nieuwe cameron diaz
wat een triest persoon ben je ook..
haha van wattt? p
hahah die dronken tweets van vannacht, geweldig. $
mja, maar ik dacht bb, schat. maar ik ga ook de stad in wou ik nu zeggen no homo
waar is
naar dugun van mii brotheeeeer d en vannacht om 430 alweer op weg naar mstricht, en daar pas 11 uur zijn xd
kutenquetes afnemen vandaag, hoe ik aan 25 geënquêteerden ga komen is echt een goede vraag.
hoe lul je een chick in bed? &lt3
aaargh jammer! jea, ik heb mn laptop mee, maar we hebben amper tijd &gt.&lt
ik voel me alleen goed als ik in mezelf snij...
reportage gaat over seksverslaafde vrouwen........ b o r i n g g g g g.
ik ben 12 dagen naar limburg....... en ik kan nu al janken. tot volgende week vrijdag &lt3
wie zal ik vanavond eens ten huwelijk vragen?
hahaahha &lt3
ik ken de frustraties man s tijd dat we weer eens op befjacht gaan. old school.
haahahaaha, wp
k denk ook wel dat het goed zal komen, het is gewoon weer zon vriendje dat er tussendoor komt, maar het zal ook anders zijn.
haha op die foto was ie wel bewust zeg maar, we maakt allebei een foto met ketting en al... maar het is niet gay toch of?
wie weet een smoes om niet met uit te gaan morgen?
nee oke, maar als je teveel drinkt is er ook weinig lekker en emotioneel meer aan toch? p.s ik zal er binnenkort weer een maken$
hahah ja eigenlijk wel, jij hebt geen drank nodig om leuk te zijn, vind ik! maarja..
jijj bekeert me in die kast waarschijnlijk weer tot de heteros, dus ik denk niet dat het gaat werken $
wie heeft zin om samen met mij uit de kast te komen?
ik wil zo graag een turkse bruiloft hey
hoe kan janice dickinson nog zo arrogant zijn? xd nsfw!!
pfffffffffff, wat een saaie teringdag, ik ben echt klaar met mijn leven, wie heeft een stuk of 30 aspirientejs?
2x7 4 10, 5x94 7 463, dus dan zou het moeten zijn 3x10 5 25 en 4x 25 6 94
25 zegt de autist in mij.
uiteraard. alleen echte hoeren moeten zich hoerig kleden.
nadia is gewoon een man, dit is valsspelen, gore varken dat ze is emidj maakt emoties los ja s
zoals altijd staan die dingen online? p deze was t.
hahahaha, mjaaa....... het was t examen vmbo biologie van vorig jaar.... die andere vragen waren minstens net zo erg |
wie weet het antwoord hierop? $
als een klasgenote naar me smst dat ze vond dat mijn presentatie goed was, wilt ze dan met me piemelen of?
spaart u ook zegeltjes...... bonuskaart of aaaairmiles 8
haha mja in turkije is elke meisje uit bijv nederland zgnaamd t mooist. niet vanwege dr haren, maar vanwege dr paspoort.
goeie keuze, al is het daar bezaaid met irritante nederlanders in augustus.
waar ga je precies heen in turkije?
kreeg ik maar een euro voor elke meid die met me wilt piemelen.......
its showtime?
ik zal mijn secretaresse er morgenochtend gelijk opzetten!
ohja s hmm dan moet ik overleggen met de jel man, we kijken altijd samen $
dankje man, ik ga hem kijken voor je. &lt3
nee | , ik wilde em wel altijd al een keertje zien, maar hij zal wel op sbs komen ofzo... dan heb ik al geen zin meer hey
nope..
sowieso, en veelvuldig de kakker r
over een week zit ik gewoon twee weken in limburg
had ik maar verkering met serena williams...
je marokkaanse krullen en je ronde bil, zijn de twee enige dingen die ik op dit moment wil.
ik mis de woedeaanvallen van
2210, tijd voor pizza, dat zouden meer mensen moeten doen...
even hardlopen...
ik zei toch dat het geen spannende wedstrijd zou worden waarin ajax gewoon simpel zou winnen.
zo, even tien euro op een rode kaart voor douglas
ik heb zooooon triest leven wéér een verslag aan het schriiiiiiiiiiijven.
nope, de aartsrivaal feyenoord haha..
ik blijf pannenkoeken ranzige dingen vinden...
omdat ajax morgen kampioen wordt, zal heel amsterdam, zaanstad enzo feesten en verdrietige mij lastig vallen met smsjes
als ik een meisje met rode vans zie wil ik altijd één ding haar keihard trouwen. &lt3
dit wordt het kutste weekend uit mn leven...
ik ben benieuwd hoe mijn pak morgen past, nog twee weken tot de bruiloft van mn broer