vanmorgen alles even juist ingesteld, zodat we er weer een half jaar tegenaan kunnen...
de dag beginnen met en eindigen met
en dat 1 dag na dit bericht...
zou wel willen, maar in jullie app opent alleen de reclame nog maar sinds vanmiddag...
wanneer gaat de klok weer een uur vooruit???
zon eerste dag na thuiskomst van vakantie...
metoo... zet er maar geen voor...
en het was toen donker. daarom nu the bomsquad hier.
maar 3 u was zelfs voor mij te vroeg... 😉
en daar werd ik best wel wakker van...
wat een geweldig mooie docu is dat...
lijkt mij een prima plan...😉
wauw... ooit zelf ook eens meegemaakt op vliehors.
hier sluit ik me bij aan,
vroeg uit de veren voor eerste wedstrijden dochters 1 en 2 voor helaas beide afgelast.
wellicht... dan kijken we dan weer ff. bedankt.
met een rompertje, bloemen en zoenen van jaloers...😉
😂 het is
heb nog geprobeerd vandaag alles linkshandig te doen, maar dat handigde niet echt....l
dan ook drie maal hoera!!!
heerlijck om jullie reis, in deze prachtige woorden, mee te kunnen beleven... 👍
wat een man wel niet bezig houdt op vakantie...😉
de gemeente wou graag hun grond weer gebruiken, maar vergeet dit daarna te maaien. verrassend wil ik da…
schoonzus staat met lekke band in tzummarum. wie helpt haar???
geniet er van...
denk je cl finale te kunnen zien op de belg, blijkt fc de kampioenen iets heel anders te zijn...😉
naam + aanvulling rijmt wel mooi... 😉
en dat levert weer bruine vingers op... 😉
hahaha... die locatie ken ik...
tjonge jonge... ben ik nu zo nuchter??? een programma van 1 uur over 2 pandas op npo 1. iets over de top, naar mijn idee...
.@veronicatv gelukkig is ook op tv...
ik vindt het leuk om te kijken, maar 2 x 1e deel van aflevering is toch wat overdreven
of zitten jullie inmiddels al aan de wijn...😉
is er al een prins carnaval gekozen in de kopgroep???😉
had je ook al een hele tijd gemist...
mooie dag om een paar boompjes te rooien...😥
heeft iets te maken met rabobankdag
mmmmm... net getankt bij in ureterp. zoek de verschillen...
bedankt. helemaal mee eens 😆..
wauw!!! dankzij sponsor mag ik zondag met kijken naar mijn favoriete clubje
laten wij deze weggestuurde vluchtelingen met open armen ontvangen...
ik twijfel nu wel wat over mijn stem, na het invullen van de test uw politieke voorkeur!…
je hebt nog even... ik heb net even
onderweg naar wageningen. dagje leren...
wat een mooie dag voor een klus!!!
veel plezier bij dat gerommel...😉
check dit eens...
hieperdepiep, hoera!!! 🎂 van harte gefeliciflapstaart...
zag ik nu ergens voorbij komen dat jij vandaag een jaartje ouder bent geworden???
toch wel de allermooiste dit jaar...
en dat gaat nog spannend worden...
en ze leefden nog lang en gelukkig...
met mannenthee???
en ook de laatste keer, zeker??? heul jammer...
weinig orde bij 😉
😂 geweldig gevonden door de fans van
daar zit je dan... met al die vleesresten van de feestdagen. kadaverlucht...😉
het gaat om de veiligheid. ik ben van mening dat iedereen het recht heeft om te kunnen zeggen ik werk veilig, of ik werk niet...
bedankt voor de tip!👍
tja... half 4 plat en half 5 jongste weer wakker en niet meer in slaap te krijgen. bijna geen drank, maar wel kater...😉
of met pen te beschrijven...😆
niet met een foto weer te geven...
lekkere oliebol van
check... waarom zou een dame minder kunnen dan een heer... mee eens.
hè bah... klinkt bekend. veel beterschap.
ik heb t aan de kerstman gegeven. aub...😉
het bewijs van mijn deelname is te bewonderen in hjoed op kort moment of fame...😉. bij ikeleane...
had zich achter een rug verstopt...
keratwandeling 2016
best wel een succes... op 1e kerstdag naar
leuk om ook dit jaar mijn neef met zn 6 dochters te zien bij op npo 1...
leuk om ook dit jaar mijn neef met zn 6 dochters te zien bij op npo 1...
ik vind de energie van veel te duur en zit eraan te denken om de oude goedkopere energie weer te gaan gebruiken... ??
leuk stuk. ondanks de tranen, hoop ik je ook in 2017 weer te zien...😉
toen nog niet...
best vervelend, zon griep epidemie. vooral als je kind niet snel genoeg van de hoogslaper naar de douche kan komen, als ze moet overgeven.😦
lang geleden dat ik zo laat naar bed ging...
terechte nominatie voor ik heb mijn stem al uitgebracht...
check... twee boterhammen en een maaltijdsalade te veel zout?
pas maar op! straks graaft deze ook kuilen in je tuin... 😉
krijg spontaan zin in een vakantie...
komt alleen langs voor een borrel...😉
tip voor mijn sintcadeau
helaas... ik zet wel een klaar.
wat een ontknoping bij !!! geweldige winnaar en prachtig programma...👍
bijzonder... een abonnementswijziging bij levert 2 identieke brieven op. krijgen we nu voor dezelfde prijs o…
bellen, natuurlijk...😉
ik heb net nog gezocht, maar kan m niet vinden... achter de wolken...
ff bijkomen van intensive day at work... o.a. met en met dank aan 👍
dan wacht ik nog een nachtje... 😉
als je nog eens met een ladder naar de wilt, is dit het moment... hij lijkt heel dichtbij te staan.
dan is er gelukkig nog
toch leuk, dat ze de voetbalwedstrijd van de plaatselijke 3e klasser uitzenden op npo1
is ook niet eerlijk... zon grote man tegen zon klein otootje 😉.
zielepieten???
en pappa 😉... gelukkig wordt er nu in de zaal gekorfbald...
tip voor en veel succes volgende week.
ook voor
goeiemoarn...
dit zou jou toch aan moeten spreken... 😉
wel heel leuk...
het is maar net wat je wilt horen/lezen 😉.
ik heb gestemd op de friese wijlanden. stem ook op jouw mooiste natuurgebied van nederland via
heerlijke stunts en prachtige beelden... sit back and relax 😉.
vooruit denken bij aanpassingen woning e.d.
dagje legoland voor de één een onvergetelijke ervaring, voor de ander slaapverwekkend...
als afsluiter te is nooit goed, behalve tevreden...😉
zolang wortelsap caroteen een enummer heeft, blijf ik daar ook bij . deskundig onderbouwt onderwijs, aub.
mee eens, maar wel via de juiste weg en op goede manier... niet alle enummers zijn bijv per definitie verkeerd
check, maar komt ook vanuit de ouders. die dienen bepaalde normen en waarden mee te geven...
check. mee eens. wel bij de bron aanpakken en voor iedereen beschikbaar... nu vooral armere gezinnen met obe..
ik wil minimars trakteren... ok, zeggen pap en mam... dat ga je ook niet met onderwijs stoppen
het zijn juist de ouders die zich daar niet aan houden. het buurmeisje trakteerde op chips....
daar begint het nu ook al, door regelgevingvanuit de school over de snacks en eten. gezonde snacks en traktatie
ff serious... wij hadden in de jaren 90 het vak verzorging op mavo. daar leerden we over voeding en koken...
verder goede voorlichting vanuit instanties en overheid en goede voeding betaalbaar maken/houden.
je zou je wel af moeten vragen wat allemaal binnen onderwijs past. voeding bij biologie op voorgezet, prima...
hé... is vandaag jarig??? gefeliciflapstaart!!! 🙌🎂🎈
dat wil ook wel, na vandaag...😥
de verrassing van die dit jaar uit de vakantietas werd getoverd... de trouwring misschien al 5 jaar goed v…
check... geen link met ene evy, dus ...
wij wonen momenteel tijdelijk naast een vliegveld, waar men tot nu vliegtuigen op laat stijgen. met de juiste wind om dit ineens te ervaren.
lang mee rondgelopen, maar nu de vraag... hoe zijn jullie op de naam ivy gekomen???
de toegepaste kunst in een huisje met 🚭sticker op de deur...
of all places... wij hebben een enkeltje billund den gereden vandaag...
de liefde voor rvs...😍
binnenkort een feestje met ???
tja... en die drie dochters dan ook nog...
ik blijf overigens nog wel bij en dus zal niet alleen zijn 😉...
helaas, volgers... en ik gaan uit elkaar. eigenlijk al vanaf november vorig jaar, maar nu ook even een tweet hierover...
succes met het uitdragen... ben benieuwd naar het resultaat..
prachtig...
😂 wij van hetzelfde... alleen dan mandjebal...
vandaag max test gedaan bij fysio. ik ben weer normaal en hoef niet weer te komen...
leuke familiedag vandaag bij vanwege 90e jaardag pake. kleine 2 uurtjes rijden waren zeker de moeite waard...
vermoeiende dagen, die zondagen met familie...😉
vroeg op om 90e verjaardag te vieren van oudste van de familie, met alle familieleden en aanhangsels 😆
gelukkig bijna thuis toen de lichtshow begon...
joh. ik zat op de fiets... natte haartjes...
het is ook nog te berijden. roemenië bedoel ik dan, hè...
of vast te pakken...😂
ach... gezellige brabander. hoort er een beetje bij, joh.
roemenië zou me niet echt trekken. wel een enorme uitdaging...
met een vleugje vis...
haha. maar deze heeft wel humor...
vervelend, als je er bijna tegenaan woont...😂
lust je ook ei met hamburger?
de kinderen kunnen wel mee, toch???😉
kom op, zeg... mooie uitdaging, toch? net fan e benauwde.
met de aanhef voor mijn tilapia filetje...
ff briefje schrijven...
eerst maar eens een hipper kapsel...
kan ik me voorstellen...
wel mooie boerendochters, trouwens...😉
gelukkig is dit de eerste nog maar...
is ook wel oud, deze...
zou er nog iets voor jou tussen zitten???
heel veel succes en plezier...
neuh... dat nog maar niet.😉
warm dagje morgen voor een fietstochtje... jij fiets met bauke, toch?
ach ja... jij zit toch al in die flow...😉
check... volgende week familiedag. code geel voor vermoeidheid, maar het zou mee kunnen vallen.😉
de erin geschoten ervaring, denk ik dan...
ben je er doorheen gegaan of is het erin geschoten??? of ging het bij jou anders...
hoe moet ik dit nu rijmen in mijn tl???
je schenkt iets in, zet wat knabbel neer, gaat zitten met de voetjes op de tafel en zet de tv aan... geniet ervan... 😉
gatverpiellekes... noor zit uur vast in zelden geleegd toilet
het zou toch wel schrikken zijn als net zon noodlanding zou maken op schiphol als op het rek...
pfoe... wat spannend...
yes!!! een stralende dag voorspelt voor
mooie zonsopkomst door de mist bij
dan ben je vast blij dat het geen 30 graden is... 😉
in je huidige huis nog?
eerst maar eens een beetje zomer, dacht ik...
afsluiting van een mooie dag almere...
je moet het haar wegdenken... herman den blijker.
serious business, dat zeilen...😆
morgen zal de winter als sneeuw voor de zon verdwijnen...
van harte gefeliciteerd...
en droog gebleven?
heerlijck weekendje gezeild... o.a. met
lekker weg...
misschien is het dan tijd om de mezenbol op te ruimen...😉
misschien beter om goed gedrag te belonen i.p.v. kale kip niet plukken...
op welk merk en type kan ik me verheugen om over een dikke maand te zien????
het rijk alleen... met de kids 😉. veel plezier en
heeft een mooi vooruitzicht voor het nederlandse wielrennen...
veel plezier weer met jezelf... zonder plagiplaatje...
met een schitterende bijdrage vanaf minuut 56. prachtige beelden... aanrader...
ja. pittig exemplaartje...
goh... wat glimmen die dakpannen toch op de radar....
natuurkennerts... is dit bijzonder? een violetkleurige pissebed? gevonden naast lavendel...
goeiemoarn... waaaaarm, no???
dat wordt een zware laatste week voor sky...
wat is toch een ongelooflijk sympathieke kerel. fiets mag terug naar vlaanderen... 👍👍👍
kanibaal straatveger tappert kuikenneuker doekjevouwer...
de zomer is aanstaande
nog effe wachten... ze zijn nog niet helemaal volgroeid...
ongelooflijk!!! ik zeg tijdsverschillen onderaan de hanteren...
alles voor de kijkers en €€€... dat maakt deze situatie toch weer pijnlijk duidelijk. check ook tweet van
onvoorstelbare beslissingen van de jury. competitievervalsing...
😂 message to myself... 👍 er zijn veel die het hier niet mee eens zijn. benieuwd of erop teruggekomen zal worden...
rare beslissingen... had iedere renner kunnen overkomen. dan geen compensatie oid... typisch franse slag...
check... wel heel jammer...
en op roze. opmerkelijk van jury dit had ook kunnen gebeuren. hoe dan???
jaa... gevonden. leuk onderwerp in een gesprek over ontwikkeling... rups...pop...vlinder...
haha... het is natuurlijk
mijn ultieme televisie droom... die interviewt... en dan het liefst in op
helemaal mee eens!!!
goeie keus... zal je verder de komende uren niet meer storen...
als je het niet probeert, zul je het nooit weten...
moet je effe proberen of de balletjes ook blijven drijven...😉
en maar wachten... en wachten... en wachten...
ik hoop de por en fra zondag beide verliezen...
volgens mij ben ik verhuisd naar india. donna taft volgt mij en is bijna mijn buurvrouw...😂😂😂
hé... doet de belg het weer??? 👍
heerlijk, toch? 👍
ik ga op vakantie en neem mee...😆
een alert. gelukkig zat ik al te kijken... zou de melding ook eerder kunnen komen? bijv. 10 km voor de finish?
vandaag de finishalert van aangezet om niets te missen van de finale van de etappe. met nog 2.5 km fietsen, kreeg ik 1/2
het zij ze zeer gegund
auw... dat doet pijn..
en ja hoor. de kogel is door de kerk... komt weer thuis...
in holland is men van mening dat de halve finale niet zal halen...
ik denk dat in de kwartfinales wordt uitgeschakeld. zeker niet de beste wedstrijd van de heren...
aj... dat is heel vervelend...
trap je er nu weer in???😉 effe zappen naar
heb jij daar ook wel eens last van ???
wat een ongelooflijke last lap in hamilton laat zich van een wel heel slechte kant zien... ook op het podium.
zo kan het ook...
indrukwekkend... die 2 mannen met kerstballen...
yes!!! weer een mooie bedankt 👍
1 van de leukste programmas tijdens de tour...
hoe meer aandacht, hoe groter het wordt. negatieve reclame is ook reclame. geen aandacht aan schenken. aandacht is het doel.
tja... als het gras 2 kontjes hoog is... ik kan me voorstellen dat je nu niet van de bank komt.
boefjes, zijn het...
ik kan het me helemaal voorstellen...
ik ben niet zo van de partij van de dieren, maar dit is wel een heel goed filmpje... 👍
??? heeft sommige momenten erbij??? wat voor momenten???
ook een idee...
de bollen voor de beste klimmer...😉
vandaar code geel...
wordt het wéér spannend vandaag???
prachtig, no...👍
vanwege veteranendag, zeker.
deze mannen hebben dit jaar nog weinig viorspellingen goed gehad. zal wel worden 😉.
veel plezier...👍
het zal wel niet, maar zou wel mooi zijn. vooral als je ook leest dat velen slecht voorbereid hebben gestemd...
de meeste mensen handelen wel eens uit emotie, maar hier verdiep je je toch van te voren in??? ongelooflijk... 🙈
tja... bezint eer ge begint...
nonderju... er zijn in het zuiden van nl wel heel serieuze hagelstenen naar beneden gekomen.
dit lijkt meer op een valwind, omdat de afgeknapte bomen in dezelfde richting liggen..
o jee... de regenjas maar mee...
dat moet toch ook wel lukken met zon zweedse naam, toch lars???😉
was ook wel mooi geweest als zlatan een goeie wedstrijd had gespeeld om een periode voor zweden af te sluiten...
had je dan stiekem 1 naar gestuurd...😉
en ik houden ons aanbevolen...
het was juist een hele goede discussie. jammer van dat het van de site haalt.
👍 in het wielrennen en vele andere sporten is men al verder en wordt er meer aandacht besteed aan de juiste voeding
allemaal een fijne langste dag toegewenst... 🌞
wat zingen die wehlsman schitterend en houdt even, respectvol, zijn mond...
tja... en dan eindigt engeland achter wales in de poule... auw...
rusland wil graag naar huis, denk ik...
bedankt...
spelen de russen met een rouwband???
mooi geschreven... 😉
wat zou v/d vaart vandaag gegeten hebben, ???
tja... omstandigheden, hè??? de zondag na oerock... dat lukt dan natuurlijk niet.😆
toppie!!! gefeliciteerd... en dan vanavond lekker laat naar bed
nu al zin in vanavond met
en cadeautjes en ontbijt op bed... toch ???
dan wacht ik nog even af...
wij, vaders, moeten het altijd ontgelden...
goed ingeschat...👍
yeah!!! op naar een zonnig weekend in de cabrio...😉
ooh.... daarom was scheikunde zo belangrijk.😂
hij was zo klei, dat jij m niet kon vinden 😉. en toch was de ree volwassen. kijk nog effe goed naast het bosje 8 sec links....
alleen was hij/zij niet zo groot. noem je het dan een reetje??? dat kan dan ook weer verkeerd opgevat worden...
ja... nu moet je ophouden. een ree en het is prachtig. zo goed???😆
zoek het hertje maar eens...
er zit een hertje verstopt in het filmpje. kun jij m vinden?
wat zijn de bossen bij toch mooi...
zozo straks nog een volle zaal!!!😉
en de russen liggen nu ook op de pijnbank tegen slovenië...
en hoppa... heeft zich laten inspireren en zit in de kopgroep.#tds
staat ineens weer mèt een baardje op de voorzijde van de 😉
heeft daar gisteren ook mooie woorden over getweet. mijn inziens had hij nooit gestraft mogen worden...
en voor diegene die het tegeltje eens willen gebruiken...
mijn tegeltjeswijsheid van vandaag. mede mogelijk gemaakt door
begin de dag met zin, en ga er niet meer tegenin...
zorgelijke constatering... vandenbempt lid russische delegatie werd gespot terwijl hij hitlergroet deed
niet alleen snoeks. ook heren commentatoren tijdens wielerwedstrijden van nos zijn vele malen slechter dan bij
even zappen naar één... belgië... prima commentaar. ook een aanrader voor andere sportprogrammas...
ik hoop dat de ierse fans weer even goed van zich laten horen!!!
zit nog maar net naar te kijken en bijna iedere 2e bal is voor ierland...
dacht ik later al... 😉
op zoek naar de roots van zlatan
en dat met een open onderzeeboodschappenkar...
weinig van gemerkt...