laat jij het zien dan
ik heb nog nooit iemand zien vallen over een bananenschil.
de zonnebank is elke keer weer opnieuw te warm
sommige mensen hebben echt moeite met hun voeten optillen manmanman
spijkenisse maaswijk
hallo jumbo bedankt voor jullie rotzooi kunnen jullie volgende bij houden?
wist je dat nog niet dan?
jaa maar niet als je moet werken in 20
het is kwart over 5 en nu al 24 graden pffff hou op hoor
jaaa vooral die husky die is ook niet zo zwaar
morgen bij de roparun kijken al die toppers aanmoedigen!
deze guy heeeft gewoon zijn eigen serie
vergeten die domme mensen me weer beter te melden moet ik op gesprek komen vanwege ziekte verzuim
ik wil ook een keer spookrijden.
tuuurlijk 😊
maar liefst 3 collegas gaan ons helaas verlaten nu regelen wij met zijn alle een bbq.sponsoren jullie ons? liefs filiaal512
ik heb spit
watching the 100 s2 a8 je moet wat als je in de ziektewet zit 😣
is er nou serieus iemand vuurwerk aan het afsteken hier?
wat is dirk kuyt toch een held!
ik haat alles.
ik haat draadloze muizen die dingen werken nooit.
ik ga denk ik maar buiten slapen
het is veuls te warm hier
joden lopen altijd weg 😂
viergever scoort ook eindelijk een keer
die traore wat een vent joh zelf ik kan het beter
waarom doet de kpn itv online app het niet?
omg je lijkt wel een puber
die heb ik zojuist verbrand mot dat niet in me buurt hebben
ielllllll
en 020
naar me laptop scherm
hahahaha ik heb heen idee ik kijk niet
iel dit is gewoon vies
heftig verhaal
overal in huis liggen wimpers
ik heb een speciale kast voor me lidl kleding nodig
bij de lidl zoeken ze nog iemand die voor ze gaat snapchatten op het werk wat voor jou 😂?
oke daag.
oke weet ik genoeg
er staat nog steeds upc op moet dat niet eens vernieuwd worden
facebook zegt dat de wolken weg trekken en de zon gaat schijnen geniet van de zon claudia hallo moet gewoon werken hoor.
bestaat er ook een saus met curry en mayonaise door elkaar heen ?
en waarom hebben sommige mensen dan nog een box van upc ?
hoelang zijn jullie al samen met upc?
waarom staat vi er nog niet op ?
ik denk dat mijn hond de meest gefotografeerd hond op de wereld is
wat moet dat voorstellen
wat ben ik tog schattttig
neeeee zou niet durven 🙊
misschien ben ik er wel 1 of jij 👀
je bent nergens meer veilig.
ik doe me ogen dicht want ik word slapend rijk.
zo klaar met sommige mensen...
wat een heerlijk weertje 🌞
sla ze in elkaar joeee
feyenoord is bijna kampioen en nu gaan bijna alle supermarkten en bakkers feyenoord tompoucen waarom jullie niet?
omg de wekkker staat op half 7
ik heb nog een dvd staan die ik ooit gehuurd heb en niet terug gebracht
sorrrry oke.
hmm
jaloers?
waarom ben je teleurgesteld jongen
u? hoe oud denk je dat ik ben
of gun je het alleeen mij 😏
gedraaag je
hihi hoelang nog tot de zomert?
hahahahahahahahahahahahaha je bent een held
kom maaar brengennnn
maaaaaaar... ik ben allergies voor kokos 😟
ielllll vreeetzakie
kan je ff niet zo schelden tegen me aub
hoe is het nou met jullie?
omg wat moet ik nu gaan kijken op
iedereen gaat lekket werken ik duik me bed in 😪
verstuurd!
kunnen jullie mij vertellen wat er word bezorgd de code en de qr code werken niet.
waarom verschillen de voedingswaarde van deze 2 flessen en is de ene fles geschikt voor vegetariërs en…
jeetje wat heftig tranen rollen over mijn wangen wat een held
sst jij
ik ben een kind van de duivel.
netflix vraagt of ik nog wel aan het kijken ben
13 reasons why 99% match dus laten we dat maar is snel gaan kijken
nog 1 dagje werken daar heeerlijk lang weekend
leuk dat mensen een fles rode wijn laten vallen de vlekken krijg ik niet meer uit me handen
hij heeft niet eens een tv
dat komt omdat jij ee kluizenaar ben
weet ik. ik volg ook het nieuws
tijd om te gaan slapen, weer een drukke werkweek voor de deur. en dan zondag naaar parijs !! jeeej
celblok h terug kijken
om half 8 even een siësta houden en dan 11 uur wakker worden. kut ik ben nu klaar wakker
die beesten maken heel je tuin kapot
jij bent niet goed
ik ga het hele weeekend slapen
ik ben me tog een partij naar de tieves nog 1 dag te gaan
hoeveel voor feyenoord??
heb ik al 100 van joh hou ik lekker allemaal voor mezelf hihi.
hahaha jaa goeie. thanks
wat heb ik een hekel aan die trappen in de kuip maar we zijn er weer 😍
ik zou er een moord voor doen om vandaag in bed te kunnen blijven liggen.
kan iemand mij vertellen hoe die vrouw in de relcame van de binnen 9 min heeft gedouched en dat haar makeup nog zo goed zit?
ik heb het gewoon koud hoor
hebben jullie misschien ook een andere oplossing
wat nou weer 😂
pff zie het al weer voor me hoor zit in dan een dikke wintertrui
ohjaaaaaa goeie van jou dan zitten we lekker op het strand met een heerlijke cocktail
wat een leuk leven hebben wij
druk op werk en hoe was jou dag
hahaha jaa dat zag je tog ben er nog steeds mee bezig
hmm soms ik word een beetje oud
jaa haha
jaja toen was ik alcoholist
nee joh kut dekbed je moet gewoon katoen hebben dat is deze niet
nee bedankt
dan meld ik me daar wel voor aan haha hoef je geloof ik alleen maar dom voor te zijn
oh nice maar en utopia dan??
ikke niet... jij misschien?
oh neee we zijn opgeschort
je vergeet wat
jaa dat snap ik maar een beetje betere acteurs had niemand erg gevonden.
ik kan ook zo mee doen aan deze mensen acteren zo slecht
hebben jullie afgelopen zaterdag geen korting geven met
waarom niet nu al?
heeft niet gewerkt
ook al ging dat sowieso niet met die afstandsbediening en ook het geluid harder zachter deed die al niet
op de andere tv doet hij het wel. die andere afstandsbediening doet het ook niet
me afstandsbediening knippert wel maar werkt niet ook al de box opnieuw opgestart wat kan ik doen?
het veld is slecht de scheids is slecht en heerenveen is zo dom om spandoeken onderste boven te hangen. de stand is 12 nog 7 min te gaan ✔
ok daag
maar jullie halen tog ook de gewone cola er niet uit?
wat nou als ik wel sprite wil drinken met suiker ?
daar had je sowieso een rekenmachine voor nodig
ik ga alles kijken als ik me series afgekeken heb.
ik heb nog steeds geen 1 aflevering gezien
ik voel me een pinguïn
nou zal wel mee vallen
spierpijn
ik kan tog niet lopen
al 7 afleveringen ofzo
ik zit al zo lang serie te kijken dat me tv automatisch uit ging
en tegen mij zegje dat je het zo druk had uhu
dan vraag je maar om een filmpje of foto
jaa dan hebben ze maar een pech
nope.. moet je wel is een keer proberen is goed voot je
vakantie is om rust te nemen
je heb vakantie gehad jij had alle tijd van de wereld
sla je naar een nachtje over
schiet is op joooo
fargo is zo vaaag
het is 0147 en ik kan niet slapen
de tijd is 0728
het is vandaag 28 februari.
ik moet 15 mei en 16 mei vrij vragen
az gaat kopje onder
zelfs op whatsapp kan je nu fotos/filmpjes delen voor 24 uur te zien
loopt er gisteren een klant in de winkel zegt ze tegen de andere klant wat eten we vanavond ik stampot
heb helaas nog geen tijd gehad op het op me laptop te zetten het gaat om een galaxy 6 edge +
zeker om half 6 sochtends
dat moment dat je voor de brug staat er niet 1 niet 2 maar 3 boten door gaan 👌👌👌
ik kan geen back up maken en krijg dit te zien kunnen jullie me helpen?
ik vind het wel jammer maar het is zeker een punt bedankt voor het berichtje
spiegel gekocht bij hoe moet ik deze ophangen ?
we leven in 2017 ik kom in een supermarkt en ze hebben geen mandjes
er gaan hier wel meer dan 6 flessen per week erdoor
vervelend is het niet hoor maar gewoon raar
gisteren gekocht we zitten ondertussen al in februari
was leuk nu onderweg naar schiphol
ik heb een grote fout gemaakt door deze sokken aan te doen in de kuip koudevoeten
gedver heel me huis ruikt naar snert
omdat ik gisteren appeltaartjes ging bakken en de vormpjes miste heb ik dat even laten weten en krijg ik een pakket met diverse producten.
haha nou dat geloof ik niet dat ik uitgekeken zal raken
heb ik ook al helemaal gezien
je zou volgende week maar lekker in fuerteventura zitten
dan kan je straks wel in 1 x door kijken hihi
heb ik al gezien zit met smart te wachten op de volgende 👌
kleine appeltaartjes maken ik mis alleen de bakvormpjes
hij doet het weer bedankt
de tijd van de toon klopt niet waar kan ik dit veranderen?
wat is de beste op
wanneer komt seizoen 5 van op ?
waarom heb ik norma nog nooit gezien in
bezorgen jullie ooit wel is iets optijd?
jaaa oh wat ben jij oud zeg zie allemaal rimpels op je hoofd
nu ben je nog steeds niet stoer genoeg voor twitter
dat is alleen voor stoere mensen
mensen met een kut stem moeten echt een spraakverbod krijgen
ik snap eigelijk niet waarom heten jullie fit for free wat is er zo free aan?
ik spaar mr &amp mrs spullen
ik doneer €100, als zijn haar knipt
de kranten bezorger maakt altijd zon herrie met die krant naar binnen gooien dat ik hem soms gewoon wil uitschelden
welk rijbewijs?
gelukkig ben jij ouder als mij...
ik ook op mijn verjaardag stond die voor de deur terwijl ik van niks wist
ben jij ook eerder begonnen ?
na 4 maanden is nog niet de bedoeling tog?
zo kort nog maar
over een paar dagen heb ik al weer 5 jaar me rijbewijs
dan kan je het nu veranderen
ik kruip lekker terug mijn bed in en ga lekker the following kijken
ik krijg gewoon een melding dat jij hier irts op zet haha
bouw jij hem ff opnieuw
je zeikt over een trap😂
jij kan echt niks he 😂😂
wat ben je bruin?!! hihi altijd leuk om te horen.
hij leeft nog dus dan hebben ze niet hard genoeg getrapt
maxie tog nog naar de 2e plek
wachten duurt lang 😑
wie is dat dan
neeeee dat kan echt niet iedereen mag dood behalve de aap
wie gaat daar dood?
weet het wel zeker
dory gaat dood
welke achterlijke mug verzint het om iemand boven zijn lip te prikken
elk jaar is hetzelfde
dat is echt niet waar
heb je een zeik ochtend ofzo
ik had om half 6 al een zonnebril nodig
had je maar gewoon moeten kijken
nog even vol houden claus bijna weekend
nee ik stond voor een zebrapad
zit niet eens zo in je telefoon joh
ik kan nog iets meer dan 6 uur slapen dus dat ga ik zeker doen!!
hopen dat ik eindelijk weer eens goed ga slapen
schiet op dan
heb geduld
ik wil netflixen maar me moeder zit op de laptop. pfff
was me weer een leuke avond
we hebben een nieuwe koelkast hij is zo koud dat me vullingen er uitspringen
wat is een metro?
mischien ben je het zelf
ik kauw op de draadjes van me oordopjes vind je het gek dat ze er mee stoppen
ik weet niet wat ik gisteren allemaal heb uitgespookt maar ik denk dat me schouder gebroken is
jaa ik ben vandaag begonnen 🙈
ik zit vandaag 5 jaar op facebook
gaaaat te ver
jezus moet dit
ik zit onder een deken dan krijg ik het warm zit ik niet onder een deken heb ik het koud
nou is het zeker weer zijn schuld
jaaaaa iv niet doen
jaaa daar zorg je dan maar voor !
nee dat doe jij niet
gezellig bij lieve naomi wezen kijken wat een schatje 😍
ohneeee max heeft zichzelf er afgereden
en daar ging nummer 1
daaaar gaaaan we
mijn vader vind me nieuwe schoenen op facebook niet leuk omdat ik al te veel schoenen heb
ik zal eerlijk zijn ik heb nog nooit tapas op dus weet niet of ik dat lekker vind hahah
alcazar wokken ? zeg het maar kind
hahahahaha weet je het zeker
aanwezig 🤘
carmen is bijna jarig
nee het ging er omdat dat jij nog actief ben op twittwe
heeeee stil jij is heulll gauw
tegenwoordig zit er bijna niemand meer oo twitter
nee dat is niet waar
jij zegt ik hou het niet hahahaha
hou je het niet ? geef je het weg dan
jij ben een rijke tatta
sinds wanneer krijg jij vakantie geld
ik krijg lekker me vakantie geld morgen 🎉🎉
trotsssss op jou binnekort je verjaardagskado ook maar overslaan dan
bij elkaar
nee is niks joh gek is gewoon de waarheid
de waarheid komt altijd boven
uiteindelijk vallen alle puzzelstukjes bij elkaar!
dat jij bier gaat halen duurt lang ja
waar ben jij nog heen geweest ?
nog een uuuurtje !!!
ik en man zijn ook begonnen 💪
ik voor lange frans hahaha
dit is de eerste x dat ik kijk maar vind het wel leuk jaaa
papieren van de auto eindelijk binnen nu nog even geduld
neee welke shop ik weet al wat ik wil en waar
waar ga ik mijn volgende tatoeage laten zetten?
ik hou van me bed en me bed houd van mij ❤
kijk nou hahaha
ik was het maar 3 x moet je tegen het ad zeggen
nee want anders moest ik kassa draaien en dat was zo 😠
jaaa mischien word je dan wakker ik moest zelfs heidi bellen dat ze je moest ophale hahaha
hahahahaha dan slaat die je in elkaat
doen we niet aan jij moet morgen de diepvries cel doen omdat je je vandaag verslapen heb
en ik maar werken 😂😂
hahahaha vind je het gek hahahahah
waarom ben je zo leuk
nu zijn we samen
reken les van wauw snapte die het zelf nog wel ?
volgens mij heeft er iemand een feestje op het dorp bambambam
zin in vanaaf jeah
heerlijk dagje vrij
na een leuk weekend mogen we morgen weer gezellig om 6 uur beginnen slaaplekker
weekend!!!
onderweg naar me omi
wekker 5.30 om me vader naar zijn werk te brengen
okeeeee poppie teken nog ff
zit je al in de verf hahahaha
hahahahaha poppie hoe is je haar ?