ik vind een leuk top 25 goals | week 42
ik vind een leuk fishing vessel ijmuiden
ik vind een leuk omg! monica aan de slag bij mcdonalds! concentrate x
ik vind een leuk ik ga livestreamen! minecraft survival
ik vind een leuk ik ga livestreamen! minecraft survival
ik vind een leuk de reizigers fut draft!! + ik pack een 94 tots
ik vind een leuk skateboarden met de boys !
ik vind een leuk robben is weer een beetje boos.. matthy maakt packs open
ik vind een van leuk luchtbuks vs kokosnoot
ik vind een van leuk mijn aangepaste tactieken! | missie mark
ik vind een van leuk win razor blackwidow ultimate toetsenbord
ik vind een van leuk youtube sloopt mijn channel !
ik vind een van leuk xar &amp midusa vs. entropia &amp tyksa kingdom oorlog
ik vind een van leuk inbreken in het skatepark &amp antwerpen skate
q&ampa vragen van internet niet van kijkers! via
ik ben live op twitch samen met jeroen kom ook even gezellig mee kijken en een feestje bouwen in de chat!! zie je zo
ik heb een opgeslagen
ik vind een van leuk mijn setup t.w.v €8.000, euro!!! setup tour v3
ik vind een van leuk ik hou van jullie !
ik vind een van leuk skywars met 8 jarige
kom kijken naar stream wordt gezellig help hem naar zijn pornhub account
lekker stream aan het kijken
ik vind een van leuk van hijskraan springen
ik vind een leuk trollen en van alles!
ik vind een leuk trollen en van alles!
ik vind een van leuk dennis vs. yarasky locus match! cod black ops 3
ik vind een leuk 472 cod black ops 3
ik vind een leuk mijn intro!
ik vind een van leuk gouden cup challenge een ziek goed hondje!
ik vind een van leuk chillen met harm?! | egg wars live stream
ik vind een van leuk wat heb ik gekregen? enzoknol vlog
ik vind een van leuk mijn persoonlijke geheim
ik vind een van leuk schijtende kat! nlxdon vlog
ik vind een van leuk naakt op instagram?!
ik vind een van leuk mobiel van flat?!?
ik vind een van leuk we pakken hem! enzoknol vlog
ik vind een van leuk kaarten met kluivert // smikkelen!
ik vind een van leuk tiesgames wordt een beautykanaal.
ik vind een van leuk enzo knol vlog
ik vind een van leuk stoppen met schelden!
ik vind een van leuk thanks voor alles. update
ik vind een van leuk homo, dronken &amp drugs mijn grootste geheimen 30.000 subs
ik vind een van leuk leven in winkels opdracht
ik vind een van leuk minecraft super craft bros
ik vind een van leuk blijf bij me! enzoknol vlog
ik vind een van leuk deze fotos zijn raar! echt of nep? photoshop quiz
ik vind een van leuk bumper is bang! enzoknol vlog
skyblock preview! hoe ziet ons eiland er nu uit!?!?!? via
ik vind een van leuk minecraft minigames
ik vind een van leuk minecraft intro skeltygaming
ik vind een van leuk minecraft tnt run
skywars greenscreen!! via
update video srry voor het lang niet uploaden!! via
ik vind een van leuk jullie zijn eindbazen! 250k abonnees! ||
ik vind een van leuk ben ik een idioot....?
ik vind een van leuk call of duty zombies serie 1 iedereen is weg!!
ik vind een van leuk marc madness craze
ik vind een van leuk schilderen met lichaam! enzoknol vlog
ik vind een van leuk curry snuiven! 25.000 subs special !
ik vind een van leuk ik ga skateboarden !
ik vind een van leuk mijn eigen ring! enzoknol vlog
ik vind een van leuk symmetrische dingen!
ik heb een video toegevoegd aan een minecraft minigames
ik heb een video toegevoegd aan een minecraft skywars
ik vind een van leuk league of legends we hebben gewonnen!!!
ik heb een video toegevoegd aan een league of legends we hebben gewonnen!!!
minecraft minigames via
ik heb een video toegevoegd aan een minecraft minigames
ik vind een van leuk gta v pc verder met het verhaal!
ik vind een leuk league of legends
ik vind een van leuk baron1898 divecoaster! minecraft pretpark bouwen met tuur
ik vind een van leuk wow sorry voor de haat &amp jullie reacties!
ik vind een van leuk zingen in de q&ampa?!
ik vind een van leuk davids dromen // het einde...
ik vind een van leuk fifa fridays robben is pislink!
stream aant kijken!!! het is fcking awesome
ik vind een leuk car driving
ik vind een van leuk gios zus zoenen?! jij bepaalt wat ik doe
wil je me volgen?
ik vind een van leuk joey naakt?! jullie bepalen wat ik doe
ik vind een van leuk minecraft survival dit is apart!
ik vind een leuk strandway bremerhaven en rotterdam
ik vind een leuk time laps trimax helling
waarop?
ik vind een van leuk doritos roulette challenge!?
ik vind een van leuk fanmail auw mijn gezicht!
ik heb een opgeslagen
ik vind een van leuk big iron gastrol
ik vind een van leuk vreselijk spannende tots robben wager fifa 15
wil je me volgen??
ik vind een van leuk de 24 uur livestream gxl vlog
ik vind een van leuk ariana grande is lelijk? q&ampa
ik vind een van leuk 15 meest onmogelijke dilemmas ooit!
ik vind een van leuk meest extreme peper challenge ooit! fifa forfeit
ik vind een van leuk live server opening &amp 400 subs!
ik vind een van leuk douchebeurt opdracht
ik vind een van leuk oude videos terug kijken &amp fans in de video!
ik vind een van leuk dit is chaos!!
ik vind een van leuk minecraft survival winnen met skywars!
ik vind een van leuk live minigames ft. jeremie en jop!
ik heb een opgeslagen
ik vind een van leuk gta v pc trevor gaat verder!
ik vind een van leuk lingerie scoren volgdebaas
ik vind een van leuk hotel ravage opdracht
ik vind een van leuk zu5e weetjes ||
ik vind een van leuk fake minecraft gratis!
tv kijken
ik vind een van leuk live! minecraft minigames! doe je ook mee?
ik vind een van leuk de goedkope toty robben op fifa 15?!
ik vind een van leuk reuzenrad! pretpark bouwen met tuur
ik vind een van leuk wat gebeurd er?! minecraft sky wars
ik vind een van leuk wat doe je?! minecraft sky wars
ik vind een van leuk gouden cup challenge 11 informs!
ik vind een van leuk speciale opnamedag! ties vlog
ik vind een van leuk minecraft ddg vs stagiair ?!! hungergames
ik vind een leuk minecraft survival huisje bouwen..
ik vind een van leuk epische attractie! pretpark bouwen met tuur
ik vind een van leuk de beste optische illusies ooit!
ik vind een van leuk yes! yes! omg! fifa 15 300k packopening
ik vind een van leuk super vette explosie! enzoknol vlog
ik vind een van leuk fifa 15 | road to sjelsie | een broodje met....
thuis naar trainen
ik vind een van leuk keepers everywhere!! fifa 15 challenge
ik vind een van leuk dit is schattig! enzoknol vlog
maattthyyy rea plz terug je bent een baas sirieus plz rea terug en wil je me volgen
aan het handelen op op naar 30k
lars ik heb een vraag zou je op mijn server een keer komen kijken
ik vind een van leuk minecraft survival island dag 368 nieuwe villagers &amp
ik vind een van leuk gouden cup challenge gooien met jasjes!
wachten tot we naar een wedstrijd kunnen
op de fiets
hebben jullie voor mij kompany tots
ik vind een van leuk enzo op de radio! enzoknol vlog
ik vind een leuk msyfishteameen goed stekkie uitvissen met resultaat........ de goede
ik vind een leuk in de sneeuw 1
ik vind een leuk jimvlog ferdi komt? en lego?
ik vind een van leuk klaarmaken voor nether excursie! survival met el33ta
ik vind een leuk msyfishteameen goed stekkie uitvissen met resultaat........ de goede
ik vind een van leuk vraag je raak!
ik vind een leuk quinn in de python
ik vind een van leuk de bakker! minecraft survival aflevering 38
ik vind een van leuk gekste vlog ooit?! enzoknol vlog
ik vind een van leuk wat is dit?! enzoknol vlog
ik vind een van leuk jaar lang vloggen! enzoknol vlog
ik vind een van leuk enzo vs gwen fifa 14
ik vind een van leuk de ddg song official music video
veel plezier david!
ik vind een van leuk zombie vs creeper minecraft rap battle!
ik vind een van leuk mijn gaming setup! dodogamesnl
ik vind een van leuk als een admin like a boss parody minecraft
ik vind een van leuk de geheimste plekken ter wereld! top 10!
wil je mij volgen??
ik vind een leuk milan in het zwembad gooien!? david vlog
ik vind een leuk dit is mijn nichtje!? david vlog
ik vind een van leuk lars doet het even! epic mod survival
ik vind een van leuk minecraft survival bang voor oma!
ik vind een leuk westfield complication+burnout!
ik vind een leuk waar is mijn gras?! skyblock
ik vind een van leuk tutorial minecraft hoe installeer je shaders? 1.7.2
ik vind een van leuk naar de hel! minecraft survival aflevering 241
ik vind een van leuk de toekomst van minecraft survival... stem!
ik vind een leuk hlpredatorteam het verhaal achter hlpt
het gaat niet goed
wat te doen vandaag
volg aub hij is echt een goede gast
abboneer allemaal ff op dgb het tofste kanaal ooit hier heb je de link
ik vind een van leuk ren lars! renn!!
ik vind een van leuk minecraft survival aflevering 209 licht!
ik vind een van leuk top 10! best verkochte gameconsoles!
ik vind een van leuk minecraft survival aflevering 200 feest!
is nu live kijk nu ik wil winnen
mag ik in de kingdim
mag ik op de kingdom
mag ik op de kingdom
ik vind een van leuk goed gedaan! enzoknol vlog
ik vind een van leuk youtube battle dodogamesnl vs gamingmetreve
ik vind een leuk omegle met fans de nieuwe justin bieber!
ik vind een van leuk geheime tnt run tactiek!
ik vind een leuk gers pardoel ik neem je mee
dat is de link waar je het vandaan kan halen
live op yt bij gamingmetjorrenenyouri
al wakker niet normaal vroeg
ja gelukkig wel !!
ja man was ook leuk jammer dat we niet in de finale kwamen maar goed gespeelt.man
ik vind een leuk pizza spleef ! luister maar naar je broertje haha
i liked a video from gta v aflevering 111 bergen zijn baas!
i liked a video tnt run ik ben bij kaasbaas
i liked a video from vincent aan het werk bij ubisoft?!
i liked a video vuurwerk complicatie thunderking aflevering
bij lekker zometeen alvin en de chipmuks kijken
ik vind een van leuk minecraft survival aflevering 105 vakogames!
ik vind een van leuk vlog giveaway chipje
leker met rody gta v spelen echt chill
dat is pas echt leven
op een verjaardag lekker met de boys film kjjken
hoi ik zit ook te kijken wie denkt u dat er gaat winnen
ik hoop het wel voor je
dan koop je die p maar dat gaat nu ook lekker
heb echt fcking veel zin over 2 dagen lkker i love it
i liked a video vuurwerk compilatie 2012 / 2013 overdag in zaamslag hd
kijk echt allemaal dat filmpje
tussenuur
dees is echt flouw
op school ppf ben nu in de les bijna uit
paarden zijn saai
jij met je paarden ik snap er echt heemaal niks van
hahahah wat het is echt niet eerlijk hoor hhahaah
hiljemark heeft 2 x geel echt wat is dat man kijke schijts hij kan ect niet denken
ja ik snap het ook niet hoor hhah
echt hel triest
hiljemark hoort er gwn uit te zijn
op school van 1 tot9 hhmmpff
echt iedereen volgt mij maar weet niet wie het zijn rt als je dat ook hebt
gefeliciteerd noch
i liked a video new boys humor op zijn kop
en niet door vertellen he ssstt
het doed er niet toe hahah
ja maar ben bijna klaar hahah
moet ik gwn strafwerk schrijven hoor rot mevrouw nederlands
aan het skype
in bed zo pitten ff de nederlaag verwerken van vandaag 92 verloren van hkc
en daarna voetbal kijken ajax celtic
mensen die mij volgen volg doe echt ze zijn geeniaal
my edited video via
hoeveel geld heeft dat gekost ??
de prijsvraag van deze week via
het antwoord op de vorige vraag via
welk liedje is dit via
ga nu kijken doe echt en abboneren en dtuur een like en veel kijk plezier
morgen 1 tot vijf lekker
woowh pelle in 30 sec 2 doelpunten helemaal te gek
straks kijken
nou dat is beter hahah wat doe jij havo????
precies ik weer
lekker voor brabant die al lekker naar school lekker voor ze
en hoe was je schooldag nichtje
zo komt jorren naar mij toe om half elf
nu al wakker wordt stront ziek van die kut muggen
mooie voorzet vilhena maar schaken buitenspel
ik geef 31
janmaat gebleseerd aan bovenbeen jammer
feyenoord is begonnen lets go
ik ook hoor hahah
terug van nachtvisssen
zometeen naar de kapper toe
waar gaan jullie zwemmen
ik ga echt missen
hoelaat bij het tunneltje ik rij met jullie mee
vakantie en zo naar het eindfeest
jij allemaal over ajax kijk naartoe feyenoord !!! hahahahahhhahahah moest ik even
jarig 12 geworden jeey
net terug van schoolkorfbal we staan in de finale tegen de revoboth???
we zitten bij elkaar in het team toch
naar de wedstrijd zomiss kampioen
morgen wedstrijd in almkerk tegen ackc kampioenwedstrijd
gedaan
tv kijken
levi waar hou jij van muziek
levi waar hou jij van nuziek
dortmund vs real kijken
wordt spannend
en ben er weer
wat zullen we drinken liedje is echt lol
muziek aan het luisteren
achter laptop
malaga vs borussia dortmund kijken
zo weer naar school pppffffff
terug van schoolvoetbal training
zal wel leuk worden hoop ik
maar ben weer veder lvl
jemig nog een xp en ik ben veder mhhfff
oke ik heb er nu wel schijd aan dit weer ik verlang naar de zomer
speel bijna diviesie 7 en daarna promotie
nu weer een andere wedstrijd met man united
iik vind het niet echt koud hoor
32 gewonen jongen bam helemaal dood jongen hahahahah
rust 11 ik moet echt tegen iemand die echt slecht is
en vormer
en met koeman.
bij feyenoord training geweest was echt gaaf
bijna naar ffeyenoord training
zometeen naar feyenoord training !!!!
terug van mac was weer lekker
136 gewonnen eindelijk weer eens altijd verloren en nu gewonnen
lekker appelflap mmmh
thuis van loten verkopen was echt facking koud brrr
gegeten
voetbal kijken
zo voetbal kijken
oohh heb al 4003
ik wil dat er een pretpark in hvd komt
man united kijken
morgen naaf het gilde en hoef ik niet naar school bam!!
zo lekker 3pnten erbij lekker hoor yeah
nec zijn boeren boeren
mulder doet het goed op zen verjaardag
hahaha mathijsen schot
oei pelle bijna kruising
jeanpaul boetius
zometeen feyenoord nec kijken