wij zijn erbij marco... weliswaar geboekt voor robbie en dan ben jij er ook! super leuk!!
helaas is de vergeten onze container t3 leven.. komen jullie nog een keer terug??
nice... tijd om nieuwe memories te maken
vliegt hier steeds een helikopter over.. iemand enig idee waarom of wat er aan de hand is?
wat waren ze goed!!!
betekend dit het einde van mattie blaast radioduo met wietze op!
3syrxv5602096 dat is hem.. nu staat er dat de eerste bezorgpoging niet geslaagd is.. ben benieuwd waarom niet???
pakketje zou tussen 11.30 en 13.30 bezorgd worden. mededeling van vertraging... hoe lang duurt die vertraging
site geeft aan dat het niet gecontroleerd kan worden. stuur een dm met mijn gegevens
dank je! het is gelukt hoor! moet ik me nu nog aanmelden voor kpn compleet of kan dat via deze weg?
dank je. dan wacht ik nog geduldig.
vandaag stap ik over naar jullie. sms gehad met een tijdstip, moet ik wachten met sim wisselen tot ik geen netwerk meer heb?
goed bezig keeper! gemiste penalty!
ik heb na 20min in de wacht de verbinding verbroken! ben benieuwd naar de status van mijn klacht! wil je mn gegevens in een dm?
jongeman is al 16min iets voor me aan het nakijken en ik hoor steeds hetzelfde liedje... steeds meer irritaties!
wachten duurt lang....
mijn papiercontainer is niet geleegd gister. wat kunnen jullie hieraan doen???
deksel zit netjes dicht.... dozen er naast staan er ook nog😧
papiercontainer niet geleegd... vreemd...
daar heb ik al gekeken.. en als ik goed heb gekeken staat ie er niet tussen😢
bijna is ie op.. de frosted plum handcreme... en nergens meer te koop? hebben jullie ergens nog een verborgen voorraad
het blijft vreemd! we hebben alles gezamenlijk! bij een zorgverzekering heb je ook samen een polis daar is ook 1 aanpassing voldoende
bij de andere bank waar wij een rekening hebben is 1 wijziging voldoende! dit is bij meerdere instanties! alleen bij jullie niet
nou voor een hypotheek vind ik dat een zeer vreemde constructie! en overbodig dat je beide mijn ing moet hebben voor de aanpassing.
is dat zo? vreemde beredenering hoor. door deze vreemde constructie moet mijn partner vrij nemen van zn werk, wie betaald dat?
een gezamenlijke rekening en een hypotheek op 2 namen en dan moet een adreswijziging gewoon door beide apart gedaan worden...
ik heb een dm gestuurd
deze informatie vind ik in de mijn nuon app. vind het echt bizar veel!
2 weken de sleutel van je nieuwe huis. nu al €108 aan stroom en €338 aan gas verbruikt. en we klussen alleen maar. hoe kan dat
sommige dingen zijn voorspelbaar. kies voor jezelf, voor je toekomst! het word alleen maar mooier!
hahaha die krijgen toch nooit genoeg😆 vinden zij zelf
en ook een cadeautje voor ot en sien of alleen voor de baasjes😆
vind je?? ik hou der van😄😆😉
je noorse pannenkoek.? ken ik niet😁
valt me de laatste tijd meer op! is bij ah ook... veel verschil in assortiment.. hoe waren de pannenkoeken?😊
ooooh serieus! dus dan sla je een voorraadje in..?
heb je ook vis geschept.??😆
hahahhaha en jij ziet mij nu zeker helemaal met mijn hoofd mee bewegen😂 ennnnnn.... hallo miro 😍
wat zullen die mensen zich schamen als ze dit terug zien. beetje ondankbaar..
nog niet helemaal de oude na gister🐈
jaaa dat is wel een idee... straks vind ik het echt niet lekker.... 😆
ooooh nu ben ik wel heel erg benieuwd.. morgen proberen, is toch 0.0😆
hij is wel lekker dus? 0.0% is dus helemaal weg te drinken als ranja😆
welke is dat??? ik denk dat ik het nog niet aan kan zonder de zon 😂
hahha nou serieus... als ik hem heb hè en iemand durft er aan te komen........ 😡
kijk die mokken😍
super! dank je! jij ook een fijne zondag!
wat wil je precies hebben? abbo nr? alle knoppen haperen, heb al nieuwe batterijen geprobeerd, geen succes! 😯
onze afstandsbediening weigert te doen wat wij willen. hoe lossen we dit op?😁
ik kan het proberen. maar denk dat ik uiteindelijk moet lopen met tutje😂
ooooh geniaal.... zie je me al lopen?😀
perfecte koffer voor mij😍
nou lekker, app speelt door en zegt dat ik vragen niet beantwoord terwijl ik er maar 1 fout had van die ronde.
goedemorgen! er moet gewerkt worden vandaag!!!
ik kijk ook naar het darten...
hmmm, oké. dan wacht ik nog even met overzetten! misschien komt er nog een toestel uit wat ik graag zou willen..
als ik overstap naar sim only... gaat dat dan ook gelijk in?
hij is ook echt super lief! maar als ie zn speelmoment heeft is het raak😆
inmiddels terroriseert meneer het huis😂
wij hebben een ps4 pakket gezien waar electronica deal bij staat... met spel en extra controller. heeft die actie een einddatum?
tot wanneer zijn de electronica deals?
nooooit meer met naar het politiebureau. 😂
wooooow.... wat is die andy fortham groot😱 het is wel een redelijke zware pot dit...
dat zou verjaardagskaart moeten zijn. maarhelaas niets ontvangen! ik heb de sticker verwijderd en iom klantenservice erop gezet
het poststuk bekijken lukt niet! en ik heb op die datum geen post gehad! dus dat word lastig. hoe nu verder?
u01.151029.002024 is de betaalcode. heb je nog meer gegevens nodig?
heel vreemd ik moet portokosten voor iets betalen terwijl ik geen envelope heb gehad die onvoldoende gefrankeerd is.
je komt zo ook overal tegen 😂
ik ken zeker iemand die daar nu zit ja....
heb jij niet stiekem een kort lijntje daar?
nou inderdaad. en ik moet ze terug bellen want ze maken er een zooi van
word je na 10 min eindelijk geholpen... vervolgens weer in de wacht gezet en word de verbinding gewoon verbroken!
hahaha... ik moet meteen weer aan dat ene filmpje denken😀
de maand waarin de jongste telg van de 3 hs jarig is 😂🎂
nou die moeten we goed in de gaten houden😆
wat een leuke mensen! denk dat we die wel vaker gaan zien nu😂
nee was bij papa en mama! maar heb het opgenomen!
vreemd want de laatste bus vanuit arnhem reedt altijd om 00.00u... en dat was lijn 36
jahaaaaaaaa! de vakantiemodus is bijna aan.....
ja je snapt niet waarom ze dat doen hè! kun je beter in de file staan bij het pontje 😂
jeetje zeg! ik zou bijna de weg niet meer op durven! het is zo bizar hoeveel ongelukken er gebeuren de laatste tijd...
nee dat meen je niet! wat nou dan?
niet weer 1 toch?
hij mag niet ontbreken... de sailfie...
hihi je hebt een punt.....
hoezo scheelt niet veel
hahaha ik woon er niet he
helaas wel ja! anderhalf uur voordat ik op het bootje zat😳
gelukkig is het uitzicht niet vervelend...
jemig je zou er bijna depri van worden.... halloooooo regen, nu is het genoeg, ga maar weer weg....
hans kraaij jr heeft een beetje moeite met de naam van navarone foor...
teveel water berekend...................... 😂
bedankt voor de reactie! pakketje is bezorgd! fijne avond!
heeft ruime bezorgtijden, tussen 8.30 en 21.30....
laat deze dag maar snel voorbij gaan.
zo fijn, op je vrije dag wassen en deze ook nog eens in de zon op hangen buiten!
wat een vreselijk ondankbaar wijf zeg!
goed bezig met💪
dat wil ik wel doen, volg jullie maar het lukt niet!
zelfs de afzender heeft een betere service! volgens jullie ks medewerker moest ik tot volgende week maandag wachten op het pakketje
normaal nooit geen problemen, maar dit is echt een drama! en service bij de postnl, dat kennen ze daar niet! wat een drama
eindelijk is je terecht! 3 huizen verder! zonder briefje waar het afgeleverd is en de verkeerde info op de app!
nee ook niets bij de buren
hoi, wie weet. 3sbold6913179. er is ook geen papiertje achter gelaten waar het dan wel bezorgd is.
op de app is mn pakket afgeleverd, waar dan? klantenservice zegt dat ik moet afwachten tot volgende week maandag! slechte service
hahahah kunnen we ook wel ene keer samen gaan😀
vond het super dat je er was!😚
beetje jammer dat sharon doorzon playbackt bij het
ja geen idee wanneer😕
ja want toen ben ik in mijn vakantie nog bij de audities geweest
jemig moet ik nog zo lang wachten!
waarom hoor ik nergens iets over een nieuw seizoen van je gaat me toch niet vertellen dat er geen nieuw seizoen komt?!😦
ik ga zo thuis weg.. de gang zit er niet echt in
bijna weekend!!! ik kon mijn bed niet uit komen😁
en en en en?
na 3 weken lamzakken en vakantie vieren is het vandaag toch echt weer tijd om te gaan werken! goedemorgen allemaal!
hahaha hij doet het wel maar mis hem steeds op de radio, beetje jammer weer hè, haha
hahaha dank je! heb spotify maar word zo vrolijk van dat nummer
helaas vandaag weer sexy als ik dans gemist van nielson! misschien willen jullie hem draaien
jaaa daar is ie dan😍
ze zullen inmiddels denk wel geland zijn op turkse bodem! 14 dagen zijn ze weg
hahaha ja! hebben mn schoonouders naar schiphol gebracht
mooie tijd om te gaan slapen
ligt eraan hoe laat je er bent
ik heb er zin an😇😚
jaja vandaag is het zo ver! samen met lieve naar adam en vanavond
halloooooooo trainert, denk dat het tijd is voor een wissel?!?!
zoooooo die grens is de held van de avond, nu al!
geen mail gezien
heb een dm gestuurd
wij gaan volgende week! laat je nog wel iets voor me over😆
hoe kan ik nou zien hoe laat mijn pakketje komt
hahaha, 21graden met 60% kans op zon. vind het wel een twijfel geval!
ooooh je weet het niet meer! als ik zeg maxi?
hahahah 9 van de 10x wel! ja iets langs?
dat doen we toch altijd? ik moet mijn belofte denk nakomen😅
als ik mijn pakket volg via t&ampt zie ik bij ontvanger iets geks staan, gaat het dan wel goed
zie ik net mijn pf en bedenk me dat die van bijna een jaar geleden is, vrijdag een nieuwe maken ?
om 9u beloven dat we zsm terug gebeld worden, nog niks gehoord.
fijn hoor, geen netwerk beschikbaar
ik stap bijna in auto!😊
moggel! zie ik je om 07.15?😆
aaah echt! maar hij mocht dus wel mee daar naartoe! en barry zal ook wel heel blij geweest zijn😊
wil hij niet zwemmen? ooh war tof, hoe vond ze dat?
hij zal het wel warm hebben gehad!
je leert ze kennen....
dag tot 29 augustus bij
doet peter ook soms voor mij! alleen niet als we ergens zijn ofzo! alleen even naar de auto of van auto naar huis😆
wat een ontzettend leuk heineken ding heeft dat meisje van aan!
de opname staat al klaar, hihi
geen 2e helft voor mij
ooooh ik kan morgen niet kijken
dat is niet eerlijk! gaat het echt morgen gebeuren?
dat kan ook! ben benieuwd naar de shorty
ik denk echt dat het morgen gaat gebeuren
jaaaaa gezellig met
jup! helaas geen foto kunnen scoren!
heb je sterretje van oh oh cherso ook zien lopen daar?
zeker! het weer was super, de muziek was heerlijk, wat wil je nog meer? nu op naar de bingoooooo😃
ostia, bij het schip. maar als paul elstak draait is de kans heel groot dat we gaan hakken!
jaja morgen gaan de voetjes van de vloer! gezien het aantal mensen is de kans klein! weer je al je waar de meeste tijd doorbrengt?
ja hoor, ze zijn besteld , we gaan weer naar
doet gewoon zeer aan je ogen die 2 op het podium..
misschien zien we elkaar nog, al lopen daar wel heel veel mensen! welk podium ga je?
jazeker! dus hoop dat het dan ook lekker weer is! ga jij?
komend weekend word het weer 18grdn! hopen dat dat volgende week ook zo is
ja he! ik mag hopen dat het volgende week beter is, gaan dan een weekend weg!
bah bah, ben die regen nu wel zat hoor
dit is heel beschaafd
heb er super veel zin in! eerst ff knallen💖
jeetje die johnny flikt het wel! wat een steengoed programma dat
wat afsluiten?
dat word wat zo! goedemorgen
nog totaal niet het gevoel dat het morgen echt gaat gebeuren!
he verrek, hoor ik het toch goed.... mn bedje roept me! sleep well!
misschien een keer vroeg aar bed?
heel vervelend is het😊
dit is al de 2e foto he😊
normaal wel! dit was de enige vooraf opgenomen
en hier dan ook met
thanks voor de foto het was een super avond met bij
als ie maar mooi bruin is maakt die gele zwembroek niets uit
en dan zondag lekker lampenzen
en zelfs je weekend is er geen om te relaxen....
hier in driel ruikt het nu niet zo😄
jaaaaa! volgens mij heb ik ze nog
voor mij geen ik ga volgende week met vele andere de samenloop voor hoop lopen in geldermalsen!
jaaaaa! de dvd van is binnen!! kippenvel bij het optreden van en
doe niet zo gek zeg, ben je niet gaan kijken?
bij jullie?
soms kun je beter even tot 10 tellen..
gloeiende gloeiende, nog steeds in de wacht.....
wat een service, op de site staan 0 wachtende, vervolgens word je doorverbonden en hang je al 10min in de wacht.
wachten duurt lang
mijn schatje helemaal in zn element met de nr1 van de
sorry buurtjes, maar deze moeten even hard.. have you ever been mellow.. bonsbonsbons.
kunnen er ergens de laatste 16 van vanavond vinden in een overzicht?
voorbereiden op weer een gezellige bingo morgen?!😏
vind het echt heel vreemd.. maar ben wel benieuwd wat er volgende week gebeurt
inderdaad.. en er kunnen kinderen geboren worden, maar die gaan na 3 maanden weg..
vreemd verhaal
heel apart vind ik het
ja hoor.. nieuw seizoen kleine babys, grote zorgen... zoo ontzettend mooi
vriendlief gaat los op het klassiekertje wat gedraaid word bij
dat vraag ik me ook elke week af
gewoon heel even buiten in het zonnetje
dus eigenlijk nog 0.6 pnt erbij voor mij😝
wilde ik antwoord geven, was mn tijd al voorbij.. daardoor 3 vragen niet beantwoord
natuurlijk.. maar mn laatste ronde ging klote.. app liep voor op tv 😞
ik kan mn score niet delen.. maar zit netjes tussen jullie score in, hihi
hij heeft al meerdere malen contact opgenomen en ook in de winkel krijgen we weinig duidelijkheid
lastig als ze bij de ks je geen duidelijk antwoord kunnen geven over je abbo &amp we al 14 dgn wachten op antwoord voor creditering
het gaat niet om mezelf maar om mijn vriend.. kan je me dan wel helpen?
eerst een jaar lang betalen voor een dienst waar je geen gebruik van maakt, vervolgens kan je je abbo niet wijzigen.. lang leve
jaaaa p was eerder thuis als ik😰 maar zat niet op de 🚽.. 😂
hahaha serieus? waar? gelukkig alle ramen dicht gehad vandaag!!!
heb je wel gezwaaid? ja vies he, ik moest in de auto bijna spugen 😳
ben je langs olli gekomen?
die bergsma gaat helemaal stuk zeg..
ik zit op het puntje van de bank
voor iemand die heel veel voor me betekend😚
dat deed de paraplu van ll ook😁
lekker!! ga je nog iets nuttigs doen??
wat heb je allemaal gekocht?
wat is het toch een kippenvel moment. van en
bedankt voor de mooie jaren..
heerlijk pap en mam hier!! ze hebben gezellig cai en mn vriendje siep mee!! op de bank voetbal kijken..
ik word er echt schijtziek van.. moeilijk he parkeren.. klote bouw hier
ja hoor, we zitten er klaar voor.. helaas de laatste 2 afleveringen van
ja.. loop zo naar koi
hoe laat ben je er dan?
wel op tijd he
vorige week 41min in de wacht, moet ik nu ook 41 dagen wachten tot mijn machtigingsformulier binnen komt?
ik zal zo ff kijken.. hij heeft ze nog niet gelezen.. boek van dan brown ook nog, ofzo
lees maar snel door dan.. peter heeft hier ook nog mooie
lijkt me een goed idee.. is het wat?
hebben heerlijk gegeten!! en nu lekker aan de thee😏
lekker lekker!! wij hadden tomatencremesoep met kleine stukjes kipfilet erin en stokbrood😊
jummie!! met wat erbij?
waarom!! dat is niet leuk...
ik kijk er naar uit.. zo eerst een lekkere kom soep tomatensoep eten!!!
jij niet kijken?
voorbereiden op vanavond weer 2 afleveringen van .. lovely evening... 💕
vind dit wel een mooie uitslag hoor
kijk eens aan!! kom hem dinsdag natuurlijk even bekijken😏
is het de 5s geworden?
omg!! die opening van bij super om te zien
normaal bij telfort ook.. nu even niet😕
pfff kunnen alweer onze opnames niet kijken.. lang leve interactieve tv van
na 41min in de wacht ben ik gelukkig geholpen.. misschien toch een idee dat er iets aan de lange wachttijden word gedaan
de wachttijd is tussen 4 en 8 min.. juist, al 13min in de wacht. leuker kunnen we het niet maken, wel makkelijker toch?
beetje jammer, een stukje over het meisje van de plusreclame, speelt zich af in de hoogvliet!
ik heb de note3
ik zie het al, ook samsung!!
jaaaaa en wat heeft joyce gekozen?
wat heb je gekozen??
vincent, wat doe je?!
nou daar gaan paracetamol nummer 5&amp6😟
jaa hoor.. moet op de lijst voor het woord van 2014.. allemachtigprachtig 180!!!
veel mensen zeggen dat ze je vrienden zijn. echte vrienden tel je maar op 1 hand! zijn er 24/7 en geven je advies! thanks voor vanmiddag❤️
dm is verzonden
verzendingsmail heb ik gehad! vandaar mijn vraag of ik de track &amp trace code nog krijg. t&ampt code komt dan later dus nog?
het gaat om de verlenging van mijn abonnement . ik moet na 01/01 gewoon werken, dus wellicht kan 1 van de buren het aannemen?
dank je voor de snelle reactie! mocht ik zelf niet thuis zijn, zijn er dan nog spullen nodig voor het in ontvangst nemen?
netjes een mail als je nieuwe telefoon opgestuurd is door vodafone! maar krijg ik ook een track &amp trace nummer om het te volgen?
omg! zon lange dag!!! morgen een kort dagje dan?? tot zo😉
nouuuuuu, ik wil slapen.. maar dat lukt weer eens niet.. pffff, om 6u gaat ie⏰
jaaaaaaaa dat bedoel ik... omdat jij harrie gebruikt, hahaha
nee ik kijk niet terug, alleen voor uit😝
hahahaha harrie warrie!! eigenlijk moet ie ook op fb he😉
👍.. ik kom er ook in, alleen om te kijken hoe iets staat😉
welke lach???☺️ die persoon hoef ik niet te raden😝
haha ik weet altijd wel ik welk pashokje hij zit... maar zelfs ik ga niet het pashokje in☺️
net goed!! maar ik weet wel waarom!!😉
omg!! nee!!! je bent je zeker kapot geschrokken???
wat een liefde❤️
slechts excuus!!!
waarom zijn jullie niet op de koffie gekomen????
20 en 30%!! wie was dat dan???
ook naar de bijenkorf geweest?? uggs in aanbieding!!!
wat een kei slecht geluid...
wat deed je daar???
omg!!!!! wat een loting.. ajakkes feyenoord!!
en weer in het busje naar huis...
en we kunnen slapen!! thanks mulder!!!!
hallo penaltys, ik moet morgen werken!!!
waarom tokkie???
vrolijk en vriendelijk was het
dat is niet waar
enthousiast zijn😉
weer?? pardon???
nouuuuuuuuuuuuuu ik heb op mn donder gehad... foei zeg
dan ben ik weer verwaand
ik had ook voorbij kunnen rijden hoor☺️
ooooh jawel hoor.. ik heb er enorm om gelachen😃
oke.. mijn dag begon zo goed, dat ik vanmorgen iemand heel vrolijk heb begroet vanuit de auto...☺️ ik was iets te enthousiast!!!
geen piratenfestijn dit jaar.. maar wel met mn liefje naar de bios❤️
ik hou der ook niet van!!!
is voor de spieren bij de mannen😝
t/m donderdag.. dan heb ik weekend, hahaha