wat kan je hier nu nog tegenin brengen?
hahaha echt grappig ik ga stuk jij ook
niemand komt langs vermeer
nee laten vallen
niet meer bereikbaar op app &amp snapchat
wij zitten vast
ooh gek, ik zit w3
welk vak zit je?
ze zien niet je werk alleen je resultaat
gefeliciteerd man
lijkt heeelemaal nergens oo
van fluiten in de 4e minuut naar springen in de 79e minuut dats de kwaliteit die ik gewend ben maar dan supervoordelig
1uur 1 spits
“@frl2009 de eerste europese trip van het seizoen is begonnen! ”
heerlijk clasie
3 nieuwe wapens voor volgend seizoen 💪❤️⚽️
14 &amp vitaal hou je bek 🎺🎺
dat is geen investering want hij is transfervrij toch? alleen extra salaris betaal je dan
gekste sfeer tyfes wedstrijd
“@fr12patrick neem nou een verhoek. het feit dat er niemand is die hem uit de basis kan spelen is echt om te janken.”
“@kakhiel warm is het zo warm”
“@jannoniem hierbij draag ik het iniestasyndroom in de vorm van het götzesyndroom over aan argentinië. succes ermee.”
juichen voor duitsland how about no
“@jannoniem 70 was knap geweest. 71 had fc bierbuik ook gekund. tot zondag, prutsers.”
“@kakhiel morgen bij de koffieautomaten in braziliaanse kantoren haha echt kut doei”
indeling vvac c1 1e klasse 13 de zwerver, drechtstreek, koz boys, lrc, mvv58, oranje w c2, sleeuwijk, svw, theole, unitas en vvgz.
“@thomvanloon roodharigen of ze zijn heel knap of ze zijn heel lelijk maar meestal heel lelijk”
rt mattia2000 bedankt voor de nominatie, hierbij nomineer ik donder op met die dingen alsjeblieft
toffe wedstrijd
“@thomvanloon waarom dragen de grensrechters eigenlijk geen volautomatische geweren voor het geval dat er een mexicaan de grens over gaat”
“@rikcremer oud psver zeker?”
“@bartvanmerwijk kan er niets aan doen. ik hoop gewoon dat duitslandportugal een slachtpartij wordt. sorry.
en weer kijkt met tranen in zn ogen naar 74
“@eredivisiememes rt voor minder arno vermeulen
“@xnouram 0000 😏👐” dankje x
get hyper op de wk fimpjes van
“@433nl hoe werd jij vanochtend wakker? ”
zojuist een foto geplaatst
“@eredivisiememes robben gaat hem wahed rechtse hoek geven in de rust.”
jij bent dom
456 cool haar &amp aardig 👌
oke overnieuw 11 geweldig fantastisch ongelooflijk hilarisch stom kind
“@fr12patrick zelfs bij feyenoord kuban was er meer sfeer dan in de gemiddelde champions league finale.”
gooooooooooooooooaaaaall
“@thisiszik thanks voor de follow! ” ging perongeluk haha
wie heeft mijn fiets gestolen
bailandoo
bentleys zijn sexy
dankjee
dankjee
dankje! 😊
zojuist een foto geplaatst
zojuist een foto geplaatst
“@kakhiel waarom zou je tjips ipv chips zeggen als je ook gewoon jezelf in een ravijn kunt flikkeren”
martin garrix was zoo vett
“@kfcnederland eet smakelijk!” bedankt t was heerlijk!
dit was het spel
ahahahahamsterdam
“@johnvanzweden stumpers met die zonnebrilletjes. heel duimt voor !!!”
ik heb denk ik het wereld record gapen gehaald
“@gpelle9 dagje vrij van de trainert. even mijn nederlands bijspijkeren 😜📖🔨 ”
vloeibaar
janmaaaaaat
pelle doet een immersje
terpstraaa
zojuist een foto geplaatst hellouww
gooooooaaal lexieeee
gefeliciteerd!
zojuist een foto geplaatst
zojuist een foto geplaatst
minne als jij door de helft gaat blijft er zo weinig over
zojuist een foto geplaatst
feyenoord winnaar vh weekend
leerdam kindsoldaat
mn liefste oude oma ❤️ het concertgebouw
2014
de schaal is voor ons dit jaar 💪💪💪
doei he
feyenoordsupporters leven is om jezelf te snijden
“@eredivisiememes hoe ajax of feyenoord deze wedstrijd kan winnen ”
“@eredivisiememes en nu zie je van der sar het over kanker hebben en klapt iedereen vrolijk mee... om ziek van te worden.”
“@eredivisiememes ah ajax publiek, daar ben u weer.”
heel de wedstrijd niks zeggen nu je bek opentrekken kut italiaan 🇮🇹🔫🔫
“@jobyo7 sterker door strijd”
hoeveel staat ajaxfeyenoord?
lekkereerr
wel leuke wedstrijd
quote of the day grijp je kans zou ik zeggen, ik til je wel op
rt. moe kapot gebroken
app mij t ook
364 dagen tot oudjaarsdag 😏
morgen vuurwerk halen
eindhoven de gekste spijk de gekste ottoland de gekste
“@433live goal! | roda ajax 10. dijkhuizen! ”oelala
“@faex mijn vakantie begint met feesten 🎉
nog 3 echte dagen school
stuur me allemaal een app ik ben al mn nummers kwijt //
er kunnen 2 door in n poule he
en dus
en dus?
waarom?
correctie sukkel van de dag, wie gaat er nou mét mattia naar burgerschap ik snap mezelf ookniet
“@rosssen je dochter migraine noemen en haar dan een slet noemen omdat sommige mensen de hele dag met migraine in bed liggen”
afgelopen feyenoord verslaat psv in een uitverkochte kuip 31!
omw2 hooornaar
kei veel zin in nieuwjaar!
nieuwe rooster 17 16 18 17 16
geit baart kind
ft maartjee
ik geef toe ronaldo en zlatan zijn beide goed en goed onder druk maar messi is nogsteeds categorie hoger
volgens mij hebben jullie geluk deze keer.. yeahyeah fck yeah &lt3
heeft de 2eklas na de toets nog lessen?
gefeliciteerd jullie!
leuk
komt goed hoor xox
eey ik zou je brk maar is heel snel gaan houden hahahahahhaha perry
wiskunde klaar
in annas nl sv onder t kopje pv vt dit weet je wel hoer hahahaha
doe niet kaulo stoer aub ga lekker huilen bij film enzo pussys
lekkere overwinning van c1 tegen c1 14.
onduidelijkste nask toets everrr
morgen engels en biologie /
beginnen met leren voor toetsweek leggoo
8.30 tot 1605 lekkerzeg
18 &amp 3 toetsen
sommige mensen gaan haten op mensen die denken ik ben tieneraccount
17 vandaag
schema voor toetsweek maken
over miss dean in zon pakje ziet ze dr nog best lekker uit
penoza terugkijken
als mensen haha naar me sturen weetik zeker dat ze niet lachen, hahaha dan lachen ze misschien &amp hahahahahahahahahahahahahhah is sarcastisch
“@h0idoei ze kunnen allemaal even de tyfus genieten daar bij zelden zon zooitje ongeregeld zo slecht zien voetballen.”
weer omw 2 na poepwedstrijd
wie heeft een foto van het opdrachtenblad leesverslag?
volgens mij is er ook niemand op de wereld die geen wapp heeft maar wel bbm
nog lang niet moe 😎
veeel plezier!
vakantie niggas
bijna vakantieee
schoolreisje jippie vingertjes in de lucht buschauffeur we gaan je busje slopen jahoe
reisbrochure maken &amp daarna nask leren
kan iemand mij uitleggen wanneer het genitivus of dativus is??? staat achterin je werkboek net voor al je woordjes
stijn interviewen over het lyceum hahaha
snapchat doet het niet
vergeet niet op het stopknopje te klikken hahahaha mattia
20 verloren van gjs
onterecht 20 van gjs c1 verloren
morgen duits toets en minne heeft zn nl boeken bij zich ipv duits
u beter work bitch
tinder is echt een geweldige app app
eventjes zien hoe ajax counterrles krijgt
dat worden veel slechte cijfers haha
mensen is het op grieks toets ook dat je die rijtjes op moet schrijven of alleen congrueren?
school geeft me stress
morgen lekker theater kijken. is het leuk? dat moet nog blijken
lekker groepje met expeditie dirck ,,
fifa 14 demo bedoel je zeker nee gewoon 14 op ipad hehehe
filmpje kijken
rik ging kijken en die zag niks.. hij rook alleen iets .. ooh oki
even bij onze aardsvijanden gaan koekeloeren
muziek 100% world 0%
aké bij jong oranje, echte held
ze hebben mij ook gevraagd hahaha heeeuj
meespellen in een dircklive soap
itslearning schiet jezelf
ga eentje haln ruilen we met juve shirt
shirtje gekocht?
de sweer is er nog steeds wel beter als in een winnende arena en philips stadion hij elkaar.
pijnlijk
liesveld wisselen jongen
“@jobyo7 nou de vrij en van deelen volgende week er ook niet bij, lekker met mathijssen spelen, heerlijk.”
jajoh, rood de vrij, kan dr ooknog wel bij
eredivisie en scheidsrechters is de slechtste combinatie sinds dikke meisjes in yogapants
ben je eindelijk in bali wordt je dus ziek... beterschap jessee!
“@rikkkc dit seizoen laatste ofzo” zwolle uit altijd lastig
en dan word je wakker met onder je kussen een platgedrukte spin. /
dm?
serieus?
wie zit namens mij vragen te stellen op ask aan maaike?
spullen pakken, vanmiddag vliegen. veeel plezier !
hahahaha lekker hoor
lekker weertje hoor
zwz is het nieuwe sws jaa zwz
mollema gezakt naar plek 6, ten dam nietmeer in de top 10
rt prachtigg!
home na leuk dagje utrecht
zojuist een foto geplaatst
gm, vanmiddag pizzaparty bij luuk
heel leuk middagje gehad met !
dm, ik heb mn telefoon niet /
“@minnespaans een gestreepte koe maakt nog geen zebra” die tweette ik een maand geleden?!
kom je ook buurtbarbecue ? jaa
bedankt schat np
ik zit bij gjs c1 id competitie
zin in vrijdag
22 en dan vakantiee &lt3
ik kan niet leren vandaag hoor doeeei
nu nog diehard gs en grammatica pffffff ja want je staat natuurlijk niet allemaal 9ens en het is zo spannend of je overgaat!!
rt ben je verdrietig kijk dan naar deze foto ↓ moest deze
weet ik niet, afgerond een 6, mn periode gemiddelde is een 7
toch wel een lekker gevoel dat zelfs als je een 4 haalt ik nog een voldoende voor latijn sta 😊 ⫋⫌
zo, 2toetsen gehad, nu bijna naar huis en weer lerenlerenleren /
straks engels, daarna bio.
gun mij een voldoende bio morgen
rt mooi getypt jij mag niks zeggen over typpolio
als je 1minuut later dan iemands laatstgezien een bericht stuurt en diegene daarna anderhalf niet meer online komt /
succes alle 1e en 2klassers met begin toetdweek!
6je voor engels hw cijfer
toetsweek is foking chil, 2 toetsjes daarna uit.. ja maar ik moet 2 onvoldoendes wegwerken iets minder chill
rt heeft de 1e ook toetsweek eigenlijk? jaa vanaf morgen /” partyyy loveit &lt333 sws
heeft de 1e ook toetsweek eigenlijk? jaa vanaf morgen /
leren met cassis en chocelatechip cookies 🍪
84% vd vragen goed bij proeftoets bio
weekend
wedstrijd c1
vraag me
morgen laatste uitval
gedaan heb om over te gaan en mn 2 tekorten weggewerkt heb..
zo, vanaf nu tot en met oetsweek helemaal volgeplant met schema. nu hopen dat ik me daaraan kan houden en na de toetsweek alles er aan 1/2
ik wil ook naar max
wakker, teamuitje ft d1 vandaag
een gestreepte koe maakt nog geen zebra
gefeliciteerd broertje! x thaaanks xx
engels ging goeed
ik word bang van sezen en renske, hahahahaha
nu heb je ruzie met en ik. sorrysorry hahax
grasveld, nuuu ! sorry was bij muziek /
waar zitten jullie? hahaha
het liefst eet ik je op mn ogen is al genoeg oké?!
rt fae en ik doe mee niet rijmen okee.
hoi ik ben sezen en minne en ik ruilen morgen van ogen hoi ik ben minne&amp denk dat dat pijn gaat doen
hoi ik ben en ik moet niet zeuren over flauwe woordgrappen en ze beminne zeker? hahahahaahah x
hallo ik ben en minne vind mijn woordgrappen flauw
heerlijk gebbqt
filmverslagen frans✓ grammatica h15✓ latijn les 9✓ ak poster✓ latijn les tien ✖ engels hfstuk 7 ✖ grieks voorzetsels ✖
oude ava van kerstgala ft sibel en shadee
jaaaaa, dat het een dikke party wordt !!
yeah al mn maakwerk af voor deze week
moet je frans film verslag getypt of geschreven?
ja maar ik heb vanmiddag geen tijd en morgen een beetje, dus daarom begin ik nu al
awake, nu mobiel weg en snel aan hw beginnen..
het was echt een topdag
gn morgen wekker 7u, dan hw maken &amp daarna bwp ft de echte leuke mensen
het irriteert me dat ik nooit lang boos op jou kan blijven
met dit weer een frans so leren, heeeerlijk
heeerlijk gebakkeneitje en smoothy op
eventjes rustig 5sterren ontbijtje maken enzo. leven
vandaag 46 /
morgen wekkertje uurtje of 10 denkik ?
vreetzak anna at 3ijsjes vanmiddag,, hahahahah
topweer
geeft energy
zin in rdb met iedereen !
thuis, nu even een saucijzen broodje eten
overlevende op dextro hahaha
oh wacht ik mag 2u op dikke rik gaan wachten ☃
morgen laaatste 2u uitval heeeuj
morgen avond rdb ft iedereen
250 volgers ★
was leuke wedstrijd w c1
avondeten makende
dit weer maakt me zo happy
yo ik ga voetballen offline
ik wil voetballen maaar ookweer niet /
goedemorgen , straks naar toernooi daarna kijken bij rik, mattia en max
friet met shoarma eten
goedemorgeen
al tijdje homee
bijna 100 instagram volgers
trainen met c1 was leuk
home sweet home
engels, ak, film &amp uit
ha, jaloezie op de club die 5e eindigde en een trommelband als publiek heeft, hmm, juist ja..
en over fc pelle gesproken, dat fc twente nou moet draaien op van fey in de opleiding of gekochte spelers..
en, volgens mij is het fc twente gister maar met hangen en wurgen gelukt om in de finale playoffs te komen?
achter fcpelle hahaha, grappemaker, op basis van na de winterstop, haalde twente niet eens el 12
is er toch weer eens inhuldiging op coolsingel hoeveelste is twente geworden jeroen? ohja.
ik heb toch sterk de indruk dat die van roemenie homo is,, geen idee waarom. gewoon vermoeden. haha
elk land een grote act op het podium en nederland? tja die zetten gewoon een zwart aangekleed standbeeld neer..
jezus, op wie lijkt die gast ook alweer?
commentaar van mij een robin op die wit rus van sexy benen niet verkeerd hoofd, alleen zingen kan ze niet.
heeerlijk frietjes gegeten
oke robin jij wint..
dankjee jij ook vieve ik ruik de geur van geflirt.. hah
okee
vanavond naar max logeren ft rik en mattia d
nieuwe haartjes likee
vandaag 16, dan lang weekend ♡
this deserves endless retweets. wow. ik ben tegen rt uit respect tweets, maar dit is echt wow..
morgen en morgennacht word de leven
oke ik stop met de cijfers
3 goede vriend
ooh ik snap het d
wie kan mij even dat cijfergebeuren in mn tl uitleggen?!
niet zo terug stribbelen jij, je doet t bij 500 rt oke..
tja, tot 6uur? als jij het ook doet als het mij lukt om er 500 te halen
dan gaat t niet lukken yesyesyes uhm ik bedoel, oh nu al opgeven?
fuck al 15..ik kom er wel hoor ik geef je tot half 5 anders doe ik het niet
hahaha bij 500 rts doe ik het rik d