meerkerk elektricien loopt brandwond op
goes man valt van steiger
ijhorst man overleden na ongeval met heftruck
enschede bouwvakker gewond na val
helmond man raakt bekneld en overlijdt bij bedrijfsongeval natuursteenbedrijf
oosterwolde tractorbestuurder zwaargewond bij ongeval
heino gewonde man in weiland
rotterdam man gewond bij explosie op schip
winschoten man bekneld in machine
leiden bouwvakker valt in bouwput
eastermar twee mannen gewond bij bedrijfsongeval
franeker medewerkers onwel door chemicaliën in fabriek
deventer dode bij ontploffing in garage
den bosch ammoniakfles ontploft bij bedrijf
blokker man valt van hoogte
dongen inspecteur valt van dak
ijsselstein man geraakt door kunststof buis
katwijk dode bij bouwwerkzaamheden
farmsum monteur raakt gewond bij val in lege tank
kruiningen man gewond na val
zeewolde twee gewonden bij brand in windmolen
de rijp man gewond na ontploffen accu
woerden man valt uit hoogwerker
utrecht bouwvakkers aan dood ontsnapt na val enorme hijskraan bij utrecht cs
vinkeveen bouwvakker valt van steiger
pijnacker valpartij in plantenkas
doetinchem gewond bij omvallen muur
geldrop dode bij ongeval met lift
arnhem duiker komt om tijdens werkzaamheden
amersfoort man overreden door eigen busje
veenendaal bouwvakker valt vier meter
benningbroek man breekt beide benen bij bedrijfsongeval
overberg medewerker onder plaat tijdens plaatsen vakantiehuisje
den haag man ernstig gewond na ongeval met slijptol
amersfoort schilder valt met steiger en al in het water
heythuysen man klem met been in machine
prachtige gezien in ashton, idaho.
grootebroek dode 21 na kantelen heftruck
wateringen man bekneld onder lading
utrecht man valt van steiger
heusden man komt onder loader en overlijdt
naaldwijk zwaargewonde bij ongeval met heistelling
bredevoort man zwaargewond na door dak
harskamp 19jarige ernstig gewond bij ongeval op boerderij
den haag man ernstig gewond na ongeval met spies
zelfdenkende robots van facebook verzinnen eigen taaltje via
lisse gewonde bij ongeval met shovel
valkenburg kitesurfer gewond bij val
apeldoorn man krijgt stalen buis op hoofd
wijchen man 18 overleden na beknelling
amersfoort man valt van steiger
varsseveld man gewond aan voet
zwolle twee gewonden door bijtende stof
spijkenisse ongeval met gevaarlijke stof
hengelo man valt van dak
oss gewond na aanrijding door loader
leiden dode bij bedrijfsongeval
almere twee doden door bedrijfsongeval op werkplaats connexxion
er zullen wel weer mensen zijn die dit fake news noemen... via
maastricht bouwvakker overlijdt na val van grote hoogte
noordhorn gekneusde arm na beknelling in lopende band
delft bout doorboort hand monteur
beverwijk mogelijk radioactieve stoffen vrijgekomen bij explosie
hoek van holland ongeval op veerboot
mijdrecht gewonde door chemische stof
hendrikidoambacht man gewond door bijtende stof
enschede leerling 15 overlijdt na ongeval op stage
zutphen man valt van steiger
utrecht gewond door steekvlam
delfzijl twee gewonden door vallend zwaar voorwerp
esbeek man bekneld tussen omgevallen balken bij staalconstructiebedrijf
komt daar het en de regen voor de dorstige tuin?
inspectie szw publiceert staat van ernstige arbeidsongevallen
code rood inhollandsmidden voor natuurbranden. wat moet je doen? en wat niet.
leersum ongeval met landbouwmachine
utrecht dode aangetroffen in laboratorium
utrecht man gedood bij val uit hoogwerker
rotterdam man gedood door vallende ijzeren balk
renesse klem in knijper kraan
roermond met duim vast in koffieautomaat
leiderdorp tien medewerkers ter observatie na zuurlek
leuk. ben benieuwd.
dm@diaspooravlk ik heb ze toch echt zelf gemaakt afgelopen dinsdagochtend. zou graag die…
genemuiden hoofd bekneld in machine
bergen op zoom agent gewond na val van 12 meter in liftschacht
steenbergen man 47 omgekomen bij ongeval met heftruck
venlo man gedood in afvalpers
uitgeest gewond door staal
ede opmerkelijk ongeval tijdens potje poolen
meer slachtoffers door bedrijfsongevallen in nederland
lopik gewond na beknelling onder omgevallen krat
gieten gewond na aanrijding in distributiecentrum
woerden bouwvakker komt om bij instorting slooppand
woerden man onder het puin bij instorting betonvloer
dongen dode na val door dak
veenendaal bouwvakker krijgt betonplaat op zich
huissen gewonde bij bedrijfsongeval
den haag man valt negen meter in liftschacht
zelfs de bollenvelden bekennen kleur
capelle aan den ijssel ziekenhuismedewerker 25 vast om zuurlek in ijsselland
capelle aan den ijssel man 25 opgepakt na lekkage gevaarlijke stof in ziekenhuis
capelle aan den ijssel ongeval met perazijnzuur in ziekenhuis
moerdijk man bekneld in machine
groningen dode bij ongeval op bouwterrein
someren gewond na val in put
toldijk dode door bedrijfsongeval op boerderij
oosterhout vrouw zwaargewond bij bedrijfsongeval transportbedrijf
vriezenveen man zaagt zichzelf met kettingzaag in been
heerenveen brandwonden na ongeluk in zuivelfabriek
bilthoven blunder laboratorium zorgt voor eerste poliogeval in jaren
hengelo twee gewonden in machinefabriek
oss man overleden, vermoedelijk na bedrijfsongeval
raalte man bekneld
rotterdam man overlijdt na val
rotterdam ernstig gewond na beknelling
ilt waarschuwt voor gasmaskers met asbestfilters
moerdijk dodelijk bedrijfsongeval bij transportbedrijf
utrecht laboratorium uithof ontruimd vanwege salpeterzuur
hulst man onder vallende rol
alkmaar man bekneld onder stalen balk
sgravenzande man valt van steiger
leiden werknemer ademt stof in
boxtel man valt van hoogte
de lier dode bij ongeval bij kassenbouwer
alblasserdam schilder zakt door steiger
utrecht hoogwerker breekt bouwvakkers komen met de schrik vrij
vlaardingen man gewond bij rioolwerkzaamheden
woubrugge dode bij ongeluk met heftruck
elshout man valt van dak
nijverdal hijskraan verzakt op bouwplaats, man met spoed naar het ziekenhuis
erp boer valt in gierput
rotterdam dode in tankwagen met meel
leiden bouwvakker valt drie meter naar beneden
den dolder man krijgt natronloog over zich heen
vlissingen man in schoorsteen schip gevallen
dongen bedrijf ontruimd na ongeval met gevaarlijke stoffen
dodewaard man verwond door stier die slachthuis ontvlucht
deurne kraan knakt doormidden, twee gewonden op bouwplaats
hengelo bouwvakker bedolven onder bouwblokken
arnhem gewond door vallend hout
rotterdam betonblok valt van heftruck, drie passanten lichtgewond
rotterdam man overlijdt na aanrijding op bedrijfsterrein
ettenleur dode op boerderij
weert bouwvakker ernstig gewond na val
rotterdam dode en zwaargewonde bij liftongeluk
oldenzaal man 41 overleden na beknelling
groningen hersenschudding door val
alphen a/d rijn man 36 komt om het leven
utrecht dode in parkeergarage
raamsdonksveer medewerker 33 breekt pols en ribben na val
steggerda kuilpakken vallen op boer
leiderdorp persoon krijgt stapel marmeren platen op zijn been
geleen twee gewonden bij steekvlam
vlissingen gewonde op sleepboot
rotterdam maaltijdbezorger zwaargewond na crash
shertogenbosch man valt van ladder
gelselaar man breekt meerdere botten bij bedrijfsongeval
mierlo man komt bij bouwwerkzaamheden onder muur terecht en overlijdt
gilzerijen man valt uit helikopter op vliegbasis, abseilen gaat mis
breukelen mast valt om, twee gewonden
bedrijfsongeval in dinteloord man valt van dak
bedrijfsongeval in de cocksdorp man komt om door instortende muur
bedrijfsongeval in vuren man valt door dak boerderij
bedrijfsongeval in leimuiden 9 gewonden in sushifabriek na ongeval met gevaarlijke stoffen
bedrijfsongeval in yerseke ernstig gewonde bij bedrijfsongeval met heftruck
meneer kamp kletst maar wat. niets van gemerkt kosten regeldruk met 2,5 miljard verminderd
rol leidinggevende cruciaal bij voorkomen burnouts
lage zwaluwe tractor op kop in sloot bestuurder gewond
nvvk slic presenteert leidraad om kwartsstof op bouwplaatsen aan te pakken het comité van de hoofden van de...
bedrijfsongeval in zaamslag man loopt hoofdwond op
bedrijfsongeval in leiderdorp bouwvakker valt
bedrijfsongeval in gouda man valt van steiger door veegwagen
bedrijfsongeval in enschede medewerker autowasserette raakt beknel in wasstraat
bedrijfsongeval in heerenveen man gewond bij val
bedrijfsongeval in enter man met been onder machine
nvvk dexamethason kan de voortplanting schaden van werknemers die tijdens hun werk met het geneesmiddel dex...
bedrijfsongeval in hoogkerk man onder balk bekneld
bedrijfsongeval in goes drie gewonden in garage
bedrijfsongeval in nieuwdorp zwaargewonde bij raffinaderij
bedrijfsongeval in maarssen man dood na val van dak
bedrijfsongeval in meteren spoormedewerker doodgereden
bedrijfsongeval in nieuwdorp dode bij beknelling
bedrijfsongeval in almelo man krijgt zeer zware haspel op zijn voet
bedrijfsongeval in delft monteur gewond bij werk aan elektrische installatie
vanmorgen
bedrijfsongeval in kwintsheul man ernstig gewond door vallende pallets
bedrijfsongeval in hapert man gewond na val van 5 meter hoogte
bedrijfsongeval in heeten dode bij storten betonvloer
nvvk verlaging van de grenswaarde van asbest amfibolen vereenvoudiging risicoklasseindeling de grenswaard...
bedrijfsongeval in kaatsheuvel dode bij ongeluk met heftruck
bedrijfsongeval in drachten gewond na val uit hoogwerker
bedrijfsongeval in wâlterswâld man overleden bij ongeval met shovel
bedrijfsongeval in leiden vrouw gewond door vallend steiger
bedrijfsongeval in rotterdam dode door beknelling
bedrijfsongeval in blaricum bouwvakker bekneld onder stapel kozijnen
bedrijfsongeval in uitwellingerga tractorbestuurder komt om het leven
bedrijfsongeval in nijmegen heftruck kantelt voorover
laatste ronde fotowedstrijd stem op mijn foto 😉😄 de foto van de lepelaar. stemmen doe je op bedankt alvast 👍🏻👍🏻
universiteit leiden start crowdfunding voor levend lab
bedrijfsongeval in aarlerixtel brandwonden door heet water
kamer stemt in met wijzigingen arbeidsomstandighedenwet
bedrijfsongeval in waalwijk man zwaargewond na botsing met zwaar voorwerp
pas op voor de populisten! vooravond van een kentering? via
en daar is wedstrijd nr 3. sterkte anderen! moet eens kijken hoe kaartjes voor adèle en de stones worden verkocht. dat gaat beter
email met tickets binnen, maar slechts voor twee wedstrijden. man united ontbreekt. lekker.
het lijkt er op dat niemand in het stadion wil hebben....
en het werkt weer niet. bravo! scheisse
bedrijfsongeval in waalwijk man zwaargewond bij werk aan logistiek centrum
bedrijfsongeval in lage zwaluwe meisje 11 levensgevaarlijk gewond bij bedrijfsongeval update
bedrijfsongeval in lage zwaluwe kind zwaargewond
bedrijfsongeval in almere man valt van bouwsteiger
bedrijfsongeval in rotterdam vingertoppen kwijt in snijmachine
nvvk inspectie szw controleert aanpak gezond en veilig werk bij nieuwe zorginstellingen van half september ...
bedrijfsongeval in nieuwdorp gewond na contact met fosfor
bedrijfsongeval in ettenleur man ernstig gewond bij elektrocutie
bedrijfsongeval in middelburg man bekneld in persmachine
bedrijfsongeval in ritthem zwaargewonde bij bedrijfsongeval
nvvk ilt controleert zeildoekoverkapping op open rondvaartboten de inspectie leefomgeving en transport ilt...
bedrijfsongeval in tien levensgevaarlijke situaties bij risicobedrijven
bedrijfsongeval in doetinchem met vinger vast in palletwagen
eigenlijk moet je het stilhouden leiden meest verleidelijke stad van nederland!
bedrijfsongeval in ritthem ernstig gewond bij bedrijfsongeval
bedrijfsongeval in renswoude gewond na val van drie meter
bedrijfsongeval in diemen vrouw breekt arm
nvvk inspectie szw lanceert vibchecklist bedrijven kunnen hun vib’s veiligheidsinformatiebladen controle...
bedrijfsongeval in vlaardingen glazenwasser 69 overlijdt na val
mooie nieuwe, informatieve website over de duurzame
nvvk openbaar conceptrapport ‘1,2dichloorethaan’ de voorzitter van de gezondheidsraad biedt de gelegenheid...
bedrijfsongeval in de lier persoon bekneld
bedrijfsongeval in noordwijk urenlang onwel in bakje hoogwerker
bedrijfsongeval in lingen man valt in machine en overlijdt
nvvk eindrapportage toezicht inspectie szw bij bedrijven in de afvalsector de afgelopen jaren hebben bedrij...
tijd voor sancties. japanse vissers doden tientallen walvissen via
bedrijfsongeval in leidenbouwvakker zwaargewond bij ongeval in de kooi
bedrijfsongeval in amsterdam glazenwasser vast op 9e verdieping
ondermeer over duurzame energie gratis colleges uit delft voor de hele wereld via
waarom klimaatverandering een kwestie van onderwijs is
nvvk openbaar conceptrapport ‘diethyleenglycol monomethylether degme de gezondheidsraad heeft een conce...
de pijnlijkste plant ter wereld nu ook in leiden | metronieuws.nl
nvvk meeste bedrijfsongevallen in de metaalsector medewerkers in de metaalsector en bouwvakkers zijn van al...
bedrijfsongeval in meeste bedrijfsongevallen in de metaalsector
bedrijfsongeval in ettenleur met vinger vast in koffiezetapparaat
bedrijfsongeval in schiphol medewerker gewond na aanrijding door bagagekar
nvvk bouwers houden meer rekening met fysieke belasting afbouwbedrijven houden steeds meer rekening met f...
bedrijfsongeval in waalwijk dode bij ongeluk in koelcel
bedrijfsongeval in franeker man ernstig gewond na val van trap
bedrijfsongeval in leeuwarden twee gewonden in f16werkplaats
bedrijfsongeval in gouda man zwaargewond bij beknelling
bedrijfsongeval in mali twee nederlandse vnmilitairen omgekomen bij een mortierschietoefening
bedrijfsongeval in roosendaal man klem tussen trein en loods
nvvk voor de bouwvakvakantie extra aandacht nodig voor de veiligheid in de eerste helft van 2016 is het a...
toch wel bijzonder, net nu arbouw is opgeheven... aantal ongevallen in de bouw sterk toegenomen
nvvk aanpak werkdruk moet nog beter opgepakt worden werkgevers en werknemers moeten samen met deskundigen a...
bedrijfsongeval in amsterdam dood na ongeval met ondergrondse vuilcontainer
nvvk werken in agrarische sector vaak onveilig in de agrarische sector wordt nog steeds onveilig en niet ee...
bedrijfsongeval in yerseke man gewond aan arm na ongeluk met wals
bedrijfsongeval in berkelenschot man zwaargewond na val door gat in dak
bedrijfsongeval in dongen man valt van steiger
bedrijfsongeval in dongen man komt met hand klem te zitten
bedrijfsongeval in terborg twee gewonden bij brand in ijzergieterij
nvvk inspectie op gebruik desinfecteermiddelen door reinigingsbedrijven nieuwsbericht | 23062016 de in...
iszw onderzoekt het als bedrijfsongeval. in ieder geval een risico voor werknemers. daarom ook geplaatst als aandachtspunt.
bedrijfsongeval in eindhoven bizar ongeval met lift
miljoenen mensen sterven aan luchtvervuiling via
bedrijfsongeval in beltrum dode na aanrijding
nvvk werken met sojameelstof inademing van sojameelstof kan leiden tot allergische luchtwegklachten. dit is...
bedrijfsongeval in wierden gewonden bij ongeluk met hoogwerker
nvvk aantal meldingen ernstige ongevallen bij defensie stijgt sinds 2011 is het aantal meldingen van ernsti...
onzinnige reactie. niet begrepen waarom een verbod nodig was?
bedrijfsongeval in leerdam man 21 loopt ernstig beenletsel op
bedrijfsongeval in almelo man valt zes meter
bedrijfsongeval in aantal meldingen ernstige ongevallen bij defensie stijgt
bedrijfsongeval in roosendaal twee mannen lopen brandwonden op
bedrijfsongeval in tilburg man onder zand bedolven en overleden
bedrijfsongeval in sliedrecht man omgekomen bij bedrijfsongeluk
debiel schakelt debiel uit. tijd voor een in het voetbal.
bedrijfsongeval in alkmaar man ernstig gewond bij brand in bedrijfsverzamelgebouw
bedrijfsongeval in ter apel vrouw overleden na aanrijding door heftruck
bedrijfsongeval in monster man zwaargewond tijdens bedrijfsongeval
bedrijfsongeval in terschuur man bekneld in een machine
bedrijfsongeval in aalten schilder bedolven onder hoogwerker
bedrijfsongeval in wilnis gewonde door instorten steiger
bedrijfsongeval in amsterdam dode en gewonde bij omvallen heistelling
bedrijfsongeval in albergen man valt bij achteruit lopen
nvvk geen bewijs voor hersentumoren bij veel mobiel bellen met de snelle toename van mobiele telecommunicat...
nvvk start campagne over veilig vliegen met drones nieuwsbericht | 01062016 | 0800 vanaf vandaag zijn op...
nvvk dieselmotoremissies 30 mei 2016 beroepsmatige blootstelling aan dieselmotoremissies vindt plaats bij w...
bedrijfsongeval in nunspeet man 41 overleden na val van hoogte
bedrijfsongeval in ermelo man geraakt door stalen deur
bedrijfsongeval in zaandam gewond na val
wat mij betreft noemt u mij niet meer in uw tweets....
bedrijfsongeval in de hoef gewond na val
bedrijfsongeval in den haag dode door vallend materiaal
bedrijfsongeval in klazinaveen vrouw zwaargewond bij ongeval met heftruck
bedrijfsongeval in zevenbergen 40jarige matroos gedood onder container
bedrijfsongeval in klimmen dode na beknelling
bedrijfsongeval in bergharen man bekneld onder stalen balk
nvvk inspectie szw duiken gebeurt vaak onveilig professioneel duiken gebeurt vaak onveilig. niet alleen zi...
bedrijfsongeval in renkum man valt van dak
nvvk inspectie szw gaat controleren op onveilig werken op de bouwplaats de inspectie szw gaat vanaf 9 mei t...