gebroeders dan nu maar naar
niet alleen een maar nu ook nog een
laten ze stoppen met dat zure, politiek correcte geneuzel. een goede grap moet gewoon kunnen.
is beter als niet terugkeert in maar ze is van de en kan dus altijd worden, van of zo.
en en veel succes. we zullen hem wel missen in
na weer een bij de
dus en ook in het volgende kabinet maar ja, ze zit bij de
verliezen is nooit leuk, maar met gedeelde smart is wel halve smart.
niet goed geld terug? waren zo melig
benauwde overwinning, maar uiteindelijk tellen de drie punten.
zijn weer eens nooitgenoeg. zo hard werken ze ook weer niet. van dat geld kunnen ze beter het afschaffen
mutti merkel heeft gisteren gewonnen. gelukkig. dat geeft de oprechte moed. nu nog de echte verkiezingen.
beschaafd in duitsland. waarom kan dat ook hier niet?
wil mij tot een verleiden met die opname. maar ik heb geen cent over voor dat zootje.
wordt in zijn grotelijks overschat. hij voegt niets meer toe aan en wordt hoogstens een dure
pseudodocumentare over en gelukkig toch niet op de
het lijkt erop of de gouden jaren terugkomen. ze winnen weer elke week.
misbruikt voor met medewerking van bedankt.
wie kent er nog een goede
en waar blijven de
allemaal het en elke streek zijn eigen lied.
ik verdenk
natuurlijk. dat is om de schade te beperken. maar of dat nog lukt?
schandelijk uit delicaat moet worden en nietloyale
afschaffen. niet van mijn ik mis dan mijn schaf dan maar af.
leuk begin van de nieuwe
moet zo nodig van zelf doet hij het haar niet na.
een hoort er bij. maar nu even niet...
mijn vader was kennelijk zijn tijd ver vooruit. hij had het vroeger al over een lul van een wijf in het verkeer.
ik zou nooit met willen worden aangesproken worden wat denken ze wel daar in
het is nu kennelijk echt met een ik ga
wie zegt dat de duitsers geen cultuur hebben?
wie zegt dat niet kan zijn? het einde van italiërusland was
activist alsnog bestraft en mag in belgië.
mooie toespraken van coryfeeën uit vroeger jaren en de onnavolgbare
feestje in presentatie van de kleine altes. zaal vol met bekende gezichten. de ook.
bij ook hier ordinaire
kust na afloop van de show niet alle gasten. wat zit daar achter?
hoe dom kun je zijn?
eindelijk lekker kijken van bij nee hoor. dat hebben ze niet, toch al jaren oud.
hopelijk heeft zichzelf nu echt afgeserveerd. de kiezer heeft niet gestemd.
eindelijk een topclub. gefeliciteerd.
der nederlandse taal. ik deed vroeger graag mee, maar na de laatste vond ik er niets meer aan.
die komt me de neus uit. hij is volgens mij allang over zijn
ik was dit overigens al lang voor deze formatie.
van met en misschien kan het dan wel zonder
is er wel bij het publiek voor met een zijn die wel voldoende
weg met dat bij het
en hoorden niet tot dezelfde partij. heeft geen
enorme fout voor het eerst dat sinds woii franse president en premier niet tot dezelfde partij behoren?
mag ik ook eens gek doen na 18 jaar?
yes we are the champions na al die jaren. met heel veel dank aan en en vele ander…
hopelijk gaat na nu niet weer door de pomp voor
en moet niet voor de voeten lopen in de formatie. anders mag het hem van mij
vrijdag besteld, nog steeds niet ontvangen. had er zaterdag al moeten zijn. 3snk2696406201
gisteren vasthouden zeker t/m volgende week maandag. van mij mogen ze trouwens de sleutel weggooien.
maar toch heeft zich terecht gehandhaafd.
mag van mij worden vrijgesproken. ik voel als ouder met hem mee.
moet oppassen dat hij door het draagvlak voor niet verder ondergraaft
handen af van ben bang dat niet pastoraal bezig is ten opzichte van en nabestaanden.
voor morgen.
yes wat een mooie ik krijg veel zin in de bedankt
ik krijg nu toch een ietsiepietsie
naar de is nog ver.
hebben het échte premiersdebat as maandag. het met en sla ik lekker over.
in het en kampioen. als dat zou kunnen?
ik ben trots op mijn burgemeester. gelukkig blijft hij vooralsnog in
nee hoor. ik raad alleen linkse mensen de aan, niet die over het paard getilde of die bemoeizuchtige
is een gewone linkse partij. geef mij dan toch maar liever de
vanavond twee kansloze vrouwen. niet zo interessant. waren er geen betere te krijgen?
ik wens je een heel mooi jaar met je gezin, lieve kaar
en moeten geen krijgen, maar direct worden
veel te veel aandacht voor een politiek randverschijnsel. hebben de niets beters te doen?
piepkuiken lekker hapje voor en andere
wat een mooie voor met dank aan uiteraard.
lijsttrekker afgewezen bij wat een sneue
goedkope om te paaien.
cadeau gekregen. bleek geschift bij eerste opening. wat een bah. had trouwens gevraagd.
heb onmiddellijk mijn zoon ingeseind.
de strijd der politieke minkukels is over. mijns inziens zijn allebei ongeschikt als president van de usa.
ok. duidelijk. dank. hoe kan ik in de gaten houden dat ik mijn belbundel overschrijd?
buiten mijn bundel?
klantnr vervolg. ik snap hier niets van. naar wie zou dat geweest moeten zijn 0621866655. waarom valt dat nummer buiten
klantnr 1.14597024 factuurnr 901276040252 dd 24 aug 2016. gebruikskosten buiten bundel. is afwijkende belgedrag.
wordt het niet eens tijd dat een echte club gaat trainen?
inderdaad. jarenlang aan gewerkt.
misschien wat eerder een tegen de zenuwen moeten nemen? of vloek ik nou in de kerk?
men zocht kennelijk een
schandelijk weinig aandacht in de voor het overlijden van onze doet zoiets veel beter.
afgebroken. niet uitgezonden. waarom wordt niet gecommuniceerd wanneer ze nu worden uitgezonden?
op nederland 1 over turkse coup. kunnen we nu alsjeblieft terug naar de
gered, hoor ik. welke democratie?
ik hoop overigens wel dat volgend jaar weer promoveert. ze waren de van de
het gedoe rond verdient geen schoonheidsprijs, maar de kunnen hier geen rechten aan ontlenen. terechte beslissing.
is niet de eerste en enige die lekt. vooral komen er heel vaak mee weg.
gefeliciteerd! fijne dag
ik vind het nooit erg als of verliest.
drukbezocht en waardig afscheid van een geliefde, bewogen en betrokken maar bovenal een fijn mens.
oveigens was ijsland gewoon beter.
het was een voorrecht hem gekend te hebben.
triest onderwerp. naar omstandigheden wens ik je een hele fijne avond.
dit kan niet. en dan met terugwerkende kracht het regelement wijzigen? dat zou 020 nooit overkomen zijn.
reclame olijven 2 voor € 3.00. op mijn kassabon 2x aangeslagen voor € 2.00, dus totaal € 4.00. geen korting berekend. wat nu?
bijna overal uit het assortiment. bijv niet meer te krijgen bij en gedongen tot waterige waarom
veel succes in de jullie verdienen het in de te blijven!
zelfs hulp van verschillende kon niet baten. gefeliciteerd.
eindelijk weer een prijs. op naar de
waar moet men diefstal uit koffer op schiphol aangeven? eigenaar vloog naar malta gisteren en verblijft nu daar.
clubje dat nederlandse van aanvalt haalt bewijzen uit de krant. worden ze ook nog betaald uit
lullige van komt me mijn neus uit. mij zien ze daar niet meer!
die man heeft helaas geen humor. neem een voorbeeld aan nota bene de leukste grap van
zegt schatplichtig te zijn aan en hear hear.
vanavond net een kippenhok.
met respect gedenk ik professor geestelijk vader en eerste voorzitter van het cda. hij ontdekte
ik vraag me af of nog kan functioneren als gewoon of maken ze haar straks arme gemeente.
gekenmerkt door en hier had na de al een einde aan moeten komen.
kiest eieren voor zijn geld. populariteit ging te hard omlaag door halsstarrigheid met weg te stemmen.
denkt alleen maar aan eigen winst. dat je je geld niet gewoon gemakkelijk zonder korting terugkrijgt.
wil de straks bij de vermelden u aangeboden door
zojuist gehoord op ik stem geen ik ben een gewone normale nederlander.
over de nederlandse ga dan weer lekker niemand dwingt je in nederland te blijven!
naast nu ook keurt
wat een en wat een prachtig resultaat in de
einde aan maar de rest van het kabinet blijft lekker zitten. ten onrechte.
een laffe daad. bovendien kunnen we nu geen meer maken over met wel twee autos.
vanavond 22.00 ard over vestiging van in te vergelijken met plannen in
overleden en figuur. niet echt wel een in de
krijgt geen maar wel 2030miljoen terug. omzetten in voor alle
of
lijkt me een aardige vent maar hij is natuurlijk niet te handhaven en over die kunnen we kort zijn en wel
en die moet in ieder geval acuut weg. hebben ze nog een bij 020 voor hem? misschien kan hij wat van cruijff leren
het is nog veel om nu te besluiten dat contract uit kan dienen. eerst zijn functioneren, ook onder goed
vanavond ard 22.00 genieten met cult commissaris buiten dienst het thema is actueel
twee keer opa in één week. na nu leo van der salm.
als zelf de kerst wil halen kan hij zich beter snel ontdoen van deze
met jongste kleindochter silke jet koster. gisteren geboren.
verpest nemen de dat zo maar? laat je kind thuis en organiseer
stapt op. en het middelmatige partij establishment halen opgelucht adem.
daders van amsterdam worden niet opgespeurd. andere zullen claimen.
laat de zich met echt belangrijke zaken bezighouden.
natuurlijk. leverbaar vanaf 5 september.
eén keer omdoen en je bent om, zegtapple. dat gaat in ieder geval niet op voor mij. mijn huid is allergisch voor horlogebandjes
kan incasseren en dat vind ik super van haar.
hoe lang kan ik een geopende fles goed houden zonder dat de room gaat schiften?
zie en heb lisanne al geïnformeerd. groetjes
geen in schipholvestiging en de app werkt er niet. geserveerd op zoutloos? smakeloos broodje.
utrecht. leuke kopjes, maar rij tot toen ik eindelijk aan de beurt was waren ze op.
loopt dus hopeloos achter zie mijn vorige tweet met voorbeelden. ben hier niet blij mee!
van loopt nu serie 4. op neflix alleen serie 1 te zien. is gestopt met serie 7. op netflix alleen t/m 5.
eens en vergeet ook niet die zich te buiten zijn gegaan.
natuurlijk moeten vaste afgeschaft. eindelijk haalt door onderwijs.
lagere pensioenen, hogere pensioenleeftijd, demotie en nu ook al afschaffing wie zorgden voor de huidige welvaart?
doet me niets. maar ik keek altijd wel de met de onnavolgbare kan nu vroeg naar bed.
was te veel voor ik zal hem dus niet missen.
kan afgesproken verhoging ovtarieven pas in oktober doorvoeren. nieuwe kaartjes dan pas gedrukt. of
niet, wel want het gaat allemaal van onze en ik heb het bij hun al aan zien komen
vandaag. nou en? ze werken daar toch nooit of ze zijn met pensioen...
ik ben reuze benieuwd naar dit boek.
mijn favoriete is nergens meer te koop, wat mijn senseogebruik aanzienlijk doet afnemen!
nu toch naar
processie op weg naar
vrouwtje vliegt op kosten van de met privévliegtuig naar berlijn voor €8900. zij niet. dank
hebt u niets anders te doen als dan te over de aanwezigheid van in het
prima. onder meer actief in en ik schrijf een boekje.
hartelijk gefeliciteerd, karin en een fijne dag!
toppunt van verdere van
waarom kunnen wij wel onze pensioengerechtigde leeftijd verhogen en de niet? op kosten van de
nederlands beroemdste overleden oorspronkelijk zwitser. en zanger van fraaiebizarre liedjes
hilarisch verhaal bij jij moet een boek laten schrijven.
elk nadeel hep zijn voordeel. voormalige mag nu lekker voortaan weer met de voor hen geen meer.
mooie recensie door
is lekker gaan met de
is iedereen 1000 euro beloven en dat na de verkiezingen weer vergeten?
de heeft gelijk, tóch? dus ook in
vrouw met baard kan songfestival winnen. vrouw in ondanks mooi liedje helaas nog niet. ik was voor
ontspoord.
moet steun aan heroverwegen.
niemand zit op die te wachten.
weer eens wat anders dan een
een en een jonge pak je met je handen. spreekwoord.
blijft in goed voor kan beter terug naar hebben niets meertezoeken in
helemaal eens, maar die willen niets anders 68% tegen mei 2011.
aande overkant vande zijn velen met hun neus opde harde feiten geduwd. de enige peiling die ertoe doet is de
in laat ze daar maar lekker zitten. die wil niet snappen dat dit helaas nodig is.
die hele komt me de neus uit.
5 mei altijd vrije dag. punt uit. moet vrij blijven. moet niet zeuren.
inderdaad gevaarlijk, maar wat moet je anders als je niet wordt beschermd tegen voer uswetgeving in!
prima maar moet daar nou in de nog steeds over worden laten we over gaan tot de orde van de dag!
het lijkt erop alsof de alsnog door de pomp gaat. efficiëntere uitzetting van illegalen lukt toch niet en is dus doekje vh bloeden.
overplaatsing hoe is eigenlijk? dat was vroegerwel anders.
mag je nu een geen meer noemen het was overigens vast een grap omdat hij toevallig ook nog is?
lijkt me electoraal geen gelukkige keuze voor om over te veroorzaken en dat weet de ook!
hoe lang blijft die nog van de
teken petitie voor de broodnodige vernieuwing van het taxiwezen
die weet niets van hij noemde 2x het dat is echter al in 2008 vervangen door de
weer terug in de prachtig nieuws voor elke rechtgeaarde
bedankt, veel succes. breng ons naar de
lijkt steeds leuker te worden.
negatief voor stem geen of zijn zijn verantwoordelijk voor / bevriezing.
krijgt sowieso geen want hij is 65plus.
naar
aftreden en geen goede zaak voor
er wordt wel erg veel gezeurd over en het in de media. we weten het nou onderhand wel!
wil je hem dan ook maar namens mij lezen?
vanmorgen niet op de mat. wordt ook niet nabezorgd.nu heb ik hem alleen maar zaterdag. kan hem dus net zo goed
opmerking moge moreel op zijn minst zijn, electoraal sluit hij naadloos aan bij de
hoge gevolg van coalitie tussen en met steun van
heeft het niet. tijd voor een waardiger
niet blij met nieuwe module zkv aanzetten via is zo gepiept. maar nergens staat te vinden hoe je hem weer duregrap
lekkere bij heeft overigens een maar dit terzijde.
moet de in betalen? kom nou. opsporen en de rekening presenteren.
geen maar nu kwijt? heette dat niet een
kantjeboord voor hopelijk hebben ze donderdag nog energie genoeg voor
in de
schuldigen zeer zwaar straffen + levenslang
de club is natuurlijk niet verantwoordelijk voor misdragingen van dat maar moet wel meehelpen aan onderzoek
moeten studeren en niet die hap!
mooi, hoopvol resultaat van mijn in
bravo justitie. terechte zware straffen voor dat zich noemt.
verstandige beslissing van om tijdelijk werk neer te leggen. nu nog echt dus nietvvd onderzoek.
moet niet door maar instantie en hij moet tijdelijk? terugtreden tot de ervan.
kan dat zomaar? mag dat zomaar? moet op zijn minst tijdelijk tot de onderste steen boven is.
terug naar de ja graag!
misselijkmakende mag van mij de cel in en de sleutel weggooien svp.
mooie voetbalzondag voor
spelbreker traditie wie dat niet wil moet niet in zon plaats burgemeester worden.
een erudiet en charmant causeur en een groot kenner van ons prachtig interview in
was behulpzaam bij mijn naar en gij gebruikt toch wel het noenmaal met ons.
saboteert reductiewet door bobos hopelijk pikt dit niet.
dank pim, en fijne feestdagen. groetjes van ed.
naar huis. laten samenvallen met die van en dan gelijk.
was in toegelaten als en niet uitgezet toen hij een bleek te zijn.dat geeft wel te denken
wat is privé en wat publiek? is een burgemeester die zich laatdunkend over de uitlaat te handhaven?
verbod kortzichtig en niet in het belang van de consument die overgeleverd blijft aan de
dag daar ga jij lekker straks niet meer over. ga maar lekker spelen met
kunnen die hun niet in de verrichten?
er zit een vlek op die das 😄.
“@daisyvliegentha vaker je stropdas omdoen, dan lukt het volgend jaar zeker! ” lol
van nederland wordt vanavond bekendgemaakt. ben weer niet genomineerd.
is dood, althans die deze mooie rol met verve speelde. ik genoot van hem in elke aflevering van
piet blijft zwart en daarmee basta. wie blijft zeuren moet maar in de zak.
met die 8 miljoen zou beter zijn prijzen kunnen verlagen!
gaat sponsoren. ben ik blij dat ik overgestapt ben naar die komen er bij mij niet meer in!
fijne 20 in de verdiend.
afgesplitste leden van doen voor spek en bonen mee tijdens de waarom zitten ze daar dan nog?
antwerpen.
“@mariettesedee server down? moet ik nu mijn digitale abonnement ook nog opzeggen?
je schijnt vroeg te gaan van drie glazen per dag. wanneer is eigenlijk overleden?
wat een arrogantie van dat die kinderen hebben hun stinkende best gedaan op de afbeelding van
kinderen van basisscholen maken spontaan portret van baasje ziet er in.
heeft die een complete gehad? ik ben benieuwd hoe ze er daar voor uit zag.
nog? niet naar huus!
grappig dat bij de bevalling van zijn dochter aanwezig wilde zijn. dat gevoel had ik niet, hoewel ik wel in spanning zat.
ziet er goed uit, freek. heeft vast heel lekker gesmaakt.
geen groots voetbal, maar wel gewonnen. en het gaat toch uiteindelijk om de punten. dus had ik een prima weekeind.
vlucht voor de wereld op zijn kop!
bestuurslid ahold vertrekt. zeker richting spanje in de zak
linkse rakker. leuk voor de
niet vrolijk uit naar huus.
wordt node gemist.
eruit en er nooit meer in. faalt als sinds in het nederlands elftal.
wat is er met aan de hand. het ziet er anders uit, mijn archief is verdwenen en het werkt niet meer forbidden.
fijn
prima resultaat in de tegen verdiend. proost.
blijft gewoon in
zandvoort. smeer nog even de keel, want over een half uur moet ik soleren met
bardot 80 jaar. ik word daar een beetje weemoedig van.
zou volledig achter staan. daar is niets op tegen, zolang de kiezer maar wel zijn gezonde verstand gebruikt. 😄
als die nou in meerderheid weg willen uit het mogen ze dan met de meedoen?
wordt niet
de dominee die niets van moest hebben, is dood. een maar wel een gevaarlijke. ook een beetje
welke verspilt onze aan het maken van waar we niet op zitten te wachten.
kiele, kiele, kiele. maar we zijn door.
kans voor na 1~1? we blijven optimist!
welke malloot heeft dat gedacht? ik blijf gewoon nederland1 en zeggen.
meerderheid nl wil er niet aan, maar blijven ons door de strot duwen. ook leent zich hiervoor.
boven kunnen ze je tenminste ook niet uit de lucht schieten. een wrange grap helaas.
verkoop jij het hele jaar oranjebitter?
nooit van gehoord
ik kijk er zelden naar, maar moet blijven, desnoods bij en natuurlijk ook! en is het vast met me eens.
verbod heeft niets beters te doen? bijvoorbeeld snel invoeren waardoor er geen voorkomen.
hebben ze nou niets geleerd over dat daar? hopelijk komt het niet tot
even stil zijn...
vanavond weer optreden als met
adverteert voor eigen zet er niet bij dat je ervoor moeten betalen. is bij echte kranten gewoon
morgen is een paar dagen later geworden. excuses daarvoor, maar ik herinner je nu aan ons contact over linkedin
hier heb ik geen woorden voor. zo je dierbaren te moeten verliezen. in en in triest.
een gratis advies is nooit weg
inderdaad. bovendien is het wat gênant mensen die ik ken eruit te gooien, vlak nadat ik ze zogenaamd heb gevraagd te linken.
overweeg er helemaal mee te stoppen en misschien over een tijdje opnieuw te beginnen. of is er een betere oplossing
op hol geslagen. ben nu zogenaamd op eigen verzoek met zowat de hele wereld gelinkt. ook met mensen die ik niet ken of niet wil.
geld voor op de bank gezet. was dus kennelijk niet nodig.
helemaal gelijk pim. ik reageerde op een bericht hierover op tv dat en dit ook vonden.
is een goede clubspeler maar meestal niet goed in het en hadden hem niet moeten opstellen
zes mensen vermoord, en toch zo ben je toch het van europa? wie stopt de eens een keer!
klantenservice beantwoordt mijn mail niet. is dat service?
een afgeprijsde smaakt net zo lekker. wat zou er vandaag voor een zacht prijsje te scoren zijn?
maar als je generaal bent ligt dat kennelijk minder simpel.
moet me gaan verkleden als voor jaarfeest shantykoor. hoe verzinnen ze het?