idd! tijd gaat snel!
precies 12 jaar geleden begon ik als meteoroloog bij toen nog meteoconsult.
cirrostratus, saharazand en roet van bosbranden zorgen voor een zeer zwakke zon.
wat klopt niet aan de tekst in het geel? antwoord na de break!
kort, maar heftig windveld morgen volgens
gemiddelde wind en windstoten. het blijft moeilijk voor
duitse eiland helgoland krijgt het zwaar vanmiddag!
de mogelijke herfststorm van woensdag heeft een naam aileen!
irma gezien door collega melody! napels, florida
11 bft????!! ik dacht meer aan 5 bft. hoek van holland had gisteren iig meer wind! via
gelukkig, zal op st maarten weinig wind opleveren en slechts een paar buien. trekt als cat5 naar florida.
hier wat beelden van ncep ens.
steeds meer ensemble members berekenen dwars over of zelfs west van florida.
begin van de maand werden de signalen steeds duidelijker.....
trekt irma toch naar de bovenwindse eilanden?
en toen brak het wolkendek onverwachts open boven houten. warme lucht laat zich niet makkelijk verdrijven.
gefeliciteerd jongen!
een weermodel gefinancierd door een groot aantal eu lidstaten. wordt wereldwijd…
weer.nl werkt als 1 van de weinige weerapps op basis van ecmwf
wat zien we daar opbollen en ook weer gelijk uitdrogen....?!😉
na uren flink wat regen 30 mm, beginnen de wegen nu al op te drogen!
las op nu.nl dat er aan zee sprake was van een plotselinge weersverandering. vanmorgen om 9 uur al uitvoerig benoem…
en zoals gister al voorzien, tropisch warm in nl. volkel 30.0!
het wordt daar nu winter en dus elke dag wat kouder!
en te vergeten!
zwaarste windstoten nu boven engeland. windstoten in km/u bron, uiteraard meteogroup
tip zet alles in en om het huis goed vast en check eventueel je verzekeringspolis ivm
sneeuwresten op landgoed heidestein op deze lenteachtige dag.
en toen viel er gewoon wat regen....
luchtkolom nog steeds koud genoeg voor een 20tal sneeuwvlokjes hier in houten.
ec laat de kou nog steeds op woensdag 00z midden nl veroveren met paar sneeuwvlokjes. andere modellen zijn al run na run 1236 uur trager.
na de wedstrijd
bij dezelfde zonnestand als nu was het in mrt 2013 nog volop winter met matige vorst, sneeuw en zelfs schaatsijs!
pittig buitje daar in brabant. lijkt sc.
tropische warmte is een feit. nu kijken of er nog vrije convectie mogelijk is.....
en de buien? zoals verwacht in het noordoosten.
op zoek naar een beetje verkoeling? op de hollandse stranden is het nu een aangename 14 graden!
binnen of buitenactiviteit? ik kies voorlopig voor buiten! en misschien een# bui.
meeste onweersbuien lijken in het no te ontstaan. laten we nou toevallig die richting op gaan vandaag!
sneeuw eind april is net zo zeldzaam als de 2729°c op meerdere dagen in april 2007!
gelukkig nog weinig blad aan de bomen
vanaf 00.00 uur 38mm rainrate 120mm/u en ook enige hagel in houten. nu lekker zwoel zomerweer.
koude nacht in nl? wat te denken van sennybridge in wales? tn 0.9°c en south newington met tgras 3°c!
geen idee. misschien heeft knmi antwoord?
in de categorie wist je dat de windmeter bij hoek van holland staat niet op 10 m hoogte maar op +/ 30m.#storm
prima weer vandaag om naar te gaan.
een 45 bft thermische wind. snel de partytent opruimen. wind giert om het huis.
tot en met dinsdag prima hollands zomerweer! 2025 graden en meest droog.
zuidoosten van australië gaat gebukt onder zwaar weer. storm aan zee en in de bergen uitzonderlijke hoeveelheden sneeuw.
aan de voet van de poldermolen voor het eerst wat geluid kunnen ervaren! verder totaal geen last van. goed initiatief!
buienrestant boven belgie?!? zojuist melding van hagel nabij couvin en chimay prov namen.
laatst melding gemaakt van geen!! geluidsoverlast op windmolenoverlast.nl. melding niet op site opgenomen.
een must voor iedere radioweerman, het spiekbriefje van collega
is dat ook midden op de dag, om de 5 minuten???
ook midden op de dag?? voor het eerst dan weer aan, dan weet uit gezien.
poldermolen defect?
in valt nu al het tweede spetterbuitje in 20 minuten tijd!
nieuw beerta overbodig! met 7.3 is roodeschool nog een graadje kouder!
ook uit de regio elburg een natte sneeuw melding!
bovenlucht is vrijdag helemaal niet zo koud. malse sneeuwbuien op grote schaal met tijdelijk sneeuwdek lijken me niet realistisch.
ja inderdaad donderdag!
zowel ecmwf00z en ncep12z komen vrijdag met windstoten van 120130 km/u op de wadden. vergelijkbaar met 28 oktober, nu ook springtij!
regen, wind, hagel en slechts 6 graden. het lijkt wel herfst!
vroeg wakker. zal zoonlief doorhebben dat het gaat stormen?
komt niet vaak voor tijdens je avonddienst regen en frequent onweer, zeker niet eind oktober!
25 jaar housemuziek. grappig om te zien hoe de media hier nu mee om gaat!
zo, lekker een dagje werken.....!
mooie wolkjes boven
straks schuiven we aan bij bij radio2 music matters om te vertellen dat het zonnig, maar ook winderig is vandaag!
de niet volgers van het weerbericht pik je er vandaag zo uit! ze dragen een korte broek, tshirt en zijn zonder jas vertrokken bij 5ºc
ondanks het kalme herfstweer valt er in belgie vannacht een enkele onweersbui. zou z nl hier nog iets van meekrijgen? ik ben benieuwd...
hoor/lees berichten over een prachtig nazomers weekend.... ben bang dat dat er niet in zit.
nieuwe pluim als je niet beter zou weten zou je denken dat we een straffe westcirculatie krijgen. stroming is echter zwaar geblokkeerd!
zomer 2013 is nog niet voorbij. zonl gerede kans hittegolf! sinds 1901 nog maar 2x voorgekomen! laatste keer 1947
goedemorgen! dag vroeg begonnen want we zijn weer eens op de radio!
kunnen jullie je tweetjes niet gewoon afmaken? nu weet ik nog niet waarom de beste man is aangehouden.
maar eerst vi!
verwachting voor morgen blijft lastig, ncep weet het ook nog niet. 27 graden in limburg!??!?
vannacht geen onweer en ook niet zo warm. prima slapen dus. hierna twee nachtdiensten en daarna weer zweetweer....
kan zich opmaken voor zware regen met onweer.....
stevige buienlijn boven belgië komt naar het noorden. straks heftig weer?
boeiend dagje qua weer vandaag. waar gaan de onweersbuien vallen en hoe zwaar worden ze?!
niet alleen in nl heet! in het ijslandse skjaldthingsstadir was het vanmiddag 12utc 24.4ºc!!!!
verbaasd over het grijze weer? dan heb je niet naar het weerbericht geluisterd of naar een verkeerd weerbericht
nieuwe pluim kans hittegolf neemt toe.
prachtig zomerweer! en het blijft nog even zo. mag van mij tot in september zo blijven. oke, 1 keer spectaculair onweer dan!
hoppa, er komen weer een paar mooie zomerdagen aan. wisselvallig en koel zomerweer zal echter weer snel terugkeren dus geniet er van!
lekker hoor zon houseclassic op
lekker hoor dat ijslandse zomerweer!
stevige mistral in z frankrijk.
sneeuw op het dak van belgië!
geen zin om morgenochtend je autoruit te krabben, zet hem dan nu onder een boom die goed in het blad zit. lokale
hagel! op sommige plaatsen was het even helemaal wit. zoals verwacht
kans 20ºc op zondagmiddag is even groot als 2ºc in de ochtend!
er vallen een paar vlokjes motsneeuw in wageningen!
volgende week lente? ?? wat is je bron?
sneeuw in amerongen
atmosfeer kan warmte vanmiddag niet aan een dat zal ontaarden in een enkele
ik doe niet aan voorspellingen
minimaal twee weken nog te koud!
waarom zie ik allemaal folie op autoruiten liggen??? de krabtijd morgen is 0, 0 minuten. alleen direct aan westkant ijsselmeer veel langer!
gelukkig spelen onze jongens thuis. estland vanmorgen 20 en nu ook alweer 10!
nu .nl middennl 1 tot 3 cm sneeuw!! heb vandaag alle weerdata bekeken en zou niet weten waar dat vandaan moet komen.
gefeliciteerd met je dochter!
zondagochtend zeer strenge vorst in oostelijk duitsland. in polen zelfs 20 tot 23!!! valt de 5 bij ons nog mee.
nieuwe pluim lente nog heel ver weg.....
wat zou de naoindex zijn bij een azoortje van 1020 en een groenlandhoog van 1060 hpa??
nieuwe is koud en heeft een potentiële op 23/3. waar blijft jou tweet?!
gister tot 13 verwacht en in de ochtend her en der 13cm sneeuw. 100÷ score!!! o en het blijft winters!!!
balen!
in het noorden valt morgen veel minder sneeuw, want daar schijnt de zon! . hoogstaand niveau even na zes uur op nl1. zenuwachtig??
waarom hoor ik op het nieuws berichten over veel sneeuw in heel nl? onzin, sensatie?!?
waarom het verbreken van en dagrecord niet nieuwswaardig is vandaag veel warmer dan gisteren maar vandaag geen record.
nieuwe pluim is een echte januaripluim.
hier niet
voor de liefhebbers, er ligt 1 cm sneeuw in houten. 0.7
poolsneeuw bij 3????
over een half uur beginnen ze te spelen....
vanmorgen onverwachts 2 cm sneeuw in wat komt er nog meer aan?
mooie foto! kan je ook de kille kant vd studio laten zien?
heb jij al wat te doen op
er is een heel klein beetje sneeuw gevallen in houten. +/ 0,2 cm. nu motsneeuw.
10.1 in de bilt een zelfs 14.7 in westdorpe. voorlopig laatste echt koude winterdag. zaterdag klein beetje sneeuw? weer.nl
in houten al uren lichte sneeuw. geen verse cmm, maar maakt het wel een echte winterdag
vanmiddag tijdens de klassieker wat sneeuw. zeldzaam, maar niet zo zeldzaam als een overwinning van feyenoord!!
de huis tuin een keuken thermometer geeft nu ook strenge vorst aan
mist trekt zich terug naar de polders maar mijn thermometer geeft nog steeds 11 aan. vanmorgen kwam het kwik niet lager dan 9.9·c.
mist en13 in houten....!!
op dit moment woon ik een paar km van het koudste plekje van nederland!!
zo ff knallen bij met de wildstylez! !!
nog steeds sneeuwval hier in en ook opvallend, een aantrekkende wind. beetje
eerste vlokjes dwarrelen naar beneden......
in gouda valt lichte sneeuw!
vanaf vanavond voornamelijk sneeuw ten zuiden vd grote rivieren . tot woavond valt daar 15cm, zeer lokale net iets meer. max 1cm.
leuk pluimpie! strenge vorst etc ... ik zeg doen!!
lange termijn neem het niet letterlijk, maar kijk wat de modellen je willen vertellen.
volgende week schaatsen!!
vanaf vrijdag komt de vorstgrens in de buurt van nl te liggen. ecmwf gaat voor zacht limburg en koud groningen. utrecht zacht óf koud!
en zoals altijd met kansen op winterweer is de onzekerheid erg groot. oper12z in pluim soms onderop, soms helemaal bovenin....
na een periode met saai weer, lijkt nu de winter weer aan set! ik heb er zin in!!
na passage komen we in een temperatuur loopt vannacht alleen maar op. er volgt een winterse
wat is iedereen stil!!!
wie had dit, begin jaren 90, verwacht? some great news for the dutch dance industry!
lijkt het nog steeds op ja....zelfs de warme ncep doet dat even.
volgens ecmwf zijn vrijdag, zaterdag en ook zondag boeiende dagen. ncep is ronduit zacht.
het weerwoord van 2012 is volgens de luisteraars van omroep gelderland plaknacht
he volgt mij nu. zou hij een weerfreak zijn??!
ook leuk...ijsregen!!
houten al enkele uren natte sneeuw, soms even matige intensiteit. blijft vooral op koude objecten, klinkers en op het gras liggen. 0,5cm.
zo, de nieuwe pluim is duidelijk fris decemberweer met soms een koud nachtje en misschien wel een keer natte sneeuw.....
zal ik ook iets zeggen over de nieuwe ecmwf kaarten/pluim??
nieuwe pluim is helder begin december een iets te fris weertype. absoluut geen inval van koning winter....!
het aantal vrouwelijke twitter volgens neemt na mijn zangkunsten bij opeens toe!
voor alle fans, aanstaande vrijdag schuif ik nog even aan bij radiovrienden
van je collegas moet je het maar hebben!!
die schuiver stond de hele dag op het parkeerterrein ivm cursus....
hier valt wat te halen, ja voor
morgen 21·c en vrijdag slechts 8·c. het kan snel gaan!
1 ding is duidelijk, de muziek bij de vvd is het leukste!
leuk feest in de kuip met speedyj! go feyenoord!!!
he bah, regen. zal morgen veel drukte opleveren bij de wasstraat.
dit is de tn tot 06 utc.
zal wel te maken hebben met tijdstip waarop tn viel.
de warmste en koudste dag van 2012 in kaart best indrukwekkend!
gister maakte ik nog een gok voor 36.2 graden. het is 36,3 graden geworden.
trekt richting texel.
ab dienst, boel wat gedrukt. wind en beetje bewolking gooien roet in het eten. of hebben we ons gek gemaakt? ukmo.
meetpunt maastricht was vanmorgen al erg warm. oorzaak meetpunt ligt op 107m boven nap. boven de grenslaag, minder dagelijksegang.
vanmiddag werken.
gokje morgen tx 36,2 in arcen.
hoe zit het met de tropische hitte dit weekend in nl en de landen om ons heen? en krijgen we zondag onweer?
zuidoostenwind 45bft. zeewind maakt geen schijn van kans....!
nu nog op vakantie richting superhitte op komst! succes!
hoeveel muggen eindigen er vannacht in nl zo plat als een ouderwetsch dubbeltje tegen het plafond? nachtje.
kijk even naar de nieuwe klimaatnorm voor nl. zo is april in 30 jaar tijd ruim 1 graad warmer geworden. oorzaak discussiepunt.
in het spaanse cordoba is het nu 43,5 graden. gibraltar heeft met wind van zee slechts 25 graden. wel is het hier veel vochtiger.
hhhmmmm opmerkelijk! een blik op de cijfers nl, wereld en oppervlakte npijs zegt voldoende.....
altijd leuk omdat we in nl een magere zomer hebben, zou er volgens sommige geen sprake zijn van een opwarmend klimaat!
sneeuwval in de australische blue mountains via
supercell. een nieuw weerfenomeen of een mediahype?!
nabij en zit nu nog onweer. toch kunnen nieuwe ook vannacht nog voor een lichtshow zorgen!
was dat niet het weerbericht van gisteren? of hebben we deze week 2x vrijdag?
precies volgens verwachting, vanuit het westen brede opklaringen!
onweersbuien trokken afgelopen nacht over het land. wouter van bernebeek maakte deze foto in overasselt.
vooral als ik geen zin heb in een bbqlucht ja!
hmmm... slaslikje! een beetje meteoroloog weet wanneer hij moet bbqen!
als dit maar goed gaat...een stapelwolk boven de utrechtse heuvelrug...!
hagel in
succes beide en tot vanavond
voor het gevoel is het op de waddeneilanden nauwelijks koeler, de luchtvochtigheid is hier veel hoger dan landinwaarts. 2/2
met 30,6 graden is arcen limburg de warmste plek van nederland. op de waddeneilanden is het met 21 graden duidelijk minder warm. 1/2
zomer in nederland, zware buien in servie. veliko gradistegrens roemenie ving afgelopen nacht 129 mm regenwater op!
kun je het nummer mailen naar waarnemingen@weer.nl?
met spoed gezocht weeramateur veluwe/achterhoek voor bijdrage rtvgelderland. neem contact op met via waarnemingen@weer.nl
regionale hittegolf gaat niet door. ach, wat maakt het ook uit, het was een heerlijke avonden morgen volgt er weer 1!
lekker weertje zeg! voor zonederland zit er zelfs een hittegolf aan te komen!
vandaag 20.8°c in arcen. gaan we morgen ondanks geregeld zon de 20°c überhaupt ergens halen? zeeuws vlaanderen misschien?
yep. werd steeds dunner. even later was het helemaal weg.
rara wat is dit? hij is toch niet te makkelijk?
vanavond een vrolijk weeritem bij met collega opnames zijn nu bezig!
in wageningen tot nu toe 2 minuten wat regen. droge momenten duren veel langer
de eerste lokale onweersbuien komen nu tot ontwikkeling.
nu een mals regenbuitje zal het daarbij blijven?
het begint donker te worden hier in en ik voel een 1e spat. nog geen onweer.
als ik goed kijk zie ik nu ook een beetje mamatus....
outflow in bui op komst!
stevig windveld komt langzaam richting
ronaldo maakt de 10. nu maar hopen dat zn teamgenoten niet aan zijn haar komen!
ja dat zie je inderdaad niet vaak!
waar ik zit een windstoot van 60km/u. regenmeter nog niet gechecked! wel een aangename 23.1 graden, eindelijk een beetje warmte
zo, dat was het weer...!
dankzij ons nationaal weerinstituut kleurt nederland weer langzaam oranje! joepie! ?
indrukwekkende temp van parijs/trappes.
im wachtende op een mooie hoogste capewaarden worden hier verwacht, dus kom maar op!
vanavond weer zal vanavond wel een stevig windje staan. staat alles goed vast jongens!?
in nl hebben we niet veel aan de maar in andere landen helaas wel!
flinke kans op een goal wil nog niet zeggen dat je gaat winnen! woensdag 40 voor duitsland? wel met deze opstelling!
verbinding met is er weer. even na acht uur gewoon weer bij
snelle meteoanalyse montfort lijkt idd sprake van windhoos te zijn geweest. oa. op basis beelden via weerwoord.be
zon krijgt steeds meer ruime....wel fris
zoals verwacht smeren de stapelwolken zich uit onder een subsidentie inversie.
mooi weerbericht in een ochtenkrant aan zee is het mogelijk sterk wisselvallig. geweldig!!
zo, nu ook aan zee warm. vlissingen 24°c. oh, en voor de wakkere krantlezers een hittegolf is voorlopig niet aan de orde.
hagelschade aan oa onze kiwiplant.
in het westen van nederland is het nu heel goed mogelijk om bliksem fotos te maken
even een opklaring tussen alle buienwolken zorgt voor een paar zonnestralen in de weerkamer van
hagel in houten
de eerste cumuluswolk is gespot
het voordeel van een weertype met lokale onweersbuien is dat ze meestal elders vallen! avondeten in de tuin!
nederland winnaar ek 17 op een duitse manier. winst van de na strafschoppen
ook in het noorden van finland is de winter nog altijd niet voorbij. ondanks dat het er nu gewoon licht is!!
in de australische alpen ligt sneeuw, zoals goed te zien is op de webcam van mt buller
goedemorgen melbourne! actueel half bewolkt, 10°c. vanmiddag geregeld, maar ook een bui. tx 15°c
zo, het is weer droog en het flesje is lewg! slapen....zzzz
tip voor vandaag een zonnebril met gekleurd glas tegen het grijze weer tip van
wat een inschattingsfout van fer en wijnaldum aan het begin van het seizoen.
wat een mannetje he?
kampioensfeest uitgesteld?
he wat leuk zit je overdag in de auto hoor je weer eens dj kristel!!
dag van de arbeid en dan ben ik natuurlijk vrij. overigens hier in ook eventjes donder, bliksem en regen
zojuist kreeg ik deze weerfoto van gerben binnen. prachtig deze dingen!
en nu zijn ze nog mooier!
altijd leuk een beetje midlevel onstabiliteit. gelukkig zijn deze wolkjes onschuldig.
ja daarom deze tweet, speciaal voor jou
een paar dagen niet op twitter geweest omdat de app niet werkte. gelukkig ben ik voor al mijn fans weer online!
even ten westen van wageningen hangt een klein sneeuwbuitje
w hebben er even op moeten wachten, maar dit weekend lijkt het weer een zomers tintje te krijgen. weer.nl
mooie cb gezien vanuit de weerkamer van
geclusterde buien in de ochtend, losse buien in de middag. heerlijk als je verwachting van gisteren nog helemaal klopt.
bloemkoolwolk bezig om tot zon 7 km hoogte te groeien...
hier nu een paar spatten
het leuke aan een buiig weertype, ik heb nog geen bui gehad.....
zojuist bij op de weersverwachting voor koninginnedag gegeven. nu maar hopen dat het klopt!
goed nieuws!
tot morgenochtend!
aan de kust regen, wind en slechts 5°c! ook hier begint het af te koelen. het lijkt wel een typisch hollandse winterdag!
succes morgen. ik schuif donderdagochtend weer aan met het geldersweer!
beetje gezellig daar? volgende keer ben ik er ook weer bij!
dan zien we elkaar vrijdag?
oh ja, ook weer online nadat mijn mobiel in de wasmachine heeft gezeten....!
buikgriep over, verlof voorbij, morgen weer werken!
he wat leuk, stadsradiorotterdam. was toch een leuk opstapje voor mij....dankzij edaldus
vandaag zijn winterbanden uiteraard niet nodig. wat een prachtig lenteweer. ncep
heb je verlof, is de lente opeens ver te zoeken! overigens, vorig jaar was het zon 22 graden.
haha overlast? altijd lastig sneeuw tijdens de n8spits
maak je maar geen zorgen.....
ik zou zeggen, heel snel overstappen op schone energie uit stabiel eigen land.
ook gefeliciteerd, je kwam me al bekend voor. succes met de nachtrust!
en ja, mijn vriendin weet er alles van hoor!!! no worries!
net als gisteren was het vandaag een prachtige dag met mijn nieuwe vriend twan.
aanstaande vrijdag eerste sneeuw van het aankomende winterseizoen in de australische alpen/snowy mountains.
om 9 uur trappen ze af met whigfield think of you. , van de jaren 90. luisteren!!
morgen een radiodienst. oa bij met blijf ook na 9 uur luisteren want dan begint de van de jaren 90.
de zaterdag begint mooi, maar vanmiddag krijgen we ander weer.
wel aardig, wij gaan voor goed....
bewaar je een stukje voor je allerbeste collega?!?
vandaag en wat doe je als vrouw met de broek aan dan op zon dag? even pas op de plaats?
morgen heerlijk weertje, voor avonddienst maar wat vitamine d opdoen....
vanavond ik verwacht dat annemarie de mol is, of moet ik het maar houden op het verwachten van het weer?
vandaag vrij, morgen sinds lange tijd weer een radiodienst. oa bij en de van en
winter is zowaar dichtbij, in belgie valt
stagiare nu.nl heeft bericht aangepast. 75% van nsw wordt geteisterd door zware regen. verstand, goed lezen,
volgens nu.nl staat 75% van new south wales onder water! zouden ze wel weten hoe groot deze staat is?
hier in staat vi gewoon op.
200 cm?!!?
treinverkeer alpenlanden heeft last van en en heel nl dacht nog wel dat dat alleen bij en problemen oplevert!
wat weinig! vorige week aan de andere kant vd dijk veluwemeer nog 40 km gereden.
op het weerwoord forum spreken sommige al over lenteachtigweer, maar ik zie toch vooral saai herfstweer in de kaarten...!
wat een saai weertje! doe mij maar het weer van een week geleden. als is dat ook een stuk uitdagender!
winter 2012 duurde slechts 2 weken?
mooi he? met wat meer wind kan dat later deze week nog mooiere plaatjes opleveren.
kruiend ijs langs de houtribdijk.
andre kuiper, bal van schaken al voorbij zien komen?
ijsregen hier in flevoland!
he reinier, dat zal wel erg druk zijn. maar de omgeving is prachtig, vooral de vlist.
heerlijk schaatsijs. ben er de komende dagen ook. misschien komen we elkaar nog tegen...!
wat leuk dat ik je collegas bij tegenkom na 25 km schaatsen.
klopt, zit nu in kampen en daar is de zon ook doorgebroken.
foto gemaakt in gouda. zie map waarnemingen en dropbox
einde koudegolf? de bilt zit nu nog maar net onder nul. snel verder schaatsen...