ios 11 is goed, maar ios 11 in combinatie met de ipad is de bom!
hoppa, een beetje een inkoppertje, maar daar is de imac pro!
hop hop is aan!
vandaag een dagje training in noordwijk bij mavim
wwdc 2017 de actuele verwachtingen
yep, deze volwassene in ieder geval wel!
wie nog zegt dat alle darters een bierbuik hebben, kijk even naar de verliezend finalist van het well done gerwyn price!
lego boost simpel en leuk programmeren voor de kleintjes
ben je bijna hbo/wo afgestuurd en heb je een voorkeur voor uitdagingen binnen het vakgebied informatiemanagement?
ibm “iedere mac bespaart ons 400 euro tegenover windowspc”
vanavond wwdc dit zijn de meest actuele verwachtingen!
hoe organiseer ik klantcontacten sneller en efficienter? en hoe klikt dat met de verwachting van de klant?
appontwikkelaars maken het leven van monteurs makkelijker
nog maar 1 nachtje slapen! het einde van die verschrikkelijke browsers ie 8,9,10 is nabij! doei!
kijk daar hebben we wat aan!
coen in 2012 en lis in 2015! liever leverworst ...
wat een fantastisch commentaar vanavond! was genieten! dank!
just downloaded bootstrap v4 alpha! already love de cards! nice!
coen met zijn vrienden!
gewoon omdat ik er maar geen genoeg van krijg ...
leuk! ie wordt microsoft edge. zou eea nu ook wat vriendelijker worden voor developers en uiteindelijk de gebruiker?
en zo leg ut!
translink test smartphone als ovchipkaart
haha, speelt clasie volgend seizoen gewoon in oranje!
apple watch event aangekondigd! 9 maart!
webtrends voor 2015! amerikaanse cijfers, maar mooie infographic.
whatsapp web gelanceerd, maar iphone is uitgesloten door ‘platform limitations’
“@arjanne76 de ipad is het niet voor mij. dan liever vulpen en papier nu aan het proberen. veelbelovend!” gewoon doen
en zo leg ut! straf is een felicitatie waard aan hele ajaxfamilie
inmiddels kijk ik al weer naar een andere pot! feyenooooorrrdddddd!!!!
ineens dan toch het logo naar links verplaatst! dank!
zou nou zelf niet door hebben dat de stand niet zichtbaar is?
was ik maar paar jaar later geboren! “@dutchcowboys leerlingen voortgezet onderwijs vanaf maandag les op tablets ”
zet maar in je agenda, op 9 september onthuit apple de iphone 6
wow! wat prachtig geschreven!
wel bijtertjes hoor, die van uruguay!
ghanaaaaaaaaaaaaaaaaaaa
jullie gaan lekker zie ik op roparunlive.nl! is er al een voorspelling hoe laat oud beijerland bereikt wordt?
een paar uurtjes niet gekeken ... mijn timeline staat helemaal vol met tweets. ik ben er klaar voor!
voor ik het vergeet ... doei windows xp, ik zal je missen als kiespijn!
productie iphone 6 met groter scherm start in mei via
haha, daar kun jij niets aan doen hoor! ie is heel vaak een hele nare uitzondering maar ook in ie moet alles werken!
internet explorer … vind ik niet leuk!!! gelukkig daalt nog steeds het marktaandeel
sxsw de user experience van native, web en hybride apps via
alles moet plat over flat design en gezond verstand via
het valt ook niet mee met al die werkstromen
net nog even online een staatslot gekocht. wel afgeschreven, maar geen staatslot! hoe kan dat?
tim cook naar turkije voor miljardendeal wanneer zou tim cook met mark rutte hebben afgesproken?
door naar halve finale nu feyenoord nog even die finale winnen!
dus je geeft jongeren een ipad en vindt het dan vreemd dat ze daarmee social media gebruiken!
safari pushnotificaties in os x mavericks rss maar dan beter!
even een dinertje ophalen bij de snackbar! dat u het weet ...
onderweg naar de heilige tempel! come on boys
commentator nos geflatteerd is dat niet gewoon effectief?
je kan in idee geval nog steeds rekenen gelukkig nog heel veel wedstrijden te gaan, neusje!
ik had al zon vermoeden! appeltje eitje volgende week natuurlijk kuch
zo, met een goed gevoel volgende week naar 020! dus...
jij bent vast weer een heel blij mens daar ook al zon fantastische it afdeling?
mama zingt kinderliedjes voor coen. waarop coen zegt nee. stop mama, doe maar feyenoord liedjes zingen!
yep! 1610 gewonnen. vanavond de halve finale tegen adrian lewis
eindelijk onderweg ... come on
dat gaat een latertje worden ...
sta je 103 voor ... ga je nog staan balen dat je een 3e triple mist! mooie beelden en wat een klasse darts weer
idd gas erop! ben wel benieuwd hoeveel pk mike heeft? arme camera crew. wat een klasse darts weer!
languit op de bank, op de buis ... en ja hoor 10 voor
ik dacht al zit josje van k3 nou in het publiek? nu snap ik hem
koelste plekje in de woonkamer gezocht, op de buis, laptop erbij … nog even aan het werk dan maar!
dropbox wil de nieuwe harddrive worden via prima ontwikkeling!
komt de streaming nog live? krijg nu een foutpagina op de link
denk het wel. morgenochtend eerst even naar amac om te informeren. heb de handleiding al klaar liggen
data is veilig, hij start weer op, maar loopt geregeld vast! morgen nog even verder kijken
mijn zeer geliefde gaf vanmiddag ineens aan dat ie er geen zin meer in had! nu al uren bezig met een reddingsoperatie!
dirk kuyt, ben jij het?
avondje ouderwets ontwikkelen!
heerlijk ontbijt op bed van mijn kanjers!
bevestiging is binnen ... over 3 maanden ga ik 7 dagen op ios programming bootcamp
we gaan beginnen!
vergeet je onderweg niet even te stoppen op busstation heinenoord?
ik ben er klaar voor!
alleen die animatie al …
ik noem het ios speechless!
jaaaaaaaaaaaaaaaaaa … hebben hebben hebben
eten staat op tafel en de appletv staat aan … laat de maar beginnen!
je zal gisteren maar getrouwd zijn en vandaag zo thuiskomen ... oh ja, ze zijn allemaal met water gevuld!
in 2 weken tijd 3 grote finales en ze allemaal winnen, wat een beest ben je dan!
wat een finale weer! 170 finish voor een break op
ik kom niet meer bij! coen loopt in de hema naar een rek met bhs en roept ... kijk nou mama, allemaal tepels!
stil van ...
nog maar 3 dagen kampioen en nu al weer een titel gewonnen!!!
ook de komende uren weer veel succes! zet hem op!
jaaaaaaaaaaaaaaaaaaa ... single bull, triple 19 en een dubbele bull! wat een finish ook!!!
bibber de bibber. wat een finale ... 8 tegen 7 ... 160 finish van de meester!
zeker! mike is eindelijk los!!!!!
gelezen op psv heeft geen geld voor maher eerst verkopen misschien iets verkopen aan de gemeente?
dat was toch nog ff bibberen, maar op naar de finale
dat waren weer 4 fantastische legs van ... hopen op iets meer legs van
thanks! dit was wel een hele dure break
klaar voor de finale avond van de premier league darts. game on!
zo ging dat vroeger ...
ja dat is ook voetbal ...
coen ligt gelukkig lekker te slapen! ik mag die fleur wel succes vanavond/vannacht!
een kijkje in de nieuwe apple store berlijn. wat een winkel! nu nog rotterdam!!!
waar blijft die harlem shake nou?
er sneuvelde hier eerder vandaag een ei! coen roept steeds papa, oh nee ... ipod, nieuwe kopen
robin van persie is officieel een baas! eindelijk een prijs!
nog even aan de arbeid en dan weer eens ouderwets kijken!
niet voor iedereen
helemaal mee eens! wel jammer dat het tegen zon tegenstander mis gaat
daar ben ik dan echt weer ouderwets ziek van!
veel plezier en succes vandaag heren!
dat is lekker thuiskomen ... pannenkoeken!
lekker wandelen met de hond! fris, maar een lekker zonnetje!
onverwachts super hulp bij het klussen op 1e paasdag!
idd, eerst morgen maar weer afwachten
dank! een avatar van mijn grootste vriend tevens mijn zoon die de prachtige naam coen draagt!
lastig potje! maar wat doet die vormer het goed!
tim alweer 5 vandaag! en wat krijg je dan ... een voetbal outfit
ik hoorde gisteren dat ze in 020 ook een actie starten. neus de neushoorn!
ben wel al eigenaar, maar pas woensdag in huis. heb jij er al een? alles oké voor de rest?
kan niet wachten op de beelden vanavond bij de nos!
weet je zeker dat het niet de kattenbak is?
was toch echt stukken beter afgelopen zondag ...
pffff ... nu al spierpijn! heb je al wat te doen vandaag?
speciaal voor de komende 9 finales!
waar is dat feestje ... hier is dat feestje! coen 2 jaar!
toch wel apart dat jij ineens weer over iets anders schrijft dan politiek en ja, ik ben nog steeds zon applegelovige.
hij is inmiddels weer gesignaleerd op twitter
eet smakelijk!
lol
leuk ook dat denk je dat je live kijkt, zie je op je timeline dat nederland met 53 wint!
het is weer tijd voor de kom op en
van harte gefeliciteerd! mooie prestatie! ik zag gisteren al een trotse papa!
haha, mertens kan vliegen ... go clasie
nog even lekker aan het werk met op de achtergrond cmon boys!
deze moet je zien!
jack op nos in de arena heb je niet door dat het sneeuwt ... jack, lees eens een krant!
dank!
nee, niets gemist!
ik hoor net dat van rhijn de oorzaak van de sneeuwlekkage is ...
“@havensteder reactie op tweets mevrouw in vreewijk zonder kachel op ” deze dan ook maar rten?
wat? sneeuw door het dak ... ik zeg reglementaire winst voor 010
echt een neus ... tweets versturen als de voorsprong lekker comfortabel is
ja dat ook nog joh ... pffff
zag indi ook aardig in de fout gaan, maar die heeft gelukkig wel de kracht om dat met een sprintje te herstellen
vandaag exact 8 jaar geleden ... de kuip, rotterdam ... geen 2000 man, maar wel een onvergetelijke dag met een fantastische vrouw!
wow! 2000 man op de laatste training voor de enige echte klassieker! op naar een mooie uitslag!
keycard super idee! alleen nog de bugs eruit en ik ga de app gebruiken!
hij is bijna klaar, maar wil het vooral erg lean doen!
lekker aan het werk, maar vandaag met hulp van de kleine man!
zie ik nou boven ted de tanden van les wallace?
bam! en zo de hele wijk zonder stroom ... lang leven de opgeladen en
4 wedstrijden en nu al 3 verrassingen … dat beloofd wat
feyenoord geen doelpunten, kist uitgeschakeld op ...
oh ja voor de echte liefhebbers gaat met pensioen, na 34 jaar optellen en oproepen. ook daarvoor
kan niet wachten tot de in februari, maar nu eerst maar eens slapen ...
balen, balen, balen ... maar als je het 16x doet, dan kun je er wel wat van!
ongekend ...
en dat is 2 ...
wij zitten er weer klaar voor! come on make us proud!
hoe leg je een mannetje van bijna 2 jaar uit dat het vuurwerk voorbij is? hij loopt al heel de ochtend teleurgesteld van raam naar raam!
coen staat met grote ogen voor het keukenraam naar de buurjongens te kijken! nu al dol op vuurwerk!
scheelt niet veel, maar ik ben er nog! ben morgen waarschijnlijk wel wat later
mooi moment om het hondje mee naar buiten te nemen! daarna de volgende nler
jaaaaaaaaaaaaaaaaaaaaaaaaaaaaaaaaaaaaaaaaaaaaaaaaaaaaaaaaaaaaaaaaaaaaa
dat was matchdart 1 .... pfffffffff hartkloppingen
held! geen woorden ...
lekker hoor ...
spanning stijgt ... kom op mannen, op naar een all dutch final
van gerwen gewonnen, bloeddruk langzaam weer normaal en de desperados zijn op ... mooi moment om naar bed te gaan.
jaaaaaaaaaaaaaaaaaaaaaaaaaaaaaaaaaaaaaaa
ik word gek! wat een pot!
wat een moment ... ongekend!
wat een shanghai 20 was dat ... en het moment ook!
geen woorden voor ... wat een darts! tot 2x toe op weg naar perfecte leg
vooral het missen van de dubbels maakt het erg spannend!
en alvast 10 voor! yes!
we zitten klaar voor de match ... zet hem op
en dat is 2!
zo ... en dat is weer een kwartfinale! op daar de volgende
niet lullen, maar pelle
mooie tune voor die jaarlijkse gayparade
“@terencekongolo1 sinds kleins af aan ”
lees ik op mijn timeline mooie verhalen over een top spelende gino vos, zit ik op rtl7 naar een interview van co te kijken
effe boompje zagen met bij de wouwse plantage
heel havensteder aan de mac?
mooie opening zojuist.
zou dickie de kerst wel halen bij p$v ...
en zo leg ut!
slapen? knutselen met php en jquery zul je bedoelen! maar dat wist je waarschijnlijk al youve got mail!
zeker weten ... hebben we toch allebei nog een goed weekend
jij reageert toch ook pas als het gespeeld is?
veel plezier voor de kleine zoeligans bij die mooie club en jij natuurlijk veel plezier in die mooie stad!
ik neem met alle liefde jouw plaats in!!!
wat een wereldtitel op ad.nl dortmund geeft voetballes in de arena
het is stil in wijk bij duurstede, stil in wijk bij duurstede!
met de benen op tafel languit topdarts uit nederland kijken! v.
deels via rtl7darts.nl maar wordt ook uitgezonden op televisie morgen ook hoop ik
op naar een nederlandse finale en eerst nog even de halve finales
bizar! uitgemaakt voor dronkelap … maar heb je eigenlijk een beroerte gehad aan de oche
trijntje doet me denken aan journey kaagman uit de idols tijd
samen op de bank wachten tot de trijn voorbij komt ... hoop niet dat er blaadjes op het spoor liggen!
ongekend ... wat een niveau! 8 4
yep ... heb jij wel een beetje verbinding voor een livestream? straks van gerwen taylor!
vandaag op het programma hele dag foute uur op aan ... en gas op die mac!
en dan gooit je zoontje uit het niets zijn sokken in de wc pot ... dus!
mama is de deur uit en coen kijkt aandachtig naar hele grote vrachtwagens met papa
vacatures voor nieuwe nederlandse apple stores duiken op
wel 2 toch? voor iedere hand 1
dat wel, maar hij kan het hebben als finalist
oké ... is officieel een kopie van al die andere talentenjachten
hier het beeld vanuit ict!
ja remco, stukken beter!
kom op boys!
vreemd! net nog even gekeken, maar wij hebben dat probleem niet. google levert ook niet veel op ...
frankie doet dikke tranen ... iets met onterechte pingels in de kuip zucht
geen commentaar ... ik wacht rustig zondag even af!
apple pakt uit … 20% dunnere … 80% ja echt dunnere … en natuurlijk de …
aan het werk met de op schoot op de achtergrond draait de keynote van apple via …
volgende keer wel ff de benen scheren voor de foto
ac milan ziet in martins indi ideale versterking
we zijn er na 1,5 jaar toch nog ingetrapt huilen en krijsen als een gek, maar eenmaal uit bed volop praatjes!
laatste stuk op rtl7 via de ipad! koks helaas voor niet live uitzenden
lol! miste alleen nog witte zakdoekjes ...
en zo hoort het! zeiknat worden en gras ruiken
vol verbazing kijk ik hoe mijn kleine maatje anderhalf jaar zijn 5de bammetje naar binnen werkt!
doe mij maar een emmertje tijd!
floortje wordt 2e achter ivar, hoor!
bedankt meneertje van busje dat je zo goed gas kan geven! volgende keer graag op de afgesproken tijd even stoppen bij de halte!
“@010uitspraken honderden mannen vandaag uit de kast ” let even op de foto!
“@feyenoordkrant guidetti ooit speel ik weer voor feyenoord en thuis tegen ajax zal ik de ploeg in de kuip steunen”
wel een erg laag tempo hoor ik op rijnmond?
ben aan het luisteren.
niet lullen, maar 10
“@feyenoordkanaal 21!” en zo hoort het!
boetes voor wangedrag, prima! maar 10000 euro boete voor een spandoek met de tekst uefa mafia
klassiekertje dan maar?
oei ... half uurtje langer ballen!
“@rinuskroon kom op kongolo, nog 1 en je hebt een hattrick!! lol
sorry ... ik heb mijn iphone al wat zachter gezet ... sssssst
stuntje in de maak mannen?
goed te vinden ook dat feestje
binnenkort dus ook clubcard verplichting, verplichte buscombis en meldplicht bij feestjes via facebook
gewoon de rest van het verkeer volgen
wat een topclub ben je dan ... exact 11 supporters mee naar een el duel
geniet ervan ton!
lekker gevoel dat ik weer zon klein appletje heb kunnen reanimeren
“@onemorething nieuws wereldwijde storing imessage ” vandaar dus
leuker kunnen ze het niet maken, moeilijker wel!
goed om te zien dat alle neusjes zich weer prima vermaken vanavond!
moet ie dan gvd zijn klauwen eraf zagen ...
dat is een paar dagen te laat
mannendag is officieel begonnen! nu eerst brandweerman sam ...
volgens mij ben je wel gehacked! zag net nog een klaagtweet over de ipad ... die kan nooit van jou zijn gekomen
mooi hoor dat kunstgras …
uhhhmmm … welke activiteiten had jij gepland staan vandaag?
gelukkig kan koeman goed schaken!
wel een mooi debuut ...
bam! op naar de interviews ...
lol
en die belgen maar zingen waar is dat feestje, hier is dat feestje!
ik vrees de turken!
deze buschauffeur kreeg vast gisteren ook een lintje ... goud op de 15km stoepranden raken!
coen en zijn de hele dag onafscheidelijk!
‘nieuwe iphone vanaf 5 oktober in europa’
lekker in het zwembad!
de eerste van de broertjes heeft al 3 punten op zak … nu de tweede nog!
lekker in het badje!
jij wint in ieder geval geval geen medaille op de 20 m2 schuren en verven!
hebben jullie de reactie van de burgemeester al gezien? ik zeg 20 voor de burgemeester!
pffff ... breaking nieuwsbericht gaat over 020 en dan ook nog vertongen op ik stop er maar mee
zuur, ja! balen, ja! maar wat een geweldig mooi feyenoord heb ik gezien
helden! nog geen doelpunten, maar nu al trots ...
jemig ... die ken der wel wat van!
haha, wat een timing ook voor zon nieuwsbericht
en dan ook de reserve iphone niet aan de praat krijgen ... dubbel snik
vreemd, huldiging 020 nog voor de wedstrijd is gespeeld! of zijn dat geen supporters in de binnenstad?
windows! ziet het verschil alleen niet
luc, welke wedstrijd speel jij vanavond? en welke competitie is dat dan?
en weer even rustig ademhalen ...
hebben ze in oekraïne alleen vierkante televisies? vreemd kijken zon vierkant beeld!
ajax? is dat het inmiddels beroemde clubje mannen met een vreemde motoriek en niet erg sportief?
eredivisielive … check, bier koud … check, het heilige shirt … check! we zijn er klaar voor!
ik kijk mijn eigen ... niet echt afgetrainde sporters, maar wel topdarts van een zeer hoog niveau!
ron bedankt voor alles! hoop niet dat je over een tijdje spijt hebt als je feyenoord ziet schitteren in de poulefase van de cl!
voor het eerst bij feyenoord! kan niet wachten tot het zover is ...
bedankt voor een zeer slechte update!
bam! michael van gerwen gooit de perfecte leg op het
lekker weertje ... beetje jammer van die file op de
daar zijn onze vriendjes weer ...
dacht meer voor de toekomst! jaartje excelsior en daarna naar de kuip. tegen die tijd zit clasie bij barca!
feyenoord is 30 miljoen rijker! wat kost die messi eigenlijk?
zaterdag adobe dag! beetje en morgen weer verder. nu eerst en vanavond
jong geleerd, oud gedaan ...
wie is die man? deze foto is vast 104 jaar geleden genomen?
vandaag exact 104 jaar geleden ... feyenoord rotterdam!
beste regen ... de plantjes hebben nu echt wel genoeg water. moet jij trouwens zelf niet eens op vakantie?
training voor de triatlon?
flinke dagwaarde waarschijnlijk? vergeet je de inboedelverzekering niet op te hogen
klopt maar heb je de foto wel gezien?
en dan heb je ineens visite!