vanaf 01 sta je niet op te letten en dat duurde tot de 21. rustig op zon veld hobbelen terwijl dat al…
weer punten verloren en let op volgende wedstrijd jones onder de lat, toornstra in de basis en gio heeft er vertrouwen in.
vilhena met een flinke kans, helaas moest het met links. oh wacht, die gozer is links.
bingo! fout tapia, goal jorgenson, geen inzet en blunder jones! elke wedstrijd dezelfde bingokaart. trek je conclusies!
geen btw op bedrijfsfilms!
verleden?wie is er nu kampioen dan?het is heden.we zijn kampioen tot iemand anders dit wordt.and…
ook geen drie zoenen geven in het nieuwe jaar hoor, stel je voor.
waarom het bij feyenoord vaak uit de hand loopt in europa league? hierom dus!
komt erin!! we gaan nog winnen!!
he gio! haal die amrabat er eens uit!!!
was dat maar de stand 😉
blunder na blunder na blunder. dat zijn amrabat en jones in 1 zin.
argument dat het in privé sfeer plaatsvond is ook op niks gebaseerd. lex immers deed zijn ber…
als je goed kijkt slaat ie in op de boom erachter. lucky her.
nog geen 10% kans.. maar we komen gelukkig wel in de buurt van de winter!
tijd om conclusies te trekken, gio.
nee, veel wind. 😉
bizar! nu een categorie 3 op weg naar zal daar als posttropical storm of cat. 1 orkaan…
westland? man, als bleiswijk westland is, hoort schiphol bij rotterdam..
zegt dat laatste plaatje ook dat hij als cat.1 orkaan over ierland trekt?
lekker alles in dat locker room hokje plaatsen. deze humor heb ik altijd op de ban…
juist. het is 2017. klaar dus met al dat zielige, ik voel me aangevallen gedoe.…
coolsingel sowieso niet die wordt verbouwd tegen die tijd. 😉
deze ook op spitsbergen.. 5 jaar geleden kwam de gletsjer tot waar ik sta, op 400 meter van de glet…
i just uploaded “het huwelijk van barry en wendy!” to
i just uploaded “love&ampmarriage beurs de beurs van loveshots!” to
ja jezus, haal die diks er vanaf en laat m nooit meer spelen. hoe kan 1 man zoveel verzieken voor zoveel mensen? zo dus.
dat is ieders eerste vraag, toc…
wat denkt john van vanavond?
ofwel wie kan dit beter maken? 😬😬 inderdaad niet zon lekker filmpje. ongemakkelijk gemaakte nonchalance.
overigens is de grading van hhb wel een stuk beter dan die van gbb..
hoe slecht wij ook presteren, er is een club die nóg slechter presteert!
ok. dan gaan we nu even tellen hoeveel keer jullie amateurs of jupiler league clubs hebben geloot. 😉
yep. alleen directe rode kaarten gelden voor beide toernooien. 2x geel geldt alleen voor toernooi…
dát is het echte legioen! als je 2x op rij verloor en nu bepaald niet de sterren van de hemel speelt heeft het team je nodig en komt support
schijnt een direct gevolg te kunnen zijn van orkaan katia een week of 1,5 geleden.. bizar wat er allema…
ben je dan een enorme klootzak zeg, zo je team benadelen.
we spelen verdedigend wel echt heel zwak. als psv even aanzet is het gelijk levensgevaarlijk. 😔
kramer. man man man, gio leert niet snel. was al lastig maar is nu alleen maar lastiger om te winnen.
over 82 jaar gereed. zorg ervoor dat uw internetverbinding niet onderbroken wordt tijdens het updaten.
valt me op dat ie lang heel sterk blijft, zelfs zo ver naar het noorden..
bijna een oog.. 😳
bizar! door orkaan irma gewoon even tijdelijk een heel stuk oceaan weg. ongelooflijk wat die natuur allemaal kan…
dit gaat fout. beschamende 2e helft. met een houding als ajax op het veld lopen van die hebben we wel even binnen.
het moment dat ik mn opa bel om te zeggen dat boëtius net de 03 maakt en hij vraagt ze spelen toch uit??.. zegt genoeg.
ga staan voor de kampioen! en tot nu toe spelen ze ook als een echte kampioen!
en het giet hier alweer! flinke bui met zelfs 2 klappen onweer.. komt nog wel een aantal mm bij op deze manier. 😉
dit is toch inmiddels wel een beetje oud nieuws of niet? straks adouit en je kan het verhaal wéér plaatsen.
je was me voor..
ik heb 3 jaar geleden zonnepanelen laten leggen.. daar wil ik ook graag nog 2500, van…
veel goedkoper? paar staten verder is hetzelfde als vn…
nog onbetaalbaarder als je huis naar de klote is nu.. als je iets…
verzekerd zijn niet..
met hem speelden we al met 10 man, spelen we na het rood van strootman dan nu met 9?
op het veld te zien worden er op meer dingen bezuinigd vandaag..
dat zit er dick in!
janssen verliest zelfs het duel vn mn oma van 94 met 2 kunstheupen. dan moet ze de rollator of stok laten staan voor eerlijk duel.
he wrm zit ik naar een fucking oefenpotje te kijken van frankrijk? had je niet beter het nederlands elftal uit kunnen zenden?
als ze 1 keer versnellen zijn ze 2 nederlanders voorbij alsof het geparkeerde tankwagens zijn.
heerlijk zon ringlight. werkt lekker als we videoclips draaien.
erin.. ben blij dat we al met 30 voorstaan.
wanneer is de loting voor de wil graag weten wie gaat lo... oh wacht! 😌
ok, dus het zijn de kampioenen uit de top 8 😉 wel apart dat de andere kampioenen z…
wat is feyenoord dan? 🙈
was een snel verhit vechtpartijtje dan 🙈
das nog eens een dik filmpje!
3 punten die we in het kampioensjaar niet haalden! 🙈
kuipers open je ogen! 2 pingels door de neus geboord.
heeft een goed punt!
vol museumplein vanavond! althans, dan moet de supporters nog wel even dwingen te komen natuurlijk.
tot vanavond! 😁
pelpinda draait de rolletjes even om. gek ventje.
wegtrekkende bui nu boven den haag. mooie lucht met zelfs beetje mamatus!
gaan wij nog wat merken van de restanten van gertje?
laten we in de file dan ook aftellen en tegelijk 120 gaan rijden!
die stengs man.. heb je de herhaling gezien? gruwelijke blessure. bah. zonde van zon talent..
winnen of verliezen is sowieso altijd de waan van de dag. niks populistisch aan. jij zal…
dit is een typisch voorbeeld van juist gebruik van videoscheids. balen dat het in ons nadeel was,…
voor het grootste deel gewoon jouw schaal!
het is hier 42 en in de rivier is het toch een stuk lekkerder dan die 22 bij jullie 😉
beste amsterdammer. sta je daar, als rotterdammer. gelukkig geen diversiteit meer.
we lagen op 300 meter van de gletsjer.. ervan uitgaande dat ze het misschien iets overdreven gaat h…
afschuwelijk.. veel sterkte voor iedereen..
spitsbergen eergisteren. 2 jaar geleden kwam de gletsjer tot waar we de foto namen.
toen die van ons 3mnd plots 4 nachten doorsliep en de nacht daarna weer 2x kwam..
als feyenoord supporter zeg ik ook dat dit onbegrijpelijk is. geef er gewoon 10.000 man, leuk feestje van maken met zn allen.
toch apart datie dan al in roma shirt in rome loopt, of zie alleen ik dat zo?
met jouw postuur kun je rob wel even helpen toch? even de ring in met die rico!
mensen, dit hoort ook gewoon bij het boekjaar hoor. inkoop en verkoop van producten. gewoon we…
of klagen over de mensen die klagen over de mensen die klagen over de hitte. 😬😎
voor het eerst hard aan het werk. kijk m trots zijn.
tijdrekken wordt juist makkelijker, je bent immers eerder klaar. ploegen die zich ing…
jij gelooft dat wij het de komende 18 jaar niet word…
jullie zijn op dit moment harder op weg naar die 18…
ja, daar moet ik ook hartelijk om lachen. helemaal niets.
pech dat hunnie geen 11 tetes hadden dan.
ik snap geen houtje touwtje meer van dit hele verhaal.
lijkt te activeren in de verte.. regen en onweer komen eraan. uiteindelijk.
ondertussen even een verblijfsvergunning geregeld voor m. een echte verrijking voor onze maatschappij.
in140 ze kopen daarmee een beetje zeggenschap, maar met 51% heeft feyenoord altijd laatste w…
zucht. weer zo één die niet weet wat aandelen betekenen. steve jobs heeft apple verkloot, wa…
godver wat zonde. heeft feyenoord van een flinke zooi teruggebracht naar een stabiele club mét landstitel! e…
maandag nog gedraaid en morgenochtend vroeg nog even. veel plezier! 😉
ik ken een hele goeie
ja, dan kun je op je kop gaan staan maar dat helpt helemaal niks!
moet je kijken. tsunami in nederland door drukverschil door onweersbui. echt hele flinke golf. kikke!
alleen maar goede ideeën hier. 😉 zoek je nog een goed productiebedrijf?
guitig fototje 😉
ben ik de enige die geen filmpje ziet?
eosta moet zelf ook eens meer filmpjes gaan maken. hup, videomarketing en branding kan geen kwaad!
level 2 estofex. gaat het vanmiddag dan eindelijk serieus knallen?
je hebt 1 van de mooiste banen ter wereld! 😉
lucht wordt hier wel steeds onrustiger. flinke stapelwolken schieten als paddestoelen de lucht in.
begon met waaien. maar alles viel uit elkaar. 3 druppels gehad en wat donder in de ver…
er is niks meer van over. 3 druppels. zon komt alweer door. wel goed vochtig voor vanavond!
in torhout, be dondert het al flink in de verte! zit er klaar voor. 😁
meer dan 20 doden en 60 gewonden? wtf. dat is geen ontploffende ballon kan ik je vertellen.
extra nos journaal binnen paar minuten!
het gebeurt vaker dat hoek van holland het warmste plekje is, terwijl het pal aan zee ligt. enig idee hoe dat kan?
partijen als en sp, die zogenaamd iedereen gelijk vinden ondanks een andere mening, weigeren te praten met oa om die reden.
natte oogjes en kippenvel! wat een held!
geluidsman is óók een vak. man man, dit is gewoon ad. laten wij als cameramensen ff een krant maken ofzo. 😒
heb zelf 2 dochtertjes, kan je vertellen dat 1 dag luiers hetzelfde kost als een jaar de pil. 😂
ohja. je moet de pil zelf betalen in nederland. dus het is goedkoper om 5 kinderen de onderhouden dan de…
de 5e op komst. dus, wat moet ik doen? nou, wat dacht je van misschien stoppen bij numme…
😂 huilie huilie. heel nederland heeft een hekel aan jullie, dit is de reden. armente…
hahaha 😂 gelukt door vilhena meerdere malen onterecht te schor…
wel met kleine letter! alleen belangrijke dingen beginnen met een hoofdletter. ajax. 😎
lijken nu al af te zwakken..
kijk ff om er iemand tussenzit! dit tuig hoort niet bij een mooie club als
amsterdam probeert op deze manier olie op het vuur te gooien voor zondag. sensatiekrant.
ze zijn veel getest en megagoed bevonden. verliezen nooit verbinding en kli…
échte feyenoorders zijn altijd trots. zondag de klus klaren in eigen huis!
met een s. maargoed. er is niks over, sterker feyenoord wordt gewoon kampioen volgende week.
dan heb ik de reden gevonden waarom ik het nog niet heb gezien!
ok ok. andere vraag hoe groen zijn jullie? want ik hoor uit veel hoeken dat jullie het grijst zijn..
vind sowieso het meer energie gebruiken omdat het goedkoop is niet echt een groene…
ik ben ook klant bij jullie, maar man man, hiermee verlies je klanten. je spreekt een…
kapitalisme of jaloezie?
en kwintsheul! iemand moet erkennen dat dat de eigenlijke metropool van het westland is! we hebben zelfs…
waar is die zomer of zelfs lente dan? 😉
pas in de kuip lijkt te duiden op een week later, maar het gebeurt direct na de wedstrijd voor alle thuissupporters. mooi toch.
1 van de 2 wedstrijden winnen en het is binnen. dit gaat niet meer fout!
kan het nog niet beseffen eigenlijk. ongelooflijk dat het écht gaat gebeuren..!! mn plek op de coolsingel is gereserveerd! 😂😎
ah! toch mooi!? over paar jaar met de kampioensschaal van feyenoord op de coolsingel? dit jaar gaat het gebeuren!! 🎉#kampioen 😁
als feyenoorder zeg ik das toch fantastisch nieuws?! zon voetbalheld wordt op deze ma…
das wel een felicitatie waard! gefeliciteerd! hard werken wordt beloond 😉
huiliehuilie. man man man, wat kunnen júllie slecht tegen je verlies.
is dit eh... wat ik denk dat het is?
leuk programma dat 😬
huilie huilie. man man man, gewoon dik terecht kampioen!
beste weekend sinds hééééle lange tijd! kan het nog steeds niet ge…
yep. justin ook een mooie vrije tra.. oh wacht. geen kampioen!
doodnerveus voor deze wedstrijd. kom op
fantastische prestatie. nu ff niet volgas tegen feyenoord en heel rotterdam kan feest vieren.
hele knappe prestatie, zondermeer! maar het is nog geen prijs.
omdat ze dat al gedaan hebben 😉
ajax maakt niks meer uit als feyenoord alles wint. uit bij excelsior is niet uit. al winnen…
wij staan voor hoor, moed inspreken doen ze in amsterdam, waar ze er inmiddels ook achter be…
ken wel een goeie filmert!
bedankt! afgezien van weinig slaap in de nachten is het weer puur genieten!
alweer 3 dagen oud. welkom saartje!! 😍
volgende keer even lens met stabilizer gebruiken bij op
ongelooflijke wanprestatie. alweer.
niet zo gek hoor. wat dichterbij gebeurt heeft nou eenmaal meer impact op het nie…
nu blijkt dus dat de rest van het stadion mag blijven zitten. beetje bizar ja.
onderzoek naar drugshandel
las vanmiddag dat hij nog niet fit is dan.. toornstra scoort alleen thuis.. en het is op kunstgras. a…
en toch ga je die gozer heel erg missen tegen pec.. 3 punten in de tas!! wat een wedstrijd!
op filmgebied kan ik wel een steentje bijdragen. 😉 succes in den haag!
👍🏻 zal morgen even langslopen. bedankt. 😉
ja, die van mn vriendin. zelfde probleem.
nu gedaan. moet melden dat mn simkaart vervangen moet worden of iets dergelijks. maar heb dit sinds jullie storing begon..
mijn 4g is al een week retetraag. heb alles al geprobeerd hndmatig op 3g en opnieuw opstrtn. enz. wat nu??
veel te laat naar beter horen gegaan. dit had al maanden/jaren eerder gemoeten.
wat heeft praten over het voetbal weer op hoog niveau krijgen als je zón bondscoach hebt.. blind én hans vb allebei weg.
moet ik nu balen van achterstand of blij zijn dat we op deze manier snel van af zijn?
als kuzu gezondheid! wat zegt lijkt het ook wel of hij plots heel zenuwachtig is. trilt harder dan loppersum.
kuzu vindt dus dat je turken hier beter moet behandelen in het ziekenhuis dan nederlanders. die man moet zelf opgenomen worden. hij is ziek.
misschien moet kuzu even nadenken over het waarom. het waarom rutte pleur op zei. pas je aan en je hoeft niet op te rotten.
ik kan de vi wel waarderen nu 😁
belachelijk laag bedrag. ik heb 2 jaar geleden 500, boete gehad voor het vliegen boven fucking grasveld.
moet je voorstellen als je daar dus niet van wint!
coolsingel here we come!!! kampioenen!!
heb het niet over de penalty
higler heeft de instructies van de ter harte genomen. das wel weer duidelijk.
wat begint toch weer onbegrijpelijk zwak en ongeconcentreerd aan een wedstrijd. niet te geloven.
😂😂 inderdaad zeg!!
jaaaaaa!! 😂
rutte heeft als premier gehandeld. niemand behalve kuzu zou dit anders gedaan hebben. erdogan heeft er zelf veel baat bij.
snap ik. maar kuzu neemt nergens afstand van en wil zelfs geen afstand doen van uitspraken erdogan. en kijk hoe het daar gaat.
daar zijn we het dan weer níét over eens 😬
ze hebben nog níks.ik zal het zeker accepteren, ben niet zoals de denkers die even gaan rellen als iets niet gaat zoals gewild
nu nog ff hopen dat we denk straks dacht kunnen noemen.
paniek bij de moeten we straks rare situatie dit, poll tijdens het stemmen. 😳
er wordt nog veel gestemd nu. nog niet gespeeld, wel flink verlies. ik ben blij met maar poll tijdens stemmen is gek!
heerlijk vooral rechts begin van de avond!
mooi he, die spanning! succes met de pvda, ook al is het niet mijn partij het is 1 van de echt degelijke partijen.
stemmingmakerij zeg.
kwintsheul andreashof kon ik ook zo doorlopen.
kom er nét vandaan.
nou, mijn stem heb je! succes!
van échte vluchtelingen. economische vluchtelingen mogen direct rechtsomkeert maken. zonder pardon.
ik ga voor vvd.
wou net zeggen, vind asscher juist vrij zwak en herhalend overkomen.
de mijne ook!
sylvana.. 😉🙈 pvdd.. zijn er toch al 2. 😬
miste alleen nog eben beschermhoeske dromheen.
bananenpannenkoek!!
ik zat voor zn vader. die man kon zn geluk niet op. wij ook niet! 😎
2 mooie goals!
enorme turkeien.
benieuwd wanneer zich hiermee gaat bemoeien..
politieagenten krijgen in dit geval toch teveel op hun schouders. zelf beslissingen maken kan niet, want diplomatiek..
dan kan mama met papa zn potlood aan de slag.
knvb maakt zich totaal belachelijk zo toch? kijk naar overtredingen antonia en heraclied volgens mij.. die hebben 2 wedstrdn. wtf
mijn favoriet!!
wij zagen ze in vancouver een halfjaar geleden!! schitterend!
alweer bijna 2 jaar geleden maakten we deze film voor check wat een megakassen ze bouwen!
en,.. in rotterdam nu een andere cover?
heel frustrerend. heb er echt de tyfus in de afgelopen jaren, elke keer als het lijkt alsof.. worden het maar 3 dagen frisjes.
gaat al jaren zo
maar vodafone.. jullie zijn hier toch niet vanaf oktober fulltime mee bezig? er kan toch wel wat meer tempo in?🙃
wat gaaf! gefeliciteerd en geniet ervan! ik mag ook weer over 8 weken.. genieten!!
ach, zelfs bij sparta uit zit ik met klamme handjes en trillende benen..
voor de duidelijkheid zijn club heeft zondag verloren van de mooiste en grootste club van nederland! 🎉
theo is een grootmeester in het cabaret. helaas wel voor de verkeerde club.. 😳😎
ik weet wel welke grap, een dat kun je niet zeggen maar meesterlijk goede grap. tranen in mn ogen.
nog even geduld peter, we zijn r al vanaf oktober keihard mee aan de slag. dit komt goed met n beetje geduld.
zucht.. wat word ík moe van die vrouw. diversiteit mn reet. de beste persoon voor die functie. punt.
maar dan met een stem alsofie aan het poepen is..
kun je nagaan hoe lang het al speelt voordat er iets aan gedaan gaat worden..
dit is gewoon zieltjes winnen. nooit een kant kiezen als directeur. maar hij heeft in dit geval wel een flink punt natuurlijk 😁
mét ananas natuurlijk!!
dakje dicht. nonvoetbal.
controleren? je kan toch gewoon regelen dat die man btw facturen krijgt? dan maar helemaal geen factuur, toch?
nou beetje reclame van krijg je cadeau 😉
jullie zijn allemaal even leuk. maar die anderen zijn toch leuker.
plafond was nog nat van het schilderen denk ik.
kunnen ze die lieke even ondertitelen?
lieke loopt alsof ze net een nat scheetje heeft gelaten.
die herman past perfect bij jullie dacht ik! 😉
winnen wij ook eens op zn ajax. 3 punten in de tas en op naar volgende week. wéér een lastige wedstrijd gewonnnen zonder tegengoal.
vanaf 0 sec 😉
kom ik plots tegen op mn timeline. 😂
dan heeftie de volle stadions nog niet gezien.
check onze nieuwe wat vind je ervan?
kramer mag blij zijn als hij in de basis van ado staat, maar hij vindt zichzelf goed genoeg voor basis barca. wegwezen met onrust!
voor het eerst met die kleine in de
straks met die kleine meid voor het eerst in de en er is more sneeuw to come!
wilde m ook op zn westlands schrijven, maar dan was het weer niet te lezen voor de mensen in zeist. 😁
daarover gesproken.. weet de wel dat eigenlijk in duitsland ligt? of.. 🤓#stadionverbod
😂 kopzorgen voor de hoor! enne.. ze weten ook wel dat je gelijk hebt natuurlijk. 🙈
de is erg selectief in het uitdelen van stadionverboden. je kan je ook afvragen hoe zon spandoek het stadion binnenkomt
kijkje in de van de o.a. met de varkenssaté van check m!
eerste nominatie sportvrouw 2017 al binnen? 😉 gefeliciteerd lara! 🎉
ik heb net mn natte rug ook even afgespoeld. dik verdiend gewonnen wel, maar met rijnmond aan lijkt het een stuk zwaarder. 🤓
en dan ook nog 3 punten dichterbij hét kampioenschap! en wát voor punten! 🤗
ajacieden die zich druk maken over een bal over de zijlijn. vorig seizoen vonden ze het nog prima.
vandaar het voordeel signaal van de scheids. maar hij vlagde niet, toch?
wij hier aan zee. moet écht winter zijn willen wij ook kunnen schaatsen.. 😉🤓
op wat plassen en meertjes in oosten was dat zeker winter. in de nét bevroren slootjes in west niet..
echt winter in overijssel. niet hier.
het is gewoon dat het elke keer winter lijkt te worden, wat elke keer teruggaat naar winters.
schaatsen op kanalen en sloten, overdag onder 0. dat vind ik dus winter. dat andere vind ik winters.
winters is anders dan winter. het heeft er weer alle schijn van dat het bij winters blijft, toch?
vorige keer begon het ook zo eerst alles halleluja, toen 1 model wat minde en de rest volgde. 😒
hij schrijft nog géén aanval. en wat doet wnl... media van tegenwoordig. sterkte!
van dit soort kaarten gaat mn hart sneller kloppen, maar tegelijk nog erg prematuur.laten we hopen op échte kou!
door zwakke pv toch meer kans op sterkere hogedruk boven scandi? er zijn een hoop overeenkomsten met 2012, toch?
morgenochtend gaat deze pluim knallen vanaf wo onder 0. 😬🤗
exact dat!
ik wil eerst sneeuw en daarna ijskoude, droge lucht. 😉
deze opbouw sterk hogedruk vanuit siberië is vaak wel de oorzaak van een echte schaatswinter.
gewoon 2 weken op 15cm ijs schaatsen. van koekenzopie naar koekenzopie. 🤓
verschil van mening dan 😉 we hopen op hetzelfde. wordt dít dan die échte schaatswinter? die échte, weet je wel 😁
deze winter zijn ze allemaal raar 😅
ik hoop het met heel mn hart, mr ecmwf trekt zich al langzaam terug. laten we hopen dat die beer komt en blijft!
daar gaan we al.. zal wel weer een dag of 2 rond het vriespunt schommelen. alsof de duivel ermee speelt. pff.
eerdt nog even paar dagen na elkaar zelfde soort kaarten
bedankt dat je er was! super verhaal en heerlijk losjes. thanks!
en dan een week of 6.
laten wij dan bepalen maandag 1m sneeuw, vanaf die nacht kraakhelder en oostenwindje. 🤗🤗
beschamend slecht vandaag. niemand heeft uitgestraald te willen winnen. van te voren al laten lopen. doodzonde.
kom maar gauw weer terug!
is het nog steeds gezellig? 😉
noch? ga lekker in duitsland wonen man. liefst in de buurt van polen.
gaat stoppen.. ondanks dat we het qua standpunten niet helemaal eens zijn was je wel een vernieuwende wethouder. bedankt!
dit is taal waar we wat aan hebben! veilig terug het land opbouwen.
fonkelnieuwe wgns foute bestelling doen wij deze imac weg om plaats te maken voor snellere.
aha. ik verwachtte gewoon geen barcafan op de tribune bij
wat doe je bij die wedstrijd, was meer de vraag 😉
wat doe jij daar dan..?
zit in zweden vanaf donderdag... zal me niet gebeuren dat.. 😅😒
0 of net boven 0 aan de kust.. en dat midden in de nacht. niet best.
bedankt voor je reacties!
ik zie het.. maar is dat genoeg om toch weer flink koud te worden? t is maar een kleine verandering toch?
ik hoop dat je gelijk hebt, want ik heb dat vet al van die schaatsen gehaald 😉😅 had zon goede hoop op een echte schaatswinter.