waar is bas van nimwegen? ik mis hem al een tijdje in de avond..
beste ns! ik ga overstappen op het weekend vrij abonnement. gelden daar ook de treinen van arriva bij?
ja. bij q deden ze een vragen vuurtje met marco borsato 😉😄
luisteren naar de qtop500 van de 00s!
blijkbaar doen ze het beter solo, dan als groep 😊
vanmiddag naar papendrecht voor een leuk bezoek! en natuurlijk feyenoord manchester city!
een serie aan het kijken 😁
dan zal ik je stem wel veel gaan horen!
genieten van het foute uur live vanuit zwijndrecht!!
van mij mag je hoor
nog even lekker rustig op mijn balkon zitten!
ik zou wel willen, maar mijn stem is schoor...
jajaaaaaa!!!!!! het heeft even geduurd. maar feyenoord is kampioen!!!!!! — voelt zich trots bij stadion feijenoord
ben heel benieuwd! 😁
ik ben helaas gezakt.... ik krijg morgen een mail van het cbr... — teleurgesteld
ondanks de drukte toch nog kunnen kijken! en een heel lekker plekje!
is de prachtige mix armin van buuren ergens te downloaden of te verkrijgen? ik vond hem zoo goed!
kan ik de mix ergens downloaden? hij is zoooo goed!! 😉
nog gefeliciteerd!!! hoop dat je een fijne verjaardag hebt gehad 😉
onderweg naar voor de !!
ik heb hem vanochtend gehoord. weer een lekkere hit van clean bandit 😉 met een leuke combi van zara!
lekker de 90s hits hard aanstaan!
of hij nog meer van die super mooie tracks in de toekomst gaat maken!
pleun gaat winnen denk ik!
van harte gefeliciteerd!!!
hey! je doet het aardig goed in de middag! maar ik mis een items zoals winnaar v/d dag.
lekker mee zingen met de van het foute uur!
niet blij
hey! ik heb een erg leuk vraagje aan je. maar dat zou ik liever via email willen doen. je qmusic mail dan he.
hallo q! ik heb een vraagje. ik vroeg me af waar niek van der bruggen is.
ze gaan net zo lang door, als dit feest weg is. en kerst zal ook gaan volgen heb ik het idee...
genieten van de qtop1000!!
ik hoop niet dat de nederlandse die fout zullen maken....
gatver! ik had dit voorspeld maar leuk is het niet... 😢
echt te super gewoon!! heel veel succes!!!!
ik heb 10 fotos op facebook geplaatst
heerlijke track!
eentje heet dolph move, vakantieapp. de tweede verschilt elke keer.
ik ga je ook zeker missen bij q!
heerlijk nummer!!!
bedankt voor alle erg leuke programmas en gezelligheid!
ik las dat je weggaat bij qmusic? wel erg jammer. ik ga je erg missen..
wat zijn je hobbys?
foute uur live vanuit zwijndrecht!!!
swingen en mee blèren!!!
hebben jullie die tracks altijd op voorhand in repeat of niet?
die nieuwe track in repeat of niet is echt zo gaaf!!!
gogogo!!
dan keihard juichen en blij zijn!!
hoi nielson! ik vroeg me af waar je in zwijndrecht woont. want in zou heel graag als dat mag een bakkie bij je komen doen!
lekker lijstje deze week! met vooral aandacht aan de pas overleden zanger prince.
heb ik allang gedaan 😉
super veel plezier!
en gewonnen!!!
vanmiddag mag ik de knvb beker finale in de kuip! ik laat zeker weten via de qapp wie er heeft gewonnen!
nog gefeliciteerd met jullie 4jarig ochtendshow!!!
had het al gelezen en gisteren bij meegekregen..
coole nieuwe single van
ik vond die fileleed grap van de a2 met die 96km echt meesterlijk! jullie hadden me tuk! 😂😂
ik zie nergens 96 km staan.. ook niet in de qapp..
had de track gisterenavond weer gehoord. hij blijft gewoon leuk!
hij is niet echt fotogeniek, maar oké... 😂
heftig! heel veel sterkte!!
yep, in zwijndrecht ook! ik zal we een foto van maken zodra ik er in de buurt zit 😁
genieten van de afscheidsconcert van k3!!
genieten van de foute vrijdag!!
hallo mediamarkt! wanneer komen de fotos van de meet &amp greet van k3 in rotterdam van afgelopen, zaterdag online?
mooi nummer van haar!
yessss! feyenoord heeft ook gisteren een 31 zege geboekt tegen de graafschap thuis!
ik heb op monique smit gestemd om haar op te krijgen in de stem ook op jouw favoriet
heerlijk aan het genieten van de
gefeliciteerd met je 32e verjaardag!
feyenoord wint weer in arnhem met 20!
ik vind nu wel dat jij een van mijn favoriete qdjs in het weekend bent!
ik vind hem wel leuk, maar rustig. niet dat ik van haar gewend ben.
ouch! hoe is dat gekomen dan?
ontroerende bruiloft zo mooi!! 😀😁
kan je vanaf heden enkel nog berichten sturen via de qapp? want dat hoor ik regelmatig. vroeger ook nog via sms 9596.
ik ben zeer benieuwd! 😁
prachtig nummer weer van je!
gisteravond was het erg tof om te mogen zien! en ook the empyrean te mogen aanschouwen! 😁
eindelijk weer eens gewonnen in utrecht met een mooie 21 zege!
gefeliciteerd met jullie nieuwe huis in dordrecht! dan woon je niet ver bij mij vandaag 😁
hallo nielson! ik vroeg me af wanneer er weer een nieuwe track van je uitkomt 😀
is ook weleens lekker! vanmiddag kan ik hem als goed is ook weer lezen 😁
te leuk voor woorden!
kippenvel met
meestal voor een lekker broodje en soms voor de kleine, o.a broeken en jassen.
niet zo, gewoon naar een evenement in rotterdam 😉, fijne valentijnsdag!
hallo! wanneer komt weer terug in de middag? ik mis hem nogal..
gefeliciteerd met 2 meisjes!!
binnenkort de mooie kuip bezoeken d.m.v een rondleiding!!
hopelijk wint zij!
lekker wakker worden met mijn favoriete ochtendshow djs bij 😃
veel succes met de bloemenwinkel jongens! 😉
hey stephan! feyenoord heeft alweer verloren van az met 42. even drie wedstrijden weggegooid...
gefeliciteerd mattie met je verjaardag!!
gatver.... heb er een lang tijdje geleden ook over gedroomd..
nog gefeliciteerd met je verjaardag!!
huh? nog eentje die weggaat bij q? dat meen je niet 😯
rechtsonder als het goed is 😉
wat een mooie kat!
jullie ook!
radio keihard aan en genieten!!
ben je iets later begonnen? ik ben erbij hoor 😉
van harte gefeliciteerd met jullie dochter zoey! en fijne feestdagen en een gezond 2016! 😉
je hebt een erg leuke site met prachtig foto en tekeningen! 😉
hoi nielson. ik zou graag een foto met je willen 😉
heerlijk lijstje, die top 1000!!
volop aan het genieten van de !!
beginnen met de lijst!!!!
vandaag juichen voor feyenoord mijn eerste klassieker!!
fijne vakantie in australië!
beste ns. ik heb zon dagkaartje van de kruidvat gekocht. geldt deze ook voor het bus vervoer?
echt respect! ik begin er niet aan.
go feyenoord!! win van 020
feyenoord wint met 31 van az. woensdagavond de bekerkraker tegen die neusjes 😛
ik ga voor je juichen in de kuip! feyenoord az 😉
heb je nu voordeel aan de regen 😛
ik ben zeer benieuwd!
feyenoord gaat dit dik winnen van sc heerenveen!!
verkouden zijn 😕
haha, heb in een deuk gelegen! 😂
35 jaar in die test wordt in geschat!
yay! ik zie de mijne op de foto 😉
heb hem nog op tijd verstuurd, zodat hij morgen of dinsdag bij jou is 😉
zekers, fijne weekend! 😉
ja prima! ik luister nog steeds naar het vernieuwde qmusic.
hallo eva! hoe bevalt het tot nu toe bij 3fm?
om te gieren 😂😂😂
ik wens jullie succes! valt niet mee hoor!
goedemorgen boys 😉
hey feyenoord heeft met moeite gewonnen van de graafschap
kan je ook goed mee wakker worden 😉☺
je deed het zo goed! op naar de volgende 25 jaar!!
dat is niet zo fijn. massage kan al heel veel helpen 😉
wie wint deze feyenoordbattle? ik zeg gustafson
dan ligt facebook en instagram eruit 😕😕
hallo nielson! ik zou erg graag met je op de foto willen! is dat mogelijk?
beterschap niek! hoop dat je snel weer beter wordt 😉
straks even kijken 😃
netjes!
nog gefeliciteerd bas met je 23e verjaardag!
heerlijk luisteren naar de qtop500 van de 00s! vanuit spanje!
van harte gefeliciteerd beide!!
af en toe een fijne massage moet kunnen hé. meer niet 😉
rood natuurlijk
hij klinkt lekker en hopelijk weer een hitje te pakken!
gaaf!!! ik ga hem zeker een keer bestellen
super bedankt voor het toffe en leuke feestje!! en andere!!
van harte q! op naar meer prachtige jaren 😄
begint al goed daar
ik ben er weleens geweest in zon studentenwoning, niet te geloven hoe vies! de ratten vluchten er zelfs nog voor o
hoi lieke, ondanks het slecht weer, lekker luisteren naar jou!
ik kom zeker met een maatje van me!
dat zal toch wel meevallen?
hallo gtst. komt er weer een livestream van het event van volgende week vrijdag?
amsterdam.
mijn resultaatheld! wedden dat jij zelfs roodwit droomt s nachts? de grote 10 jaar quiz via
ik wens je veel succes bij slam fm! 😉
het is ook nooit goed... ik vind het een leuk logo.
ik luister al sinds maandag, en het is een top lijstje
ik ga ook zeker kijken! hopelijk dit je je daar het langst uit
jullie bedankt voor de o zo leuke programmas, acties, spelletjes, de beste muziek, leuke filmpjes en veel meer!
heb er twee jaar geleden mee gezwommen! echt leuke dieren zijn het
wat jullie ook uitzenden qua lijstjes! ze blijven leuk en zit genoeg variatie in
heerlijk aan het genieten van de qtop500 van de zomer!!
geniet ervan lars!
ik heb van je genoten joey!! je mag nog wel een keer invallen
gefeliciteerd
heb er dan ook een staan maar die doet het wel. soms ook niet hoor
hoeveel overuren maakt de politie eigenlijk?
hallo mattie&ampwietze! heerlijk om jullie maandag wee op de radio te gaan horen!!
wat tof!! veel succes
op naar rotterdam!
wat zou je nog meer willen doen in de toekomst?
hoi rianne! wat leuk dat je ook op twitter zit
dan zit een collega je heerlijke koekjes te geven o
hoi joey! ik heb een vraagje. hoe vroeg sta je op als je de ochtendshow tussen 69 moet doen?
ik luister graag naar je! overdag dan hè want ben geen nachtwakertje p
kijk nou, 3 pracht meiden op het strand!
daar zou ik het wel van willen hebben overigen p
wat is jullie favoriete boek en schrijver?
groetjes terug en have fun daar
ik moet er nog een aantal op mijn mp3 zetten. maar zeker wel!
heeft gestemd op de top 500 van de zomer editie 2015. bekijk mijn lijstje op
toe maar niek! jij staat er leuk bij met de dames p
echt wel, met die hitte en dan volhouden tot na 2315 tot het donker is o
ik luister zeker mee! leuke locatie trouwens
gefeliciteerd!!!!!
zo gaaf om het thuis op de pc mee te maken!!!
nog een keer helemaal losgaan op de beats van de foute 500!
dat wordt flink feesten!!!
ik snap anna wel, maar uit het dan als je wat rustiger bent. scheelt een hoop gedoe.
wat is het toch een toplijstje!!! zo heerlijk aan het genieten van het foute uur
jaaaa!!!! lekker mee zingen en beetje mee dansen met de van het foute uur!!
dat is zo lief van ze!@
ik hoor dat woord er ook vaak in p
oké bedankt! ik wilde het nog even zeker weten.
is de eerste training nou volgende week woensdag of zondag?
lukt het al een beetje?
heel veel succes daar!!
lekker bezig, gaat de goeie kant op!
ja joh, dat is een heel ervaring!
ik ben benieuwd wanneer jullie eens te gast bij qmusic!
doe ik al een tijdje, werkt prima!
hallo stephan! super leuk dat je het qmusic team komt versterken, zodra je overdag te horen bent ga ik zeker luisteren!
ik ben voor een repeat, moest vanmorgen even wennen maar komt goed!
leuk toch? morgen ben je weer van je humeurtje af
klopt het dat het eind volgend week richting de 30 graden gaat stijgen?? o
dat jullie het volhouden die 190 km, echt keigoed van jullie!
ik zou wel willen maar ik woon er nogal ver vandaan p
lukt het al een beetje??
beterschap voor niek! ik luister zeker!
wanneer treedt je op in de feestweek in lekkerkerk?
zijn er nog kaarten te koop voor de feestweek in juni?
het is ook heerlijk wakker worden met bas!
hoi eva! ik las dat je stopt bij q en dat je naar 3fm. super bedankt voor alle gave en toffe uitzendingen!!
dan sturen we jou erheen, dan winnen we zeker
ik heb van je genoten bij koningsdag in dordrecht!!
cool! alsnog heerlijk wakker worden!
ik hou me hart vast met van bronckhorst...
de samenvatting kijk ik geen eens. heb alles aangehoord via rijnmond. nu krijg je sc heerenveen in de playoffs.....
mooi dat je het leuk hebt gehad!
hoe bevalt het eurovisie songfestival tot nu toe?
die zou vast snel de itunes wel binnenkomen!
shit, heb een smartphone en dat werkt er blijkbaar niet mee. dan om 1900 naar op rtl 7 kijken naar de samenvatting.
succes in ieder geval!
ja en of!
ik luister mee!
je doet het al goed hoor, je je hebt de ochtendshow al goed onder de knie van mattie&ampwietze
ik luister zeker mee!
gefeliciteerd!
succes, ik ga het kijken op tv
mijn factuur nummer is 8069827 en mijn adres is burgemeester brouwerstraat 13 3331 gd zwijndrecht
beste ziggo, ik kreeg zojuist het factuur van jullie via email. en ik moet even 98 euro betalen???
leuk hoor! met jou in de hoofdrol moet dat wel een leuke film gaan worden
nog een trouwe luisteraar erbij!
gangnam style! mijn favoriete foute liedje!!!!
de nummers worden steeds beter en beter!
je hebt ze er tussen zitten....
je hebt in ieder geval een leuke naam
kunnen jullie me even vertellen wat het telefoon nummer is van digicontact?
nintendo 3dsoude versie nog
jullie waren echt geweldig in dordrecht! ik heb enorm genoten van jullie optreden daar!!
wow, zo mooi gezongen!
hoelaat komt nielson?
lekker mee luisteren met de qtop500 van de tens!
reclame stuntjes? en nee klopt het is niet gratis ook al zit de naam free erin o
ik ben erbij bas!
lekker die fluitnummers!
hij kiest er wel een mooie plek voor zijn foto!
wat een negatieve reacties hier. ik vind hem wel mooi.
succes! ik duim voor je
ga schaapjes tellen! tot morgen op de radio
jemig zeg.....
erg mooi nummer van hem!
lekker temperatuurtje hier!
waarom doe je hem daarin?
je doet het goed hoor
omhoog!! prachtig weer vandaag
hallo q! wie behandelt als eerst de vragen of verzoeken via de qapp? de dj of de producer?
ik vindt het ook wel een lekker nummertje
van harte gefeliciteerd met jullie 3jarig jubileum! en nog vele mooie jaren erbij!
ik luister zoals altijd mee
wow! lekker hoor, daarna beetje schommelend tussen de 1318 graden.
naar telecom bedrijf genaamd ben.nl
heeft gestemd op de top 500 van de 10s editie 2015. bekijk mijn lijstje op
lekker jongens! hoef je je niet te vervelen!
haha eigendoelpunt van az!
leuk niek! ga je ook stiekem mee zingen?
jaaa hardcore vibes bij!!
ja lekker hé! geniet ervan bas!
lekker he foute muziek!!!
jaaaaa foute vrijdag, dat wordt genieten!!
foute vrijdag!!!!!!!
zekers te weten. ze hebben het heel leuk en goed gedaan!
zeer mooi verhaal en wat een mooie muziek!
de hele dag
nou, joey ga maar vast slapen straks. je eerst keer vroeg op?
en dan straks om 000 na joep en eva. gaat net los!!!!!!!
ja ik ga ook kijken!
veel plezier morgenavond! ik ga ook zeker kijken omdat erin meedoen!
ja, en een heel goed verhaal.
hoezo nederland scoort even gauw 20 bij spanje??
wat staat er op het menu?
heerlijke muziek van uit spotify
11 sneijder!!!!!!!
ik voel een nederlaag aankomen
hier nog een!
arme wij! niet dat cillessen die 01 had kunnen voorkomen o
jammer genoeg 01 voor de turken.
heerlijk wakker worden!
nu lekker luisteren naar monique!!!
hoe gaat is dat!!!!!!
aangezien elke dj het wel weet ondertussen denk, moet het iets leuks zijn!
nog even volhouden
noud aka ruud, gouwe gozer.
ik ga hem vanavond even terugkijken!