even erbij gezocht voor
het duurde even maar ik heb hem
eigenlijk vind ik het niet zon probleem als weer terugkeert in de basis het is topvoetb…
ik was er bij nathalie, best away game ever. ik zat in de voorste bus naar huis die me op de snelweg b…
ben ook supertrots op mijn jongste dame die gewoon in 020achterland standvastig het woord van f uitdraagt
ich werde sagen gehn!
in 2019 is je probleem opgelost
heb je je wel eens gerealiseerd dat je inmiddels het stadion van almere city kan vullen met al je volgers.... p
persoonlijk denk ik dat ricardo 14 is ofzo. en waarschijnlijk ook geen go ahead supporter.......
vervelend he die weekenden zonder feyenoord
jezus spanje dit had op zijn zachtst gezegd ook anders gekund.
vandaag las ik voor het eerst in 10 jaar iets voor jouw rubriek in de krant het prachtige woord ijlings
werkt de aanvliegroute naar lelystad airport niet negatief op de interesse?
overigens ik heb gisteren zakje gegeven aan mensen bij als ze nu beginnen met zaaien ...
hij gaat lekkerrrrr
op uitnodiging van klanten
nou eh 9uur is 9uur, laden die wedstrijd
en je komt niet langs?
je moet volgen!
voorlopig staan jullie al op vier
hallo is tijdens de verbouwing de mooie museumshop geopend?
dat zijn er meer dan in mijn geboortedorp wonen haha
door die tekening lijk je op een lerares nederlands haha
uitkijken nina, zijn soms erg agressief
vergeten de richting aan te passen op het scherm, maar ik kom echt jouw kant op lol
treurmaina, ben je in singapore of thailand. toevallig ben ik ernaar onderweg.
post een foto en ik ga je proberen te helpen
hmm gisteren al gedaan
woo op het heilige gras......#kampioenuh
interessant, behalve hallmark dan haha
ga je helemaal op expeditie naar diemen en dan is het weer niet goed. thank god for teflon schoudertjes.
niemand op mijn werk snapt zit in mn eentje met mn kont in de spoelbak
foto van de week!
gefeliciteerd
burgemeester frederique en eline kent u al van het volkslied en het almerelied maar er is nog veeeel meer talent in
hallo burgemeester komt u op 10 juni naar de jeugdmusical fame in van theaterschool almere? 1/2
bedankt voor het nietinleveren van onze verworvenheden. die regering komt er toch wel.
haha pascal die drank zul je nodig hebben om de pijn te verdringen
het is kennelijk al reuzegezellig op het museumplein.
niks van aantrekken en ontwikkelingshulp blijven bieden
ontwikkelingshulp brengen heet dat en daarvoor moet je soms hun heidense feesten bijwonen, dirty job i know....
hup, naar de buren!
2/2 hoe komen wij erachter waar in de stad schermen worden geplaatst?
mijn dochter en ik zijn van de in almere en willen ons feestje 7 mei in rotterdam komen vieren 1/2
rare fratsen doen alsof je een item hebt over nodigt freekdjonge uit en vervolgens gaat het 15min over freekdjonge
yup kevin volgens sjakie is de tegenwoordig profeyenoord haha
niets is heerlijker dan vandaag de zure tweets lezen van 020supporters
koooome wij uit ????? sorry hoor dit gaat nog even een dagje zo door, maar het moet er even uit
ik ben soms veel liever dan jij denkt
het komt zo wel heel dichtbij allemaal......
gemeentemuseum aalten hahaha heb ik echt nog eens gedaan ook
niet helemaal met je eens. ook ik volg twitter maar er staat onzettend veel onbetrouwbare pulp tussen
onder anderen van mij! make us proud.
het hart van de openbaar aanklager
omdat voor die mensen de wereld ophoudt bij de ring a10
dat was leuk
haha meer sex hebben over alle rassen heen en dan komt alles goed haha goed punt man
geweldig programma. god, wat hou ik van
probeer eerst het rijksmuseum, groot en afwisselend
ja dat was me een trip voor anselm
benieuwd dan van welke slechte trip je anselm kiefer gaat verdenken
ff zonder dollen, jullie zijn geweldig. alsof ik met mn maten naar ben
serieus wat een gelul
ben was geweldig en was de reden dat ik altijd met nummer 5 speelde.
loetje aan t ij
is een sneu dorp. 22000 inwoners en nergens een plek op deze maandagmiddag waar je kunt zitten voor een kop koffie en n broodje
belgen hebben het over het algmn niet zo op ollanders. een weekendje accepteren ze wel, maar echt w…
winnaar bonifatiusspeld dimensio geeft 5000e terug aan gemeente om aan verkeersveiligheid te besteden au
geeft vriendelijk de 5000 euro vd bonifatiusspeld terug aan om aan de verkeersveiligheid te besteden.
signeren in stumpel?
den bosch
yup maar ns reageert altijd zo lief begripvol op tweets en daar was ik naar aan het vissen 😀
gefeliciteerd met de nieuwe dienstregeling. op papier werktie perfect.....#zucht
ik heb het zelden zo koud gehad als nu op het perron van almere centrum mss zijn terrasverwarmers een ideetje?
en toch baal ik daar dan weer van
vreemd nu ibrahimovic bij manu speelt, wint manu niks
jezus we lopen vrijwel gelijk. level 25 45848 xp en 117 gevangen. haha
prachtig stuk
muts hoe kan zoiets nou mislukken haha
en?
toen ik 5 was ging mijn leven in de mist over in eentje waar er blaadjes aan de bomen waren
de van de dubbeldek intercities van is de
het is maar vriendschappelijk xander
toch komen dat soort engerds er meestal wel, helaas
leuk programma maar tetter ajb niet zo door elkaar x ik klapper nu nog met mn oren
gefeliciteerd en ik hoop dat jij het niveau van het blad wat kan opbeuren!
2.0fte schoonmakers per wijk, outsourced aan een derde partij.
gecondoleerd met het verlies van jouw moeder namens jouw fans uit almere. veel sterkte in de komende tijd.
forrest gump dat je dr bent
moeilijk hooguit als er een delifrance is
veel plezier met jullie bierpakket hahaha en bedankt voor t prachtige stuk
omg en dan morgen weer naar almere
bestel een tweede exemplaar on line. mannen zijn van oplossingen 😀
&lt3 ik dacht na over favo rdammers en kwam tot top 3 met martin vwaardenberg en ben ik iemand vergeten?
zo jammer dat ik vanavond niet kan zien. heel benieuwd.
zojuist het perfecte nummer gehoord voor een nieuw koffieconcert van jullie dalida met paroles paroles
het is die regen waar je zo depressief van wordt. straks met een zonnetje komen er vanzelf weer vlinders. geduld.
vluchtelingenkamp van nee in
diep triest, eigenlijk zou er eens iemand een camera onder hun neus moeten duwen en alles laten herhalen waar hun moeder bij is
mijn vrouw is de serie ook al helemaal weer aan het netflixen
haha dus dat was jij met die negatieve vibes op schiphol noord.
haha voor milik for gods sake. jammer alleen dat juist weer ajax er wijzer van wordt
ik wil graag weten welke geur!
avontuurlijker!! geen idee wat ik me daarbij moet voorstellen, of je moet lallende kotsende engelsen avontuurlijk vinden. 😉
waarom ben je dan ook weggegaan uit utrecht? veel leuker dan amsterdam....
niet verwacht zooo druk benieuwd naar
gelukkig is daar twitter
het heet schoolvakantie
geld en levenservaring, ik gun het hem en strijkt er nog 1.5 miljoen mee op ook. beter.
probeer new fysic eens
zoals vrouwen uuuuren over niets kunnen praten, doen wij dat over voetbal
over een blauwe kuif hoe erg ook is iig nog nagedacht. de meeste moeders op het schoolplein hebben het kapsel van mn broer
auw met een overgang naar anita meijer schande
heel goed boek tommy wieringa is momenteel de beste nl schrijver
overgenomen cashcow fransen
deze is leuker
hahaha echt
ongeduldig tot het weer begint, die club zit op mn hart gebrandmerkt
wij zijn het vaak eens
beter in de kamer dan over je heen
ff googele
weet u mss welk mineraal dit is?
het verrast me vooral omdat everton niet per definitie een vooruitgang is
buffy fishowl/maleise visuil in
soms heel soms als ik iets moois zie sta ik gewoon te juichen in mn uppie. dit was zon moment.
spotted wood owl/maleise bosuil in pasir ris
jij wilt niet weten hoeveel verzoeken ik krijg van wulpse rondborstige niet bestaande dames van foute twitter accounts!
dezelfde vraagtekens heb ik altijd bij sommige mensen in trainingspak
wat dacht je van die over vaginale schimmel?
dit is dus typisch een nodeloze vertraging.
waarom wordt de intercity naar groningen vanaf ams zuid achter de stopper gezet? waardeloos! stonden aan weerszijden perron
helemaal niets in
mooie speech en prachtig lied van
wel een mooi betoog!
free&ampberry vieren de bekerwinst met hels kabaal vanuit de kleine almeerse feyenoordenclave
dit gevoel had ik nu ook.
dank je wel gozer, ben er trots op dat je onze kleuren draagt
het feit dat 2008 tot in den treure werd herhaald irriteerde me mateloos
leuk met zn allen songteksten van prince plaatsen
bedankt voor het aanbod, heb inmiddels de zaak al afgehandeld.
gaat het niet om, fouten maken kan. geen oplossing aandragen is ander verhaal
dus ik moet moeite doen? het is een pakket van een meter hoog.
nee het is een gedane zaak en ik wens niet getutoyeerd te worden.
waarom zou dat nu ineens wel kunnen? omdat ik het tweet?
wat een afschuwelijk bedrijf is een product verkeerd leveren en absoluut niets willen doen om het op te lossen.
helemaal eens met vrije keuze om niet als te registeren maar dan ook consequentie aanvaarden en er zelf geen gebruik van maken
zou het helpen om er dan maar één grote gemeente van te maken?
ik heb mijn mandaat in 2012 aan gegeven om die beslissing voor mij te maken.
in 2012 gaf ik mijn mandaat al aan een volksvertegenwoordiger om deze afweging voor mij te maken
ik wist dat verslavend zou werken zou ik zeggen
waren dat wel mannen?
psvers madrid, echt? kijk, mijn stijl was dat ook niet maar ik ga niet voor de bühne meehuilen met de wolven
is dat gebrek aan communicatie van en niet gewoon typische misplaatste
jansma kom uit die kont van natuurlijk is oranjewaardig
nooit gedacht dat ik zou zeggen gelukkig is er sbs6
kaarten zal wel onmogelijk zijn. had graag met mn dochter van 12 gegaan. diehard feyenoorder in almere tussen al die anderen
en toch zit er na gisteravond een zonnetje in mijn brein
precies wat ik ook dacht vanmorgen
working
was jij het die me bijna van de sokken reed bij den treek?
volgens mij blijft zij mooi ook al wordt ze 80
vanaf het perron zie ik elke ochtend een vrachtwagenchauffeur zn dochter afzetten. zwaait nog even lief.
ook bij mij is gunfactor gio hoog maar eerlijk gezegd heb ik liever drastische maatregelen die tot verbetering leiden
uuuhm had jij niet net je rijbewijs?
en terecht, stelletje mafkezen
doe je best is alles wat we vragen succes
ik vond uw gedicht over de pop in de arena wrang maar mooi de spijker op zijn kop
zondag het matinee concert van met gastoptreden van
security/suppoosten ajax vonden het nog zon leuk gebbetje, zon vermeerpop met strop bij de poort van de arena
andersom had clubcultuur van de door de supporters gegijzelde club dagenlang het nieuws beheerst
andersom was de wereld nu te klein, nu is het waarschijnlijk een actie van een eenling en geen echte ajacied
prijskaartje?
harhar volgens mij doe jij goede zaken. terecht ook, je maakt hele fraaie dingen.
zijn er ook vrouwen in nederland die van houden? ben er nl nog nooit eentje tegengekomen.
haha moest aan westworld denken. die film heeft me in mn jeugd echt bang gemaakt.
deze is echt mooi
eigenlijk was 020 tot nu toe de makkelijkste tegenstander
op is die wedstrijd helemaal niet slecht hoor. lekker spannend juist. radio beats tv any time.
pff ik zou een nachtje pakken als ik jou was
gefeliciteerd hoor, genoten van je gastoptreden in breda een paar weken geleden
je mag mijn dvdboxen van house of cards lenen
wie heeft toch ooit besloten dat een afdeling managen vooral uit heul veul papierwerk moet bestaan
dan ben je niet de enige!
kan niet wachten tot we jouw meischema van de phantom hebben
terwijl de golven de molenkade/stellendam verwoestten, redde mn ma mijn opa uit het ondergelopen achterhuis
triest genoeg hoor maar pff hoe vaak ik al in mijn leven niet door een hersenloze met de dood ben bedreigd en klaar
en daar vertrokken ze met 7 studenten/kanjers uit die groots werk in azië gaan verrichten.
valerie van amy winehouse haha
het zonnetje scheen en oa deze roodkeelduiker liet zich zien
zon mooie zonnige vrije dag mag niet onbenut blijven. op naar de zuidpier van ijmuiden dus.
dat gevoel heb ik nu helemaal niet het voordeel van de neutrale toeschouwer denk ik dan maar
je hebt gelijk wout
niet mee eens, mike, was helmettohelmet
pfff als dit de superbowl was, was von miller absoluut de mvp
haha zou dat mogen van jou
heerlijk als op één avond zowel de seahawks als de steelers eruit vliegen
zon wedstrijd als was het nachtje doorhalen meeeer dan waard.
nachtje doorhalen vanwege zijn er nog meer mensen
wij waren er ook vroeg klaar voor, een uur in de auto. bedankt voor het prachtige concert!!!
wij waren ook vroeg, een uur in de auto. bedankt voor het concert, we hebben genoten!!!!
na de van vandaag is door mijn collega en mij officieel bevorderd tot het
wat gewelig om te zien hoeveel moeders er op jouw facebookpagina posten. namens hun zoon yeah right hahaha
gelukkig wilden mijn ouders het nooit voor me kopen, nooit gedacht dat ik daar nu blij om zou zijn
o en ik haat dat nummer al sinds forever uuugh
bengals spelen voor de afc seed morgenavond. benieuwd
een tatoeage van pjipje? dat moet familie zijn!
bij mij in almere maar precies waar is dan nog een vraagteken
in een dorpje hier ver vandaan, woonde een meisje t was net of ze licht gaf
dit zijn de kanjers die assepoester spelen in de glasbak 1927dec. voorstelling uniek in almere.
dit zijn de kanjers die assepoester spelen in de glasbak 1927dec. voorstelling uniek in almere.
benieuwd naar de kanjers die assepoester spelen in de glasbak tussen 1927 dec? kom ook met het hele gezin! pls rt
dank voor de rt veel van deze kids heb je pasgeleden een workshop presentatie gegeven. kom je ook?
hey ali, kom je ook naar de leukste familievoorstelling van almere rond de kerstdagen? make us proud!
unieke familievoorstelling in almere rond de kerst pls rt
unieke familievoorstelling in almere rond de kerst pls rt
unieke familievoorstelling in almere rond de kerst pls rt
unieke familievoorstelling in almere rond de kerst pls rt
unieke familievoorstelling in almere rond de kerst pls rt
unieke familievoorstelling in almere rond de kerstdagen pls rt
zo herkenbaar
niets ten nadele hoor maar het lijkt wel of jouw hele dagindeling om de pietendiscussie draait
bengals hadden hun eerste pick6 van het seizoen ook lekker x jammer van de jags
het is rustig aan het tweetfront terwijl er zo waanzinnig veel interessants te melden is over gemeente en dmr
hebben jullie overigens dat waanzinnig schitterende einde van ravens vs browns gezien
heel lekker!
duuh lees nu pas dat het een ouwe tweet is
inderdaad heel vervelend, fantastische speler. is nu tyler eifert de beste te in de nfl?
hahaha mafkees! maar ga vooral zo door.
dinertip het is vandaag sint pannenkoek
het ergste van de teleurstelling over is dat uiteindelijk je je er helaas altijd bij moet neerleggen. monopolie.
ik vond hem voor de packers anders ook pijnlijk op lambeau tegen de bears
dit biedt ruimte tot het maken van lullige opmerkingen
zie ik nou dat jij genomineerd bent voor dom bontje 2015? foutje toch? alsjeblieft alsjeblieft......
mee eens maar de symptomen waren er al even. met een l in arz komen zelfs die vervelende stoolers weer in beeld
haha heb jij een wedstrijdje gemist ofzo
sinds 1990 stem ik altijd d66. boor me aub mijn broodnodige belastingvoordeel niet door mn neus.
volgens mij is heel vrouwelijk nederland verliefd op jou geworden na vanavond ben zeer benieuwd naar jullie film
als je moe bent, gebeuren dat soort dingen wel eens. wat dat betreft is net een mens.
trouwens mooie w van de jags in baltimore. bortles gaat steeds beter.
ik neem aan minimaal 1 artikel per week?
thanks mike, free is niet erg, schept ook minder verplichtingen.
bepaalt de redactie dan welke wedstrijden? ik weet bij veel meer van afcn dan andere div, maar op zich zie ik alle wedstrijden
die vacature voor schrijvers is free lance neem ik aan? hoveel kopij wordt gevraagd en als ik bijdragen over nfl wil geven 1/2
oh shoot gisteren de eerste gemist. mss is jacks programma wel reden om toch bij te blijven. suc6 jack
er kwam bij rex na afloop nogal wat spanning vrij haha
nee deze keer gescheiden
k3 zoekt k3
hildebrandts glansspreeuw. ben je in de dierentuin of in afrika?
uuuhm uitgestorven in leeuwarden misschien? hoedanook een grappig toeval
hmm ongelooflijk toevallig en grappig dat jouw treinen kennelijk wel allemaal rijden...@nsonline
belangrijkste is dat de starters gezond blijven tot play offs. blessures nekten ons verleden jaar tegen de colts.
80 ongelooflijk zijn dit mijn 90s bungles????
ik krijg altijd uitslag van het woord genieten
heb gisteren trainwreck gekeken, dus de mets
na al die jaren van werkzaamheden zou ik verwachten dat het kwartje wel eens zou vallen bij jullie. regel het beter!
ja, maar vanaf poort of mzwyk is het onmogelijk om richting weesp te komen want alle bussen worden in centrum volgestouwd
almere slecht geregeld volle bussen passeren poort muzwyk x wachttijd daar 30m+, het is pas half acht
heb je ook zo naar je zin
onderweg naar heerenveen
maar in feite is dat het ook. voor een festival koop je toch ook gewoon een kaartje?
galajurk aan jesse zijn pak aan en off you go to carmen
de bassie en adriaan van de
gebrek aan zelfreflectie ik wil graag door als bondscoach. ik ben niet beschadigd.
erg benieuwd naar de tweets van mijn mede dmrlid bij en raadslid in onze mooie gemeente
weinig aandacht voor 40 bengals op maar wel voor jags en colts in de onderste regionen. voortaan zelf maar stukjes schrijven.
tss belachelijk
mag je wel eens scheren
veel te veel penalties aan beide kanten
goede defense en punt return bengals
gimmick van zwagerman
het is echt leuker dan je denkt hoor haha ook veel abonnees de
moest vannacht aan denken na hun voorspellingen voor nog 15 weken om jullie gelijk te halen
we zullen zien de afc north is helaas al jaren de divisie des doods x spannend
misschien is de wens de vader van de gedachte! en waarom zou je espn experts willen napraten? 😎
justin en lodewijk kiezen de steelers in afc? laat ze eerst maar eens proberen geen derde te eindigen in de divisie
het enige team dat ik nog onsympathieker vind dan de pats zijn by far de steelers.
tja ach hij is iig een aandachtig lezer en kom daar nog maar eens om
okay mijn voorspelling dalton schudt zijn jinx af in de play offs en de bengals winnen sb50
is van te voren niet te voorspellen en dat is het mooie van mijn nfl
ik hoorde zojuist een achternaam die er om smeekt in een literaire roman te worden opgenomen zwilgmeijer.
je zult als amateurs van maar die hele reis naar moeten maken en in de verlenging verliezen.
ik denk dat de eu/vs dat inmiddels ook wel begrijpen maar die ommezwaai maken zij nu echt niet meer.
maar heeft assad genoeg support? ennuh voortaan niet direct knettergek noemen. dat maakt de discussie zo dood.
serieus zonder actie is is over 2 jaar heer en meester en zit de andere helft van syrië bij ons in opvangkampen
volgens mij snap je het niet
lijkt me heel vermoeiend om altijd woedend te zijn
jullie hebben mijn klacht uitstekend opgepikt
laten we gezamenlijk is/assad verdrijven zodat vluchtelingen deze reis niet meer moeten maken.
voortaan gezellig tweeten met
kralingen en hillegersberg
terechte ongerustheid, maar wat te doen in jouw ogen?
typisch
hij kan niet eens schrijven michiel, het is hoerenjong. laag niveau die reaguurders.
ongelofelijk in de hele wereld wonen mafkezen maar alleen in the us hebben ze helaas allemaal een wapen.
wat ben je toch een topper! gefeliciteerd met prachtig zilver.
zelf te voorzichtig om cunha met fu vergelijken zonder bewijs dat hij heeft gemoord voor zijn positie 8$
liever directe mail, want het is een verhaal. is er mailadres die jullie gelijk lezen?
ik heb nu tijd om hem door te sturen, maar ik wens geen standaard verhaaltje te horen wie kan ik mailen?