hahaha
hartstikke bedankt voor de fantastische sfeeracties. zojuist lid geworden want jullie verdienen alle steun. keep it up! 👍
echt fucking ongelofelijk kampioen
done 😎. ik heb zondag namelijk een feestje 😁
zo heb ik er nooit over nagedacht maar idd. maakt ook niet eens uit welk medium. gaat overal mis...
mijn speler van de week bij voetbal inside is nicolai jørgensen via
nieeeeeet
jaja..... ik sla maar weer eens over
wat een slap gelul van jan roos. geen snelweg naar middelburg?? verder komt er ook niet veel zinnigs uit trouwens
mijn speler van de week bij voetbal inside is jens toornstra via
mijn speler van de week bij voetbal inside is nicolai jørgensen via
toeslag op vlees, en dat gebruiken voor compensatie dmv bomen planten.
toch laat ik er misschien alvast maar 1 slijpen ❄☃
lekker zon overzicht over deze poppenkast. dank 👍
zie af en toe berichten dat we tipping point al bereikt zouden hebben. zijn we niet al te laat?
zeg dit kan toch niet?? help deze man aub
dit wil je toch gewoon, zo mooi, zo rendabel , zo thuis...
wauw....
nederland kan toch makkelijk een tesla gigafactory bouwen?
als ie in huis gevallen is dekt je inboedelverzekering het ahgi.😉 is mij ook overkomen
al een tijdje toch?
nee joh, je mag het alleen veel te duur in de shop kopen. logisch toch.. binnenkort leggen ze ook beslag op je sla en tomaatjes
mijn speler van de week bij voetbal inside is eric botteghin via
koud een jaar hoofdtrainer en dat al kunnen kunnen zeggen.... hats off
ik zat op de trap, er was geen stoel vrij omdat vak verkleind was maar wel uitverkocht. maar de klanten boeten er voor
sjezus gristus wtf!! willen jullie echt van al je klanten af?
zomerblauw
lekker man in de arena
ongelofelijk wat een faals er elke dag weer voorbij fladderen. helaas zovéél doden in hun kielzog
je bent gewoon leuk hoor 😆
keurig geregeld. tnx 👌
hou je neus er ff buiten roel, dit gaat jou niet aan.
kunt u ideal transactienummer 0030001672051463 terugboeken aub. geleverd product is niet naar wens.
ja, zojuist de f1 stream gekocht maar moet nu illegaal zitten kijken...
jullie stream loopt steeds vast. kan dat gefixt worden aub. er wordt voor betaald he
het ging mis bij het darten...
kun je met de bosch mum54230 noten zoals walnoten en amandelen vermalen? bvd
kan het hier in goes zelfs duidelijk horen
vette hap 15 doelpunten te maken in 34 wedstrijden feyenoord bereikt persoonlijk akkoord cont
is jullie iets bekend ve storing in zeeland ? heb sinds gisteravond ineens geen mobiel internet meer
die grace jones is echt volledig uit dr pannetje 😂😂
oef dat is mooi zeg
wat krijgt zon rvc hier nou weer voor in ruil? kan toch niet zo presteren en dan toch loonsverhoging....
dit is allemaal zoooo hopeloos. ga weg bij
geweldige tweet! want zo is het! en spreekkoren? ik stond in t maar niks schokkends gehoord of gezongen. topsfeer!
in de kuip wachten op love it
tis natuurlijk niet jullie taak bomen te beschermen maar mocht je er eens een paar treffen met groene handen.. 😆
weekends probeert men steeds deze bomen te slopen 8er pontes. dit is 2e aanplant, 1e allen afgebroken.
men is tevreden met het punt.... ik snap dat niet hoor. je wil godverdomme toch winnen!!
ben er ook bang voor
lees veel over aanstaande vertrek maar bar weinig over 😠 eng..
super superkik. wat een avond was dat!
mijn speler vd week is bilallllllll. nooit meer iets fatsoenlijks van hem verwacht tbh 😋😋😋
moet nog bestellen
abbo bij tmob eindigt 4 apr. gaat een simonly en de betaling met nummerbehoud bij jou autom. op die datum in?
mijn speler van de week bij voetbal inside is tonny vilhena via
dé voorpret! 😂 alvast gefeliciteerd dan 😄
😂😂😂klanten😂😂😂 wat een treurnis 😂😂😂
we shall not be moved!! maar bestuur moet maar eens oprotten.
halen? hij was altijd welkom toch? paardenlul!
zeeeer lichte sneeuw in
moulijns verjaardag. lijkt me de ideale dag voor een revolutie
knullig.. mijn werkgever heeft een afdeling die een aangifte op zich neemt. goede werkgever maar minder statuur.
jullie hebben hopelijk wel een autoretweettooltje?
ongelofelijk dit. waarom staat die jongen niet gewoon in de spits. wie weet het?
zo, klaar met werken. please date me ff up, is erik gudde al weg?
er komt een hoofdpijntje op
heb het geprobeerd maar tv ging toch weer aan. wat erg dit
de arena in mijn timeline. klopt geen kut van
amber altijd +veel
haha dan neem ik er nog maar een jan. proost 🍻🍻
zulke berichten, en vervolgens je forum plat gooien. onmenselijk 😂
dat de knvb nog geen afstand van ze neemt.... te gek voor woorden maffia!
hmz ticketshop heeft het antwoordapparaat al aanstaan dat ze tot 5 uur open zijn....
dat moet toch een keer omslaan
ik moet toegeven. die gaat niet helemaal lekker haha
nu ff geen zin of in mijn historie te duiken. morgen weer een dag. enjoy!! doei
gast. kun je beetje rekenen? zie mijn username... born in 72....
jij gaat niet helemaal goed hè? je zou me toch unfollowen trouwens? en waarom haal je infotweeps er steeds bij?
weer een plaatje zonder fatsoenlijke bron. ik weet ook wel dat de wereld een zooitje is ryan. cont
gasten die zeggen je te gaan unfollowen maar het niet doen........... ga gewoon weg man😂😂😂😂😂
wat voor vage sites sommige mensen toch als nieuwsbron hebben...
ja dit helpt. het niveau stijgt, maar ben nog niet overtuigd haha.
heb je zelf al gegoogled naar dit? geen 1 gerenommeerde site, alleen antiislam meuk. hoax met een hoofdletter h
ik google me suf maar niks over te vinden hoor lol. stond in de fabeltjeskrant zeker?
ja vind je het gek man haha zoveel water! wacht maar tot er hier eens 400 mm regen neerdondert. staat ook alles blank hoor 😂
check de nieuwe site van en win een nexus 5x en andere prijzen, ik doe ook mee!
wat wil je hiermee zeggen?
beatrice!
eens want is goed voor dierenwelzijn, volksgezondheid en klimaat. zou een agendapunt op moeten zijn
wat een prachtige plaat!!
nee, maar is het ook ergens te lezen zonder wéér te moeten registeren?
welcome to the future, ff bellen over een bom en iedereen in paniek, voetbal afgelast, concert ontruimd...
poepzakjes meenemen dan 😋
kijken er serieus nog feyenoorders naar
shit has it been 48 hrs already? lol jij bent ook een figuur zeg 😋
laat zitten die geef maar terug aan de natuur 🐍🐜🐛🐉🐞🍄🍀🌱🌷🌿🌼🌻
speelde hij bij ons niet met 10?
gedeeld eerste met 020, woon jij niet in nl?
december 2010, dat was vet hier!!
hoezo ga je als feyenoord hooligan demonstreren tegen vluchtelingen? schaadt je club niet, laat je sjaal thuis sukkels
mijn speler van de week bij voetbal inside is simon gustafson via
stel, je bent in eindhoven geboren maar je leeft geboorteplaats mag je aanpassen in paspoort via
kom je net lekker uit de stad, met 2krtn voor in de kast en een paar 🍺in je nek. lees je dit gelul. hou toch op 😝
oke genoeg!! waar gaat het over?? 😱
ik heb mn kaarten odt in de kast liggen, wat een gestress eej. succes verder en prettige wedstrijd 👊
volhouden! hopelijk bel je niet mobiel 😱
betaald, orderbevestiging binnen maar winkelwagen leeg..... 😐
yess kaartjes voor vakkie h
f5 is verversen in windows.. gelukt ondertussen?
sorry ik wilde jullie er niet in betrekken 😝
heel feyenoord.nl ligt er bij mij uit. zie niet eens een fucking klok
uh wauw. mijn hoofd draait er ook van. impressive
verrek, en zelfs plekken waar het daalt zie ik. vnml rond scandinavie. nooit geweten. hoe kan zulks?
ik voel veel, heel veel plaatsvervangende schaamte.
dus, onze a1 wint van en b1 wint van goeie zaterdag voor 👍
staat steeds vast bij vrije trappen. heel merkwaardig
en zo is dat! grijpen en niet meer loslaten. kramer gaat er gewoon 2 maken 😉
en hopen 😇 dank jan
zit in winterswijk op de camping. hier wel goeie kansen dus? hoe zit het met windstoten? tnx 😀
zo word je wel genomineerd voor underdog 15/16 haal alsjeblieft botteghim en kramer....deze maand nog.......
mogge, we hebben het over de tot 3e beste van nl verkozen voetballer. tis aan fr om hem nog btr te maken. halen!
denk dat kramer het beste is waar we nu nog op mogen rekenen
dat gaat me wel bevallen denk
ken je paling gaan peuren 😋
pfffff😂😂 ziet er wel vet uit. 👍
cool, maar kan nergens registreren...? op mobiel
hoeveel procent van die zelfmoordaanslagen worden nou door uit het westen terugkerende cont
zeker wel de moeite waard
wat een monster man. fantastisch 👍
3 maanden geleden doorgegeven dat bij dirkiii €12,79 kost maar staat bij jullie nog voor €13,99??
sjezus aardig gek zeg. sterkte man 👊
helemaal mee eens. schept vertrouwen
gaat ?
gras is netjes gemaaid
supermooi ontwerp. mischien een domme vraag maar kan het dak er ook later op geklust worden? om de kosten te spreiden..
gevalletje inboedelverzekering 😇
ja oké maar serieus, waarom werd de klok vooruit gezet?
was ons ook opgevallen, missch.eoa correctie maar zou wel graag een verklaring horen..
geweldige prestatie vanavond zeg van wel gehoopt maar niet durven wensen. dat wordt genieten in 😋
natte sneeuw in tact +0.5
postcode 4461lt zit ook zonder internet...
bbq met kerst? 😆
ik haak wat laat het in, waarom speelt liverpool met een b elftal?
met wat jur?
heb gister tot 2 uur wakker gelegen.... ben altijd heel geduldig met trainers maar deze mag nu weg. mag gio al coachen eigenlijk?
keep calm, wordt een totaal andere wedstrijd volgens rutten /cyn
niet niet maar moet eens oprotten met zijn dwaalbeleid. ben zo klaar met die dwaas!
voor dat artikel moet ik een leesbril aanschaffen man. en daar wou ik nog even mee wachten
begin de dag met een buitje
boven
dit hangt boven
buitje met paar cgs boven oosterschelde
lekker sfeertje in
dus ik moet dat echt nog eens gaan aangeven voor het opgeruimd wordt??? het ligt er nog!!
kan dit misschien even opgeruimd worden? achter de brandweer
ook goes heeft mamatus
last request van mij ^o^ i tnx sander!
ik had 2 bliksems waargenomen, nu al meer ontladingen, donders hoorbaar en een flinke plensbui
in tuuk ^^
hier zit onweer in
lijkt wel een beetje op die voorleessmurf uit de films
dat spandoek verhaal stoort me enorm, wie zou dat goedgekeurd moeten hebben? knvb? arena? ajadinges?
4463gl nr. 85 nog geen internet.
als de boel weer aan de praat heeft ga ik maar eens shoppen denk..
ik bepaal niks, geef alleen mijn mening. en zonder te schelden nog wel...
niet erg handig om onbevestigde overlijdensberichten te retweeten!!
olli wint de gouden loekie, maw supporters hebben het meeste bijgedragen aan top!!
ja, want de armen in nederland hebben het veel slechter dan die bofkonten in afrika. guttegut
die ja. ik begrijp je mening en ben het met je eens dat dat wel wat minder kan, en cont
in ieder geval weten ze in eindhoven wèl waar de gemeentelijke belastingen voor gebruikt worden
juich maar niet te vroeg, cocu wil spelers kopen whahahahahahahahaha
nee de vaste verbinding naar mijn pc lag er ook uit maar alles is ineens weer online. heel vreemd maar bedankt voor uw reactie
weer internetstoring in noord. zoveelste keer de afgelopen weken.
zeg nu zitten we al bijna 12 uur zonder internet in goesnoord wordt dat nog eens verholpen?
wat een leven....
lol. heb je je tanden wel gepoetst sherlyn want zie er niks over op twitter
krijg 3,50% cashback bij via cashbackkorting. verdien gratis geld op meer dan 10 manieren.
sjeesus. bij je vrouw als ik het goed lees? all the best!
ja hoor mooi plan
nu er zoveel miljarden naar zuideuropa gegaan zijn moet een verdubbeling van de opbrengst er ook wel af kunnen
valt nog mee. normaal is ze luierder
er is cwm recovery maar ze kunnen system niet mounten . is niet voor mij overigens, heb een pyramid.
zielig
doe nederland een lol en draai s nieuwe single nog eens please please
cmon mancity, dit kan toch niet
gaat het een beetje met de spam zo?
toch wel meesterlijk hoe die de in zijn eentje volledig de is. mooi bijbaantje giel! aanhouden die shit.
kan helaas niet kijken maar de twitterverslagen baren me zorgen laat die 23 alsjeblieft snel vallen.
met rugwind op de fiets je tegenliggers hard uitlachen
het zou goed zijn voor het nederlandse voetbal als zo snel mogelijk uitgeschakeld wordt. the drama...
internet snelheid resetten per sms werkt weer niet. er komt geen sms terug van 1303. kunt u het voor me doen?
heeft zojuist een runtastic run van 4,28 km afgerond in 3548 met app
kan iemand bij dat fijne menu ff minimaliseren?
oei alfredo j kwak zingt sleeeeecht
afgetrapt en ik zit nog op de fiets naar huis. bedankt baas!
omg, wasdading?? kan dit beter ff rechtzetten anders weet ik wel hoe het morgen op twitter gaat.
honger, weet iemand een thuisdealer in middelburg die mij aan een campina goedemorgen kan helpen?
straks lekker naar de efteling
oké ik begin nu echt oud te worden denk. wtf is boo?
geen maar vandaag. ach ja, schultenbräu is ook bier.
altijd weer leuk om een flitser aan te melden bij
elkaar niet teveel afleiden hè succes met het 3e!! jaar
als zingt moeten commentatoren gewoon ff stil zijn zelfs hans van zetten...
ja tuurlijk. komt het wel goed met die kleine van ooijen?
schijnt tegenwoordig goed in zijn vrije tijd te zitten. is het zo erg joh?
leuk stukje hoor, over van maar er wordt wel weer cont
echt een hele dikke vette, maar wel moedgevende kut.
heerlijke sportdag voor nederland. nu nog ff goud halen in de kuip
gelukkig maar. zelf vader zijnde heb ik vaak aan je gedacht. nu ff naar dan hè.
sjezus. sterkte en beterschap voor kleintje
zit best wat onweer in die buitjes
lekker joh. regenjasje, regenlaarsjes, parapluutje. lekker in de plassen stampen loooool
en.............. vakantie ^^
was wel lekker rustig he, zonder nee hoor, cont
super weertje zo, voor de een na laatste werkdag p
ojee, is weer er is vast slecht weer op komst
in en natuurlijk moet ik er op de fiets doorheen
klopt. ging net al leuk buitje over goes en volgende lijkt actiever te zijn.
eerste voorzichtige tekenen
nieuw forum, zelfde mensen jantje
chill man. koeman blijft wel
en waar gaat gvd mijn verplichte pensioenpremie dan heen? ook goedemorgen
positie ingenomen
zou trending worden? ik ben iig van de partij maar dan
doe s ff snel vertalen dan
het komt goed
het dondert in
op naar voorronde cl dan maar.
leuk voor vaderdag
jaaaaaaaaah, exit van bommel, schade deutschland alles... ach laat ook maar
zou die er dan eindelijk uit gaan of is bertje bang dattie niks voor vaderdag krijgt.....
ik verwacht morgen een kort geding van tegen van marwijk. om hem te dwingen landsbelang boven familiebelang te stellen
goed vertier laat die 21 maar vallen.
buitje ten zuiden van bergen op zoom
bedankt partytent, het was een mooie 1,25 zomer onder jou. enjoy your flight.
iemand in voor een potje rumble? marcogoes is mijn nickname
na tien jaar digitaal weer eens analoog scheren valt vies tegen...
tendentieus artikel, vooral dit er zijn sterke aanwijzingen dat opwarming en smelten cont
kan nog wel uren naar blijven kijken maar moet slapen. volgend jaar maar een kijkje nemen in landgraaf
ik ben down to the earth`s core aan het kijken op om 2100
zon, biertje en een goed boek. zwaar genieten maar dan ineens.... scheidsrechterfluitjes en een fucking vuvuzela. need i say more?
ik hoop dat je wel een helm draagt bij die snelheden?
fuck ja. ik dacht al wat een lelijke embryos
ziet er strak uit zeg. heb je een satelliet gelanceerd?
beetje op twitter in de gaten houden met wie allemaal msnt
ondanks de begrijpelijke sentimenten is het wel goed voor de club om wekelijks 65.000 kaartjes te cont
gemeen ben jij zeg
ik zie geen meer details in belstatus
2e poging. kan iemand mij helpen mijn internet snelheid te resetten? de sms functie werkt niet
hoe los ik dit op? wil graag mijn snelheid resetten maar smsen werkt niet. beste cont
goedemorgen, daar komen de eerste buitjes al
en zou nog wel iets toevoegen??? /me denkt van niet
jezus christus zitten die knevel en van de brink er weer ipv vroeg slapen dan maar
daar moest je best lang over nadenken jur
kansen zijn er om te grijpen he
2 helden
bier drinken en muziek luisteren op onze eigen markt voor het goede doel. kan niet beter
er is goed doorgewerkt vannacht voor
lekker beuqen in de wakker blijven...
weet niet waar het aan ligt maar krijg deze melding op mijn telefoon
nou, ik had net een klant in de taxi die de titel met trots zou kunnen dragen
wat een vent die professor bij
vondtie niet leuk.
mogge wat is dat voor app?
die henk bleker heeft toch wel een hele dikke plaat voor zijn spiegel. weet niet waarom ik niet populair ben...
drenthe wil terug naar feyenoord jaja, nu wel ineens. straks ook nog. niet nodig
zet mij maar op de stormspotter lijst, district zeeland
als geboren eindhovenaar ben ik erg content met de derde plaats. europa league whoohooo p
nog een goal voor de statistieken. leuk hoor. not
cl halen op de 4e verjaardag van mijn zoon. it just doesnt get any better!
gaattie weer een beetje jur? pfffff
wil iemand ff tegen cabral zeggen dat wij niet gelijk mogen spelen
zie ik nou een wedstrijd kantelen?
te spannend dit. overnemen pleeeaaasse
komt goed
swiftkey 3 heeft me 10.000 toetsaanslagen bespaard! bekijk het zelf op
voor in de agenda europees voetbal via
dan wacht ik het rustig af. dank u
leuk hoor dat jullie mij volgen maar zou mijn mail van vanochtend beantwoord kunnen worden aub?
wel fijn als de scheids meehelpt met het uitfluiten van heerenveen rt fluit heerenveen uit.
gaat maar slapen. tis zo zondag
sommige mensen hebben altijd geluk. have fun
fokkin spannend brrrrr
zit op de taxi dus dat wordt rijnmond
zag er geen rotatie in ofzo
kapot vroeg. smoggel
mooi om te zien hoe vormbehoud toont
lekker voetbal middagje zo voor
hmm. gaat net missen.
ik hoor het idd rommelen in het zuiden. spannond
hoort aankomen
vandaag en morgen weer onweerskansen. alles over dit fenomeen
goedemorgen, gaan we weer... iedereen gefeliciteerd met twouwens. wat een goed nieuws he
maar ff een weekje denk $
tijd voor een nieuwe twitter account
ow wacht hahaha, en ik ben niet eens blont
waarom zit iedereen het vluchtschema van te lopen te retweeten, blij dat ze vertrekt ofzo?