ok gelukkig
hopen dat je hem snel vind
ik kom thuis. zeg laat utrecht maar scoren. en hoppa!!
zo ben je eigenlijk hele weekend vrij en zo moet je hele weekend werken
gewoon weer door jet midden uitverdedigen amrabat. niks geleerd van de vorige keer
tuurlijk word rome er weer bijgehaald.
thuis vanuit kerkrade na netjes mijn medepassagiers thuis te hebben gebracht. nu bed opzoeken
zeker erbij. word familytrip!!
ik ook nog geen felicitaties gehad 😂😂😂
had waterreus iets over feyenoord??? zit nu te kijken 😂😂. toch veel 2 wedstrijden binnen een paar dagen hè 😜
nog een jaar en dan ben ik op de helft 😜.#birthday
heb nog 1 plek over voor
ik heb evt ook nog plek voor 3 man/vrouw of iemand met wie ik mee kan rijden. woon in culemborg
2 bussen van 020???
voor is het ook mogelijk met mij mee te rijden. plaats voor nog 3a4 personen. retweeten mag
ik denk dat feyenoord de klassieker wint.
kan ik met iemand meerijden 28 oktober heb autocombikaart maar helaas alleen. retweeten is fijn
kaart voor roda uit in de pocket. ben helaas alleen met autocombi. kan ik met iemand meerijden vanuit culemborg of rotterdam??
3 uur en nog klaarwakker 😩
op weg naar ahoy voor
en ik ga met dit weer echt niet zonder jas
zegt mijn dochter je mag geen voetbalclubgeralateerde kleding aan bij ahoy. lekker dan ik heb alleen mijn feyenoordjas#ahoy
eindelijk thuis nalang dagje antwerpen. morgenavond ahoy
het is me een partij heet hier in die bus.
bus te laat en bij de grens marechaussee controle in de bus. word een latertje
in belgië zijn ze er al vroeg bij.
nou in antwerpen is feyenoord ook populair. word telkens aangesproken 😂😂
op weg naar een dagje antwerpen met
eindelijk koffie.
moeder voor het eerst van haar leven in een tram.
vroeg op voor een dagje antwerpen met mijn dochter
logeer paar dagen bij dochter in rotterdam. met al die geluiden word het moeilijk slapen. 😜
makkelie dus zondag. dat worden een hoop kaarten
heel veel sterkte vandaag
mijn speler van de week bij voetbal inside is sven van beek via
en weer tranen
gewoon weer kippenvel.
niet te gek doen hoor. je hoeft voor mij niet perse iets te kopen. dat je weer veilig thuis komt is genoeg
bijna 15 ben je geworden. rust zacht mijn lieve muis❤️
al wakker. dochter word zo naar eindhoven gebracht om op vakantie te gaan naar spanje
best wel ziek van. kan 25 oktober dus niet naar bekerwedstrijd. mijn auto afgekeurd en dochters en man hebben al iets dus geen vervoer
heel veel sterkte
ik zeg voorlopig met dit elftal spelen.
de planning op mijn werk zit tot vanavond dicht dus kan zo rustig kijken via mijn mobiel 😂
ze spelen daar als een. natte krant maar toch bij selectie nederlands elftal.
de italiaanse spelers zijn op 1 hand te tellen.
hadden we kunnen weten. jens scoort niet buiten de kuip
ik ken het meis. hopen dat er iemand kan werken. beterschap
1 vrije dag na 8 dagen werken en ook die is vol. eerst naar film bij pathé de kuip even wat eten en dan naar feyenoord
lekker hoor nu moet ik alleen 😡
😂😂hier een steward bij het vak dat je er niet in mag omdat seizoenkaarten vandaag niet geldig zijn. hoe denk je dat ik binnen kom?#feyado
als het hotmajl is daar is storing mee. ook al hele dag last van
21,5 graden in huis maar vind het gewoon koud
je eigen spelers uitfluiten terwijl je voor staat. dat noemt zich supporter.
haps word neergeworpen en raakt psv speler. kuipers kuipers kuipers het is nu wel overduidelijk.
en weer geen pingel!!! toch echt vastgehouden en neergehaald.
hey scheids zo werd bottegin ook naar beneden gewekt maar dan in strafschopgebied. waar was daar de kaart?
scheids fluit weer lekker tegen feyenoord. geen gele kaarten voor psv en geen pingel voor feyenoord
lucas woudenberg bij tafel van kees. kan rutte misschien uitleggen waarom lucas beter is dan nelom
op naar rotterdam.
nog 15 minuten werken. dan op naar rotterdam. superveel zin in.
ben blij dat ik nog werk tot 16.00 uur. best wel nerveus voor vanavond
het schijnt onstuimig te worden woensdag. logisch feyenoord speelt
mijn speler van de week bij voetbal inside is steven berghuis via
3 punten in de pocket maar wees eerlijk hoop toch niet dat we met kramer cl moeten spelen hoor.
dochter viert verjaardag. maar moeders kijkt toch echt feyenoord
en weer 1 hoor die om een shirt vraagt. echt ophouden nu hoor
weer druk bezig voor volgende verjaardagsfeest. alle 3 in 3 weken jarig, ben er nu wel klaar mee 😂😂
zo slim om je auto een week aan je dochter uit te lenen en zelf lekker nat te regenen op de scooter 😂😂
auditie moeten doen op je verjaardag en dan gelijk horen is geen twijfel je zit erbij. dat word vast weer genieten.
en ze zijn binnen.❤️.
dochter vandaag eindelijk 21!
echt bizar. zeggen dat je geen geld hebt maar onder de tattoos zitten. veel huisdieren en nog een 4e kind op komst. sorry geen medelijden
daar heeft ze mijn kat naar vernoemd.
kijk je lip sync battle. is het met tyler posey. zo blij dat er niet is 😂
nee hoor. is mijn mening. het is allemaal niks.
omdat je 2 aasist geeft ben ie gelijk de beste speler van oranje, terwijl je voor de rest bal kwijt taakt??
dochter al 5x bij de laatste 5 zou nu toch wel eens fijn zijn.
dit krijg je als je van de regerend kampioen maar 1 speler meeneemt en die ook nog op de bank zet.
tijd gaat zo snel. vandaag alweer 23. gefeliciteerd wijffie
dat is zeker waar. maar toch
van mijn dochter ook. en als ik dit hoor denk ik met zelfs opleiding kom je moeilijk aan rol en…
we hebben de andere even 2 weekjes laten genieten maar we staan nu weer waren we horen te staan
vandaag ons nieuwe buurmeisje meegenomen. zullen even zorgen dat zij voor de mooiste club van nederland word ipv de lelijkste
op weg naar rotterdam
vakantie weer voorbij. althans wat je vakantie noemt. in mijn vakantie nog 43 uur gewerkt 😂#vakantievoorbij
naast al mijn projecten en huis was ik met iets voor haar kamer. veel werk qua grootte van steentjes.…
nou dat word een reisje italië of engeland dus
zal je zien wij zijn als laatste
liverpool in d erbij en ik zeg leuk!!!
tot nu toe zeg ik doe maar groep d 😜
jezus krijg je weer een award!!! voordat ze bij pot 4 zijn moet ik naar bed
hoe kan je de finale nou in kiev spelen?? even normaal doen hoor
loting kijken. spannend. hopen op mooie wedstrijden
dagje burgers zoo met 1 van mijn dochters
extra dagen vakantie gehad omdat ik aantal diensten had gewerkt in mijn vakantie. maar ook nu weer even werken 😂
hier ook. moet weer werken onverwacht paar uurtjes 😂😂. lekkere vakantie he
weer een project klaar. op naar de volgende
zou het op prijs stellen als jullie mijn dm willen lezen en beantwoorden
in ga haar missen hoor.😩
ze zijn klaar hoor
dat je met een vlag over de tribune kan rennen zegt genoeg. genoeg ruimte ervoor.
en onze loge roosa gaat na 3 weken weer naar huis. ga haar echt missen.
en ik mag niet meer roken want dan scoren zij
mam me boeken moeten nog worden gekaft!! en daar zit je dan weer 😩#boekenkaften
het is voor diks natuurlijk heel moeilijk om de beste rechtsback van nederland te vervangen
zo duidelijk zijn de afspraken dus niet en zitten ze niet op 1 lijn.
ha geweldig na 1e doelpunt van feyenoord liedje via de app dat begint te spelen.
hou nou eens op met dat om een shirt vragen.
dochter wint opblaaskrokosil bij maar tot op heden nog niks ontvangen. zo kan ik ook een actie doen
vakantie? blijkbaar kunnen ze niet zonder me. vandaag en morgen werken 😜
superveel zin in vandaag. na 3 jaar zie ik mijn neefjes weer eens. gezellig dagje uit met ze
in mijn vakantie 4 extra diensten gewerkt. volgende week nog 4 dagen extra vrij gekregen. altijd fijn
een van mijn dochters wilde gister ook even bijdehand tegen me doen
ik word er echt gek van dat als ik maar iets eet zo pijn in mijn buik krijg. stomme
gecondoleerd en heel veel sterkte
vorig jaar kreeg iemand daar 4 wedstrijden voor scheids.
vanuit finland mee naar feyenoord.
op weg naar rotterdam. finse vriendin van dochter gaat ook mee. hoort erbij als je logeert bij ons
ja huntelaar je bent nu eenmaal geen kuyt.
ja jammer dat je moet weeken
ik ga met shaneequa mick en mack naar wassenaar naar pretpark. ik ben zo blij
donderdag zie ik na bijna 3 jaar mijn neefje weer. ben nu al happy
is voor shaneequa
vervroegd verjaardagskado voor dochter gehaald. nieuwe aanwinst bikkel
na lange tijd weer een eind kunnen wandelen met 2 van mijn 3 hondjes. het oude hondje kan niet meer mee dus kunnen we verder.
het volgende project kan beginnen.
vandaag is mijn dochter dan eindelijk 18! happy birtday 🎈🎈
dus ze willen verplicht zwemles voor vluchtelingen?? en onze kinderen die niet kunnen zwemmen?? moeten wij toch ook zelf op zwemles doen?
net hele discussie met dochter over afschaffen van dames en heren te mogen zeggen. vind het grote onzin om dat af te schaffen
word het trouwens de nieuwe mode om spelers via een bordje om shirts te vragen??? ophouden nu hoor
waarom zoveel politie en me aan kant van de beertjes
en voor moment van vitesse was ook buitenspel
kijken voor beelden van feyenoord doelpunt en dan vitesse een strafschop geven. bizar dit. hoe ver kan je terug kijken
afgelopen woensdag dus besmette eieren gegeten kom ik nu achter. geen wonder dat ik hele tijd op wc doorbracht
blijf er niks mee hebben.
beetje rare opmerking van verslaggever. zij raakt de juiste knoppen
weer rib uit mijn lijf maar voor alle 3 passépartouts gekocht voor
ik ga ze straks ook bestellen als ik thuis ben. ook sowieso bij😜
succes bij heerenveen. vind het jammer maar we blijven je volgen
een wat?
op weg naar rotterdam
evt. nog een kaart over voor morgen feyenoord real sosiedad.
heb mijn beroep gemist net keuken maar weer even opgepimpt.
kaarten voor in de pocket.
niet alleen in de zorg. moest ook werken 😜
dat terwijl ik zelf gevoetbald heb en ik wel vind dat ze niet zo snel gillen en rollen bij een overtreding. maar kijken niet mijn ding
heel leuk dat ek voor vrouwen. maar ik heb echt niks met vrouwenvoetbal.
en dan ben je vandaag even productief bezig geweest.
nieuwe adres doorgegeven, staat goed in systeem toch je seizoenkaarten later ontvangen omdat ze naar oude adres war…
ben een echte feyenoorder, maar vind dit toch verschrikkelijk nieuws
hoe laat mogen ze in de bouw beginnen???! lekker hoor gaan ze dakpannen leggen en ik ben wakker
grote markt in culemborg. en wat koop je?? moet huis toch leuk aankleden😜
kan nu dus geen feyenoord kijken. en bedankt
fijn dat je al een maand bezig bent on foxsport verbinding te krijgen.maar schijnt toch niet zo makkelijk te zijn
!!!!
huisje schiet steeds meer op. nog even en we kunnen echt genieten
waar komen überhaupt ineens meer dan 1200 supporters vandaan. blijf het me afvragen.
hadden we vorig jaar de jc schaal ook moeten boycotten. te weinig kaarten
dus ze boycotten. eigen stadion zit nooit geen hond en uit zie je e ook niet dus 1200 kaarten meer dan zat dacht ik.
rust zacht lieve tijn. wereld is een stukje mooier geworden door jou. voorbeeld voor iedereeen
blijf het maar niks vinden. en wat een regen ook. hopelijk gelijk voor de hele maand gevallen
gaan we nu dan eindelijk inzetten.???#kongolo
nou maar nu nog niet. schrok er bast van 😜
jullie hebben dm
vandaag sleutel inleveren van oude adres. weer wat meer rust. alleen nog in nieuwe huis aan de gang.
en de andere dochter vandaag een nieuwe baan gekregen. wat een dag!!!
supertrots op mijn dochter. tijdens haar afstuderen aan de musical academie gewoon haar toelatingstoetsen gehaald voor de pabo!!!
wild card vind ik niet eerlijk. je was uitgeschakeld klaar
ik vind het geen terechte winnaar
mezelf maar eens een kadootje gegeven
diploma in de pocket.
op weg naar arnhem. diploma uitreiking van mijn dochter.
ynwa en je komt weer in de stemming
ja we hebben 4 bladen dus 4 sleutelhangers 😂
komt mijn dochter met post van onze oude adres. feyenoordmagazine. wat zit erbij? sleutelhanger die ik net zelf gekocht heb 😡
mijn dochter heeft vorig jaar laten maken krijgt nu weer bericht. is dat echt nodig?
trots op dochter die meeloopt en mooi bedrag binnen haalt
voetbalvereniging hierachter heeft een 24 uur toernooi. benieuwd of we er vannacht last van hebben
dat er uit zon klein kamertje zoveel zooi kan komen😂😂
dochter heeft kamer leeggehaald in arnhem. en dan staat je huis weer gelijk vol 😂
na 2 dagen bang boven te hebben gezeten heeft ook de kat het nu naar zijn zin in nieuwe huis
zo blij met de nieuwe meubels. ondanks dat 2 kasten nog niet binnen waren. vanaf nu genieten in het nieuwe huis…
en het huis in nu bijna een thuis. meeste meubels staan. alleen de eettafel nog.en dan later de kasten die nog niet binnen waren
vandaag komen eindelijk de meubels. natuurlijk 2 kasten nog niet 😩
wat kan ik winnen als ik het goed heb?? 😂
wakker worden door mijn wekker. is me nog nooit gebeurt. dus goed geslapen
vannacht 1e nacht in nieuwe huis. zal ik goed slapen
na 3 jaar nederlandse musical academie zit het erop. nu zien wat er gaat komen.
maar nugget heeft het prima naar zijn zin
en de diertjes nu ook voorgoed in het nieuwe huis. de kat vind het nog maar niks 😂
veel plezier
en we hebben wifi!!!
altijd fijn dat goed doorgegeven word wat je nodig hebt met kpn verhuizen. gelukkig woon ik dichtbij
wel glasvezel in nieuwe huis. ben benieuwd of verschil merken
vroeg op. vandaag komt monteur internet/ tv. en word vroeg de wasmachine gebracht. nu de meubels nog 😜
2 dochters blijven al in huis slapen. ben benieuwd of ze beter slapen.
dochter werkt in bakkerij waar ze ook ijs verkopen. komt ze thuis met de smaak bacardi cola 😂😂
zal ik toch maar huisje voor mijzelf alleen gaan zoeken. nu voor altijd echt klaar mee
vandaag weer druk verder in nieuwe huis. verhuizing is eindelijk echt nabij
klaar met opleiding. laatste voorstelling. doet je toch wel wat. maar weer supertrots op mijn dochter.
vanavond naar de eindvoorstelling van mijn dochter. dan klaar met haar opleiding.
nog niet op netflix in nederland seizoen 5. zat er helemaal klaar voor
hoe herkenbaar. mijn kat is er ook bang van
dit dus 😜!!
en op zoek naar bedden voor nieuwe huis.
u luistert naar ikearadio???
ik zie justin bieber nu live zingen voor manchester. snap nu waarom hij altijd playbackt.
waarom mensen mishandelen die van elkaar houden. hetero lesbi of homo. het word steeds gekker.
word weer genieten van dochter.
gewoon weer voor de gek gehouden door niet te geloven. ga echt nooit meer meespelen
nac dus terug in eredivisie. jammer vind het zacht gezegd geen leuke club. had liever nec erin gezien
als die bosz een echte vent is geeft die die prijs gewoon terecht zelf aan gio
maar gio hoeft dus eigenlijk volgend jaar niks te winnen om coach van het jaar te worden
mijn man vind maar raar dat ik niet voor de nederlandse club ben. elke andere club prima. maar hun gun ik helemaal niks
even een opfrisser. wij wonnen wel van manchester united 😂
als ze nou niet winnen word de prijs van bosz dan wel aan de rechtmatige eigenaar uitgereikt?
we kunnen beginnen.
morgen eindelijk de sleutel van ons nieuwe huisje. 😀#verhuizen
op npo1 droom van kuit aan het kijken. je was fanatiek in beeld hoor 😂
en moeders mag weer niet mee 😂😂
en gewoon weer meezingen met lee.
ja echt he
gefeliciteerd. en als je goed kijkt zie je ons ook staan
18 jaar gelden nog in mijn buik op de coolsingel. nu samen op de coolsingel.
dacht ontbijtje halen bij de mac. is ontbijtje al op 😂😂
ja hoor ze staan alweer klaar
klaar en op weg naar coolsingel
wakker. koffie en op naar de stad
tranen van blijdschap bij de 30.
er rijd hier een auto rond met rotjes in zijn knalpijp en maar rondjes rijden 😂😂😂.
bij de 30 kwamen de tranen.
me uit heel nederland hier in rotterdam. niet normaal hoeveel busjes al
fred niet weer de hele dag gaan zeiken. was fan van je maar word op deze manier stukken minder.
draag zijn officiële shirt met trots. tot nu toe geluk gebracht
dochter had mailtje gehad of ze kon werken op evenement in 020 dit wel onder voorbehoud 😂😂😂
.@feyenoord trekt hem vandaag over de streep... 🏆
is het al 14.30??? trek het niet meer
man man. letterlijk zo misselijk van de spanning. hoop dat ik in de kuip niet de wc pot van dichtbij hoef te zien
verschrikkelijke nacht weer gehad. en nerveuzer kan niet. kom op feyenoord. doe het!!! laat me niet hoeven onderduiken!!
en op naar weer een slapeloze nacht.
belangrijkste is dat we vandaag 1e worden
kan het even opschieten. heb morgen wel wat belangrijks op programma staan
ik denk grote kanshebbers zijn italië, portugal, croatie, roemenië, belgie,
dan moet je wel heel lelijk zijn als je met een masker op moet
je kan zeggen wat je wilt maar hij kan wel zingen.
en dat was dus het eerste liedje wat zuiver was.
het is dat het mij gedachten even op wat anders zet. is het al morgen???
pfff nog 23 liedjes. ben het nu al zat
hij wil verder met zingen. ik zeg doe maar niet
nog niks gezien van songfestival dus ben benieuwd
mijn speler van het jaar bij voetbal inside is karim el ahmadi via
deze week wat extra werken maar daardoor zondag en maandag wel weer vrij. laat het dit x niet weer voor niks zijn
wat een noodweer. stortregen en onweer 😩
wat een superconcert weer van
vanavond naar concert van superveel zin in.
trots op mijn dochter!! always ❤️you!!!
moeder wist het al 😜❤️
dochter die hier doodleuk zit te vertellen dat ze de spelers heeft omgekocht om mij volgende week het mooiste moederdagkado te bezorgen
en ach ze dachten dat excelsior ons ging helpen maar het was andersom. kampioen worden we toch wel
na iedere verloren wedstrijd speelde we de week erop uitstekend. dus maak me geen zorgen
ja tuurlijk gebeurde vorig jaar met bekerwedstrijd ook. maar ja feyenoordsupporters hè ?…
fred niet zo zeuren hoor. laat ook eens zien dat het merendeel zich wel goed gedroeg. dit waten niet de vaste supporters.
na een nacht wakker van de zenuwen. nu doodmoe van de teleurstelling. dus maar troost zoeken in mijn bed
tas met alle logeerspullen weer mee en op weg naar huis.
volgende week kampioen worden met de supporters die er altijd zijn. en niet zoals vandaag die nog nooit in stadion zijn geweest
van die debielen die het verpesten voor de echte supporters!!
volgende week voor alle moeders dan maar feyenoord.
dochter heeft al drank in huis gehaald voor moeders!! drink nooit maar roep dus al 18 jaar ik word dronken bij kampioenschap
en al veel politie ook onderweg.
volle touringbussen met supporters!!
tijdens op de a15 en alleen maar autos tegenkomen met feyenoorders.
op weg naar hotel rotterdam here we come!!!
dan word je uitgelachen omdat je zegt dat je gewoon kotsmisselijk was van de spanning vannacht
wat duurde de nacht lang!! zo klaar maken om naar rotterdam te gaan. tasje mee om bij te blijven slapen!😜
en ja hoor zoals verwacht alweer klaarwakker.#zenuwen
bed maar in, maar of het lukt om te slapen???
toch blij dat ik vandaag nog even moet werken. spanning is niet meer te houden voor morgen.
spanning neemt steeds meer toe!! is het al zondag??
maandag bij nieuwe baan begonnen vanavond al alleen als avondcentraliste. spannend maar alle vertrouwen in mezelf en bedrijf blijkbaar ook
nee dan blijft ze liever in vv. mocht je iemand weren gele zijde en dat we dan onderling kunnen ruilen evt. dan prima
welk vak? kan altijd aan haar vragen
het mag/kan niet meer misgaan. en toch durf ik uit bijgeloof nog steeds niks te liken/aanwezig zijn op fb
ondertussen gelukt.dochter heeft ook een kaart.vak vv terwijl ik eerst u voor haar had. mocht iemand willen ruilen hoor ik het graag
had kaart wilde betalen en daar ging het fout. nu telelens melding dat er al een ticket gekocht zou…
dat wel maar dan krijg ik de melding er is al een kaart op dit account. telefonisch k…
bij mij dus ook en nu melding dat er al een kaart op dat account staat.
je vond de kuip toch lelijk??? hoe denk je er nu over?? eigenlijk moet je er zijn als het vol zit
iemand met een sk die zondag niet naar de kuip gaat of kan??? ik zou graag kaartje over willen nemen voor mentor van dochter 😀.
mensen die je bellen of appen of je je sk niet wil verkopen voor kaart zondag. nou sorry maar dit wil ik voor nog goud missen.
kaarten in de pocket voor zondag. natuurlijk aanwezig in de kuip!!
kijk al die nepsupporters die vitesse normaal nooit in het stadion heeft eens juichen. vraag me echt af waar die ineens vandaan komen
honderden supportersbussen vanuit arnhem??? waar halen ze die supporters ineens vandaan
zijn alle spelers naar marrakesh op vakantie.?? teambuilding misschien😜??
handig. weten we niet hoelaat je morgen naar hoe komt
en aan het werk. 😩
straks om 7.00 uur moeten werken en niet kunnen slapen nu.
gelukkig bij mijn nieuwe baan nog kunnen regelen dat ik 7/8 en 14/15 mei vrij zou zijn 😀
dus hopen dat je je eigen plaats kan terugkopen als dat mogelijk is qua plaatsing van de schermen
kaarten zien te bemachtigen kampioenschap in de kuip.wel weer 3x apart in moeten loggen natuurlijk met 3 seizoenkaarten