lieve jongen, rust zacht, kippevel overheerst
gaan ze maar weer uitzenden bij vroeger zon goede zender , mag niks kosten zeker 😶
de liefde blijft maar w a t een k l o o t z a k k e n feyenoord
haha , ja wie niet. ben er aan toe man
mooie dag eef of niet dan
dronken van geluk, en de drank haha .
wat een softie loser ben jij zeg , bluh, nep agentje nepneus
ff nieuw shirtje bestellen johan, maar we blijven boven aan
bedankt kos, nog altijd een feyenoorder 😂
verloskunde
niet ik maar mn dochter heeft zaterdag de hele dag nuchter moeten wachten. werd pas savonds om 21.00 geholpen
geen stijl dat jullie mensen een hele dag laten wachten.....bah
elke x wordt het water zomaar afgsltn. sta je onder de douche, en plots geen water. ooit brand je jezelf en dan geen water
succes lexie in engeland , bedankt voor je inzet bij
geeft niet meisje, heb genoten
hoi, ik hoor net dat jij hebt, is dat niet lastig....
na hele week een grote smoel, sven nu in het goede doel 10
gefeliciteerd johnny , eindelijk
hij is blind hè
en van blind
wat een zooitje ongeregeld vandaag bij .rekenen zich weer te snel rijk
precies
ook een matige dirk gezien
slecht feyenoord gezien
daar werd de boer ff stil van haha
ik kan je vertellen,heel geweldig. gefeliciteerd
haha gekkie
succes de rest van je carrière bedankt
gefeliciteerd met het behaalde resultaat
mooi verjaardagscadeau van mijn zoon deze morgen . nice birthday like father, like son
goed gespeeld ruben
en zo is t en niet anders...
goed gesproken
daar ben ik t wel mee eens ja
gaan allemaal voor een schijntje weg....
ryo miyaichi is op weg naar feyenoord. arsenal is bereid de japanner naar rotterdam te laten gaan, meldt daily telegraph zojuist.
succes
we vreten ze op zeggen ze dan, wat een kl.....ken
eerst verder kijken, dan pas oordelen
feyenoordutrecht 12ongelofelijk wat n verschil tussen eerste en tweede helft! aankopen moet je bij zijn , zit zn geld te tellen
wat een drama afgang wordt niets dit seizoen
als je van namaak houdt
wij staan er ook voor open denk ik, kom maar..@fr12nl guidetti staat open voor feyenoord
van geel waarom verkoop jij wel vroeg je spelers en haal je veel te laat versterking , zonde van#championsleague
en bedankt voor de snelle aankopen
van geel waarom verkoop jij wel vroeg je spelers en haal je veel te laat versterking , zonde van
is het dan toch waar ? 😆
hoop het niet!
oké, dat had ik nog niet gehoord, thnx rs
kan je beter naar rutten sturen rs
oudajacied financieel onhaalbaar voor feyenoord gelukkig!
graag gedaan, thuis door t raam in hazerswouderijndijk
inderdaad eef
graag gedaan hoor...
ja het is weer niet goed georganiseerd bij
nl, nou heb niets gekregen, lekker betrouwbaar, terwijl instellingen goed staan
ronald bedankt voor 3 mooie jaren.#feycam
dus dat is met de punt naar voren?
ziet er lekker uit pik, haha
hoop het !
heb ijshockey zitten kijken vanmiddag, maar daar gooien de goalys zich met hele lichaam erin, maar ?
kleindochter en dochter met
leuk! met mn dochter en kleindochter
ga toch naar blijdorp jongen
hebbie geen centralalaleverwarming dan.?
er is maar 1 shirt dat ik wil
rot he,verliezen snotjoch ☺
winnaar staat al in linker rijtje ☺
gefeliciteerd
ik kijk nooit naar de arena ☹
hij doet het!
snel geld bij elkaar schrapen,en kopen zou ik zeggen
lex heel belangrijk voor
je bent een harde werker. immers baalt ‘kan niet meer met mijn kinderen naar de supermarkt’
bedankt he,ik nu ook. ☹
oei,nee daar dus niet ☺
waar is hier?
echt,feyenoord zit in mn hart,maar wat een wanprestatie
ze willen niet
tijd voor bakal
100%
zijn het allemaal toch?
sfeeractie 020
begrijp ik ,k&ampg is top
az spoort niet
mooi werk
duizenden krabben in zandvoort
gefeliciteerd! hoe heten ze?
en dat stelde ook niet veel voor
belachelijk
zeker! altijd leuk
zit maar te wachten op een leuke transfer,maar t wil maar niet lukken he?
is een snavel
was toch 2 weken dicht?
nou vooruit dan maar,gered door de tijd zullen we maar zeggen
waar het hart van vol is ...
de stakkers
het was niet best idd maar t komt goed
zondag wordt t het keerpunt
hier nog 1,maar....#ynwa
ze zetten de lijn door he ,was de bedoeling
gelukkig,hij is klaar met praten
we mogen van jullie ook geen fotos maken toch?
t wordt tijd dat de matrixborden op de à 4 aangaan mbt trajectcontrole tussen leidenleidschendam en vice versa ?@anwb
ik zie t niet!
voor 020
lekker hoor
goed zo harry
ongelooflijk wat sl............#feytwe
ben helaas te oud
mandarijn/navelsinaasappel
die van 104 is toch zeker wel rijbewijs afgenomen?
rt als je hoopt dat az de johan cruijff schaal wint van ajax share lekker belangrijk
plat op de grond zeker. ?
hij kijkt dwars door je heen,maar voor de rest......
bedankt voor de pathekaarten,het wordt in augustus met en
kunnen we over zijn toch
en dat is t ☺
mauwen?
schitterende tekeningen
zijn niet. om te eten he?
dat mag zich aanrekenen
wat een gelul,gewoon. beginnen
trending maken.
mn dochter ook
feyenoord a1 pakt titel eredivisie na zege feyenoord a1 heeft zich gekroond tot kampioen van de eredivisie
a1 staat zelfs 40 voor in alkmaar en heeft zelfs al 3x gescoord.
even allemaal feliciteren als ze verliezen. zie dit artikel in ad. gefeliciteerd he
t is jammer voor maar als antie#pisv toch wel leuk
zon 33 jaar he
ook mede door goede tech.staf goed voetbal, mooi resultaat en wederom fantastische sfeer! genieten
je maakt me gelukkig
ik ben geen. fan van kieft
ook?
jammer,maar t was slecht#rkcfey
denk dat wint vandaag
zet er achter
john guidetti tegenover vi ik zou nooit naar psv gaan, voor mij is er maar een club in nederland.
je ziet er slecht uit man
n11 gaat niet langs koudekerk
ik zelf heb al jaren geleden afgeschreven
glijd verder af
dat zit er wel in ja
de vragen bij zijn echt te makkelijk, zelfs mn zoon van 12 weet alle antwoorden dan krijg jij 20 pnt extra
denk daar net zo over
is een goeie reddekuipvrouw
haha wat een van een vrouw
dat kan een mooie 2e plek opleveren
favoriet is voor mij de zondagmiddag,en zo hoort het
wat te denken van beertjekreijermaat
dan geen algemeen directeur vitesse leerdam wil hogerop
wat een pleuristuig is dit
de vanochtend. t blijft mooi
in de link staat november. niet afgelopen weekend
manoah klaar voor de klassieker ♥
dit gaan we doen. vandaag
steakhouse bellen offff, liever kip
beter dan die ax blussers
met die schaal staan als we honderd jaar zijn, mooier kan toch niet? haha 2013 is jaar
vuur op de hoek. jpheyestraat/genestetstraat
gefeliciteerd met de oliebollen
duurt nog wel ff zo te zien
idd niet te vatten!
geweldig,nr 14 voor pelle
dit is echt zon 01wedstrijd
zelfs in canada zijn feyenoorders
doe je best vandaag , we zien je snel weer lachend ♥
gaat lekker 02
maar waar is henke larson
geef ook eens voor
kleindochter in stijl naar bed
graag gedaan pik
oke dat is fijn om te horen.
guidetti ooit keer ik terug bij feyenoord.. dat zei ook
er lopen 2 mannen te leuren met een veilig alarmsysteem in de wijk is dit legaal?
pardon! het is vandaag al 2 oktober
gaat lekker met
en daar is de lach van klasse
eindelijk grandioos
ondanks achterstand sterker en ook best actief. in zn acties
het komt thuis in de kuip allemaal goed
en dat is 1
echt niet pfoehhh
oei,pas maar op dan ☹
zitten er ook werpsterren in ?
daar heb je een punt,oke dan !
we zijn toch zeker niet bang van van bommel weer geel!!! ha ha volgende week er dus niet bij!
prima pingel nog maar te gaan
kolk
net weer de nieuwe ontvangen
en zo wil ik t horen
ik verwacht tegen die turken ook wel wat
ooh daarom moest ik zoveel afrekenen ☹
1 x is zat hoor
ik denk dal opbloeit met zn ado maatje let op !!
we worden gewoon en hebben het toch te zwaar
had m er beter in kunnen rammen
nou,ik ga voor een mooie 33
geeft niet,zo hoort het
kleindochter manoah klaar voor de wedstrijd
beetje lullig om die jongen nu al af te zeiken geef kans
weet niet of ze gelijk hebben van ze moeder,maar t is wel een eikel
is er geen. voor kraaij ?
een app voor elke smartfone bb zijn er nog meer mensen te bereiken,denk daar eens aan,er bestaat meer dan android
komt goed blijf erin vertouwen
jij begrijpt het
dat wordt
idd beter dan alle namen die mogelijk zijn pfoeh
reken daar maar op ja.
mooi he , echt genieten,lijkt fr wel
krijg er ook rare beelden bij,ja salinero was ouderwets heet zegt anky.dat had ik nou niet hoeven weten.
is vroeg dit jaar
wij gaan winnen,alleen met hoeveel is de vraag
wat gaan we doen vandaag
vertel het ze ronald , doe je best
daar doe ik t voor
stroomstoring#rijnwoude zal pas 1630 verholpen zijn
12 voor de
hier betalen we belasting voor !
niet alleen spelen, t zijn homos
klasse dat gaan we redden,mark my words
goed gesproken henk
go i like
hou me op de hoogte,kan hier niet kijken
en toch gaan we nog een hoop plezier beleven van
gaat best lekker,alleen de bluf van is er nog niet
hij is toch in het buitenland nu bulykin ik wilde eigenlijk naar het buitenland
kopenhagen
ziet er goed uit,hopelijk ook voor
meer balbezit zegt dus niets,maar wat je er mee doet daar gaat t om
ik voorzie een bij
als je hier aan meedoet,verklaar ik juli voor gek
staat je goed man,dat mooie shirt
zijn ze er dan toch weer ingetuint ? ☺
het leven is veel te kort. herma rust zacht ☹
4 weekend kaarten te koop voor concert at sea 29&amp30 juni a.s. €30 per stuk. by please rt
helemaal mee eens hoor
laat de competitie maar snel beginnen.. heb het gehad met het ek.
kutneus
media onterecht negatief over en en de waren ver beneden maat
gaan we ons weer lekker richten op
zoals ze nu spelen,vindt ik het nieteens erg dat ze naar huis gaan
en dat is 1
wij niet
misschien komt er in,die is daar ook
ja doe nog maar zon reclame
wat staan we voor lul zeg
wat een. voor die duitsers
dan spelen ze met 12 man dat mag niet he
en zo kom je nou terug#holland spaita
1 troost,op doelsaldo staat er pas 1 doelpunt achter
oranje wil demonstratief verliezen om aandacht te vragen voor de mensenrechtensituatie in oekraine.
wat een afgang zeg
doet mee ,goede keuze
veel plezier ♥ zo een zin in de nieuwe show van vanavond! nog 2 uurtjes wachten tot het begint...
schitterende goal
gefeliciteerd eindelijk een goeie club
iskrijg dan de vinketering ook een beetje ?
toch nog voor
peperduur beeldje gevonden bij tussen kunst &amp kitsch.
ik doe mee met de twitteractie &amp maak gratis kans op een uniek gesigneerd shirt. jij ook?
ben je nou weer gelukkig ?
congrats
wat een lul
een nieuwe spits, ik ben
2e helft,#kuiponwaardig
bedankt ,en hoe verder?
stadion de kuip,gefeliciteerd
mogguh,hoe was de film?
hier nog een oude kuip
krijgt weer klop ? 31
straks op
toen was ik al op werk
dat was nog dommer dan een shirt uittrekken
het wordt 22. cabral en bakal.
krijg je ook een bon voor te langzaam rijden op die plek ?
niet zo handignot so clever@superguidetti
nou,hier vreten ze best
van harte gefeliciteerd
ok thuis gemaakt ook lekker natuurlijk
ziet er lekker uit,maar ja,starbucks he
guidetti is mijn held
mulder is niet mijn held
kleindochter klaar voor klassieker !@megafeyenoord
een alleraardigst boekje over &
heeft gescoord
koud winterweer op komst
vernomen dat vliegtuigjes boven rijn en veenstreek opnames maken voor grid kaarten navigatie, google maps enz..
dat is fijn om te weten.
er zijn echt gestoorden hier nu bezig
ja hier met vlagen rustig
ja hier ook in de jp hejestraat/genstetstraat
de doorrij paaltjes bij de van diepenbrokstraat worden nu behandeld
weer een grote knal bij de v diepenbrokstraat