zo te zien ken je vrij kaarten kopen voor feyenoord onder 19 tegen city, ik zeg massaal die kaarten kopen!
die in het begin binnen komen rennen waren van metalist die net een verkeerde groep van fe…
vaak totaal onnodige en buiten proportionele inzet en daarbij vallen de uren hoger uit door inzet ron…
haha staat nota bene op film, duidelijk zat dus. 1 wedstrijd meer dan zat.
andere context andere tijd, maar beide liedjes hadden betrekking op de supportersgroepen.
immers kreeg 4 wedstrijden in 2014 voor het zingen van een liedje wat “de voetbalsport schaadde”.
penoza wat gaan we je missen!
eindelijk een kroeg gevonden vlakbij de opstapplaats voor een koud biertje voor de wedstrijd
artikel vol met onjuistheden
al weken niet
zou een beetje hypocriet zijn. eerst zelf in de spiegel kijken voordat je op andere gaat…
as roma supporters die zojuist apengeluiden maken naar hun voormalig ploeg rüdiger.....
ik heb hem als l…
we zetten alles op alles
haha ik noem ze anders wel even rico schiedam, vlaardingen, maassluis, maasland en de lier
zouden jullie mij kunnen volgen voor een dm ?
lichtpuntje van de de avond amrabat stoot lurling van de plaats als het gaat om laatste cl doelpunt👏🏼👏🏼👏🏼
nelom voor rechtsback!!
converten naar word bestand
wel iets moois voor 😜
boudewijn!!!
een van de redenen om te gaan bezatten deze avond
az uit ook weer binnen
1200 gold trouwens
1ste trein genoeg legen plaatsen
jullie vol uitvak, echt bier en geen netten. wij de plaatsen voor het aquarium! deal ?
zelfs oude mensen en kinderen ?
zojuist de 1ste groepjes city supporters in de stad gezien.
en dat in shit city
zal wel te maken hebben met het beeldrecht, dat ze dan weer een bepaald % moeten afstaan aan de uefa
nu hopen dat het verzoek geaccepteerd word door az! goede zaak!
wederom voor een belangrijke wedstrijd met dit soort nieuws naar buiten komen....
kan ook tegenwoordig niet meer ongezien een feestje vieren 👀😜
gister was weer zo awayday dat we naar de duitse grens reden inplaats van naar rotterdam 😂😂😂
prima uitvakje vandaag!
wij zijn klanten 😅😜
buiten de combi mag dit wel?! 😜😜
zie heel veel mensen met problemen met kaarten bestellen voor psv uit, problemen die mij niet bekend voor komen
en na de wedstrijd stop de trein ook op dordrecht, stadion en rotterdam centraal. ideaal dus!
crisis voor de eerste awayday van het seizoen zaterdag. hoe houden we het bier koud?
ben jij mijn partner dan ?
heel veel mensen hebben hier last van op het moment.
zelfde als hier🍉
het was weer zo avond maar...
koop nu uw wel gelachen hoor sticker bij plak hem op bij het uitgaan en ga een mooie avond tegemoet....
je scherpte is er een beetje af...
was een voorwaarde voor de 200 extra kaarten. psv wou alleen diamond en gold voor bus...
bus was vorig jaar ook uitverkocht geloof ik en als deze niet is uitverkocht komt deze…
klopt 1400 trein en 200 bus voor diamond en gold inderdaad
nog een keer 200 kaarten erbij ?
er ging deze week toch een delegatie van feyenoord naar napels? hoe is dat afgelopen?
ohh dat moet dus geen probleem worden voor ons daar meer kaarten!
gebeurde mij vorig jaar ook. je verlies pakken en via een andere weg boeken. weer wat geleerd.
dankzij dit doelpunt mijn 1ste 2 europese awaydays gehad. ervaring om nooit te vergeten!
word een kort nachtje maar het was het allemaal waard, rooi ronnie strikes again!
zo te zien kan ik me vliegtickets omboeken😜😜 wist niet dat we in australië speelde
u mond zult als fontein gebruikt worden wel creatief
haha dan moet je de reacties is lezen op de facebook van feyenoord over de loting
ze hebben geloof ik een beetje een uitvak als standaard luik maar dan het onderste gedeelte ook open
sorry hoor maar geen toornstra maar wel van de beek en van ginkel 🤔
mensen nog met reisroutes naar napoli ?
zie dat mensen annulerings mails krijgen van vliegtickets.nl en cheaptickets.nl. vorig jaar hetzelfde ervaren ondertussen derven geleerd.
vorig jaar in een dronken bui in manchester een gothic aan de haak proberen te slaan. gelukkig volgt er nog een 2de…
nota bene bezig om vliegtickets vast te zetten bij ryanair voor 24 uur word ik er uit gegooid op de site...
manchester we komen! vlucht geboekt, wat een chaos weer!
of gaat feyenoord kaarten voor de fsv reis apart houden, wat overigens een goede samenwerking zou zijn.
neem aan dat een silvercard bij minder dan 1600 plaatsen hier dan niet direct aanspraak op kan maken ?
het feit dat maandag het nieuwe collegejaar begint en ik momenteel meer voorbereid heb voor de loting van donderdag baart me nog weinig zorg
vergeet je telrek niet robin. neem aan dat de cijfers in je naam voor de prij…
je speelt toch europees dit seizoen als alles goed gaat pannenkoek, dat is de reden dat…
haha dat wordt in 1 keer door naar mij rico, neem jij het eten mee!
aan ons is de glorie het dal is voorbij! vanuit hellesylt noorwegen
graag mijn dm met spoed behandelen!
iemand enige idee waar ik morgen op de costa magica in de noorse zee feyenoord kan kijken ?
wat gebeurd er dan met de €1, van het calamiteitenfonds rond om uitwedstrijden ?
mensen nemen het zo te zien al niet meer a…
louis van gaal en willem van hanegem coachen jongste jeugd
wint feyenoord weer een prijs is er geen kut meer te beleven in de stad... nooit meer vermeer!
klopt eeuwig zonde!
geen speciaal jcs kaartje zoals vorig jaar
in café feyenoord in antwerpen misschien
keepers discussie heeft zichzelf opgelost, eindelijk!
neem aan dat deze niet allemaal in het reguliere uitvak gaan ?
krijgt de uitspelende partij betreft cl dit jaar wel 5% van de stadion capaciteit ?
dat was het dan mijn 1ste u2 concert
nog even flink zoeken moet toch ergens in huis liggen
wel mooi om alle kleinigheidjes van het legioen bij de wc rollen te hangen 😂
heerlijke sfeer in de bosuil bij royal antwerpen fc rsc anderlecht
iemand enig idee vanaf wanneer feyenoord deze weg gaf? heb ze vanaf 20102011 tot heden?
dat noemt zich wel een echte groundhopper...
haha we moeten stoppen met doen alsof het ooit net zo groot als mannen voetbal kan worden😂
12 van kramer in de 92ste minuut tegen nec afgelopen seizoen!
bring back drol molen als linksback!
er zijn ook nog mensen die hardcopy kaartjes sparen hè, waarom die niet tegen bij betaling thuis laten sturen ?
het seizoen openen met de awaydays 2.0 groep.
dagjes mensen die niet op de hoogte zijn van het sv beleid 😅
hoe ik me na vannacht voel...
wat is de reden dat schuurman nog geen speeltijd gehad heeft? mogelijk verhuur ?
wat ziet die jongen er ongelukkig uit zeg...
jammer dat er nog 2 andere in deze conversatie gelinkt zijn
helaas ben ik niet degene van de email
ahjoh wie weet wat voor leuk persoon er achter die email zit
welkom bij feyenoord waar dit helaas vaker gebeurd, wel je eigen ondertussen ?
staat gewoon online
komt het kaartverkoopschema nog bij de kaartverkoopinformatie te staan op jullie site ?
normaal doen hoor
dit gun je zelfs je eigen vijand niet!
haha royal antwerpen fc tegen eupen vorig jaar, nog een politieauto ook
awaydays, mogen we alweer ?
ook maar het groene trainingsshirt bestellen. broekje bestel ik wel zonder logo scheelt me €15 ...
heeft het nummer van joris van benthem?
is het alweer tijd voor boulahrouz en wilkshire of wellicht toch tim de cler....
dumpert filmt je werkplek s03e07 een kijkje achter de schermen bij de me met daarbij het kampioenschap van feyenoord
laat mij de balletjes maar pakken
opvallend dat nadat een kampioensposter uitbrengt feyenoord zelf ook direct met 1 komt
ik wens je alvast een prettige wedstrijd mocht je nog willen komen
1200 is in het uitvak valt beter te regisseren dan nog eens 2800 los buiten het uitvak
haha kijk eens naar nec daar zitten we ook georganiseerd buiten het uitvak en dat gaat gewoon goed.
nee vraag waarom wij het stuk voor het uitvak er niet bijkrijgt
die zijn er al als feyenoord speelt je zegt het goed ongeacht de tegenst…
2/2 zitten en grotere clubs met gevuld uitvak niet dat kleine stuk voor het uitvak erbij
zeg niet dat grotere clubs belemmerd worden door punten op het hek. vertel…
de kosten hebben niks met een incident te maken. de politie moet beschikba…
2/2 stijgen de pan uit door bekerfinale en kampioenschap. die kunnen en wi…
knvb had voor de bekerfinale de nieuwe opzet jcs kenbaar moeten maken. beg…
jij zegt bezig met normalisatie doordat kleine clubs plaats mogen nemen vo…
tijdens bekerwedstrijd vitesse feyenoord geen punten op de plexiglaswand…
laat vitesse nou eens stoppen met klagen, normalisatie begint bij jezelf!
aangezien boëtius groots is aangekondigd de afgelopen dagen verwacht ik ook wel veel van hem!
nog 1 tentamen te gaan en de buren besluiten om de tuin te doen met shovels... ffs
blij dat ik geen tentamen had vandaag 😅
nee nog niet. heb een 1908 lidmaatschap. kennen we die niet omzetten ?
fundering werkzaamheden ?
moeten jullie met wel volgen
heb ook geen bevestigingsmail gehad
staat al op de site. is al te bestellen
zelfde als dat karsdorp met een privé jet van ze…
niks veranderd kwa speelstijl en nooit 100% fit
komt er nog een link met speeldata dat je ze in je agenda kan zetten ?
iemand die de data van de uefa youth league heeft ?
zo voetballoze zondag dat je besluit om je kaartjes van uitwedstrijden van feyenoord eens uit te zoeken
waarom word er tijdens de wedstrijden van het nederlands elftal wel echt bier geschonken en bij feyenoord light bier ?
het schijnt zo te zijn dat veltman houdt van score in de kuip
op 19062016 een nieuwe foto laten maken voor me seizoenskaart. moet nu wederom een nieuwe foto maken volgens de brief ....
iets wat niet alleen op het zadkine gebeurt in rotterdam, eigen ervaring.
de schreeuwende minderheid die zich tenminste had verdiept in de kwestie
nou snap ik waarom service &amp tickets om 1500 dicht ging. vanwege al die mensen die gaan bellen wanneer het afscheidsfeestje is 😂
en jullie gister tegen mij zeggen dat die niet meer verkrijgbaar is de speciale bedrukking.....
duidelijke trend te zien in het aantal zoekopdrachten over feyenoord over de 2 kampioenswedstrijden
volgen voor dm
na 10 jaar niet eens tijd om weer opnieuw uit te brengen ?
dat dan weer wel!
haha moest deze nou ? 😂
haha jer jij hebt ondertussen toch wel genoeg prijze…
voor altijd de eerste
hoop oprecht op een mooie dag voor het nederlands voetbal. xxx niks in 020, beker, landskampioen en europa league!
wat is je bron dan ?
neem aan dat nu wel met feyenoorders gaat spelen inplaats van suarez
9 juli pas in de verkoop aldus iemand in de fanshop
of je doet als gewoon dit ...
wanneer janscharie met 1 insta dm heel je avond weer compleet maakt
ik neem aan dat je ook nog een stukje gaat schrijven over waarom de ligt na lyon ook dit soort…
leuk idee van jammer dat het gelijk zo prijzig is voor een 6 pack...
ogen dicht en ervaar het nog eens🔥
vraag me nu toch af op hoeveel leden zit na zo mooi seizoen?
nog bedankt voor de gouden tip afgelopen juli. het geld voor de europese tripjes is ook weer binne…
na 2 schitterende dagen mezelf maar weer storten op me portfolio
ondertussen heel wat filmpjes van boem boem theo voorbij zien komen, love it!
me de laatste 2 km naar me huis maar met een taxi afgelegd wat een toestand, wij zijn kampioen!
we zijn helemaal naar de kloten gegaan 👏🏼👏🏼👏🏼
r.i.p. bierdoos peet
hbo coach, ja reflecteer maar op je reflectie reflecteer me ondertussen een ongeluk
niet voor erna ?
nog mogelijkheden ?
bij nader inzien misschien toch wel handig om daar na de wedstrijd heen te gaan !
ja dit keer weet voorzien! thanks voor het vragen.
zwarte dag voor het nederlands voetbal
feyenoord city, met een blok beton de maas en gauw!
2022, nooit meer stadion feijenoord de kuip....
conclusie na het bijwonen van de raadsvergadering. het gaat over alles behalve wat voor de club goed is!
ondertussen zie je raadsleden de comments onder een artikel van lezen
volle bak in de raadszaal
in het zonnetje wachten tot 1330 voor het gemeente huis is ook geen straf
is het vrij toegankelijke in het gemeentehuis ?
neem aan dat dit gewoon openbaar is ?
hoelaat zal dat ongeveer zijn ?
pikkies van 17 die het in de bus hebben over hoe ze aanstaande zondag weer willen gaan rellen in het centrum .....
wellicht de provider te contacten via twitter? wellicht kunnen die je verder helpen aan de hand van de simkaart
dat was vrij duidelijk! succes de komende periode!
indrukwekkend om te zien hoe jij op de erasmus campus je emotie toonde na de wedstrijd!
straks weer alle dagjes mensen uit me klas die over feyenoord willen praten. hou je bek en ga terug onder je steen
svtjes en gebiedsverboden voor volgende week
helemaal mee eens! maar toch weer zoveel onnodige geweld voorbij zien komen ook van jullie kant!
mensen moeten ook de kans krijgen om weg te kijken, neemt niet weg dat mensen allan…
waarom dan charges uitvoeren zelfs tot aan eendrachtsplein ?
vraag me echt oprecht af waarom helemaal tot daar charges uitvoeren?
schijnbaar hebben ze niks geleerd van hun collegas in manchester. open maa…
dagjes mensen zijn dit! over grote meerderheid met seizoenskaart zat of in de kuip of op woudenstein!
over 9 maanden een flinke toename in geboortes
zo alle recorders voor morgen zijn ingesteld, spanning is voelbaar!
mee te maken. zelf morgen in het uitvak maar toch met een dubbel gevoel. 2/2
toch een dubbel gevoel bij morgen. al 10 jaar samen met me vader naar de kuip, grootste wens van me vader om samen een kampioenschap 1/2
niet geheel ontevreden voor me eerste keer spandoek maken. hoop geleerd voor de volgende keer.
ahh op zo manier
ruim 3 maanden van te voren voor aanvang van het nieuwe seizoen een andere opzet presenteren is in…
hou toch op jullie meer kaarten bij ons is wij meer kaarten bij jullie
nog mensen die een kaartje hebben voor ad lezers feyenoord bij biergarten aanstaande zondag en die deze wellicht willen verkopen ?
klapstoel en wcpapier niet te vergeten
zo gaat heel de charme eraf. armen omhoog na de laatste fluitsignaal en dan gelijk de…
wedstrijd verzet voor de dodenherdenking, vervolgens 50.000 duizend man joden scanderen. misselijkmakend
wat is de reden dat supporters uit het uitvak hun kaart thuis gestuurd krijgen voor ze kuip?
live chat met apple. kijken ze gelijk met je mee en kunnen ze het probleem nog oplossen
mensen uit het uitvak in een speciaal vak of gewoon op hun eigen vak ?
zeker zonde! is ook niet de 1ste keer dat aan die kant een spandoek scheurt tijdens de beker finale
gezocht feyenoord supporters die zondag 7 mei in het uitvak zitten en daarna door naar de kuip gaan
bekerfinale vorig seizoen, waar we net voor de kuip tegen werden gehouden door de me
momenteel draait het om 1 ding in rotterdam! volgende week zondag!
loop je dan aangeschoten door kralingen met het besef dat je hier volge de week zondag ook loop
ken wel achterop bij joh toch na de wedstrijd richting het stadion 😜
moeten die supporters op eigen gelegenheid naar de kuip of gaan die ook met bussen?
kaartje excelsior rotterdam uit ook fysiek binnen. wat een gevoel is dit zeg!!!
de kortingscode van leden van de feijenoorder werkt niet meer klopt dat?!
ergenis nummer 1. mensen die heel het jaar niks met feyenoord hebben of nooit naar wedstrijden gaan staan nu vooraan in de rij
adrgoederen moeten speciaal verpakt worden voor verzending.
tieft toch op me je ambassadeur voor de club. sinds het goed gaat ben je in beeld maar waar was je toen we 7 keer o…
waar waren gister de voorzieningen van de opstapplaats ?
dat moment dat sjaak in bedwang gehouden moet worden door iemand van 12 😂
op der linkdin pagina zou het ook niet misplaatst zijn, dag dag carrière
we breken de tent af!
goed aan de schandpaal, hulde!
willem zoiets noemen wij een rookbom 😂
dan kom je held tegen op de snelweg. we worden gek!!!!
psv scoort, bier vliegt de autos uit op de snelweg
rico we gaan gewoon gezellig de kroeg in joh!
nog steeds vind ik dat gullit en fred rutten het moeten doen voor oranje
waarom werd jullie doek verwijderd bij opkomst ?
kan ik begrijpen maar zoveel moeite kan het toch niet zijn binnen het systeem. elke stem in het uit…
2/2 is het mogelijk om deze kaart nog nog over te schrijven op iemand anders zijn naam ?
een vriend van mij kan wegens verplichtingen bij de landmacht niet meer naar vitesse uit. 1/2
iemand die weet of de raadsvergadering van gemeente rotterdam op 20 april openbaar is ?
hoe verklaren jullie dit ?
hetzelfde dat de prijs voor de busreis van rotterdam en heteren voor vitesse uit even duur is!
meelifters op het hbo met projecten, een verschijnsel wat snel uitgeroeid moet worden.
weer lekker ouderwets tot de laatste minuut/ronde spannend maken. typisch feyenoord wat ik heel het seizoen gemist heb.
heb die nelom ze schaatsen aan dat die steeds uitglij
wanneer je meer spanning hebt voor dan je tentamen van morgen voor je p.
wordt weer mooi met de groep!
even terug volgen voor dm
geen kuip voor mij vanavond maar zwoegen voor me tentamens
zoveelste keer dat het volledig mis slaat met de cover.
vermeer tijdens het like van de foto
feyenoordsupporter ik heb een sinaasappel gegooid😂 via
hopelijk bewandeld die hetzelfde pad als zijn vader!
stemming makerij van de media weer totaal onnodig. wat verwacht je dan na de 10 als je met camera en een plopkap het stadhuisplein op loop.
volgens mij sta ik verkeerd ....
kom maar door
ik denk dat de wint. wat denk jij?
welke wedstrijden ?
mensen die toevallig weten waar en hoelaat de spelersbus van feyenoord vertrekt volgende week zondag ?
wauw de ligt 😂😂😂
zelf denk onderling op hr nog niet veel gehoord
mijn democratische plicht weer vervuld
wat als van benthum die dag toevallig zware griep heeft en niet kan komen. wordt het dan weer verplaatst?
nog financieel aftrekbaar met de belastingaangifte ? 😜
daarom dus tijd voor normalisatie bij het voetbal
hoe is de situatie daar nu ?
raad je aan om precies om 0930,01 pas in te loggen. doe dit ook altijd voor een vriend met silver en gaat haast altijd goed.
sta je al ingelogd voor 0930 ?
op wat voor manier log je in ?
in beroep gaan dan maar ajax mis je sowieso dan maar tonny er liever bij tegen az dan tegen de eagles!
het moment dat je duits lerares het college stil gaat leggen om 1000 voor de uitspraak van de tuchtcommissie.
knvb wilt toch een open en transparante organisatie zijn! laat cameras dan gewoon toe!
nieuwe reebok club c 85 binnen, weekend offender rotterdam city serie besteld 👌🏼
makkelie floot er toch voor ? dus waargenomen. heeft dat geen invloed dan ?
klopt! vaak zijn het ook dezelfde die sfeer proberen te maken en dan kijken sommige je aan alsof je gek bent.
duidelijk beeld van de generatiekloof tussen hoe de jongere supporters een wedstrijd beleven en de ouderen!
als doellijntechnologie te duur is per wedstrijd kunnen we toch beter een 5 en 6de official naast het doel neer zetten ?!
spullen pakken, bier halen en richting het kasteel.
uit bij ado viel die mee maar was te verwachten natuurlijk
hopen dat deze zondag ingezet en gezongen wordt!
punten van ado den haag uit staan niet op de infomail van sparta uit
wordt dan ook eens tijd dat dit in eindhoven gebeurt als we daar spelen. wij geen net in eindhoven geen net in rotterdam
waarom hing er gister geen net voor het uitvak terwijl wij in eindhoven altijd tegen een net aankijken?
heerlijk smikkelen was het!
je vader van 64 in tranen zien na de 21 van janarie van der heijden. ultiem geluksmomentje
goed verstoppen onder je 3delig vest morgen jer
maakt feyenoord zich nog hard voor de hele zijde bij excelsior uit zoals aantal seizoenen terug ?
kunnen jullie reageren op mijn pb !
het coen effect duurt voort! alle uitwedstrijden geweest tot nu toe behalve eagles en utrecht uit. precies de 2 die feyenoord niet won..
iemand die weet of berghuis iets aan ze rechterbeen heeft? altijd maar naar binnen...
als rob en anja vervolgens een nederlands café in spanje hebben met nederlandse belettering is het niet erg meer ...
vorig jaar op valentijnsdag in de sneeuw in zwolle. feyenoord voor de zoveelste keer op hun kloten zien krijgen. jaar later is alles anders.
zouden jullie snel mijn privébericht kunnen beantwoorden
toch nog even een persoonlijke doelstelling bepaald voor dit jaar met in de trein
klopt beetje passen en meten en het was prima gelukt.
dit jaar heel veel seizoenskaarten op bok de korver waardoor deze niet meer te verplaatsen waren
gelukkig heb ik hier al rekening mee gehouden 😎
650 kaarten voor sparta uit waar je vroeger nog wel eens de hele bok de korver kreeg...