gaan jullie dit aankaarten bij de uefa?
ouch
feyenoord heeft dringend snelheid nodig in de verdediging zie zwolle uit. probleem van nieuwkoop werd toen ook duidelijk.
dit wordt wel een probleem volgend seizoen. snelheid achterin compleet verdwenen!
thnx! was de afscheidswedstrijd van gio niet de openingswedstrijd?
als openingswedstrijd?
samen met onze gappies in het home plannen maken! wat jij
zijn momenten geweest dat niet mee zat en dat wordt niet genoemd. belangrijkste is de onverzettelijkheid, geen geluk
geen sambuca voor in mei!
dank dat je mij zalig kerstfeest kwam wensen. kan daar een voorbeeld aan nemen!
we durven zelfs te zeggen dat we qua spelersbudget structureel tot de top van nederland gaan behoren
lekkere analisten zeg wat zegt meer paar fragmenten laten zien of een gedegen onderzoek
lekker argument bert. van 1/20 van prof salaris niet kunnen leven.
volgende week weer sambuca drinken? of gewoon pints?
hoe staat het met die voetbalwet daar? er gebeurd daar toch niks meer.
gewoon een stiekeme belasting verhoging
het elfde gebod verbieden om op tv te verschijnen
nog beweging rond de vrij?
ff limoncello drinken samen. en alles is weer koek en ei
valentijn gunt jullie geen primeurs hé?
de maandag weer terug?
kan die nog populistischer?
verwachting? 5%?of alleen bij winst? bij overige spelers wel iets afgesproken toch?
krijgt feyenoord nog iets voor janmaat? doorverkoop %?
neem die grol aan als mental coach
hij had gewoon bij een chick moeten gaan slapen of een hotel moeten boeken. was er nergens gezeik geweest
hopen dat alles goed is met van vleuten.
aspirant eerst hé
verstandig
gebruik je nou mijn printscreen
wat moet rasmussen zich genaaid voelen als hij dit leest.
hoe serieus is de italiaanse interesse in sven van beek en karsdorp?
en dat moet de leider worden van de
zal die het woord tactiek kennen?
en kan italië weer hun zelfde tactische spel spelen.
buffon en de gea door elkaar halen. pffffff
of 2 wedstrijden vervalsing
in het kader van bezuinigingen niet verder dan grens regio?
altijd maar weer zijn vriendjes verdedigen.
kan derksen nog wat anders zeggen dan je kent de feiten niet.
en nog niet winnen 😂
en dat is de club. niet nu opeens verschuilen achter individu. brede laag van bestuur wist ervan.
welke straf is nu echt effectief voor jarenlang frauderen? punten aftrek niet, europees niet...
een schande. fraude loont
voor een schijntje natuurlijk
onno jacobs had in de winterstop toch al een plan?
er is gebleken dat ze vaker de boel hebben besodemieterd met meerdere transfers. was natuurlijk geen vrijbrief.
valsspelers die gaan klagen over regels.
dus transferpot zal ongeveer zijn opleidingsvergoeding van chong, bmi, transfer achabar en transfer immers?
zal dus niet veel zijn gezien prestaties. of hij moet naar een redelijke engelse club gaan
heeft feyenoord nog een doorverkoop %voor pellè? of andere spelers die een transfer gaan maken van het zomer? bruno?
wat gaat er met jari schuurman gebeuren? kans krijgen of heeft gustafson nog het voordeel?
toch nog een kritische vraag.
ik kan geen andere reden bedenken. wel zonde van die 2 miljoen.
goedmakertje richting onno
zou dit de journalistieke vraag zijn?#dwdd promotiepraatje
mathijs kom op één journalistieke vraag.
gedeeltelijk. want pass zal vaak niet gegeven worden.
belangrijkste eigenschappen van verdedigen is natuurlijk niet in statistiek vast te leggen helaas. positiekiezen
hoewel ik wel denk dat sommige zaken komen door dat clasie in eerste seizoen voor hem stond. minder druk op verdediging.
2 conclusies volgens mij. karsdorp heeft aantal eigenschappen van een goede back. sven beek niet
heb je ook een benchmark voor hun type speler?
conclusie kwaliteit schoten van feyenoord minder dan concurrent?
wat zullen ze tegen elkaar zeggen? hadden we maar samen met jan arie gespeeld?
als dit tot extra donaties lijdt? ja! plus kwf heeft geen monopolie. samenwerking is key!
helemaal mee eens humberto! en feyenoord is zijn hobby. mag hij dat ook hebben?
publieke opinie zoals zo vaak
hee het blijken geen eens supporters te zijn maar pizzabezorgers. te vroeg geoordeeld door iedereen inclusief directie..
stadion zelf 400 a 500 totale project 1 miljard. verschil. nog steeds hoog risico
worden terecht duurste plekken. dus zal grote gevolgen hebben voor sfeer ivm bezoekers /supporters
nelom verkopen of hem verlengen en en verhuren
is al aan
weer baas in eigen huis worden en gaan kijken wie voldoet en niet. alleen probleem blijft vvf uitkopen
en wachten op moment dat er weer een trainer geslachtofferd moet worden?
bizar toch. aso naar spelers en technische staf. puur met zelf overleven bezig dus? komt er artikel over in ad?
gelukkig zijn wij al veilig!
ik nomineer gudde en van geel als afscheidscadeau.
zijn dat die gasten die nu zijn weg gedoken? die je over alles hoort behalve voetbal
wanneer komen gudde en van geel een keer voor camera? zijn ze verplicht aan publiek
een directeur die 8 jaa faalt. rvc die enkel aan eigen belang denkt.
zullen wij gudde en van geel nog zien?
en nog een toelage voor de bijstand?
stukje leesvoer
bij een strafrechtelijke versie is dit wel het geval! geen idee hoevaak wordt toegepast, maar juridisch mogelijk
vanavond aan heitinga vragen om zijn vrienden aan te spreken op wangedrag hé
vuurwerk zoals fakkels afsteken is ook al hooliganisme?
van wanneer is dat plaatje mbt verdedigen? waarom zo dichtbij bayern?
heeft nog bemiddeld bij de transfer van ? met een mooie provisie?
niemand hoort bedreigd te worden. maar daardoor kan je niet een hele groep in kwaad daglicht zetten. als dit over afkomst ging.
en ik heb geen zin om mij te verantwoorden voor wangedrag van andere. die ik niet eens ken.
door fr supporters te noemen wordt groep aangesproken leg je verband oa naar mij en ik wordt daar door aangesproken op werk.
raar dat jij hele groep verantwoordelijk houdt voor gedrag van paar snotneuzen.
ag dat krijgen wel meer spelers niet, heeft al afscheid gehad?
zou wel wat zijn!
wou kongolo niet langer dan 2018? neem aan dat feyenoord op een langer verblijf heeft ingezet?
hoezo? ze zijn toch gewoon knvb lid? bond moet leden ondersteunen
ik zou weer terugkopen!
ben jij al klaar voor de 3e helft? en staat de limoncello klaar?
zutphen boeiend. vergeten stuk land aan de ijssel. prima straf trouwens
nelom wel gehouden of alleen kuyt!?
of immers , toornstra? kansen voor ?
waar zijn die 20 herhalingen van vdstruik? of alleen tegen ?
en iets met niet kunnen incasseren
deze verdient een retweet!
niet spotten met dementie hé
gelukkig niet zonne grote knal jonguh
breng ze nou niet op ideeën he!
blij dat ten cate van zijn berg is neer gedaald en zijn levenslessen deelt
ten cate pffffff
sinds wanneer gaat politiek over de precieze invulling van de netten?
en voetballers betalen kruisbandblessures zelf?
meteen rechts de kroeg in gedoken?
nog een beetje global warming en we zijn griekenland 2.0
goede column, data zou altijd ondersteunend moeten zijn.
immers kan zich richten op het darten?
wat een kansloos antwoord
en wat vind hij van het selectie beleid voor oranje?
koeman nog geïnteresseerd? vervanging van wanyama? tussenstap zoals boetius zou beste zijn
spanje duitsland of toch bij feyenoord blijven?
ahh gelukkig gudelj maakte nog geen eens een overtreding.
vi is heel ander concept. en zonder vi nauwelijks journalistieke diepgang. dat zou juist kracht moeten zijn van
of geval vergrijzing /old boys network van de npo?
ze komen weer redelijk gefrustreerd over. kan die mulder niet is beter over twente04 praten
goed artikel gelukkig geen rekening gehouden met investingspoule, 5% excelsior. puik werk van de foute krant
mogen verder manu woudenberg wessel dammers verhuurd of verkocht worden? en wat te met talenten als schuurman, nieuwkoop verdonk?
werkt voor een foute krant hé
neemt hij het op voor de directie?
bizar. 8 ton. voor een bankzitter
hopelijk samen met jack snel weg
bang voor kritiek? in plaats van overtuigd van visie?
owain ware woorden kerel. dreigt daar nu zelfde situatie voor als voor vilhene en boetieus?
supertrio? kom op botteghin moet met beek knokken voor een basisplaats. kramer met kazim, elia afwachten of hij het nog kan!
regel ff dat die schotten hem kopen
ziek na een rustdag, klinkt verdacht....
wat is je verwachting mbt immers? transferprijs zal niet het struikelblok zijn?
komst van gustafson betekent definitief geen toekomst voor of voor een andere middenvelder?
het facebook account van reageert trouwens sneller. ben benieuwd
ze hebben wel een zware concurrent aan wat denken jullie
moet natuurlijk nps score zijn
voor de nota weten ze de klanten wel te vinden
hoeveel wijzigingsformulieren zal hebben? en hoevaak moet je er een insturen?
vandaar dat hun npo score zo laag is klantenservice
omzetten van naam op contract is nog te moeilijk voor wijzigensformulieren opsturen kunnen ze wel.
het maat. kunnen jullie mij wel helpen? met omzetten contract. per post en klantenservice lukt het niet
dan zou logischer zijn in die rol
zon broodvoetballer moet je niet willen tenzij kwaliteiten als destijds pierre heeft.
en boetius volgend jaar transfervrij weg? of gunnen ze feyenoord nog een transfersom?
tja je kan spelers niet dwingen. zonde. blijft een talent en heeft veel diepgang in zijn spel.
blijft een structureel probleem. vanaf van persie al. jeugdspelers niet op tijd verlengen en belonen!
is er een mogelijkheid om hem op andere gedachten brengen als hij een kans heeft op een basisplaats?
welke posities lb, vm en spits? of daarvoor eerst verkopen? hopelijk vejinovic als vervanger clasie
tuurlijk niet voorlopig zal er wel geen limon inzitten gezien feyenoord. gaat er nog wat gebeuren of geen budget?
ouwe limoncellovriend, wat maak je mij nou? mijn club in een kwaaddaglicht zetten. dat kan toch niet?
kansloos stukje van
zou hij in de gaten hebben dat hij verantwoordelijk is voor zijn bestuursleden?
de webshop mijn referentie is 150519 005903
de klantenservice van maakt mij wel gek
fijn! had al in februari gemoeten. gebrek aan visie vanuit directie. slechtste trainer in jaren
zou van geel niet leiderschap moeten tonen nu?
opzich redelijk selectie op papier. dus nog een kans. verkopen goed aankopen niet goed
kom gvd op de 2e helft en winnen. hoe maakt niet uit
halve finale cl en dan een foute ingooi...
de ergenissen van gijpie zijn gewoon terecht.
de eerlijke vinder heeft zich gemeld.
iemand een portemonnee gevonden?
lekken om reacties te peilen cq mensen er aan te laten wennen?
vilhena geen optie voor die positie?
terpstra
wat is de reden? stil stand? was in de b toch groot talent?
denk omdat je deze kant op komt
google wilt je tweet vertalen uit het duits...
nee joh aan een stap hoger op toe.
gudietti spits kuijt op rechts en toornstra er achter. immers verkopen
6000 supporters is al snel een totale besteding van 3milj. hotel, kaartjes tickets etc.
afhankelijk van tegenstanders. feyenoord neemt meer supporters en dus ook meer risico mee.
is er ook rekening gehouden met economische waarde van het bezoek van 6000 extra bezoekers?
wat hiervan. grote imago schade voor feyenoord. claimen bij de italianen?
onderweg naar rome
hoe laat ben je
hoe kan dit?! zo’n 24 uur na het einde van de wedstrijd van gistermiddag zijn er nota bene ...
heb geduld en vertrouwen in
hahaha dan ben je geen ekte ekte
en toch koop je het weer he!
uitmelken tot de laatste cent
naar welk mail adres kan ik een klachten brief mailen?
dit is toch al heel lang bij bayern? audi heeft volgens mij ook een gedeelte en meer bayernse bedrijven.
het veld is niet wk waardig bij
goed begin van meteen een ingooi.
dat is wel zuur! toch een rondje meer moeten uitdelen
kan dat te maken met max contractduur van 3 jaar? of ivm budget?
mag ronald de boer wel?
ware worden! nu maar hopen dat hij geen jeugd van ons weet te ronselen!
ik denk dat er ook van baalt dat in 020 wordt opgenomen.
mooiste dag van het jaar dankzij ?
dan moet je zo ff een foto van de twitteren!
zeker! ik had er vanochtend op de fiets graag gebruik van gemaakt. wat vind van de
de hint hoort niet echt bij het probleem..
kunnen jullie de vragen doorlopen wanneer je een toestel wilt aanmelden voor reparati?
volgens mij baalt jack!
hoe staat het met het broertje van kongolo?
en de contenfee voorziet daar in? of is dit simpel napraten? spelersbudget gaat niet veel meer omhoog. daar gaat het om#dtv
columbia 4 en 5 de boot in
jammer! had graag langerr gewild, maar bijna zeker dus dat hij na het wk weg wil voor een laag bedrag!
goed punt over de flexibilisatie van de arbeidsmarkt. groot probleem voor veel jongere!
dat is een
kan je nagaan wanneer hij in vorm is.
blijft een aardig spelertje die
weet het bijna zeker!
het zal wel met je brabantse afkomst te maken hebben.
matchday
gewoon eng he!
het blijven amsterdammers he
dit wordt de terugreis van hun leven
organiseer je ook een bingo voor de studenten?
bij mij achter
gezellig man!
ik accepteer het compliment maar van je. want meer ga ik niet van je krijgen
kijken. ben benieuwd.
veel plezier!
bekijk deze fotos
zal een stoppen?
alle producten van de euroshopper of toch ahexcellent?
kerel waar blijf je?
heeft volgens mij een ouderwetse donderspeech gegeven in de rust
welke dag wordt het uitgezonden?
niet meer naar gaan ben benieuwd of iemand daar ooit aan kan wennen.
en wat denk je van varkenoord! waar moeten we dan onze houden?
red de kuip
dat is frappant
hier wel..
koeman heeft groot gelijk afspraak is afspraak. had hem gewoon moeten nemen.
wat is die cisse aan het prutsen!
lekker
dank u! kan ik er weer ff tegen aan.
doe mij er ook een.
ook het domste wat je kunt doen...
volgens dit verhaal juist wel.
voor de geïnteresseerde clubs kost minimaal
solidariteitsbijdrage heet dat dacht ik.
er is toch ook zoiets als een trainingsvergoeding, zoals in het geval vorig jaar van de guzman naar villareal?
krijgt hiervan 5%?
is er nog een kans op meer kaarten?
volgens mij hoeven we ook geen discussie te voeren of hij wel of niet buitenspel staat. was redelijk duidelijk
bijna net zo goed als tot nu toe
geldt pas vanaf een meter hè...
en niet veel later kopt hij hem erin...
wat een akelige man blijft die zelden iemand zo vol van zich zelf gezien
hij verslaat het gebied van
lekker hoor
100 meter spint! gaat een spektakel worden. ben benieuwd of
lekker hoor
bedankt!
vandaag geworden van mijn stoere neefje
wat een kutweer. gewoon nauwelijks uit te houden op het
genieten van de zon! grand cafe de notaris
yes! is weer begonnen
de pretliner gaat niet naar
lastige loting! gelukkig de 2e wedstrijd thuis! zal zwaar worden!
gewoon de pretliner?
hoe gaan we naar
lekker zomerweer. tijd dus om te
zal dan wel weer een bagger jaar worden
en de bardame natuurlijk of niet
en naar de
ik kijk alleen naar
heerlijk aan het genieten van de
waarom waren sneijder, van persie, robben en kuijt eigenlijk opgeroepen?
het schijnt dat als bondscoach wilt.
vanwege zijn goede periodes als trainer bij en doe mij maar
volledig terecht dat de door is naar de volgende ronde.
je bent toch niet van suiker?
dat zeker!
dan ben je een ekteekte toch?
alleen hebben ze daar geen
iemand in al bedacht om terug naar te schakelen?
wel jammer dat wij niet kunnen mee genieten van de intocht!
als jij het zegt. komt het vast uit
toch nog een paar euro op rusland gezet. hopelijk maken ze de polen in
het is wachten op het moment dat feyenoord supporters de schuld krijgen van de rellen.
jij had daar ook kunnen staan hoor!
goede zet om die uit het bejaardentehuis te halen.
tuurlijk, hier in apeldoorn ben ik veilig. maar serieus, ik dacht echt dat hij al 4 jaar gespot was.
hoe oud is sheva eigenlijk? 40+?
lekker hoor ierland!
hopelijk kan ierland stunten tegen de kroaten.
lekker begin van je ek. na 20 minuten al geblesseerd zijn.
die polen timmeren aardig aan de weg
gvd dat zijn aardig grote vlaggen.
we gaan beginnen tot over een paar weken
teamuitje! voetgolf
krijgt feyenoord nog een vergoeding?
im at de graaf van vlaanderen apeldoorn, gelderland
wat een mooi weer om vrij te zijn.
zwaar leven!
vette beelden van de aankomst bij de kuip!
gefeliciteerd! jullie hebben het verdient!
net zoals we in het rechterrijtje zouden eindigen zeker.
genietend!