check out “middag wandeling in de sierra nevada” on relive!
2001 toen arjen robben nog met de fiets naar school ging... /via mooi filmpje
veel beterschap!
check out “klassieker wapenveldurkwapenveld” on relive! 108 kilometer met
vanavond gezongen met in dwingeloo. luister hier de zangdienst terug
haha maarten is in topvorm vanavond!
guns n roses in nijmegen met de boys
check out “avondrit met bijsterweinig” on relive!
check out “avondrit met schuur en bijsterweinig” on relive!
ja was t lekker? met hervormde pilsjes in de buik?
check out “ritje timon op sleeptouw nemen” on relive!
feyenoord gebak! met dank aan dirk!
het kampioenschap door de gekleurde bril van de verslaggevers van rtv rijnmond! prachtig!
goedemorgen! knap hoor dokter pop, shazam kent m niet!
komt allen!
bedankt weer topper ! hoeveel cds zit je al qua verkoop? ben je vergeten te melden
volle bak!
kerk helemaal vol. uitverkocht!! wat een
heeee doe maar open! we zijn er klaar voor!
fanta boy
met 5 autos, 18 mannen, op weg naar katwijk voor de we komen eraan!
bedankt voor het lenen van je kaartjes voor pec! was een mooie pot! bedankt!
mooi pakje ook! complimenten!
groeten vanuit ehrwald, oostenrijk!
mijn resultaat 78% op buitenlandse sterren quiz via
van harte gefeliciteerd en nog vele gezegende gezonde jaren toegewenst!
groeten uit nendaz, zwitserland.
hou jij ook van bitterballen?
bitterballen 1+1 gratis bij de plus
kunnen jullie bij een break eens roepen breaky breaky, hier is shakey!!
ik heb gehoord dat crocs wel zijn toegestaan! wel met nette sokken!!!!!
is het nu zaak voor van gerwen om tripples te gooien en dubbels te raken?
wat moet van gerwen nu doen? wat raden jullie hem aan?
lekker dorpelen op kerstavond
whiehooe kaartjes voor guns n roses in t goffertpark
ff 22 minuten naar liedje luisteren
lees dit artikel uit reporters online zo steel je miljoenen uit gelddrukkerij joh. enschedé
welk level zit je hier met coindozer?
ik heb gestemd voor de op bekijk mijn lijstje stem ook
leuk stukje over oude maasweg vd amazing stroopwafels
leonard cohen overleden. dit is nog genieten! via
haha prachtig verhaal van obama. 9 minuten zeker waard.
hallo wil wat kwijt vraag dan direct ff of darters liever 1 bal gehakt met mayo hebben of 2
de
was dat mannenzang katwijk, wuuuttt?
vanavond weer oefenen , dinsdag optreden in dwingeloo
beterschap! wesp is toch niet tijdens een rondritje bij t wielershirt ingevlogen?
echt iets voor jou
het lijden start nu...
nee ook niet, maar heb je iig een half seizoen het gevoel dat je een klein beetje meetelt! dank u!
mooiste is een keer geen voorrondes europa league. want als feyenoord iets niet kan, is het voorrondes
ik kan helaas niet bij zijn! veel plezier, ik doe vandaag wel mijn mannenzang blouse aan
succes vanmiddag! poar scoorn!
ziet er goed uit!!
dire straits experience in erg goed!
muse in de ziggo dome!!! gaaaaf!
haha mooi totti binnen de lijnen. staande ovatie van het real publiek.
spijker op zn kop!
wij staan niet meer onderaan, niet meer onderaan!
leuke speech van rutte
weer een mooi dagje gehad vandaag!
eerste afdalingen gedaan
onderweg naar zwitserland voor paar daagjes skiën met en wat andere boernzonen
man op de vlucht voor politie, had gestolen auto, is er uit gesprongen thv dijkstra. vrouw is gepakt.
mooi stuk over ds m. van kooten in het rd van vandaag.
het publiek smacht naar een staphorst!
nou ik hoop t. nee volgens mij nog geen gegooid!
nou, ik vrees dat het niet spannend gaat worden...
joo wie moet er winnen? en wie gooit er als eerst staphorst?
lex immers in de studio. gekkenhuis.
even een wedstrijdje pakken bij sc genemuiden!
zijn er al! nemn
na 9 maanden is ie opgehaald!
ik heb gestemd voor de op bekijk mijn lijstje stem ook
jij ook neuze. mooi middagje genieten van de beste club van nederland!
poar nemen
jullie ook neuzen
fijne wedstrijd
hélémaal niets aan, een in utrecht. € 3,50 is weggegooid geld!
waar blijft half 7 hazes?
hetzelfde hier 😐
hoe heurt t eigenlijk d
zeeeer interessant
al helemaal aan t wennen aan t studentenleven
enorm aan t genieten op nu tijd voor elbow!!!
er wordt hier gedamd op hoog niveau. open wapenvelds wereldkampioenschap vs
exact. maar ajax had idd een passend antwoord op t satirische nummer van gerard cox. 💩
haha klassieker! maar wie ging ajax voor in 1970? 😊
james last overleden
lekker aan de bbq met
ben je geblesseerd? gefeliciteerd met het kampioenschap! mooie pot, mooie sfeer!
heb hem binnen hoor
hallo, wanneer komt de cd van hasselt van 27 februari? we wachten met smart
in 7 minuten is de kerk weer gevuld.
hallo doe maar open, we staan klaar.
heeft de drankjes al koud staan voor de tocht naar katwijk?
hallo welke cola vind jij veruit de lekkerste cola die er is? heb je die andere colas ook geprobeerd?
heeft het gesmaakt? 😊
hallo is er ook frituur aanwezig bij het damtoernooi in de herv kerk?
hee ben je weer online?
plop plop bij geke
straks even ploppm bij geke in wezep! ! ook mee
omdat de verkoopsnelheid veranderd is? want dat was de reden dat de halve liters eerst goedkoper waren, volgens jullie.
hallo, is de verkoopsnelheid onlangs veranderd? de 0,33 blikken zijn nu namelijk goedkoper.
goed bezig!
mooi artikel over totti. wat een baas!
waarom zijn halve liters heineken blikken goedkoper dan 0,33 liter blikken?
vanavond met naar in kampen.
haha leo! een hete kroket!
roma geeft t op. totti en de rossi tegelijk wisselen. dat kan niet hoor.
totti is een baas!
ongekend! feyenoord in europa na de winterstop!
beste excuus als je als eerste afvalt niet mijn vragen.
haha mooi! herman de schermman presenteert met t mes op tafel!
probeert frank snoeks het woord trending te maken?
waarom herhaalt die mevrouw in denemarken álles wat de presentator ook al zei?
dut ie ut nog? t slot al ehsmeerd?
nee vet ingewikkeld, 1.50 is veul duidelijker.
hallo! hoe gaat dat nou precies tussen de tafels en de tribunes? ik snap t nog niet helemaal.
prachtige docu over t urker mannenkoor hallelujah op npo2.
dit is lekker t jaar uit gaan!
klopt helemaal!
naar
hoe kan t nou dat de 3 nummers van pink floyd die nu in de top 10 staan, in 1999 helemaal niet in de lijst stonden?
naar
katie meluuuuuaaaaaaa
wat een held
kippie heeft de beste bijnaam! donzig en vriendelijk! darten kan ie alleen niet
lamour toujours op slam fm.
puntje dankzij kenneth.
jij kijkt zeker met je neus naar de televisie?
noe goat ut gebeurn!
wat een pech. 😕
music van john miles! kan niet missen!
babyfabrieken commercieel draagmoederschap in brandpunt. moet niet gekker worden.
mijn keuzes voor de top 2000 in een youtube afspeellijstje
ik heb gestemd voor de op bekijk mijn lijstje stem ook
doe maar eens een 80s inknal uurtje. klinkt allemaal lekkor!
veel succes vanavond! geniet ervan! in april hoopt de wapenveldse delegatie er weer bij te zijn.
klopt, maar sommige anderen maken mij wel aan het gniffelen. maar ajax verdient meer, dat is duidelijk.
genieten van twitterberichten aangaande
datastream werkt alweer niet. dramatische faciliteiten.
leuk hoor doet ook een half zeven hazes 😄
als je geen plezier hebt in je werk, waarom ga je dan niet iets anders doen?#rtl7darts
we vonden de enige nederlandse vrouw wiens stem in de kosmos is vereeuwigd via
mooie ingelijste foto gekregen van het eerste elftal van wzc
ook nog kijkje genomen bij mooie slagerij!
en doen jullie ook even een 90s foto? net als en de rest
wordt het morgen lekker weer om te fietsen in groningen?
gigi dagostino op skyradio! moet niet gekker worden!
youri bij psg hebben ze zoveel over de toonbank gesmeten
“@sportzeloot feyenoord maakt einde aan reeks van 10 europese duels zonder zege. jippie!!! 😊
ook voetbal aan het kijken?
voorzitter pkn koning maakt god tot nu toe te weinig zichtbaar via
dat was 27 juli 2013. afgelopen 12 maanden, is dus tot en met augustus 2013. ajuuu!
pec zwolle pakte in afgelopen 12 maanden 2x zoveel prijzen dan 020.
wat een stilte, doen jullie geen verslag vd hoogtepunten?
alweer lekker aan t trainen bij be quick? zag je zweten toen ik wat gehaktballen kwam brengen
ik denk co stompe aka de kraanvogel!
jammer he, lekker zuipen!
je bedoeld zeker dobbelen?
tegenwoordig vaker geen bereik dan wel, of niet dj?
nou, donzige eend het is een toernooi van 8 dagen! vandaag hebben ze allebei, naar tevredenheid, een remise behaald.
ik ben aan het kijken bij een internationaal damtoernooi. mijn vriendjes en doen mee! spannend!
boularouz, eenjarig contract, lijkt me prima. als t niks is, zitten we er iig niet te lang aan vast. verstandige man die van geel.
strijder 2
strijder 1
zo, even wat bananen halen voor de strijders en
in zweden 1958 is brazilie kampioen geworden
laat maar zien dat je net zon voorbeeld voor de jeugd kan zijn, zoals ik dat ooit ben geweest.
haha klasse! doe ze de groetjes! d
van nistelrooij gaat los bij espn via
de winnaar van wordt wereldkampioen.
wat een dwaas is álles kapot maken, dat die spelers even wat aandacht geven tegen racisme is zon gedoe voor die spelers
dit zou wel gunstig zijn
hartverscheurend verhaal dié huilt om overleden vader
nee wat een drama die ze roepen maar wat...
arno vermeulen 532 lijkt chili te zitten als een jas. en nl toch zeker niet. bij nl werkte het toch ook prima tegen spanje.
hugo borst keeper mexico is maar 1,85 dus komt niet bij topclub. casillas is 1,82...
pfff!! wat een hater die commentator bij
bedenker en maker van ‘dribbel’ overleden via
wat nou als er echt een noodsituatie is. kom jij mooi 3 minuten te laat.
hee je bent te laat met je tweet
hee doe zo maar van halfzevenhazes voor mij geen slingers aan de wand!
37 miljoen?!?!?! update van gaal wil twee feyenoorders meenemen voor 37 miljoen
ik heb 4g ter hoogte van lelystad
wat als de pvv aan de macht komt?
vanavond met naar the eagles in de ziggo dome! d
bijvoorbeeld, is het gooien van een meckie vergelijkbaar met t gooien van een 180?
hallo ! is het gooien van dartpijlen vergelijkbaar met het gooien van dobbelstenen?
hee erg genoten van je boek! miste nog wel een referentie naar dit legendarische interview
werd ik al een beetje gemist bij de doordeweekse partijen?
stemwijzer europa
ja het mag van mij ook wel. feyenoorders weten hoe t werkt, dus janmaatvrijvlaarbmikongolo en t komt wel goed
het warmgooien is begonnen
vanavond ?? peerd?
hahaha 100 jarigen over de opkomst van house muziek haha
woah die verstandelijk gehandicapten kunnen nog best goed voetballen.
basiself atlético kostte nog geen halve bale
hey ! heel erg gefeliciteerd joene! geniet er lekker van vandaag!
benieuwd wat voor mooie verhalen mijn held sibomko te vertellen heeft!
triest nieuws! zanetti stopt ermee!
rectificatie rossem natuurlijk he.
yes! maarten van rossum bij
even een avondje met co darten in onze huiskroeg
mooi gedaan
mannenzang katwijk!
laatste tentamen gehad! vanmiddag op naar de mannenzang in katwijk!
lekker aan t knooien bij het
hallo vodafone, waarom staat mijn internet data bundel hier niet meer bij?
“@thijszonneveld voorstel tienpuntenplan om de veiligheid in de koers te verbeteren. column nusport ”
nee is al gebeurd hoor! opa opa opa jarig jarig jarig
heel erg gefeliciteerd
aha oke. alice deejay had je als antwoord ook wel goed gerekend dus?
better off alone is van alice deejay! verkeerde winnaar van t popduel, paul!
is dit een variatie op de uitspraak van geert wilders? 😁
doen de printers het inmiddels weer? followyou?
hollandse avond met studenten uit saudi arabië. kieken wat t wordt.
och arm jong. maikel, je mag vanavond wel hier langs komen, chillen bij de klimwand.
woar heje last van jong?
tnt van ac/dc graag! d
je kijkt zeker ook alleen naar het vrouwen curling?
eerst even wat eten, anders wordt je zwak
dan houdt het op knul, bij jouw deal blijf ik zonder iphone over, dat kan niet he!
ik heb m wel, kunnen wel ruilen van iphone, en dan krijg ik nog 350 euro van je.
zolang t maar geen 020ers zijn...
op naar de kuip, feyenoord vitesse! met de rassupporters en
geniet ervan!
artsen proberen schumacher te laten ontwaken via
was snel bekeken idd.
nooit. ben sowieso trots. fijne wedstrijd broertje!
willemijn, til er niet te zwaar aan. er is geen man overboord hoor.
lijkt me een leuk spel!
al kreeg ik er een pallet grolsch bij, dan nog niet
voel je zelf eens wat ik als feyenoorder voel
ik zit klaar voor atletico barca met natuurlijk
hahah mooie jingle uit de oude doos! d at work
nederland zingt kijken.
evert bekend van de bakleverworst is gek van het vrouwtje van mvg. kunnen jullie een selfie van haar voor hem regelen?
willen jullie de uitzending beëindigen met het woord ajuuuuuu ?#rtl7darts
is het al tijd voor evert om zn bakleverworst te gaan bakken?
wat voor haarkleur heeft van gerwen vandaag gekozen?
kale koppen niet te stoppen
is er wel eens een echt dier op het podium geweest, afgezien van deze snakebite? een katje miauw miauw misschien?
rookt de omroeper shag of sigaretten? als ie shag rookt, kan hij dan ook het rizla mopje voorlezen?
bedankt voor het snelle antwoord, maar ik bedoel alle edities. eerder kon je een grafiekje zien met het hele verloop.
hallo! waarom kan je op de website bij een nummer niet meer zien waar een nummer de afgelopen edities heeft gestaan?
soort van. even t jaar goed afsluiten he!
heel leuk die maar mis graag een uurtje voor een mooie kerkdienst.
die gooit wel erg goed idd. ik denk van gerwen.
ik kijk darten en glimlach om tweets van
ja met roem op hand en kraken en alles enzo.
scheterklaas bestaat en daar zit hij!
huichelaar
. &amp vs &amp 2490 vs 1672
wat ben jij een stinkbeer
na de buik gevuld te hebben, even ren potje klaverjassen.
beluister de top 2000 stemlijst van arnoud
begint daarna dan eindelijk bzv?
haha is goed. als ik boven ben wil ik zo snel mogelijk naar beneden. eng joh
is de tune van de blouse van gerard staat al wagenwijd open ook ergens downloaden? kan m niet vonden op je site.
pfff die co stompe is al niet de knapste man, maar wat een lelijke snor!
vanaf 8u pottn aan de oranjeweg
vanaf 20.00 uur via en vanaf 22.00 uur op rtl7 de world grand prix.
het is al bijna kerst! tijd voor het wk darts! tijd voor ! zin aan!
pelle aanvoerder lol
nieuw en laatste seizoen himym! benieuwd of ze er nog wat moois van gemaakt hebben! whooeehooee
het is niet echt onafhankelijke reclame, dat jullie telkens in de reclame de order geven aan frits van ditzo. independent?
leuk ja! goed dat je me eraan herinnert!
veel plezier en geniet ervan!
lex immers. wat is deze? wat doet u? schele bennie.
oke. ja ik heb wel facebook. voeg me maar toe hoor.
oké! bedankt alvast voor je reactie!
mooie foto van groningen! wat precies van groningen was erop te zien? ps. mooi vestding had je aan
haha oke! dom van vormer, hoeft daar helemaal niet te lopen.
geen internet en geen tv in t nieuwe huis. dus maar thuis voetbal luisteren op radio 1 met jack van gelder.
richtingaanwijzer uitsteken lijkt me sowieso niet verstandig. richting aangeven dmv het knipperlicht lijkt me meer correct.
gefeliciteerd hoor importtukker!
klopt, het was niet best
om 8u al in de auto naar rotterdam voor feyenoord fc twente. zijn toch geen tijden??
lekker he dat t weer maandag is, ?
hee kan je ook analyseren bij het darten, is misschien wel leuk met de piero!
heee zoeperd! paar nemn! niet opkroppen
gaat je gemiddelde lewis
van wie is deze blauwe box?
slippertje van taylor? zijn slippers zijn kapot, kunnen jullie vragen of hij die van taylor mag hebben?
hallo, kunnen jullie de 180 song draaien op teevee!! staat op youtube
giet mooi
poar nemn
nemen de darters nog bijzondere dranken tot zich? zoals een krat pils
wat heeft een darter aan een trainer? het is toch gewoon zorgen voor goede pijlen en dan gewoon veel gooien?
mmmm heerlijk die 3g! bedankt ! jammer voor hele middag geen internet dankzij
hij komt zo! nu de tent in!
vandaag is hij er wel bij! als bob!
paar nemn
nog 1 nachtje slapen en dan
jaaa is onze bob! ideaal! en een lekkertje natuurlijk.
haha ik zit gewoon te kijken bij tweets van donald. zit ik te lachen om deze, is ie maikel!