ik denk dat domien,michiel,sander het glazen huis in gaan voor 3fm serious request!
nieuwe favoriet royal blood / lights out
ik heb gestemd op thomas dekker mijn gevecht van thijs zonneveld stem ook!
nieuwe favoriet awolnation / passion
ontsnap naar je eigen droomeiland! word lid als mijn strandmaatje en speel gratis.
ontsnap naar je eigen droomeiland! word lid als mijn strandmaatje en speel gratis.
steun de actie tegen de btwverhoging
ik heb getekend! steun de actie ook en ga de strijd aan tegen de btw verhoging van dit kabinet
ondanks ernstige twijfels over het bewijs wil de vs clinton young op 26 oktober executeren.
super jullie zetten terecht de even op hun plek!.
nieuwe favoriet outkast / ms. jackson
nieuwe favoriet tom tukker / care about
hoi guus mag ik wat geluk van je lenen?
t is wit en eet niet netjes. antwoordgijs schans
teken ook voor privacy op
nieuwe favoriet veronica top 1000 allertijden 2015 by various
kwetsbare vluchtelingen verdienen een veilig thuis. teken de petitie!
verliezen hoort erbij. you wine some you lose some!. laat je niet gek maken richel. je hebt gelukk…
hoi wat erg dat iemand jou bedreigde omdat je verloren had. ik hoop dat diegene gepakt wordt. ik steun je wel normaal!
oke. is wel wat anders dan .
haha nee ik ben eigenlijk er ook niet van hoor. we zien t wel .
hoe heet trouwens de club waar jij voetbalt nu? .
wat wordt de uitslag morgen van ik zelf denk dat we met 31 gaan winnen. t zal zeker niet makkelijk worden.
geen dank . ja van mij mag t wel hoor . maar mocht t niet lukken ik zal hoe dan ook steunen .
jammer dat t niet lykte toen jij nog hier voetbalde in leeuwarden. we waren toen ook er dichtbij.ik had t jou ook wel gegund.
hoi koen . alles goed in italië ? . cambuur doet t ook goed. volgende week moet cambuur tegen mvv. ik hoop dat we promoveren
stem mee wie de gouden stieren winnen én win zelf!
nederlandse iraniër hartoperatie geweigerd in beruchte gevangenis teheran. kom in actie!
neem ook deel aan de urgent actions van amnesty. meld je snel aan.
meer dan duizend vluchtelingen leven in onbewoonbare en onveilige kampen in athene griekenland. kom in actie
nieuwe favoriet robbie williams / tripping
kensington moet de 3fm award in de categorie beste groep winnen! stem jij ook?
hoi koen . hoe is t daar in italië? . cambuur doet t nu ook goed gisteren ook weer gewonnen .
hoi. t zou leuk zijn als je bij welcome to the village op zou treden hier in
nieuwe favoriet afspeellijst best rock of all time u2, queen, rhcp... by renaud rock editor
nieuwe favoriet tom tukker / let him go
nieuwe favoriet franz ferdinand / do you want to
nieuwe favoriet afspeellijst 3fm mega top 50 by megatop50
nieuwe favoriet afspeellijst lekker lang je onbeperkt internet vieren by tmobile nl
ik wil jij toch ook? ga naar
ik speel kamergotchi en ik moest voor emile zorgen. met succes .nu dus helaas afscheid genomen 😢. kamergotc…
ik speel kamergotchi en ik moest voor emile zorgen. met succes nu dus afscheid genomen 😢. kamergotchi.nl
zo ik heb t was dit jaar wel moeilijker dan andere jaren voor mij. maar vandaag toch mijn stem uitgebracht .
nieuwe favoriet tom tukker / rain is gone
nieuwe favoriet u2 / beautiful day
nieuwe favoriet prince
nieuwe favoriet thomas azier / talk to me
nieuwe favoriet afspeellijst rock my valentines day by kim rock editor
hoi sjoerd . als cambuur de finale haald van de beker ga jij er dan ook heen. ik sowieso wel hoor .
thanks lev. ik heb toen ik jou hier zag bij cambuur ook van jou genoten. is alweer lang geleden trouwens.
bij het pas ontdekte amazonerif willen bp en total boren naar olie. stop ze nu het nog kan
nieuwe favoriet afspeellijst poprock 21pilots, maroon 5, coldplay... by kim rock editor
nieuwe favoriet armin van buuren / heading up high
nieuwe favoriet heading up high by armin van buuren
nieuwe favoriet u2 / spanish eyes
nieuwe favoriet tears for fears / shout
nieuwe favoriet michael kiwanuka / home again
sterkte ricardo .
ik verbaas mij er niet eens meer over dat dit nummer op 1 staat. hoe graag ik eigenlijk ook wil dat t na de 14e keer is anders is
ik ben zelf ook al is in hongarije geweest. is een mooi land. ben o.a in budapest geweest .
maar goed op ik steun cambuur gewoon weer. ben al jaren supporter.
oke . mooi . ja ze doen t goed. in t begin was t even niet super. gelukkig nu wel weer. jammer alleen van degradatie.
ik heb gestemd voor de op bekijk mijn lijstje stem ook
hoi sjoerd . hoe is t daar in hongarije?. volg je cambuur nog?
nieuwe favoriet goo goo dolls / iris
heey giel. wat is dat nou?. is dit je laatste week in de ochtend op ik ga je missen man. nouja voorlopig ben je er nog
nieuwe favoriet kensington / sorry
hoi bert. ik hoop dat je trainer wordt van als je nog steeds trainer wil worden nu kan t .
nieuwe favoriet kensington / do i ever
nieuwe favoriet keane / russian farmers song
nieuwe favoriet dnce / cake by the ocean
nieuwe favoriet troye sivan / fools
nieuwe favoriet coldplay / up&ampup
nieuwe favoriet bastille / good grief
hoi koen weet je nog een goeie spits voor cambuur? . t gaat jammer genoeg nog niet best met
ik heb mijn naam op de tram gezet! doe jij ook mee?
oja als je trouwens nog een tuinhulpje zoekt voor je tuin. ik kan je tuin wel weer netjes maken . ik heb groene vingers .
hoi donald na regen komt zonneschijn hoor . t zonnetje laat zich echt wel weer zien. ik zeg hem wel dat hij moet schijnen
mijn eerste slachte volbracht! t was top . gezellig en leuk was t !
of ik hem weer lopp weet ik niet maar was een leuke ervaring sowieso . petje af voor de organisatie en de sfeer was top.
t was leuk ik liep de slachte voor t eerst en t is mij gelukt . wel voel ik mijn voeten nu wel.
er is maar een trainer die bij trainer moet worden en dat is dus ik zeg
mag van mij terug komen naar . we zijn met hem kampioen geworden en vond hem altijd wel goed .
mooi. geen dank!. vind t wel nog steeds klote dat we gedegradeerd zijn. maar goed ik blijf cambuur steunen.sowieso!.
is dat lekker haring met slagroom?. ik probeer wel is dingen uit maar dit klinkt niet zo lekker haha.
hoi koen hoe is t daar in italië? volg je nog?. ik vond je altijd een goeie verdediger hier bij
red de bij en vraag en om gifvrije groenten en fruit!
teken de petitie, zorg dat internetslachtoffers het recht krijgen op de persoonsgegevens van anonieme daders.
ik heb voor mijn vijfde jaar geholpen hier als vrijwilliger. t was top in mien stadsje
in aflevering 10 van de rijdende rechter haalde ik een score van 40%. kun jij het beter? undefined
in aflevering 9 van de rijdende rechter haalde ik een score van 50%. kun jij het beter? undefined
ik sta stil op 4 mei om de mensen die t leven lieten in de oorlog en op 5 mei vier ik de vrijheid van ons land. &gt
wij hebben t geluk dat we in vrijheid kunnen leven hier. en dat moet je koesteren vind ik. daarom is t belangrijk dat we dit vieren.
in aflevering 8 van de rijdende rechter haalde ik een score van 60%. kun jij het beter? undefined
in aflevering 7 van de rijdende rechter haalde ik een score van 60%. kun jij het beter? undefined
in aflevering 6 van de rijdende rechter haalde ik een score van 50%. kun jij het beter? undefined
in aflevering 5 van de rijdende rechter haalde ik een score van 60%. kun jij het beter? undefined
in aflevering 4 van de rijdende rechter haalde ik een score van 30%. kun jij het beter? undefined
typhoon moet de 3fm award in de categorie beste hiphop winnen! stem jij ook?
armin van buuren moet de 3fm award in de categorie beste dance winnen! stem jij ook?
de staat moet de 3fm award in de categorie beste rock winnen! stem jij ook?
dotan moet de 3fm award in de categorie beste zanger winnen! stem jij ook?
kensington moet de 3fm award in de categorie beste band winnen! stem jij ook?
in aflevering 3 van de rijdende rechter haalde ik een score van 70%. kun jij het beter? undefined
ik heb gestemd voor de op bekijk mijn lijstje stem ook
in aflevering 9 van de rijdende rechter haalde ik een score van 50%. kun jij het beter?
in aflevering 8 van de rijdende rechter haalde ik een score van 60%. kun jij het beter?
hij voor een iphone te zijn. en die heb ik niet. ik zag t pas toen ik hem uit de verpakking haalde. kan ik hem omruilen?.
hoi ik heb een vraagje ik had vandaag bij een winkel van jullie hier in leeuwarden een usb cable gekocht. maar nu blijkt
in aflevering 6 van de rijdende rechter haalde ik een score van 30%. kun jij het beter? undefined
deze zit in mijn playlist u2 unforgettable fire. check de rest
in aflevering 5 van de rijdende rechter haalde ik een score van 80%. kun jij het beter? undefined
ik heb gestemd op de televizierring verkiezing en maak kans op vipkaarten voor het gala. stem ook! via
hoi martertje. ben je gestopt met voetbal. ik zie je niet meer. .
in aflevering 4 van de rijdende rechter haalde ik een score van 60%. kun jij het beter?
hoi gerard ekdom. heel veel plezier bij radio 2. ik ga zeker luisteren ☺.
in aflevering 3 van de rijdende rechter haalde ik een score van 40%. kun jij het beter? undefined
in aflevering 2 van de rijdende rechter haalde ik een score van 70%. kun jij het beter? undefined
ik doe mee met de spoedacties voor amnesty en maak een vuist tegen onrecht. doe jij ook mee?
mijn top 3 voor etappe 3 van het telesport iscavendish/bennett/contador. wie voorspel jij?
mijn vaste team voor het telesport
ik steun de actie updaten van de consumentenbond!
mijn cluppie begonnen met de eerste training voor t seizoen 20152016
r.i.p . je muziek leeft voort.
heey sjoerd. welkom bij kerel . van de ene mooie club naar de andere. doe je best hier he!
de beste albums allertijden? daar hoort aha hunting high and low zeker bij! check de rest
ik heb gestemd op de 3e kwalificatieronde van de gouden televizierring verkiezing 2015. stem ook! via
jullie zijn top. ik was erbij en echt een mooi nummer.
ik help zelf mee bij t kinderfestival morgen in de prinsentuin ben vrijwilliger. dus ik heb t ook druk. maar is wel leuk .
hoi ik was daar straks bij de dodenherdenking in mijn stad mooi nummer van jullie hoor. veel plezier morgen .
nederland helpt nepal. ik doe mee en steun jij ook? geef nu
in aflevering 12 van de rijdende rechter haalde ik een score van 40%. kun jij het beter? undefined
net als ik kans maken op een zomer vol festivals met het van mazda? ga naar !
in aflevering 11 van de rijdende rechter haalde ik een score van 80%. kun jij het beter? undefined
in aflevering 10 van de rijdende rechter haalde ik een score van 10%. kun jij het beter? undefined
ben in t uitvak bij t onderweg naar voor de wedstrijd
in aflevering 9 van de rijdende rechter haalde ik een score van 90%. kun jij het beter? undefined
in aflevering 8 van de rijdende rechter haalde ik een score van 80%. kun jij het beter? undefined
dotan vind ik steengoed in de categorie beste zanger! stem jij ook?
kensington streets vind ik steengoed in de categorie beste single! stem jij ook?
mister and mississippi vind ik steengoed in de categorie beste alternative! stem jij ook?
de jeugd van tegenwoordig vind ik steengoed in de categorie beste artiest hiphop! stem jij ook?
kensington rivals vind ik steengoed in de categorie beste album! stem jij ook?
bløf vind ik steengoed in de categorie beste band! stem jij ook?
martin garrix vind ik steengoed in de categorie beste artiest dance! stem jij ook?
miss montreal vind ik steengoed in de categorie beste artiest pop! stem jij ook?
go back to the zoo vind ik steengoed in de categorie beste artiest rock! stem jij ook?
in aflevering 7 van de rijdende rechter haalde ik een score van 80%. kun jij het beter? undefined
maak arjen lubach farao! teken net als ik het burgerinitiatief op via
vandaag een tuinklusje gedaan bij een school. vlinderstruiken planten. ik heb er drie geplant. was…
beste gerard ekdom heel veel succes bij nu jij weggaat bij ga ik ook switchen naar radio 2.
in aflevering 6 van de rijdende rechter haalde ik een score van 50%. kun jij het beter? undefined
ik heb gestemd op het fries museum!
in aflevering 5 van de rijdende rechter haalde ik een score van 80%. kun jij het beter? undefined
in aflevering 4 van de rijdende rechter haalde ik een score van 30%. kun jij het beter? undefined
net bij de première weest van de friese film hierin heb ik gefigureerd ik ben niet uit de film…
gister kaartje binnen gekregen voor de première van de friese film bak waarin ik figureerde .
in aflevering 2 van de rijdende rechter haalde ik een score van 60%. kun jij het beter? undefined
veel plezier .
dus als je hier in leeuwarden komt te voetballen ben je niet de enige heerenvener hier .
ik ben zelf trouwens ook een geboren heerenvener niet verder vertellen hoor. ik ben al ruim 17 jaar cambuursupporter.
ik hoop dat je snel hersteld. zodat je weer kan voetballen. en t liefst bij mijn cluppie natuurlijk .
deze zit in mijn playlist 3 doors down here without you. check de rest
ik blijf graag schoon zonder verwoesting.
zometeen openen we de boerenjacht. ben onderweg naar . hopelijk wint cambuur.
beste willie wortel, ik heb een vraagje, mag ik uw tijdmachine lenen??, ik zal voorzichtig zijn hoor.
de regering en de tweede kamer geen koning en ministerpresident naar de winterspelen via
t is super stom van vitesse om naar dat land te gaan. nu moeten ze een speler thuis laten omdat die t land niet in komt.
mevrouw duck als u tijdens een bal niemand hebt om mee te dansen, wil ik ook wel met u dansen hoor. ik kan heel goed dansen.
heey broer konijn, waarom plaag je bruin beer altijd???, vind t wel zielig voor hem.
lieve knabbel en babbel, komen jullie is langs bij mij???. krijgen jullie lekkere nootjes van mij .
foei zware jongens. jullie leren t ook nooit he.
lieve donald ik lees uw blad nog met veel plezier, ik laat u niet in de steek lieve donald. u bent top!
lieve oma duck, als u nog een hulpje zoekt bij u op de boerderij ik wil u evt ook wel helpen, ik ben tuinman .
als ik weer is een paar maak kom maar langs dan hoor, mag je ook eentje .
hoi gijs gans ik heb rond oud en nieuw hele lekkere appelflappen gemaakt. ze zijn helaas al op sorry.
he verdorie, jij ook altijd weer, ik had t kunnen weten, ik had niks gewonnen op mijn lot .
beste guus geluk mag ik wat geluk van je lenen???, alvast bedankt.
...kook super lekker eten voor je vader steeds, zoals bijvoorbeeld een omelet sochtends dit in plaats van bonen. succes .
hoi wolfje, heb een tip voor jou om te zorgen dat je vader niet weer achter je vriendjes aangaat.....
hoi anco, ik zie jou graag bij mijn mooie cluppie cambuur komen hoor . ik zou t jammer vinden als je niet komt.
maar goed we maken allemaal wel is fouten, u bent een echte cambuurman en ik ook en ik heb vertrouwen in mijn cluppie
ook niet echt fatsoenlijk om dit te tweeten beste meneer smid. valt me erg tegen dat u dat gedaan hebt.
mijn familie moest trouwens ook lachen toen ze mij hoorde. haha. in ieder geval bedankt voor je hulp. see you in#wd
ik weet dat ik t mischien zo had kunnen opzoeken dat nummer maar met alla la la la long kom je niet zo ver. haha
ik lach mij dood als jij t nummer sweat lalala long zingt bij cafe de bak.
ik zal hier weer effe wat neerzetten , t is lang geleden ik weet t. heb zin in seriousrequest 2013 in mien stadsje
ik kon er echter niks aan doen dat dit het nummer was wat ik zocht hahaha.
hahahaha, ik moest zelf ook lachen dat dit t nummer was wat ik zocht p. niet best p.
ik vind sam sparro happiness de perfecte bbqplaat, wat jij?
ik heb trouwens mijn seizoenkaart alweer besteld hoor deze jongen gaat ook de in met cambuur .
ik had een vraagje ik wilde graag zon kampioensshirt als aandenken ben namelijk al 15 jaar supporter van cambuur.
hoi ik wil allereerst henk de jong bedanken dat ik met hem op de foto mocht met de kampioenschaal . super bedankt ...
alfonds bedankt alsnog dat u ook mede gezorgd heeft dat cambuur staat waar t staat. groetjes danielcambuursupporter
..daarom dus feliciteer ik u. ik wens u veel succes bij uw volgende club. u.bent een goede trainer....
beste alfons. ik wil u ook feliciteren met t kampioenschap van cambuur. ook u hebt een aandeel gehad in t succes.
ik was vrijwilliger van t bevrijdingsfestival ik hielp alle artiesten van t hoofdpodium met de aparatuur.
jammer dat jullie niet op t hoofdpodium stonden hier in leeuwarden gisteren. maar komt vast nog wel.
kom je weer terug bij cambuur???. we kenne wel versterking gebruiken. voor in de eredivisie helemaal
wat mooi zeg kampioen
heey koen brack. duim effe voor mijn cluppie cambuur he. als t lukt ben je dan maandag ook hier bij de huldiging????
goedeavond . mijn cluppie wordt gewoon vanavond mensen. ik heb er een goed gevoel over.
op 4 mei herdenk ik de nederlandse oorlogsslachtoffers &amp op 5 mei vier ik dat we vrij zijn. daarom draag ik de fakkel
jep idd. t is wel heel spannend haha. henk de jong geniet er helemaal van . ik ook trouwens. super
fijne dag vandaag lieverd xxxx
fijne dag vandaag xxx
gaat lekker met ons clupsje he . we worden sowieso tweede nu .
fijne dag vandaag xxxx
de zon schijnt wel nu maar er is wel een grijze lucht bij. tja nederland he p.
zo maar weer is iets hier neerzetten. gisteren naar cambuur geweest wat maakt mijn cluppie t spannend .
op de site staat mijn droom o.a
hoi donald. ik heb je familie vandaag hier in de sloot gezien. dagobert en guus waren hier. ik heb u niet gezien
hoi heeft u toevallig een leuk baantje voor mij, ik zoek namelijk nog werk.
mensrn stem allen op ze verdiend de prijs van alvast bedankt .
hoi ik heb op jou gestemd voor de 3fm awards ik hoop dat je wint. want je verdiend t. xxxx
kensington moet worden gekroond tot beste live act! stem jij ook?
racoon – oceaan moet worden gekroond tot beste single! stem jij ook?
handsome poets moet worden gekroond tot beste band! stem jij ook?
caro emerald moet worden gekroond tot beste zangeres! stem jij ook?
douwe bob moet worden gekroond tot beste zanger! stem jij ook?
daily bread moet worden gekroond tot beste artiest alternative! stem jij ook?
armin van buuren moet worden gekroond tot beste artiest dance! stem jij ook?
miss montreal moet worden gekroond tot beste artiest pop! stem jij ook?
vandaag lekker gesport weer . gefietst geroeid en krachttraining gedaan . nu relaxen en voetbal kijken .#fijneavond all
mijn stem voor zeroes request gaat naar u2 sometimes you cant make it on your own, en meer! check mn playlist
hi ik heb ook getekend voor gifvrije mode.
de nieuwste fashion shop van nederland geeft 1000 gratis blousjes weg. wil jij er ook één?
fijne kerst iedereen!
zometeen naar .groetjes
voetbal kieken
goedemiddag. gister weer effe naar cafes geweest met een maat van mij. . nu lekker relaxen
en ik hoop dat je volgend jaar hier in in t glazenhuis zit dan kom ik gezellig langs .
hoi gerard ekdom je bent een van mijn favoriete djs. ik wens je heel veel succes in t en ik geef ook wel weer geld.
een fijne dag schoonheid. xxxxjs. wat andere ook over je zeggen je bent een hele mooie dame ik vind je wel heel mooi xxxjs
zometeen effe weer naar toe . en later naar voetbal mits t doorgaat maar denk t wel .
su maar weer is op mijn twitter kieken . de twittert ook al p. tjong hij wordt modern dus hahaha p
mijn cluppie heeft gewonnen van met 20 . joepie .
goedeavond ben straks naar fijne avond!....
hoi . gister was weer leuk t poolen . ook leuke fotos gemaakt waarvan eentje door t poolcafe zelf
mijn top 2000 stemlijst!
lekker aan t relaxen na een te gekke avond gisteren. heb lekker gister gepoold in . was leuk
net lekker gepoold met een maat van mij . bij . en lekker nog bij wat gedronken . was gezellig .
lekker gewerkt vandaag. was een druk dagje. nu relaxen .
goedeavond . ben straks naar . avond .
morgen naar vandaag ben ik niet aanwezig bij tegen ik heb een keuze gemaakt tussen beide wedstrijden!
heet helaas verloren van t werd 13 t enige doelpunt aan cambuurkant werd gemaakt door
goedeavond straks ben ik te vinden bij de topper tegen
was leuk gisteren met me maat . ik heb gewonnen met 51 met poolbiljarten haha p.
jammer van cambuur gisteren . had liever gezien dat we punten pakte in den bosch .
goedeavond . zometeen effe pool biljarten en iets drinken met een maat van mij . wordt gezellig . fijne avond! groetjes
gefeliciteerd met je verjaardag xxxjs
heey demy goed bezig man respect voor jou .
spreekwoord zelf bedacht vertrouw je gevoel en leef met een doel!
nu naar groetjes .
hi doe je nog iets op tv of niet meer xxxxjs
hi een fijne dag vandaag xxxxjs .
hi schat ik kom je een kusje geven xxxjs fijne dag
goedemorgen kerel. je volgt me niet meer. das wel vaag weer. s
goedeavond ben ik weer . fijne avond .
goedeavond ben ik weer . nu lekker kijken. t dondert buiten hmm s. komt dus onweer aan.
goedeavond ben ik weer . vandaag lekker gevist en nu lekker voetbal kijken .
goedeavond ben ik weer . net lekker naar voetbal geweest was lekker weer won uit tegen met 19
slaap lekker en fijne dag
slaap lekker
hi fijne avond liefs xxxjs van mij
slaap lekker en fijne dag bye
goedeavond ben ik weer . nu voetbal kijken italieengeland
hi. mijn vriendin kan vrijen met een ander moet ze doen toch??? xxx
goedeavond ben ik weer. nu lekker voetbal aan t kijken twee helft frankrijkspanje
slaap lekker en fijne dag groetjes
goedeavond ben ik weer! terug van weggeweest! nett duitslandgriekenland gezien de duitsers wonnen. had t wel verwacht eigenlijks.
hahaha op in t deens hij houdt zich aan zijn woord super .
ik voorspel dat nederland europees kampioen wordt! via
goedeavond ben ik weer . nu kijken
ja was best gezellig met jou samen xxxx
su effe kieken wat er is hier in mijn stadsje
de zoveelste warme dag p.
slaap lekker en fijne dag bye
hi ik wil graag weten wanneer ik de ware tegenkom. ik ben momenteel vrijgezel.
jammer van mijn cluppie volgend seizoen nieuwe kansen . slaap lekker en fijne dag bye
tussenstand 21 doelpunt cambuur viel al in de 11e minuut door ozan turk.
goedemorgen ben zo naar
slaap lekker en fijne dag bye .
slaap lekker en fijne dag bye
heeft gelijk gespeeld tegen#vvvvenlo met 00 cambuur was gelijkwaardig. dus biedt perspectief voor zondag
zo naar fijne avond allen
vanavond naar . hopelijk wint mijn cluppie . we gaan er stiekum wel vanuit .
slaap lekker en fijne dag bye
slaap lekker en fijne dag bye
dus goed nieuws . slaap lekker en fijne dag bye
ook door naar de volgende ronde tenkoste van wel verloren thuis met 01 maar toch gered in de
goedeavond ben ik weer . was leuk op t en druk . poeh
goedemorgen iedereen. ik ben straks als vrijwilliger te vinden bij .
slaap lekker mensjes en fijne dag bye
slaap lekker en fijne dag bye
fijne avond iedereen nog .
goedeavond ben ik weer . vandaag effe spullen gehaald voor mijn kweek kasje . zaadjes enzo gehaald .
slaap lekekr en fijne dag bye
heey dennis super dat je mij volgt . kan je nog steeds zo mooi scoren als vroeger???
slaap lekker en fijne dag bye