ja. wie wil er niét elke week spelen in het mooiste stadion van de allermooiste club 😀…
als feyenoord de 21 maakt wordt het 41. maar het was opnieuw slecht. van beide kanten. aujax kan niet beter. feyenoord wél.
als feyenoord de 21 maakt wordt het 41. maar het was opnieuw slecht. van beide kanten. aujax kan…
yes! de allermooiste club in rust feyenoordaujax
uit volle borst!
dirk. wat een fenomeen. het gevoel voor feyenoord dat wij als fans met hem delen druipt van de docu af. de allermooiste club!
uit volle borst en kuip
van kun je niet winnen.
feyenoord de allermooiste club. wat een sfeertje de hele avond!
niet de allerbeste maar nog steeds feyenoord de allermooiste club peter &amp the fenz official clip 2017
valse start maar we blijven de allermooiste club.…
meezingen!
ook op spotify &amp apple music en op youtube. meezingen!
we zijn er woensdag bij!
beste man aan onze kant. middenveld was drama zonder hem.
interview populaire radio dolfijnfm over deallermooiste club
lees in het nieuwe magazine over de schrijver van het nieuwe stadionlied feyenoordde alermooiste club…
dalijk in de kuip te horen. zing…
vandaag weer in de kuip te horen. zing mee!
feye…
uit volle borst!
done! ps interviewtje met mij staat in nieuwste magazine. die wil ik dus graag hebben
ik heb seizoenkaart maar nog geen magazine met dvd ontvangen. kan dat? gr. peter van leeuwen/delft
wat zijn jullie toch goed bezig. hulde!
en ontvangen...echt schitterend.
wat een prachtig boek. hulde!! ik heb er 2 gekocht.
op naar de 12k views voor nieuwste lied voor alle feyenoord fans
de club yt 12k views
vlak voor hét begin. de explosie van vreugde en tranen die volgde staat voor eeuwig in elke…
van wil champions league in met van nl
de schrijver van dé nieuwe stadionhit de allermooiste clu…
wat er ook gebeurt
wat er ook gebeurt, het is en blijft de allermooiste club en we worden....kámpioen!
vandaag met de nieuwe de allermooiste club 8500 views op yt in 3 wk!
let op die sticker op de
wat een prachtige fotoserie en met de foto van de sticker op de van de club
mét foto van de sticker van dé nieuwe stadionhit
niet zo opvallend gunt bijna iedereen de titel aan de meest sympathieke titelkandidaat.
geweldig! in een volle in de volle zon zingt het dé nwe stadionhit uit v…
zondag met dé nieuwe de allermooiste club op muziek van ccr
zondag met de nieuwe de allermooiste club op de klanken van have you ever see…
zing je zenuwen weg
dus ook dé hit van dit moment op youtube?
vergeet dé hit van dit moment en laat het ook liggen... bijna 8000 views op in 2…
freds broer arthur curacao is goede vriend van schrijver van dit lied en vindt het ook top nummer…
lekker meezingen met de nieuwe stadionhit! feyenoordde allermooiste club 7700 hits op yt in 3 wk
zing mee met nieuwe de allermooiste club op muziek van have you ever seen the rain
en geen woord over de nieuwe de allermooiste club op de klanken van have you ever seen…
zondag met de nieuwe de allermooiste club op de klanken van have you ever seen t…
zondag kom in de stemming met de nieuwe de allermooiste club
zondag kom in de stemming met de nieuwe de allermooiste club
zondag met de nieuwe de allermooiste club op de klanken van have you ever…
en dan meezingen met club op de klanken…
dé nieuwe stadionhit in de kuip
zondag met de nieuwe de allermooiste club op de klanken van…
zondag met de nieuwe de allermooiste club op de muziek van ccr
hier het verhaal achter mijn lied
in je lijstje ontbreekt dé nieuwe stadionhit opbrengst sophia die zondag al keihard werd meegezongen
en worden we....#kampioen!
zondag zingt een volle kuip in de volle zon uit volle borst mee met dé nieuwe…
alvast lekker meezingen met de nieuwe stadionhit! feyenoordde allermooiste club
alvast lekker meezingen met de nieuwe stadionhit! feyenoordde allermooiste club
alvast lekker meezingen met de nieuwe stadionhit! feyenoordde allermooi…
jullie vergeten dé nieuwe stadionhit
en natuurlijk draaien jullie dé nieuwe stadionhit
mooi he? zondag werd ie al keihard in de kuip meegezongen
wanneer pikken jullie dé nieuwe stadionhit op? zondag werd ie al keihard in de kuip meegezongen
wanneer pikken jullie dé nieuwe stadionhit op? zondag werd ie al keihard in de kuip meegezongen
wanneer pikken jullie dé nieuwe stadionhit op? zondag werd ie al keihard in de kuip meegezongen
wanneer pikken jullie dé nieuwe stadionhit op? zondag werd ie al keihard in de kuip meegezongen
wanneer pikken jullie dé nieuwe stadionhit op? zondag werd ie al keihard in de kuip meegezongen
wanneer pikken jullie dé nieuwe stadionhit op? zondag werd ie al keihard in de kuip meegezongen
wanneer pikken jullie dé nieuwe stadionhit op? zondag werd ie al keihard in de kuip meegezongen
wanneer pikken jullie dé nieuwe stadionhit op? zondag werd ie al keihard in de kuip meegezongen
wanneer pikken jullie dé nieuwe stadionhit op? zondag werd ie al keihard in de kuip meegezongen
wanneer pikken jullie dé nieuwe stadionhit op? zondag werd ie al keihard in de kuip meegezongen
zondag kampioen! en dan weer keihard uit de speakers dé nieuwe stadionhit
wanneer pikken jullie dé nieuwe stadionhit op? zondag werd ie al keihard in de kuip meegezongen
wanneer pikken jullie dé nieuwe stadionhit op? zondag werd ie al keihard in de kuip meegezongen
om alvast in de stemming te komen dé nieuwe hit die zondag door het legioen keihard werd meegezongen
om in de goede stemming te komen zing mee, zoals het dat zondag al deed
hier word je vrolijk van, dé nieuwe stadionhit, die zondag in de al we…
en kent dé nieuwe stadionhit natuurlijk uit zijn hoofd
zondag kampioen en zing keihard mee met nwe stadionhit, die zondag al in de kuip knalde
gisteren voor het eerst te horen in het stadion, de nieuwe stadionhit 6700 views in 2 weken!
alle info over de totstandkoming op van de allermooiste club is te lezen op
zondag met de nieuwe de allermooiste club op de klanken van have you ever…
zondag met de nieuwe de allermooiste club op de klanken van have you ever…
zondag met de nieuwe de allermooiste club op de klanken van have you ever se…
zondag met de nieuwe de allermooiste club op de klank…
zondag met de nieuwe de allermooiste club op de klanken van have you ever seen…
zondag met de nieuwe de allermooiste club op de klanken van have…
zondag met de nieuwe de allermooiste club op de klanken van have you ever se…
zondag met de nieuwe de allermooiste club op de klanken van have you ever seen…
zondag met de nieuwe de allermooiste club op de klanken van have you ever see…
zondag met de nieuwe de allermooiste club op de klanken van have you ever…
zondag met de nieuwe de allermooiste club op de klanken van have…
zondag met de nieuwe de allermooiste club op de klanken van have you ever see…
zondag met de nieuwe de allermooiste club op de klanken van have you ever s…
zondag met de nieuwe de allermooiste club op de klanken van have you ever s…
zondag met de nieuwe de allermooiste club op de klanken van have you ever s…
zondag met de nieuwe de allermooiste club op de klanken van have you eve…
zondag met de nieuwe de allermooiste club op de klanken van have you ever s…
zondag met de nieuwe de allermooiste club op…
zondag met de nieuwe de allermooiste club op de klanken van have you ever seen the…
zondag met de nieuwe de allermooiste club op de klanken van have you ever…
zondag met de nieuwe de allermooiste club op de klan…
de hele week keihard feyenoordde allermooiste club op de klanken van have you ever seen the rain
wat jammer, maar vlg wk in de kuip gewoon dé nieuwe hit knalde vandaag al…
ook te koop bij en alle opbrengsten gaan naar het
6200 hits op yt in 2wk nu bij en in rotterdam
op 5600 views in 2 weken. dé nieuwe stadionhitvoor alle fans van en
in aanloop naar keihard draaien!
nu op cd voor het goede doel
op de voorpagina van het nieuwe voor de uit lied voor…
op de voorpagina van het nieuwe voor de uit…
ook op aandacht voor h…
fan op curacao schrijft feyenoord lied de allermooiste club op muziek have you ever seen the rain
de achtergrond van het lied de allermooiste club van peter &amp the fenz
prachtige uitzending! alvast lekker meezingen met de nieuwe stadionhit! feyenoordde allermooiste cl…
in spanning kaarten, lekker meezingen met de nieuwe stadionhit! feyenoordde allermooiste club 🙂
hopelijk blijft de allermooiste club bij elkaar. alvast meezingen met de nieuwe stadionhit! de allermo…
met een beetje promotie moet dat lukken en..alle opbrengsten gaan naar het lange leve…
alle opbrengsten zijn voor het 🙂
alvast lekker meezingen met de nieuwe de club alle opbrengsten
wordt dit nieuwe stadionhit? de allermooiste club op de klanken van have you ever seen the rain
feyenoordde allermooiste club op de klanken van have you ever seen the rain
feyenoordde allermooiste club op de klanken van have you ever seen the rain
feyenoordde allermooiste club op de klanken van have you ever seen the rain
wil je dit ook promoten? de allermooiste club op de klanken van have you ever seen the rain
wordt dit ook een de allermooiste club op de klanken van have you ever seen the rain
please share de…
de tekst van is is toegevoegd aan een schitterende prijzenkast vol feyenoordliederen.
.@jandirkstouten
.@defeijenoorder
trots! op de voorpagina van !
luister op &amp voor het
zing mee voor sophia kinderziekenhuis, ook op
en dit moet dé stadionhit worden. de allermooiste club op de klanken van have you ever seen the ra…
dank voor het retweeten!
wordt dit de nieuwe stadionhit? de allermooiste club op de klanken van have you ever seen the r…
wordt dit de nieuwe stadionhit? de allermooiste club op de klanken van have you ever seen the r…
en lekker meezingen met de nieuwe stadionhit! feyenoordde allermooiste club
alvast wel lekker meezingen met de nieuwe stadionhit! feyenoordde allermooiste club
daar past een lied bij! de allermooiste club op de klanken van have you ever seen the r…
wordt dit de nieuwe stadionhit? de allermooiste club op de klanken van have you ever seen the rain
wordt dit de nieuwe stadionhit? de allermooiste club op de klanken van have you ever seen the ra…
wordt dit de nieuwe stadionhit? de allermooiste club op de klanken van have you ever seen the rai…
meezingen met nieuwe stadionhit! feyenoordde allermooiste club
nu ook op en de nieuwe opbrengsten
alvast lekker meezingen met de nieuwe stadionhit! feyenoordde allermooiste club
alvast lekker meezingen met de nieuwe stadionhit! feyenoordde allermooiste club
en dan meezingen met de nieuwe stadionhit! feyenoordde allermooiste club op muziek have…
en dan meezingen met de nieuwe stadionhit! feyenoordde allermooiste club op muziek have you ever…
wordt dit de nieuwe stadionhit? de allermooiste club op de klanken van have you…
wordt dit de nieuwe stadionhit? de allermooiste club op de klanken van have you ever seen the r…
wordt dit de nieuwe stadionhit? de allermooiste club op de klanken van have you ever seen the rain
wordt dit de nieuwe stadionhit? de allermooiste club op de klanken van have you ever seen the rain
op de meezingen met club op de klanken van have you ever see…
en dan meezingen met club op de klanken van have you ever seen the rai…
meezingen met club op de klanken van have you ever seen the rain
en dan meezingen met club op de klanken van have you ever seen the r…
en dan meezingen met club op de klanken van have you ever seen the ra…
nu ook op en de nieuwe voor het en het
wordt dit de nieuwe stadionhit? de allermooiste club op de klanken van have you ever seen the rai…
en we worden....kampioen! luister naar de allermooiste club op de klanken van have you ever s…
gaan jullie hem nog pluggen, heer derksen de allermooiste club op muziek van have you ever s…
en we worden....kampioen? luister naar de allermooiste club op de klanken van have you ever see…
wordt dit de nieuwe stadionhit? de allermooiste club op de klanken van have you ever seen the rain
wordt dit de nieuwe stadionhit? de allermooiste club op de klanken van have you ever seen the ra…
wordt dit de nieuwe stadionhit? de allermooiste club op de klanken van have you ever seen the rain
wordt dit de nieuwe stadionhit? de allermooiste club op de klanken van have you ever seen the rain
wordt dit de nieuwe stadionhit? de allermooiste club op d…
wordt dit de nieuwe stadionhit? de allermooiste club op de klanken van have you…
na nu ook op en de nieuwe voor en…
na nu ook op en de nieuwe voor het…
na nu ook op en de nieuwe deallermooisteclub voor het…
steun het en met de nieuwe stadionhit !
ook de cd komt eraan maar al online op en de nieuwe…
voor het goede doel nu online op en en op youtube. wordt dit de stadionh…
lied voor het goe…
wordt dit de nieuwe stadionhit? de allermooiste club op de klanken van have you ever seen the rain
wordt dit de nieuwe stadionhit? de allermooiste club op de klanken van have you ever seen the ra…
wordt dit de nieuwe stadionhit? de allermooiste club op de klanken van have you ever seen the ra…
wordt dit de nieuwe stadionhit? de allermooiste club op de klanken van have you ever…
wordt dit de nieuwe stadionhit? de allermooiste club op de klanken van have you ever seen t…
de nieuwe stadionhit
wordt dit de nieuwe stadionhit? de allermooiste club op de klanken van have you ever seen the rain
wordt dit de nieuwe stadionhit? de allermooiste club op de klanken van have you ever…
wordt dit de nieuwe stadionhit? de allermooiste club op de klanken van have you ever seen the rain
wordt dit de nieuwe stadionhit? de allermooiste club op de klanken van have you ever seen the rai…
wordt dit de nieuwe stadionhit? de allermooiste club op de klanken van have you ever seen the rain
wordt dit de nieuwe stadionhit? de allermooiste club op de klanken van have you ever seen the rain
wordt dit de nieuwe stadionhit? de allermooiste club op de klanken van have you ever seen the rain
wordt dit de nieuwe stadionhit? de allermooiste club op de klanken van have you ever seen the ra…
wordt dit de nieuwe stadionhit? de allermooiste club op de klanken van have you ever seen the rain
wordt dit de nieuwe stadionhit? de allermooiste club op de klanken van have you ever seen the rain
wordt dit de nieuwe stadionhit? de allermooiste club op de klanken van have you ever seen the rain
wordt dit de nieuwe stadionhit? de allermooiste club op de klanken van have you ever seen the rain
wordt dit de nieuwe stadionhit? de allermooiste club op de klanken van have you ever…
wordt dit de nieuwe stadionhit? de allermooiste club op de klanken van have you ever seen the rain
wordt dit de nieuwe stadionhit? de allermooiste club op de klanken van have you ever seen the rain
wordt dit de nieuwe stadionhit? de allermooiste club op de klanken van have you ever seen the rain
wordt dit de nieuwe stadionhit? de allermooiste club op de klanken van have you ever seen the rain
wordt dit de nieuwe stadionhit? de allermooiste club op de klanken van have you ever seen the rain
wordt dit de nieuwe stadionhit? de allermooiste club op de klanken van have you ever seen the ra…
wordt dit de nieuwe stadionhit? de allermooiste club op de klanken van have you ever seen the rain
wordt dit de nieuwe stadionhit? de allermooiste club op de klanken van have you ever seen the rain
wordt dit de nieuwe stadionhit? de allermooiste club op de klanken van have you ever seen the r…
wordt dit de nieuwe stadionhit? de allermooiste club op de klanken van have you ever see…
wordt dit dé nieuwe stadionhit? de allermooiste club op de klanken van have you ever seen the rain
wordt dit de nieuwe stadionhit? de allermooiste club op de klanken van have you ever seen the rai…
wordt dit de nieuwe stadionhit? de allermooiste club op de klanken van have you ever seen the rai…
wordt dit de nieuwe stadionhit? de allermooiste club op de klanken van have you ever seen the…
wordt dit de nieuwe stadionhit? de allermooiste club op de klanken van have you ever seen the rain
wordt dit de nieuwe stadionhit? de allermooiste club op de klanken van h…
wordt dit de nieuwe stadionhit? de allermooiste club op de klanken van have you ever seen the…
wordt dit de nieuwe stadionhit? de allermooiste club op de klanken van have you ever seen the r…
wordt dit de nieuwe stadionhit? de allermooiste club op de klanken van have you ever seen the rain
wordt dit de nieuwe stadionhit? de allermooiste club op de klanken van have you ever seen the r…
wordt dit de nieuwe stadionhit? de allermooiste club op de klanken van have you ever…
wordt dit de nieuwe stadionhit? de allermooiste club op de klanken van have you ever seen the rain
wordt dit de nieuwe stadionhit? de allermooiste club op de klanken van have you ever seen the rain
wordt dit de nieuwe stadionhit? de allermooiste club op de klanken van have you ever seen the rain
wordt dit de nieuwe stadionhit? de allermooiste club op de klanken van have you ever seen the r…
wordt dit de nieuwe stadionhit? de allermooiste club op de…
wordt dit de nieuwe stadionhit? de allermooiste club op de klanken van have you ever seen the ra…
jazeker! gevierd op op het strand. wordt dít de nieuwe hit? 😃
en...wordt dít de nieuwe hit? 😃
wordt dít de nieuwe hit? 😀
wordt dít de nieuwe feyenoord hit?
bekijk ook nieuw feyenoordlied de allermooiste club op de klanken van have you ever seen the rain
vandaag bij nieuwe feyenoordhit de allermooiste club op muziek ccrs haveyoueverseentherain
vanochtend op rijnmond de nieuwe feyenoordhit de allermooiste club op de muziek van have you ever…
bekijk ook nieuw feyenoordlied de allermooiste club op de klanken van have you ever seen the rain
bekijk ook nieuwe stadionhit feyenoord de allermooiste club op de klanken van have you ever see…
bekijk ook nieuw feyenoordlied de allermooiste club op de klanken van have you ever seen the rain
professioneel nieuw feyenoordlied de allermooiste club op de klanken van have you ever seen the rain
bekijk ook nieuw feyenoordlied de allermooiste club op de klanken van have you ever seen the rain
bekijk ook nieuw feyenoordlied de allermooiste club op de klanken van have you ever seen the rain
echte fan lanceert nieuw feyenoordlied de allermooiste club op de klanken van have you…
van een trouwe fan een nieuw feyenoordlied de allermooiste club op de klanken van have you ever seen t…
van een trouwe fan nieuw feyenoordlied de allermooiste club op de klanken van have you ever seen the rai…
voor alle fans! bekijk ook nieuwe stadionhit de allermooiste club op de klanken van have you ever…
bekijk ook nieuw de allermooiste club op de klanken van have you ever seen…
dank je patrick. morgenochtend aandacht voor het nummer bij radio 😊 om 7.45 uur.
bekijk ook nieuw feyenoordlied de allermooiste club op de klanken van have you ever seen the rain
bekijk ook nieuw de allermooiste club op de klanken van have you ever seen the ra…
bekijk ook nieuw de allermooiste club op de klanken van have you ever seen the rain
bekijk ook dé nieuwe zomerhit feyenoord de allermooiste club op de klanken van have you ever seen the…
weeee wórden...káaampioen..!! dat is de laatste zin in dit nieuwe feyenoordlied
bekijk nieuw professioneel feyenoordlied de allermooiste club op de klanken van have you…
bekijk nieuw professioneel feyenoordlied de allermooiste club op de klanken van have you ever seen the r…
bekijk nieuw professioneel feyenoordlied de allermooiste club op de klanken van have y…
bekijk nieuw professioneel feyenoordlied de allermooiste club op de klanken van have you ever seen…
bekijk nieuw professioneel feyenoordlied de allermooiste club op de klanken van ha…
bekijk nieuw professioneel feyenoordlied de allermooiste club op de klanken van have you ever seen…
bekijk nieuw professioneel feyenoordlied de allermooiste club op de klanken van have you ever seen th…
bekijk nieuw professioneel feyenoordlied de allermooiste club op de klanken van have you ever seen…
bekijk nieuw professioneel feyenoordlied de allermooiste club op de klanken van have you ever seen the…
bekijk nieuw professioneel feyenoordlied de allermooiste club op de klanken van have you ever seen the…
bekijk nieuw professioneel feyenoordlied de allermooiste club op de klanken van have you ever seen…
bekijk nieuw professioneel feyenoordlied de allermooiste club op de klanken van have you ever see…
bekijk nieuw professioneel feyenoordlied de allermooiste club op de klanken van have you ever seen the…
bekijk nieuw professioneel feyenoordlied de allermooiste club op de klanken van have you ever see…
bekijk nieuw professioneel feyenoordlied de allermooiste club op de klanken van have you ever s…
bekijk nieuw professioneel feyenoordlied de allermooiste club op de klanken van have you ever seen…
bekijk nieuw professioneel feyenoordlied de allermooiste club op de klanken van have you ever se…
bekijk nieuw professioneel feyenoordlied de allermooiste club op de klanken van have…
bekijk nieuw professioneel feyenoordlied de allermooiste club op de klanken va…
bekijk nieuw professioneel feyenoordlied de allermooiste club op de klanken van have you ever seen th…
bekijk nieuw professioneel feyenoordlied de allermooiste club op de klanken van have you ever seen t…
bekijk nieuw professioneel feyenoordlied de allermooiste club op de klanken van have you ev…
bekijk nieuw professioneel feyenoordlied de allermooiste club op de klanken van have you ever seen the r…
bekijk nieuw professioneel feyenoordlied de allermooiste club op de klanken van have you ever seen the…
bekijk nieuw professioneel feyenoordlied de allermooiste club op de klanken van have you…
bekijk nieuw professioneel feyenoordlied de allermooiste club op de klanken van have you ever seen…
bekijk nieuw professioneel feyenoordlied de allermooiste club op de klanken van have you ever see…
bekijk nieuw professioneel feyenoordlied de allermooiste club op de klanken van have you ever s…
bekijk nieuw professioneel feyenoordlied de allermooiste club op de klanken van have you ever s…
bekijk nieuw professioneel feyenoordlied de allermooiste club op de klanken van have you ever seen the…
bekijk nieuw professioneel feyenoordlied de allermooiste club op de klanken van have you ever seen…
bekijk nieuw professioneel feyenoordlied de allermooiste club op de klanke…
bekijk nieuw professioneel feyenoordlied de allermooiste club op de klanken van have you ever seen…
bekijk nieuw professioneel feyenoordlied de allermooiste club op de klanken van have you…
bekijk nieuw professioneel feyenoordlied de allermooiste club op de klanken van have you ever seen…
bekijk nieuw professioneel feyenoordlied de allermooiste club op de klanken van have you ever seen th…
bekijk nieuw professioneel feyenoordlied de allermooiste club op de klanken van have you ever seen the…
bekijk nieuw professioneel feyenoordlied de allermooiste club op de klanken van have you ever seen…
bekijk nieuw professioneel feyenoordlied de allermooiste club op de klanken van have you ever s…
bekijk nieuw professioneel feyenoordlied de allermooiste club op de klanken van have you eve…