nummer 155. meer is er niet nodig om de herfstvakantie compleet te maken!
een vrijdagmiddagplaatje van de wilhelminapier. blijft een mooi stukje
ruim € 2.200, opgehaald tijdens de collecteweek. dank buren, vrienden, vrijwilligers en oudcollegas. trots op onze prestatie!
hou op, schei uit. het nieuws hakte er aardig in...
dochter. 5 jaar. bij het zien van de cover van de linda hé, de vrouw van enzo knol...
dat sporten komt zo wel heel dichtbij..
heel mooi om te zien, al die rennende, fietsende en zwemmende mensen in de stad. nu ik nog...
laat maar...
en redelijk binnen de lijntjes...
de opbrengsten worden nog geteld maar wat een goede collecteweek voor het dank buren, vrienden, vrijwilligers en oudcollegas!
collega die proactief twee kaartjes clouseau in carré heeft geregeld voor het nu al meest legendarische concert van 2018... die komt er wel
ben jij of ken jij een kijk hier voor alle bij hét digitale bureau uit rotterdam
sympathieke actie van in het sophia vandaag. waarschijnlijk heel veel kids blij gemaakt met het on…
lakdoortijn.nl weer een rondje storten met heel nederland. mooi initiatief. wij doen weer mee. sterkte
een klein beetje hulp tijdens de les 010. een aanrader voor de allerkleinste.
wat een middag...
bij winst is de uitreiking in de kuip. die zit ook vol!
3 t/m 9 september mogen we weer. collecteren op de kop van zuid, katendrecht, pier en noordereiland. meedoen? graag!
sinds kort is het kiss &amp walk bij de deur van het klaslokaal van groep 1. volgens de kleine dame is het chris &amp walk 😀
en vergeet de schuurtjes niet!
onze kleine dame bijna 30 minuten voluit 010. dank voor de les. over twee weken weer. een aanrader voor a…
is het nu het cruijff stadion of de cruijff arena geworden?
pakketzegel aangeschaft en betaald via de app. storing. bedrag 2 keer afgeschreven. kan gebeuren. hoe maken we het weer in orde?
aanrader!
half seizoenskaartje excelsior kopen om bij de evt. kampioenswedstrijd van feyenoord te zijn...
cheers! fijn weekend / fijne vakantie!
15 euro korting als je boekt via levert mij hetzelfde op. zoek nog steeds naar het addertje. lijkt er niet te zijn!
en achteruit inparkeren...
speciaal 1 ochtend voor de junioren. dank tony!
dank voor de ontvangst en de tour achter de schermen van wat een mooi event!
het blijft toch altijd een mooi gezicht!
trots op het resultaat. alle succes is zijn tijd vooruit!
en bij het afscheid een goodybag op maat voor een vierjarige... chocola, een schetsboek en playmobil. dat is scoren!
dank alle meer dan 100 medewerkers van het voor jullie het was meer dan een succes!
8 studenten, 7 nationaliteiten tijdens de tweede les frans een hele bijzondere ervaring...
dank voor het organiseren van de onze kleine dame heeft er zin in. we zijn erbij!
.@kwfnl zag ik net tijdens een commercial van een collectebus incl. pinmogelijkheid? 20 stuks graag. test ze graag in september!
23 graden morgenochtend.
zoals het er naar uitziet pas om 2130 op salzburg airport. is er nog iemand of liggen de sleutels op de balie?
zwaaien naar de mannen!
dankzij redelijk in de kerstsfeer. nog een kwartier en dan mag het losgaan!
doe zelf even een stapje naar achteren...
donatie gedaan alle sterkte ook met de actie!
collega paul presenteert het resultaat van 3 dagen prototyping. is geboren!
dank en voor alle goede zorgen voor onze kleine dame. we kunnen het niet vaak genoe…
op de rotterdam. in gesprek met veel enthousiaste studenten, op zoek naar dé afstudeerplek. al veel talent en passie gezien...
nul op de meter aan de design sprint. drie hele intensieve maar vruchtbare dagen. trots op mijn collegas, de deeln…
gevonden!
ik heb er 2 betaald. 1 moet nog maar ik heb de kaart iets te goed verstopt. het gaat om 3072nm6.
postzegelcodes via jullie app. goede dienst. sindsdien 3 strafportkaartjes op de mat. worden alle codes echt goed verwerkt?
onverwachts naar daniël arends dankzij het plaatsen van 2 extra klapstoeltjes
laura en christa. dank voor jullie bijdrage dit jaar. voor het eerst mee en letterlijk het verschil gemaakt.
dank lars buren, het hele gezin monster en de overige collectanten voor de inzet!
de opbrengt van de collecte is bekend €2.340,. een fantastische bijdrage én een nieuw record voor ons collecteteam.
keurig eerste in de poule ook! fantastisch...
nieuw bij de club! jezelf presenteren bij connect holland kan en mag op meerdere manieren...
case hoe krijgt gemeente rotterdam de bewoners in beweging? via
wat een stralend resultaat!
de ss vanmorgen, vanaf de waterzijde.
de trossen zijn los. de ochtend starten op de prachtig schip, dank voor de uitnodiging!
een vol terras, prooi voor en tijdens het laatste uurtje collecteren voor het
snacks voor lars! de beloning voor een goede avond.
ook en zijn onderweg voor het nu al een mooie avond.
vanavond weer een ronde voor het mét de inzet van routiniers en gezin en de verwachtingen zijn hoog...
een halve eeuw hoffmann... mooi stuk.
de kop is eraf. een mooie eerste collecteavond voor het dank en buren... dank voor de medewerking!
alle trouwe collectanten zijn er klaar voor. meedoen? kan nog! 5 tot 10 september. rotterdam.
varen op de vecht. prachtig stukje nederland...
vertrouwen is goed maar hoffmannbv.nl is beter. de nieuwe site staat live. hard gewerkt, mooi resultaat. trots op het team!
de harde kern is er weer bij. en veel nieuwe de voor het vanaf 5 september mag weer beginnen!
mijn
bootje varen. in amsterdam.
van ontvangst tot afscheid. wat een fijn ziekenhuis. dank voor alle goede zorgen en aandacht.
altijd ruimte voor jong talent...
na een geslaagde evaluatie bij mijn eerste meters op een high speed ebike gereden. en dat gaat hard...
afgelopen vrijdag op de willem alexander baan...
eens kijken welke collega ik hier blij mee kan maken! dank rdam topsport voor deze avond en het goede gezelschap.
nu live te bewonderen. prachtige artist impressions, een strakke huisstijl en natuurlijk trots op het resultaat.
vier zeer uitdagende wordt enthousiast voor een ander, stuur ze door en wie weet volgt er een match
geniet van je vrije tijd ton! ik ga nog even 20 jaartjes door... zie ik je daarna op de golfbaan!
een lange url, maar dan kóm je ook ergens...
een bijzonder filmpje van een bijzonder goed doel. met een bijrol van een bijzondere lieverd op 148.
voor de collecteweek van het 510 sep. ben ik weer op zoek naar medecollectanten. rt wordt gewaardeerd!
op heilige grond... ter hoogte van vakkie c!
koolmees uit de stad wordt sneller oud via in dat geval blijven we nog even op de
innovatief, lui en irritant tegelijk. het kan! de scanauto. onderweg met zijn dagelijkse incasseringsrondje...
connect holland en rauwcc mogen hoffmann verwelkomen voor een creatieve sessie. de start van een mooie samenwerking.
de ms koningsdam, vanaf de kratonkade, in volle glorie. prachtig uitzicht, prachtig plaatje.
even afgestoft maar het kán weer een ding is zeker... wint de beker!
weer aanwezig op de hogeschool rotterdam. nu op zoek naar de beste stagiaires. en ik zitten er klaar voor!
voor het eerst een quizje mogen doen via bij de hogeschool rotterdam. goede tool, goede presentatie over
en een nog beter verhaal!
goed verhaal!
voorproefje gekregen van het sportfilm festival rotterdam. mooi programma, goede lokatie
inspirerende persoonlijkheid...
schuif maar bij! log in. lunch mee. neem een of twee collegas mee. maken we er een inspirerende werkdag van!
opbrengst kwfcollecte na jaren weer omhoog via
gefeliciteerd!
opnames nu voor de deur. huub toch even gecomplimenteerd met de tweede uitzending...
connect holland. zeven zeer uitdagende lees, wordt enthousiast, reageer en start 2016 als nooit tevoren
de laatste uurtjes op een verrassend mooi eiland. zeker het bezoeken weer waard!
doen we. dankje!
ha, klopt helemaal florian. en uiteindelijk eindig je dan in windkracht 11...dochter mocht niet vliegen, vandaar vakantie in nl
en wie houdt er een oogje op
eten bij in de wordt letterlijk eten bij jamie! de zaak en het volledige personeel gaan los...
dank je nienke en fijn dat je er gisteravond bij was.
de gasten zijn welkom. wij zijn er klaar voor! de tweede kennissessie staat op het punt van beginnen.
morgenmiddag mogen wij vanuit 13 relaties uit het onderwijs verwelkomen. het is het decor. delen
onverwacht terecht gekomen bij heerlijk geluncht, méér dan een aanrader!
de voorloper van aap, noot, mies...
4 november komen wij bij elkaar in het je groeit tenslotte in het ...
13 facilitair verantwoordelijken uit het onderwijs, gaan met ons in gesprek over betrokkenheid, beleving en samenwerking.
hoe creëer je een ontmoeting? en hoe maak je deze onuitwisbaar? slechts een van de vele gespreksonderwerpen binnen onze
morgenmiddag mogen wij vanuit weer een twintigtal relaties uit de hospitality branche verwelkomen in het
de opbrengt van de collecte is bekend €1650 een mooie bijdrage. dank o.a. rem, wouter, marcel, patrick, buren, micha, matthijs + kids!
ook de laatste collecte loodjes voor en micha van beem. dank mannen!
de laatste avond collecteren voor het lars, evelien, jullie waren fantastisch. volgend jaar doen we het weer!
gecollecteerd met een mooie opbrengst én een rondje van omdat we goed bezig zijn dank!
bezweken onder het succes van de avond. de collectebus van
een succesvolle collecte avond voor het met en
op de meiden!
alle cupcakes verkocht. marit en puck pakken door met de verkoop van vlaardingse ijzerkoekjes. opbrengst voor
alle buren van de katendrechtselaan, alle inwoners van dank voor het meehelpen, dank voor het storten!
eveline en lars! twee collecteerkanjers onder begeleiding van morgen nóg een avond collecteren voor
sligro en de knvb samen lekker bezig slogan met een risicootje...
marit en puck maken nu al het verschil. cupcakes te koop! een vliegende start voor de van het
prachtig rotterdams plaatje... de fotocredits gaan naar de buurman
voor de collecteweek van het 712 sep ben ik nog op zoek naar een aantal collectanten op rt wordt gewaardeerd!
voor de collecteweek van het 712 sep ben ik nog op zoek naar een aantal collectanten binnen de rt wordt gewaardeerd!
er zijn van die vacatures, die komen maar een of twee keer in de 10 jaar voorbij...
nu weet ik wat het is om op een houtje te bijten...
claire underwood jenny uit forrest gump. het heeft even geduurd maar uiteindelijk valt alles op zijn plaats. weer wat geleerd vandaag...
keurig en snel in huis. nu de nog. wanneer kunnen we die verwachten?
een kijkje achter de schermen gekregen bij de housekeeping
niet het minste vuurwerk bij
oud en nieuw... op 7 juni.
en deze online marketeer vind je door middel van een advertentie in het ad...
love boat theme schalt over de maas!
terugkijkend op een zeer geslaagde middag en avond met pathé in het circustheater. voor herhaling vatbaar!
nog een half uurtje en dan... entree!
alles op lokatie van een andere zeer gewaardeerde relatie
alles is gereed voor de inhoudelijke sessie met onze gewaardeerde relatie pathé. daarna tijd voor het aangename
meer dan 40 artikelen en geen enkel product in de bonus. hoe groot is die kans precies ...?
de niet bladerbare versie van dinsdag beschikbaar bij het vakblad ook hebben? gom.nl!
en het is ook goedgekomen.het was een succes!
dat alles onder de leiding van in een zeer inspirerende lokatie.
9 facilitair verantwoordelijken uit het onderwijs, samen met ons in gesprek over het thema gastvrije schoonmaak
me, politiebegeleiding, de maas en erasmusbrug blauw gekleurd van de zwaailichten. en dat alles voor een bepaalde spelersbus...
het heeft een paar jaar geduurd maar is weer open! heerlijk gegeten.
13 km dwars door rotterdam zuid gerend. moet toch zeggen zuid gaat vooruit!
de man met de groene schoenen vanavond aan het werk op de vestiging aan de lijnbaan in rotterdam. hou die man vast
scheids, fluit maar af! zin in en klaar voor een mooi avondje volgende week...
dé portier van het journaal. die komt er wel!
het zou een aardig klusje kunnen zijn...
onze topmodellen van vandaag voor het bekende plaatje...
deze ochtend mogen wij fotograferen op een van de meest bijzondere gom locaties van nederland
thuiskomen, brief op de mat. onze voordeur is genomineerd voor een nieuwe reclameuiting van postnl! het houdt niet op vandaag...
en de winnaar van de bpa is gom, victoria en csg bij vu !!!
de jury van de heeft gekozen voor gom en de zijlen! het publiek mag over enkele minuten meestemmen, waarna de winnaar bekend wordt!
ook aura groen en fred van dijk presenteren krachtig samen met hans van westen hun inzending. een mto, echt geschikt voor onze medewerkers!
herman busch presenteert met flair de inzending van de zijlen en gom zorgsupport. een grote kanshebber op de
de genomineerden stellen zich voor. vier mooie voorbeelden vanuit gom, victoria en asito. allen kanshebber op een best practice award!
de presentatie van de best practice award gaat van start. 3 nominaties vanuit gom. rond 12 uur is de winnaar bekend!
heb je een paar uurtjes vrij in sep. 2015? stuur mij dan een berichtje en collecteer mee op katendrecht, de kop van zuid en de pier.
dit jaar maar eens ruim op tijd beginnen met de werving van nog meer collectanten voor de collecteweek van het
gisteren jumbo. vandaag de kerstcommercial van ah. ook top!
hallo jumbo. complimenten! gewoon een sterke actie.
op weg naar de schouwburg voor een inspirerende avond met twintig van onze gewaardeerde hospitality relaties!
voor het idee. de is 185 meter hoog
362 meter aan boot voor de deur vannacht. ben zeer benieuwd!
de opbrengt van de collecte is bekend. €1.450 een mooie bijdrage! mede dankzij de inzet van en
moest nog even warm worden. die is al dat geweld voor zijn goal nog niet gewend... komt goed!
kans 1 op hoeveel dat ik dit flesje krijg? aan de andere kant... maxima mc verrast al de hele dag positief!
faye en ragna zijn zeer succesvol tijdens de collecte voor het samen met aan de slag tijdens de
wie o wie collecteert er een avondje mee? voor het in de eerste week van september op en rond de kop van zuid in
voor de collecteweek van het ben ik nog op zoek naar een aantal collectanten op het noordereiland rt wordt gewaardeerd
voor de collecteweek van het ben ik nog op zoek naar een aantal collectanten voor de pier rt wordt gewaardeerd!
voor de collecteweek van het 16 sep. ben ik nog op zoek naar een aantal collectanten binnen de kvz. rt wordt gewaardeerd
voor de collecteweek van het ben ik nog op zoek naar een aantal collectanten in rt wordt gewaardeerd!
je hebt gelijk psv maakt tot nu toe geen sterke indruk...
en dan als toetje ook nog ... !!
tijd vliegt als je het naar je zin hebt rik! gefeliciteerd met je 12,5 jarig jubileum!
samen met mijn collegas aan de slag met social media!
samen met mijn sales collegas aan de slag met social media
de prorest lokatie van straalt een en al uit. heerlijk gegeten en wat een aardige cateringbeheerder!
er zijn dus boten die niet op de foto passen... groot, groter, grootst
zin in een of meer avondjes collecteren voor het op of de stuur mij een dt!
wil jij van 1 tot 6 september collecteren voor het in meld je dan aan rt wordt op prijs gesteld!
mijn vakantieplaatje
thuis van een mooi avondje theater dankzij thomas verbogt / aanrader!
hij had moeten stoppen op zijn hoogtepunt...
en weer 1,2 en 3!
net op 8 meter langs madonna gelopen. niets van gemerkt maar dichterbij zal ik nooit meer komen...
alvast van hetzelfde daar!
ingeschreven... geen weg meer terug!
is de pot er uit trouwens?
queen elisabeth toetert nu dwars door heen
daniël had en is boos. zorgverzekeraars noemen hem een brandend huis. brief aan schippers. please retweet!
alle kortingsbonnen van alle bouwmarkten zijn geldig bij praxis. originele actie!
en een beetje maatwerk connexys
en aan het eind van de vacature was het engels op. ook bijzonder!
bijna 3 punten in de laatste minuut. móet dat vast een spannend moment hebben gevonden...
was ik toch heel even echt voor ajax...
prima zondag. 3 punten uit heerenveen en 1.3031 tijdens de
kerstlukt i.p.v. kerstmis. leuk bedacht van meneer heijn!
een ajacied onbewust een feyenoordblad geven
vanmiddag om 1600 uur gaat het gebeuren op de katendrechtselaan!
facilitaironline.nl blijft zich vernieuwen via
opgeleverd !!
goed voorspeld... netjes, kan niet anders zeggen. de pot staat als het goed is morgen op jouw ajax rekening!
t.b.v. de nieuwe signing, een van de grootste locaties met eigen ogen bewondert. 1400 lunchgebruikers per dag.
eur 1322,89 opgehaald voor het niet in de laatste plaats door de grote inzet van en
ik wacht ook op maar sinds hij weer prepaid belt, tweet hij alleen het hoognodige...
zeker! die misser van ajax scheelt jou 25 eur!
heeft ook nog kans... maar dan moet ajax 1x scoren en zoals we net hebben kunnen zien, gaat dat niet gebeuren vanavond...
en affluiten maar. de pot is binnen!
en weer op koers voor de pot! baraja
uiteindelijk hebben er 9 toppers gecollecteerd op en het
de collectebus van is bezweken onder het succes van de avond!
de fooienpot voor !!! dank
wil je morgen of zaterdag voor het collecteren op stuur mij dan een berichtje!
wijze woorden van tijdens de collecte voor het
het gaat er niet alleen om hoeveel je binnen haalt het gaat ook om de bewustwording...
ook lars en zijn vanavond weer op weg naar een mooie opbrengst voor het
en weinig tot geen negatieve reacties m.b.t. bepaalde management fees voor een bepaald wielerevenement.
het eerste avondje collecteren voor het is een feit. de eerste munten en flappen zijn binnen. dankzij medecollectant
1.3902 !! 10 mooie miles in tilburg met
8 vrijwilligers binnen, nog minimaal 10 toppers nodig!
inmiddels al 8 vrijwilligers voor de collecte van het in rotterdam zuid. met een paar uurtjes collecteren help je ook al mee!
de nieuwe cover voor de corporate brochure van wordt nu geschoten...
maat 43. aanwezig op de j. nycolaasstraat 28!
wil jij van 2 tot 7 september collecteren voor het in meld je dan aan op rt fantastisch
zomers dagje op de ss rotterdam!
toch snapt iedereen de boodschap ...
4g, wat moet je ermee... topfilmpje van
een prachtige opdracht bij een prachtige organisatie
klik op de link voor de niet bladerbare versie van de lees hem vanaf morgen op
middagje
de steigers zijn weg. nog 2 maanden en dan is katendrechtselaan nummer 6 helemaal af!
het prachtige uitzicht vanuit een
ook in de de komende 3 dagen de met een actieve bijdrage vanuit
de stand van staat er fantastisch bij! op naar een succesvolle
rondje van 12,5 km op de zondagavond met lekker gelopen! mooie afsluiting van het weekend.
prachtig...!
word kwfcollectant en help kanker bestrijden. geef je nu op! via
nog voor 8 uur?
dank voor de felicitaties!
de tijd vliegt!
wat een heerlijk middagje!
56.22 mag er ook zijn!
hij mag weer affluiten ...
jij eindelijk ook op
dacht ik mooi met jullie centen de paasbrunch te financieren...
en de pot blijft staan...
dat was dan een goedkoop avondje!
haha, nog 19 minuten en dan pak ik de pot!! of...
john, neem je echte meisjes op de prairie dan op?
nieuwsuur politiek begint op 2. over een half uurtje weer eens kijken of ik de pot nog steeds in de pocket heb
fluit maar af!!!
messi te licht bevonden voor feyenoord 1, dat weet ik wel.
messi scoort nog wel een keer. maar dan...
nog even voor de goede orde... 30
top commercial. zou ook een leuk ideetje voor kunnen zijn.
twee rotterdamse ploegen op de coolsingel dit jaar!!
goed plan! en ook leuk voor john. een wedstrijd zien in een vol stadion blijft indrukwekkend.
oei... en daar vliegen weer 115 eurootjes aan mijn neus voorbij.
kijk je voetbal? of voor de zesde keer
ik steun het nederlandse voetbal en zeg dus voor deze keer hup ajax, maak er nog maar eentje!!!
zap zap zap. heb maar een seconde nodig om me te irriteren
mag bij bepaalde films het roze beeldmerk weglaten. list
lunch in met een gratis boterhammetje met boter voor mijn kleine meid.
nog twee uurtjes extra innsbruck.
een topdag op de piste en dan de voetbaluitslagen zien... er zijn slechtere zondagen!
lenzenvloeistof en een booster ... een dodelijke combinatie in je handbagage...
je krijgt wat je verdient!!
prima beslissing! de komende 33 jaar een dagje vrij na mijn verjaardag.
sterke zet van mooi voor
prachtig mooi bij 7...
een mooie woning, met ruime tuin, op een goede lokatie, voor een scherpe prijs...
had er iemand 23 in de poule?
wordt vanzelfsprekend. binnen de facilitaire combinatie.
we mogen van nog 2 uurtjes langer in praag blijven!
even bijtanken aan de bar.
the voice kids ... nu al beter dan de volwassen versie!
... echt een mooie pot om studio sport mee te beginnen ...
dividend is zo 2012...
blijft toch altijd een beetje apart, een bekende toren met een gat er in...
blijft toch altijd een beetje apart, een bekende toren met een gat er in...
guidetti is zo 2011...
alvast een kleine voorspelling... wint volgende week!
heeft er nou niemand in kunnen grijpen bij die backup reclame? hij klopt niet!!
simpel maar toch weer leuk!
en de jackpot blijft staan tot de volgende pot / zeperd van ajax!
ajax maakt een sterke indruk...
hierbij reageer ik op uw adv. id metro van 15 nov. waarin u een beveil zkt ...
waarom is een nokia 3109 uit 2007 zó veel beter dan mijn iphone...
zo... heb jij ook je eigen zaak!
er hangt er in ieder geval nog een op station eendrachtsplein...
herkenbaar en een prachtige reactie...
vanavond de stad in met