probleem van pernis is bereikbaarheid
volgens mij is het juist rustig in pernis! nu kan ik woe om 820 afspraak maken, morge…
precies! vannacht verschillende aanvallen door metalist supporters op feyenoorders
welke twee toegangspoorten? we nemen taxi
het is hier in charkov geen feest, diverse aanvallen van metalist supporters!
het is hier in charkov geen feest, diverse aanvallen van metalist supporters!
waar is de wedstrijd in charkov en hoe laat?
yep, eerst een vrachtwagen geraakt in kiev, maar om 1300 waren we aangekomen
4/3 omdat een gewonnen duel je expg direct vergroot als je dan gaat schieten en balverlies op middenveld meer gevaar veroorzaakt
3/3 duels die je kan verliezen dien je zo dicht mogelijk bij doel van tegenstander te doen.
2/3 door wat druk op verdediging speelde jones alleen maar lange ballen waardoor op middenveld al balverlies werd geleden...
1/3 vraag is er een soort heatmap, waar feyenoord tegen ajax balverlies leed? het zegt veel waar de duels worden verloren..
kea
welke aanvullende pakketten heeft onvz beschikbaar waar alternatieve geneeswijzen geen onderdeel van is?
tot wanneer kan ik kaarten kopen?
waarom is mangert buiten de selectie gebleven, of is hij geen onderdeel meer van selectie?
maar 10 man opstellen, het onderschatten van excelsior is begonnen
dat als het goed gaat, je naar ajax kan gaan. dat is het voordeel van aj…
nog 36 van de 50, op dat moment voldoende overs
niet zo moeilijk. excelsior heeft 52 en is nog aan het batten, 2 uitjes van de 10. punjab 191. dus 1…
klein vraagje ik wil graag een maandabonnement om van meijersplein naar wilhelminaplein te gaan. hebben jullie url voor mij?
beste, wat is er voor nodig om na 5 maanden mijn energieveebruik in de app te zien? al zeker 5 gebeld!
speciaal voor johan
alweer een spatie te weinig!
even een spatie zetten in dit bericht tussen gravendeel en https!
beschikbaar als luisterboek? lijkt mij ideaal in de auto!
werkloosheid neemt wederom sterk af! dat hebben jullie als kabinet goed voor elkaar gekregen. naar dat is afgestraft
en groenlinks krijgt meer voor elkaar in oppositie voor vluchtelingen dan in regering? is het een goede…
shirt lenen van janarie was ook ooit ajacied!
met de kans dat je het al 100 keer hebt gezien...
ik zou zeggen okay trump, dan doen we het wel zonder jou. wij gaan door. bouw mee aan een duurzame toe…
ik begrijp hoe politiek werkt, maar de kans dat nl vergroend is door het niet deelnemen van gl afg…
vanavond mooie avond gehad met bij de mannen van dank, , wesley en johan!
ik neem een treetje corona s mee
dat in 20062007 theo lucius de beste van t elftal was.
ik neem aan dat jullie deze hebben gezien succes vanavond met de opname! coolsingel....
net keurig geholpen bij bobautowas berkel!
is de combinatie nexus 6 /rabobank/vodafone voldoende om contactloos te betalen met smartphone? zo ja, hoe?
beter lerende politici dan dogmatische!
is toch alleen maar te bewonderen? als iets niet werkt zoals je bedacht had, dan leer je ervan! refer…
wesley heeft gelijk. 020 onderschatten is recipe for disaster
feyenoord, op weg naar weer een cup🎵
beste lijsttrekkers, het verplicht aanbieden van digitale vaardigheden op basisschool moet in
eerder de coalitie van angst roemer, krol,wilders, klein christelijk
dat maakt rutte en wilders geloofwaardiger dat ze echt niet met elkaar gaan regeren!
de lahmacun is echt lekker ! 5
is wedstrijd openbaar?
ben heel tevreden over ms! verzoek stop met schenk een gratis box als het niet gratis is, abonnement aangaan is verplicht!
kuipdiscussie wat zijn die rijen toch kut als je naar fey gaat. donderdag weer half uur mogen wachten!
dank voor advies! ik ga bestellen
3/3 als dat klopt, welke adviseren jullie dan? wifi is met name voor streamen chromecast en simpel surfen
2/3 maar deze heeft 1 adapter te weinig, in de reviews staat ergens dat er geen extra adapter kan worden gebruikt.
1/2 ik zoek powerline adapter voor twee etages , dus 3 stuks met wifi ingebouwd. de tlwpa4530 kit van tplink is jullie tip
is gelukt!
wij hebben ticket voor boot van 1700 v h, vandaag, zouden we die kunnen omzetten naar die van 1200?
bij welke windkracht vaart veerboot v h niet meer? vanmiddag storm verwacht
2/2 dat deed u ook eerder maar herstelde dat dacht ik naar volle broer. ik ben benieuwd, nu de familie heeft gewraakt
1/2 vraagje over rechtzaak nicole van den hulk nu wordt tommy weer als halfbroer genoemd.
ik ook, kon helaas niet kiezen bij het waarom ongehoord dom stuk
link werkt niet, lijkt t
gegarandeerd bondscoachschap kan onderdeel van contract zijn
excuses. tweet te laat gezien, dank voor antwoord!
kan ik het bier ook bij een winkel vandaag krijgen of ophalen vanmiddag/vanavond? pak van 4 bier
je hebt gelijk, was 16 ipv 20
deze even lezen artikel 20. hier staan de regels. nee, geen kennis van.
geen vermenging tussen atleten die nog een topprestatie moeten neerzetten en atleten die klaar zijn
ken je de belangrijkste beweegreden? deze snijdt wel degelijk hout!
wat een foto!
ik mis de link met demmink en de bilderberg conferentie, die zal ook wel zo komen
ik ga luisteren, leuk!!
ik kan m niet vinden op soundcloud, alleen aflevering 1
wordt het nog mogelijk om op viagogo kaarten te kopen dit seizoen?
kunnen al die sprookjes gelovers stoppen met de mijn sprookjesfiguur is de beste strijd? dank!
hi guido, al is het een taalnazi melding op de pagina staat het beloofd een interactieve..... een d ipv een t.
kom er maar in
mooi man!
2/2 de dagelijks gaat beginnen, is een rare zin.
1/2 oefff en hoe vertalen we dan scrum? door het engels kan je ze meer als eigennaam gebruiken zoals de daily standup is oude naam
en weer aansluiten. erg irritant... bekend probleem? kunnen jullie daar iets aan doen? ontvanger is uit juni 2015
1/2 mijn digitale ontvanger voor tv hangt erg regelmatig lees 1 a 2 keer per maand dan moet ik m van stroom halen
het is nu morgen!
waar ga je werken?
en wat is de temperatuur van het water?
wat een stress!
jammer, dank voor snelle reactie!
is er een videostream beschikbaar?
live track &amp trace kunnen zien waar de vrachtwagen met je pakje zich bevindt.
nu onderweg naar kiev, ik zal de plofkippen daar vertellen dat nederland voor hen opkomt met een krachtig nee, volgens pvdd
helden bestaan nog!! buurman redt twee meisjes uit brandend huis in best via
en de bijvangst is, is dat wilders er populairder uitkomt....
was t zeker!
kijk even op 127, plannen met/bij feyenoord?
mooi te zien dat de door jou beschreven tactiek van atletico mbt de zijlijn en vededigen werkte. zie tussendelinies op fb
was mooie avond! uit bij tottenham trouwens ook
deze reacties zorgen ervoor dat burgers hekel aan politiek hebben. omarm zijn plan of reik verbeteringen aan!
mooi verhaal, pieter!
aardig repliek van op een aantal idioten
link werkt niet op de pagina van er staat een spatie te veel
2/2anders persoonlijke titel laten vervallen uit wet, ben je af van leden die uit fractie stappen maar wel doorgaan
1/2als je op persoonlijke titel bent gekozen zoals in graondwet beschreven, is er geen recht om kamer te verlaten.
2/2 omdat dat in de kaart zou spelen van een ongewenste mening dit geval extreem rechts. dat is nog meer ongewenst, lijkt mij!
1/2 ik begrijp je stelling. elke politieke correctheid is frustrerend voor gesprek. in keulen werd informatie achtergehouden
ik heb ook verse tijm. in recept punt 2 staat rozemarijn, punt 7 heeft t over overige tijm. wat moet ik gebruiken in recept?
ik maak de zoete kip uit de familybox. nu staat bij ingrediënten verse rozemarijn. ik heb rozemarijn in een zakje 1/2
een nieuwe dag, een nieuwe crash van de app. staat nu op 63 crashes, sinds 27 november.
de productiekosten zijn fors voor een cd, jaren lang als rechtvaardiging gegeven... en toen kon je zelf cds branden. tja
te kort door de bocht! eerst weten hoe van nieuwenhoven, weisglass en verbeet hiermee omgingen. kan al bestaand beleid zijn....
dat zou heeeel goed nieuws zijn
die 3d grafieken maken het niet makkelijk. 7% dan? jullie hebben de cijfers,
opmerkelijkste conclusie 10% van topklasse spelers is 55 of ouder!
goede zaak!
jij zou zon goede moeder zijn!
dan wordt hij beloond/gestraft voor het geluk dat de maker heeft. een expg van al zijn voorzetten is interessanter!
mijn galaxy s6 raadt nu aan om de app niet automatisch te starten, is deze versie erkend minder stabiel?
wanneer is/was de workshop? mijn dochter is vanmiddag bij terra en vindt hockey heel leuk!
interessante stelling, los van of het klopt. dus we moeten met terrorisme rekening houden bij stemgedrag.
hoe kan je op dit moment een opname promoten??? parijs staat in brand.
lijkt mij interessant artikel! misschien voor je volgers handiger als je doorlinkt naar
waren echt heel lekker, die bospenen! er werd zelfs voor een tweede keer opgescheept door alle kinderen! van 1,4,15 en 17
aanpassing op het model nodig! expg max 1 binnen een bepaalde tijdseenheid. causaal verband is te groot tussen de kansen.
hoe zorgt gio voor focus op ado.natuurlijk gaat hij roepen dat er focus moet zijn, maar hoe?de kans op puntenverlies is mega
tja, als je dit leest, heeft hbs geen punt...
tja, als je dit leest, heeft hbs geen punt...
goed idee, maar waarom leeftijdsdiscriminatie, zou dit niet voor iedere asielzoeker 16+ moeten gelden?
wat deed kramer? kon het niet zien
omw to feyenoord 020. wordt weer een avondje laveren tussen hoop en vrees. eerst hapje doen in de kuip
radio 1/slamfm/ned 1 en netflix maar dat telt niet
ik vlieg met uia naar kiev. kan ik reis in de klm app zien? dan heb ik oa boarding pass elektronisch
benieuwd wat dat gaat betekenen voor werkgelegenheid voor &lt23 bij gemeente
vandaag?
klopt, oplaadpunten zijn onvindbaar... subsidieer bouwen van punten ipv auto
lubach en koens de persverklaring vpro
deze tweet is best triest. had meer niveau van u verwacht
kloof tussen arm en rijk
janmaat werd ook openlijk afgeserveerd en niet meer opgeroepen. dan ook vd wiel, cillesen en blind niet meer oproepen
het selectiebeleid doet mij denken aan de donkere jaren halverwege 90s. dat was meer mijn punt!
tete 7 en riedewald 17 basisplaatsen in ajax 1 en dan al in nl elftal. van beek 47 niet en van dijk niet.
7 ex ajacieden, 2 ex psv en 2 ex feyenoord alhoewel wijnaldum ook bij psv kan worden geteld. weer een ouderwets 020 elftal
aardig artikel! ook zijn de reacties interessant, onderschrijven onbedoeld de conclusies van het artikel!
thnx for reply! ik zag dat je nu volledig over de crocs schaamte bent heen gestapt
de vraag is worden mobiele kranen vaker gebruikt op pontons en gaat het nu een keer mis? of is dit de eerste keer?
kazim in de basis.... het wordt weer zon seizoen als afgelopen 16 seizoenen
elke opstelling zonder kazim en manu is geweldig. natuurlijk twijfel bij nelom en bilal!
in mijn herinnering op de 1e. in ieder geval, als je met een roltrap naar beneden ging, zag je het gedicht onder aan de trap staan!
2/2 jij hebt de dingen niet nodig om te kunnen zien de dingen hebben jou nodig om gezien te kunnen worden
1/2 als je met de roltrap van 2e naar 1e ging, stond daar onderaan een spiegel met het liefdesgedicht van k. schippers
er speelt dit momemnt opmerkelijk weinig rond jhonny van de beukering
kan jij direct vragen of toegang bij play offs gratis is voor seizoenskaarthouders? schande als dat niet zo is!
doe het wel even zo hf@delfos.nu
ik ben recept kwijt van de orzo met snijbonen. kan deze ook niet online vinden. kunnen jullie mij helpen?
roep het bij de volgende zwarte pieten demonstratie, then well see!
weer een aanslag op de monarchie! eerst de waxinelichtjehouderwerper, nu om vervolgt voor uitspraak fuck de koning
het was zo onschuldig, maar nu voel ik mij een notoire swaffelaar...
ik begrijp m niet, laurine...
dichter dan dit lijkt niet bij de knvb beker te komen
. we zijn er klaar voor!
jaaaah!!! ik heb kaartjes voor vanavond eindelijk kunnen regelen! wij zijn erbij
mooie gast! riep in vi dat hij nooit voor ac milan wilde gaan spelen, zonder 1 minuut in de eredivisie te hebben gespeeld.
2/2 op hun auto? is dat het antwoord van de vent als hun vrouw haar haar kort heeft laten knippen makkelijk en een huispak?
1/2 omdat jij maatschappelijke misstanden aan de kaak stelt waarom rijden volwassen kerels met stickers van julianatoren...
nog een minuut of 12 hiddink als bondscoach, daarna blind...
op vanaf 08.30
ja, klopt. jammer dat er een minder herkenbaar 1ste elftal staat. gebeurde bij cricket ook, nu niet meer
dit is waarom we minder spelers van buiten moeten aantrekken. te grote kans op gelukzoekers en minder kans voor vocers
en ik maar op mijn lippen bijten....
ret lijkt mij bij uitstek een bedrijf dat zich niet kan permitteren een 9 tot 5 op werkdagen bedrijf te zijn!
ja en waar je 24/7 binnen, zeg, 30 minuten response krijgt. zoals mijn melding van zaterdag en kreeg ik maandag response
dit account wordt niet 24/7 gemonitord, zie ik. welk account moet ik volgen om accurate informatie te krijgen?
metro e nu bij blijdorp roept de hele tijd om binnenluidsprekers en buitenluidsprekers
inderdaad! maar groningen uit klinkt niet als een risicowedstrijd....
dank voor antwoord, jammer en het blijft een gek systeem
mijn zoon en ik hebben ook clubkaart van feyenoord, gaan we ook naar toe. kan ik er dan ook een aanvragen voor excelsior?
ik heb geen clubkaart maar wil naar de wedstrijd met mijn vader 75 en zoon 15. hoe kom ik aan 3 kaarten? niet met bus
net met uberpop in kopenhagen naar restaurant en terug. voor e10 per rit en een geweldige ervaring! aanrader
zijn er beelden van het provoceren van roma bij hun goal? er werd daarna veel richting de spelers gegooid vanuit p gezien
ik vind de sp poster reken af zo mooi in zuid holland waar ze zelf in de coalitie zitten in de gedeputeerde staten....
grappig, ik kreeg net foto van rutte van haar uit zelfde hoek als jouw tweetfoto
mijn schoonzus sigrid verweij directeur communicatie van vnoncw zit daar ook, kennen jullie elkaar?
ik ga het aanhoren de 12e maart en de 18e juni!
we waren jouw salestalent aan t bewonderen! marianne z bij software industry conference èn test automation day
mooie deal met ckc gesloten? kom je naast nu ook bij de tegen!
onafhankelijkheidsplein kiev
ook gefeliciteerd🎈
dank je! ben ik weer geïnformeerd. morgen ga ik weer naar kiev, daar zitten een aantal ingehuurde collegas van mij.
wat bedoel je met iedereen voor en tegen?
staat een algemene mobilisatie in oekraine voor de deur? conflict is weer aan het escaleren.
wanneer wordt prijswinnaar bekend gemaakt? ik heb trouw geretweet
en het viel mij juist op dat ik in sociale media gen enkele verwijzing zag over afkomst tarik. maakte mij blij!
was overacting van de zoon of neef van joop doderer
het verbaast mij dat bij 1 persoon meer je 2 keer zoveel blokjes moet gebruiken. voelt als een recept fout
vanavond soep! ik twijfel over aantal groentebouillonblokjes. bij 3 personen 1,5 blokje, bij 4 personen 3 blokjes. klopt dit?
vraagje hoeveel procent van salaris wordt door gae betaald? 30%?
tip 2 van dit filmpje pano driveby. voor nog mooie fotos van het
2/2 zelf heb ik niet elke week zin in veg maaltijd uit de org box. kan er voortaan als tip in recept welk vlees er bij past?
1/2 ik zie dat jullie vaak als tip aan vishaters aangeven om een veggiebox te nemen en dan zelf vlees te kopen.
je zou bijna denken telefoon in hand tijdens autorijden
best gek als je kernpunten van de vpn leest en denkt dit is mijn partij! in 1982 had de tegenpartij ook veel aanhangers
wat is die aboutaleb een held he! verwoordt iig heel aardig mijn gevoel. vanavond plein 1940, jij ook?
aboutaleb riep op om syriegangers recht van terugkeer te ontnemen. hoe denkt de vvd daar over?
veel succes! ook jij bent een van de helden die feyenoord weer deed presteren!
expeditie poolcirkel bedoelen jullie!
bittorrent! bijvoorbeeld staan ze allemaal
tip kijk tot en met afl 11, dan is het de beste homeland tot nu toe! waardering afl 12 op imdb is 5,1 en terecht
tip kijk tot en met afl 11, dan is het de beste homeland tot nu toe! waardering afl 12 op imdb is 5,1 en terecht
als er over een takje wordt gesproken in recept, is dat dan 1 strootje of een tak met zijstrootjes?
satellietfoto van de in het zuiden en midden van het land. bron nasa worldview”.
fraai gebruik van repressieve “@rsnoo lansingerland is bezig met een repressieve strooiactie om sneeuw en gladheid te bestrijden”
heeft u afl 13 al? ik ben tot 12
welkom bij voc!
celtic! guidetti weer aan t werk zien😊
is een onderzoek dat meer dan een jaar geleden is gepubliceerd!
op alv van is echt een goede voorzitter, geen stroperige vergadering!
verdiend is met een d! daarnaast lijkt het op een reactie op een voor ons onzichtbare tweet
1 ex fey, 5 ex 020, 4 ex psv vanavond, tegen brazilie nog 7 ex feyenoord, hart van hiddink ligt iig niet in rotterdam
wat was t goed dat het wilhelmus werd meegezongen op wk, nu die verveelde blikken bij t volkslied van t land dat je vertegenwoordigt
morgen naar tegen stoke! samen met naar en
komt er al een hoorcollege, in vorm van podcast? youtube in auto is wat gevaarlijk
zij gebruiken liege als toevoeging net als rotterdam aan feyenoord. de club heet gewoon standard. dus feysta
“@tussendelinies .@necnijmegen behoort tot de best presterende teams van europa op het moment ”
ik heb gisterenmiddag al contact opgenomen!
chips smaken alsof zak twee weken open is geweest. 5/9 gekocht bij plus bhoek. cons.serv. niet bereikbaar😞
in 2011/12 was del piero vedette in een team met pirlo en chiellini. nu met houben exhbs en mulder
wat is de url voor quickdosti?
vertrouwd beeld boven in topscorers lijst.
1141991 psv feyenoord 01, halve finale beker 1652010 sparta excelsior 11, 3e ronde playoffs
en wij in de rij
een nieuwe pelle dus, ook een nietscorende spits voor zijn feyenoord periode!
was er twee weken geleden, een paar dagen. is heel rustig behalve op onafhankelijkheidsplein. alleen nergens f op de buis
5 miljoen mooie prijs, het gaat meer om salaris, als dat onder het miljoen per jaar is, dan goed!
afgelopen zaterdag getraind voor 10 km. training ging zo goed dat ik voor de halve marathon ga !
ontploffen er bommen in kiev? totaal vredig daar ik was daar vorige week. alleen op onafh plein zijn opstootjes
vorige ronde speelde in stadion van dinamo kiev. maakt het wel bezoekbaar!
gaat f geen cent voor krijgen, sterker nog, moet zak geld mee ivm verminderd salaris bij nieuwe club
ik ga de 10 km lopen in oostland omdat ik in deze buurt woon en het de eerste grote wedstrijd in regio na de vakantie is.
thnx! op 3 km van mijn hotel😊. hopelijk zenden ze ook feyenoord uit.
. is er nog een mooie feyenoord kroeg morgen hier in kiev?
en??
hardlopen met muziek, go or nogo? tijdens training? tijdens wedstrijd?
misschien geen gek idee om niet te vliegen uit respect
van de?
cillissen bewijst de numbers game een dienst
ja, dit is een mooi lijstje!
dejavu van en
wat was het ook alweer? in de eerste ronde uitgeschakeld door zwitserland, toch?
boven op vliegtuig net voor staart zit een soort luik! 4/4!
vinea heeft zojuist wat kampen overgenomen de stipe in balk de steven in langweer oer ’t hout in grou
waar blijf je?😊
dit is een cricketset + een helm
wij gaan morgen op crickettour uk, hoe kunnen wij onze spullen vervoeren met de 158cm omtrekregel?of mag ik legguards aan in vliegtuig?
4 juli!
donderdag? of de uitwedstrijd?
excrkc op de rvp tribune
heb ze!
kaartjes gehaald, we zijn erbij!
clubkaartverplichting? of kan ik als rotterdammer zo 3 kaartjes halen?
wat zijn de openingstijden bij het stadion? ook avondopening vandaag of morgen?
mooi! dus als je eigen moeder een takkenwijf is, kan je nog steeds retweeten
de kanjers van onze administratie zijn morgen van 10uur tot 13uur aanwezig voor de kaartverkoop voor zondag tegen fc den bosch!
excelsiorrdam 8 euro voor kaartje voor komende zondag
wat zijn de kosten van kaartje voor 14 jarige op de rvp tribune?
en nu? weer mega hagelstenen op rotterdam...
hé, een viral die niet begon met een tweet van !
excelsior wint van den bosch en belt over europese verkiezingen en de vvd. goede overwinning, interessant gesprek. mooie dag😊
excelsior 10 achter... den bosch met 10 man, tweede helft gaat zo beginnen
we gaan het anders doen!
voc niet zeker! zie
weet je dat ook weer! onverklaarbaar vermogen aangepakt in rotterdam … via
wordt enorm gewaardeerd!
en nu de foto delen met alle adressen via twitter
realiseert dat gesubsidieerd wonen door de middengroepen worden opgebracht middels inkomstenbelasting?
in schengenlanden is rijbewijs voldoende
dat we taalfouten gaan maken?
dat bij nachbs gezongen werd het zijn de homos jaja, de homos uit breda? niet des hbs, of is dat oud denken?
kwalificatie toernooi is spannender, bob de jing zou 4e nederlander in top 4 zijn geweest
taalfoutje bezuinigd
gefelicteerd, leon!
in 2015 voc ook!
ronald koeman verlaat feyenoord eind van t seizoen, bedankt voor de mooie jaren!!
niet naar het torentje?
naam van school is ibn ghaldoun
rush, wat een briljante film!
laatste
nog 5 uur en 48 min! 1441 4114
documentaire over doe maar gezien gisterenavond? a mustsee!
in welke van de drie bs? bij ons vier weken geleden ingebroken, bergschenhoek.
jammer!! tot morgen, de doelen?
charlestje op de buis
breaking nieuws van nos giro 555 geopend. cnn al jazeera en bbc niet langer grootste concurrent op gebied van nieuwsgaring
wat ook niet vaak gebeurt, is dat gebeurd me niet vaak
even nadenken... ik denk klaas drost
wanneer krijgen de middenstanders het recht om hun winkels ook op zondag te openen?
zijn er ook hoorcolleges beschikbaar? oftewel een podcast?
en ik maar denken dat een heksenketel betekende een orkaan van lawaai. nu weet ik dat een soort mediatieruimte is... stil!
auto laten schoonmaken bij in schiedam, vlakbij spaansepolder. superservice en goedkoop
spuit 11! is al drie dagen geleden
hear hear! “@ajboekestijn cda wil belastingen verlagen maar schaft ook de toeslagen af”
2/2 dit jaar al 4 mensen in polen aangenomen, niet voor kosten kost +/ 45k per jaar, per man. niemand beschikbaar, ict!
1/2 al is het anekdotisch bewijs ik heb 5 vacatures in bedrijf van 80 man. betaalt boven modaal, geen geschikte kandidaten
lijkt het wel te doen!