voorbeschouwing bij met ben wijnstekers en rob jacobs
graag gedaan en nogmaals van harte .. buon appetito vanavond
graag gedaan ! ben benieuwd naar het eindresultaat.
dat feyenoord rotterdam n.v. meer is dan een club en giovanni meer dan een succestrainer bewijst het feyenoord gal…
een bijzondere winactie van feyenoord rotterdam n.v. . volg de linkedin pagina en vul het online formulier in en maa…
succes en gefeliciteerd met jullie nieuwe pand/start in rotterdam
deze zijn al verkocht en worden deze weken geplaatst.
feyenoord rotterdam n.v. ook zakelijk al uitgekocht voor seizoen 17/18.
geweldige presentatie van tom dumoulin. nederland is een sportheld rijker.
en wat een geweldig feest was het...... feyenoord rotterdam n.v.
!! een voorbeeld binnen maar zeker ook buiten het veld.
wat een geweldige dag, wat een geweldige avond en wat een geweldige en unieke ervaring! feyenoord rotterdam n.v. is…
groen licht voor ontwikkeling feyenoord city! goed nieuws richting een nieuw stadion.
word of ken jij mijn nieuwe directe collega? solliciteer dan op de functie van salesmanager.
afgelopen donderdag vond wederom de feyenoord rotterdam n.v. fbc opel rally plaats. fbc leden speurden rotterdam doo…
het was sportief een mooi dag gisteren! ook al kijken we erg uit naar het einde van dit seizoen, zakelijk zijn we al…
feyenoord rotterdam n.v. is meer dan alleen voetbal! ieder jaar brengen de selectiespelers van de club een bezoek aa…
mooi om wederom het vertrouwen van en michael van der burg namens stratt+ te mogen krijgen. op naar…
feyenoord rotterdam n.v. presenteert vol trots de nieuwe hoofdpartner met ingang van komend seizoen. feyenoord en qu…
op zoek naar een sportsbar in rio de janeiro waar men live psv uitzendt
op zoek naar een sportsbar in rio de janeiro waar men zondag live psv uitzendt iemand tips?
feyenoord business club leert van de slimme​ haven op de rdm campus.
great minds think alike 😉 bedankt voor hét cadeau van 2017! op naar een mooi sportief jaar.
graag gedaan fred. wie weet wordt het een zeer waardevolle editie 😉
mooi resultaat en ! mogen jullie trots op zijn
de business seats bij feyenoord zijn uitverkocht voor het hele seizoen.
inspirerend verhaal van voor de business club over doelen, samenwerking en opofferingen…
feyenoord city presenteert haalbaarheidsstudie van de gebiedsontwikkeling rondom de nieuwe kuip.…
ready for takeoff met ruim 150 leden van de business club
trots om te zien dat een nieuw zakelijk product goed aanslaat en de club onverminderd blijft groeien!
fbc tafel van kees8.jpg
grootmeester in de schaaksport aanwezig bij fbc netwerkborrel van feyenoord rotterdam n.v.
ben wijnstekers blikt terug op de klassieker en vooruit op de derby in de beker vanavond
jandino is klaar voor zondag. wij ook!! feyenoord rotterdam n.v.
mooi dat wat eigenlijk iedereen al weet ook wetenschappelijk wordt onderbouwd! van de publiekstribune tot en met het…
fbc schijnwerper geïntroduceerd tijdens netwerklunch
business club van is onderweg naar istanboel en vliegt in stijl!
na een geweldige avond met een 10 overwinning op nu op bezoek bij
netwerkontbijt met die zijn verhaal vertelt aan de business club van
er staan mooie dingen te gebeuren in rotterdam! interessant artikel over de toekomst van rotterdam en o.a. ook feyen…
win een viparrangement voor 3 personen bij een europese thuiswedstrijd
feyenoord wint van ajax in clubkostuum
nieuwe zakelijke relaties zien feyenoord winnen van valencia nieuws business | feyenoord.nl
de maas seats het nieuwe zakelijke vak van feyenoord by on
er wordt hard gewerkt aan de bij de voltooing volgt later deze week
een nieuw zakelijk vak bij feyenoord rotterdam n.v. de maas seats genieten van zakelijke luxe langs het veld. voo…
uw business in de schijnwerpers? feyenoord rotterdam n.v. heeft het grootste zakelijk netwerk in de regio rijnmond e…
interessante sessie met roofvogels over middels energie
opname van een productfilm van een nieuw zakelijk vak bij
ruim 200 fbcleden kregen afgelopen maandag een interessante inkijk in de plannen feyenoordcity. lees hier het vers…
grote opkomst bij het business club event over oma, partner in het project v/h nieuwe stadion
wederom dank voor jullie bijdrage aan het toernooi . weer genoten van het commentaar
met relaties van meegedaan aan de in totaal is er al meer dan €42.000 opgehaald voor
bedankt dat je er was! wat is er nu beter dan koffie in het mooiste stadion van nederland?
op naar de 1e plaats volgend jaar ! leuk dat jullie er waren met
ballenmeiden, mascottes, stationspeakers het was weer een super geslaagde met als winnaar
bedankt voor uw steun!
mooie 12 tussen opel en de feyenoord rotterdam n.v. business club! de fbc opel rally was een groot succes! nageniet…
halve finale champions league vanaf de bank...... maar dan in het…
sfeerverslag bekerfinale feyenoord
nagenieten doe je hier! wat een geweldige avond voor het voetbal en uiteraard voor feyenoord rotterdam n.v.. europee…
you never walk alone
de business club leeft toe naar de wedstrijd in het centrum
ik zoek een directe collega! ken of ben jij diegene? reageer dan via de vacature zodat ons salesteam verder kan uit…
andere uitingen van sponsoren maar de grasmat ligt er in als vanouds bij perfect! op naar zondag!
de winnaars van de en business rally! een uniek karl shirt met alle handtekeningen
gefeliciteerd met het kampioenschap &amp het behalen vd promotie naar de
ook literatuur van is aanwezig in het nieuwste
recordopkomst bij de fbc netwerklunch met o.a. edwin van goozen / / aan de sta…
ruim over de 10.000 leden op de officiële linkedin pagina!volg jij al? maak kans op 2 kaarten
brainstormsessie in de cloud met veel nieuwe ideeën voor seizoen 16/17. bedankt voor de goede ontvangst
heineken | the dilemma briljante reclame van
met ruim 125 leden van de business club langs het grootste schip ter wereld
geen woorden maar daden!! gewoon 21 winnen aldus in de voorbeschouwing
de belangrijke maand maart begint met het netwerkontbijt met een lezing over en
en dan een herhaling van afgelopen zondag maar dan in
video &gt bent u er weer bij volgend seizoen? veel relaties hebben hun steun al betuigd en de contracten verlengd.
sporten voor in totaal bijna € 350.000 opgehaald voor het goede doel!
leuk dat je er bij was ! tot het volgende fbc event !
met relaties van aanwezig op het
vandaag met 125 fbc leden van aanwezig op het met oa een interview met
daar wordt hard gewerkt!
goed bezig !! dat het maar een heel mooi, succesvol en gezond 2016 mag worden
bc vliegt naar huis na een voetbaweekend met dank aan o.a
met ruim 150 business club leden naar de wedstrijd vs
tot morgen !
nog gefeliciteerd met het resultaat van afgelopen zondag. hoop dat alles goed gaat met jou en het gezin. gr dennis
na de winterstop direct een topper op het programma in een stijf uitverkochte
fan en zakelijke relatie van het eerste uur! mooie foto !! tot zondag
massale en recordopkomst van belanghebbenden bij de van
artikel over de fbc reis in portugal op feyenoord.nl
ook dit jaar een zeer geslaagd diner met de spelers, staf en business club van
prima golfdag in voor de business club waar plezier en sportiviteit gaan!
de business club checkt in op voor de reis naar portugal
jij ook ! tot volgend jaar!
dank je wel !!!
ook dit jaar zet ik me in voor sporten voor sophia waarbij we 3uur gaan spinnen om zoveel mogelijk geld op te halen…
inspirerende sessie van en over en in hq van
top dat je er was
jazeker!
jaarlijks kerstdiner van de business club met een groots entree bij de
gefeliciteerd met de geboorte van noah!
op zoek naar voorbeelden van en in commerciele zin. iemand tips?
begint de maand december met het netwerkontbijt in de nieuwe boardroom
de website van is zojuist in verkozen tot populairste sportsite van nederland!#fbc
haha dat klopt. voelde niks van dat windje mee verwacht wel dat je er in 2016 bij bent roos!
jobscorer project op bezoek bij voor een elearning dag
supporter ivo geeft zijn kijk op zijn club op interessante en humoristische wijze
prominent supporter ivo geeft op interessante en humoristische wijze zijn blik op zijn club
de verbouwing van het feyenoord rotterdam n.v. museum tot exclusieve en chique boardroom is voltooid!
nog 4 dagen voor een nieuwe . ook nu weer volledig uitverkocht!
gefeliciteerd met jullie periodetitel!
loot willem ii voor de 1/8 finale. uw zakelijke kaarten zijn hiervoor geldig. nagenieten van woensdag kan…
de 10. de ontlading
was een heel bijzondere avond! op naar zondag en de zondag daarna!
de verbouwing van de nieuwe boardroom nadert zijn voltooing. ook benieuwd naar dit nieuwe concept?
mooi om te zien dat 2 partijen van de business club uitgebreider samenwerken! gefeliciteerd en
gefeliciteerd !! op naar nummer 5
gefeliciteerd met de beste koffie van nederland!
succes en tot snel weer!
de street league is weer van start! meer over dit maatschappelijke project op feyenoordstreetleague.nl
lees hier alles over de succesvolle introductie van de zeepkist bij de netwerklunch.
leuk dat je er was tot het volgende event van de fbc !
rotterdam voor eerst in 10 jaar populairder dan amsterdam
business borrel met geïnterviewd door voor 270 leden
tweede zege van het voetbalelftal. ditmaal onder leiding van collega edwin van goozen.
boekt een recordwinst € 13,6 miljoen en recordomzet € 61 miljoen.
boekt een recordwinst en recordomzet van € 13,6 en winst € 61 miljoen.
de feyenoord business club maakt op 5 oktober kennis met giovanni van bronckhorst bij de business borrel. meld u nu…
we zijn er weer bij!
interview over het fbc voetbalelftal van dat op varkenoord wint van de bc van willem ii en
het business team van verslaat de bc van op
opent de golftrophy . wilt u ook en golfen met 250 prospects?
750 prospects die u kunt benaderen in een app? lanceert de fbcapp om netwerken nu nog makkelijker te mak…
ik mis een cruciaal rotterdams icoon op deze afbeelding
recordopkomst bij eerste fbc netwerkontbijt van het seizoen
van harte en aad met het 16 jarige bestaan van !!
top dat je er weer bij was namens graag tot de volgende fbc meeting bij
netwerken bij nu nog toegankelijker en makkelijker met de fbcapp. het grootste zakelijke netw…
er wordt hard gewerkt om de nieuwe director seats te plaatsen voor fc utrecht . ook wordt er no…
vanavond nemen deze twee grootheden voorafgaand aan de wedstrijd southampton afscheid van het l…
kleren maken de man ook dit jaar keurig verzorgd door //
just completed a 2.28 km run kort en krachtig avondrondje
de werkzaamheden in stadion feijenoord zijn in volle gang om volgend jaar weer verkozen te mogen worden tot de best…
zomerse sferen en recordopbrengst bij feyenoord charity gala
sterkte !! succes met het herstel
daar is deze kampioensploeg van het het niet mee eens
is de winnaar van de na strafschoppen in .. van harte gefeliciteerd !!
mooie foto van de !!
is de winnaar van de 2015 ! van harte!
finale van de tussen en .. wie wacht er eeuwige roem?
vandaag strijden er 16 teams voor de felbegeerde op de heilige grasmat
stratt+ industrial management en feyenoord tekenen de overeenkomst van het zakelijke pakket bestaande uit seats en l…
zie ik hier de kampioensploeg van 18 juni op de ?
komt u onze zakelijke selectie versterken?
er zijn slechts 1908 exemplaren van dit geweldige boek!
aan het veld kan het zondag niet liggen. wederom heeft de kuip de beste grasmat van de eredivisie! felicitaties en c…
feyenoord en heineken ‘historie, kwaliteit en collectieve ambitie’
dat netwerken leuk kan zijn bewijst het fbc footgolftoernooi met de selectie van en &gt 100 fbc leden.
dag .. feyenoord en manutan gaan een partnership aan. details staan op
presidentcommissaris hoetmer ‘zoiets eervols doe je er niet even bij’
feyenoord en manutan bekrachtigen partnership
bij de opening van het nieuwe kantoor van relatie met een mooi uitzicht op de
leuke foto jan willem! bewaar het shirt maar goed voor wat meer handtekeningen het komende seizoen
feyenoord in de oorlog
het fbc netwerkontbijt een leerzaam, doelgericht en uniek evenement. lees hier het verslag met terugblik
dirk kuyt keert na 9 jaar terug bij bent u er volgend jaar ook weer bij? dla@feyenoord.nl &gt voor info …
kan niet anders! nog beter is om de leden zelf te ontmoeten!? vertel graag meer over de fey bizz club
na het paasweekend meteen van start met het 4e van feyenoord rotterdam n.v.
ik behoor ook komend seizoen tot de zakelijke feyenoordselectie
bedankt voor je support in !! was een topreis!
onderweg naar huis vanuit na een 3daagse trip met de met een mooie 11 uitslag op zak
opel bekendste voetbalsponsor in nederland
interessante en pakkende presentatie van van over klanttevredenheid voor de
feyenoord business club passeert grens van 750 leden
nieuw business magazine voor feyenoord business club fbc leden!
feyenoord is meer dan voetbal!
gisteren vond weer de drukbezochte van plaats! lees hier het verslag
wat is jouw moment van 2014? of een van de andere hoogtepunten? stem nu op en deel jouw moment
we are hiring! word of ken jij onze nieuwe collega op de afdeling sales? vanwege de groei zijn we op zoek naar vers…
gefeliciteerd !! ziet er mooi uit!
haha, als je heel goed kijkt dan kan je me zien ik ben graag vd partij bij !
gisteren genoten van een gezellig en heerlijk kerstdiner met de van met dank aan
en de mag zich de beste business club van 2014 noemen! goed om te zien dat het harde werk wordt belo…
19 februari reist de achterna naar voor de lastige maar mooie uitwedstrijd in en tegen rome! ook u k…
ook decor bij film over nieuwe slogan || ‘make it happen’ nieuwe slogan rotterdam
met last but not least de invulling van in met o.a
de van geeft het goede voorbeeld en wint van de business club van met 35
wederom maximale steun van de voor in klik op de link voor meer informatie over de rei…
fbcleden beleven ‘inspirerend’ netwerkontbijt over merkbeleving
morgen het 2e bij over in de
geen probleem martijn! opwarmertje voor de de dag erna
fbcleden leven zich uit bij adidasclinic
presentatie van marketingdirecteur frank basters van interessant verhaal over hun branding &amp strategie
ziet er goed uit! vast weer een succes!
feyenoord opnieuw ‘meest onmisbare’ voetbalclub
zeer zeker een nuttige middag we ontvangen je graag in het rotterdamse!
opel en feyenoord hand in hand voor de hartstichting
gastles geven aan groep 8 van basisschool over de slinge over het bereiken van doelen en de link…
vermakelijk artikel over netwerken buiten de standaard plaatsen om. maar waarom niet netwerken tijdens wedstrijden v…
ondanks dat het seizoen al volop bezig is breidt de van zich nog steeds uit!
dag wouter.. kijk op dekuipgroeit.nl voor meer informatie
bij een topwedstrijd hoort een topkokdiner! sterrenrestaurant de burgemeester verzorgt een 3gangendiner bij feyenoord nk rijeka!
gecondoleerd ik hoop dat anna haar wens alsnog in vervulling gaat!
gudde benadrukt ‘financieel resultaat is teamprestatie’
met de met uitleg over de financiële cijfers van en status v/d vernieuwbouw v/h stadion
en we zijn weer thuis rotterdam the hague airport
we vliegen weer terug naar na een mooie reis en helaas teleurstellende uitslag
hoog en droog | potje voetbal op de donderdagavond stadion kantrida
een volle charter met de en spelers/staf is klaar voor vertrek
inchecken voor de reis met richting met de
avond was geslaagd maar door de meerdere storingen en drukte was de entree het geld niet waard
2 uur extra wachttijd door tech.storingen bij de attracties!! benieuwd naar de compensatie van
bijzondere en bizarre secundaire arbeidsvoorwaarden!
onderweg naar de in de goffert
interessant en leuk artikel over het daadwerkelijke aantal uren die wij nederlanders werken t.o.v. landen als amerik…
iemand goede ervaringen/ideeën mbt en/of gericht op van personeel
netwerken nieuwe stijl in de spelerstunnel van een interactieve, educatieve en vooral geslaagde sessie…
eerste netwerkontbijt van de een feit en groot succes!
trainer fred rutten stelt zich voor aan de feyenoord business club op een succesvolle en gezellige fbcavond. lees e…
met aanwezig op de social media week rotterdam | the age of context
de fbc beleeft een waardevolle en enerverende business reis naar sevilla en maakt zich op voor de reis naar rijeka …
de fbc beleeft waardevolle ervaring in sevilla en maakt zich op voor de reis naar rijeka! wilt u hier bij zijn? meld…
volgend mij bij de thuiswedstrijd bij excelsior .. maar weet t niet zeker.. houden contact
wel op tijd fit voor de kraker fbc feyenoord excelsior?? 💪 beterschap!
ook het nieuwe seizoen voor de feyenoord business club is weer van start gegaan met de eerste netwerklunch! dit jaar…
feyenoord rotterdam n.v. en unit4 tekenen een 3jarige unitovereenkomst. op naar een mooie samenwerking!
drukbezochte fbc golf trophy wederom een daverend succes! lees hier meer over dit evenement vanuit de business club …
opel biedt de feyenoord business club een exclusief aanbod aan. lees hier meer over het aanbod van onze trotse hoofd…
interessant artikel over de verschillen van b2c en b2b marketing
meer dan 5.000 volgers voor feyenoord op linkedin
de kuip populairste voetbalstadion van nederland
wij gaan mee! || feyenoord business club reist de selectie achterna naar istanboel
atpi voor 4 jaar de nieuwe reispartner van feyenoord en verzorgt direct de hele operatie richting istanbul voor besi…
commercieel directeur mark koevermans heet namens feyenoord de nieuwe zakelijke relaties welkom bij de openingswedst…
terugblik in marbella! zie het men het aangename met het zakelijke combineert en feyenoord buiten …
bomvolle bij open dag van
visser &amp smit bouw verlengt haar unitcontract met voor 3 jaar.
visser en smit bouw verlengt de unitovereenkomst met voor de komende 3 jaar!
middenstip van levert € 15.000 op voor het goede doel!!! daarmee is het het meest waardevolle veilingitem
veilingstuk gesigneerde schoenen van verkocht voor €13.000 voor het goede doel!
voor de foundation .. nu al een mooie avond
terugblik seizoen feyenoord business club deel 1 nieuwsoverzicht nieuws feyenoord
feyenoord fans laten zich horen bij het nieuwe centraal station voor het nieuwe thuisshirt! het uitshirt wordt gepre…
new business of relatiemarketing? stel dat er een middel is om uw bestaande klanten te behouden met daarbij tegelijk…feyenoord.nl
gisteren een geweldige dag beleefd met 16 bedrijven die deelnamen aan de met als winnaar op naar het volgende jaar!
dancefeesten in de kuip trekken ruim 12.000 bezoekers
de gaat van start! twitter mee tijdens de quiz
netwerken in optima forma! de netwerklunches van de fbc zorgen voor diepte in gesprekken en onderlinge business.
business unit toernooi op de heilige grasmat feyenoord de kuip
het zakelijke succes van feyenoord onderstaande link neemt u in een 90 seconde durende videoclip mee naar de feyeno…
het zakelijke succes van feyenoord breidt zich verder uit! zie hieronder in 90 seconden waarom ook u zou moeten toet…
het meest exclusieve gala van nederland voor het goede doel met topkok herman den blijker vindt plaats op de midden…
we hebben allemaal dezelfde ambitie fred rutten. heeft u ook dezelfde ambitie? vraag naar de zakelijke mogelijkh…
feyenoord business club geeft ronald koeman een passend cadeau en afscheid! lees meer op
via onderstaande link komt u erachter waarom het zakelijk netwerk ook voor u of uw organisatie interessant kan zijn!…feyenoord.nl
de business club van feyenoord fbc neemt op donderdag 8 mei afscheid van ronald koeman! wilt u ook aanwezig zijn o…feyenoord.nl
hahah waarom denk je!!!
ffc bam, am &amp siemens krijgt de voorkeur boven red de kuip. dit biedt o.a. een legio aan zakelijke mogelijkheden…
ben jij net afgestudeerd of in de afrondende fase van je finance studie en opzoek naar een traineeship waarin je de …eiffel.nl
bekijk hier de sfeerimpressie van een meer dan geslaagde dag met de van het fbc footgolf toernooi.
boskamp en vd gijp te gast bij stadion feijenoord
bij deze genoteerd! hoeveel kaarten heb je beschikbaar?
promotiefilm feyenoord business club interesse in de zakelijke mogelijkheden? neem contact op via 0610893768 | dla…feyenoord.nl
goed je weer gesproken en gezien te hebben !! tot snel weer
feyenoord zoekt versterking fanbasemarketeer ben of ken jij deze persoon? neem dan contact op.
feyenoord zoekt versterking! ben of ken jij deze persoon?
dit gevoel wilt u volgend seizoen toch niet missen? klik op de link voor meer informatie | dla@feyenoord.nl
toetreden tot het zakelijke netwerk van feyenoord en uw omzet verhogen? zie onderstaande promofilm busine…
martin van geel over het belang van de feyenoord foundation! meldt u aan voor het feyenoord gala en steun deze found…
uitstap met de naar de partner van heineken/amstel brouwerij in zoeterwoude.…
feyenoord bereikt de 100.000 volgers op twitter !!
speciaal voor de vrouwelijke supporters staat feyenoord vitesse op 31 januari in het teken van ladies night op d…
scoren in de wijk uitgebreid over heel rotterdamzuid en nog succesvoller!
absoluut!! zou mooi zijn als we die lijn doortrekken naar woensdag en de rest van het resterende seizoen!
staat genoteerd raymond! ga je op trainingskamp naar marbella voor de ?
met uw bedrijf voetballen in de kuip? ook dit jaar vindt de kuipcup weer plaats! wees er snel bij want vol vol! …feyenoord.nl
ik was er wel inderdaad.. zie je vast nog wel bij feyenoord greetz
de keert terug van een zeer geslaagde week in marbella waar het met de selectie heeft gegeten en hen zien train…feyenoord.nl
etentje met de spelers samen met de business club. een geslaagde avond met alleen maar positieve…
business clubs van feyenoord en excelsior schenken ipads aan de daniel den hoed kliniek! de tabletcomputers stond…
mooie dag voor de daniel den hoed kliniek! veel geld opgehaald in de strijd tegen kanker met het…
met de bus met de naar woudenstein voor een wedstrijd tegen de bc van
via deze weg wil ik u fijne feestdagen en een gelukkig, gezond en sportief 2014 toewensen! ik zie u graag weer in he…
feyenoord blijft scoren in en met deelgemeente feijenoord!
mooie samenwerking tussen en deelgemeente feijenoord..
presentatie van het mvo beleid door aan leden van de
help ollie aan de gouden loekie!! stemmen kan t/m 19 december via
stadion feijenoord
here we go!!! stadion feijenoord
maak kanker kansloos! klik op onderstaande link video en kom ook op 5 januari naar de kuip!
op 5 januari speelt feyenoord een benefietduel tegen excelsior. alle opbrengsten gaan naar de daniel den hoed klinie…
bekijk hier de samenvatting tegen psv. wilt u zakelijk mee profiteren van het zakelijk succes van feyenoord? dla@feyenoord.nl
eerste tafels feyenoord galadiner verkocht kijk op feyenoord.nl voor het reserveren van uw galatafel t.b.v. de goede doelen!
moustacheshirt pelle groots gelanceerd! shirts vliegen na dag 1 al over de digitale toonbank!
feyenoord als merk meest onmisbaar van alle bvos
zal ik doen met de factuur erbij?
netwerken 3.0 de nieuwe fbc portal welke het nog gemakkelijker maakt om te netwerken bij rotterdams grootste zak…
boekt u nog dit jaar uw evenement voor februari of maart 2014? dan betalen wij de zaalhuur!
reportage van rtv rijnmond over de 1e prijs van de meer dan voetbal award ! klik op de link || …