het is dat ik al stijl achterover lag anders was ik het direct geslagen, mijn hemel vriendin je bent tandarts 🙈
net bij de tandarts “kan je misschien iets meer met je nek voorover? vind het een beetje eng als ik helemaal iemands keel in kan kijken”
oh ja, gouka komt weer interessant doen met zo’n verhaal en noemt vervolgens geen naam. hou je mond dan lekker
hoe kan je dit een lach uit beleefdheid noemen?
woooooowww dit schot van asensio 🚀🚀🚀 raket vriend
anders kan die duif te makkelijk wegvliegen
jørgensen belt vanmiddag eventjes zijn zaakwaarnemer op dat hij op zoek moet naar een nieuwe club.
laat van mijn part wat jonge gasten als vente, geertruida of bijlow spelen. wat er nu op het veld staat is echt een triest hoopje vuilnis.
iemand die denkt dat het nog 22 gaat worden? lijkt mij van niet hè
haaha heeft deze man stiekem een dikke veeg keta voor de wedstrijd genomen 😳
zat me vandaag te schamen op de bank, dan weet je wel zo’n beetje wat er afgelopen nacht is gebeurd.
tegenwoordig zeggen al die hipsters in amsterdam ook ‘gap/gappie’ tegen elkaar. beter niet doen man, is nep en klinkt nep.
ja tuurlijk, maar neemt niet weg dat hij daar prima keepte.
had in de c1 een trainer die altijd heel hard beleving! over het veld riep. mijn vader grapt daar tot op de dag van vandaag nog over.
wil om te winnen, beleving, scherpte en focus. daar draait het allemaal om jongens!
nog eens goed bekeken, ze gaan achter zes oekraïners aan die dat café invluchten. niet echt een willekeurige bestor…
als je goed kijkt zie je eerst 6 man oekraïners naar binnen vluchten, daar achteraan komen de fe…
zeker de scherpte mag nooit ontbreken! 😜
leggen klopt in het rotterdams altijd
brad jones zat er daarna ook wel flink naast hoor 👀
zeker, vangen zelfs.
bij die eerste goal hè, hoe st juste zich door een positiewisseling uit zijn zone in de as cv laat trekken. die pass mag echt nooit 🙈
oh wauw, had even valse hoop op een puntje. maar we hebben gewoon nog steeds een instabiele verdediging en jones op goal.
niet gekeken
kom me niet vertellen dat heel hilversum niet allang wist dat het over gijs van dam ging
jelle brandt corstius is trouwens 100% begonnen met trial by media de producent van dit programma in die bepaalde periode.
alsof personen in de tv wereld niet allang wisten om wie het ging? producent in die peri…
inclusief een presentatie van je tweede bundel in een haagse kroeg? zeker doen!
misschien een idee voor kramer om die eerste 10 pingels even terug te kijken.
heb tegen swift ook gewoon stress als nelom aan de bal of in een 1 tegen 1 duel komt.
kramer ga jij ook meteen maar douchen! 👋🏼
te triest voor woorden, is gewoon een amsterdamse club dus laat ze lekker die vlag ophangen.
mohhhh, ben je naar het westland verhuisd blanqe? tuinders gebruiken dat woord altijd 😄
pvmid moet ingrijpen! tip de bruin in iedere gemeente!
waarom zou je stressen om een anti feyenoord liedje door viergever? nick viergever aka de grijze muis aka over de bal maaien bij twente uit
winnen van swift een ‘bounce back’? tegen roda, ado, vvv en groningen 12 punten pakken dan praten we verder. 👋🏼
even een aantal whatsappgroepen op mute zetten hoor 😭
ik luister radio rijnmond op de luchthaven van frankfurt en voel me kotsmisselijk van de zenuwen.
heb gewoon vertrouwen dat we gaan winnen, maar ben net redelijk dronken wakker geworden.
nee gewoon blinde paniek naar een willekeurige richting, een kat richt zich tenminste nog op iets
toch wel benauwd voor die klassieker als je gaat denken aan diks of nelom op het veld.
even blik opzij werpen en doorversnellen is genoeg.
heel blij met mijn 1.90 en 90 kilo in zulk soort situaties
maar wel uit de playboy, ook dat is kontje.
haha doelde op de mening onder de fans, jones kan bij velen echt niks verkeerd doen. zondag staat hij ongetwijfeld onder de lat.
is ook de praktijk
heb een keer een taxi in barcelona ondergekotst na wat bakkies sterke drank. met z’n vieren weggerend zon…
tot een paar minuten geleden heerlijk, maar nu een walgelijk uitvak.
eigenlijk moet de scheids nu gewoon affluiten en chelsea een reglementaire 30 winst geven. oerwoudgeluiden van roma fans naar rudiger.
danny blind zegt bij ziggo dat twente een club onder zijn niveau als trainer coach is. die klont blue band zit nog steeds op zijn hoofd hè
even een hele andere vraag gewoon uit interesse. heb jij royston benaderd o…
zeker! zou gek zijn als iedereen het met elkaar eens is.
even kopje thee gedronken op de bank, de emoties en denkprocessen rust geven. voel me net
i know man, vrij kortzichtig. doe je helaas niks aan en gaat denk ik ook niet veranderen.
nog niet fit idd, maar doelde meer op de mening onder de fans. jones kan in de ogen van velen echt niks verkeerd doen.
nog niet fit idd, maar doelde meer op de mening onder de fans. jones kan in de ogen van velen echt niks verkeerd doen.
eerste goal komt hij verkeerd uit, tweede goal onder de bal door waardoor goal vrij is. geeft zichzelf…
heb ik iig een medestander hierin 😅 moest extra aan vermeer denken bij de 11, hij is bij steekballen…
boëtius bankie, larsson basis. verder hield mijn oom zich vandaag gelukkig iets rustiger in de kuip.
hoe lang wordt jones nog de hand boven het hoofd gehouden? keept echt al een tijdje heel matig, vandaag niet eens in de buurt bij die goals
wel duidelijk dat st juste sowieso basis moet blijven, beter dan botteghin of scharie. en gaat alleen nog maar beter worden.
ging net ff googelen en kwam die link van quote idd tegen, wel benieuwd. koop dat artikel wel via blendle oid
haha lekker zeg! eerlijk is eerlijk, was geen lastige voorspelling.
ik ga naar thunderdome 😅
schijnheilige pleuriswijven bedoel je, of ik ga ik nu weer te ver?
gelukkig maar, je hebt lieve huisvrouwen waarbij dat wel per se moet.
moet iedereen bij binnenkomst van jouw huis z’n schoenen uit doen omdat het anders vies wordt?
speciaal voor alle mensen die klagen over integratie zag net een vrouw met hoofddoek op een bakfiets met 3 kinderen erin rijden.
haha dirk wat is dit nou weer, een of andere handoplegger magnetiseur waardoor hij ontstresst 😆
hmm redelijk. als je met 00 gaat rusten en in de tweede helft alle kansen hebt thuis moet je hem…
klote zeg, snap ook werkelijk niet waarom bijna elke speler in de as gaat lopen aan de bal. vilhena en toornstra waren echt matig.
berghuis wordt half uitgekleed door van polen en higler weet nog steeds of hij op z’n fluitje moet blazen, wat is dit man?!
toornsta is dit seizoen misschien wel slechter op goal gaan schieten dan el ahmadi 😐
pfff die is het echt al een tijdje kwijt hoor
we komen niet tot veel kansen maar dat is zeker de verdienste van pec, staan goed georganiseerd. gaat op de langste adem aankomen vanavond.
keek ik op een ander schermpje, net een tweet aan het typen
regels zijn regels higler, ehizibue opzettelijk hands is gewoon tweede geel. 👋🏼
na psvuit was die sprint van jhonny wel de meest pijnlijke gewaarwording van de status van feyenoord op dat moment 😭
klaasjan huntelaar en michel breuer in een sprintduel, wie wint?
wow man dit is echt next level, hoe kan je zo zijn?
young jong belegen kilo kaas was mooier geweest.
vergezocht zou dit tegen de standpunten van de sgp kunnen spreken, verder niks met politiek te maken.
dat was die tenenkrommende campagne van heineken tijdens het wk 2014, gelukkig weet je niet wat het is. houden zo 😉
en bijna net zo belangrijk, welk moedigen jullie aan in rusland?
wees trouwens niet getreurd over het misgelopen wk mensen, we kunnen gewoon weer aanmoedigen! 🙌🏼
royston drenthe met veel goud om de nek
trouwens, binnen nu en 10 jaar schrijft michel van egmond een biografie van royston drenthe. believe me son die gaat smeuïg worden.
naast doorzichtigheid baseer ik die keuze vaak op de temperatuur buiten. in de zomer sowieso niks eronder.
zeker. ik wil niet lullig zijn maar werd spel je nooit met dt 😬
zo te lezen vermoed ik wel dat de vader van die jeugdspeler is begonnen met onbehoorlijk gedrag. wooter h…
vind frenkie de jong de beste man in het veld.
waar is het misgegaan dat deze jongen op zijn 21e al scheidsrechter ipv speler is? 🤔
dat was echt een van de belachelijkste wedstrijden ooit in de cl, werd ergens eind van de middag gespeeld toch?
zeker voor 10 ‘s ochtends is het echt heerlijk als iedereen z’n muil gewoon houdt. die gesprekken gaan altijd nergens over.
echt lullig voor danny hè, hij deed het zo goed.
ahaha commentator volledig ontroerd 😭
al die critici die zeiden dat hij voor nl moest kiezen in een keer de mond gesnoerd.
als marokko tegen ivoorkust wint of gelijkspeelt hè, kan hakim ziyech misschien wel 3 dagen niet stoppen met lachen.
oh sorry, las de andere comments iets te laat.
de originele versie is oldschool techno, niks met happy hardcore te maken
ik ga polen supporten op het wk jongens, hele straat rood witte vlaggetjes en flessen zubrowka
club caesar in delft, wekelijks namen van het kaliber boef, ronnie flex en mula b. komt geen moer aan publiek 🤔
oke hangt natuurlijk wel van de situatie af, maar het ging hier om het afrekenen van een saucijzenbroodje en een flesje water.
mag ik het onbeleefd vinden als mensen dom veel tijd bij een kassa besteden als er een lange rij staat?
en je benut de halfspaces optimaal, een groot wapen voor de haagse selectie.
ijsland heeft 334.252 inwoners, besef dat den haag dus makkelijk het wk had kunnen halen met op rechtsbuiten.
eerlijk nog steeds best wel pijnlijk dat een land met 300.000 inwoners eerste staat in de poule en wij gewoon struggelen met bulgarije.
qua bugs en vastlopende apps ook wel een vrij zieke joke bij mij
haha taferelen wel hoor bij bolivia brazilië. tientallen bolivia fans rennen het veld op om selfies met de brazilië spelers te maken 😄
die begrijp ik nog wel, heeft de afgelopen wedstrijden wel wat slippertjes gehad maar heeft…
in welke zin is amrabat underrated? iedereen vindt hem goed toch?
voor vermeer als most underrated gekozen omdat bepaalde supporters onterecht doen alsof hij slechter is dan henk timmer met lepra.
1. berghuis 2. kramer, nelom stabiel tweede 3. toornstra 4. vermeer
mijn stem heeft ie gewoon hoor. kontje naar de kamer ooh oeeh oooh oeh hoo!
hennisplasschaert afgetreden? ken jou het rotten.
whoow gaat lekker bij club blu, vorige week ook een schietpartij op de parkeerplaats 😐
wandelvereniging het gatenkaasje uit alkmaar on tour.
de tekst luidde iets als ik was erbij toen een nieuwe ster opstond 😅😅😅😅😅
iemand een afbeelding van die fox sports promotieposter met dolberg erop die door heel amsterdam hing vlak voor het begin van dit seizoen?
nooit meer michiel kramer!
wat moet ik me voorstellen bij djen voor vrouwen?
gewoon tegelijk met iets als museumnacht doen, kan jij als kunstenaar je afwezigheid makkelijk verantwoorden.
ik zal niks aan je muze vertellen van wat er allemaal gebeurd is
joop wanneer gaan we dit stiekem wel doen dan?
haaha je mag je heg wel eens gaan snoeien!
voor een nieuwe profielfoto gegaan, vanaf nu kun je me op straat herkennen en hey gijs! roepen als je daar zin in hebt.
heb alleen voor basisspelers gekozen
sofyan 💪🏻 de meest sympathieke feyenoorder van dit moment!
die laatste goal had hij moeten hebben, maar jones is dan ook de meest positieve optie van de 4 😉
een trainer zei me ooit je team is zo goed als je slechtste speler. dus zeg het maar, hoe goed waren we vandaag?
zou wel leuk zijn als we deze champions league campagne nog een goaltje weten te prikken.
in de eredivisie kom je daar vaak mee weg, nu direct afgestraft. dat is het hele niveauverschil.
haha zou je zeggen hè, maar een maat van me spuit weleens een muurtje dus die tipte mij deze docu
moest ik zomaar ff aan denken bij deze tweet
heb je die docu kroonjuwelen hard times, good times, better times weleens gezien? heel vet, gaat over…
er is ook gewoon een bestaande kans dat dit echt gebeurt 😓
en jij bent niet de enige, vandaar dat zulk soort beoogde veranderingen veel amateurclubs niet ten goede komen.
ja precies, ieder op zijn eigen manier supporter van de club zo lang je elkaar niet lastig valt en in elkaars waarde laat idd.
omdat veel sportclubs bier en snacks moeten verkopen om zichzelf financieel overeind te houden stelletje dwarrels.
als ergens anders over denkt dan de harde kern kom je opeens pas sinds twee jaar in de kuip ofzo, ook zon flauwekul.
klopt, maar ik snap werkelijk niet waarom hij wordt opgesteld en al helemaal niet waarom hij een strafschop mag nemen.
zo heerlijk om kramer te zien missen, wat een onkunde.
hahaha, precies! wennen aan het snelle en vloeiende ajax voetbal. dit is trouwens een lach van een…
sorry maar dit vind ik echt heel kort door de bocht
hee kramer zou die keep misschien gezien hebben waar je die pingel tegen ado inschoot?
bilal is echt die klassieke snelle buitenspeler die heel dom speelt en de bal altijd over de achterlijn rent
buurtvader karim kan alleen met een pipa goed van afstand schieten.
laat deze foto in de rust zien en vraag aan de spelersgroep of we hier serieus van gaan verliezen?
dat is inderdaad de reden, maar we moeten tegen nac toch zelf door positiespel kunnen afdwingen over welke flank we aanvallen
of nieuwkoop
waarom gaan we de godver hele tijd over rechts waar diks en bilal staan 😱
het lijkt er op dat manchester city ons niet zo goed ligt
sooo dit is wel een next level twitter fittie hoor
haha! dat koketteren is ook echt irritant! woon zelf ook in adam maar om nou in feyenoordshirts te lopen,…
haha, dat zei je denk ik niet toen hij met die baksteen achter je aan zat 😉
alleen gaat het interview heel anders 🙄 mike waar hoop je op in de volgende ronde? een feyenoord ofzo zou wel mooi zijn.
oké mike, jij je zin jongen.
hoop echt op een uitwedstrijd bij een amateurclub, behalve swift of de dijk dan waar denk ik geen uitsupporters van feyenoord welkom zijn
ook wel eens als het niet moest toch? 😅
haha wat een prachtige pitch invasion bij swift na die laatste pingel, de hele jeugdafdeling sprint uitzinnig het veld op 👏🏼
letterlijk 5 seconde na versturen een goal 🙈
straks scoort falkenburg en koppen de kranten feyenoord in vormcrisis?!
schenkeveld, de vrij, castaignos, v haaren, lamprou, janssen, v huijgevoort, bmi, isoufi, clasie en cabral
ben godver helemaal klaar met die hema!!! dalijk loop me dogter in mannekleding!!! haal me sokken nou wel bij anderen winkel!!!
ik vind persoonlijk het youtube kanaal van ben van beugen vermakelijker
als ik messi was zou ik in mn huis een ballenbak laten bouwen van de wedstrijdballen die ik na een hattrick mee naar huis mocht nemen.
pijnlijk... niet van cavani verwacht, hoop dat hij hier lessen uit heeft getrokken en neymar wel neerhoekt.
cavani is een uruguayaanse schutter die schijt heeft aan wie je vriendjes zijn, 200 mejo…
joop, kan je voor mij misschien aan hem vragen waarom hij juist mask on ipv mask off juicht na een goal?…
als ik zoals donald trump was zou ik het niet opnemen voor de uitspraak tegen dit meisje 👀maar ik snap je punt.
zat al te twijfelen, tweet 2 en 3 hadden sowieso in 1 tweet gekund. maar ewa ja ben geen twitterfenomeen he
aaiii berghuis toch, lucky dat we nog met 11 man staan.
lexie kan de bar weer op in het supportershome 😅
kijk ff naar mitchell dijks bij die goal van ado, is echt komedie.
mario been als je kramer nu op de bank zet kan je hem net zo goed in de prullenbak gooien. komt goed uit, doe ik allebei graag.
beugelsdijk ook goed
hoop echt dat lex immers de winnende maakt 😅😅😅
dat is wel waar, zekers in napels lopen zat oplichters, zakkenrollers etc.
in italië is de zwarthandel in kaartjes bij het stadion altijd zeer levendig, dus komt wel goed denk ik.
hopen op nog wat vuur van 3robi om 16u
en dat is net zo opzienbarend als dat morgen de zon opkomt 🙃
steaua boekarest scoort net een volledig onterechte penalty waarbij de keeper eerst naar de goede hoek gaat maar hij toch maar ff inhoudt.
je kan kramer letterlijk alleen goed gebruiken wanneer je in de laatste 10 minuten ballen voor gaat…
gister waren we met jørgensen wel erbij natuurlijk net zo hard de bak in gegaan, maar bij tegenstand…
ja precies, dat bedoel ik ook. er heerste niet echt het gevoel dat we de ploeg nog naar een puntje konden schreeuwen.
haha nee hoor, zat er ook in de seizoenen onder ruud gullit en mario been 🙈 maar we verloren…
bij iedere club haast onmogelijk om een heel stadion volle bak mee te krijgen bij 04 achter…
mijn oom was gister heel boos in de kuip, moest ik hem voorzichtig uitleggen dat city ons slechte spel door goed druk zetten afdwong 🙃
eerste keer in een 523 tegen city maar even uitproberen. redelijk naïef wel. maar fair enough, in een 433 waren we ook kansloos.
vooral voor zondag best kut dat er precies twee blessures zijn op posities met twee dramatische backups. kramer 👀 nelom 👀
dit bleek helaas gegronde angst 😔 desondanks toch een mooi avondje in de kuip gehad.
thanks, mocht helaas niet baten.
haha gerda, wil je voor mij alsjeblieft iedere wedstrijd een voorbeschouwing doen? 😘
geografie aan de universiteit joop, maar geen cum laude hoor. dat is ander niveau, ik mik op een 6.5 gemiddeld.
ik zie celtic er 05 afgaan tegen psg en begin een beetje bang te worden voor morgen.
cardi b is trouwens al een tijdje die hele madame in de hiphop scene
eerlijk, als dit mijn tent was zou je echt niet jarig zijn geweest als je een gordijnrails eruit rost of iets dergelijks.
fake news, dit is meer op waarheid berust.
het verhaal klopte idd niet, want welke dwarrel laat zijn zaak schofferen en laat de daders rustig weg wandelen?
haha op zekers niet, maandag hè.
oh je hebt gelijk, excuus.
jaan de graaf was geen profvoetballer, bleef altijd bij ijsselmeervogels omdat hij niet op zondag mocht spelen.
we zien het wel, in ieder geval weer een ervaring rijker.
thanks, hopen op een stunt!
woensdag voor het eerst in mijn leven naar een champions league wedstrijd in de kuip, aka mega hyped voor woensdag. werd wel tijd hè?
en niemand van het personeel of de bedrijfsleider heeft iets gefilmd en je laat die gasten zomaar je zaak uitwandel…
anders zou het personeel/bedrijfsleider echt wel een filmpje hebben gemaakt en dan laat je die gaste…
gsrc bestaat voornamelijk uit vindicat leden. dit begint een hetze te worden, zulk soort dingen gebeuren…
ben sowieso van mening dat je achterhoede de linie is waar je de minste wijzigingen in moet aanbrengen in de loop van een seizoen.
zou eerder een middenvelder dan een cv sparen, die maken immers de meeste kilometers. amrabat voor vilhena of toorn…
bless
een kwestie van tijd voordat ze jou voor wie is de mol of expeditie robinson vragen.
waarom bestaat er in nl nog niet een soortgelijk youtube kanaal als arsenal fan tv? bij feyenoord en ajax best interessant lijkt me 🤑🤑🤑
even doorpakken en dat winterse transferwindow ook afschaffen, scheelt weer competitievervalsing.
van persie geblesseerd hoor ik? beste mijn dm staat altijd open voor de vacature van technisch directeur.
voel me vereerd dat ik het brein van een groots denker als jij heb weten te prikkelen joop.
onana is wel echt die altijd gezellige guy
als zijn keuzes aan de bar net zo slecht zijn als in het veld kan het zeker een gekke avond worden
hij woont in delft en zuipt wel eens in de stad, maar nooit een noemenswaardig verhaal over hem ge…
met welke voetballer zou je graag een keer in de stad gaan zuipen? ikzelf twijfel tussen jetro willems en quincy promes.
haha echt zo van plop!
een beetje slimme darter gooit dan t20 t18 d18
ruud gullit heeft de revolutie gister ingezet 😜
maar je retweet toch echt iemand die dat zegt?
zoiets gebeurt eens in de 50 wedstrijden, luxemburg weet niet eens wat een 442 zonedekking inhoudt.
gaan we nu serieus een probleem maken om een onschuldig filmpje van ruudje gullit?
echt een lampekap is dat, ook zeggen dat ze ruud gullit direct moeten ontslaan. ben je dan een matennaaier zeg
en een bewaker van 38 😅
precies dit idd, na die nederlaag tegen frankrijk was het gewoon klaar.
haha zou het?
zogenaamde experts gaan het nu over de hand van advocaat hebben omdat hij pröpper voor sneijder heeft gewisseld 😓
kent/kennen, ik ben echt in verwarring wat hier de juiste vervoeging is.
sybrand buma krijgt op dit moment bijna een beroerte omdat een aantal kind mascottes het volkslied niet kennen.
en de overheid die niks doet!
ik ben toevallig geen scout voor feyenoord, maar je zou zeggen dat er wel ergens iets rondloopt wat beter is dan kramer.
dat sowieso, ik zie het liefst kramer vertrekken en een jonge spits daarvoor in de plaats komen.
oké misschien loopt er momenteel niet een haalbare, iets belovende, jonge spits in nederland 😅
v persie na 30 minuutjes weer fysieke klachten, waarom zou v geel hem juist willen ipv een jonge spits die bij feyenoord beter kan worden?
is een geintje toch frank
technisch wel die hele volley hoor 🚀
wesley hoedt en kevin strootman laten me wel echt schrikken. zijn echt alle kanten op gestuurd door de fransen deze eerste helft 😵
haha dat is ook weer waar wim, ik schrijf hem wellicht te snel af.
is een gok, maar met kramer spits wordt het niks. misschien een idee voor gio om larss…
ik zou dan serieus overwegen om met toornstra in de spits te gaan spelen, larsson op 1…
en morgen mask off met memphis
haha precies, mijn mening dat de witte zool mooier is wordt ook deels door sentiment gevormd hoor. gebeurt onbewust.
perry sport heeft ook best veel liggen, neigt soms wel een beetje richting aktiesport assortiment
original toch wel mooier, voornamelijk zonde dat ze die witte onderkant hebben veranderd
nu het officiële account van feyenoord nog... kleine moeite zou je zeggen
echt warme jeugdherinneringen aan christian gyan, ben nog steeds bijgelovig dat we door zijn gebeden die uefa cup in 2002 hebben gewonnen ☺️
ben een student met weinig centen, maar een tientje voor deze strijder kon er zeker nog wel vanaf!…
kaolo hard vriend, niet normaal. en ook scherpe voorzetten, asensio en isco gaan real overnemen dit seizoen.
de linker van marco asensio 🙌🏻
als je scoort heb je altijd gelijk hè
los gezien van salaris is het echt zielig voor özil en sánchez dat ze nu bij arsenal spelen.
ben ook aan het kijken, vrees dat we gekauwd gaan worden in de cl door city en napoli 😩
wat ik bedoel is dat je voor het nl elftal minimaal bepalend/vaste waarde bij een top eredivisie club moet…
haha nooit, heeft echt nog minuten nodig. kijk bijvoorbeeld naar de ligt, die zag er aardig uit omdat sánc…
ja hoop het man, meestal doen ze bij clubs als napoli niet zo spastisch idd. en anders ziek veel zwarthan…
wil napoli uit gaan maar wacht nog ff mn definitieve rooster af 😅 kaartjes voor het thuisvak kun je in italië gemakkelijk halen
of ik febo badslippers heb gekocht? oh jazeker heb ik die gekocht! 😊
dit is een potentiële ad sportwereld voorpagina
pot 1 sp. moskou of shaktar. pot 3 basel, olympiakos, anderlecht of besiktas. als we daar niks van loten worden we sowieso 4e ben ik bang
heeft de gemeente den haag het in principe weer voor je verziekt joop! is dit nou jouw gemeente den haag?!
de een doet zijn scouting op zondagavond met het bord op schoot, de ander bladert nog eens een oud leden register door 😅
feyenoord heeft vandaag de adidas x nickelson champions league collectie gepresenteerd.
verdraaide vannacht in bed iets in mijn onderrug. 23 jaar oud. voel me opeens stiffer dan joris mathijsen in zijn laatste seizoen
true true, het aanbod is vrij schraal als johan derksen nog steeds een sterke invloed heeft op de publieke opinie
ondertussen wordt voetbal inside en studio voetbal nog steeds veel bekeken. er is dus schijnbaar…
en aan de andere kant legt die uit de kluiten gewassen scouser hem er wel gewoon in. 01 rooney
aguëro is that you??? twee keer moeten halen op goal, eerste poging een mislukt lobje en de tweede poging houdt hij in.
is een collega van je?
gewoon een winnend doelpunt tegen ajax maken en verder geen knikker raken, zou hilarisch zijn.
was je met infothuis toch al joop?
hahaha, in de corridor alleen biertjes gedronken vriend. daar sta ik nog steeds achter.
met bier geen probleem, sterke drank kan ik echt mn kop verliezen en vooral hele domme dingen zegg…
neefje van ten rouwelaar?
een directe concurrent heeft 80 miljoen te besteden en speelt met younes en neres. wij halen sam larsson op voor een bredere selectie 😅
...anders is dit gedrag lastig te verklaren. waarom vertoon je zulk gedrag als je nog een transfer nodi…
daar heb je gelijk in, gewoon netjes trainen en komen opdagen is het minste wat je kan doen. hij lag so…
basis gaat spelen
bij hveen kan ik zijn onvrede ergens wel begrijpen. de beste man gaat zich bij feyenoord denk ik wel b…
of beter verwoord, hoop dat hij gezien de concurrentie bij feyenoord beter kan leven met de bank.
ik doel op een basisplek, valt idd niet uit mijn tweet af te leiden. minuten gaat hij sowieso maken.
hopen dat hij beseft dat je bij feyenoord niet blind van een basisplek kunt uitgaan.
hij kan ook op 10 spelen, maar ik zie toornstra niet snel naar de bank gaan. wel goed dat er nu meer posi…
wel benieuwd of larsson gaat spelen, toornstra en berghuis waren afgelopen seizoen echt goed. boëtius dit seizoen ijzersterk begonnen.
miquel nelom gaat al best een tijdje mee bij feyenoord
ene kenner sjaak alias woonachtig aan de theresiastraat zit telkens naar jonge meisjes te gluren vanuit…
kampioen worden... onder leiding van fred rutten... yorin ik hoor je even wat dingen zeggen die niet samengaan 😉
boycot spar nieuwe kerkstraat!
zelfs in de kuip zit je op y goedkoper 😳
als dit waar is waarom koop je neymar om vervolgens een van je beste middenvelders zomaar te verkopen?
als jouw oom zijn eigen versie van oh oh den haag wil doen moet dat toch gewoon mogen?
ook altijd iets met een nederlandse vlag als omslag of profielfoto
wordt de wedstrijd toevallig becommentarieerd door frank visschraper?
nee, tenzij je zo goed als rond bent met een vervanger. als je nelom verkoopt heb je geen back up meer op die positie.
op facebook uiteraard veel zure reacties van mensen die op hun veertiende spelletjesmiddag deden bij lokale padvinderij.
ik op 14jarige leeftijd 😅
barca real waarbij real een uitshirt draagt wat op tv moeilijk te onderscheiden is van het barca thuisshirt. commercie &gt praktisch nut.