vriend van mij heeft een bakkerij en hij maakt chocolade letters met licor 43! i need this in my life 😍❤️ zijn onl…
oeh, deze is fijn!
ah jawel! ben er wel vrij positief over
haha ja, hij dacht dat ik met hem zat te dollen toen ik zei dat geopend hadden met mr brightside. helaas niet jongen... 😅🙈
ja absoluut! sfeer kakte vervolgens ook in. mijn beste vriend heeft het gemist omdat hij voor het o…
bij het optreden waar ik ben geweest opende ze met onverwachts mr brightside, was een beetje teleur…
hier mag ik ook niet klagen hoor. maar je moet er wel tussen zien te komen
ik stuur naast het kijken van netflix ook zon 28 sollicitaties per dag. dus moet goed komen 😊
stranger things is zo awesome dat ik door de afleveringen vlieg. alweer bij 4e aflevering van seizoen 2. vandaag we…
herkenbaar! ik probeer ook rustiger aan te doen maar het is zo awesome!!
fantastisch he? ik ben bij aflevering 4 seizoen 2. i looooove deze serie!! ❤️❤️
dat was ook mijn eerste! alleen dan een zwarte variant
dit is een gewone reclame voor een kerst oplader tenzij je stranger things hebt gekeken.
ja eigenlijk wel 😅
het enige wat irritant is zijn die opnames van die bruiden waarin ze zo stom bewegen als achtergrond v…
ik ben ook fan. jeetje wat ben jij mooi!
leuk om je weer op tv te zien pim!
hallo 😍
het is net een concert van kensington. ken niemand die er naar toe gaat maar is altijd uitverkocht.
i need your help! lipstick bevalt me wel, nu wil ik rood proberen maar er zijn er zooooveel, heb je aanraders? x
wat een hork!!
hoe kan iets traditioneel worden door trent kleuren te gebruiken? verwarrend dit haha
ik kijk tv styliste gaat een kerstboom traditioneel gaat versieren, daarvoor gebruikt ze de trentkleur van dit jaar. im confused
ik zal voor je duimen
soms snap ik niets van mezelf. voel me de hele dag al rot terwijl daar 0 aanleiding voor is.
16 down op oooh deze hoor je te weinig! prachtig ❤️
ik wil ook een kantoorhond of kantoorkat nu eerst nog een nieuwe baan zoeken haha! maar ik wil het
oogjes dicht en genieten van unintended van muse
ooh iena, ik had je helemaal niet meegenomen in de nick drake mentions! sorry, niet bewust. xx
ik word bijzonder blij van deze plaat!
dit was echt zo leuk! hopelijk was mijn gelach niet te irritant 😅🙈
ja omg mooi en prachtige man!!
ja zeker. wij kennen elkaar al ons hele leven, dus zon lijstje is in goede handen. vind het ook een fijne gedachte.
degene die hem kennen on mijn omgeving kan ik op 1 hand tellen hoor. spijtig.
ja exact, just in case. ik heb haar lijstje ook ergens. muziek is te belangrijk voor mij om dat aan ie…
ja, hij is echt prachtig! pareltje. ik ken echt te weinig mensen die nick drake weten te waarderen!
mijn beste vriendin heeft mijn lijstje voor mijn uitvaart muziek, is dat luguber?
mooie memories! wordt nog week van binnen als ik daaraan denk. zo jammer dat het uiteindelijk niets ge…
leren kennen uiteraard haha, mijn telefoon is stom 😅
from the morning via de app. het meest romantische gebaar ooit. ❤️ 2/2
ik heb mijn ex leveren kennen via een dating site, we klikten zo goed en een dag na onze ontmoeting kreeg ik de tekst van 1/2
ja, mij ook. snap je wel want soms breekt het je, maar zo puur en zo mooi!
net bij in de uitzending geweest. super leuk! bedankt voor cosmic girl, dansjes op gedaan
ik heb deze optie tevens niet
volgens mij was het originele plan van die man om naar italië te verhuizen zonder haar
ze is er klaar mee om te sjouwen met zware spullen. toch grappig want dit is de eerste keer dat ik zie dat ze überhaupt iets doet
laatste plaatje laat een reactie op elsemarijn en kinderen zien
laatste plaatje laat een reactie op elsemarijn en kinderen zien
hoe wil je het in italië gaan maken als je nog geen wensballon op kunt laten?
ik hoop dat die stap om aangifte te doen door deze discussie een stuk lager is geworden
kan niet altijd, ivm verjaren. of in mijn geval ik ken de ene dader niet en de andere is al overle…
nee hoor, geen contributie. je rode haar mooi rood houden is al duurt genoeg 😅
welkom bij de club
kan niet kiezen!!
ken ik niet maar veel griezel plezier
ja snap ik, hoewel hij wel assist geeft verzaakt hij vaak om zelf te scoren. hopelijk is kiezer snel exit voor jullie!
is younez echt de beste in de selectie op die positie? kluivert dan?
inderdaad, sushi is live!
uit tenue van utrecht is best leuk trouwens.
ik voel mij wel stukken beter over het optreden van berghuis vandaag als ik naar younez kijk 😂
alle hoge ballen op die lange!
denk het niet, de 31 valt eerder dan dd gelijkmaker ben ik bang
ben wel blij dat die 11 vlak voor rust valt, dan kunnen ze misschien de 2e helft weer met frisse focus er tegenaan!
berghuis maar eens wisselen doen he?
duidelijk ocd gedrag
ja idd, dat dacht ik ook al.
allebei uit scandinavië, haha verzin je niet toch? 😂
je pas gewassen maar nog niet geheel droge feyenoord trainingsbroek aandoen voor de wedstrijd is toch hart voor de club? ❤️
zoveel voldoening geeft het me, mensen die lekker aan het dansen zijn en lachen en misschien hun zorgen…
zou me heerlijk lijken
kan altijd kijken of het wel of niet te ver is
moet dat uiteraard zijn
ja was erg leuk! veel mensen hebben mn visitekaartje meegenomen dus misschien toekomstige klussen
klaar met draaien, ik heb alleen maar blije mensen gezien en complimenten gekregen. hoe leuk is dat? i love this job ❤️
gecondoleerd en veel sterkte! xx
vanavond weer een avondje draaien, ben geboekt voor een besloten verjaardagsfeest. zin in!
droeftoeter!
oh vreselijk is het daar, niemand snapt er iets van...
wat een klootzak zeg!
wat een droeftoeter!
zonde zeg
echt he, true colors! maar fijn om van andere mannen te horen dat dit niet ok is, thanks
het grappige is dat hij nu praat over karma omdat ik geld teruggestort heb voor een concer…
zijn verweer was dat hij het mij niet durfde te vertellen omdat ik in de relatie ervoor di…
ja, doe nu wel beetje lacherig maar was echt zwaar klote. moest er ook zelf achterkomen enzo, echt fucked up
noooooo, incl season 2? wat doe je nu met je leven?!
unfortunately meen ik dit
mn ex ook, toen we nog verkering hadden... 🤣
vreselijk zeg! echt niets voor mij
zo jammer dat je daarvoor een prijs betaald he, niet ok
jaaa woensdag lekker swingen als dat er in zit
oke, had me toch laten overhalen om tinder eens een kans te geven. 24 uur later ben ik er alweer klaar mee. maybe im just oldfashioned.
omg, als ik een euro kreeg voor elke keer iemand dat tegen me gezegd heeft was ik allang rijk!
aawh iena, vreselijk om te horen! x
ik ook echt niet!
haha, ik ook 😂
ach het is wel aandoenlijk, ze appt in ieder geval niet met hoi met je moeder.
vooral cloud 9! mijn favoriet van het album. vind het zo leuk dat je mee wilt
ik hoorde vanmiddag dat ik zondagavond bij je in de uitzending kom! super leuk
hm, die heb ik niet gekregen
saturday sun van nick drake
echt? when? ik heb namelijk helemaal niets gehoord nog..
als je geloot bent voor de moet je dan al bericht hebben gehad?
haha, ik speel deze 10 af en schiet nog in de lach 😂
jij ook welkom patricia!
oeh, fijne van supergrass . rest ook leuk, candy ❤️
aaah oke haha, ja was best origineel van mij he? 😂
ik had afgezien van de achte…
ja precies, even deze ellende van net vergeten
awh! zwolle is zo leuk
wij hebben niets maar dan ook niets te zoeken in de cl...
er is een reden waarom feyenoord nooit lucky feyenoord genoemd wordt zie
pilaf met rijst
het is niet je vriend of vriendin het is je kind! 😂🙈
mensen die hun kind vriendje of vriendinnetje noemen
ik zit dan vervolgens zo in de auto als mij dat overkomt 😂
ugh, ik erger me daar ook zo aan!!
heb zelf een aantal fotoshoots gedaan in het verleden, vind het wel interessant.
vanavond komt oud collega en vriendin eten en daarna samen griezelen bij horrorfilms, het is tenslotte halloween vandaag! 👻🎃
hahaha ja precies dit 😂😂
ik hoor zooooveel goede dingen hierover! ik ga hier ook gauw mee beginnen
ja, dat is stukken beter!
jaaa the automatic, i love it! tijd voor een nieuw brit pop lijstje
bij elke wedstrijd waarin ze worden begeleid door een professional en dat later van een stemmende…
ik heb echt gemist dit seizoen van volgend seizoen terugkomen! sms fred naar 3131
dit gebeurd helaas bij elke wedstrijd op tv zoals bijvoorbeeld the voice. moeten ze mee kappen
ik zag deze niet aankomen eerlijk gezegd haha, ging uit van ritse
letterlijk een breathtaking dress maar echt, jurk is echt prachtig!
de lijnen zijn gesloten is synoniem voor er komt weer een blok reclame aan.
heeft niemand bier bij zich?
ik trek dit echt niet, lang leve de mute knop.
ik snap wel waarom lil kleine niet zenuwachtig is, als hij stopt met zingen loopt de band gewoon verder.
ik weet niet wat ik slechter vind, de hoeveelheid commercials of deze live uitzending.
het ziet er meer uit als een slechte generale repetitie dan een goede live uitzending
hahah nou echt he?!
precies dit. maar zie veel meer tegen het optreden van lil kleine op, dan toch liever een commercial blok…
zag deze en moest aan je denken! leuk voor de lipstick challenge en leuk voor halloween x
oh ik ben zo vrij geweest om ook de artiesten erbij te vermelden
yeah! maar geen ultimate score helaas, wist er 1 niet en heb er 2 gegokt. de rest was makkelijk
ben begonnen aan de docu serie how to make a murderer, pff dit is heftig zeg!
nee, dat lijkt me ook geen goed idee
ah oke. thanks! ik zal eens kijken
die doekjes waar ik strepen van krijg komen ook bij de action vandaan, ik hoop dat jij iets anders bedoe…
oke, nog een specifiek merk?
iemand een idee hoe je het beeldscherm van een smart tv het beste schoon krijgt? die speciale doekjes werken niet, krijg strepen ☹️#dtv
heb je de piano versie wel eens gehoord? ook erg mooi
goedemorgen! mega leuk halloween feest gehad gisteren. veel complimenten gekregen voor mn halloween muziek 👌🎃👻
en waar staan ze nu? 😉
echt he...?! en zie blom, dat voorspelt ook weinig goeds
ha! zet de wedstrijd net op tijd aan voor het zien van het vallen van het doelpunt.
mijn draaitafel is ook zo goed als af 🎃👻
hahaha zo herkenbaar 😂
echt fantastisch!
wow nice! ik ben gestopt met dunne panty, lang leve 60 denier pantys 👐
eens
er is iemand heel creatief bij grandcafe zuijdt! en nee, ik ben het niet. laatste versieringen afmaken voor hallowe…
wtf, dit kan echt niet! 🤤
ik heb de film 3x gezien, ik heb nichtjes als excuus
haha juist, of beide! wat een leven heb je dan 😂
of bang voor sars of ebola 😂🙈
die mensen hoesten zelf ook nooit geloof ik 😂
echt he?! hoewel ik dat ook denk van jouw verhaal, mensen zijn soms zo asociaal!
nou ik zat haar met open mond aan te kijken of ze het meende but she did.heb gezegd dat ik gewoon verk…
die wordt niet zo heftig, ga helaas niet naar amsterdam ☹️
er werd mij eens op het werk gevraagd om in de pauze hoest tabletten te gaan halen omdat de vrouw van…
awh, sterkte!
wajooo dit is moeilijk, ik kom niet verder dan 2 😭😅
er staat iemand met een sterrenkijker in zwolle, hoe super vet is dit?! ❤️
als je duidt op de chaotische weergave dan ja. alles staat door elkaar 2 dagen geleden, 1 dag gele…
ha, dat geloof ik dat je dat wel zou willen. helaas voor jou staan er meer mensen in de rij om mee te wi…
had ook kane kunnen zijn, of nickelback of kensington. hoe dan ook sterkte
volgende week is een loting van de mensen die zich hebben aangemeld.
doet me denken aan inspector gadget kat!
volgend jaar weer een kans
niet ingeschreven dan?
wie er heen mag is nog niet bekend ben, volgend week pas
dat moet uiteraard top 2000 a gogo zijn
top 2000 a goto, daar kijk ik naar uit zeg! loting wordt volgende wee…
wat ligt ze heerlijk te slapen, look at her paws 😍❤️
5 jaar geleden was dit mijn halloween outfit tijdens het halloween event! ❤️😀👻
ach het is bijna halloween, kan geen kwaad 😂
voor iedereen in mijn tijdlijn die het boek hebben gehaald hulde aan jullie en ik proost mee, vanaf huis d…
gefeliciteerd met het boek! have fun op de presentatie
maar wel leuk om te zien dat mn halve tijdlijn er wel in staat! hul…
ik sta er ook niet in. misschien is er nog hoop voor de sequel?
t zijn net kensington concerten, altijd uitverkocht maar ken niemand die gaat. niet mijn grapje overigens
oooh no! ik haat clowns. ze lieten me toen ook schrikken bij de uitgang, tussen die lakens ineens een…
oh echt? dat is wel leuk dan! staat the vila er nog? zo vet, rondlopen in allerlei horrorfilms, fucki…
oh dat valt nog reuze mee! de huizen zijn ook wel leuk, maar weet waar iedereen zit. is toch leuker a…
ben een paar jaar gegaan, maar het is erg prijzig en de spookhuizen zijn bijna elk jaar hetzelfde, va…
in moet zijn voor, haha lekkere zinsopbouw dit 😂
oooh leuk!! robin hood in het donker is zo awesome! heb je ook tickets in de spookhuizen?
de film of pretpark?
in salem werden eerder heksen berecht en verbrand, dat plaatsje heeft nogal wat geschiedenis.
dat zei ik ook niet, ik zei dat ik dat sneu vond
omg, binnenkort met mn bestie mijn bucketlist punt bespreken om rond halloween tijd naar salem, amerika te gaan 🎃❤️.
dit is toch niet om aan te zien jongens?! man man man
ja, niet ok. vind het echt zo sneu voor die speler. hoorde ook al dat hij eerder weg moest van zn werk om te kunnen spelen.
aaawh, dat is echt sneu!
penalty training lijkt me geen overbodige luxe goddomme zeg 🙈
lekker larsson!
haha leuk! altijd interessant zon oudere broer of zus
wij gaan winnen maar met hoeveel is de vraag!
ik jatte altijd boeken van mn 6 jaar oudere broer, vandaar. nu nog overigens haha
ik heb kensington live gezien voor de hype begon. dus we staan quite
nickelback beste band ooit
die andere van mij is ook erg heb cds van kane haha
haha ja snap ik! it op je 12e is ook niet aan te raden, man wat was ik bang. maar nieuwsgierigheid overheerste
zo niet leuk om dit te lezen, zij moeten facking normaal doen. 😘
ga je mee larpen?
i know, iedereen zn ding toch the skeleton key eens kijken, aanrader
boek was wel eng ik was 12. saw is echt zon psychologische horror/thriller. skeleton key, mijn favoriet, ooit gezien?
halloween of dagelijks frontje?
hou je niet van thrillers of horror? heb op jonge leeftijd it gelezen, dat heeft mn interesse gewek…
heb cds van kane
luister geen top 2000
ben fan van kensington
fats domino, rip! ze gaan weer bij bosjes de muzikanten
kruik en deken?
klopt, komt wel steeds meer maar niets vergeleken met daar
hele sfeer, scary movies, versiering, verkleden. heerlijk
ik hou zo van halloween. zou het graag eens in amerika willen vieren. 👻🎃☠️
voorbereiden aan het treffen voor het halloween feest aankomende zaterdag. ik draai angstaanjagende muziek en heb een amazing outfit
nice guys finish last
ik dacht echt dat veronica niet zo bij je zou passen, maar ik kom daar van terug. youre rocking it
oh nee, sterkte
omg nee, dit trek ik niet
nee grapje, maar komt wel in de buurt 😂😉
mijn leven in 1 foto
hij is alleen zo gigantisch onzeker
ik mocht willen dat ik er zo uitzag zeg! 😍
begrijp nooit hoe je ergens ervaring op kan doen als je nergens een kans krijgt.
ik zou afgelopen vrijdag of vandaag iets horen is mij gemeld
meh! beterschap
😂
oeh! die heb ik 1x live gezien, dat was echt awesome!
heb ze een keer of 5 live gezien, elke keer top!
zit in spanning te wachten totdat ik iets hoor van mn sollicitatiegesprek. hoe langer het duurt hoe onzekerder ik me voel...
omg dit is zo waar!!!
daar kan damien rice idd niet in ontbreken!
congrats in ieder geval!
maar dit gebeurd toch ook in de arena?
nog 0.0 van hem gezien vandaag
zoveel passen er niet in ons uitvak hoor
echt he, waardeloos!
wanneer wordt er gevoetbald jongens? klaar met al die overtredingen en onderbrekingen
vreselijk
nee man, slaat nergens op. niet die wedstrijd kapot fluiten
ja dat is aftellen..
dat is in de arena net zo hoor
diaan
ik hoor alleen maar goede verhalen, spijt dat ik niet gegaan ben!
heb spijt dat ik niet ben gegaan, hoor zoveel goede berichten!
grapjes of oneliners zijn ook niet te vertalen, lees al jaren alleen maar engelse boeken. love it!
jaaa heel, vind ik ook! maar lekker genieten!
is het leuk??
heeeeel veel plezier, ik ben helaas niet gegaan. geniet ook even voor mij
nope, no mercy! opgeruimd staat netjes toch?
oeh nou daar ook maar eens een kijkje nemen
jaaaaa! afspreken, leuk!!
ja wel eens van gehoord, maar nog nooit geweest!
inderdaad, hij heeft een tijdje een dubbel leven gehad met een andere vriendin in een andere stad, zij…
hij wil niet op de tribune zitten, standplaatsen uitverkocht daarom is hij zo boos. gaat om jamiroquai
ja slaat helemaal nergens op, maar goed liever kwijt dan rijk
echt zo jammer en nergens voor nodig
yes really, ik ben een dief en karma kwam me wel opzoeken. zegt de man die mij compleet bedonderd heeft me…
nou echt he, true colors
ik heb geld teruggestort van zn concertkaartje omdat ik daar niet meer met hem naar toe wil. maar hij vind…
ex is zo boos dat hij me heeft geblokkeerd op whatsapp, is dit een tantrum van een volwassen persoon?! zo kinderachtig, maar good riddance
echt, en hij doet net alsof ik degene ben die onredelijk is. zo frusterend, ugh!
wat leuk! ik neem verzoekjes aan uit de top 2000
hij heeft mij bestolen van vertrouwen dat vind ik een tikkeltje erger.
gezeik met ex over concertkaartje, ik heb zn geld teruggestort en hij zegt dat ik hem hiermee besteel van een concert. vent go ticketswap!
het antwoord shrek verdient wel de originaliteitsprijs
oke, toch maar besloten dat bank dag niets oplost. dus straks er toch maar even op uit met zus. bank dag kan namelijk morgen ook nog 😊
klopt inderdaad! ik draai elke vrijdagavond en bij gelegenheid op zaterdagavond in een grandcafe in zwolle.
ach hij roept altijd vanalles, we hadden hem mooi stil nadat we kampioen waren geworden. toen was ie i…
thanks! komt ook wel goed, maar ben emotioneel niet bestand tegen zoveel huilende collegas omdat ik weg…
gisteren een emotionele laatste werkdag gehad en daarna gedraaid. ik ben nu helemaal leeg en op, wordt een bank dagje vermoed ik.
hij is live ook echt een baas, loepzuiver!
wat vreselijk! bedenk liever dat je door je tweets andere vrouwen helpt om er ook over te praten, dat is…
jamiroquai, ik kijk zo uit naar het concert in november! littel l is een fijne plaat
paradise by the dashboard light, moet je naar het toilet dit is mijn ik moet naar het toilet plaat als ik draai 😂@nporadio2
keihard meebleren met uptown girl, i love it!
staan beidr genoteerd thanks voor de tip!
volgens mij heeft zwolle ook wel zoiets, omg die wil ik haha!
nooooo
hattrick voor
gesprek ging voor mijn gevoel goed, ik was de laatste sollicitant die op gesprek kwam. is dat een voordeel?
omg, als hij bruce ook uitgezet had....
een stukkie van een bloemkooltie is ook een bloemkooltie op zich
en dat is voor mij nu voldoende.
zeker! ik heb hiervoor er nooit over gepraat, hoewel ik het nog niet erg durf ben ik wel blij dat ik wel de…
ook als ik zie wat de omvang van is. en vooral als ik denk al alle mensen die dit nog niet durven uiten...
ik word daar eigenlijk heel erg verdrietig van
het is echt ingeburgerd geworden he? ik merk dat ik door mijn ervaringen mannen erg lang op afstand houdt v…
diep respect voor degenen die dit wel durven. ❤️
ik vind persoonlijk alleen een voldoende, ik ben nog niet zo ver dat ik mijn twee ervaringen kan d…