terpstra
en zo is het manfred#feyenoordtilidie
matthews
dylan van baarle
zo is het. punten in de pocket
we weten wel dat sponsor is van ajax hoor. commentator volledig ongeloofwaardig.
van avermaet
marc cavendish
deze wedstrijd maakt in 1 klap heel goed.
toernooi van de idioten
elke andere kleine club was er aangegaan
en licentiecommissie volledig ongeloofwaardig
lijkt mij lrc
robert gesink
klasse mannen
wilco kelderman
succes vandaag
boonen#glazenbolcup
tennisblond. mooie verschrijving#sharapova
je bent toch niet ingehaald door de zeehond?
mooi tripje boys
wat een verademing als analist
bord voor jou
dat denk ik dan ook
succes. ben bang dat je nog creatiever moet worden
ben je in een creatieve bui jelle?
gefeliciteerd met sven!
duitsland heeft gelijk. laten we met zn allen aub het opzeggen
de 4e nederlandse zege in in het rood. prachtig
legt de basis voor zn zege in ?
als je die zo hoor praten .....😀😀. ajax maximaal 5e
plof zei het sprookje in achterberg.
wat een rampverslaggevers altijd verkeerd
john degenkolb
gelukkig !!
niet mee eens. totaal geen noodzaak.
ik neem aan dat jij ook niet op zondag wil werken?
miljoenen extra belastinggeld in renovatie
gefeliciteerd man. sensatie
dat denk ik niet bas
succes met de vandaag. have fun en trappen maar
hou nu eens op met het negatief benaderen van bennekom. en huizen dan?
na twintig jaar eindelijk afgezwommen voor diploma b
bert van loser#vitv. opzouten naar het lokale suffertje
wat een stom gelul rene . keeper komt gewoon uit.
de tel nog niet kwijt?
spijkers op de weg bij de tour# 5 juli 2015# godsdienstwaanzin
ronald lieftink neem het aub over. laatste strohalm
voor het slapen gaan en de emotie iets gezakt. trots op
lekker gereden
prachtige column sjoerd!
dat verbaasd me niet echt bas
je hebt gelijk. ff weekend afwachten
is de weg volledig kwijt. je trainer na twee verloren wedstrijden in de ontslaan is waanzin. wanbeleid ten top.
ga je een andere club volgen ?#bewogenlaatstedag#nec
johan derksen stop toch met je prietpraat en ga lekker met pensioen.
zo vanavond weer drie jaar ouder geworden. feyenoord bedankt.
waar blijft warner hahn bij feyenoord? mulder kan echt niet langer rutten!
toch een skelter haha. van harte met thijs
bestuur stopte dopinggebruik dus zelf in de doofpot? benieuwd naar reactie
wat zeg je dat netjes. geen topkeeper
oranje in nederland gefeliciteerd. je hebt het goede voorbeeld gegeven aan
dus ook niet in eigen land
inderdaad gewoon rood
thuisshirt inderdaad ook zeer fraai! eindelijk weer bij
vermoedelijk uitshirt 1415.
nederland kap eens met dat gezeur over mooi voetbal! en telt
zijn er instructies van de fifa ? spelers van brazilië mogen geen rode kaart krijgen? schande
wat een feest 15
haha wat een waarheid als een koe
succes joppe. lekker rammen en die ventoux op!!
otter keer terug in#geldersevallei. oelderik keert terug bij@vvbennekomlive. beiden zeer welkom. hein welkom thuis!
kan dan mooi wat centjes stoppen in de plaatselijke voetbalvereniging
dat zal wel een hele dikke worden!
gedegradeerd. niet best. dan maar keihard#anthrax aan om af te reageren.
was jij niet uitgenodigd door voor de presentatie van de
veel plezier deze week.
van harte papa en mama met jullie nieuwe wereldwonder. geniet van jullie mannetje!
sepp vanmarcke wint de rvv
gelukkig volgend seizoen bij feyenoord . wat een prutser is die#mulder
is inderdaad ook niet slecht
hè pantani, nu klaar voor de
dat zeg ik .. 😉
dan ben ik bang dat dit filmpje op je telefoon in de goffert moet afspelen
wat een dramatisch interview van hansiehansie met succes met dit warhoofd
nuilen staat niet op de kaart 😄
vind trouwens wel dat pelle er onterecht mee wegkomt hoor
dus?
de feiten zijn niet juist! pieters had rood gehad en zn wangedrag werd meegenomen in de straf
knvb zegt geen buitenspel tsja je zal eens een fout toegeven
van gaal naar feyenoord?
nederland loot tegen borat. dat worden leuke voorbereidingsfilmpjes#euro2016
kom er maar in bondscoach!
en daarom is neuer de beste goalie van de wereld
terug naar dat zou super zijn#comeon
zo speel je topklasse en zo scoor je voor in de eredivisie#mahmudov
ik ben zeker voor
investeerders hopen op
ff doorbijten pietje. volgend seizoen nieuwe kansen
gelukkig is er inderdaad een tweede helft
geschiedenisles gehad in de junusshof van super avond
ook rodajc overweegt blindentribune! geweldig initiatief natuurlijk. vvbennekom was jaren geleden natuurlijk een goede trendsetter.
dan krijgen we een koude zomer lex
de kans is idd aanwezig 😄
als het zn broer is dan is hij wel heel oud voor een voetballer
. nec haalt de deen nielsen binnen. is toch niet ivan hè
en dus niet naar dovo zoals verwacht
gooien ze bij het geld in de rijn of zo? fc wageningen werd voor iets minder de nek omgedraaid
ronald koeman wel of niet door bij feyenoord? johan derksen je lult maar wat uit je nek
die gaat volgend jaar niet fluitend op trainingskamp
en een kraay niet te vergeten
heb vanmiddag op het voetbalveld meegeteld score was een haantje, stresskip, struisvogel, vreemde eend en een blinde vink
en nijmegens?
dan heb ik geen interesse
haha ik zie de gelijkenissen ook joppe
gefeliciteerd boys. volgend jaar meer concurrentie
pas maar op! zo heb je een op je dak
koeman tweelingbroer van boetius opgesteld?
je kent me toch. scherpe blik en overzicht 😎
bereid je voor op niveau bennekom 4. alleen in 8e versnelling
haha twitter maar een eind weg pieter
ook het enige hoogtepunt dan denk ik
zo lekker 38 kms weggetrapt op de hometrainer laat het kerstdiner maar komen.
mooi nieuws voor camiel jager kale!
herken je groningen nog wel na zon lange tijd?
gelukkig had hij wel een beter gebit 😀😀😀
wees er maar blij mee.
heb je nog steeds last van je oog?#necspeeltgewoongoed
supporters slaan trainer en steward. er zijn amateurclubs voor minder uit de competitie genomen!
je vergeet trainer piet toch niet?
wedstrijden die jij bezoekt zijn gevaarlijk voor trainers#brood
wordt je nu een soort#g.j.h.hilterman?
zicht op wat?
nu niet naar#nec?
is er blijvende schade?
wat is de diagnose?
je bent er niet knapper op geworden
het is pas zaterdag hoor
ben op het web al aan het zoeken naar een tandemracefiets
⚽️volgende week kan je een blinde bal geven op de training
dan ben je de zoveelste blinde journalist. 😇
al in ziekenhuis?
heb je al een stok?
wat een nare vent is die zeg.
mosquito nieuwe spits schijnt een vervelende speler te zijn.
wat een geweldige ploeg is dat nieuwe everton
g.a. eagles laat wederom zien een aanwinst te zijn voor de
mag dat psv 1 en 2 in de ?
het is toch woensdag hackersdag?
zie alleen roterende borden van met zon sponsor vraag je er om ....
wat een schopploeg
dat is een mooi resultaat zeg
volgens mij krijg je een lekkere jagermeister in de rust van
is niet naar het schaatsen? iritatiefactortje#porzwe
finnbogason gewisseld. vandaag geen iceco9
je hebt toch niet aan het vuurwater gezeten?
wat is dat voor een oorlogstaal?
blessures door chorizo worst. dan komen die van mij door ben ik bang voor.
dronken vrouw verwart cheeseburger met sandaal
onwaarschijnlijk dat we niet gewonnen hebben. trots op verreweg het beste team van de eredivisie.
. retweet je de goals van niet?
dts e1vv bennekom e1 34! klasse boys. mooie pot tegen de buren. een zlatan door#wesleyfluit.
veltman na twee wedstrijden bij het grote kan hij vast wennen volgens mijn neefje uit de e1 volgende keer aan de beurt?
maar goed dat we niet op de fiets zaten haha
tobclups in nederland
pelle pure prof zeggen ze altijd. domme sukkel
een zwart schaap in de familie mag ook niet meer van
sabbath is samen met de black crowes door de verboden
black album van ook uit handel gehaald.
frank de boer zal straks wel weer vinden dat ze betere ploeg waren
volgend jaar alleen nog kopmannen in het wielrennen. knechten worden afgeschaft door de
en moeten de bruine en de zwarte beer ook vrezen voor de
een beschaafd columnpje geworden?
bijna een vermeertje voor cilissen
aanklager betaald voetbal start vooronderzoek naar kunnenwijeenonderzoekstartennaardeaanklager?
ze zorgt te goed voor je 😄 trainen en de kilos vliegen eraf
zat het buckler shirt vroeger ook zo strak?
zonde voor theo. 1 van de laatste persoonlijkheden in de eredivisie
sinterklaas zonder zwarte piet alcoholvrij bier
tyton schiet zn eigen teamgenoot kapot in de warmingup haha
bij dylan op zn kamer
gevonden
hij hangt al jaren . weet alleen niet hoe je een foto bijvoegt haha
ajax eerste chinees. gaat spelen met nummel dlieenvielteg
ajax meldt komst eerste chinees. waarschijnlijk met de winterstop weer weg
het is wachten op de openingsgoal van milan..
aah daar gaat nibali#wkwielrennen. zonde. favoriet er af
hangoudere 😎
mag je het huis niet meer in?
volendam thuis
geen klimmetjes lexjo?
verhaal over achilles29 is oud nieuws. stond weken geleden al in de gelderlander.
goed gespeeld joël . maar was het niet tegen jonge kracht 😉
geef nu eens een echt statement
dat hoop ik voor je
daar is cocu nog wel even zoet mee
is genieten van dat overvolle
gerrie muhren rip. mooie herinneringen aan clinic
wereld vrije trap insigne#langerakmeykoptegenpaal#au#napbvb
ik ga voor 7#messischerp
wat zullen ze heerlijk stil zijn zaterdag aan tafel#vermeerprimavisser
alderwereld ziet zn ploeg voorkomen in spanje. nee niet
hoppa dat is 1.
frits van turenhout heeft t druk. alle wedstrijden nog 00
. wat was het een prachtige slotklim!
we bellen morgen ff. lange dag@work
dank namens een nieuwsgierige
engels onderzoek fans grootste bierdrinkers#dankanikerooknietsaandoen
el hamdaoui scoort hattrick en assist. zegt misschien genoeg over niveau
god wie pakt het op
voor een pastoor he
te laag in de ranking
paniek in is wel erg vroeg toegeslagen. dat krijg je met 19 nieuwe paarden per seizoen
gelukkig is wk voor ons s nachts#lekkerblijvenliggeninbed
drama en dan ook nog die blaastoeters#obk#ga naar het schaatsen
verliezen mag. weglopen niet!!!!!!!!
heb net begrepen dat alle seizoenkaarten voor zijn uitverkocht.
wat zijn onvesteerders?
kenneth vermeer. keeper# durfjefoutentoetegeven
wat een tegeltjeswijsheid
betaalde je zo veel contributie dan?
cola light aspartaan vergif. beter biertje lexjo
jammer#kansloos#kleuterklas#psv#el#volgendjaarbeter#vlegeldag
dat je niet op de vlegeldag bent?
respectloos van geen oud strijders bij airborne duel
en van een tijgermug?
doe hind de groeten van mij
dankzij 2e plaats 42 miljoen transferopbrengsten volgens dick advovaat. blij dat ze geen eerste zijn geworden. grote parkeerplaats
de ene samuel valt erg mee de andere zwaar tegen s.sanchez.
goede pot van geeft vertrouwen. come on boys
ruben schaken international.#van gaal heeft een witte stok met rode strepen nodig
ramon zomer terug baar zeg maar een nazomer
voor het zelfde geld hadden ze bij de trainer ontslagen.....
je kan dus stellen dat wij blij mogen zijn komend seizoen niet in de hoofdklasse c uit te komen
jullie kunnen trots zijn op jullie cluppie donderdag wij in el
. sorry boys. toch jongens tegen de grote mannen
top lekkere erdinger. cheers
geniet nog even van het goede gevoel#psvacm. nu kan het nog
volgens ronald de boer speelt legioen bij ajax . jammer hoor
wat is die een naar kereltje. past prima bij dat cluppie
gefeliciteerd met thijs vent jaar
dat lukt zeker niet pieter. teveel last van mn hand en schouder na de valpartij van het fietsen
lies pijnlijk. vrees voor morgen
ik gun het je van harte pieter.
lekker bijdehand pietertje. gaat zeker goed met je cluppie....
ik ga al een jaartje of 40 met die teleurstellingen om hoor als feyenoorder. alles went
haha. ik zou dat niet twitteren. ik schaam me kapot
teletekstsupporter
hoezo? of bedoel je de achtergrond van#ajax? of loting of ijverige penningmeester of geld binnen van#celtic
wie zou de eerste homofiele bondscoach zijn? ik heb mn vermoedens
ga eens over voetbal praten. het is geen hiroshima
waar zie je het nog. twee clubs zonder shirtreclame. mooi hoor .
maar ook zichzelf. jonge ploeg. wel veel potentie. leuk
gefeliciteerd met mooi resultaat. wil je er gelijk uit tegen milan? tegen schalke meer kans
het wordt
knap hoor#svzw in voorronde cl tegen
volgens mij zijn dat het maximaal aantal wedstrijden tot en met 2014 in de
211 wedstrijden geschorst door dat wordt een lange vakantie voor hem
ben onder de indruk van psv. maar goed dat al die rotterdamse talenten bij jullie spelen. anders was feyenoord nog beter
als je hem zelf niet langs die theedoek schiet krijg je hem zo zelf tegen#psvzul
wat doen jullie druk over een oefenwedstrijd
psv transfer geparkeerd
ik was nog niet geboren
heb je die tweet op repeat staan of zo? hou s op man
dan zal koch op dit moment worden klaargestoomd in het bejaardenhuis
je valt in herhaling fluitje
weet je nog hoe het mijn cluppie verging met die oudjes ....
salaris falcao 2000 euro per uur bij as monaco. wat een schande. daar moet ik een hele dag voor zwoegen
kunnen we de mtb ook als waterfiets gebruiken?
niet verdronken ?
dwight lodeweges in# vi. ritzmaier niet veel gezien. zat veel in buitenland. toch gewoon zaterdag hoofdklasse als
een mooi feest met indurain, hinault en merckx . ik mis toch lance armstrong de grootste wielrenner ooit! fransen tdf
wat moet je toch zonder mn brede rug om je uit de wind te houden?
medische staf hard nodig als je die foto ziet haha
zat ploegaert achter t stuur?
waarschijnlijk dacht de slang een vijand te zien.
complimenten voor de heer brands. zo veel geld vangen voor middelmaat
jullie hebben een aardige gemeenteraad. hoeven ze niets terug?
. psv begint een nieuw gezicht te krijgen. echte toppers zijn#schaars
wolf# schijnt hele roedel op ons te liggen wachten hoge veluwe bang
er schijnt ook een dode condor op de veluwe te zijn. die wacht ons zaterdag op.
welke opleiding ?
en je vergeet ook de witte tijger en de witte neusholten
bunker is vrijdag pieter. zonde van voorronde cl
middenmoter
dat belooft idd wat. spits met granieten hoofd en pubtype. zou ook zo maar bij bennekom4 passen.
dat is de player of the year die zn feestje in de cel mocht vieren
de prestaties van voeckler en rolland in geven te denken. vorige dokter weg bij ploeg?
dank je maatje!!
schaal is al in rotterdam gebracht. indi wat voor psv? als ze een rugnummer over hebben
pieter heeft gelijk. die knakker kan er echt niets van.
dan mag de medicijnman aan het werk
als je over 2 weken goed wil zijn in de alpen is dat nu idd niet belangrijk
dat wordt dan hoesten en proesten op de fiets vanavond
hangmat opgeborgen ?
donk wil met kasimpassa doorstoten naar top volgens vp. nu nog een keu en ik ben er klaar voor.