kort rondje na paar dagen herstel van het sqaushen. eerste keer…
alle poppetjes staan!
gelukkig toch gegaan. voelt dan toch weer heerlijk.
gister kinderfeestje, vandaag echt 5. met een heerlijke donuttaart.…
ja en van beide kanten he. wat slecht
nette loop, niet al te snel en veel gezien van rotterdam. altijd…
deijtje uit de states over de vloer. boys even back together. oude…
enorme met vroeg naar bedvoor ons dan met…
op 16 oktober met de bso naar en dan gewoon je korte…
na een middagje blijdorp, chillen in bed. straks nog een boekje en…
we waren klaar voor de eindtijd 5119 op 9,85…
cool
heerlijk gegeten vanavond!
just did it. met zware squashbeentjes deze 11 km. top! rotterdam
nee mijn broekzak haha
bij een familieweekend horen deze fotos 😉. bezoekje aan dokkum was…
de jongste kids in het huisje en de oudste zaterdagochtend voetbal
twee uur 20. maar voor een haast twee jarige best ver haha.
dat was een lange rit naar friesland, maar we hebben een lol.…
eens! en ben blij dat ik er 1 ben.
energy after the game. sinds tijden weer een potje squash met de…
nat van begin tot het eind. o yeah! rotterdam
mijn eerste champions league tweet waarin feyenoord een hoofdrol speelt. winst of verlies maakt niet uit. vind dit wel cool.
ja maar zou een nog betere dubbele bezetting zijn.
echt een goede en beter dan diks. dan volgend jaar maar halen
een dikke prima! verre loop en met de grazende schapen op de foto.…
ruim 9 km in the pocket in een heerlijk zonnetje. oude…
in mijn rotrerdam ❤ wereldhavendagen rotterdam
wel de leukste wedstrijd qua tegenstander
deze had ik nodig om weer kilometertjes op te bouwen. next week tot…
voor het eerst op de weg fietsen. kijk hem nou joh!
faas op de bso! leuk als de leiding fotos neemt.
wat een middag voor hem. met al zijn vrienden in de buurt en het…
haha het is ook zo erg daar dat het zo lachen is.
de zondag lekker beginnen.
dat was super gaaf...ook voor de boys. dok…
niks moet alles mag 😉
kappertjes gepakt....klaar voor het nieuwe schooljaar!
dat denk ik ook. beetje zijn eigen schuld door overal in te vliegen. vind ik.
na anderhalve week, knietje testen. even koelen nu. en van de week…
haar foto van het kinderdagverblijf. so in ❤!!
lekker duizelen duizelinhetpark! vroesenpark
een loopfietsje gehad en lekker langer gewacht met zijn zijwieltjes…
rondje bruggen met ik had het heel zwaar. ik zeg…
yep daar was ik bij. de droom gaat door en we gaan het zien.
wel verdiend toch dit?
feyenoord is mwahh, maar maak me geen zorgen. berghuis erbij, haps is goed en nieuwkoop wordt gewoon vaste rechtsback.
wedstrijd wordt zeker nog wel herhaald. fox he
flink de havenarbeider uithangen bij professor plons…
lekker in het doepark in zwolle. ze hebben weer genoten. doepark…
op de gok een rondje doen. waar ben ik? opeens een pontje over…
het bas de das pad gelopen. bleek korter dan we dachten dus nog een…
ochtendje zwemmen in zwolle. vindt het leuk! zwembad de…
leukste foto van de dag. landgoed…
iets voor de buiten beter app 😉
wat heerlijk, samen uiteten in ons weekje weg. oma past op en wij…
wachtend op postbode simon...😉. buitenplaats de horte
faas zijn nieuwe hobby is een potje tennissen. met de beachbalbatjes…
lekker een weekje weg in eigen land. waar kom je dan uit...ja…
ook leuk om eens heen te gaan. ek vrouwenvoetbal nederland …
straks eens kijken bij de ! lijkt me leuk eens te zien!
eerst naar de bios cars3 en erna een milkshake halen bij tantenel…
is op zich te doen naar de oude ingang. denk 10 minuten lopen.
papa kreeg een make over tot mr. sandman. monster strand
gezellig middagje met de kids. lopen in het doolhof van maïs en door…
conclusie. topaankoop als het geheel rond komt
ja zo dacht ik het ook, maar toch die twijfel aangezien feyenoord ook wel zwakke periodes kent 😉
blij mee? in goede periode heerenveen vond ik hem weergaloos. maar in moe…
en op de terugweg van de bij de feyenoordshop op cs een…
voor eerste keer bij en later ook in de kuip. even paar…
party in eigen tuin! bring it on! oude noorden
thanx!!!
feestje vanavond dus even calorietjes verbranden.
siiii !!! eindelijk weer eens een 10. ging me nog goed af. 52…
haha adam was er ook al met zijn moeder.
het is weekend maar lijkt net of ik nog aan het werk ben 😉. met zes…
helemaal mee eens. zo gaat het nu eenmaal en ze halen gewoon weer wat goeds terug!
goed bijkomen zo in onze tuin na het hardlopen. ideaal die zitstenen…
zomerfeest op kdv van mocht er ook weer eens een…
we bestelden een stoel en hielden de doos over. en daar spelen ze…
maar 4 km, maar zweette me kapot. was dus weer heerlijk.
goed rondje hoor met dit weer.
omdat de foto zo mooi is. beachboy faas! nogmaals thanx…
ik vind je een beauty
met zijn klasgenootjes na schooltijd in de speeltuin. dat…
even een kijkje en hapje genomen rollend rotterdam. werkt…
van le gers en france hardlopen aan de plas!
dan kom je thuis en is de tuin af. echt blij mee! oude noorden
vooral het verhaal dat de italiaanse presentatrice de vrouw van buffon is. topper
stukje lopen. welke kant lopen we nu op? 😉
le gers is gers! op zijn frans rotterdams gezegd.
ik denk dat hij geniet! 😉 chateau de barbet
gewoon omdat het plaatje zo mooi is en zo heerlijk hier.…
het mooist van de wereld volgens faas.
nee maar wel serieus hoor. alireza kan denk ik goed op de vleugel en het niveau ook aan. en reza een top tweede spits.
amrabat zeker en misschien jahanbaksh en reza. iraans bloed in de ploeg.
potje flessenvoetbal in zijn nieuwe uittenue. gympies, boxer en…
terugkomen van hardlopen en dan schijnt er toch nog een zonnetje…
mijn vriend &amp ik ! chateau de barbet
lijkt een beetje op mijn laatste dagen 😉
toch lopen we hier ook een stukje hard. dag croissantje met nutella…
en daar gaat ze weer...op voor glijritje nummer 28 van deze middag.…
zwembad leven!
een vakantie waar je ook met je grote camera fotos neemt. ik vind…
hop het vliegtuig in en hop onderweg naar het zwembad. is dat even…
op naar france. leven als een god.
ijsje voor mijn meisje. kralingse bos
coole dude achterop. kralingse plaslaan
uiteindelijk kom ik uit het oude noorden. dat moet je nooit…
yesss wat leuk!!! super gefeliciteerd!!!
met dit weer doen we het zo!
ja met zon sfeer sta je gewoon na veertig seconden op 10. wat een…
hoppa! kampioenen! wat een waanzinnige middag!
en dat zit je er gewoon! volhouden nou! wat een start met kuijt.…
als jij het voelt
mooi frank. zou waanzinnig zijn.
eens.
ik zeg je komt goed. ik vrees meer voor geen huldiging ondanks kampioenschap
nog wel geloof in volgende week?
even het koppie leegmaken voor vanmiddag. alles in het teken van…
neefjes uit zwolle blijven logeren voor weekend feyenoord. alvast…
goed idee. ga ik ook eens doen
paar uurtjes naar het strand! kids best playground.
ik kan het nog!
chilling the park met een drankje hapje vroesenpaviljoen…
❤ voor deze twee. kattenkwaad uithalen in de gang. kijk ze lachen…
lazy sunday met als avondeten een goede borrelplank! daar kunnen die…
ok haha. nee gewoon een competitiewedstrijd maar bij winst is dat feest van het kampioenschap op d…
serieus? 😉
ik hoor faas beneden de dagen doornemen van de vakantie met mama. hij zegt en vandaag is feyenoord, ik hou van feyenoord. ik ook faas.
veel plezier!!!
echt zo erg dit. wat een schande.
paasweekend in zwolle. faas geniet zo van zijn neven en nichtje.
ja dat schijnt nogal in te zijn 😉
deze moest ik nog even delen. daar stond mijn kanjer langs de…
inhalen en finishen als max verstappen leverde mij deze tijd en…
eten bij happy italy. faas vermaakt zich in de binnenspeeltuin en…
ook al is het maar een 1/4 marathon die ik ga lopen in mijn…
in de speeltuin vanochtend. wat een lekker ding! ❤
fout was allang daarvoor bij de pass naar ziyech
wordt het vandaag een mooie dag voor rotterdam? ik begin hem goed…
middagje met de neven en nichtje!
super veel sterkte
voor het eerst naar de kapper. is er al helemaal aan…
suus lekker zelf de glijbaan opklimmen. toppertje hoor.
het was niet een stukje cake, maar wel gewoon dit gemiddelde.
handbagage bij ons ook tussen de voetjes. ach ja
was gister bij ons ook drama. bleek er later nog genoeg handbaggage in de vakken te kunnen.
faas is cool, hij vond het reuzenrad dus niet eng. ik vond het toch…
alles was mooi in real alcazar, maar die tuinen. werkelijk zo mooi!…
in de arena geweest vandaag. voor stierenvechten wel te verstaan.…
onderweg naar het betis sevilla stadion. onder de naranjas staan,…
om de hoek bij ons hotel het eerste moois van sevilla. ook wat…
nee dat dacht ik ook tegen osasuna dus zal nog wel iets zijn. vanaf 5 uur kan je tickets aan stadion kopen stond er.
25 graden dus uitstekend. en morgenmiddag kaarten proberen te scoren voor betis osasuna. om kwart voor negen in avond. heerlijk!
nog voordat we naar sevilla vliegen even wat calorieën verbranden.…
de verjaardag van mijn tante was op een perfect plekje in woerden en…
me lucky bastard! dat ik elke week in deze stad mag rennen.…
middagje in de buurt. lekker langs het water en spelen in het…
hier zijn we weer. geen doel dit jaar. ook weleens lekker!…
vandaag is hij echt dramatisch. mag je toch ook weleens meteen wisselen?
goed sportweekje dit! potje squash en twee runs. dit uitzicht trok…
niet willen en dan toch gaan. rulezz!
eerst niet willen en dan toch gaan. rulezz!!!
uitstekend
heel lekker!
lekker bezig hoor! opbouwen naar de kwart bij de
toch wel erg groot als bokito je zo aankijkt. weer even genieten…
kijk eens op 😉
champions league na een lekkere partij squash. wat een heerlijk…
dit was onze lunch. wat heerlijk! echt genieten was het.…
na een aantal weken en 2 potjes squash, weer eens hardgelopen. vanaf…
winterdisco op school. grote smurf en heks winnibarnshaw hebben er…
nog 1 van ons in de sneeuw, aangezien de sneeuw nu alweer weg is. op…
wij maakten flinke ballen! oude noorden
istie in dromenland of niet?
ik haal ze altijd bij 😉
potje squashen met heerlijke sport, maar voel nu al…
vandaag besloten geen kilometertjes te pakken. de foto van de zondag…
dit is toch gaaf! op een fietsje op het kdv.
sfeertje hoor daar!
ik presenteer u het mooie rotterdam en een ongelooflijke…
fijn thuiskomen in ons huis na een lekkere loop.
we waren met zijn 4, maar die met zijn 2 was het leukst. iets met…
brrrrrrrrr. mijn vingers......maar het was weer heerlijk.
feyenoord net gewonnen, rondje lopen door de buurt. kan ik faas…
zo eens! je wordt er gek van
derde rondje in 2017. ik heb er weer zin in dit jaar.
even nog door de kou met suus! winterkoningin.
faas en ik stellen u voor aan bob, bob slee is de naam, om in de…
deze twee....pure liefde!
de straatweg af. maar toevallig wonen pien haar ouders daar nu tijdelijk tegenover.
studio r op minervaplein achter de argonautenweg.
zo trots, faas was helemaal kalm bij de kapper. voor het eerst geen…
en op naar 2017!
faas reunited met zijn beste vriendje en vriendinnetje van het kdv.…
laatste uurtje genieten van neefjes en nichtje om mee te spelen.…
met hazen voor mijn zus. het werd een pr voor haar…
❤ for rotterdam! dus ook iets in het huis. dit vonden wij wel cool!…
bacillen eruit lopen. dat gaat met de tong uit de mond pfffff. toch…
suus speurt de menukaart door bij !
ja hij scoort niet alleen maar heeft inmiddels ook aardig wat assists.
even een cappuccino bij brasserienieuwnoord. weer iets moois hips in…
just did it! laatste run voor de
nog een week tot de bruggenloop met vandaag nog een 12 km. doel was…
nog een week. morgen en woensdag nog om optimaal te zijn.
zeker. net alsof je in frans dorpje zit.
in onze nieuwe buurt uit eten geweest bij mevrouw meijer. helemaal…
wraptaart na het hardlopen. delicious! als je heel heel heel goed…
hoppa 15 km! nog twee weken tempo bijschaven en dan klaar voor de…
het was eveen opladen en gaan! interval. van het weekend even een…
eindelijk weer eens 10. en nu doorpakken naar de bruggenloop. niet…
jippie suus 1 jaar! ze is blij.
workout done! oude noorden
sint taferelen aan tafel!
winter stylo weer uit de kast. oude noorden
faas geniet van een verdiende lolly na weer een lastig bezoekje aan…
pietje suus!
twee hele gave originele schetsen gekregen van oude opa opa…
bankje voor bij de eettafel ook binnen. ik ben blij! thanx…
en vanaf nu opbouwen naar de bruggenloop. here we go!!
rondje uitwaaien met faas op zijn fiets. wedstrijdje doen papa, zegt…
dames en heren we hebben genoten van een heerlijke pot voetbal. hier…
helaas 22, maar wat een aardig stadionnetje hebben we he!
faas 4 jaar! één van zijn cadeaus, een fietsje! eerste ritje was een…
er zat niet meer in dan 11 km. pittig, i need a shower.
nog even wat boekjes doornemen en dan slapen. wat een ondeugende…
zal guidetti fijn vinden.
samen met faas even quality time in deze drukke dagen. op naar…
mooie blauwe hemel! later huilde god. maar ikke niet, top…
toepasselijke poster voor 😉 komt op zijn kamer. via bybean.
eerste loopje vanuit het nieuwe huis! net zo ver als vorige week,…
ik kreeg van mijn moeder mijn voetbalstrips terug die ik las als…
we zijn verhuisd! vanaf nu woon ik een straat naast die van coentje.…
mooi stukje rennen hier! paasloo, overijssel, netherlands
wat vergrootglas.....dat doe je zo!
wij liepen het kevertje kees pad. en dan zitten de jongsten op je…
lunchen booon en genieten van wijsheden aan de muur. ik vind hem…
lunchen op de faas was even poolboy op het…
weer een 10 plus run. altijd fijn om te merken dat het nog in je…
wat een heerlijk dagje. noordbest, croosrotterdam en nog even naar…
zo stonden ze vanochtend mama uit te zwaaien. daar word je wel…
mag ik zelf ook liken?
dit is mijn koning! het gaat steeds beter, zelf bouwen. met een heel…
dit is echt genieten! familierestaurant…
weer eens 10 km. langs de golfbaan. ❤ golfbanen!
fijn weekend.
sightseeing! genieten in het hillegersberg
totaal niet geërgerd! eerste 8 km in nieuwe buurt. lage…
vandaag met 7 kids de stad in geweest! lekker spellen shoppen in hun…
je moet echt een pokémon afbeelding toevoegen bij de afbeeldingen 😉. kan dat?
morgen deel twee van ons verhuisproject. tweede verhuizing in een…
haha super cool! staat hem goed.
vanmiddag formule 1 gekeken met hij doet net alsof hij met…
benauwd, geen horloge, geen runkeeper...ik denk 6,5 km. deze week 6…
done! benieuwd of morgen een langere nog in de benen zit.
waterfeest op de bso! wat een baan 😀😃
af en toe in het schaduwtje rennen was toch wel lekker. woensdagrun…
even een weekje elke dag rennen. dag 2!
waarom een wonder. het was niet heel goed, maar geen moment het gevoel gehad dat heracles zou gaan scoren. geen grote kansen.
deze foto al zo vaak genomen, maar als je er dan weer staat dan moet…
goud moet het zijn!
wat een koning die hans van zetten. ongekend!
toen ik 16 was! 😂😂😂😂😂 thanx voor de foto poppetje81. en voor de…
vandaag begint het atletiek. go
zo geweldig lachen! en wij maar denken wat bedoelt hij nou met dak!…
wat een finale!!! dit had ik niet verwacht meer hoor..des te blijer. maar hoe is het met van vleuten?
ja dacht al dat hij het wel kon maar dit is het bewijs.
auw die vinger. kan hij wel makkelijk zijn west side doen haha
nee dat zowiezo maar vaak kijk je dan naar dooie 2 de helft en blijft het 03. nee doorstoten moeten ze!
meestal zie je dan bij 03 dat 2 de helft inkakt. ik zeg dan snel berghuis gustafson brengen en weer fris knallen.
wel benieuwd naar het bijzondere verhaal hierachter 😉 haha
hoeveel paar heeft hij bij zich dan 😉
volgens mij eet hij vooral scheenbeschermers. 😉
lekkere loop. ook een stukje stationshal meegepakt.
ook nog een langere afstand meegepakt in zwolle.
lekker vroeg en lekker kort! zwolle, netherlands
horloge nog in 010...over op old school runkeeper 😉. echt retro!…
van huis naar kuip en terug. mooi aantal kilometers en twee keer de…
en de vakantie begint een nachtje zonder kids en dan slapen wij in…
mijn vakantie is begonnen. wij gaan niet op vakantie. dat kan ook in…
zo loop je 5 km in die warmte en vang je gelijk alle pokemons in 1…
in acht dagen tijd 43 km gerend. dat vind ik heel wat. met deze…
kijkmiddag in ons nieuwe huis. met helm zit ik er helemaal in.
start onder de trambaan! dat is ook rotterdam. ⬅ way!
straks begint de eerste vakantie werkdag op de bso voor mij. opa en oma komen zo voor de kids.…
en dan lopen we even een halve marathon. tweede keer en het blijft een pokke eind. wel sneller…
mees, faas, puck, suus, joep en flip. een goed stel hoor!
opeens zag ik dat hij echt naar de kleuterschool kan.
heerlijk die regen met deze temperatuur. dan loop je lekker.
met deze temperatuur, heerlijke regen lekker lopen!
als papa werken is worden de gaafste racebaans gebouwd met mama.
paar uurtjes dierentuin met de kids! eindigen in binnenspeeltuin. faas speelt als een malle en…
frisse kipwraps met mango, radijs en limoenmayo! via
15 km done! weer wat sneller. lekker begin van de dag.
vaderdag!
op 6 juli rent de door en ik renden daar een…
8 kilometer door het centrum. even langs en op de trap! de trap
goddelijk! pulled chicken met rodekoolsalade! via
🎶zeg jij daantje waar ga jij henen, in het bos, in het bos.............zo ooo alleen. 🎵🎶