dit vertelt ie ook echt na élke wedstrijd! speel dan een keer niet slap!!!
gio kom er maar in! hoop kansen, genoeg aanknopingspunten, pech, vertrouwen naar de volgende pot.
hij moet gewoon punten halen.... credits betekenen toch niks... kampioen leuk,zeker...maar daarna 3x niks
ik ben er een klein beetje klaar mee.gio moet nu punten gaan pakken of een keer harde keuzes maken anders komt het niet goed
..maar continue roepen dat je aanknopingspunten ziet, dat er veel kansen worden gecreëerd, dat we een overwinning nodig hebben... 2/2
ik zie gelijkenissen tussen christiansen leeds en gio feyenoord. continue punten verspelen, overlopen worden, raar wissel beleid 1/2
leeds verliest wéér... nu op griffin park met 31 van leeds. uw clubwatcher voorspelt christiansen out
jij volgt toch ook niet alleen feyenoord?
wat een schandalig slechte scheids bij die heeft op zeker een 2tje ingevuld op t formulier
tja...zolang een zender niet eens alle doelpunten uit de eerste helft kan analyseren omdat de reclames wachten...…
zodra de eigenaar zijn trainer gaat steunen moet ie zich zorgen gaan maken
leeds gaat op bezoek bij brentford en het enige wat telt zijn drie punten anders moet christiansen serieus vrezen voor zijn baan!
die steeds meer rondzingen rond is dat leeds 6 van de laatste 8 comp.wedstrijden heeft verloren.zaterdag een doordie match
de geluiden onder de supporters van leeds zijn niet mis... zijn een aantal bewoordingen 1/2
leeds verliest wéér... nu met 12 thuis tegen derby. 6 van de laatste 8 competitiewedstrijden gingen verloren. crisis???
nou daar zeg je me wat, wat een wedstrijden joh!
jemig, dat is een kt vooruitzicht zeg
kunnen we nou eens gvd een keer normaal gaan doen in dit land? blijf nou gewoon van elkaar af!
leuk die wintertijd! zit al vanaf 530 afwisselend blokken te stapelen,kikker en vriendjes te kijken en boekjes voor te lezen
heb t ze even gevraagd... even geduld nog. kijken of er nog taferelen a la de voor gaan k…
he hoe laat is de van de ? uurtje of 2.45 vannacht?
iedereen heeft gezien dat kramer,bilal&ampdiks nooit meer mogen spelen voor feyenoord. gio zet ze echter doodleuk in de basis zaterdag,
winst is het enige dat telt. dat zegt de trainer van de regerend landskampioen die thuis speelt tegen een hoofdklasser.
die wedstrijden hebben al vaker plaats gevonden maar gio lijkt de enige te zijn die vertrouwen houdt in kramer, diks en bilal...
om je diep diep diep te schamen
schitterende 03 van bij bristol city. nu klaar op de bank voor en morgen , en
ik heb op ´t halve maatje gestemd als fox leukste voetbalkroeg van nederland. stem jij ook?
nog 1 keertje omdat ik het verhaal zelf nog steeds tof vind via
walgelijk... wat mij betreft één van de diepste punten die bereikt is in de strijd tussen 010 en 020
hij maakt m gewoon 😶
en t kan ook gewoon 11 blijven
eerste klopt, tweede hoop ik ook!
lees hier mijn verhaal van een top weekend in engeland... 3 dagen, 3 wedstrijden 9 goals!…
ondanks de keeperswissel, lonergan voor wiedwald, helaas geen overwinning voor thuis op elland road is met 01 te sterk...
waar zag jij jouw eerste wedstrijd over de grens? deel je anekdote hieronder!
pff,zie weer allemaal twitter vrienden voorbij komen die gisteren,vandaag en morgen weer in het beloofde land zijn! have fun!
april 2000, mn pa nam mij mee naar white hart lane voor spurswhu, rondleiding op het oude wembley maakte het voor mij af...
na 2 weken internationale break gaan we eindelijk weer beginnen!morgen mag zich gaan revancheren voor oorwassing bij
saturday 30th september, vs. 21 wat een heerlijke wedstrijd in een heerlijk stad…
gezien?
héérlijk weekendje krijgt een onverwacht toetje. easy jet cancelt de vlucht dus een extra gratis nachtje manchester…
ongeïnspireerd leeds united verliest met 30 bij sheffield wednesday. uitslag waar we blij mee mogen zijn. had ook 6/70 kunnen zijn
rust bij wednesdayleeds. 20... veel gehoord in het thuisvaktheir keeper is rubbish. kan ze geen ongelijk geven
je zal er maar bij zijn 😋
we gaan ons opmaken voor de klapper van dit weekend! sheffield wednesdayleeds united! eerst even bijkomen van een heerlijk dagje nottingham
schitterende laatste minuut bij forestblades. en op het einde nog even aan de away fans vragen wie dat eigenlijk z…
zat op loftus road... mooie sfeer... echte championship pot ... slecht voetbal, veel inzet héérlijk
was een schitterende pot... had die 22 nog wel verwacht in die 9 extra minuten…
ze moeten ergens hun centjes vandaan halen
in de voorbereiding op qprfulham fantastisch ontvangen door luton town vanmiddag. heerlijke ground…
dit wordt er een uit het boekje... vr. qprfulham, zat forestsheffield zon wednesdayleeds
tja... dat is voor mij een vraag en voor jou een weet
morgen vrije dag maar toch die wekker om 545... dat kan maar weer 1 ding betekenen... we gaan weer voetbal kijk…
hij moet in de spiegel kijken... diks al wedstrijden achter elkaar slecht...bizar dat kramer mag b…
oud feyenoord doelman kamil miazek is momenteel op proef bij leeds united en speelde vandaag mee met leeds u23 tegen bolton u23 10
drukke weken voor the whites in het vooruitzicht! check ook verhalen van mijn collega watchers van op…
nee en die herrie in die kantine zal m ook niet geholpen hebben bij zijn concentratie. wat een poppenkast
die vent bij de loting roept zes keer dat feyenoord en vitesse niet tegen elkaar mogen loten...hij weet toch wel dat vitesse er al uit ligt?
voor de zoveelste keer laden de vragen van niet...weer 0 punten... leuk zon subleague die je op deze manier nooit kan winnen
hier trek ik de grens, jij ook? help in de strijd tegen palmolie.
kunnen deze agenten in juli ook niet 3 weken in de tour de france aan de slag? erger me altijd kapot aan die aandac…
dan te bedenken dat ik de carabao cup rond 21.30 nog beledigde door te stellen dat het een saaie avond was!wat een ontknoping!
jaaaaaaaaaa!!!!! leeds schakelt burnley uit na strafschoppen!!! wat een stunt van de championship club!
voorlopig geen missers en staat het 23! pingels volgens het abba principe
ik vind wood een eikel en een geldwolf door leeds te verlaten voor godbetert burnley,maar je moet t m nageven,stoer dat ie die pingel nam
we gaan verlengen in de carabao cup op turf moor. na een krankzinnige slotfase is het 22 bij burnleyleeds
dit geloof je niet... 11... wie? wood...
burnleyleeds nog altijd 00... leeds op weg naar een stunt of gooit straks oudleeds spits wood roet in het eten? nog 25 minuten!
wat een topavond in de carabao cup...
conclusies op basis van tweede helft... berghuis je bent een lul... feyenoord veel beter dan tijdrekkend en angstig psv
ok...maar dan gaan we elkaar ook lekker onderspugen komend weekend?
filmpje niet gezien?is toch overduidelijk? vind overigens een poging tot iemand onderspugen a…
schade beperkt houden,nog een keer goed terugkijken en dan uitkijken naar zondag.geen geouwehoer dat dit in de koppies gaat zitten
we moeten niet gaan doen of het een uitgemaakte zaak was dat feyenoord zou gaan stunten. gewoon accepteren dat city maat te groot is
nee joh... gewoon weer vertrouwde systeem spelen... toornstra weer terug en vnl. accepteren dat city een maatje te groot is
mijn idee voor 2e helft.alle spelers met een gele kaart wisselen,vragen aan city of ze het hierbij willen laten en daarna naar bed
31.507 fans zien op een dinsdagavond op elland road leeds met 20 winnen van birmingham! leeds united nu eerste in de
cardiff op 10 achterstand en leeds inmiddels op 10 voorsprong... leeds utd nu bovenaan!
dit zijn de 11 mannen die vanavond een aanval gaan doen op de eerste plek in de championship...huidig nummer 1 card…
beetje maar...! kijk er naar uit!
is er over 3 weken ook zon potje? ?
over minder dan 3 weken staat het mysterie voetbalweekend weer voor de deur!spanning neemt inmiddels toe...
gaat oud leeds united aanvaller chris wood het laatste zetje geven aan frank de boer? na 3 min. 10 bij burnleycrystal palace?
cardiff speelt gelijk en leeds dendert over burton albion heen... leeds nu tweede!
vd sar doet een locadiaatje! kansloos door ongeïnspireerd voetballen uitgeschakeld worden en dan zon interview...t…
de nachtloting van de heeft een wel heel pikante wedstrijd opgeleverd. burnleyleeds... wood dus direct tegen zijn oude makkers
leeds heeft wood niet nodig joh.... 02 op bezoek bij sunderland! nog 7 minuten te gaan!
chris wood op weg naar burnley... mirror meldt een akkoord tussen leeds en burnley... 15 miljoen pond... had toch een grotere club gedacht
yes!!! dat wordt een dagje bij de brievenbus posten.... zeer benieuwd!!!
👍
kijk, ga ik die even lezen! thanks
zon overzicht zegt mij nooit zoveel omdat ik totaal niet voor de bril heb op basis waarvan…
afgelopen! leeds united speelt weer gelijk! net als afgelopen zaterdag pne, houdt nu fulham the whites op 00
vanavond is elland road het toneel van speelronde 3 in de championship... leeds unitedfulham, 2045
gek inderdaad...drie rondjes,laag maar geen zoeklichten oid...
leeds utd nog steeds geïnteresseerd in lassoga van hamburg meldt yorkshire evening post... wood toch op weg naar uitgang?
als je de bedragen hoort welke leeds voor hem wil krijgen waag ik het te betwijfelen. hebben…
leeds united is hot! sterke start van het seizoen, aansprekende transfers en elland road stroomt weer vol! zaterdag…
wat is je bron?
samuel saiz met een hattrick bij leedsport vale voor de league cup... ja ik weet het, offcieel de carabaocup of zoiets...
we hebben een liedje voor je bedacht... desiree, desiree, desiree, desiree... en dat nog 100x
leeds united opent het seizoen met een 23 overwinning bij bolton. volgens trainer christiansen een resultaat waar hij van gedroomd heeft
leeds united begint aan de tweede helft bij bolton... tussenstand 13. goals van phillips 2x en wood!
wat een optimale fan beleving in de kuip... geen wifi, lauwe kroketten en overlopende pisbakken... dat is voetbal kijken
vandaag ook mijn officiële start van het als vorig jaar aanwezig bij de
check de site voor alle previews, groundhopverhalen of om de speciale seizoensgids te bestellen!
over minder dan een uur rolt de bal weer in de engelse voor volg ik dit seizoen de verrichtingen van leeds united!
zo kan het dus ook
lachwekkendereactie locadia na wedstrijd.je zal daar als fan van psv naar kijken,dan wordt je toch helemaal gek
iedereen heeft het wel over het slechte niveau van nl dames...maar zit net een stukje psv te kijken, dat is echt niet veel beter hoor...
zon vaart zal het toch niet lopen?
mijn maag draait zich letterlijk om... wat voor vreselijke gedachten moeten er in diegene om zijn gegaan om dit te…
t wordt echt steeds gekker he...
in het voetbal niet voor te stellen. zie je messi al na de eerste helft el classico met naast zich zo de k…
negredo naar besiktas en dus niet naar leeds waardoor wood dus niet naar besiktas gaat en dus voorlopig blijft bij leeds...
. wanneer gaan we een keer kijken in lille?
nogal wat onduidelijkheid over de transfer van bouy naar leeds...of toch leonesa? victor orta legt uit...…
dan zal ie wel weer verhuurd worden...dat lijkt immers zn hobby te zijn...😄
blijft de keuze van bouy zelf uiteraard ook een interessante. vindt ie het gewoon le…
ze hebben een samenwerkingsverband met deze club. leeds is sowieso op de spaanse toe…
staat ook in het artikel. heeft getekend voor 4 jaar en gaat eerste jaar naar leonesa...
gaat feyenoord dan ook op zoek naar een nieuwe tweede doelman of krijgt bijlow de kans...?
niet alleen besiktas is in de race voor de nieuwzeelander. ook swansea, stoke en southampton lijken geïnteresseerd, aldus daily express
daily express meldt dat leeds united in onderhandeling is met besiktas over een transfer van chris wood. leeds verlangt 20! miljoen pond...
bestellen dit juweeltje! ideaal naslagwerk voor komende seizoen voor volgers van een van de mooiste competities in…
kan je uit ervaring vertellen dat n wedstrijdje in de vierde divisie op een druilerige zondagochtend…
haha,ja dat zou ook kunnen. wellicht dat ik,na een avond stappen, om 9.30 in de tram moest zitten om a…
heerlijk die zondagochtend wedstrijden om 930. vorig jaar ook in praag geweest, 3 wedstrijden gezi…
klopt.... deze vent lijkt er niet eens op 😎
zou kunnen... maar denk ook dat het met de koopdrift van de nieuwe trainer te maken heeft.
maandag weer een dubbele presentatie?
alvaro negredo zou zomaar eens de 10e aanwinst van leeds united kunnen worden,aldus the mirror.naast leeds schijnt ook swansea in de markt
nieuwe uitshirt leeds... sorry maar die kappa logos kunnen toch niet meer???
mooie diversiteit aan voorspellingen te zien.ene keer brentford als zesde en bij een ander op de 22e plek!reageer e…
mijn eerste bijdrage als leeds unitedwatcher voor
stil van
wat ben jij een ongelofelijke held lieve tijn... rust zacht!
ordernummer is 000009498229... wat stoort is belofte dat we gebeld zouden worden en dat niet gebeurd.hoop…
verschrikkelijk bedrijf levering beloven binnen 4 weken,door zomer 4 weken erboven op plakken,beloven terug te bellen,niks gehoord!
ok ok... zat nu twee minuten tussen 😂
en meldt dat keuring aanstaande is... meestal tweeten jullie dit soort zaken tegelijk....
mykonos is heerlijk!
dat moet toch gewoon een boycot worden van alle clubs... dit kan toch niet geaccepteerd worden lijkt mij...
jij gaat dus van 3 t/m 6 juli op vakantie?
. zweden puntje tegen frankrijk? eerst wachten tot de wedstrijd echt is afgelopen voordat je een be…
jemig.... wat staan wij voor lul
even de seizoenscompilatie van kijken voordat we op de fiets richting de kuip gaan!
pfff... nog 17 uur, 34 minuten en 17 seconden...
wie had dat gedacht 3 weken terug,feyenoord volgend in rockanje!volgende week zingen op het kampioensfeest! zie je in de kuip!
daar hoef je geen sorry voor te zeggen... dan spoor je gewoon niet...
niet de winnende... de nieuwe
iets te snel op enter gedrukt ? volgens mij is achillesdord 22 geworden?
er staan daar geen ontvangers denk ik
lachwekkend niveau feyenoord vandaag. ongelofelijk dat je in zon wedstrijd niet dat kan brengen wat nodig is om kampioen te worden...
morgen maar even langs de doping controle... die moet aan de drugs hebben gezeten vandaag!
huh? waar is de slaande beweging nu ineens gebleven???
uitgaande van de tweets van en maakt de aanklager zich weer eens onsterfelijk belachelijk
je mag toch niet hopen dat ze bij de besluiten om fred grim de kwalificatie te laten doen. ik zie ze er overigens nog voor aan ook!
volgens blind waren we op de goede weg en was bulgarije een incident dat kan hij toch onmogelijk menen? wat een dwaas zeg.
haha dat zal niet gaan...wij organiseren m!
en dan die andere spelers van wales met hun verongelijkte arm gebaren...bizar...
wow! heerlijke dag voor een wandelingetje door
nelom moet toch ieys heel ergs weten over gio wat niemand mag weten...kan niks anders bedenken waarom die lapzwans er nog in staat
eens. maar feyenoord moet het helaas vaker hebben van zn inzet juist door gebrek aan tactiek
pure onderschatting. afgang van een club die zegt zo graag kampioen te worden. kansloze vertoning. benieuwd naar mening gio
kansloze vertoning... zo ga je geen kampioen worden
ga vanmiddag kijken. als het niet lukt meld ik me weer
is er een storing met tv kijken via itv? app vraagt om pincode maar na invullen geeft ie onverwachte fout aan?
tof! mag ik mee
hier zijn de drie finalisten! en..... nu gaan we weer even naar de reclame!
leuke aflevering. snap 1 ding niet en dat is het aanraken van de dieren.bij mijn duikdioloma leerde ik don’t touch,tease,take
heb inderdaad even gebruik gemaakt van de glijbaan
zondagochtend wedstrijd in praag. admira prahafc ostrov
t wordt praag...lekker ouwe meuk kijken
wekker om 553 op een zaterdag kan maar een dingen betekenen..... we gaan weer voetballen kijken over de grens!!!!
dat manchester united stelt eigenlijk niet zoveel voor he
gefeliciteerd! terecht gezien al jullie initiatieven!
reisplanner geeft geen storing in de treinen van 7.35 van rdam alexander naar uitgeest,dus die rijdt gewoon?
en dit land organiseert over 2 jaar het wk. parlementslid rusland moedigt hooligans aan
klinkt niet eens zo heel onlogisch eigenlijk....
ff snel dat doek omgedraaid.... s
mijn blijdschap is er niet minder om! dit is toch goud!!!
heerlijke zatermiddag fietsroute langs de rotterdamse bvos!
maar dat ie überhaupt het risico neemt is al te gek voor woorden. het is ook niet de eerste keer dat ie met vuur speelt...
wedstrijd is in madrid hé vanavond!
en dan straks met het uitvak bij een 30 achterstand de wave inzetten...
broer! have fun! groetjes vanuit bali!
heb je dm gestuurd
is er een storing bekend in rotterdam ommoord? heb geen tv en internet
stel je pijl vliegt zo het bord in flight eraf en achterstevoren in het bord. telt dit?
heeeeeeeere we goooooo! rotterdam!!!!
ik zie in de tmobile shop dat de waterdichte tas voor bij het duikentijdelijk niet op voorraad is. wanneer weer wel?
ik zie in de tmobile shop dat de waterdichte tas voor bij het duikentijdelijk niet op voorraad is. wanneer weer wel?
een hele nette zesde plek met en bij .maar wel de winnaar van de individuele ronde!
dat is het echte voetbal...
veel succes en plezier vanavond! hopen op een mooi resultaat voor jullie!
gefeliciteerd broer
jij met die kleine letters ook altijd...
zon 10 in de 95e minuut is erg lekker kan ik uit recente ervaring zeggen
mag t toch niet hopen zeg... hoop dat we dan al lang en breed de overwinning aan het vieren zijn!
is blind al weg?
hebbie m al
hoe kan knvb met droge ogen blijven beweren dat ze tevreden zijn over het werk van blind?kijken zij niet naar de wedstrijden ofzo?
misschien wel erger dan het nederlands elftal zelf vind ik de supporters in het stadion.juichen bij bal door de benen... bij 02...#nedtsj
opening van flagship store in 020 met een hapje en drankje,maar de trein naar roffa blijft t beste van deze stad
slecht dekt de lading niet... straks naar celtichearts... zit je in t uitvak?
falkirk,daar ga je voor je lieve lol niet naar toe toch? en wat een slecht voetbal...
tis inderdaad een beetje een meester dennis tweet
stop
stop
lekker sfeertje, muziek lekker hard! allemaal verkleed als stoeltje😂
wat denk je ervan? maken jullie kans?
vette wedstrijden mannen! have fun! hes,gaat manon ook mee?
veel plezier!
ik ga een shoarma bestellen! kan ie lekker toeterend op zn scooter komen brengen!
bondscoach die na zon wanvertoning roept dat t misschien beste is dat we moeten duimen om ons te plaatsen is volstrekt belachelijk
danny vindt dat danny t prima bedacht en gedaan heeft.... tjonge jonge.....#nedijs
ik zou blind wisselen... danny dus...
mooie gids en een ideale handleiding om het komende seizoen te volgen...
hoe ironisch...west ham kwalificeerde zich dmv fair play voor de europa league en pakken vandaag alweer hun derde rode kaart van dit seizoen
wel op de fiets of lopend neem ik aan?
wat een vette wedstrijd op het wk beach volleybal!
wokken? ik zie alleen maar friet, kipvleugeltjes en kipschnitzels. lijkt de snackbar wel
zo te zien kan iedereen thuis op de telefoon eens rustig kijken hoe die renners er uit zien
goed plekkie bartje
wat is je bron dat feyenoord hem zou willen halen?
blijf je in schotland wonen?
fantastisch gegeten bij twee sterren restaurant parkheuvel! wat een luxe en heerlijkheid!!!
avondje heerenveen... mijn aanwezigheid mocht helaas niet baten...
binnenkort dus weer twee kaarten op marktplaats...
doen we ook al jaaaaren
ach man... een beetje zuurpruimen dit.dat real bestaat alleen maar uit acteurs...dan is zon mooi tea met pirlo, moratta, buffon
aangekomen in melief bender voor de ronde wedding songs! inspiratie voor ???
popquiz rotterdam! als aanvoerder!
staat wel in de gids van fox
en laat ons terras nou bijna af zijn.... bbq time!!!
gisteren de hele dag in touw geweest dus nu heerlijk de football league show kijken. wat een ontknoping!
dus de kaartjes voor nederlands elftal binnenkort op marktplaats?
gefeliciteerd han met de titel!
prachtige quote op hier maakt t niet uit wie of wat je bent,moslim, christen,werkloos of bankier.op het 35 km punt ben je moe
oh gaat ie zo doen...
nee man bedankt. heb ik echt geen zin in!
wat een vreselijk nieuws uit het prachtige kenia. 147 en waarschijnlijk meer doden bij gijzelingsactie al shabaab... daar word je stil van
wel bij een 03 achterstand meedoen met de wave he?
als ie niet op slot stond had ik m weggegeven. nu is ie ordinair van me afgenomen...
zie vorige tweet...iemand in de buurt van een fiets te koop? of weet een goed adresje?
waarom kan men niet gewoon met zn poten van andermans spullen afblijven??? voor de tweede keer in paar maanden fiets gejat!
ken jij toevallig iemand met een account van qpr? vriend van mij wil 2 kaarten kopen voor qprchelsea namelijk.
haha, ik heb volgens mij precies dezelfde besteld
flikker eens op met die aanstekers op het veld!!!!! wat een eikels!!!! boetes boetes boetes. echte supporters? me reet!!!
zie het heel heel somber in...te vrede 4 maten minder dan kazim en die goal in de 46e minuut. hopen/duimen
doe ik t ook voor hoor!
wat een misser van ! verloten op facebook 2 kaarten voor en de winnaar is... een 020er....#auw
feyenoordsupporters? hooligans bedoel je? de supporters zaten in het stadion en maakten er een feest van....
nou toornstra... doe t maar
niet minder heerlijk haha die kazim...werd helemaal gek
wateenheerlijkegoal... prachtige actie karsdorp!
precies. en die nuance ontbreekt nu volledig in de nederlandse en italiaanse media
ik ook.ik word alleen zo moe dat alle mooie beelden van feestende en normale fans nu niet worden laten zien. die zijn er nl.ook
belachelijk dat de gewone, echte, feyenoordsupporter hier weer de dupe van is!
onzin! zijn geen feyenoord supporters maar hooligans die deze gelegenheid aangrijpen om zich te misdragen 1/2
neem je die morgen ff mee? als je weer beter bent natuurlijk?
om ons heen schieten de treinen weer voorbij...zullen wij dan ook maar weer gaan...heb nu al lang genoeg van het uitzicht genoten
hoe lang gaat die storing duren! staan als sardientjes opeen gepakt in de trein tussen woerden en breukelen...
zitten geen vedettes of super grote namen tussen. gaat daar vooral om t team
yup, trainer is uitstekend, geen rare voorzitter maar realistisch bestuur! en een uitstekende selectie!
bizar inderdaad! zouden zomaar eens in de premier league kunnen spelen volgend seizoen!
cambridge utdmanchester utd 00 daarom hou ik zo van engels voetbal
respect voor een geweldige burgemeester aboutaleb...slaat de spijker op zn kop en zegt exact de juiste dingen...
zijn jullie al met vakantie? trein van 805 op alexander richting uitgeest is er nog steeds niet en geen enkel bericht???
bedankt kenneth... door jou in ieder geval een punt!
come on!!!!!! erop en erover!!!!
dit zegt genoeg...
zon beetje de halve inboedel weggegooid of in dozen gepropt! nu languit op de bank de kraker feyenoordaz kijken!
kijk eens naar links...
leuke sfeeractie bij psv! iedereen een stoeltjeskostuum aangedaan?
klaarmaken voor mijn eerste bruggenloop! heel veel zin om door mn stadje te gaan bikkelen!
nog 2 daagjes werken en dan een weekje heerlijk naar de zon! paar mooie duiken gepland, lekker snorkelen en relaxen....
nu dus niet meer geheim..@rijnmondsport zeer geheim oefenduel tussen en , vanmiddag om 12.00 uur in amsterdam |
lekkere training voor de ben er klaar voor!
ik neem geen stelling in de zp discussie. maar dat volwassenen zowel pro als tegen zich zo laten gaan voor de ogen van kinderen.dieptriest
en feyenoord op de achtergrond... dit zijn de beste zondagmiddagen
klaverbuurt in ommoord, vlak naast de rotte! heerlijk huisje, maar moet aardig geklust gaan worden.
lekker dagje zo. eerst weer even in ons nieuwe huisje kijken,stukje hardlopen, facup kijken en vanavond filmpie doen...
touche... maar assist bij 10 mocht er wel zijn... feit blijft idd dat we een scorende man nodig hebben!
gelukkig heeft v.geel die kramaric niet gekocht in de zomer. wat een kansen mist die gozer zeg
afgelopen zaterdag al een hele mooie overwinning. en deze mag er ook best wezen!
haha ronaldootje wilde zo graag een pingel...
wat een k#tdag wordt t voor jou zeg
wat een heerlijke goal van graziano pelle...
wat een baas is die fernando ricksen! respect voor deze man!
heb t niet over ebola maar de vergelijking tussen ontwikkelingshulp en voor sinterklaas spelen.
zelden zon treurige vergelijking gezien... zou eens naar t journaal kijken wat er in afrika aan de hand is...
dit is een grap neem ik aan?
tja eens... maar als je zo inspiratieloos speelt tegen fc bal op t dak 3.... zonde...
als die cillessen nou gewoon eens zijn werk gaat doen ipv die steeds irtitanter wordende trekjes van hem...
alle seizoenkaarthouders van az mochten gratis naar binnen
penningmeester ook weer blij