klinkt goed! inwoners neerpelt en overpelt kiezen pelt als naam van nieuwe fusiegemeente via
verleidelijk om alles maar op jones te gooien maar de hele ploeg presteert ver onder de maat, een kampioen onwaardig
nerveus en onrustig spel van feyenoord. de weinige kansen worden niet benut. de gelijkmaker van ado is trouwens een juweeltje.
ach wat verdrietig nieuws hans kraay sr is overleden. voor altijd feyenoorder 🔴⚪️⚫️
foreign steel en patriotic procurement. en ja, de zoon van. zoonlief is trouwens ook actief voor t…
dit. en dus steeds maar weer met klotsende oksels tegen 020 beginnen. nergens voor nodig want zeker dit ajax is he…
kom op feyenoord! het moet en kan echt beter in de 2e helft. 🔴⚪️⚫️
jahaaaaaa! 1 0. berghuis. zou het dan toch .....#feysha
na hinderlijke oranje onderbreking nu weer eredivisievoetbal. kom op feyenoord! 🔴⚪️⚫️
heerlijke eerste helft. meer van hetzelfde graag in de tweede helft, feyenoord. 🔴⚪️⚫️
en als je al buiten kantooruren terecht kan, volgt er zelden een behandeling foto nemen, afrekenen en wegwezen. …
komt goed met ado dit seizoen, no worries.
adel verplicht, zou je denken. kampioen enz, enz. maar nee, zomeravondvoetbal. lamlendig laag tempo. kom op feyenoord 🔴⚪️⚫️
eens. keuzes van gio verbazen, eerlijk gezegd. wat mij betreft amrabat vanaf het begin opstellen. nu…
feyenoord speelt een overtuigende tweede helft. waarom dan zo futloos, gemakzuchtig en ongeïnspireerd beginnen in de eerste?
stevige tik gehad tegen city maar de ploeg moet het zelfvertrouwen hebben om deze dreun achter zich te laten. kom op feyenoord 🔴⚪️⚫️
situatie wijnhaveneiland niet veel beter veel verkeersellende door de vele bouwprojecten en…
hoog tijd om sjeik city eens een toontje lager te laten zingen. kom op feyenoord 🔴⚪️⚫️
bulgarie &gt bulgarije
deelname bulgarie en roemenië aan schengen verdrag werd enkele jaren geleden nog verworpen of was onbespreekbaar. c…
goed stuk over en de, al dan niet geslaagde, verfilmingen van zijn werk.
vooral linkse radicalen zijn vatbaar voor de verleiding van geweld via
everton supporters niet blij met koeman en klaassen.
kom op feyenoord, niet te ver terugzakken. en ga op zoek naar de vierde 🔴⚪️⚫️
klopt! dat was vorig jaar anders, als ik mij niet vergis. goed. geen fotos helaas wat ik ben vandaag eld…
jaja! straatje keren. het blijft een fenomenaal gezicht.
syrisch regeringsleger op 30 km van het al 3 jaar door isis belegerde deir ezzor. ook olievelden ten oosten van euf…
er zijn dus journalisten en sociale wetenschappers die dit soort geweld heel acceptabel vinden.
trump heeft al aardig wat getweet over harvey maar jij pikt deze er tussenuit. kinderachtig. wat is je punt?
de knulligheid, de uitzichtloosheid en natuurlijk de zwarte humor het derde seizoen van is zeer de moeite waard
man utd? klaar mee. benfica is wel een mooie club.
het kan nog! chelsea vanwege oude allianties uit de jaren 80, zelf een zwak voor atletico...#feyenoord
de dames en heren moeten nu echt schaduwspringen. geen zin om weer de gang naar het stemhokje te maken.
de harde kern van elke willekeurige voetbalclub zal hier niet warm of koud van worden.
het het is wel schakelen voor lichttechnici. het spaanse roodgeel kan al vervangen worden door het finse blauwwit.
volg voor de laatste updates over de situatie in
exact! het is vooral een kwaadaardige combinatie van lafheid, politieke onwil en naïviteit.
touch of evil en the third man zijn persoonlijke favorieten.
ik heb de no pyro, no party brigade nooit begrepen maar ik ben dan ook oldschool.
ontluisterend verhaal. dubieus gedrag van zowel de werkgever als andere medische specialisten. patiënten…
staande ovatie voor millwallsupporters die met barkrukken bewapende terroristen te lijf gingen en zo verdere ellend…
mooi stuk over modern voetbal, gebrekkige gemeenschapszin en identiteit in engeland.
het perfide albion, altijd goed.
er is van alles aan te merken op de maar nsbhandelsblad...pfff. en mention ook even, wel zo…
begrijpelijk. met komst is de erg naar links opgeschoven. ik kijk het, ond…
de duitse sociaaldemocratie anno 2017. verder commentaar is overbodig.
lekker vanachter je veilige computer in amsterdam nog even kritiek leveren op de onhandige uitspraak van een emotio…
het is mij een raadsel waarom wij &gtnederland überhaupt iets moeten doen voor deze verkrachtende en moordende dood…
mooi man! jammer alleen dat de hele buurt met deze bloedhitte binnen zit omdat aan het heien is…
houding en fotokeuze was gisteren ook opmerkelijk geknielde jonge blonde vrouw &gtkwetsbaar,…
ja, maar heeft een boekenkast vol geschreven over het gevaar van populistisch en extreem rechts. deze me…
de heeft nooit een punt gemaakt van het grote aantal italiaanse, griekse en baskische krakers in de stad. ka…
de heeft mijn onvoorwaardelijke steun. of bedoel je wat anders?
maar volgens gaat het slechts om betogers en activisten ....#nrc
een wel heel erg terughoudend stuk van op de voorpagina. en dan deze foto. de inwoners van…
je zal het als beginnende ondernemer maar meemaken muren moeten nog geverfd worden, meubilair nog in plastic. bijn…
onvoorstelbare hoeveelheid troep o.a kapot glaswerk bij ingang aan de
juist ja, zie eerdere rt is een parodie account. ben ik er toch ingetuind.
te zot voor woorden.
ach ja, , de hooligans van het edl zijn natuurlijk het echte gevaar, nietwaar? en die tweet van…
kansloos gebral. en dan die selectieve verontwaardiging, met name ook bij het denkende 020 s…
ha ha ha, geweldig. zelf net berner sennen bomber uitgelaten plasje en linea recta weer terug naar huis
dat is nou net mijn punt. en dat mis ik bij en velen met hem. begin nou eerst eens…
ach, de neanderthalers slopen de stoeltjes, de nette, gematigde haalt het bombardement erbij…
en daar heeft dus een punt. comfortabel schuilen achter brede amerikaanse rug is een gepasseerd st…
beschamend is toch vooral het gooien van stoeltjes naar stewards en agenten. plastic club, plastic fans dixit bu…
de eerste beelden van alle gesloopte stoeltjes in de ajax vakken komen binnen, dus....#rapaille
zelf heb ik met fox sports nl waarbij je, tegen betaling, dit soort wedstrijden kan zien.…
een camera gemonteerd op de bierpul bij de traditionele bierdouche tot zo ver de spontaniteit bij het kampioensfee…
verbijsterend. en dan ook nog schoppen naar mensen die al op de grond liggen. wat een
ha ha ha. dat heb je goed gedaan, geweldig!
was ik niet van plan. aan de koffie
bumper! fantastische avond trouwens. hoop dat jullie ook een rustige/relaxte avond hebben. stay safe!
groet haar van mij. glaasjes cognac..? lol. gelijk hebben jullie.
hahaha. dat meen je niet! als hij van een gokje hield...
geweldig. geniet! net thuis. schitterend feest. alles ok, geen gekkigheid. de coolsingel laat ik morgen aan de dagjesmensen.
net terug uit het centrum. loud &amp proud. geweldige sfeer. ben je op vakantie?
thnx jonathan. succes tegen de glazer familie, pardon, man utd. geniet ook van stockholm, geweldige stad.
zie mijn eerdere antwoord aan
lol! geef het goede voorbeeld, zou ik zeggen. felicitaties enz. filmpje van jan het zijn maar ktkakkerlakken ver…
de man verdient een standbeeld.
een achtbaan aan emoties, het ontbreekt mij simpelweg aan woorden feyenoord, het bombardement. onbeschrijfelijk!
hahaha! jullie alle goeds. gekkenhuis hier. mental, zowel binnen als buiten.
jaaaaaaaaa! en weer een beauty van kuyt
lol!
jij ook! het komt goed.
twee organen krijgen het zwaar te verduren vandaag hart en lever
blijf toch lekker in de residentie, dom gansje
lekker eten symphatiek geprijsd!, hartelijke bediening en mooie lokatie is en blijft een feestje.
ik hoop vooral op herhaling van vorig jaar spontaan feest in het centrum en prima optreden
ding neemt nu afstand van osullivan 8 5 in frames. mooie kwartfinale.
ik hoop dat de erasmusbrug binnenkort roodwitzwart kleurt, ....
ik mag hopen van niet!
heerlijk! 0 2, jørgensen. danish dynamite! blijf opbouw vitesse agressief storen, feyenoord
volgende week in de van de papadag van leden van de colombiaanse doodseskaders.
na eerdere begripvolle portretten in en de volkskrant mag de terrorist tanja nijmeijer nu in de kritiek…
wat.een.goal
de stanley cup met het wk snooker en feyenoord natuurlijk. is altijd een feestje.
geweldige reis idd. schitterend stadion. een beetje suf gelijkspel om vervolgens thuis te winnen. happy days.
3 0 voor juve. heerlijk!
ik heb er een hard hoofd in. dit was wel erg zwak, hoor. utrecht is in goede doen...
jaaaaaaaa! schitterende goal van berghuis. no surrender! en nu op zoek naar de derde.
lijden, elk jaar weer. man, man, man
yes. berghuis. 2 1. het kan nog. kom op feyenoord! bloed, zweet en tranen
geweldig! oldskool ook als feyenoorder in de jaren tachtig zowel bosuil als stamford bridge chelsea bezocht.
bloed, zweet en tranen. het moet vandaag gebeuren. nu al rusteloos en het wordt alleen maar erger.
niet elke scandinavische voetballer slaagt in de erdivisie. van real madrid naar heerenveen het wegkwijnen van sup…
slachtpartij. griezelig. wel ontspannen kijken, is ook wel eens lekker
feyenoord revancheert zich en hoe! 4 0 met de tweede voor toornstra. geweldig
jaaa! de tweede. blijf aanvallen feyenoord!
wij moeten vooral naar onszelf kijken. go ahead wacht woensdag. overtuigende overwinning en alles kan weer.
kansloos verloren. ajax volkomen terechte winnaar. punt! niets is echter verloren. zenuwslopende weken. kom op feyenoord!
het schuim laat zich weer gelden feyenoordspelers worden bekogeld met munten en aanstekers
mijn favoriete buitenlandse club krijgt ondertussen een pak slaag van celtic. zon sportzondag dus.
kom op feyenoord! sterker door strijd ajafey
opening van het feyenoord stadion de kuip
euh is vandaag 80 jaar jong eerste pot tegen beerschot in maart 37. daar mag vandaag aandacht a…
lol!
ja! hoe kan ik die vergeten. ook erg van genoten inderdaad.
goed. volgend jaar weer lekker juichen voor ijsland en noordierland
beetje highway to hell in de rust had geen kwaad gedaan...
modieuze kapsels en plakplaatjes. urenlang bij de kapper en tatoeage shop doorgebracht. maar een voorzet geven is een brug te ver
schuldig op alle punten. mea culpa. alleen dat lack of character hakt er wel in natuurlijk. ik doe geen oog dicht…
geen nagels meer over
een krat whisky achterlaten voor de tegenpartij. geweldig! de chinezen proppen hun nieuw ontgonnen eilandjes imme…
nooit contact met haar gehad, ik volgde haar geeneens. toch geblokkeerd.
en ook dat andere roodwit zwart draait weer op volle toeren. go hawks!
en de foto is van een aan plein 1940 gelegen restaurant waarvan het terras vernield is. symbolisch.
nee de foto is niet van het turkse consulaat maar van het aan plein 1940 gelegen restaurant fjord. hun terras…
wereld van verschil, ja.nu wel veel beweging en vooruit verdedigen. en jørgensen natuurlijk. op naar de volgende finale.
genieten. ik kneep m wel met die blessures en het gepruts tegen sparta.
beetje laat, niet? voor mijn ogen werd de zich al terugtrekkende me bekogeld met stenen en vuurwerk.
lol!
ik heb weinig vertrouwen meer in de npo en een gedeelte van de ...kwaliteitspers
moeilijk te zien op de foto grote groep relschoppers op regentessebrug, me ter plaatse.
oorlogszone op dit moment. tuig op plein 1940 en omliggende straten. blij dat de hond niet meer uit hoeft.
relschoppers worden nu, voor mijn neus, plein 1940 opgedreven. overal sirenes.
nu rellen. tijd van deëscaleren is geweest, aanpakken nu me! sla dit turkse uitschot mijn landgenoten zijn het niet het centrum uit.
ja maar volgens en is het grote gevaar!
wat een aanfluiting!
ja! alle ruimte van de wereld, eindelijk. mischien dat ik bomber even loslaat....berners hebben een goedmoedige uitstraling...
een en al reuring, vlak voor deur. blaak grotendeels autovrij, zodadelijk lekker de hond uitlaten.
hoppa! me busjes blokkeren nu schiedamsedijk richting centrum, schilderstraat inmiddels afgesloten met hekken.
and counting! de erasmusbrug staat nog steeds vol met verkeer uit zuid.
gelukkig maar. hopelijk blijft het hier beperkt tot wat getoeter en gescandeer.
ha ha, ha lekker aan het bieren? stay safe!
de erasmusbrug staat inmiddels vol met verkeer uit zuid dat het centrum in wil.
op een gegeven moment is de brandstof toch op van zon helikopter, althans dat hoop je.
op de blaak kruising posthoornstraat automobilisten die toeterend halsbrekende manoeuvres uithalen om weer terug te keren naar westblaak.
welke voetbalsupporters? wat is dit voor geklets? politie heeft het verder onder controle.
er wordt as we speak volop gedeëscaleerd maar of dat nu een goed signaal is...
het wordt een lange avond. er hang ook voortdurend een helikopter boven het centrum.
en dan te bedenken dat nederlandse patriots de turkse bevolking beschermden tegen syrische raketten
stel je niet aan! de bewoners van leidse rijn blijken overigens d66 en pvda politici te zijn. fraai hoor
fair enough. maar laat dan wel zijn zaak bepleiten &gt uitpraten. echter, helaas weer voorspelbaar…
mevrouw is afgehaakt maar zit wel in de studio van om haar beklag te doen.
vage vragen worden door klaver met vage tegen vragen beantwoord. twan huijs heeft bovendien vanavond een erg milde bui.
het geachte raadslid heeft mij inmiddels geblokkeerd vanwege mijn milde tegenwerping. lol! valt allemaal niet m…
hartelijk dank voor deze belangwekkende bijdrage, aisha. je electoraat in den haag heeft mijn symphatie en mededoge…
rutte kreeg geeneens een kans om welk levensmotto dan ook uit te dragen door het geschreeuw en makkelijke inkoppert…
volkomen terecht dat paul jansen de vloer aanveegde met en jinek gebrekkige journalistieke integriteit van de redactie.
ach, welnee. rutte hield zich, zij het met moeite, goed staande tijdens dit ordinaire volksgericht. belabberde jour…
ja. dure punten, zeker met az en heerenveen in het vooruitzicht. goed. schouders eronder.
wij verdienden te winnen,...eh nee. het ontbrak vandaag aan strijdlust, overtuiging en mentale weerbaarheid. onbegrijpelijk!
blessures en vermoeidheid? zullen een rol spelen maar een gedreven sparta troeft feyenoord eigenlijk heel simpel af.
badend in het zweet. met de hakken over het slootje. kom op feyenoord!
de plakploegen van en hebben het stukje over eerlijkheid en fatso…
het moet sneller en agressiever feyenoord. het spel tot nu toe is een recept voor problemen
de bewering van dat trump national guard inzet om illegalen te arresteren blijkt anders ook niet hard te maken.…
proest
onbegrijpelijk.
absoluut. enorme opofferingsgezindheid. na al die nog steeds pijn en gedeeltelijk verlamd.
mevrouw werkt bij het linkse armchair warrior. mccain heeft in vietnam 5 jaar in een kooi geleefd en…
schitterend stuk waar de liefde van afdruipt. het was zeker mooi. en inderdaad, levenslange afhankelijkheid. zeer h…
goh misschien trump even laten voor wat hij is en een kop koffie halen bij het begint nu…
niet dat ik weet. uw partijgenoot heeft echter een aanlokkelijk voorstel gelanceerd.
mompelt iets over hoge muren en prikkeldraad wilders premier? dan amsterdam een republiek
vanavond valt definitief het doek. het laatste concert, uiteraard in de stad waar het allemaal 45 jaar geleden bego…
m.a.w dezelfde onderwerpen waar de lezers nu al jarenlang mee teistert. de man staat qua stijl en onde…
ha ha. ik zal het ze zodadelijk vragen.
ik ben benieuwd. staat donner nog op het programma?
.@tomjanmeeus maar er gebeurde natuurlijk wel wat in berkeley. trump aanhangers werden mishandeld met stokken en pe…
goed nieuws.
veiligheid is bij de nooit een prioriteit geweest noodklok gezagsapparaat stemt ongerust en cynisch via
zeker. het hooggerechtshof en lagere rechtbanken werkten niet mee. kampioen van de verschoppelingen is hij echter nooit geweest.
ik begrijp nu juist uit de dat may trump waarschuwde voor amerikaans isolationisme.
maar dat obama 2.5 miljoen illegalen deporteerde en fors investeerde in hekken/muren werd door de uiter…
familiedag van sociaalliberaal en linksprogressief amsterdam.
geestig. bij engelse conservatieven steeds meer leden en kader van bengaalse en hindoestaanse afkomst. bij groen li…
geweldig. thanks! misschien combineren met stadion en real ale + goede curry is altijd goed.
het oude stadswapen. goed idee
vanavond nog wat afleveringen bekijken van het noorse occupied op , zeer de moeite waard. serie bedacht door jo nesbo
vreselijk. pervers. en inderdaad, voer voor psychiaters.
overigens , sommige van de meest notoire ss kampcommandanten konden erg sentimenteel doen als hond of paard ziek was. tsja,...
opvallend inderdaad. en handig. onze berner sennenhond is een allemansvriend, ikzelf allerminst overigens, lol.
de hond vertoont inderdaad stressgedrag maar dat ligt toch echt aan het feit dat zij niet omhelsd willen worden.
ach, rick parfitt. de oude garde verlaat ons. rip.
een man? uitschot van het laagste soort! schuim. de vrouw had zwanger kunnen zijn. mijn handen jeuken.
tsja. de val van het ijzeren gordijn gaf mij de mogelijkheid om thuringen en sachsen te ontdekken en waarderen. duitsland is mooi.
loyaliteit is volkomen vreemd getuige zijn optreden in
uithaalde &gt uithaalden
wonderlijk. mensen die tijdens begrafenis van margaret thatcher snoeihard uithaalde maar bij begrip tonen voor zijn misstappen
exact! trump moet nog beginnen. waarom lezers van en dan nu al allerlei doemscenarios voorschotelen?
lol! chief whip conservatieven wil hairy enforcer cronus niet kwijt.
vergadertijgers?
...en in die andere grote havenstad wordt het kantoor van het lokale havenbedrijf fors duurder.
collectiegebouw en coolsingel fors duurder
wonderlijk! als geen ander is de vvd korthals, de grave, kamp en hennis namelijk verantwoordelijk voor de onttake…
en bij mijn weten niet gelieerd aan de zgn. altright. ik durf het bijna niet hardop te zeggen maar dit is inderdaad slim.
ja, toch wel. george bush in 2000. gedoe met ponskaarten/ stemformulieren in florida. al gore verloor uiteindelijk.
i know. het ging mij meer om het sentiment je zit, zelfs met een voorsprong, steeds met klotsende oksels te kijken.
lol! over de eerste ring met die bal, extra stofzuiger op het middenveld,...
eens! toen de ukip, met bijna 4 miljoen stemmen, 1 zetel veroverde voor het lagerhuis was dat voor velen minder problematisch.
argumenten? het is een emotionele cocktail van aannames en angstscenarios . veel lof uit eigen parochie. geniet er van.
dat beweer ik niet. wel verschijnen stukken met een dergelijke strekking altijd en alleen bij een aanstaand r. presidentschap
gemakzuchtig angstscenario dat altijd opduikt bij republikeins presidentschap. hulde echter voor tom schelstraete
ach wees mild voor en zijn volkskrant. in de vs zelf overigens geen rouwverwerking,…
ja, helaas. de main stand. schitterende tribune. niet onder de indruk van wat er voor terugkomt maar goed...
schitterend! en dan het gevelwerk en de trappen. holte end weliswaar indrukwekkend maar raakte mij toch minder.
verstandig, ja. wel rijkelijk laat! pleidooien voor sterke defensie konden jarenlang op hoongelach rekenen.
ha ! welkom. feyenoord en hearts bij mij. leuk dat je mij volgt. tja, nl zwi gezien in het machtige villa park. prachtig!
onacceptabel. triest! je deed het beter dan andere journos die niet verder kwamen dan hun afkeer voor de gop te ventileren
bekijk vooral youtube clip met de journalist john pilger. vernietigend oordeel over en ny times.
proest en niet alleen van de bijholteontsteking.
zo. de toon is gezet. trump zal, net als george bush, vanaf dag 1 onder een vergrootglas liggen. even wennen na 8 j…
waarom en paul scheffer uitnodigen als hele uitzending blijkbaar gevuld moet worden met live gesprekken uit new york
het is toch weer gelukt een ontevreden republikein. en uiteraard heeft de democratisch gast een bang, huilend kind
nou maar hopen dat de wijn niet in bierpullen wordt geschonken. dhr. juncker zal het wellicht een zorg zijn.
het kleineren van romney en mccain, ook door nederlandse journos, kan ik mij nog herinneren. afkeer voor gop zit diep.
lol! dat eerste staatsbanket met hollande wordt boeiend, ja.
vast geen ted nugent...
curieus apocalyptisch vergezicht van
zelf geen trump sympathisant maar erger mij mateloos aan eenzijdige berichtgeving. een droevig vierjaarlijks ritueel.
tenenkrommende tv
altijd weer indrukwekkend hoe hearts de 1e wereldoorlog herdenkt.
je legt zelf een verband tussen guidetti en de gemiddelde feyenoorder. die tweet heb je inmiddels snel verwijderd. tja,..
veelvuldig gebruik van termen als kakkerlakken en superjoden duidt anders ook niet op veel geestelijke bagage b…
aldus de russische ambassade in london...
grote wijnbrug eind augustus gesloopt. bouwplaats ligt er nu ruim 4 weken verlaten bij. waarom ?
40 jaar seizoenkaarthouder en dan door gestraft worden omdat je vanwege ziekte een uitwedstrijd mist.…
graag gedaan. veel plezier!
witte de withstr. met aansluitend museumpark, veerhaven e.o, kop van zuid, fenixloodsen , kuip, hofbogen. ben je wel zoet mee..
heerlijke visgerechten, hartelijke bediening en fenomenaal uitzicht hartelijk dank voor een heerlijke lunch
meestal is de moeder bezig met haar telefoon. afremmen voor voetganger op zebrapad is dan al helemaal te veel gevraagd. tja,..
.@mariannezw vaak geweigerd in restaurants vanwege grootte van onze hond berner sennen terwijl het een heel rustige lobbes is.
restauranteigenaren gaan er ten onrechte van uit dat grote rassen voor problemen zorgen in de zaak. flauwekul natuurlijk.
mwah. valt mee. sowieso ben ik voor verdichting van wijnhaveneiland e.o mits er mooie torens voor terugkomen.
ai! houd het veilig. dat geldt natuurlijk voor jullie allemaal van
waardeloos! geen schaapachtig gegrijns en high fives met het tuig, mag ik hopen. rotterdam is geen zaandam!
lol! en paar jaar geleden protestants belfast bezocht. en inderdaad, aardig wat oranje shirts/jacks gezien.
en de verlichting van de willemsbrug is ook wat feller?
oef, s2 van is inderdaad bikkelhard.
dank! voor persoonlijke ressentimenten is geen plaats in boekbespreking. wij zullen zien.
klopt dit verhaal ? indien waar, zeer kwalijk. als abonnee niet gediend van dit soort fratsen.
de onbetaalde rekeningen van de world expo via
wat een heerlijke eerste kennismaking met de rotterdamse vestiging van
ha ha ha, zeker. en met ibra hebben wij nog een appeltje te schillen...
fiorentina en west ham? als dat zou kunnen. loodzwaar. wel twee mooie, traditierijke clubs.
en ook s3 van is zeer de moeite waard. wel erg benieuwd hoe bepaalde verhaallijnen in s4 worden uitgewerkt
geweldige foto! parkeergarage witte de withstraat ?
na interessante dwarsverbanden van , nu goede column van over slachtoffer spelende
dat denk ik ook. eerst maar eens orde op zaken in eigen huis brexit, immigratie, enz voordat men verder gaat.
een verdeeld en straatarm land. heilloze weg. eu verwelkomt bosnische stap naar toetreding via
posthoornstraat versperd en ontoegankelijk voor hulpdiensten door bussen
hartelijk dank ook namens andere omwonenden voor het plaatsen van afvalbakken in de wijnstraat. top!
stevige kritiek ombudsmannen, ja. in het geval van demo zaterdag speelt macht van het getal een rol.
uitstekende zaak. dank voor de link, ineke.
...en waarom werd er door aboutaleb niet hard ingegrepen toen vrijdagavond journalisten werden geslagen en geschopt.
eens. win eens advies in bij de israëliërs, denk ik dan. maar nee. morgen kunnen de licht technici weer aan d slag.
goede genade...
liam fox wordt staatssecretaris voor internationale handel. man was betrokken bij declaratie akkefietjes. zij durft wel,
bojo is back! als minister van buitenlandse zaken. fascinerend.
merkwaardig, die volleybal achtige bewegingen in het strafschopgebied van boateng en nu schweinsteiger met twee penaltys tot gevolg
beetje rek en strekoefeningen doen in het eigen strafschopgebied. wat bezielde boateng?
aan de lange zijde parterre toch aardig wat onverkochte plaatsen, zo te zien. onbegrijpelijk met als de kraker in de kwartfinale.
klinkt goed. leuk! sterke koffie dan maar morgenvroeg...
schreeuwende jan mulder nu op verstandige opmerkingen van vlaamse gasten worden gesmoord in gebral en getier.
ah, toch een overeenkomst tussen de belgische supporters en onze eigen oranje clowns doodse stilte na een opgelopen achterstand.
hoppa! wij hebben gelijk een wedstrijd. mooi. en weer moeten de portugezen een achterstand goedmaken.
epische en heroïsche vikingen! fantastisch!
ik.geloof.mijn.ogen.niet
helaas vertrouwd tafereel op de wijnstraat, nogmaals het verzoek tot plaatsen van afvalbakken.
de woedende reacties van veel journalisten na brexit doet het ergste vermoeden, ja.
interessante waarneming. in 010 idd nauwelijks of geen symphatie voor belgisch elftal. beperkte steun voor britten/ ierland.
te beroerd om te stemmen maar bij een onwelgevallige uitslag je beklag doen voor een tvcamera. waar hebben wij dat eerder gezien?
het kon jong blijkbaar weinig schelen aangezien zij massaal thuis bleven.
bloedbad bij labour.
ha ha ha. scherp! nu wel. de noordieren hebben mijn hart gestolen. goed. wales naar de kwartfinale. mijn ek pool is een ravage.
true. en maten &gt gallons? niet te vergeten. lol! voor nu even klaar met brexit en europa. strijdbijl ff begraven
ha ha ha. nope. ik hoor het de bbc commentator al roepen a good run..
sums it up, im afraid. maar daarom nog wel genietbaar en in al zijn onbeholpenheid ontroerend.
ordinaire schwalbe van bale. hmm.
?..maar wel authentiek boerenkoolvoetbal. heerlijke sfeer op de tribunes. passie. maar goed, ik ben
yep. anything goes in kringen, zie ook tweets als lezer naam ik daar afstand van grijnst
geen pruiken, geschminkte gezichten of prullaria. wedstrijdshirt aan, biertje en lekker zingen. real fans
polen in de kwartfinale. hmm. die zag ik niet aankomen.
vreselijk meid! mensen die niet jouw sociaalliberale mens en wereldbeeld delen. schande!
wat een schoonheid! prachtige omhaal. de mooiste goal van tot nu toe. 11 tussen
gelijkspel?