je haalt morales terug na 7 seizoenen om hem een gesprek van 2 minuten te geven...
volgens nederlandse media 8 mil. mexicaanse 24 mil. dat laatste lijkt me wel stug?
kijkt iemand nog op van een schietpartij in de vs? het is gewoon routine geworden
daar komt michel, die staat buitenspel. dat rijmt sierd de vos 😂
mensen die over sfeer en weglopen bij ajax beginnen... kijk naar jezelf, nog geen wedstrijd fatsoenlijke sfeer gehad.
2 miljoen erbij en je kon lozano halen
waarom valt vilhena altijd zodra hij in de 16 komt?
heb het gevoel dat toornstra vandaag gaat scoren
dat stukje van jonathan banks bij rtl night is zwaar awkward 😅
zijn die van buiten komen nou feyenoorders? lijkt er wel op
jorgensen speelt op zich wel goed
vilhena heeft dit seizoen alleen bij excelsior 1 keer een bal goed geraakt
damn.... sterkte en let op elkaar
gaat het los daar?
een zone waarin ik het niet zo erg zou vinden om te zitten in ieder geval 🤣
ik weet niet waarom maar ik kijk een video van opa norma. 1 van de eerste zinnen zegt hij ook nog dat hij alles van a tot b gaat uitleggen
opa norma en boef beef was sowieso alleen maar voor promotie en reclame
rol van kuyt wordt nu ook wel een beetje overschat...
haathumor, lijkt het, heeft in nederland z’n langste tijd gehad. via
vilhena is het hele seizoen al onzichtbaar idd
met toornstra eruit lever je wel 10 goals in. en met larsson op 10 moet je boetius opstellen, wat echt een drama is
dat shirtje van as roma ziet er echt mooi uit zo zonder sponsor.
stranger things seizoen 2 ook al uit. ben benieuwd of ze het niveau van seizoen 1 kunnen vasthouden
ook 1 met een rode baan in het midden graag
die afdeling is altijd al een drama geweest. geen mensen binnen de organisatie die binding met de club hebben blijkbaar
bizar, wie werken er op die commerciële afdeling?
translate gehaald is. vind ik toch wel armoedig voor zo een serie.
op het accent na, kloppen de zinnen ook gewoon niet. waarom zou je haar geen taxi bellen. lijkt erop…
ik dacht dat de nlse kentekens in designated survivor erg waren, maar hoe de taal wordt gesproken is helemaal lachwekkend 😅
die nederlandse kentekens in designated survivor zijn echt slech geknipt en geplakt
belachelijk goede aanname van mertens bij die goal 😅
dat zegt heel veel helaas
geertruida krijgt nog instructies... normaal doen hoor
op de tribunes is het zo mogelijk nog gênanter
wat is slotbooms rol geweest dan?
recensies zijn niet goed. 5.3 op imdb en een 3 ofzo op metascore 😅
komen. er mogen nu niet eens meer vlaggen de kuip in.
bij het vorige kampioenschap gingen ze ook opeens strenger optreden overal tegen. dan…
dagjesmensen brengen juist nog een betere sfeer dan skhouders om eerlijk te zijn
op x lijkt het wel of mensen komen om te socializen ipv voor feyenoord. om te janken.
sfeer is trouwens ook het hele seizoen al om te janken
gudde be like ik noem bij de hoogtepunten mijn succes en bij de dieptepunten geef ik de supporters de schuld.
ik heb verbouwen nooit als oplossing gezien. bizar dat daar niet kritisch op doorgevraagd is.
bizar, gudde geeft gewoon min of meer toe dat verbouwing van de kuip nooit serieus genomen is
ik ga elke keer stuk om marcel van rosmalen 😂
bizarre verdediging van deze advocaat
dzeko 😍 mamma mia, wat een goal.
nieuwkoop is die aanvaller toch ook helemaal kwijt. ook een fout van hem. al speelde hij voor de rest wel goed
zo, hij is hem idd helemaal kwijt..
heb de 12 niet goed kunnen zien. eerste helft speelde hij aan mijn kant en vond ik hem wel scherp en goed spelen
nieuwkoop en haps lichtpuntjes vanavond 👍
verschil tussen elia en boetius/larsson is gigantisch
dat loop je waarschijnlijk per wedstrijd mis omdat je vak z dicht gooit. om maar te zwijgen over vorig jaar + boete…
next book...
mijn speler van de week bij voetbal inside is sven van beek via
volgende week dus eindelijk seizoen 8 van the walking dead
ook kuyt en zijn vrouw hebben dus problemen met beslissen wat ze willen eten haha 😅
maar eens zitten voor
ja en hij heeft geluklig voor hem nog wel een punt binnen gesleept...
einde van koeman?
bedoelde je foto haha
blijft bijzonder. die mensen die al meer dan 2 uur van tevoren in de rij gaan staan haha
wel een herhaling van de goal van benzema gezien. dat dan weer wel.
ik heb zitten switchen tusen en heb gewoon alle doelpunten gemist 😅
dat city is ook ziek in vorm 😅
ik weet wel wat alle kinderen die grappig denken te zijn gaan drukken 😅
eeuwig zonde dat johan derksen vanavond niet aanwezig is om iedereen in de zaal te beledigen
scherp haha
foto van een daadwerkelijk draadje 😆
neem mijn woorden trouwens terug na het lezen van dit stukje
het is idd wel goed om naar beiden heel kritisch te kijken en te onderzoeken.
je zult toch echt de wet moeten veranderen als je wilt dat dit soort gekken nooit meer vrij komen
mag hopen dat die verdachte nooit meer het zonlicht ziet
zij zijn ook gebonden aan een in dit geval falende wetgeving...
ter verdediging bosnië heeft geen tactiek en schiet de bal alleen naar voren 😅
dat is waar
wat een onzin. je speelt een competitie van 10 wedstrijden, en resultaten tegen iedereen moeten meetellen.
de melodie van het nederlands volkslied blijft prachtig
gedeeltelijk mee eens. er zijn ook alternatieve geneeswijzen die in andere landen gewoon erkend zijn
oh oke, las gisteren dat el ahmadi mogelijk niet zou spelen vandaar. is dat al definitief van de afrika cup?
is het niet zo dat je zelf extra verzekerd moet zijn en dan alsnog alleen gedeeltelijk vergoed wordt?
mis je ze straks allebei tegen ado en een eventuele afrika cup...
mensen zien tegenwoordig overal een complot in
het staat letterlijk op elke nieuwssite 😅
hoppaa, kaartje binnen voor city uit 💪
is ook niet te vergelijken
zeker, echt sick dat hij al die profvoetballers pannas geeft haha
begin steeds meer fan te worden van elia 👍#tikitakatouzani
mijn speler van de week bij voetbal inside is steven berghuis via
ze schilderen oj toch iets te sympathiek af vind ik. voor de rest echt top
haha, ik kan wel genieten van zo een technisch perfecte aanname. het is wel functioneel
chelsea city kijken
derksen heeft wel is ergere dingen geroepen dan gore klootzak dus niet zo aanstellen haha
wel mooi hoe eerlijk elia altijd is 👍
ziekelijke sekte
speciaal voor wie genderneutraliteit onzin vindt ...😅
ik weet trouwens weer waarom ik zelden nuchter naar feyenoord kijk
iedereen looft amrabat, blijkbaar ben ik de enige die hem vandaag matig vindt spelen.
5 goals in 6 wedstrijden, jammer van die rode kaart.
ondertussen heeft stefan de vrij gescoord tegen napoli 👍
kon zo goed voetballen, net als slabbekoorn. om 1 of andere reden heeft hij het ook niet gered. hoop dat touré het wel redt.
isoufi helaas nooit doorgebroken...
dreigende taal trump noordkorea volledig vernietigen
weghorst is een hardwerkende kramer
oeff sterkte
mijn speler van de week bij voetbal inside is steven berghuis via
zeneli is een genot om naar te kijken
psv heeft echt het lelijkste uitshirt dit jaar. doet gewoin pijn aan de ogen
wel een legitieme vraag waarom veel marokkaanse spelers de top niet redden? terwijl ze technis…
zelfs als nederland wint van zweden met 50 wss geen wk, omdat we dan slechtste nr 2 zijn.
fantastic game😂😂 zou hij weten dat je praktisch uitgeschakeld bent?
wachten tot ik napoli en city kan boeken 👌
ticketexchange van feyenoord nu al uit de lucht 🤣
hmmm ben benieuwd, maar dan moet kramer nog weg gaan, lijkt me?
zelfs deze webcamchick is het er mee eens
van diks was een perfecte sliding op de bal
volgens de telegraaf ruim 4 miljoen, maar kan het me eigenlijk niet voorstellen
als die 4 miljoen over larsson klopt, is het een prima bedrag.
laatste dag in bosnië 😔
zou graag op varkenoord kopen, maar die rij daar is haast niet te doen...
anderlecht wordt sowieso een combi
buitenspelers zijn sowieso al van zichzelf wel wisselvallig. hoop ook dat boetius stappen heeft gemaakt
boetius &lt elia ook
trainers wel bijna allemaal mannen of niet?
buitenspelval wordt natuurlijk wel makkelijker als het langzamer gaat. heb overigens…
op welk gebied?
muurschildering in het oude dutchbatcompound in srebrenica/potocari. toevallig van jou?
zelf toch gewoon door halve stadion dicht te gooien. hopen dat ze dat in de cl niet doen, beelden gaan de wereld over.
onder het argument nog 1 keer en we worden eruitgezet... nog niet eens een wedstrijd zonder publiek gekregen, maar dan doen ze het...
wat die poolse clubs allemaal doen in europa, en dan gooien ze bij feyenoord het halve stadion dicht door een opblaasbanaan en wat fakkels..
laatste dienst en morgen op vakantie 😁
heb berghuis er heel graag bij, al is 7 miljoen wel heel stevig
je betaalt dan in principe 5 miljoen om een speler te huren voor 1 ja…
kerken kopen jebroer uit door kind vd duivel, vervolgens boeken ze mr. polska die doodleuk kind vd duivel draait 😂😂👍
dit is nu al het mooiste filmpje van 2017 😂👍
heb mn twijfels over de aankopen vooral door verhouding hoeveel ze gekost hebben maar vanaf nu gewoon volle steun natuurlijk
maar dat is dus mn punt he. een back moet je kunnen opleiden, die hoeft niet zoveel kwaliteit te hebben
en jij wordt er niet voor betaald he. van geel verdient 4 ton per jaar, die moet alle opties incl i…
nee in de eredivisie niet, maar je haalt vorig jaar wel jorgensen voor 3 mil, die toegevoegde waarde heeft een back nooit.
een back heeft niet zoveel invloed op t elftal. kun je net zo goed 7 mil voor larsson betalen, al is het een lul
veel beter gaat worden
wel internationals van de kampioen van nederland. niet een back die met 71 van lyon verloor. en va…
6 miljoen voor een linksback...
je zou maar tonnen per jaar verdienen en dan zielig doen over het maken van een elftalfoto
vandaag sws niet. st juste is nog in heerenveen, heeft net elftalfoto gemaakt
schandalig, is gewoon werkweigering
dit plaatje ziet eruit als een cover van een drake album 😭
morgen naar de wedstrijd?
alweer?
de fans in portugal praten trouwens net zo over zeegelaar als wij over nelom praten....
zeegelaar blijkt dus de nelom van portugal te zijn
ohnee klopt laat maar, maakte een foutje haha
of als je minder vaak ziek zwak, misselijk bent, ben je eerder geneigd over te werken
enkele honderden euros
best in staat een fatsoenlijk bev. systeem neer te zetten
is al fiscaal aftrekbaar, alleen denk ik dat mensen het zelf toch een te hoge investering vinden. een…
commercieel vs overheid he
investeerders zijn dus relatief goedkoop eerder afgekocht?
nou ben benieuwd haha
hahah wel raar want enige bronnen die ik kan vinden zeggen dat vilhena, boetius 1e termijn, kongolo ook in zo een pool zateb
bron? kun je beter rest vd selectie er wel in hebben, want nelom levert het meest op
dat kongolo nog in een talentpool zat, verklaart wel waarom ze hem haast wel weg moesten doen
weet je wat ook ideaal is in rotterdam? dat je gewoon je huisraad uit het raam kan pleuren
rutten probeerde vilhena en schaken ook als backs... heeft gewoon 1x het geluk gehad met karsdorp dat het wel werkte
houd wel van iemand zoals elia die gewoon eerlijk is en er niet omheen draait 👍
14mil valt tegen met alle bedragen die de afgelopen tijd genoemd zijn
vind diks een matige back. al heb ik hem maar 3x een volle wedstrijd zien spelen
saoudiarabië is bezig met een heel mooi project
krijgt het salaris wat hij nu heeft, waarschijnlijk nergens meer he
ben benieuwd op welke soeras je doelt dan?
begrijp je punt, maar dan is het natuurlijk wel de vraag in hoeverre zij hun inspiratie uit de koran kunnen halen
mag plegen op basis vd koran.
achterlijk geweld van partijen als is. je mag daar niet eens in conventionele kleding kome…
dat neemt niet weg dat het voor 99,9% die zich moslim noemen een heilige plaats is. en dat…
that awkward moment dat je iemand om 1 uur s nachts via snapchatlocatie in essen ziet 😂
even serieus, hoe kun je je beroepen op de koran en dan een aanslag willen plegen in mekka of all places 🙂?
terroristen opgepakt die aanslag op grote moskee in mekka wilden plegen
de knvb is 1 grote poppenkast
vind diks maar een matige back
en het dan nog aankondigen alsof het groot nieuws is
zouden ze bij vi denken dat niemand de telegraaf leest? komen met een update die vanochtend al in de telegraaf stond
wat een update zeg.... stond vanochtend al in de telegraaf
boetius ipv elia ga je er in ieder geval dik op achteruit
prijzen zijn natuurlijk lucht ingeschoten. wolfsburg betaalde 12m voor bankzitter bazoer, die nog m…
word een beetje droevig van al die reacties bij op facebook over aanslag op moskeebezoekers
419.000 kijkers. en dan te bedenken dat ik em nog moet kijken 😜
volgend seizoen vermeer, boilesen, baco, denswil, van rhijn, anita, vejinovic, vd vaart, babel, hoesen, kishna
scriptie is zeker pittig, thanks!
als hij komt, krijgt hij sowieso mijn steun. ik verwacht er alleen niet veel van.
als hij het daar zo goed had gedaan, had genk hem wel overgenomen
4 goals en 4 assists in 21 wedstrijden, waarvan slechts 1 assist beslissend was.
ook bij genk mislukt...
haha dan ben je wel zo eerlijk
voor mensen die zich afvragen waar de massaprotesten tegen is uit de moslimwereld blijven
ik moet die nieuwe 2pac film zsm zien. ik hoor helaas wel slechte verhalen erover 😭
spijker. kop.
je was zelf niet bij de onderhandelingen, dus kun je ook niet precies weten hoe en waarom het stukgelopen is.
waarom dat gezeik op jesse klaver? hij heeft het volste recht om niet akkoord te gaan.
wat is er de laatste dagen aan de hand met 4g? moet steeds op 3g gaan anders is internet sloom of doet het niet
vond ghaly nog niet zo heel slecht
moet ik nog wat zeggen op die laatste retweet 🤣
zo zo, wat erg zeg
wanneer was je in antalya? zomer schijnt het wel volgeboekt te zijn?
van kijkende
wie wilt dit even vertalen?
voel me net jezus als ik mijn hele studiefinanciering in bier verander
het is maar luxemburg. als je daar niet van kan winnen, kun je het nl elftal beter meteen opdoeken
schrok even haha
en dan tegen netten aankijken haha
als ze maar niet weer de halve kuip leeglaten. sta ja zo voorschut voor t oog van heel europa...
seizoenkaarten destijds 25% duurder maken, maar dan krijg je wel een europese wedstrijd er…
moet je dat bordje nou wel of niet ophouden? bij mij is het niet gebeurd..
is de eerste europese thuiswedstrijd inbegrepen bij seizoenkaart?
kan nog gemakkelijker naar beelden kijken van kickboxers die hun benen breken
een naam als history channel hebben en dan bijna alleen maar een programma uitzenden waar een paar dikzakken op elkaars schuur bieden...
waarom moet op elke zender een soort storage hunters zijn? zijn er serieus mensen die dat kijken?
patriots day gezien, mooie film 👌
waarom weer miljoenen investeren in spelers zonder restwaarde? selectie is al oud.
doet als je het bv vergelijkt met amerika
dat is natuurlijk altijd zo geweest en zal ook altijd zo blijven. je kunt het een beetje proberen te nive…
haha, nee ik heb echt zware moeite om een aflevering af te kijken. oninteressante characters en degenen d…
fear the walking dead is echt op weg om een zware mislulking te worden
genieten vandaag. meerdere toppers op de planning 😍
idd. er gaan daar honderden mensen per jaar dood door onfatsoenlijke werkomstandigheden, terwijl ze zwemmen in het geld...
je kunt er altijd met peter r de vries over praten
de melodie van het nederlands volkslied blijft mooi. jammer dat de tekst zo kut is...
terrorisme gebruiken om klimaatproblemen te bagatelliseren.. ben ik de enige die de link niet ziet?
jaltahoofdredacteur is klaar met paranoïde samenzweringsverhalenen en idiote racistische theorieën via
ja.. hij kreeg een taakstraf en 2 maanden, die hij al in voorarrest had gezeten. mag hopen…
onlangs is opgepakt
bij die gozer van feyenoord bv die opeens niet meer kwam, zeiden wij al jaren kans is groot…
zijn
ook investeren in de beruchte wijken. heb in mijn omgeving ook gemerkt dat je aan sommige…
london .... 💔 bizar is dat je er eigenlijk niet eens meer van schrikt...
wat heeft dat ermee te maken? mag je daarom niet meer kritisch zijn op trump?
staan ergens ook de aantallen die verkocht zijn?
hebben we aboutaleb, de demagoog met een identiteitscrisis weer.
1800 km gereisd voor de thuiswedstrijden. zal wel wat meer zijn, met al die omwegen en zijpaden haha.
kan wel uren luisteren naar neil degrasse tyson
wat een mooi mens die van hanegem
het is het jaar 2042 guidetti mogelijk naar feyenoord
himmlers hersenen heten heydrich is het volgende boek. ben benieuwd...
we moeten nu niet weer de fout maken om miljoenen uit te geven voor spelers zonder restwaarde
ik begrijp dat hele wielrennen ook niet haha
lekker fc utrecht! 💪
gecondoleerd. sterkte...❤
ben nog niet heel erg overtuigd van wat ik heb gezien, om eerlijk te zijn.
utrecht gaat amrabat zo te zien ook niet missen
van het hele jaar een grote bek naar genoegen nemen op de bank met je plek.
houd op hoor 😅 alsof moslims niet in elk medium terroristen genoemd worden 😂
heb jij ooit iets geschreven over jullie zoektocht naar karadzic? ben op zoek naar het verhaal.
raak bijna depressief na weer uitlezen van het zijn net mensen van
wel een mooi eerbetoon aan manchester
wat een poppenkast ook om die fa cup finale heen
weekend! nu pauw kijken.
met elia en berghuis weg, heb je echt helemaal geen creativiteit meer
wat een heerlijke finale
het zijn net mensen van joris luyendijk weer aan het lezen. blijft relevant en een heel goed boek.
😔😔 r.i.p
hey isis, even stoppen he. dit zal wel werken...
de prijs van een rechtstaat? leef nog steeds liever hier dan daar, maar er moet ook een m…
van amrabat nog niet onder de indruk, van larsson helemaal niet
ja, maar kuyt kan wel energie inleggen op 10, ook verdedigend... van persie is te nonchalan…
waar moet van persie spelen dan?
er komt binnenkort een niewe serie young sheldon over hem toen hij 9 was haha
nog 7 uurtjes werken en dan eindelijk weekend. 12 urige dienst vandaag 👌
gun die jongen gewoon om te cashen. kampioenschap mede mogelijk gemaakt door hem
larsson is net zo wisselvallig en moet je wss de hoofdprijs voor betalen
link doet het niet
02, de kleinste man van het veld kopt em erin
01 amrabat. mooie goal. zijn eerste goal voor utrecht dit.
en ben weer thuis. even studio sport, studio voetbal, voetbal inside en alle mogelijke filmpjes op youtube bekijken.
van alle goede zangers en zangeressen uit kroatië komen ze bij deze lul....
wekker staat klaar, maar sluit niet uit dat ik van de zenuwen wakker blijf tot dan...
dit wordt een lange nacht...
wat een spanning
mijn speler van het jaar bij voetbal inside is karim el ahmadi via
kijk de reacties op deze tweet eens... allemaal positief
kan wel janken 😓
vak wanneer stoppen we hiermee 😄
zoop en blowde ook alleen maar altijd, heel apart idd. al kan ik niet zeggen dat ik het niet aan zag komen, maar blijft bizar
ken jij die iranees van vak w nog?
wauw, met deze jongen ben ik jaar of 7 geleden nog naar wedstrijden geweest. bizar.
gudde moet blijven!!
punt 7 alsjeblieft niet... business units langs het veld...
hoe kon barcelona alves ooit laten gaan 😅
nog 5 dagen wachten.. schrok vandaag al een paar x wakker van nachtmerries
wie heeft kaartjes nodig voor stadhuisplein? 2 kaartjes voor 1000 euro 😛
kan ik even 7 dagen overslaan pfff
brandweer en politie probeert man uit lichtmast te krijgen
hahahha iemand is de lichtmast ingeklommen 😂😂
ondertussen op station edewageningen
rip voor onze helden
elia over tramsurfen in de volkskrant 😂
vond mijn antwoord toch beter
we bekijken de opties, maar we sluiten het niet uit!
voortaan kunnen jullie met vragen aan vraagfeyenoord ook bij mij terecht. is nog niet bekend. nog ff afwachten. dat is zeker een optie
voor mij willem van hanegem
wordt de wedstrijd zelf ook uitgezonden op varkenoord?
psv kwam vorig jaar ook vanuit zwolle met de bus