we hadden liever meer gehad lex.. maar een terecht verdiend punt.. en we lopen allebei in op....
en we lopen weer un puntsje in..
en daar hoorden ze engelen lachen... oh nee ze zijn stil!
en we weten wéér hoe het voelt om door het leven te gaan als feyenoorder!!
yesssss... en nu door!!!
de beste man vh veld word gewisseld..
zeldzaam! zo er verdedigd wordt de laatste weken! waar zijn de mannen als en gebleven?!
knappe aanval hoor.. maar waarom altijd voetballend uitverdedigen?! 1
nijhuis laat zich in de luren leggen door zijn eigen assistent!
tonny vilhena solliciteert weer opmerkelijk veel naar een transfer als postbode bij
met groep 7&amp8 van de naar rijksmuseum in amsterdam.
fluit maar af! snel naar huis en ons richten op de competitie en de beker!
ik zie een nieuwe ster voor gtst ..
en zo klonk de 11 en de 21 thuis op de bank..
nou nou.. amrabat?! oke, nu wij weer!!! 21
tjongejonge... ik was nog aan het juichen!!! en we zijn weer terug bij af! 11
we missen de hele verdediging tov vorig seizoen.. maar goed die hoeven geen doelpunten te maken! triest!!!!
blom laat nu wel weer heel nadrukkelijk zien dat hij niks met feyenoord heeft!!
dat zal diks dan iig niet meemaken..
wat is nieuw..? diks en duels gaan niet samen!
heerlijke aanval hansson en larsson.. sammmmie maakt zijn derde!!
ja daar is kramer met de 31.. rijp voor een publiekswissel!
kan iemand tegen kramer zeggen dat we al begonnen zijn?! man o man wat een desinteresse!!
sammmmie kijk omhoog sammie!! verreweg de beste van dit feyenoord!! 20
kramertje .. wat doe je nu jongen?!
en zo is je wedstrijd in de kuip na 12 minuten alweer afgelopen..
lekkere goal van sam larsson... !!
in de onze aanmoedigen tegen noorwegen
je moet je schamen!!! verliezen.. ? oké! maar de manier waarop..
verdomme wat staan we heerlijk te verdedigen.. 12
hahaha.. ja net als deze..
adviseer jou met nieuw nieuws te komen en niet me plaatjes van jaren terug.. onruststoker!!
19.08uur niets is sterker dan dat ene woord! !! nog twee nachtjes ..
het bombardement in rotterdam staat hier toch los van..? alsof die gasten die…
hahaha die zal het druk krijgen...
lekker blijven ruien erik! pak het probleem bij de bron aan.., zorg er voor dat de ajaciede…
om vervolgens bij ajax te gaan verbieden de supporters zichzelf joden te la…
nee, jouw opmerking getuigd van enige intelligentie..
jammer! maar een goed gezien.. nu op naar zondag!
en zo sta je weer met beide benen op de grond..
zaterdag ook even naar sneek? vs je bent van harte welkom bij ons in de bc neem en kids maar mee
mijn speler van de week bij voetbal inside is sven van beek via
tranen! wat een fantastische documentaire! dirk bedankt!!
we zitten er klaar voor.. de docu van ....
heee dat is een bewuste handsbal! dus gewoon geel.. ook al is het dan zijn tweede!
zou dit onder vrije meningsuiting horen?! wat een zielige personen zeg!
belachelijk! hebben ze de tikken en ellebogen van huntelaar ook ff bestudeerd?!
leuk zeg! misschien een keer als gast trainster bij de meiden van ons sneek mo131 ??!
gözübüyük lijkt aardig op weg om ajax naar een overwinning te helpen!
yeeeaaah dat is nummer vier! heerlijke pass van berghuis en tony vilhena tikt binnen!
blijf zitten of loop weg voor de kampioen!!
lekkkerrrrrrr kadootje! en nog mooier uitgepakt door berghuis!! 03
jaaaaaaa wat een goal!!! lekkkerrrrrrr 02
booooemm!!! vilhena maakt de goal van berghuis definitief!
of was het een fout van jones? hij moet toch nu wel weten dat diks alle ballen terugspeelt op hem?!
en wéér diks.. zet die gast terug op de trein naar fiorentina!
nou in ieder geval iets langer de nul gehouden dan tegen manchester city..
de ligt verlaat in de 34e minuut het veld.. volgende week weer klappen in de 34e minuut?
toch fijn dat henk fräser zijn mannen mijn weekend nog een beetje dragelijk weten te maken...
late we hopuh dat der fannemiddach meer last van hèw...
och hearefean hewt dan nog wonnen.. hest toch nog un bitsje een feestgevoél..
hou maar op.. gelukkig wist óns dochter nog wel te winnen op urk..
vlissingen? bedoelst zeker scheveningen... ?!
kom op gio haal die diks uit zijn lijden... hij bakt er echt niks van!!
eens een feyenoorder.. altijd een feyenoorder! god bless christian gyan...
dat is toch duidelijk die van onze curty gonzalez
dit veld was lachwekkend doe hier wat aan! we zijn als 15e club van nederland het lachertje geworden!
leuke pyroactie bij quickboys....
vogels op nieuw postzegelvel meren post
ja en minimaal één penalty voor feyenoord en twee gele kaarten extra voor psv ... of heb…
ondanks de nederlaag tegen een laf psv lees kuipers staan we nog steeds bovenaan!!
hij mist wel meer vanmiddag!
video scheidsrechter momentje.. diks wordt vastgehouden in de zestien!
en na het vasthouden van diks... kuipers moet gewoon op cursus!
hou toch op man.. die overtreding op haps gemist zeker?!!
kuipers... waar ben jij mee bezig? ik heb meer gele kaarten gezien hoor!! dat moet onze beste scheidsrechter zijn.. ??!
klopt henk.. we hèw nog bijna anderhalf uur..
tjongejonge... gaan we weer hoor!!
tactische haarwissel van !
jammer voor mijn toto maar lekkere uitslag hoor in den haag!!
ze passen zich moeiteloos aan aan hun gasten op het veld..
wie geeft die onana zo ff een vette trap na..?! wat een stakker zeg..
waaahhh wat een slechte schwalbe...!! terecht geel!
geniet er van en dan maar snel naar bed.. 👃
zouden die lachende neusjes wel weten dat ze zelf geen eens europees voetballen?!
voetballes op het veld.. en daar omheen beginnen we ook al op te vallen door stil te zijn!!
wel opletten schaper.. manchester city heeft ook al een kaart...
kom maar gio.. haal kramer uit zijn lijden! toornstra in de spits
nou jongens.. klaar met dromen?! nu voetballen!!
nee nee makkelie.. eerste helft niet geven?! dan was dit ook niks..!!
gefeliciteerd richard! maak er een leuke dag van!
het is tijd om het cda en de christenunie te herinneren aan hun eigen woorden.
gefeliciteerd met je verjaardag ! maak er nog een leuke dag van!
lekker op het strand, eindelijk ff tijd voor de nieuwe hand in hand
mijn speler van de week bij voetbal inside is kevin diks via
do mist niks juh.. verstappen leit der alweer uut
in de kantine van camping ...
goed verhaal joan! laat ons nu maar eens serieus nemen!
hij heeft niks gemist hoor!
en dat was het dan! helemaal niks in amsterdam!
groep h dan maar..
doe dan nu groep h maar!
zo loting ik ga voor bayern, barcelona, tottenham en feyenoord..
de beste man wordt met de dag senieler!
hee streppel het wordt tijd voor ..!!
dat zeiden we ook over elia.. heeft het toch knap gedaan onder gio.. maar hij zal eerst jp nog uit de basis moeten…
nou moet de toch in aktie komen? topvoetbal in de gemeente op beton kan niet langer!
zo.. dat was de sneekweek! morgen weer naar de camping .. half drie voetbal kijken.. feyenoord twente , wat heeft de rest gedaan vandaag?
vanavond gaan we helemaal los met in de
19.08uur niets is sterker dan dat ene woord! feyenoord
bij tegenslag lopen jullie weg..
kijk danny, zo wordt je europees kampioen!!
yes! en pakken de eerste prijs vh seizoen!
bij ajax heeft zich na gisteravond gemeld als sponsor.. er is geen club die zo fanatiek klapt voor ons zei één woordvoerder
succes in fryslan..
werken bij heeft zo zijn voordelen! anders pas morgen in de bus.. nu al op mijn bureau!
bedankt voor de reactie! melding via de website gedaan.
zou haar tweets wel lezen? caravan staat inmiddels vijfzes weken in de straat ipv max. twee dagen!
keurig jp...
doen jullie nog iets aan de caravan in de wassenberghstraat? staat er nu al 4 weken..
hé dirk , gefeliciteerd met je verjaardag! heb een gezellige dag met familie &amp vrienden!
kun je niet gewoon echt gras zaaien..?!
rust 10.. knappe pingel fan ónse .. sien of su nou de tweede helt wat meer de kánsen benutte!
rotterdam... vandaag 109 jaar geworden, gefeliciteerd!!
marco bedankt! heel veel succes in alkmaar!!
meer dan twee weken inmiddels!!
wil waarschijnlijk straks € 500, smartegeld omdat hij niet op de foto staat..
1/2 blijft toch een mooi verhaal.. die teleurstelling .. zit hier ook weer met tranen in mijn ogen! wij houden van de club!
nog maar eens de kampioenseditie van hand en hand gelezen.. vreemd maar verhaal van jeroen, uitwedstrijd tegen excelsior 1/1
ja hoor, het is weer vakantie periode! de buren kamperen alweer meer dan n week in de straat! kan een rondje 8602bh doen?!
dit gun je niemand!
19.08uur niet is sterker dan dat ene woord!
hoe bedoel je..? ik zie niets, jij staat er voor...
zitten er hier in sneek genoeg ..
wat te doen als er geen voetbal is? inderdaad middagje youtube feyenoord 20162017 wat een heerlijke beelden!
bedankt voor de afgelopen jaren en de prijzen! het gaat je goed bij je nieuwe avontuur!
is het voetbal ook ergens te zien met ander commentaar? man o man.. alsof alleen sneijder meedoet!
nu niet nodig... de kuip zal wél uitverkocht zijn!
klaar voor de terugvaart naar nederland..
als ik een klacht indien wordt er dan ook wat mee gedaan? het pakket is nl inmiddels afgeleverd..
wat is het nut van zon briefje in de bus als het niet ingevuld wordt?! luie bezorgers bij
wat is het nut van zon briefje als er niks ingevuld wordt..? luie bezorgers daar bij
isis is superblij met haar nieuwe hoodie van
ja? vertel.. hoe is dat afgelopen?
wat was er 24 mei dan?
19.08uur wij zijn feyenoord, wij zijn kampioen!
wat is een kampioenschap zonder de vijver op hofplein?!
ajax speelde bewust niet met rouwbanden.. ze gunden manchester united de overwinning!
jij.., krijgt die lach niet van mijn gezicht...
ik denk dat sjaak swart wil dat manchester united gaat degraderen..
lange files rondom de hoofdstad... het plein loopt leeg! en laat je club maar in de steek...
ach dit doelpunt maakt een hoop goed.. hahahahaha
hahaha tweet gelijk verwijderd..
bedoel je niet twee bewuste struikel partijen..
ik denk 231... maar euh, volgende keer voordeliger verzenden via
lekker potje hoor.. vs 107... mighty mike naar de finale.. !!
19.08uur feyenoord rotterdam dirk bedankt!
19.08uur wij zijn feyenoord, wij zijn kampioen!
19.08uur wij zijn kampioen!
wij zijn feyenoord, wij staan bovenaan! 34 weken lang!!!
zo zie je maar toen al kuipvrees.. en nog steeds!!
kijk de me is allemaal voor zelfs hunie uit friesland en drenthe!
jullie ook!! niets is sterker dan dat ene woord!
voelt als een natte droom!
ben weer onderweg... helaas niet in de kuip.. maar we vinden wel een plekje!
tip voor aboutaleb.. laat de me onzichtbaar voor supporters scheelt een hoop agressie!
moge rotterdam! vandaag gaat het gebeuren! laten we er een onvergetelijke dag van maken!
gefeliciteerd! en veel geluk &amp liefde samen..!!
dan dus een mooi plekkie in rome zoeken.. hebben ze ook mooie fonteinen.. succes en doe kiki de groeten!
hey jammer dat verloren heeft! maar elk nadeel heb zijn voordeel... zondag weer thuis voor de wedstrijd!
even rondje marktplaats.. overal ff flink bieden op die naaiers die geld willen verdienen aan hun eigen supporters!
om sportief gedrag vragen en zelf vet verdienen aan zijn seizoenkaart! seizoenkaartplek vak c
sorry mam! ben er helaas niet bij volgende week. kan dan kampioen worden!
verdomme man.. dit is toch niet te geloven?!
mooie overwinning voor !! nu !!
lekkkerrrrrrr.. nu al zin in de sneekweek! in de !! maar eerst morgen in rotterdam!!…
wij kijken de wedstrijd bij thuisch in kralingen... eerst ff naar woudestein en dan naar thuisch.. en d…
19.08uur nog drie nachtjes! niets is sterker dan dat ene woord!
wie won er de laatste europese prijs ook alweer??
19.08uur nog vier nachtjes
dat is leuk! als we zondag kampioen worden reikt de schaal uit!
dan durf je wel te vragen! wat een nsber! kaarten scherm excelsior feyenoord
zijn er nog echte kameraden die niet naar de kuip gaan en hun plekkie gewoon zonder winst willen afstaan? graag pb !!
mensen die op woudestein zitten kunnen naar binnen.. ben je daar…
19.08uur nog zes nachtjes!
lekker slim.. en dan afsluiten terwijl ze het niet hebben? hoe bedoel je we gaan weer ff wat agressie kweke…
ome gerard meijer..., sterkte en snel beter worden! over 1011 dagen moet u wel mee naar de coolsingel! sterker door strijd!
zal wel een ajax dekentje zijn over het feyenoord dekbed van tineke 😂😂
slaapplaatsen geregeld.. 6 en 7 mei naar rotterdam! hét kampioenschap vieren!
ik heb getekend voor huldiging op zondagmiddag!
ja.. maar niet vanwege natrappen.. en dat werd per ongeluk bij één keer getoond en verder nergens!!
nee hoor.. ook de vergeet de natrappende beweging van kluivert te laten zien... man man wat een stel pannenkoeken!!
zou de aanklager het natrappen van kluivert wél gezien hebben? blom zag het nl niet!!
hahaha wat een stumpert!!!
schandalig optreden van ajax, die zijn zeker al bezig met hun halve finale tegen lyon?!
booooemm!!! oké de wedstrijd is nog lang niet afgelopen maar voorlopig gaat het lekker zo! 10
denk dat sjaak swart nu hoopt dat vitesse degradeert!
niets is sterker dan dat ene woord! feyenoord!! komen wij uit rotterdam? ken je dat niet horen dan..?!
voorlopig lekker op schema.. vitesse doet niks en kan niks!!
fijn dat vanavond de plek in wilde nemen van in de finale the voice kids
gptv stopt ermee... een engelse betaalzender voor mannen neemt hun naam en frequentie over!
run marit run... dit wordt niks met riks!!
dat riepen ze vorig seizoen ook...
wij ook...
wij zijn feyenoord, wij staan bovenaan!!
wie nog geen lid is van moet dat toch ech worden na vandaag!!
hopppaaaaaa... ik juich net snel bij een een doelpunt van maar deze is wel lekker hoor..
haha wat loopt het toch lekker door de kantine.. wij gaan op ons gemak kijken wat gaat doen!
yes!! weer een wedstrijd dichter bij de coolsingel...
tien feyenoorders in gouden elftal via
je bent postbode bij en mag dit rondbrengen. vroeger had je een folderwijkje..
die is ook een nepajacied.. speelt zijn club thuis tegen schalke04 zit ie bij humberto
lola knuffelt de schaapjes, als dat geen liefde is?!
geweldige uitvoering van in neie dei door
mijn speler van de week bij voetbal inside is steven berghuis via
komt wel henk..
booooemm... berghuis brengt feyenoord terug in de wedstrijd! 21
tuurlijk... nou kom op !!
je zal het toch winnen?!
wat een baas!!
benieuwd wat voor helikopter er morgen in de kuip landt volgens 80
booooemm 80 en jens neemt de bal mee!
en we gaan gewoon verder hoor... pikt ook zijn doelpunt mee!! 60
en we zitten op de helft hoor... jan scharie zet de 50 op het bord vlak voor rust...
en dat is nr drie... 30
jeeeeenns op aangeven van berghuis!!! 10
moest ook niet gekker worden!!
19.08uur wij zijn feyenoord en wij staan bovenaan! niets is sterker dan dat ene woord! feyenoord!!
wij zijn wij zijn staan bovenaan!!!
nou stuur mij dan maar dat boek als troost...
zou kuipers wel in het voordeel van feyenoord durven fluiten?! wat een lamlul..!!
dat broertje van peter wright staat wel lekker te ballen..
waarom krijgt die teringlijer van een klaassen nu geen geel?! kuipers staat er bovenop!
2e helt komt deran henk.. hewst twee weken leden ok wel sien toch!?
man o man... wil je nou kampioen worden of niet?! nu wij!!
kluivert schiet bewust naast.. want papa had 20 voorspeld
dat heb niemand voorspelt
tering... en nu maar lekker naast jullie schoentjes lopen!!
wat een prachtige sfeeractie in amsterdam... helemaal niks, helemaal niks in amsterdam!
patrick, je hebt nog vijf minuten om in te zetten!
nou dat geeft hoop...
wat gaan we doen vandaag?
overduidelijk coen moulijn !! stem elke week op jouw favoriete speler uit 60 jaar
19.08uur sterker door strijd
kampioensvlag voor impact colorguards
maar goed dat het andere oranje het vandaag wel goed gedaan heeft!! 51 winst tegen
weer thuis van een heerlijk middagje ... nu even kijken hoe het andere staat... pfff niet te geloven 20 achter
zeg, aanklager heb je die slaande beweging van klaassen nog waargenomen? toch minimaal 3 wedstrijden + 1 voorwaardelijk!
jij krijgt die lach niet van mijn gezicht! dat zou je wel willen....
mijn speler van de week bij voetbal inside is tonny vilhena via
weer thuis van een super feestje in heerenveen vanmiddag! iemand een idee wat gedaan heeft tegen ?
en..? ik su genoaten? ikke wel.in ieder gefal..
tja.. die zat er goed in!
zo naar heerenveen... zien of we weer een stapje verder kunnen maken! come on laat ons juichen!
1/8 ste finale in amsterdam..
pijltje gooien in rotterdam... nog voller dan
komt helemaal goed...
tja je heb reisjes en reisjes.. wij nu vanuit sneek naar rotterdam!
krijgt nog één kans om nu alle nederlanders hun beloofde €1000, te schenken! zien of dat nu eindelijk wel waar kan maken!
ik heb mijn keuze bevestigd!
mijn speler van de week bij voetbal inside is nicolai jørgensen via
woensdag stemmen... ik wist al al wie maar nu in elk geval ook wie niet! deur aan deur doe je niet op zondag!!…
onnodige tweede tegentreffer!! maar gewoon weer drie punten hoor!
nicolaaaaaai zijn derde van de middag!! 51
zo die staan daar ff lekker te dekken.. 31
en daar is dirrrrrk 30
na al die kritiek van afgelopen week speelt voorlopig een lekkere pot!
hopppaaaaaa.... in de 12e minuut! scoort 10
en wij moeten ons druk maken om heerenveen uit.??!
19.08uur feyenoord niets is sterker dan dat ene woord!
feyenoord moet gewoon nu alle spelers die opgeroepen worden voor vertegenwoordigde teams terug roepen! laat ze in de stront zakken daa
kansloos, kinderachtig gedrag van aanklager alle betrokkenen zijn van mening dat er geen opzet in het spel was!
wat zegt aanklager hier dan van..??!
schikkingsvoorstel vilhena, 3 wedstrijden schorsing! wanneer buigt aanklager zich over het gemaakte doelpunt?
zo maar eens ff studio sport kijken... wel benieuwd naar wat de rest er van vond...#spafey
en...?? pannenkoeken waar zijn nu de whatsappjes..??!
tjongejonge... zijn we nog niet wakker??!
bij sparta zijn ze nog niet gewend in de eredivisie te voetballen..
matchday! onderweg naar rotterdam voor de stadsderby sparta feyenoord
ik stem elke week op een feyenoord speler uit 60 jaar deze week willem van hanegem!
karim is baasis van onze club en hij verlengd contract! goed bezig.. karim, feyenoord en alle kameraden gefeliciteerd!
dat is toch doelpunt nr één...
bas nijhuis zag het duidelijk op zijn horloge! 21
psv doet niet meer mee... helaas doet ajax gewoon wat het moet doen tegen heracles.. maar toch een heerlijke middag hoor!!
hahaha zeggen zij... jankerd!
nee.. wij hadden de scheids mee en zoet drukte de bal niet zelf over de lijn.. actie willems op jørgensen niet gezi…
huilebalk! had ook andersom kunnen zijn!
en nu ...?
lekkkerrrrrrr zet heracles weer op 11
jij ook! proost.. wij zijn feyenoord, wij staan bovenaan!
zo is het patrick! ken wel janken.. nee heb zitten janken!
ik doe mee met een extra biertje!
wat een huilebalk die ...
yesssss wij zijn feyenoord!!!
jaaaaaaa.... jan arieeee... leve de doellijn technologie!
siem alias jo de jong komt er in bij psv.. nog twintig minuten!
kom op nu wij weer!!! wij zijn feyenoord wij staan bovenaan!!
oké eerlijk is eerlijk mooie goal..
hahaha die paar minuten? jones heb het niet moeilijk gehad!