het is vrij ongezellig in de kantine van 😄😂👌🏻🍺#hazes
valt net in de bus 😄
ik verzuip in de folders dat dan weer wel. de plaatselijke weekbladen zijn spoorloos 🤔
dat moet onder vier ogen, met een ouderwetse baco stel ik voor 😄
wel heerlijk volle bak in een uitvak 👌🏻😄💪🏻
ik heb het lek ook ontdekt 😂
iedereen word ziek van eikels en eikelines.
van harte gefeliciteerd 🎈🎈
heb kunstgras 😄
de aannemer die de langewiep/monnikenhoef maait word die half betaalt of levert hij halfwerk 🤔
heerlijk toilet met die lamp er recht op.
😛 de drie punten maar eens bijschrijven deze week, het was een belabberde voetbalweek 🙈 😄
sinds een paar minuten 😉😄
dat snap ik kees 😄
dat ziet er perfect uit 👌🏻
afijn ik kom graag eens met je in gesprek
daar komt hij weer voorbij die berry 🤔😄
kunstgras voor de amateurs is een uitstekende oplossing, mits top kwaliteit en sproei installatie
dan blijkt het een zeer dure aangelegenheid te worden voor gemeentes en worden de verhoudingen overal beter.
er is een hele simpele oplossing. moet echt alle kunstgras velden keuren ook bij 6
daar ligt ook een deel van het probleem@
te kort door de bocht. kunstgras in stadions is geboren door capaciteit tekort aan trainingsvelden
alweer ..?l
ging er vanuit dat het een bekende van je was. verder ben ik in deze mening loos, geen…
word lastig voor jou hansie,ouwe shagbuil 😄
mannen kunnen ook oprecht bezorgt zijn dames 😉
die worden allebei niet beter op deze manier, wat een trainer 🙈
gearriveerd, en nu rust in de tent 😄✌🏻
gelukkig heb ik het juiste materiaal bij me na 240 km fietsen 😂
daar ga ik ook heen naar opende.... mag hopen dat je dan alweer naar thuis ben 😂😂
naar de gemeente tilburg.
weekend .... morgen nog even verder met de
hij staat er echt fantastisch bij, 24/7 in de huiskamer 👌🏻✌🏻
hahaha. marijn, laat hem lekker de hik@of zo krijgen
ik zie je wel verschijnen dan 😄😎🌞
heb je ook supporters aanbiedingen 😪
nu nog de dijken van het waterschap zelf ook even controleren aub
en zo kunnen zulke lieden ongemerkt hun gang blijven gaan ...🤔
nu nog overal en gelijktijdig maaien, dat zou best fijn zijn 😄
de tijd zal het leren. het was een prima interview 😉
goed voorbeeld doet meestal goed volgen. 👌🏻👍🏻@fclienden
is ondertussen de bus al uit denk ik.
idd. ongelooflijk.
prima voetbaldag vandaag.
uitstekende vergelijking 👍🏻
dat gaat een keer mis. we zullen zien zaterdag.
dat slachten van je
😂😂😂😂😂
ik breng de avond trouwens wel door in een ajax huishouden ✌🏻
ook ik ben het met je eens.
dat kunnen we zien 😄
een heerlijk ontbijt na een fantastische vrijgezellen party 👌🏻✌🏻 het lijkt me een prachtige start voor een heerlijk…
perfect geregeld 👌🏻
ik ben gezegend met mn buren en rust in mn tuin. lucky me.
ik zou starten met die 2 goals 😉
idd vrouwen fietsen ook, heel veel vrouwen zag ik zaterdag bij
ik heb die nare koffieautomaat vanmorgen maar overgeslagen, nu een dubbele dosis 😄
volgende week ziet de glazen bol er perfect uit 😄
wie gaat er wat aan doen... niemand die er toe doet op voetbalgebied.
een zwart gat johan....😄
en een paar verdwaalde feyenoorders of niet 👌🏻😄
✌🏻
misschien zit er supporter op het kantoor bij facebook kees ?
bijzonder clubjedie vereniging van ons. ik ben er ook heel bijzonder trots op 💪🏻✌🏻⚽️
zijn we wakker ...!!!!
lekker belangrijk. ...
eerst maar eens drie punten bij zien te schrijven ...🤔
het word een zeer ontspannen bowling partij vanmiddag
hoop doet leven 😄
dat is dan niet meer belangrijk...
dat heb ik de gaten ja 😄
jij zit daar ook prima in die lounge ....🤔
sla je slag kees ...
onverwoestbaar
van harte gefeliciteerd 👌🏻⚽️
gelukkig woon je niet in
of die van mij aan jou mark ....😄😂
je kan zo bij de blokker gaan werken kees.
niet zo piepen mark. woensdag gewoon gas geven.
geen woorden maar daden. gas geven.
de slag verloren. niets aan de hand woensdag volgas voor de drie punten en aftellen. 💪🏻🤝
ik denk dat 1 april uit voert 😉😂.
gaan ze nu die bever afschieten !?
we zetten de sproei installatie wel aan gerrit.
heeft maling aan de amateurs.
🤔 herkenbaar.
vergeet veendam niet.
en spelen in werkendam 😉😄
kunstgras en een kunstige vrouw 😃
of je het nu wel of niet aan elkaar linkt, een stelletje paardenlullen zijn het wel. ✌🏻
we kunnen het misschien ook van de andere kant laten zien 😬
wie heeft die tenues verzonnen van az
het is idd vrij karig 😄
eten in de zon 😄😎👌🏻
was je te luidruchtig ?
een goed paard is nog geen goede ruiter, of andersom 🤔
dan zit men denk ik wel erg in de problemen.....
zo juist ingeschreven voor de toertocht van 110 km.... 😎✌🏻🚴‍♀️🙈
vanavond op groot scherm azcambuur
uit de oude doos
ik denk een beetje als de graafschapajax 😉
niet te snel wedden kees je verliest ze nogal eens... en van mij 😄
o zover was ik nog niet
ik vond het wel passen bij je column.
even voor de azijn mensen al een paar bekeken 😬
haha idd, bier leren drinken is daar aardig gelukt 🤔😎✌🏻
hoppa pomp er maar gemeenschapsgeld in 🤔😬
laten we alle voorzitters van de divisies maar een rond bed geven zodat ze ook snachts dwars kunnen liggen
de derde helft is uiteraard altijd welkom, en die was 👌🏻 het voetbal was om te smullen
ik denk dat we al richting fase drie gaan 😉🤔
gelukkig weet jij daar precies alles van ......
ff regelen hansie
ergens aan de boorden van ...
prima pot. iets met een vier ....😬
waar zouden we zijn zonder de hans.
en mijn compagnon bij het g voetbal dus het zit wel gebeiteld 😉😄
dat doen we bij al jaren maatschappelijke sponsoring 3.0
samenvattingkeepers lijkt me ook wel wat .....😉😄
dat is idd een uitdaging. jij mag daar wel binnenkomen ....? 😄
achteroverleunend in de spelersbus met onderweg naar mn favoriete stad rotterdam
😜
voor de boeg
ga je op de rotonde zitten vanavond ?
ojee, als de winkelier maar geen straf krijgt dan 😉
ik had graag even met je geproost. die bewaren we dan maar voor ergens in mei of zo .....
waanzin in de dop 😬😳
ben je ook in werkendam ?
laten we er maar een voetbalfeestje van maken dan 😄⚽👍🏻
het veld word geveegd en gesleept
in het duits horen speechen is ook wel zeer appart. 🤔
en waar denk de dat de verenigingen de extra trainers/vrijwilligers vandaan moeten gaan toveren.
het was een heerlijke uitsmijter 😜
gearriveerd. nu eerst tijd voor een heerlijke lunch.
beetje wel, de linkse foto lijkt het meest 😄
ja idd twee keer een vinger met pees blessure. ik was in mn jonge jaren keeper.... 😜
6 weken.... en dan nog een paar weken oefen voordat alles weer perfect werkt.
volle bak
zandzakken 🙈
hij is gewoon simpel zich zelf 👌🏻👍🏻
kan het niet lezen arie ...
of is het restaureren ...🤔
je kan toch ook een sleepboot renoveren ...
als ik wim zie denk ik idd altijd heel even aan iets anders 🤔😉😄
wat een idioterie ....🤔😳😓
ik denk ik ook langzaam maar zeker 😂😂
hoe kom jij hier nu weer aan 😄
de ledpanelen van het scorebord worden gemonteerd.
buispaal en console voor scorebord worden vandaag geplaatst.
wat een hartelijk ontvangst bij 👌🏻⚽️
volgens mij was er toch lichte paniek bij de materiaal man.
gelukkig spelen wij in de sterkste opstelling 😄😉
🙈🙈idd volgens mij lopen daar nog wel een paar toppers tussen ⚽️
extra cameras zijn geplaatst in op dracht van justitie
vandaag weer volop bedrijvigheid
meet de lux sterkte.
sportpark de zwaaier baadt in het licht
de ledboarding is gearriveerd, morgen word de boarding opgebouwd
kozakken boys heeft zijn oude zoekgeraakte historische toegangspoort weer terug via
de oude poort van de wilgelaan is vandaag terug geplaatst. ⚽️👌🏻
een zeer plezierige middag gehad met rob bartol, over voetbal en meer. 👌🏻⚽️
branden nog niet 😜
20 extra lampen worden geplaatst
ook is gearriveerd om de extra verlichting op te bouwen. 500 lux
aggregaten, kachels en tent worden aangevoerd en opgebouwd .#kozaja
de eerste fysieke werkzaamheden zijn gestart.
ik ben benieuwd dinsdag ....🙄
belachelijk
super relaxt ontvangen door het bestuur van vandaag 👌🏻👌🏻 thnx
let op fietsendiefven actief bij vanmorgen zijn er twee fietsen gestolen tussen 9.00 en 11.00 uur.
word erg mooi bij 👌🏻😊
dat denk ik wel eens meer en niet enkel met voetballen 😉😂😄
we gaan beginnen
we zijn onderweg voor de eerste uitwedstrijd van dit seizoen
dat is beter als zonder eten en drinken, die airco heb ik ook niet ..😳😳😳😁😁
ik ben eigenlijk wel benieuwd naar hope ......
ik had je ook zonder honden geholpen met oversteken 😉😄 je hebt een goede daad verricht 👍🏻👍🏻
totdat er een bui verkeerd valt ....
gelukkig hebben we in 😬😄👌🏻
gelukkig heb ik een plan met een doel 😉😁😄
ijzersterk, eenvoudig verplaatsbaar
en plaatsen de kers op het seizoen bij 👌🏻👋🏻⚽️⚽️
gewoon niet meer volgen, kan je ook niet moe worden 😉
strijdbaar volkje daar in werkendam 😉💪🏻👌🏻😘
ik denk dat ook bax er geen touw aan kan vastknopen ....
en katwijk ....😉😄
je zou zomaar spontaan smoorverliefd worden 🙃😊😄
is ook erg leuk ook om te volgen 😉
prachtig sportcomplex en super vriendelijk ontvangen vandaag. thnx en succes in de competitie.
je moet er wel lege pakken in doen gerrit.
🙈🙈 dit is weer nederland op zn smalst !!😫😌😡😔
dat was vast schrikken. beterschap 👍🏻👍🏻
vrouw lief is best tevreden, ik heb voor de vijfde keer op rij geen studio sport gekeken. 🙈🙈
en feyenoord of nog erger fc twente ...
mooi toch👌🏻👌🏻 😄 kunnen we allebei toch nog genieten van het voetbal 😶😑😟😌
uitstekende pot voetbal gezien 👌🏻⚽️
zin 3 punten. aftrap om 15.00 uur. gelukkig staan we droog.
geen idee. dit is wel de knapste dierenarts assistente ooit 😄
die raken geen pepernoot meer .....🙈😂⚽️
scherp blijven hansie 😂🙃😄
en wij zijn niet aan voetballen toegekomen en staan derde ...
nu ik dit lees valt het me pas op. was weer een goede uitzending. 👍🏻
nou onderschat scheveningen ook niet. top vijf kandidaat
topper tegen spakenburg
volgens mij zeer bijzonder, ingmar en hollandse meezingers ...??
laat ze eerst maar een keer gezellig samenwerken 👍🏻👌🏻😄
goed lezen ingmar ...😉 zou ook fijn zijn dat de gemeente werkendam zou blijven.
dat is een te lang verhaal op twitter.
ik had liever een inloopavond gehad over één
is mijn inziens ook niet meer van deze tijd, herten achter een hek in een park.
als er huizen gebouwd worden levert het geld op.
ik ben er over uit, ben een normaal mens enkel mijn levensstandaard is nogal bourgondisch ...
🙈🙈😄😄 iets met bij je leest blijven
idd zeer spijtig....😳😏😏
gelukkig nieuwjaar!! hoop op een goede gezondheid, veel geluk en liefde voor allen.
joep
bakker blijf bij je leest 😉 prettige feestdagen.
👍🏻 bestuurders binnenboord zien te krijgen. promoveren via nacompetitie. gefeliciteerd 👌🏻
sta ik toch in een aardig rijtje ... thnx voor de info.
hij klus van circa 300 ton bij
een glimlach kees.
dat is dan leuke post deze week
fantastische voetballer. helaas vinden sommige mensen fluisteren en horen van 👍🏻
weer zeer trots op mn club proost 👌🏻
was erg spannend maar fantastische uitslag voor
dat was mijn lunch 🙈😂
ziet er prima uit 👌🏻
waar blijft die lunch, of kan rini van de spanning niet meer eten tot 1500 uur 😄
tja ...
het is een zeer bijzondere voetbalwereld....... 😳😳😳
denk dat rutte toch echt voor nederland spreekt ....
na een hectische week bij geeft dit dan weer de nodige energie 👌🏻⚽️
komen we zsm even op terug 👍🏻
en nog één 😄
smaakte weer uitstekend 👌🏻😄
voetbaltechnisch niet de beste wedstrijd. inzet maximaal 👍🏻broodje bal langs de lijn was perfect
druk bezig bij
idd hij moet vlug terug op de radio ik luister tegenwoordig eind van de middag naar de concurrent ....😁
eerste 6 punten zijn binnen. vanmiddag volgen de andere 3 😄⚽️
nog even voor het borrel uurtje voor sommige onder ons 😉
spannende pot voetbal tussen en met een mooie aanhang uit katwijk. volle bak.
hoezo gelijk wijzen naar de horeca... 😳😳
9 is voor mij ook prima. moet zelf ook nog onder de lat.
topfit johan. hoezo ? gewoon 6 punten 😄
tja dat is dan een kwestie van prioriteiten wim.
in jouw geval ook😁. maar positief als altijd ik ga voor de 6. 👍🏻😂👊🏻 dan heb jij er altijd nog 3 😄
daar zijn dan toch dubbele belangen 😂⚽️👍🏻
strak voetbalweekend. kozakken boyskatwijk en feyenoordajax. 6 punten zou fijn zijn.
zo jammer dat ik nooit in de trein zit 😏
de dromers en fantasten van vandaag zijn de helden van morgen. bewaar je dromen niet voor morgen. 👌🏻👌🏻😉
bankje uit grootmoeders tijd 😄👌🏻best gelukt al zeg ik het zelf 😉 nu nog een kleurtje uitzoeken.
ik ga er één ding over zeggen beter een goeie buur als een verre vriend. 😄😁
best wel. alles goed kees ?
prima ontvangen bij de buren van 👍🏻👌🏻
zijn jullie best in staat zo onder elkaar ....
dat ziet er goed uit 👍🏻👌🏻
wat een leuke training vanavond met de de jongens van het senioren van 😄👌🏻⚽️⚽️⚽️⚽️
mik een paar extra kunstgrasvelden neer in gorinchem
even een kleine voorspelling voor vanmiddag 13
🙈🙈🙈
druk dagje 900 uur bij neef bart langs de lijn. om 1200 uur bij 5 op de goal. daarna bij 1 aanwezig 👍🏻
of stemming en nog een paar van die rariteiten in een cabaret uitzending 👎🏻👎🏻👎🏻👎🏻
helemaal mee eens. een paar mannen die lul praat uitslaan en een boek typen bepalen de mening l
op tv wel. zeer treurig dat bepaalde media zelfs in een beeldvorming kunnen bewerkstelligen ......
prima loting. grote vereniging met veel historie. 👍🏻#mooi
loting met perspectief voor
de spanning loopt op
kunstgras logo word weer aangebracht. 👍🏻😄
als het maar geen loting word waar we totaal niet op zitten te wachten...
begint alweer gezellig te worden bij en uiteraard praatje
🙈🙈 keer op keer een sportief drama voor de club actie zou erg fijn zijn voor de club.
wanneer de cameras komen marco....
mijn eigen twitter hoogtepunt 😄 evenveel volgers als volgend 👍🏻
niet bang zijn jaap.
van aanvoerder tot bank zitter.. laat ze de hik krijgen.... 🙈🙈🙈🙈🙈👊🏻
, er zijn vast mensen met kennis in de gem werkendam die gratis advies geven en willen participeren ...
tja de keuzes daar zijn bijzonder.
back in town, was een heerlijke vakantie frankrijk. 😎
je zou zeggen dat er in onze gemeente heel veel ervaring is op dit gebied....
die zijn in de handel zie ik net
gefeliciteerd 😎
was er mis met kaal 😳😳😳
erg passend.
moeten we maar eens een keer live gaan kijken kees
neem eens een keer een kijkje bij 👌🏻👍🏻
het is ook maar net wat de camera wil zien...
daar is hij weer 🙈
was weer een fijn ritje vandaag 🚴🏻 op naar de 100 km 😄
strakke spierwitte lijnen in de
haha daar zit ik nu. zo quick boys kozakken boys kijken.
ik woon aan de andere kant van de biesbosch grappig dit 😄
wil je in welke sport dan ook kampioen worden moet je gewoon alles winnen.
fijne samenwerking met de aannemer vrijwilligers waren weer top 👌🏻👍🏻
het word met de dag mooier.
altijd even spannend, maar ziet er echt geweldig uit
🙈🙈🙈🙈
morgen start het voetbal weer. wat gaan we dit seizoen weer beleven?