klopt! daarna 7, toen kuyt kwam kreeg hij 11. niet veel later vertrok hij naar fc basel
nee niet goed
jones laten staan. we missen al veel mensen achterin, nog een wisseling maakt het niet beter!
succes!! hoelaat spelen jullie? wij gaan naar ruinen morgen!
nee helpt niet. vandaag stopt t weer na 5 vragen, krijg nu wel de punten. had hetzelfde, kree…
boetius. doorvraag welk nummer kreeg boetius toen en wie droeg dat nummer als laatste voor hem?
je moet denk ik wat specifieker zijn. alle pupillen of alleen fjes? bij de ds onder 13 is alles anders
fijn gespeeld gister! na 5 vragen stopte de app ermee en had ik 0 punten terwijl ik de 1e 5 vragen goed had..
of ben je zoveel afgevallen 😁😁
is het zo erg tegenwoordig?
zit je duim vast op de retweet knop? 🙄
kop der voor en volgende week knallen in kerkrade.
dit was een beetje het motto van ons middenveld vandaag...
er is weer veel duidelijk geworden vandaag. boetius, diks.... pijnlijk
wist je wel dat ma flodder ook geertruida heet?
wat vind je van soundos?
oliseh contract voor het leven?
maar wat kan hake hier aan doen? gaat het bestuur ook in een andere rol verder? 1 grote stoelendans
daar ga ik ook wel vanuit! 😂
maak er een mooie avond van!
hahahahaha jaaa! prachtig 😂 wil je haar nog eens zien? neuh dat hoeft niet van mij. wat een kerel
piet is weleens in een museum geweest. niks aan
daar gaan we!
please rt! help deze kleine meid vinden!
verschrikkelijk..
tis ook logisch. maar zo ontzettend jammer
hij moet gewoon doorgaan. als je dit nog op kunt brengen...
oei! dan ging er wel vaak een ballin...
jij ging weg zonder mij 😢
griekenland. duitsland en oostenrijk zaten bij elkaar in de groep
net zo lang als de heenreis neem ik aan?
heerlijke zege in alkmaar!
nieuwe speler? 😁
mijn steun heb je
wat een dag! dotan, dit 😲
have fun!!
voor de meppelers ook het fijnste van jouw bezoek.
succes mannen! wij gaan weer een poging wagen in zwolle
tot vanavond dan! met wie speel je?
jammer dat je er niet bij bent vrijdag in zwolle! was graag weer de strijd met je aangegaan!
gaat goed met nederland
succes 💪
zou niet weten hoe zonder berghuis
binnenkort met jannes. kats uitverkocht
vooralsnog geen kaarten voor napoliuit. vandaar denk ik
utrecht? als opvolger van ayoub?
4 vd 6 bedoel je neem ik aan?
extremis doet zelfs zwolle aan! ✔
moeten de trainers ook op de foto?
whahahahahahaha ik wist het 😂😂
oss en fortuna positief. gae, volendam en ook almere toch teleurstellend
sierd dwingt overmars bijna
sierd is fan hahaha
op dit moment lopen we dus wel gewoon 2 punten in op frankrijk he
de witte leeuw van telstar schiet luxemburg bijna op voorsprong bij frankrijk 🙈🙈
winnen in witrusland en dan met nulletje of 6, 7, 8, 9 winnen van zweden. ik zie geen problemen
robben schud niet zo met je hoofd. straks verrek je een spier in je nek ofzo.
gefeliciteerd! verdiende zege. tot snel in de competitie!
dit team wint nog niet eens van carpetland
kan iemand mij iets meer vertellen over de nieuwe speler van schijnt dat ze ene voldsen gehaald hebben..
nee ik zou het echt niet weten
ik denk de oud voorstopper van haarlem
snap ik! gaat helaas voorlopig niet lukken ivm werk en voetbalverplichtingen bij fc meppel
is de presenratiegids van genemuiden ook ergens te verkrijgen?
kan nooit lang meer duren. goeie speler
hij komt net van heerenveen joh!! niks eigen jeugd!! typisch dit!! zoiets?
hier zat ik echt op te wachten 😂
het was een leuke week in sittard.
gaan we weer
ik vrees het
moet je nagaan als we nog goed gaan voetballen... 😂
niet best, wel 3 punten.
zal volgens hun wel 6 of 7 zijn denk ik 😂
heel bijzonder verhaal inderdaad...
zit achter de knoppen??
van harte jongen!!
succes! op naar weer een mooi seizoen!
maak het maar waar dafne!
de 1e overwinning gaf zoveel vertrouwen dat ze nu met 10 speelsters beginnen? 😉
top dankje!
thnx! veel plezier!
en ook lekker consequent. meijers wel geel, ayoub niet.
hahahaha echt he. met een even zon goede grensrechter.
hoelaat finale?
ik telde die van kerk al haha. pure hoop ivm coach van het jaar. last minute een opstelling gemaakt met dessers erin
ik zei het toch....
ik twijfelde ook tot de laatste seconde tussen dessers en kerk
ik had net enorm zin in hardlopen. toch maar even op de bank gaan liggen en wachten tot het gevoel weg was. gelukt
oke. apart. bij fc twente staan bijvoorbeeld 2 speelsters die 5 weken geleden al naar everton zijn vertrokken.
mooie seizoensgids👌👌 alleen 1 vraag wie heeft de vrouwen eredivisie gedaan?
ben zo blij dat je het niet deed....
onee.. ben totaal niet jaloers hoor!
nee vandaag een keer niet! toch jaloers...
ivoorkust
had ze liever allebei fit. kenneth in de eredivisie en jones cl. trouwens ook direct afscheid nemen van diks.. pfffff
jij hebt liever jones he 😂 ik ook hoor, alleen niet op deze manier..
neuh dat is wel klaar. jammer op zon manier
hoppaaaa 1e prijs is binnen!
gelukkig kwam er wijzere taal uit de boys!
maarten kijktip? 😁
alleen als er nog een aanvaller bijkomt. haps en st juste zaten trouwens ook niet in de helikoptert
deze man kan alles
tis echt nog niet gespeeld.. hij wint hem gewoon nog
vraag me af wie er in dat groene shirt op het podium staat..
doet zeer aan de ogen
veel succes man! als ik in de buurt ben kom ik kijken 😜
levert ook al veel salaris in. gaat ie niet doen denk ik
wat een heerlijke partij!
inderdaad! mooi dat ze zo normaal zijn, net als rick zelf overigens. hopelijk blijft ie dat ook 😁
na hveen fey dit seizoen tijd staan praten met pa en broer van rick. uitermate geschikte lui. geen g…
lukt haar weer niet op een groot toernooi. haar kracht ligt denk ik op de plek achter de spits. 1 tegen 1…
4 toch? vd donk, miedema, van veenendaal en dominique janssen
was echt een schwalbe inderdaad bij die penalty 🤔🤔🤔
zonde zonde zonde! maar wel een terechte winnaar..
wat een partij..
wajoow had jij nu gewoon een kinder bueno ijstaart?!?!
iets groter dan mn neefje van 5 maanden zeg maar 😂
weet niets van interesse in die zal zeer binnenkort wel tekenen dan
nooit van gehoord 🙊
mampaey denk ik? of van fessem?
oja bijna vergeten. oh dan komt het goed 😓
30 voor jørgensen moet je ook niet weigeren...
ben benieuwd wat van geel nu binnen gaat halen. vorig seizoen kwetsbaar zonder karsdorp en kongolo. kwaliteit en snelheid vereist
we verkopen niemand meer van het basisteam aldus van geel. oké. kongolo nog dan... 😓
ja waar lik je anders mee?
hij is gevonden
precies. maar zo zal het nooit gaan
nog 4 jaar contract, het eerste de beste bod direct maar accepteren. wanneer leren ze het nou eens bij feyenoord??
perez werd alleen kampioen met twente toch?
jammer van djoko..... 😜 💪
tja.. er zijn meer spitsen die nergens scoorden maar in nl wel..
stekelenburg blijft beter.. altijd opstellen
vaak met je eens, nu niet. concurrentie is groot. zowel in spanje als europa. geweldige prestatie van zidane
die 0,00001 seconde stilte na het schot. blijft fantastisch. wat een moment, wat een dag
mooie statistiek! volgend seizoen voortzetten 💪
gewoon boef man ✌
waar te verkrijgen?
dit slaat werkelijk waar nergens op. hoor mij eens schreeuwen op camera. waar is…
wat een verschil bij jullie tussen 1e en 2e helft. toch om 20.30 uur begonnen? 😉
zit je er vlakbij?
haha ja wij ook. biertje in spelershome?
wij gaan met fc meppel meisjes d1. wieweet tot vanavond!
feyenoord krijgt een vrouwenteam.. mooie overstap 😉
iets voor htc?
hier idem dito. moeilijk om alles te laten bezinken. wat een geweldige dagen
je basisplek kwijt raken, moeten spelen wegens een schorsing van je teamgenoot en er 3 inschieten in de kampioenswedstrijd. fenomeen
😂😂 ik ga wat slaap pakken. het waren 2 intensieve dagen
we wisten niet goed wat te doen... we zijn dit niet gewend 😋
schandalig voorbeeldig gedrag. maakt het feest niet compleet
nog gescoord?
alles giert door mn lichaam.
zeker! toornstra is de volgende waarschijnlijk. na kongolo, karsdorp en el ahmadi de volgende die bijtekenen. lekker 💪
van deventer bij zwolsche boys. toch apart
maria, hoe kom je aan dat coolsingel shirt?
fijn goaltje van costa 👌
gio verdient een standbeeld. op de drempel van de titel terwijl nelom toch best veel gespeeld heeft..
vooral het tijdsbestek waarin hij de kaarten pakte..
dat is het al een tijdje met af en toe een uitschieter.
kan een mooi jaar worden 😉
je kon er op wachten.. casemiro 2x niet, vidal dan wel.. onbegrijpelijk, ondanks dat ik voor real ben 😉
van harte gefeliciteerd! en tot 10 mei in meppel!
tis maar wat je horen wil
selectief gehoor? of woont er een feyenoorder bij je in die niet helemaal zeker is?
gaat het nog??
hoppaaaa! was weer mooi vandaag!
congratz! ik zei het toch, gewoon habiba luisteren vlak voor de wedstrijd 😆
van harte gefeliciteerd! maak er een mooie dag van!
goed recept voor gehaktbrood wel
foto stond er niet bij zie ik net haha. deze bedoelde ik 😅
elk vak was weer anders.. bij ons gebeurde mijn versie. en vervolgens wordt ook het kleine jongetje het stadion uitgezet.
je doelt op volwassen mensen die juichende feyenoordkinderen de tribune af willen schoppen?
lekker zo doorgaan... hala madrid❤
dinsdag deze luisteren voor de wedstrijd. sinds ik jou volg op insta dit nr altijd voor de wedstrijd. 18 uit 6 👌#knallen
issie niet gewend?
issie mat vandaag?
als kramer wat scherper was voor de goal had het al 7 a 80 gestaan
ze komen de middenlijn niet over.. vol onder druk gezet
dit is wel ff reageren op de tegenslag van zondag. 50 voor bij rust! galavoorstelling in de kuip.
8e plaats in finale sportquiz doelstelling laatste 16 ruimschoots gehaald
zeker. maar keuzes die gemaakt worden door verkeerde mensen moet je wel afstraffen
dat we al 3 jaar gefaald hebben in de keuzes en het tijd is voor schoon schip. 17.000.000 nl weten het maar 6 mensen niet
voorspelling 2 goals en 1 assist vandaag. succes!
hallo jassina, zou je mij even kunnen volgen voor dm? heb een vraag voor je
het land dat met de o begint is 1x goed gespeld. maar welke van de 3 is juist
tete scoorde gister 😂
met of zonder armstrong?
yes! wij met d2 helaas 41 verloren. volgende week maar goedmaken tegen msc 😉
wat een geweldige uittrap! wind mee en de keeper kansloos
succes! derop of geen vreten!!
bloemetje morgen mee naar de fc? goed gespeeld vandaag! jammer van het resultaat 😕
jammer van vanavond! heb genoten van je werklust en acties! kop op! 💪
wordt steeds lachwekkender. viergever wel, blind voor linksback en geen van aanholt. pff
wel in amsterdam opgeleid
waar is janscharie 😢
pffffff hele land afgebeld en gevraagd waar je meer stemmen had dan vvd en cda?
pieters was ook nog een optie geweest. zn zoontje zal wel weer linksback gaan spelen.
ook goeie optie idd! hoedt/ de vrij zal wel moeten. ideaal duo
altijd van aanholt opstellen. echt
weer geen patrick van aanholt bij oranje. beste linksback die we hebben.
soufiane, kun je mij even volgen? heb een belangrijke vraag voor je
verre van. ik zou gaan voor krol
legt iedereen stellingen voor maar laat niemand uitpraten.
sterk van krol. niet laten afblaffen door die diana.
veur ie t weet benk de pleepot skoonmaakn. dat was niet het plan!
met dit nummer van og3ne kunnen ze het beter veranderen in og3nant.
godzijdank niet
prachtig nieuws! de sultan van zuid langer bij de club!
poh.. wat smaakt dit zoet
op naar 2 feestjes in 1 zoals we vanavond al zeiden 😉
lekkerrrr!!!
precies. komen ze nog wel achter
ja zoals altijd. wordt gewoon weer een dikke deense dreun voor ze. legia zou ook wel ff opgerold worden...
gelukkig gaat dat altijd goed
2x eerder tegen kopenhagen betekende 2x uitschakeling.. niet te vroeg juichen
wel lekker om dit te kijken als je ziek bent. volume hoeft niet op 0.
zeg dat maar niet tegen henk en ingrid.
hier ook. mooi zuur... zie dat er nu wel hoge scores behaald worden..
kom je gewoon naar het mooie meppel?!
ik heb inmiddels de mail ontvangen. morgenmiddag wordt het toestel opgehaald
ik heb een poging gewaagd hahaha. maar geen email o.i.d. ontvangen. ik hoop niet dat ze een sms hebben gestuurd
klopt het dat je geen bevestiginsmail krijgt als je je telefoon hebt aangemeld?
oké ik ga voor de bon zorgen!
nee helaas. ga ik even opzoeken! als ik hem niet heb wat is dat evt de oplossing?
ik wil mijn telefoon opsturen voor reparatie maar kan die imei code niet vinden. verpakking is weg en telefoon wil niet aan
zekers! vandaag nog ingevallen
vader een zoon zijn daarna nooit weer getraceerd overigens
zei hele wedstrijd niks. en ging toen op mn schouder tikken en zei mooie goal he? hahahahaha
ik zat ooit op de hoofdtribune. vitfey 10 bony. 92 minuten lang niemand gehoord. een 40+ vader met zoontje van 10 achter ons
ik heb inmiddels een draadloze lader besteld, morgen in huis. hopelijk laad hij op en kan ik doen wat jij zei. bedankt!
dat ga ik zeker doen! alleen nu laadt hij nog steeds niet op en hij is leeg 😁
al 4 verschillende laders geprobeerd. op internet staat dat dit de meest voorkomende kwaal is bij samsung s7
hallo. mijn samsung s7 edge gaf aan dat er vocht gedecteerd is maar er zit geen vocht in het toestel. nu doet hij het niet meer
heerlijk avondje cl!
als ik bij feyenoord had gezeten..... lastig. maar tis niet de 1e keer dat kramer in het nieuws komt vanwege de training
daarna konden ze ook een biertje drinken hoor.. ze waren zondag vrij ipv trainen
kan er vanavond gewoon getraind worden?
ik wil een vrouw die weet wat ze wil. aldus james over zn 59jarige vrouw. als ze het op die leeftijd nog niet weet.....
eens. voor hem ook jammer, andere kant, voor hem misschien ook wel beter uit deze ongecontroleerde chaos weg te zijn.
ingreep el ahmadi op narsingh dit seizoen tijdens psv feyenoord. juichende karim
hij is best groot voor iemand die van velzen heet.
neuh. verre van. 31 nationaliteiten en die ene hollander is ard van peppen. tel uit je verlies
anders wat heeft anastasiou iemand aangedaan dat ie trainer moet zijn van dit zooitje?
kerkrade was al een taalparadijs, is alleen nog maar versterkt
je kunt ook blijven zeiken dat er geen aandacht voor is. dit is een begin. voor je het weet komt er een live pot.
doelpuntenmaker?
het is voor aeg te hopen dat er een lampje gaat branden
een franse lantaarnpaal is heel anders dan de nederlandse
prachtig hahahaha
hahahaha inderdaad. en lekker voor langere tijd vastleggen. goed salaris. dan degraderen en failliet gaan.
zeker! gewoon doorgaan met waar die gebleven was!
gooide mvg nog een beetje goed? pfoeeeee wat een niveau weer
ik ben dan wel voor nadal maar als ie dan toch van iemand moet verliezen......
wat een wedstrijd
hahahahah zoiets
sportpark de wetering wordt ooit sportpark grote nick. middagje met bier en bitterballen. heerlijk. ik kom ook
feyenoord nec
misschien kunnen we nu wel eens winnen hahaha..
jammer dat je er vanavond in nijverdal niet bij bent!
nr 8 is
het zijn idd geen toppers. maar als er 2 vd 3 meespelen kunnen ze zich wel aanpassen. tapia zeker
dat vangt geen enkele club zomaar op. kijk maar naar real madrid..
haal bij ajax schone ziyech en klaassen weg dan is dat ook niks meer. vilhena, el ahmadi en kuyt missen is gewoon teveel
begrip brede bank. is dat van toepassing als er 1 speler wegvalt en dat je dat kan aanpassen? 3 is teveel
zelfde als vorig jaar
hehe.. nieuwe ronde nieuwe vragen.. je weet nooit hoe het loopt etc.... eerst vanavond vitesse verslaan haha
zonde! denk ik ook. met hopelijk zwols blauw als winnaar
thnx vriend! jullie zijn er morgen niet??!
oefenen voor morgen haha
4x
hij kwam toch al een stukje uit die mulder...
wát een droeftoeter.
wel 2. ook 1 achter de keeper van az
je moet toch wat met zon voetbalwedstrijd
woehahahaha. niet nodig op zon woensdagavond. slaat nergens op. excuses
stel de vraag maar anders. hoevaak wordt room geklopt?
oh wacht ik zie er nog 1. 4. stop de tijd
a.s. gaat helaas niet lukken. te weinig spelers aan onze kant
hallo freerk jan, zou u mij een appje kunnen sturen?heb zeker interesse, 0623626298. gr, erikjan, trainer jo132 fcmeppel
oke dankje! doe ghana maar. kan karim zsm weer terug
tegen wie speelt marokko in de volgende ronde? winnaar poule d?
bedankt voor het meedenken!! top!
ja wobbes had ik al gesproken. die kan niet. d3 hebben we al eens tegen gespeeld en treffen we waarschijnlijk weer in de comp.
gezocht oefentegenstanders voor jo132. rtlief
moet ook wel een depressie blijven he. als dionne stax het zou doen was de depressie ook weg
van ons nog niet
wanneer worden de nieuwe competitie indelingen bekend voor de jeugd? zou wel handig zijn ivm evt oefenwedstrijden..
hadden ze ook al kunnen weten toen ze kazim aantrokken...
rkc
lars veldwijk
oké. eerder kwam het wel eens voor, vooral in premier league dat spelers dan eerder het toernooi verlieten vandaar
komt el ahmadi eerder terug als marokko er na 2 wedstrijden al uitligt?
nee. bijna alle clubs gehad maar forest niet
fantastisch. kippenvel
net als bij hiervoor geel geven past niet in een wedstrijd als deze. geel is geel toch? ongeacht topper of niet
ff aangifte doen van matchfixing
gekkenhuis. europese uitoverwinning. goed voor de punten
aaah toe???!!! hahaha keurig
ga je nog ff zingen voor jorgensen?
onze, en ook de uwe, topscorer van de vaderlandse competitie is jarig. trakteer je eigen maar op een paar goaltjes.
algerije en tunesië