geldt ook enorm voor ons
met dezelfde basis 11 starten prima, helemaal voor. maar als iemand z’n nivo niet haalt, gewoon wisselen. echt. beter voor iedereen
weer ouderwets...
ben moe, en de 2 rode wijntjes hakken er hard in, maar even alleen thuis en dan dit héél hard over de speakers 🕺😄 😍
ik kan m’n lol weer op dit weekend met deze releases 😄👍
bam, in your face dit zeg!
wisten jullie natuurlijk al lang, maar ‘ja dat bedoel ik’ sluit dus echt naadloos aan op giorgio moroder
eén. eén tweet wijd ik er aan. komt ‘ie de beleving spat er weer vanaf...
een herfstlijstje. eentje met de geur van natte bladeren, hier en daar storm, maar ook van die mooie, warme dagen
ja. er staan ook wat cheesy nummers tussen, maar aftrappen met stetsasonic’s talking all that jazz is echt goud 😄
wat. een. cover! via
zo’n man die loopt te dringen, duwen en dan te breed gaat zitten in de trein. ik treuzel dan net ff wat langer als ik voor hem uitstap.
ik maakte toch echt een sprongetje
yeah, welkom terug
2de fout amrabat, bijna 20. ff koppie erbij jochie!
staat wel weer een ouderwets blok beton achterin zal je zien dat ie zo écht enorm de fout ingaat 🙄
gadverdarrie, wat een kut nieuws
middagje vinyl draaien american dream was al briljant, maar zóveel meer details te horen...nu nog overweldigender!
verlies dit album vaak en lang uit t oog, maar blijf maar terugkomen bij dit wonderschone, alweer 25 jaar oude 😳
gevoelsmatig doen we dat al met kramer in de spits 🙄
maar ach, wat zou t 😂😂😂
2 helften gecounterd en louter angst en frustraties uitgestraald, wat een armoe, dat eindhoven maar winnen vandaag dan weer wel 🙄
ja, psv gaat hier waarschijnlijk winnen, maar zie ze echt niet meedoen voor de titel. 10 man is ze nu al teveel!
zolang jørgensen nog geblesseerd is, lekker 442 blijven spelen verdienen hier nu een punt
nou jongens, kramer er toch maar uit en amrabat erin
wat een fantastisch, indrukwekkend, innemend optreden van hier, in
aiaiai, wordt een feestje vanavond
ik ben inmiddels al uit de trein, dus dat gaat niet meer lukken
in de stiltecoupe van treinstel 9587 ri de haag cs heeft iemand zn telefoon laten liggen. kan r mss n conducteur even langs?
wonderlijke reclame bij heereveen goed gekleed gaan. verwacht daar eigenlijk notabelen met hoge hoeden en een zakhorloge bij
gutfeeling bleek inderdaad helemaal te kloppen 😳😂
maar even he makkelie is toch enorme thuisfluiter? geen penal feyenoord, geel vilhena, niet voor schoppartijen heracles.
old habits die hard ik zit met 30 voor nog steeds té gespannen voor de buis 🙄
wat een heerlijke van dik hout zaagt men plankenplaat weer van death from above! eén grote moddervette riff 😍🤘
jeej! the national heeft de 11 weer op de versterkers teruggevonden
dit nummer. binnen 15 seconden al wow! en dan heb je dus nog ruim 6,5 stuwende minuten te gaan. wat een anthem!
er moet wel iets héél briljants uitkomen, om nog van mijn album van het jaarsokkel te stoten.
dé mooiste stem op de voet gevolgd door die van jeremy clarkson en david attenborough stopt er mee. he will be mi…
mijn plaat van de zomer die zich verdacht goed als herfst voordeed t fantastisch italiaanse album van 4 fransen
nu snel over naar échte spanning het weergaloze nieuwe album van
ik trek ze echt niet, merk ik, die oranjesupporters
psst, dick, die schijnt het opnieuw erg leuk te doen op links
oh, en die malle toeter en het aanvalluuuh natuurlijk 😳🙄
de wave. nou weet ik weer waarom ik me altijd zo ongemakkelijk voel bij wedstrijden van oranje. de wave en het belabberde voetbal
goed. hup bulgarije hier valt werkelijk geen eer meer te behalen
strootmans woede is volkomen terecht. kneiterhard onder het gras schoffelen zo meteen die griezman. wat een rat. bah
baal ook als een stekker
2 kaartjes voor franz ferdinand op 29 augustus 2017 te koop
zit nu naast diegene in de trein die net passagier de stiltecoupé uitjoeg...durf bijna niet te ademen 😳
en inderdaad helemaal los van de ajaxfrustraties die heb ik niet namelijk 😄
mijn hemel. op veld 3 van de plaatselijke amateurclub stuitert er minder plastic weg als de bal rolt dan nu bij in de koel 😳
hij had gelijk met zn het komt wel goed wat n klasbak vandaag, die 👊👍🔴⚪️
laat maar, app net opnieuw geïnstalleerd en nu wél alerts 😜👍
app geeft dit seizoen geen meldingen tijdens de wedstrijd meer. bugje of achter pro verdwenen?
heb toch de stellige indruk dat ajax hier van zn trainer verliest en niet van rosenborg
wel gereserveerd, toch?! 😳😂
en dan tijdens de feedback van je laatste nummer je spullen al gaan opruimen 😂😂 gotta love
goud! car seat headrest staat hier gewoon wat nummertjes te spelen als soundcheck
whahaha, zó trap je je set af! at the drive ins zanger cedric is all over de fokking place 😂😂
by far het beste optreden van mijn tweede lowlands dag vince staples die in zn uppie de india helemaal afbreekt 😄
zo keurig binnen de lijntjes allemaal
...ik mis de aftikken en de tent op zijn kop zetten attitude een beetje.
kan een hoop hebben, dacht ik, maar van dit london grammar word ik echt agressief. nu snel bier halen
dj van skepta draait nu gewoon kneiterhard humble van kendrick en bravo gaat uit zn dak 😂
speelt iggy al bijna? hoogste tijd voor wat rock n roll gekte na goede maar wat saaie sets van kiwanuka en feist 😜
ik heb, qua uitgerustheid, wel eens een betere voorbereiding op gehad 🙄
in de 88ste minuut je europees kampioenschap veilig stellen, dat kan dan niet meer fout gaan 😂
vraagje ik heb 196 mijn legioen clubkaart aangevraagd, wanneer mag ik die thuis verwachten?
volume van mn telefoon moest diep in het rood, om mij er ook maar een béétje van af te kunnen sluiten... oren tuten nog
waarom praten mensen met een mening altijd zo hard?
uitgerekend hij is lid vd kameraadjes. kan dat overgezet worden naar legioen of moet ik kameraadj…
hij is in juni 12 geworden
hij is 14 zn broer van 12 moet sowieso nog lid worden
nog een vraagje geldt deze kameraadjes voorrang zo meteen ook bij de vvk cl of kan ik ze beter lid…
mijn mailadres en daarmee mn legioenlogin blijkt nog steeds niet goed geregistreerd. hoe kan dit gefixt worden?
dan maar vanuit amerika laten aanrukken. móet deze gewoon op vinyl hebben 😜
nú al zenuwachtig 😳😜
gister eindelijk 🙄 metallicas vermakelijke some kind of monster gezien. maar nu toch vooral trujilos infectious…
mijn adresgegevens staan niet goed geregistreerd duinkaart komt op verkeerde adres. waar kan ik dat laten corrigeren?
gorrilaz! lijkt mij live fantastisch, maar vind dat laatste album eigenlijk niet ok. mooi lijstje 😄 haven fun
en waar ga jij in november naartoe?
dat weekend ga ik ook naar qotsa en father john misty. later ook nog naar fink en tinariwen
ik ga inderdaad!
maar idioot hè hele jaar door de concerten netjes gespreid en in november ga ik er in 1x ook naar 5 🙄
spoon is echt wel een moetje dp! 😄
2 kaartjes voor nathaniel rateliff &amp the night sweats op 27 juni 2017 te koop
zo blij eindelijk te gaan zien! ik stof deze gewoon nog ns af my take on murphys losing my edge
yes! kaarten voor held james murphys voor in de pocket! zoooo veel zin in 😀
zó kondig je dus een nieuw album aan 😂😂 en die riff!! cant wait!
blijf toch een zwak houden voor die gierende orgelfunk dit is weer zo ongenadig lekker! baskar van
vandaag hele dag in de auto, met muziek van de kids via mijn spotify profiel over de boxen. wordt weer n wanhopige discover weekly morgen 🙄
ben ik de enige die hem moest googelen? keizer op poleposition voor trainerschap ajax
nieuw vinyl! sgt pepper dat veel rustiger klinkt dan t grijsgedraaide, 50 jaar oude exemplaar 😄 én de beste grungep…
kan maar niet ophouden met lachen 😂😂😂
reissue van sgt pepper in aantocht! ondertussen draai ik deze 50 jaar oude met favoriete skip vd naald in gettin…
3?!? tijdfoutje toch?!?
als je je weg wilt laten blazen door geluidsgolven die deinen als duistere sluiers over…
kan er hier ook geen genoeg van krijgen
dit nummer. die geluidsmuur, de chaos, die strot. sindsdien fan en nu is hij niet meer. weer een stukje jeugd dood
im looking california and feeling minnesota mijn held is vandaag veel te vroeg overleden. wss verloren van zn demonen. 💔 chris cornell
dit dus. wat een carrière, wat een baas. en wat een afscheidskado! missen je nu al
de milliseconde dat de kuip even de adem inhoudt als de bal kuijts voet verlaat, en dán díe geluidsorkaan. goud 😄
jij ook jeroen!! eindelijk 😜😄 en niet omdat de rest het liet liggen! wat een bazen 🔴⚪️🍻
wat een seizoen! wat. een. elftal!!
kunnen we niet gewoon nu aftrappen? ben wel klaar met wachten
moet zomaar toch gebeuren 😜😄
zat in een vliegtuig, dus de details zijn me gelukkig, achteraf volledig ontgaan. moet in…
was je er bij?
soms denk ik ik kan zondag niet beïnvloeden, dus waar maak ik mij druk om. héél soms. rest neigt naar blinde paniek
hè, lekker had ik even nodig dit is waarom feyenoord zich geen zorgen hoeft te maken
ondertussen heeft chet faker die inmiddels nick murphy heet ook weer erg lekker nieuw werk op spotify staan
dacht wat gedachteloos voetbal te kijken deze week, maar spanning voor zondag slaat bij wedstrijd 1 al toe. worden vermoeiende dagen
nee, eigenlijk alle instores gemist, was t goed?
niet prince beste 12, maar mss wel zn mooiste nummer ooit. samen met 1 vd beste soul ever aangeschaft bij…
zit ondertussen hardop te gniffelen om het enorm pathetische theaterstuk dat barca aan het opvoeren is
goed, verstappen eruit. hup heerenveen!
.@sjoerdmossou en je had natuurlijk helemaal gelijk, heerlijke hoge bloeddrukwedstrijd 😂👍
pfff, nog even op adem komen en dan een enorm verdiend biertje op de overwinning pakken 🍻😜🔴⚪️👍
pas vanaf 20 wordt ie heerlijk de rest klopt helaas enórm 😳😜
dit dus! heeft het zo enorm niet in het snotje!!
kutzaal, kutpubliek, maar zelfs dàn is de innemende met zn gouden strot baas 😄
sjezus zelfs op lowlands was t stiller in de tent...en dat is een fokking festival!!
wist jij natuurlijk al
net nieuwe father john misty binnen gekregen inclusief waanzinnige hoes, single en tarotkaart 😂! moet um nog luis…
niet te doen dit! toch gedaan. ik heb gestemd voor de stem ook
ik blijf hier dus echt ongenadig blij van worden 😄 the 50 best britpop albums van ♫
komt werkelijk hele wedstrijd geen fatsoenlijke bal vanaf flanken, &amp wie breng je dan als breekijzer? houten motoriek met lengte 🙄
als je zon slechte basis 11 opstelt, zijn 3 wisselspelers dus niet genoeg, danny...
irritant! lidmaatschap paradiso verdwijnt in app na 1x gebruik. is toch echt maand geldig. kunnen jullie dit fixen tm?
nieuw vinyl bij gescoord vanmiddag! spoons geweldige hot thoughts en michael kiwanukas bloedmooi…
lekker avondje plaatjes draaien en boeken over cuba lezen
fijne recensie ook, vandaag in 👍
en toen t fantastische
geweldige avond in eerst
was je op tijd binnen voor traams? was nml enorm geweldig!
wat een geweldige band, dat traams, hier in
al 7 keer aan dit album begonnen, nu pas de tijd genomen eens echt te luisteren. wat. ontzettend. mooi.
volstrekt verdiend, die overwinning van barca, maar zo jammer dat duikelaars als neymar en suarez daar bepalend bij waren
proest 😂😂 buma kinderen moeten weer staand wilhelmus zingen. dat continu refereren aan onze tradities...zucht
the feelies daarentegen gaan hun heerlijke debuutalbum nooit meer overtreffen, maar man, wat is deze weer lekker ♫
jaren na hun onstuimige debuut eindelijk de belofte ingelost met dit geweldige, evenwichtige album! ♫
denk het zo ondertussen wel ja 😄, maar schiet nog steeds iedere wedstrijd in die oude het zal toch niet reflex. is nog een end 🙄😜
ik zit ondertussen dus oprecht hard te juichen voor aa gent!
eèèèèn klaar...#lyoaz van den brom houdt hoop op wonder zou niet de eerste keer zijn /via
is ondertussen een verpiswedstrijd aan het worden voor wie t eerst zn tegenstander een kaart aannaait
heb me trouwens week in het champions league voetbal vergist. liep me al hele middag te verheugen op maar werd dus
en dan draagt cuadrado er ook zon truttig turtle nekje onder...brrrrr
nee. heb het even een kwartiertje laten bezinken, maar het juve uitshirt is werkelijk spuuglelijk. zijn zebrastrepen geworden. bah.
hartverzakking na hartverzakking, maar gewoon weer gewonnen! 😜💪🔴⚪
aiaiai, op 3 staat de galmschuif op een microfoon hinderlijk ver open. toch maar naar beroerde commentaar op rtl7
aiaiai, wat is dat psg geweldig aan t voetballen 😄🙌
lezen inderdaad. indringend stuk.
nope, vond t een teleurstellende worp zelfs
afwisseld lief, hilarisch, bitchy &amp poppy. en vreemd genoeg al n jaar onder ieders radar. want wat n heerlijk album!
aaargh, pickup is t aan t begeven. nu aan t orienteren op thorens en project. wat is goed, wat beter? zie ik er nog 1 over t hoofd?
lief die ellenlange fadeins in mn discover weekly, mogen die uit? denk hele tijd dat verbinding verloren is op mn fietsje
ach, wat triest. had n groot zwak voor deze man. john hurt, star of elephant man, alien, harry potter, dies aged 77
doe je goed, have fun! ook nieuwsgierig naar dat album live, let me know
doen!
jeej! ik zeg biertje bij the xx, ofzo
trouwens wel eens tijd dat weer wat nieuwe namen dropt. ben benieuwd!
gefeliciteerd dus 😳😄
zag t inderdaad al gedeliciteerd!
ver, vèr voor de inauguratie uitgebracht, maar nog nooit zó relevant
joehoe, nieuw januari en een flink restje december 😄 vinyl! beste album van 2016 en 3 bloedmooie reissues
goedemorgen, hebben jullie misschien ook een engelse versie van de doorlopende reisverzekeringspolis?
doet t inderdaad weer, dank!
goedemorgen! restcontainer 43 hoek berken &amp abeelstr gaat niet open. geeft niet vol aan. mechanisme lijkt te haperen
voel me in één keer intens oud, door deze kleine, dodelijke, want voor mij zo overbodig toelichtende voetnoot in de…
ik ben er blij mee!
manmanman, de ironie ten top 😳
zon discover weekly dat je je enorm afvraagt wat je dan vorige week allemaal gedraaid hebt, dat deze speciaal voor jou geselecteerd zijn
wel lekker zon intens slechte scheids als je club werkelijk enorm kut speelt kan ik mn frustratie iig nog ergens ánders op richten
zeker, want wat een fijne band! maarrr, die avond speelt feyenoord, dus als ik al in rotterdam ben zit ik dan in de kuip 😜
op naar zondag!
ik heb gestemd op de song van het jaar 2016. bekijk mijn keuze of stem zelf op
vond hun debuut goed, maar trok haar stem slecht. en die gaat op dit album door veel minder vocoders maakt unite…
en terecht wat een fantastisch album!
wat een geweldig authentiek en volwassen album is dat geworden!
iemand met een a was vooral blijven hangen
haha, blijkbaar inderdaad. impressionable age, een bubbelbad en iemand met een a...krijg je dat
die ja
ik ben dus blijkbaar van de generatie die, als ie een bros eet, direct aan adelheid roosen moet denken
we have the moral high ground...aldus de voormalig kkk leider...bloody hell dit wordt met de minuut enger
app berekent gem. snelheid continu verkeerd, wss door niet continu snelheid te meten. is dat in te…
verwacht overigens wel dat er komende jaren enórm goede muziek uit de vs zal komen
volgende us verkiezingen wil ik ook stemrecht, aangezien deze man het niet alleen voor us kan verstieren, maar ook…
qua liedjes zeker, maar dit vind ik zeker live spannender
manmanman, en blijkbaar heeel veel zon
haha, ja, daar was ik nooit opgekomen
...zit mij nu wel al een halfuurtje suf te praktiseren wie collega a is
ook op plaat erg mooi!
wat een tof optreden van gisteren in 3 man sterk, verder leeg podium en maar geweldige muziek maken!
.@feyenoord heeft dit aan zichzelf te danken, maar nijhuis moest alle zeilen bijzetten om eagles te laten winnen. wat n natte wind
goed, elia &amp toornstra na de rust brengen voor berghuis &amp vejinovic...oh! en whoever de vierde man is voor nijhuis. wat een krant!!
neeeee 😳😳 jones staat voorlopig niet in feyenoorddoel via
we lopen redelijk synchroon met ons concertbezoek ik ga warhaus zondag zien
jeuj!! en oh jee... strijden nu om voorrang in mijn hoofd
have fun in ik ga ze begin december in zien, kan niet wachten
kan dus echt geen genoeg krijgen van dit album. wat een heerlijke vibe echo van bazart ♫
en deze schalt nu al 2 dagen hard door de woonkamer, zon lekker album van
sorry klote aanleiding, maar hup blind haalt vilhena uit voorzorg bij oranje
wat een geweldige uitnodiging 😄 wij zijn erbij!
aha, vandaar dat ik er iets in herkende! walkmen ken ik wel inderdaad
en over intrigerende albums gesproken kende ze qua naam, nu ook de muziek geweldig
ken ik niet, moeite waard?
enorm lekker album dit dp! thanx
misschien wel beste openingsnummer van een plaat ever! fin in the bushes van oasis ♫
i know maar voelt wel weer eens goed om lekker ongenunanceerd hoog van de toren te blazen
hijgen nu van nog heel erg ver hoor
ah, niks aan de hand zie ik, gaan gewoon winnen
lief sinds kort werkt jullie app niet met zowel ing als abn amro apps. alleen nog maar browserbased. bewustje of foutje?
er is nog niet gescoord in tilburg. moet ik me al zorgen gaan maken?
mn lief een weekendje met de meiden op stap, de jongens boven op netflix en ik een rode wijn en charles mingus ove…
met tijdschrift, boek en een shitload aan nieuwsgierig makende spotify releases op de bank...kom maar door met t we…
&amp nu ook op die van mij en in de categorie fijne teringherrie kennen jullie deze al?
mijn hoofd ging vanmorgen in één keer van naar mull of kintyre...hoe dan?!
dit zou echt de bom zijn!!
nee, ken ik niet, gaat gelijk op in de trein zo meteen
haha, maar dat psychedelische, die riffs dat heeft sowieso wel wat wolfmotherachtigs
en foute albumhoezen ik vermaak me er prima mee 😜
loop al de hele middag ongenadig grijnzend van deze fantastische te genieten. en op 😄👍
en deze voor wat later op de avond. morgen hoofdpijn, maar om de juiste redenen 😄😺
hup! fles wijn open en deze heeeeel hard opzetten 😄
man, man, man, wat een beheerste, zenuwslopende, geweldige pot voetbal zó lekker dit 😄
zoveel liefde voor
maar dat laatste woordje...dat dan weer wel!
wat een enorme pietlut die scheids
zeker wat voor mij, maar ik wil diezelfde wedstrijd ook zien, zij het op de bank
wat is dit een geweldig mooi gebaar! hulde adosupporters bedelven zieke kids in kuip onder knuffels
hoe was simon frith eigenlijk gisteren?
moest um googelen, glenn. voor héle oude mannen . ben alleen zo bang dat living colour vooral begin 90 relevant was...
was eigenlijk uit t oog verloren reünie volstrekt gemist maar dit is weer snug as fuck heerlijk album
die zijn óók erg lekker hoor 😄
kan je zo maar eens ontzettend veel zin in hebben 😜
zo blij! mn pa heeft na jaren tóch die 3 verloren gewaande beatles lps op zolder teruggevonden. echt te leuk 😄
wordt oppassen
wow herten, reeën, koeien, schapen...was druk onderweg bij het hardlopen in de duinen vanmorgen 😄
bloedverziekend heet vandaag, maar dan hier na je werk eindigen. zó lekker
dankje! heb er enorm veel zin in merk ik 😄
lief! net radio uitzending gehad met mij als stralend en bloednerveus 😜 middelpunt als afscheid van mic. zo tof!!
fuck! wat een kickass optreden van hier net in de bravo van bloody brilliant!
wat een klasbak die superset hier op
wat. een. kutweer
noel is zijn heerlijke cynische zelf 😄
wat was dit indrukwekkend goed!
lig hier in t gras best onder de indruk te zijn van in de india naast me
dit is al de tweede keer dat ik vandaag de tranen loop weg te slikken wat een intens mooie set van rag’n’bone man is dit zeg!
dit is ondertussen geweldig!! wat een heerlijke vibe
sta vandaag vooral buiten bij de verschillende acts is dat dan beroerde programmering, de zon, aantal bezoekers, mijn timing? 🤔
komen gewoon de xray niet in voor hier op 😳
wat een wonderschone set van hier op
lieve geluidsmensen van de india die bas mag / moet overdag echt zachter. de rest verzuipt erin...
zowel eigen lowlands tas als logeertas van de jongens aan t inpakken. even goed opletten dat oordoppen en ibuprofen in goede tas gaan
wat een geweldige bak teringherrie. word hier erg blij van 😄 alas salvation van yak ♫
józsef kiprich ruud heus shinji ono jerzy dudek pierre van hooijdonk paul bosvelt tonny vilhena
heb toch meer sympathie voor ronaldo dan ik dacht, heb nu oprecht met hem te doen
ok twitter, hit me welke muziekbio móet ik van de zomer gelezen hebben? heb mn aandacht wat laten verslappen dit jaar en nu geen benul
thanx, ga ik ook echt enorm doen 😜 succes van de zomer!
joehoe deur nèt achter me dicht gedaan! vakantie 😄
had me dan met veel espressos wel weer helemaal ingesteld op verlengen en penalties. die slaan we eindelijk eens over met portugal
tijd voor een hartgrondig kut!!
verwacht dat coleman nog wel tactisch wonderkonijn uit de hoed tovert na rust. en dan maar hopen op geen bevlieging van portugezen
en t lullige is, het werkt, die nare maniertjes van ronaldo. zo meteen krijgt ie wél die vrije trap, of dat beslissende voordeel
ik ben benieuwd
nice! deze thuisblijver had dus ongelijk 😕
kom maar door met die vakantie, ik ben er klaar voor merk ik
mon dieu, wat zijn die fransen goed
verder hoop ik dat frankrijk na wales gewoon kampioen wordt, maar gun ijsland stiekem ook een nieuwe stunt
maar goed hup ijsland, prik er nog even eentje in voor rust!
wij corrigeren nu al zon 2 weken hartgrondig de nl verslaggevers payé!! van ek als ze t over payèt hebben. wie heeft gelijk?
ik blijk volstrekt irrationale antipathie tegen giroud te hebben. weet oprecht niet waarom, maar jeuk allover als hij aan de bal is
t is dat ik wil weten hoe het afloopt...pfffff
gisteravond meer beleving op t veld en hier op de bank dan nu bij terwijl ik toch echt enorm voor italië ben.
wat onvoorspelbaar braaf dit met die bewerkte hoes voor de nieuwe jullie idee?
ik hoop stiekem nog op n haarlems of amsterdams optreden
wat voor jou denim tivolivredenburg
qua voetbal is deze partij niet om aan te gluren trouwens, maar man, wat een hoog en leuk asterix en obelix gehalte
en dat nét nadat ik een walkover van engeland verwachtte 😄
of deze volgens mij hebben de jongens en meisjes van zich kostelijk vermaakt van t weekend 😜👍
hahaha, heeft iedereen deze vandaag in zn staan, de 1ste maandag na of is dit n blij toeval?
hij is mooi!
kunnen jullie nu de site down is misschien een fotootje van het programma posten?
wat een jankerds, die zwitsers
schrijnend overzichtje nav brexit vote...
10 minuten onderweg op mn rondje als vrijwilliger voor de en nu al honderden kikkertjes op mn pad
en met de wissel van mertens verdwijnt het laatste beetje respect dat ik nog voor dit belgische elftal had. hup
mompelt onnozel een vage smoes om de vreugdesprong in de kantoortuin te rechtvaardigen yes!! blijft!
lachen dat horse boarden 😄 weer zit alleen niet mee, jammer strand…
kan me niet herinneren hoe ik míjn eindexamenuitslag beleefde wel nog de soundtrack die erbij hoorde op
wow, sterke asr reclame van tof!
een ochtend als deze en dat dit draaien perfect cake ewout van der wouden &amp michael kragt. indeed
mijn hemel! wat een zijige nieuwe discover weekly, bleeh. nu even gas geven roots van sepultura
ben dus echt n behoorlijke sucker voor de kills aan t worden, wat n heerlijk album weer! ♫
zo mooi vierde en het applaus opslurpte? was geniaal 2/2
we komen er hier niet uit tegen wie speelde je nu op gravel, in spanje? toen je je je 1ste punt ver in 4de game ofzo 1/2
aaargh, ik krijg die mensen naast me in de trein maar niet overstemd zonder mn eigen oren te beschadigen! wat een dom geleuter
wie wordt mijn nieuwe hva collega en online onderzoek docent bij mic?
3 zou geweldig zijn. dank!
bij bestelling eerder deze week ontbraken helaas de recycle zakken. zijn ook niet apart te bestellen. kunnen jullie mij helpen?