onderweg naar voor mijn allereerste bezoek ooit aan een wedstrijd van deze prachtige club!
de krijgt het toch altijd voor elkaar om een clown te laten fluiten. bewonderswaardig.
maatschappelijk verantwoord ondernemen
beste misschien de servers van fixen? het is gewoon bijna niet speelbaar...
lekker dan , de ps4 blijft mijn discs er maar uit gooien. dacht dat het gefixed zou zijn...
fifa 18, het enige wat je nodig heb is een grote dosis geluk
beste , zouden jullie mij even kunnen volgen? er is iets fout gegaan bij de betaling van mijn bestelling
beste , de pincode op mijn cadeaukaart is helaas niet leesbaar zoals te zien op de foto. is er een oploss…
verschrikkelijk al die beelden van , helemaal wetende dat er nog een orkaan eraan komt.
ik zou graag willen winnen. het is een verademing om met een dark te spelen
wat een sfeerloze ambiance in de arena. terwijl belang zo gigantisch is voor nederlands elftal.
kan asjeblieft nooit meer opgeroepen worden voor ! wat een drama
wat is nederland dramatisch. ik weet niet waar ik naar zit te kijken.
de en rug recht houden? lachwekkend
hebben jullie misschien nog een beta code over? mijn code is helaas al in gebruik
ben bang dat het geen cod wwii gaat worden voor mij
wauw, mijn code werkt niet. eindelijk tijd om te gaan knallen, gaat het helaas niet door. heeft iemand nog een code over?
we worden gek!
een tip neem nooit de trein als er andere mogelijkheden zijn! 4.5 uur aan het reizen en nu pas nederland niet uit. reis was 3 uur
kan dat via de whatsapp? er staat een link in de na international app namelijk
ook halen we door deze ongein onze betaalde verbinding in duitsland niet. gaat dat problemen opleveren m…
hoe je van eindhoven in düsseldorf zou komen. trein rijdt niet naar venlo, maar nergens informatie
de is weer waardeloos. treinen die niet rijden, niet aangeven in de app en daardoor niet in staat om de betaalde trein te halen
over een uurtje eerste keer vliegen in mijn leven😆. met vanaf , lekker nederlands gehouden
verschrikkelijk commentaar weer bij , uitslag is wel een beetje genieten
wat een waardeloze keepers lopen er eigenlijk rond op de nederlandse velden
resultaat is 10 kilo eraf in 2 maanden! mijn doel is 65 kilo uiteindelijk, maar ben al trots op wat ik nu heb bereikt😍
ik leef ook veel gezonder nu. weinig snoep, frisdranj en dat soort dingen meer en veel meer groente en fruit!
hardlopen gaat steeds beter! 8.5km aan een stuk door gelopen. dus zonder pauzes en voel me nog steeds relatief goed!
geweldig dat op 20 komt! die engelsen verdienen het niet.
die engelse vrouwen kunnen alleeb maar zeiken en zeuren
heerlijk hoor die kut lag op . in plaats van zo een betaald kissie zouden ze de servers kunne verbeteren...
deze uitslag zou goed zijn voor het franse voetbal!
nou, we weten wel waar de zwakte van ajax ligt dit jaar!
niet echt een antwoord op de vraag😜. helaas geen creditcard
zo tickets bij geboekt! eerste keer vliegen, heb er nu al zin in
beste , waarom is het niet mogelijk om met ideal te betalen als je spotify student wil aanschaffen? niet iedereen heeft creditc.
overigens twijfel ik tussen welke maatschappij ik zou kiezen en vanaf welke luchthaven er het best gevlogen kan worden
zometeen vliegtickets bestellen voor een reisje naar berlijn! dat gaat een unieke beleving worden,aangezien het mijn eerste keer is
we gaan gewoon kampioen worden!
matchday! heerlijk om weer naar de kuip te mogen vandaag voor een oefenwedstrijd van !
rondje van bijna 6 km in 35 minuten gelopen. even goed bijkomenaar voel me erg voldaan.
na 3 weken weer een keer hardlopen. helaas heb ik al last van spierpijn als ik alleen al aan de tocht denk😅
bedankt voor de snelle reactie, ik zal eens een afspraak maken. wat valt er precies onder gebruikersschade?
de batterij van mijn s6 heeft het helaas begeven. waar kan je er een nieuwe batterij inzetten?
vind die geblokkeerde wegen in parijs wel confronterend. helaas kunnen we niet meer zonder deze maatregelen.
zo ziet dus een volle galgenwaard eruit!
haha ik zou er ook niet aan moeten denken in de spits, uitgaan in breda krijgt hierdoor…
lieve , voortaan neem ik liever een snelbus. wat een luxe allemaal. die extra reistijd neem ik voor lief. ns
feyenoord feyenoord feyenoord kampioenen ole ole . heerlijke middag zo
wedstrijd is ondertussen al bijna gespeeld
en weer krijgt het niet voor het niet voor elkaar. begin wel medelijden te krijgen met
een trein die vertraagd is, maar uiteindelijk niet vertraagd is en toch mist iedereen hem... lekker een half uur gaan wachten😓
ben blij dat ik geen auto heb. sta je vaker stil dan dat je rijdt...
en we zijn er uitgegooid...
network lag detected... lekker dan, midden in een potje
dat mensen zich zo voor lul zetten voor een reclame. wat een kattengejank zeg dat gezang
heb mijn gegevens al vaak gedeeld om de genoemde problemen op te lossen. helaas nog steeds geen resultaat
wat een verschrikking is meer reclame dan uitzending. kunnen en aub weer uitzenden.
gewoon meer dan 40 minuten nodig om vanuit erasmus bij de kuip te komen met openbaar vervoer. zuid is helaas slecht bereikbaar
god en ik maar denken dat het qua zenuwen niet erger kon dan vorige week. nou ik heb me vergist. kom op . maak ons trots
lyon is ook wel echt heel dramatisch zeg. geen bal komt aan en missen de makkelijkste kansen
abonnement dat weer duurder wordt, mediabox die het nooit goed doet en geregeld niet de beloofde internetsnelheid
maar eens even gaan kijken naar een tv+internet aanbieder. niet helemaal tevreden met en het is toch een flinke zak geld steed
de hele dag school met uitzicht op stadion ... de kater komt dit keer niet van de drank
dit gaat een slapeloze nacht worden. het kriebelt aan alle kanten als ik denk wat voor een dag het vandaag kan gaan worden!
prachtig om het doek over het gebouw te zien hangen! hulde aan de vrijwilligers!
het blijft indrukwekkend en zo belangrijk om te blijven herdenken.het besef dat vrijheid niet vanzelfsprekend is
kaartje voor het evenement in de kuip ook weer gehaald! hopelijk kunnen we zondag veel juichen voor
het kan me niet eens schelen dat niet het natrappen van kluivert 6 miljoen keer herhaalt.
wat een schitterende dag! het prachtige gevoel dat ik nu heb valt gewoon niet te beschrijven! dank !!!
verwacht bezorgmoment 800 tot 1800. lekker specifiek 😝. dat wordt een dagje pakketje wachten, ook leuk. denk ik
6 potjes coop seizoenen fifa. 6 gewonnen, waarvan tegenstander 5 keer de game zijn verlaten
computer besteld bij een verjaardagscadeau aan mezelf! kan ik na de tentamenperiode flink gaan genieten
ik heb nu wel even tijd. ik weet niet of het uitkomt?
bellen wordt even lastig, heb op dit moment college. is het mogelijk om de overboeking te annuleren en het opnieuw te doen?
het saldo is toereikend voor de overboeking die ik wil maken. normaal gesproken heb ik hier ook geen last van
hoelang duurt het voordat mijn saldo is gecontroleerd voor een overboeking?. gisteren overgemaakt en still waiting
scheidsrechter makkelie wordt dus door de aanklager en de niet serieus genomen.
en ook vandaag weer lekker genieten aan het water
genieten van een heerlijke dag
god wat een commentaar bij zeg.je zou er bijna depressief van worden. iets meer enthousiasme bij deze benefietwedstrijd
lieve bus, ben alsjeblieft 1 keer te laat!
en wordt deze geleverd wanneer je een abonnement bij ziggo neem?
wij hebben een humax 5300c van jullie ontvangen. moet daar per se een smartcard in?
vorige week leuk vertelen hoe geweldig het is bij , maar blijkt toch weer een waardeloos verhaal zonder inhoud
scheidsrechter is weer dramatisch, net als zaterdag
en de tweede tegenstander die het spel verlaat, waardoor ik weer een foutmelding krijg. fix je shit
na 20 minuten 30 verlaat de tegenstander de wedstrijd. krijg ik opeens dat ik de wedstrijd verlaten heb... lekker bezig
nationale studenten enquête ingevuld en mijn mening gegeven over mijn opleiding. wat vind jij van je studie? doe mee! nse.nl nse.nl
altijd als ik battlefield wil spelen, liggen de servers eruit...
wanneer gaat de eindelijk eens optreden in steenbergen tegen het afsteken van vuurwerk...
boze man bij
vanaf vandaag zijn wij nederlanders een ras! het nederlandse ras ofzoiets🤔🤔
je voelt gewoon dat dit een speciale wedstrijd gaat worden.
onderweg naar de kuip voor hopelijk een prachtige wedstrijd met een overwinning voor !
het lukt me helaas niet om assasin creed 3 te claimen in de store
we sluiten de zondag weer af met aflevering 4 van de serie
het zit vandaag niet mee voor het ov in rotterdam. na de treinen staan veel trams stil
ook lekker om een wedstrijd op 60 procent met 61 te winnen! donderdag doorpakken
wat een chaos vandaag in rotterdam mbt het ov naar de kuip
ik blijf me toch verbazen hoe asociaal mensen in het openbaar vervoer zijn. mensen niet de gelegenheid geven om normaal uit te stappen ...
de zondag afsluiten met de documentaire op national geographic!
en daar bedoel ik mee dat discrimineren op welke grond dan ook, natuurlijk niet toegestaan zou moeten zijn
is dan is dat wel toegestaan? meten met 2 maten? 2/2
weigeren op huidskleur mag niet in breda, maar als je iemand weigert omdat hij een rotterdamse voetbalfan 1/2
vandaag een lang dagje met o.a. toegepaste statistiek, policy day, workshop van en de master avond!
lekker avondje politiek vandaag! nederlands debat over het oekraïne referendum en natuurlijk de amerikaanse verkiezingen!
november en er wordt weer vuurwerk afgestoken in steenbergen. zit je dan met 2 bange honden... gelukkig hebben we politie wegbezuinigd.
tja, als je een trein kaap, dan kan je er op wachten dat je er niet ongeschonden uit kom. geen medelijden met kapers
blok 1 van jaar 2 voldoende afgesloten. op naar hopelijk eenzelfde resultaat in blok 2!
heerlijke wedstrijd gezien van feyenoord. heb me erg vermaakt en soms uitstekend voetbal gezien
we zijn weer lekker op weg naar de kuip voor tegen ! hopelijk bekeren we verder!
wat heb ik eigenlijk genoten van de klassieker. spanning, duels, sfeer, doelpunten.
waarom voelt zaterdagochtend half 10 tentamen als een schending van mijn studenrtenrecht 😣
op naar de kuip voor feyenoord tegen luhansk! al die mooie herinneringen aan deze pot een paar jaar geleden 😍
3 uur! debattijd
tentamen was 1 grote amateuristische grap
zijn. en dan niemand in die tentamen zaal rond hebben lopen die het probleem zou kunnen oplossen... 2/2
nog nooit zo een waardeloos tentamen gemaakt op de erasmus universiteit. spelfouten, grammaticafouten en vragen die niet te beantwoorden 1/2
wat een spanning weer zeg. wat een heerlijke manier om weer te winnen zeg!
het mooiste aan de goal was het feit dat de bal 3 maal toe door de benen gaat!
achteraf toch blij dat ik geen kaartjes gehaald heb voor tegen wit rusland. thuis voor de tv hopen dat eredivisie snel start
wie zou hij nog meer op kunnen roepen? begint een hele lijst afwezigen op te noemen
ah jammer dat ik dit nu pas lees. gamemania zuidplein is natuurlijk allang dicht haha
3 uur in de nacht! het is tijd voor hillary tegen donald. ben erg benieuwd hoe beiden uit de strijd gaan komen!
god, we hebben weer iemand die complottheorieën bedenkt bij de
gedegen 1ste helft van gezien. doorzetten in 2de helft tegen roda jc
de kuip zit nou niet echt bepaald vol. hopelijk stroomt het toch nog even flink vol
in de bus naar vanuit steenbergen. hebben er weer zin in en hopelijk pakken we weer de 3 punten!
het boek der boeken!
veel onduidelijkheid bij de tramhalte. aanwijzingen van personeel spreken elkaar tegen.
na een bekeravond en een overwinning rijker, kunnen we weer met zijn allen bij de tramhalte melden
wat een verschrikkelijke tering herrie bij de beker
mag hopen dat veel mensen besluiten om laatste minuten binnen te lopen. echt vol zit het helaas niet
verbazend dat supporters niet met eigen vervoer naar de kuip mogen komen. lijkt me weinig rivaliteit onderling
mooiste van een bekerwedstrijd zijn de kinderen die voor het eerst naar de kuip gaan!
wat een wedstrijd! wat een week! heb er geen woorden meer voor. dit is
dit kan nooit lang goed gaan met feyenoord ben ik bang... het moet een heel stuk feller
wat speelt feyenoord slecht tot nu toe. psv beter in eerste 10 minuten helaas
van stappen we lekker over naar chelsealiverpool! heerlijk affiche
mijn stem weggeschreeuwd en mijn handen roodgeklapt, kan ik zeggen dat het allemaal waard was. wat een avond!
wat een eerste helft van . heerlijke sfeer in de kuip! hopen op een nog betere 2de helft!
ook na alle maatregelen ben ik blij dat ik een kaartje gehaald heb! ik zou europa voor geen goud willen missen
die palen zijn wel echt verschrikkelijk kut. je zoekt een plaatsje met het minst slechte zicht...
we hebben wel allemaal een cadeautje gekregen van !
breaking wedstrijd toch uitverkocht. de laatste 10.000 kaarten zijn weggeven aan de politie!
2 uur na feyenoord in de file? das erg knap. dan moet je een auto hebben zonder wielen.
adriaanse, laat petrovic alsjeblieft uitpraten! dankjewel alvast
waarom doet niet gewoon wat het moet doen muziek afspelen. elke handmatig het nummer aanzetten gaat irriteren zeg
eindelijk kunnen betalen! nu hopelijk ergens een bevestiging kunnen vinden! het is in ieder geval afgeschreven
wat een gezeik weer .voor ik kan betalen is mijn reservering geannuleerd...
ik wil betalen. mijn kaartje is nog 1e minuten geldig. kom op
als nou niet al zijn kansen had verpest, had je met enig gemak gewonnen in zweden... maar als telt helaas niet
fout strootman en zoet. onvoorstelbaar kinderlijk weer..
mijn blijft onder het gamen heel de tijd bieben. jammer dat de garantie verlopen is. is er een oplossing
een sprint van 400m op een berg. ik heb al moeite met 2 traptreden... goed gedaan
een hele vermakelijke dag gehad bij vooral de marineschepen erg indrukwekkend!
eens even gaan kijken bij de in ben erg benieuwd
vind het vooral schandalig dat we weer tot maandag kunnen wachten op informatie, terwijl er zoveel frustratie en irritatie is
meer dan een uur bezig geweest om aan dat kaartje te komen en dan sta je nog steeds met lege handen
wat een amateuristische bende bij . hoop dat er een optie komt voor de kaarten, want dit kan gewoon niet meer
2 uur lang wachten op een mannetje van voor een slimme meter, is de hoofdschakelaar niet genummerd... naja hij was wel aardig
na 6 uur huiswerk maken eindelijk tijd voor een potje battlefield 1, doen de servers het niet van .dan maar verder house of cards kijken
nog 1 dagje genieten van premium en dan is helaas mijn 3 maanden 0.99 euro aanbieding voorbij
opeens 15 nieuwe meldingen. code is al weg ondertussen! sorry voor de andere
mocht er nog iemand een 1 beta code zoeken voor de ps4, ik heb een ongebruikte. je mag hem zo krijgen!
mocht de nog een 2de assistent zoeken, ik houd me aanbevolen. voor het salaris van gullit doe ik het graag!
bedreigen, pesten, zwartmaken en laster zijn nooit de oplossing en het is daarom goed dat doorpakt.
net met veel verbazing naar kingalert gekeken. je bent zelf verantwoordelijk wat je anoniem op het internet zet en volgende consequenties
dankjewel voor de informatie! zal dit weekend dan nog geen voetbal kijken worden thuis
en dat duurt vanaf moment van afsluiten op internet meerdere werkdagen?
als ik een abonnement voor de tv via ziggo zou afsluiten.
hoe lang duurt het voordat je toegang krijgt tot fox sports go, nadat je je heb aangemeld voor een abonnement?
lekker gaan slapen en dan morgen barcelona gaan bezichtigen. ben benieuwd!
zou bij ook de fox sports prijzen voor de eredivisie naar beneden gaan? zou het
straks even kijken of in pineda de mar wordt uitgezonden in een café!
een hele leuke dag erop zitten. gezellig druk met al die leuke festiviteiten in de avond!
jammer van de 4de plaats, maar we kunnen weer een medaille bijschrijven! goed gedaan
registratie voor de eerste 2 vakken van het tweede jaar ook weer uitgevoerd.
zaterdag een dagje doen. even kijken of ik nog een albert heijn kaartje heb liggen.
yeuhh eindelijk mijn herinschrijving goedgekeurd! jaar 2 weer lekker gaan knallen
ben benieuwd wanneer mijn bindend studieadvies van de erasmus bekend gemaakt wordt. 60/60 studiepunten behaald.
van der breggen! geweldig geweldig geweldig. wat een race!
de ajaxspelers laten zich wel heel erg gaan zeg. domme kaarten in de eerste wedstrijd
een keer een reclame waar ik met plezier naar gekeken heb! zou helemaal top zijn als de polonaise in spanje gelopen wordt xd
genoten van een uitwedstrijd van ! heerlijk zeg! deze lijn doortrekken en het kan een mooi seizoen worden
wat een eerste helft zeg
heerlijk die 20. in een fase waarin het allemaal wat moeilijker gaat!
vilheeenaaa!!! nu doorzetten feyenoord en niet achteruit gaan voetballen
kom op feyenoord! laat het dit keer zien in groningen, want de 3 punten gelijk pakken zou een mooie start zijn!
gefeliciteerd!
eindelijk weer de start van de eredivisie dit weekend! hoop dat feyenoord gelijk de 3 punten uit bij groningen mee kan nemen feyenoord
blegh vertraging van de bus is vervelend, aan de andere kant kan je nu langer in de zon staan
het legioen uit amsterdam mjaa
de commentator van begint al in wijvorm te praten...
dat geluid en beeld niet synchroon laten lopen is wel erg hinderlijk
weer lekker terug na een weekendje groningen/drenthe. was erg leuk en dan vooral de hollandse avond!
hoe kan je het nog verkloten. onvoorstelbaar zeg.
toch altijd bijzonder om te zien dat zoiets opgetild kan worden
die oortjes kunnen wel bij het grofvuil. wat een kwaliteit zeg. als je er niks mee doet, gaan ze al kapot
goedenavond, is een bonnetje van de mediamarkt ook geschikt als bewijs van aankoop?
waar is hawaii five o heen? zenden jullie dat niet meer uit op zondagavond?
gadsie zijn mijn oortjes van kapot. en heb ze pas een maandje of 2...
hawaii 5o blijft een heerlijke serie. raak er niet op uitgekeken en kan niet wachten tot volgende week zondag
goedemiddag, hanteren jullie hotels een sluitingstijd. dat je niet meer naar je kamer kan?
misschien iets totaal anders proberen dan gta en cod? misschien dat motivatie en plezier hierdoor terugkomt.
mijn twitter tijdlijn is gevuld met ruzie over een virtueel spelletje... mensen, maak je niet druk en leef je eigen leven🌍🌎🌏
penalty valt opeens uit de lucht
wedstrijd is in ieder geval aantrekkelijker dan die van gisteren
tweede helft is in 8 minuten leuker dan de hele eerste helft
eerste helft van overleefd. gelukkig krijgen we nu de superspannende reclameblokken van npo
dit ek is niet echt reclame voor het voetbal zeg
ja ik keek een aflevering terug van een serie op replaytv
ik wil die aflevering niet opnieuw terugkijken, maar vanaf het punt waar ik gebleven was
wat werkt die horizon app van kut zeg. per ongeluk druk ik op de home button, kan ik 54 minuten opnieuw gaan kijken
twijfel erover om op te zeggen voor een . vooral op zoek naar nieuwe films
hoe lang zijn die codes inwisselbaar in de playstationstore?
vanaf morgen een nieuw leefwijze gaan onderhouden. vroeg uit bed, hardlopen en gezond ontbijten!
ter verveling als je moet wachten en je mobiel leeg is xd
net serieus mensen zien verhuizen met een metro. zou ze geïnspireerd hebben? 🤔
naar huis sturen die kroatische ploeg. onvoorstelbaar dat je je zo moet en kan misdragen in een gastvrij land
bootjes met lange masten, wat doen jullie aan? het openen van de brug heeft weinig positieve invloed op mijn planning om ek te kijken om 3
de buschauffeur van is wereldkampioen roken. rondetijd 43 sec!
heerlijk dat ijsland 11 speelt. erg sympathiek land dat mijn support heeft!
en ik had nog wel de intentie om niet alle wedstrijden te gaan kijken
en wat blijkt? het hele optreden van die agent is terecht!
de was geweldig. volgend jaar zeker weer van de partij! het eind met afrojack kon gewoon niet beter
dat begreep ik al uit uw tweet. besteed er gewoon geen aandacht aan☺
waarom trek je het aan wat iemand anders zegt? lekker laten gaan en je vooral niet verontschuldigen
mocht je een keer niks te doen hebben company of heroes is echt een heerlijk spel. net omaha beach verovert
en als je nou die cod spellen opneem? twee vliegen in een klap haha
het gedeelte van de grap mis ik. misschien even een maandje of 3 elke avond de treinen schoonmaken? aanpakken
maar eens gaan werken aan een gezonder slaapritme. rond 11 uur naar bed en om een uur of 10 er maximaal uit.
wachten op de trein naar rotterdam, na een geweldig weekend. toerdeloo toernooi en verjaardag van mijn tantes
vrij voorspelbaar als je met een waardeloos team voor de bergen naar italië afreist. je kan er een keer op wachten dat hij alleen zit
eurosport is totale aids. waarom bestaan er geen fatsoenlijke kanalen
goedenmiddag, hoe laat zenden jullie de giro uit?
steven kruijswijk in de roze trui blijft een mooi beeld!
een goed idee. het teruglopen van blaak naar zuidplein in de nachtelijke uurtjes is verschrikkelijk haha
halloi doen jullie mee met de actie van voor de voedselbank?
rotterdammers en boten blijft een ongelooflijke combinatie. 100en toeschouwers
onderweg naar het grootste cruiseschip ter wereld. ben benieuwd!
meestal hoef ik niet te betalen voor een traktatie 😜. de foto ziet er overigens wel te gek uit!
ai ai ai. pijnlijk voor nac dat falkenburg de wedstrijd lijkt te beslissen
wat een race weer! heerlijk om te zien en nu hopen dat kruijswijk het voort kan zetten!
verschrikkelijk zeg. gelukkig zijn de eagles terug. trieste bende daar dan in doetinchem
ik heb wat gemist denk ik?
nederlandse giro hoor. wat zal dat die italianen irriteren he
steven kruijswijk heerlijk hoor! nu vasthouden en laat ons verder dromen!
gaat lekker!
gefeliciteerd! zeer zeker verdiend, vermaak me altijd met het kijkeb
ga ook maar eens een gokje wagen op de giveaway van in kingalert. uncharted lijkt me een erg mooi spel!
komen van de bside, fuck bal ligt er alweer in. dat is van een koude kermis thuis komen haha
ingeschreven voor battlefield insider. ben erg benieuwd naar de nieuwe battlefield!
simcity komt opeens met een update. zou er dan weer aan iets gewerkt worden😆
even lekker de giro kijken, hopen op een nederlandse winst. straks walking dead uitspelen en hierna een feedbackformulier invullen
hoofdstuk 3 van walking dead season 2 gespeeld. mooi verhaal weer met wat aangrijpende gebeurtenissen
heb met veel bewondering gekeken naar de prachtige documentaire van heel erg mooi gebracht zeg!
wat een geweldige dag vandaag voor de nederlandse sport met max verstappen, team lotto jumbo en steven kruijswijk!
is dit een subtiele manier van de vs om stiekem te winnen op het
rusland heeft verreweg het beste optreden neergezet. een plek in top 10 moet haalbaar zijn voor
op het
om te janken inderdaad
eindelijk mijn mobiele netwerk gevonden, kan ik weer lekker doelloos liedjes luisteren op spotify
leuk dat belgië door is! als er dan een land moet winnen graag nederland of belgië
waarom gaaf lotto jumbo dat gat nou niet proberen kleiner te maken met renners die straks op die berg er gelijk afvliegen
die sjaak zet zichzelf toch even mooi voor lul😂😂😂 lekker laten janken over randzaken. debiel
fuck cod, battlefield gaat het worden
ik kan alleen een privé bericht sturen als u mij volgt
is goed, dan moet u mij even volgen dan zend ik u de gegevens
succes met de stream! goed dat mensen zich inzetten voor goede doelen.
goedendag, mijn simkaart werkt nog niet en ik denk dat jullie vergeten zijn deze te activeren, mvg erik
en hoe was je bevrijdingsdag? erg leuk, ben van 1 tot 7 bezig geweest met huiswerk maken. ook erg lekker weer op mijn kamer...
marokkanen die autos in de fik steken... iets met wapenstok en slaan?
en de youtubers vallen weer stuk voor stuk door de mand. en dat al 3 dagen na die ene meeting haha
het geslijm in mijn timeline van youtubers is van ongekende grootte...
wat een stelletje lamzakken bij een team dat niet normaal een spel kan updaten. knap hoor
de kuip ligt er weer prachtig bij. hopen dat feyenoord morgen die beker gaat pakken! helaas zal ik zelf in de stad moeten kijken.
onderweg naar de kuip om het strijdtoneel van morgen te bekijken. ben benieuwd hoe het er uit ziet met al die prullaria
straks bekershirt en sjaal halen bij de kuip
zijn de bekerkaartjes al uitverkocht? anders heb ik nog wel interesse 😆
vermeer, kongolo, ramselaar kuyt
dan zou ado den haag kampioen worden 😜
haha maakt niet uit. zolang de videos maar goed zijn en gelukkig zijn ze erg vermakelijk!
spannende serie om te kijken, maar die titel...
nice, vind doom er echt te gek uit zien!
marketingplan ingeleverd. een verslag waar 7 weken bloed zweet en tranen in hebben gezeten
een van de leukste wedstrijden van dit jaar zeg
heerlijk dortmund!
net pitch voor marketing moeten houden. beste van de klas😆. nogmaals hartelijk dank voor het invullen van de enquete!
studentenscouts bij vind het wel een creatieve oplossing. leuk bedacht hopelijk levert het wat op
nu maar gaan slapen, morgen enqûete afnemen in rotterdam en een filmpje opnemen voor onze marketingpitch.
sorry voor de spam nogmaals de link naar de enqûete
van harte gefeliciteerd fish! je hebt het verdiend op naar de 28k.
op dit moment hebben er 25 mensen het ingevuld waarvoor heel veel dank
we proberen ongeveer 200 mensen deze enquête in te laten vullen, zodat wij een mooi beeld kunnen schetsen/
het is voor marketing en we hebben deze gegevens nodig om een afzetlijn te kunnen formuleren betalingsbereidheid van de consument
de resultaten zullen alleen voor ons onderzoek gebruikt worden en niet openbaar gemaakt worden. resultaten blijven anoniem!
zouden jullie misschien deze enquête in kunnen vullen? het is voor mijn opleiding. retweeten zou erg fijn zijn!