zingen ze ook schaam je kapot?
als twente straks ook zijn sportieve plicht doet kan feyenoord wel eens de grote winnaar van dit weekend worden.
wanneer heeft robben dit dan verteld?
we moeten proberen nog voor de rust 23 te maken zodat we met een goed gevoel de kleedkamer in gaan.
ja, eigenlijk gunde niemand ons de titel echt. zo blijkt nu. was om hun eigen onkunde te verbloemen. trie…
dat wordt morgen een extra lange uitzending van
toen we vorig seizoen ongenaakbaar waren gunde iedereen ons de titel. nu we de steun nodig hebben schijnbaar niemand meer.
inderdaad. en mensen uit de provincie en andere landen. eigen volk eerst.
dus eigen volk eerst.
dit nieuws hoort bij thuis.
mijn speler van de week bij voetbal inside is bryan linssen via
zijn dit beelden vd laatste training vandaag?
om met de woorden van theo reitsma te spreken dat is een goed stel. hoop ik
gaan we ff tellen hoe vaak hij inderdaad gaat zeggen. ik gok 34x.
juist. en daar twijfel ik dan zeker niet aan.
aha. gelukkig. dat had ik niet goed begrepen. werd al ongerust.
een grapje, neem ik aan.
ger van rosmalen voor altijd mister vvv
het massale vertrek uit de venlose politiek belooft niet veel goeds voor de toekomst van venlo. ik vrees voor lijken uit de kast.
handsbal niet gezien, twijfelachtige rode kaart, onterechte corner waar doelpunt uit komt. beloning voor makkelie zondag in de kuip
6 dronken pubers lukt het bijna om en de stad venlo als een racistisch bolwerk neer te zetten. onzin en aanpakken dat tuig.
mijn speler van de week bij voetbal inside is sven van beek via
wat een prachtige oude beelden bij studio sport van in een bomvolle koel.
zo, nu ff vanuit venlo naar rotterdam. wat gaan we doen vandaag?
dit vinden jullie de tien beste nummers van de rolling stones
faas wilkes, ooit ook nog eens speler bij geweest.
wat mij betreft mag altijd in dit jubilemshirt spelen. herkenbaar, dat hoort bij een en…
is dit alleen voor limburgse allochtone of zijn andere werkzoekenden ook welkom?
kan hij mooi het wilhelmus mee zingen ben ik van duitsen bloed.
zojuist samenvattingen van wk kwalificatiewedstrijden zuidamerika gezien. ik denk dat dit in nederland ongeveer 10 rode kaarten op levert.
hallo op welk tijdstip begint de dagelijkse nieuwsuitzending?
die messi kan wel eens een hele grote worden.
heeft frank snoeks zich eigenlijk wél voor het wk gekwalificeerd?
de boedel van cruijff.
ik bin bang det we auk gen toeterende nederlanders huure.
inderdaad, een geweldige generatie prachtige voetballers. of we dit ooit nog eens gaan mee maken waag ik te betwijf…
heeft eigenlijk niets te melden bij over van der laan?
als armenië vergelijkbaar is met wit rusland en polen met nederland, dan is er nog hoop voor
namen, namen! ik wil namen vd de verantwoordelijke. met fotos. en dan zaterdag op de markt aan de bevolking tonen.
hier is toch niets mis mee? ’rijke ouders handig met huurtoeslag’ via
weer gratis venlo promotion op tv door bij
mijn speler van de week bij voetbal inside is steven berghuis via
zonder de naam te noemen heeft henk zich blijkbaar flink op hem geërgerd. zure man.
niet alleen feyenoord komt snel op achterstand in de cl
na 2 wedstijden cl heeft feyenoord het zelfde aantal punten behaald als het rijke dortmund olv de veel geprezen bosz.
mijn voorspelling vanavond 13.
ik verheugde mij op de cl deelname van feyenoord, maar nu ben ik al tevreden met een nederlaag van minder dan 3 doelpunten verschil.#napfey
is thuis 11 tegen zwolle een verrassing?
in tegenstelling tot feyenoord tankt psv wel het nodige zelfvertrouwen voor de komende europese wedstrijd.
wanneer wordt afscheid genomen van peter bosz?
dit doelpunt gun ik zeker. en mooi ingetogen juichen zonder vreemde gebaartjes.
hier zal vrijdag wel enthousiast over komen vertellen bij
dat is een goed idee. maar ontvangen de clubs die nu al op echt gras spelen dan ook een zak met geld?
van dit zwakke psv moet je ook gewoon met 10 man winnen.
stond ook al in de telegraaf en bild en zojuist bij cnn.
aangetroffen in goede aarde.....
zijn weer terug van vakantie.
ik mis de keuzes kleine overwinning en ruime overwinnig.
ik dink det ik kaarte kaup in de kwartfinale. bietje taege serieuze taegestanders...
nae. ik heb gen kaart gekoch.
ik heb vanavond wel vertrouwen in feyenoord met in de spits en hoop op een loepzuivere hattrick
mijn speler van de week bij voetbal inside is steven berghuis via
hij overschat zich zelf een beetje als trainer. az en twente zijn voorlopig prima clubs voor hem.
the stones komen er aan, maar..... ik heb nog geen ticket. help!! arnhem of düsseldorf. wie?
ik snap die kritiek op vincent janssen niet. is een van de weinige die bij oranje beter speelt dan bij zijn club....
zo goed als kansloos voor wk en dan deze muziek in arena.
misschien zijn contributie nog niet betaald.
wat. een. voetbalshow.
waarom is dit? bij ek kwalificatie 2016 telde eerst onderling resultaat daarna pas doelsaldo. dat wil ik nu ook...
telt straks bij gelijke stand in poule het doelsaldo of onderling resultaat?
warmlopen.
kampioenselftal + trainers gebleven + nog enkele versterkingen.
we zijn deze keer in elk geval duidelijk niet de bovenliggende partij.
afgegraven kuil us nooit een vuils…
is er een prijs/kostenvergelijking beschikbaar ove…
is 40 jaar goed veld geweest. kwestie van goed ond…
nu speelt al een paar jaar op dat vreselijke kunstgras. komt de club uit adam een keer op bezoek, is het hele land in paniek.
jij schrijft erg onduidelijk.
van persie geblesseerd afgemeld voor tijd om die andere ervaren topscoorder op te roepen.
volgens mij is hij zelfs venlonaar van het jaar geweest. iedereen waardeert zijn verdienste voor de stad en vvv enorm.
berden heeft best wel waardering gekregen. en nog steeds.
voor de sfeer hoop ik dat we morgen liverpool loten. maar dit is toch een maatje te groot vrees ik.
mijn speler van de week bij voetbal inside is vito van crooy via
de laatste keer dat feyenoord zijn eerste 2 competitiewedstrijden won, werden ze kampioen.
gelökkig bin ik neet de enige dae det plastic niks vind. geneet dich dr nog maar van. volgen…
wat een mooie foto. in schitterende tenues en op echt gras! dit hoop ik volgend seizoen beide weer terug…
klopt, maar waarom is volgorde bovenin dan anders dan onder in de stand?
waarom staat sparta onderaan en tegenstander niet bovenaan?
ik heb die eieren nu al 3 weken in de koelkast liggen. wanneer mag ik eindelijk weer eieren eten?
kan/mag die brief openbaar? ben erg benieuwd naar de inhoud.
geen komkommertijd maar eiertijd.
bever. leeuwinnen. de haan
oud feyenoorder johan zal trots zijn op het volle stadion. dat verdient hij zeker.
yep. mijn kleinzoon is geboren vlak voor roda uit. vanaf toen ging het geweldig met feyenoord.
flauwekul. het leeft gewoon niet in venlo e.o helaas.
maar iets positiever voor doen dan het in werklijkheid is, werkt ook niet. dan is…
3
zijn tranen van vreugde
en heel nederland gunt ons deze prijs.
eerste prijs binnen. nog 3 te gaan.
de videoref is al naar huis.
de generatie cruijff van hanegem had ook wel eens geen trek in verre uitwedstrijden en lieten deze d…
hoe noemen we een hampeleman bij het vrouwenvoetbal?
dan hoop ik dat je clubje het succes vd laatste 3 jaar in de eredivisie en…
dat zijn idd veel prijzen de laatste 5 jaar in adam.zeker europees....
als je daar zon blind neer zet kan je net zo goed vragen. wat zelfingenomen onzinpratende flapdrol.
mogen er uitsupporters mee als we in de kwartfinale cl elkaar loten?
eerste actie van de dag inschrijven voor de 10km.
mooi is dat. en ondertussen heeft die mij enorm geblokkeerd. het is in elk…
tip voor aan na het plaatsen van deze tweet.
ik ben nu al heel erg moe.
jij was al af wegens prietpraat.
ik word geen kampioen op dat vreselijke plastic voetballen. mi…
gelukkig, daar zijn we het over eens. ik ga in elk geval vanaf dat plast…
een club heeft geen invloed op gekleurde schoenen, kapsels en mannelijke…
enfin. ik vind plastic voetbalvelden niets. en een dak boven het veld oo…
ik ken geen speler die de voorkeur aan voetballen op plastic geeft. wel…
een man? een mens bedoelt u.
waar staat dat ik dit niet wil? plastic voetbal velden. diewilikniet!
ja. en geen discussies en reclame via twitter.
wanneer weer echt gras?
vrouwenvoetbal.
breitner was eigenlijk gewoon een linksback. daar vond hij zich te goed voor en ging steeds meer mee…
heeft de grote afwezige eigenlijk geen katten?
klaar met kees via
geweldige actie van mr. vvv rossie. op verrassingsbezoek bij mijn zieke buurman. sjaal en bal cadeau van
ik ben benieuwd welke codekleur morgen wordt afgegeven telkens paniek om niks.
zou de sc verkoop met een nieuw stadion capaciteit 12.500 veel hoger liggen?
toen ik fan werd van willem. omstreeks 1974.
club speelt regelmatig in een uitverkocht stadion en trekt structureel meer toeschouwers dan
zon mooie talentvolle speler en uiteindelijk een trieste voetbalcarriere. wel veel $$$$ verdiend.
dat is puur genieten van je uitzicht op de parde in venlo.
ik gunde amsterdam een nouri via
mainz? spelen die ook cl?
demonstranten likken hun wonden. klinkt toch anders dan tevreden over miljoenenschade door aangeri…
als zels bilal begint te scoren, dat belooft weer een prachtig seizoen te worden.
mooie plaatjes.
eerst een goed gesprek onder het genot van een kopje thee.
daar heeft die herman toch een mooi shirt aan. een echt vvvshirt. zou mooi zijn als dit ooit zou terugkeren.
gewoon het mooie geelzwart gestreept. of geel shirt met zwarte v. kleine aanpassing mag.
goede collumn van over de net niet cultclub met rossie in de hoofdrol. hopelijk steken ze er iets van op.
ik neem aan geel zwart gestreept.
moet achter hem geen komma staan?
zal deze aankoop bij monaco breed worden gedragen binnen de club?
benieuwd naar de afscheidsfoto van rossi op social media samen met
nee. maar ik denk niet dat dit speelt.
wat de reden ook is. blijft toch slecht nieuws. rossi is een echte vvver en clubman.
slecht nieuws naar alle positieve berichten van de laatste weken rondom wat zou de werkelijke reden zijn?…
hoe laat zijn jullie in venlo? ik moet nl. nog ff een boodschap doen. zou zonde zijn als jullie voor niets komen.
venlose voetbal vereniging venlo. heeft indertijd betaald als ze naam venlo…
daar is het acquisititeam van druk mee bezig. hebben hoop ik veel inspiratie in rotterda…
gevarrieerd winkelaanbod ipv eenheidsworsten is nog belangrijker…
er is veel werk aan de winkel voor
hoeveel nieuwe spelers cq. eredivisiewaardige versterkingen kunnen we over 3 dagen bewonderen bij…
waarschijnlijk was je het liefste achterstevoren gaan zitten met je oren in de koelkast. dus dit valt nog wel mee.
helaas tegenwoordig ook al voor 6 uur savonds. eigenlijk vrijwel de hele dag door.
bin bliej. t is toch vuul te werkm veur dae onzin.
dat was toch een aardige spelert die nr. 10 toen.
klopt maar sommigen raadsleden zouden tegen zichzelf in bescherming…
en dan direct ook wat meer kwaliteit in de raad. zeurpieten mogen wo…
de zeurpieten in de venlose politiek zijn het weer eens ergens niet mee eens. denken dat 4 wethouders zelfde werk kunnen leveren als 6.
op speciaal verzoek van de a.s. venlonaer van het jaor en omdat ik het natuurlijk eens ben met zijn oproep
de vraag waar heel venlo zich mee bezig houdt is natuurlijk wie gaat opvolgen bij is dé kandidaat?
alles moeten gokken. 2 goed.
zijn dit dan andere tegenstanders dan in de tweede competitiehelft?
en de huldiging weer gewoon op maandagochtend?
moet hij zich morgen melden bij uwv of wordt hij ook gewoon door betaald?
voor mij met afstand de meest memorabele wedstrijd van toen nog fcvvv. helaas werden er geen beelden gema…
hopelijk wordt het wedstrijdverslag van frank snoeks snel op cd uitgebracht. een dubbel cd.
nu de zwarte periode met blind als bondscoach is afgesloten ga ik weer met plezier naar oranje kijken
als ik in spanje op vakantie ben word ik meestal in engels aangesproken…
ik vind de prijs bij erg hoog voor een verouderd stadion dat eigenlij…
ik heb een spraakgebrek. ik lispel. mijn vrouw heet sissie. hoe moet ik haar nu roepen?
ik hoop niet det er veel geld is betaald voor dit ontwerp.
met een groen hemd is hij boswachter en met een blauw hemd viswachter.
ik denk dat jij hebt zitten slapen.
een totaal onbetrouwbare trainer die nooit iets wint vertrekt bij en heel het land is in paniek.
zo, laat nu dat luxemburg maar komen!
ja. daar zit misschien 1 ploeg bij waar we thuis van kunnen winnen.
tegen alle ploegen uit zeker kansloos. dan hoop maar op een mooie loting en op een sensatie in de kuip.
ik heb wel mijn twijfels of feyenoord dit niveau volgend jaar in de cl finale kan evenaren.
nu op sgt.pepper 50 jaar later. nou, dat komt toch heel dicht in de buurt van the beatles.
haha. dat ga ik zeker niet doen. maar iets sneller dan 18 jaar mag wat mij betreft wel.
verstandig van om nu op zijn hoogtepunt bij ajax te vertrekken. meer dan 2e plaatsen zit er de komende jaren niet in.
eric gudde vertrekt als algemeen directeur bij feyenoord via
werd nog nooit landskampioen. laten we dit vooral zo houden.
dat is een mooie oproep. ik hoop dat het helpt.
ik hoop dat de koel ook snel te klein wordt en een groter en moderner stad…
met allemaal die 2e plaatsen is ajax een beetje de joop zoetemelk van het voetbal geworden.
is dit dan die beroemde hollandse school?
wij hebben met bedrijf atelier perree duizenden beeldjes gemaakt van pinda wullum. mag wat mij betreft gewoon worden gebruikt.
wel erg veel aandacht voor de nr. 2 van nederland op social media. gelukkig is dat morgen weer voorbij
zijn er mensen buiten adam die ajax eindelijk na 20 jaar weer eens een europees succes gunnen?
een prima versterking voor
ere voorzitter van
vorige week om deze tijd waren we bijna kampioen.
die korotaev mag blij zijn dat hij veilig zit opgesloten zodat hij deze ellende op kaalheide niet live hoeft aan te zien
en dit vindt jij wel goed?
maar ik stemde ook vvd in de veronderstelling dat deze partij niet in zee zou gaan met groen links en sp.
ik neem aan dat krabbé links is en ook aan de grachtengordel woont. anders kan ik zijn aanwezigheid bij niet verklaren.
ik voel mij meer goed opgelucht.
aanvoerder van ondersteun jij en de club deze actie?
eindelijk actie. weg met die plastic velden!
koeman ook. vond ik toch een redelijke speler en trainer.
en dan weg met dat plastic veld en allemaal op echt gras!
hahaha. hij schiet er wel gewoon een stuk of 25 in. en is gewend om voor een mooie volks…
zou bij vertrek van jorgensen bij feyenoord geen waardige opvolger zijn?
nu de discussie over plastic velden steeds meer toe neemt vraag ik mij af of traditieclub overweegt terug te keren op echt gras?
vandaag maar weer eens kijken. het wordt een mooie feyenoord uitzending. iedereen gunde feyenoord de titel dus hoge kijkcijfers.
hallo mijn speler van de week/maand/jaar is dirk kuijt.
hebben jullie geen ajaxsupporters kunnen vinden die komen vertellen over eindelijk weer een europacupfinale na 21 j…
na jochem vieten weer een duitse keeper onder de lat bij
vraag ga jij nog iets bijzonders doen dit weekend? antwoord ja, zondag ff naar de kuip. voetballen kijken.
inderdaad. is det auk ein optie veur leedjesaovend jocus? 1 leedje per artiest en allein in venlo mei doon.
omdat iedereen het ons zo gunt, zullen wij zondag ons uiterste best doen om de titel te pakken.
ben benieuwd. vnd die ten cate ook niet zo heel betrouwbaar. maar als hij bewijzen zwart op wit heeft...
dit is toch niet echt een verrassing?
hans van breukelen was op zoek naar een mooi complementair koppel. voorbeelden zat wipneus en pim, bassie en adriaan, spaan en vermeegen
ik ook. heb er nog steeds alle vertrouwen in. meer dan in van breukelen.
hans het leuke is van breukelen. pffffff.
die van breukelen wordt niet echt gespaard door nl. pers. en terecht. wat een onbetrouwbare prutser!
je bent het woordje nog voor niet vergeten. is in deze context erg belangrijk.
speelt ajax dan een kampioensduel?
ik heb 23 vrije plaatsen in de auto van venlo naar rotterdam voor zondag a.s. wie?
niets is sterker dan dat ene woord feyenoord. nu ga ik lekker slapen en voor morgen gezond weer op feyenoorders. wij houden vol!
willem ziet het bijna altijd juist.
willen jullie svp nooit meer zon voorbarige feyenoorduitzending maken? iets met beer, vel etc. op 15 mei nag t weer.
beetje teleurgesteld maar alle vertrouwen in volgende week.
bedankt!
nee hoor. blijft zo wel spannend en hoop in adam op prijs blijf nog 1 weekje. maar komt wel goed met feyenoord.
we ontvangen als koploper volgende week thuis in de kuip heracles. ik heb er alle vertrouwen in.
bijna net zo triest of misschien wel nog triester dan die vermeer pop.
volgende week komt het alsnog goed.
maar gewoon thuis in de kuip kampioen worden is ttoch ook veel mooier.
ga je dan de 2e plaats vieren?
ik heb nog zo gewaarschuwd!!
feyenoord, feyenoord, wat gaan we doen vandaag? we worden kampioen!!!!!!
dat hadden ze goed gezien.
de vanzelfsprekendheid dat iedereen er zo maar van uit gaat dat feyenoord zondag wint, maakt mij een beetje ongerust. remember 8.5.2016
dudek. een van de grootste feyenoorders ooit. hij mag de schaal uitreiken. mijn voorkeur heeft hij niet. van hanegem met stip op 1 bij mij.
vak o. mag je van mij overnemen. moet kaart wel nog kopen.
kunnen we volgende week niet gewoon gelijkspelen? heeft vele voordelen. titel week later in volle kuip. excelsior veilig geen gedoe
in 2003 werd kampioensuitwedstrijd vvvado wel gewoon omgedraaid en in den haag gespeeld
daar waar zijn mooiste wedstijden ooit speelde op 13.06.1976 promotie naar eredivisie met steun van 10.00…
staat wel mooi op cv van ten cate ongeslagen als bondscoacj van oranje.
mijn speler van de week bij voetbal inside is nicolai jørgensen via
dat had hij goed gezien.
nee hoor. we worden gewoon op eigen kracht kampioen
de glimlach van bosz geeft aan dat hij blij is met de titel voor feyenoord
tja, dat psv is wel een iets ander niveau dan een duitse middenmotor.
volgens schöne is de nederlaag gisteren bij ajax keihard aangekomen en zal nog zeker t/m a.s. zondag blijven doorwerken.
ik hoop wel dat de gemiddelde leeftijd van dit geweldige jeugdige ajax elftal vandaag vaak wordt vermeld.
ik voorspel bij 3x winst is feyenoord kampioen bosz voorspelt bij drie keer winst is ajax kampioen
heel mooi terug in de eredivisie. hopelijk snel weer op echt gras.
ik heb niets met psv maar voor mij mogen jong psv en oud psv beide hun volgende wedstrijd winnen. kampioen kampioen
in ut oetvak?
om 13.00 uur gaat denk ik wel lukken
ik probeer er bij te zijn .
zojuist mijn seizoenkaart voor a.s. landskampioen verlengd.
volgens schöne zal die nederlaag van pec nog lang doorwerken.
dat was gelukig niet nodig
nooit gedacht dat ik voor een thuiswedstrijd tegen go ahaed nog eens nerveus zou zijn.
dat weet ik niet hoe dat daar gaat. maar 17.30 uur op een doordeweekse dag en toch vol stadion.…
in duitsland speelt de 2e liga zelfs al om 17.30 uur. met veel grotere afstanden dan in nl toch…
erg eenzijdig en gekleurd. zoals npo maar dan rechts.
dat is toch een beetje een foute krant? net zo fout als links maar dan rechts.
gezien het programma kan ik goed leven met de onterechte schorsing van 2 wedstrijden voor onze tonny vilhena.
ik denk dat de wint. wat denk jij? feyenoord
beide bedankt voor het verslag betref vilhena. maar was het nu een aanklager of aanklaagster?
ik verwacht 1 wedstrijd schorsing voor vilhena. als zijn vervanger dan tijdens de winnende maakt vind ik het prima.
waarom wordt hans de koning niet genoemd als bondscoach? is ook een keeper.
eindelijk maar nu ook nog en
het ontslag van blind gaat zo traag. waarschijnlijk haalt hij de kerst gewoon nog met gemak.
die john van t schip lijkt mij ook een goede bondscoach. spreekt perfect amsterdams.
gaat zeggen er werden fouten gemaakt door spelers waar je dit niet van verwacht.
en dan wordt frank de boer genoemd als opvolger van die heeft het inderdaad goed gedaan bijj inter.
de kogel is door de kerk voor de laatste twijfelaars
hans de koning is ook een optie. keeper.
voor alle oranjefans hoop ik op een ontiegelijke nederlaag zodat we eindelijk van die vreselijke blind zijn verlost
sinds het vertrek van de beroemde kwismaster robert bouten is het er niet beter op geworden.
volgens silooy en tom engberts was er niets aan de hand en zij kunnen het weten....
kan best dat er op 14 mei een live uitzending is van een lege parkeerplaats bij de arena ipv de coolsingel.
de strijd om de 2e plaats wordt steeds spannender.
dit kon wel eens de kampioenswedstrijd zijn.
mijn hoop vandaag is gevestigd op
wat gaan we doen vandaag?
heel goed! misschien tzt een mooi positief stukje over onze mooie gastvrije stad.
seedorf wel dan?
ik hoop dat je daar met meer respect wordt ontvangen dan andere exajaxspelers.
benieuwd of de traditie in de arena wordt voortgezet dat ex spelers worden uitgefloten bij terugkomst in die betonbak.
was dat nou een teleurgestelde of een boze witte man?
de tafel zit weer gezellig vol bij vooral links is deze keer gelukkig goed vertegenwoordigd.
er hangt nu al een iet wat bedrukte stemming bij en dan is de einduitslag nog niet eens bekend.
het is een mooie dag om te gaan stemmen. hoop op een grote opkomst en verstandige keuzes voor ons land. we blijven in elk geval positief.
zeker, geweldig actie gisteren! vandaag lid geworden. veel succes verder!!
nu de eredivisie voor dichter bij komt is de vraag krijgen we weer echt gras in de koel? wat vinden jullie?
klopt, maar als je komende 2 wedstrijden wint en de volgende7 wint is er niets aan de hand.
echte cruciale wedstrijden zijn pas vanaf 5 april. ik blijf vertrouwen houden. maar idd niet fijn voor tonny.
elk nadeel heeft zijn voordeel. dan is vilhena in elk geval goed uitgerust als we de beslissende fase van de competitie in gaan.