liever niet maar vrees het ergste
helaaa groen geel 😉
club van het volk
het zit je niet mee sterkte 💪
ondanks het spannende interview vond ze je een hele aardige man😀
mijn dochter wedstrijd mascotte bedankt voor het schitterde wedstrijd tenue en de mooie fotos
sterker door strijd
geen nachtmerries gehad over de arena
succes namens mij en dochtertje hopelijk snel je rentree
blij dochtertje 😀
vandaag was mijn dochter mascotte kunnen jullie de fotos die jullie hebben mailen?
leuk stuk 👍👍👍 volgend ja…
haha ja de foto gaat ook de boeken in we houden het wel stil he hahahaha
top geregeld allemaal
haha bij simon leg ik ze er ook zo in piet 😀😀doe het zondag maar gewoon of met 120 bij iemand op ze neus 🙌👏👏👏
aan de klus
😂😂😂
is er ergens een steam ofzo
haha hij heeft wel ballen eerlijk is eerlijk
jaja aanwezig 😀😀
gaan we voor de prijzen lex 😀
haha ouwe toekomst voorspeller
je was 1 van ons met nadruk op was
marco kom je bij mij ook wat brengen
gijs trouwens onder de parasol geslapen haha 😉🤣
veel plezier vandaag 👍👍
succes maat behalve tegen ons!
pfff heftig
leuk zo een verziekte eerste training
hoe zou het met de staan tribune zijn?
zal je straks zien dijks😞
feyenoord we houden van die club!!
ja inderdaad pff heb gezegd die paar grijze haren zie je toch niet op zwart wit foto 😉maar ook dat hielp niet
moet er dus toch aan geloven
foto moet tot. bepaalde leeftijd om de 5 jaar veranderd worden heb
ok maar naar wie of wat haha klantenservice ? bellen of een mail adres?
heb ook een brief gehad maar die is kwijt dus gewoon niet reageren??
heb ook wat gehad ben brief kwijt dus niet reageren??
wat een ontlading kwam er toen los!! wowww
pfff zenuwen ...we worden kampioen 💪💪💪💪
en mooie snelle deal kunnen maken haha
haha opschieten dan 😉
hebben jullie wel een ander soort vlag te koop? kon niks vinden in de webshop
wordt deze zondag op varkenoord verkocht ?
goos stuur ff je nr in privé bericht
gaaf jan
beste willen jullie aub stoppen met al dat noordholland nieuws. anders ben ik genoodzaakt mijn lidmaatschap op te zeggen.
vol houden dit, nog 5 wedstrijden naar onze droom
sterkte
het was ... 1 groot drama ..
ben je er van overtuigd
weet dat wel maar dan moet je denk naar den haag 😉
gefeliciteerd !
en nu niet van club wisselen
pfffffffff
doen we niet meer aan vrienden dienstjes
en we gaan nog even door...
eigen schuld en bedankt he!
maak er maar twee seconden van pfffffff
succes maat
haha je bent weer scherp
helden
helden
hoe laat worden ze verwacht
hoe laat worden ze verwacht?
trots om een feyenoorder te zijn !in goede en slechte tijden!!
helaas niet genieten van jou piet
pfff wielrennen wat een spanning !
gewoon een klusje lex
5 stuks kos slijt de 1 harder als de ander
kijken of jairo volgende keer wel op de foto durft
denk dat ik er wel 100 terug pakte buiteb
gvd ze hadden je nooit moeten laten gaan !! hadden we tenminste nog wat strijd gehad
en niet terecht
23e minuut eerste goal 04
succes vriend kop omhoog en knallen
donder toch op ga lekker naar je eigen zooitje... wat doe je bij ons .. pffff
sterkte vandaag
veel plezier jan !!
jan kan wel weer janken
jarig? gefeliciteerd !
dat waren nog de beste .. helaas gestolen in de kleedkamer
klote en opstappen kuip
is al weken zo en totaal geen verandering !
niet goed gedaan dus!!
was idd weer te ranzig
ouderwetse buikschuivert
schaam je kapot
mooie dingen
geen zwarte piet.. is geen boodschappen meer bij jullie!! dag dag
idd lodewijks weg er mee
weg met rutte feyenoord onwaardig en van geel kan ook ze spullen pakken..
ben ziek thuis dus kan ook niet op onderzoek maar komt wel
wat een trieste mensen ... schommel van mijn kids voor de deur weg gesneden en gejat!!
timmer zat al op de grond als er nog geschoten moest worden
achter hahn wel mulder niet
please geen wanhoops shit
zeg het al zo lang mulder is geen feyenoord keeper!! wanneer zien de trainers dat is in .. hadden we doesburg nog maar!
enorm blij maar even serieus ... mulder???? ziet dan niemand het ..
noord aa
eens.. schaken en nelom zullen we nu ook niet echt missen denk ik
“@datisfeyenoord wie willen jullie in het goal hebben? warner hahn of toch erwin mulder?”hahn natuurlijk !! mulder durft ze goal niet uit..
drenthe welkom ... tegen normaal salaris ik zeg doen!!!
welkom !! succes sterker door strijd
krabbendam moet ff lekker ze mond houden ontruststoker
bij psv zit toch een net
ik weet denk ik wel een fotograaf
en zo gaat het altijd pfff
wat een corrupt tering zooitje bij jullie!!
een keeper moet altijd reageren gvd mulder rot toch een eind op .. helemaal klaar met die vent
was een topmiddag/avond super geregeld !! bedankt
willem van harte!! jij bent 1 van de mensen die feyenoord groot heeft gemaakt!
“@tombaas1 had ik maar een zus die af en toe een paar lekkere vriendinnen meenam.”ja want je broer laat het flink afweten
had je niet van dat balkon kunnen pleuren...
en wie zit daar achter ????
wat kan feyenoord je week verzieken pfffff .... 3 kansen tegen 3 goals ... keepert 2 meter groot en niet heersen in de 16
zou idd weer top actie zijn
jij weer haha
en we gaan met ze alle naar 020 !!! gezellig
dit wordt toch niet weer zo makkelijk gepikt he..
pffff en een vrolijk kerstfeest ... triest triest triest
weekend weg met vrienden.. geen feyenoord helaas .. dan maar tv pfff 12e minuut kippenvel !! wij zijn feyenoord !!!
je gaat in de spits ???
pffff zucht nog steeds een kater van de wedstrijd !!! feyenoord supporter zijn is vaak geen lolletje
leuk stoeipartijtje onder haha
paar tikkies geven ..
goed bezig mannen
en wat jij doet mag ik trouwens wel mijn mening over geven !
dat hele kut vi ..spelers persoonlijk aanvallen en blijven afkraken dan maak je spelers kapot! maar wij staan achter onze spelers
jij doet hier ook aan mee... kap met dat gezeur van je
“@lunaticnews ondertussen, bij lex immers... ”@mkrabby lees je mee
goede pot weer he van lexi
yess lexxieee legioen wakker worden !!!
koeman had pelle al veel eerder moeten straffen
schandalig blijf je dit gedrag van pelle pikken ?????????????
mooie actie foto mike
lex immers is een topper !!! klasse jongen
voetbal verziek het niet zeggen ze dan pfffff
er is maar 1 echte lexmond en dat ben ik
als je over hebt
nu zo praten kan mij nog een radio verslag tegen 020 herinneren
kap is met dat gezeik op dikke prop ..
en nu niet spelers individueel afkraken blijf is positief gaan ze echt niet beter van spelen hoor
het laat he club maar in de steek was meer van toepassing
“@jackvangelder mag politie zonder zwaailicht en/of sirene harder rijden dan toegestane maximumsnelheid ?”en sigaren gooien??
vrienden en familie van rooie marck gecondoleerd en sterkte !!
ja idd pfff maarja drankje er bij vanzelf warm ... zie je mis zat wel dan
ja man emporium altijd leuk feestje !!
groene hazen tournooi zin in ...
uitvak bij rkc ook al kut !!! losse kaarten maken meer herrie
het is ook altijd wat op de marsmanhove
flitser bij klaverblad .. zoetermeer ...
“@2723079 matchday! de spanning is om te snijden. hoe was barca ??
hopppp half 9 in de auto
op naar kerkrade ... zin ann
ben benieuwd wat je er van bakt haha
schaatshal de arena
“@2723079 de hashtag van niger ghana in de afrikacup zodadelijk is ik moest lachen..”haha je bent weer scherp
“@frl1908nl en we zijn nog even bezig..”schiet is op man jezus
pffff geen varkenoord ... geen vuurwerk... feyenoord anno 2013 kutjesclub
“@112zoetermeer zijn een paar fotografen die het helaas niet kunnen hebben dat 112zoetermeer weer terug komt hooligans..
“@knechtje wat een heerlijke woensdagochtend, met het gezin op de bank pietje bell kijken, geweldig !”blijft leuk he haha
klasse feyenoord goed gespeeld klasse jongen !! lekker zeg!!
121212 het legioen!! feyenoord voor altijd
goos jij bent niet goed!!
“@kleinemittashow m23k wat is dat?”pfffff heb je dat nog niet achter je computertje gezocht ...
vanavond boot feestje op de maas na feyenoord rkc!!
leuk school reisje gehad .. weer wat anders dan de efteling
wat een sfeer daar he pfffff ben je aan het genieten of lekker broodjes kroket eten..
als of fans jou wat kan schelen... je bedoelt zeker geld
cabral in de bassis haha ... leerdam succes bij twente 04
ik denk eerder de schuld van ferrader
leerdam naar twente let maar op pffff
ben je wel fit straks .. geen zig zag lijnen op het doek he
rust zacht gidion !! veel te jong
“@niekottema dan?? 42!!!
haha arme jij wat zij dokter kop
blijf retweeten ... pffff
jaa denk het ook of hij moest lopen
dondersteen van koeman en gaan ..
jaa dat is ook wel zo.. als die volgende week ook maar top fit is !! de wedstrijd van het jaar
ahh en dan precies als lex er niet is ... hier gaat het heel vaak zo hoor die slechte nachten..
joo goos wanneer wilde je verder gaan ??
wil nu wel is winnen retweet al te vaak
he lobke echt klote voor jullie... blijf sterk en wees er voor je zus
classie 8 miljoen ....?????? dacht dat onze spelers niet meer voor lage bedragen weg konden ... zit veel meer in anders blijven
haha jaa een grote goude tand
wat een lul ben jij dan .. kut knvb bemoei je met je 020 kliek en niet met de kuip
zou lekker zijn toch
haha jaa idd voor de renovatie van de kuip
ja idd en over een paar jaar kan je toch weer verdienen op hem
drenthe misschien toch naar feyenoord ... als je het mij vraagt zeer welkom...
straks land ie op illegaal terrein wordt ie neer geknald
eerst een paar bvotjes op drinken en gaan ... come onnn
niks voor jou zo een sprongetje ?
doekje maken met en mug come one
“@2723079 mooi weer om straks binnen een spandoekie te spuiten. dat willen we horen ..
goedzo .. je had hem ook bij mij op zwemles kunnen doen
stuur ff he tel nummer via prive berichtje
mij even weten als je ze zeker hebt ok
jo goos ik regel voor vrijdag dat je binnen dat doek kan spuiten hoe laat ongeveer ?
succes en zorg dat je weer fit in rotterdam terug komt !!
kom maar op met die schoenen
hij is hier hij is daar hij heeft een ooievaar lexie immer lexie immers
we wisten dat ie het kon !
“@reddekuip oproep aan spandoekmakers wie heeft er zin een busje te beschilderen met ons logo? mis jij??
haha wie gaat er naar huis??
wat een heerlijke uitslag is het toch 42 !!! gefeliciteerd
“@hhooligan feyenoord rotterdam 100 years ”dit is niet van feyenoord 100 jaar.. volgens mij coen moulijn
goos weet jij wat er is gebeurd
wat is er gebeurd bij onc clauslaan ????
“@yourinac nu al t mooiste moment van de avond, lurling die schijt aan wilem2 zingt en helemaal niets in rdam!”pfff heb je lurling weer
haha idd jan ....
“@mkrabby heb ook gezegd dat ze uiteraard ook naar de andere plannen moeten kijken”toen lag de tv al aan diggelen
succes vandaag!!! we hebben vertrouwen in je !!
met hoeveel zitten jullie terug in de auto
is goed ben iets voor half 6 op varkenoord
haha jaa denk het ook de herfst komt er aan en spierpijn van je fietstocht
kom maar hier met de stickers ... even zoetermeer wat opfleuren
janmaat in het verkeerde shirt
janmaat
laat die turken maar heel de boel slopen !!!
twee kaarten gewonnen via back to the 90s in ahoy ... wie gaan er nog meer
soort van sportief ... afgelopen weekend toch genoeg gesport lekker vliegen door de kroeg
hoe staat het met de boot??? mooi weer opkomst
blijft toch eeuwig zonde
dus ik zal dus nooit een trotse dochter hebben die aan de hand van papa mee gaat naar de kuip zoals ik dat met mijn vader had !!!
kom maar hier met die bon ... zal de kleding met trots in zoetermeer dragen!!
ok bij deze is mijn vakantie mallorca verpest !! regen .. praag verliezen vitesse verliezen pfffff kut mallorca
mallorca lam lam morgen feyenoord kijken uiteraard met pils
sneijder
morgen naar mallorca ... praag gangers geniet er van support de boys !!! love you feyenoord !!
veel plezier van de week... !!!
“@kellyimmers jaaaaaaaaaaaaa 😭😭😢😭😭😭😭😭 eindelijk schatje!!!!!!! het hem zo!!!
ok houden wel even contact ik ga rond 2
als de kleine wakker is kom ik er aan.. jullie vaste plekjes??
zelfde plekje als altijd of wil je bij het kinder badje zitten
ok ik kan pas na slaapje van de kleine .. rond 2 uur waar ga je zitten .. en neemt kev ook zijn kleine mee
ja is ook zo jayda loopt nu eindelijk dus allemaal stuk makkelijker zulke dingen.. doe lex maar de groeten en geniet van de zon
waarschijnlijk de ballenbak dus geen zwemmen meer
ja is nog toch zondag open dus echt laatste daagjes zou er nog maar even van genieten als ik jou was
laatste paar daagjes werken in het keerpunt
van gaal zal wel weer praats sessie houden
wij willen bertje terug wij willen bertje terug haha
bekend terrein voor je
goed gespeeld hard gewerkt ... doorzetten zo de goals komen vanzelf!!
“@immerslex utrecht feyenoord 1230”piet gaat scoren vandaag let maar op!! ik zeg mario dans
alsof ze zich bij hockey altijd gedragen !!! niet dus
“@wilfredgene schandalig, niet eens shirtjes wisselen geilerd
joo goos sliep al man en vergeten terug te appen .. hoe laat ga jij
“@koss33 wedstrijd dag .... kuip”mag je weer haha succes
de boer ging toch voor de tripple?????
“@jolanda2708 nog 131 uur en 36 min dan begint feyenoord aan de aftrap richting ronde verder!!!!”van mij mag het morgen al zijn
wanneer wordt er gevaren
“@percyimmers gaaf zeg dit broer in de basis kippevel! dit !!!
joden op tv voor kiev ... pffff olie op het vuur
geen lichte zwabberbal?
moeten we keer kijken ..
volgend weekend kijken of we kunnen gaan varen ?
gaat het al beter met die kleine klote hè als ze zo ziek zijn
succes ron maak er wat van daar... we gaan je missen !!
met je leren broek...
kom je nog biertje drinken op varkenoord?
ze smaken al lekker
ok zie je daar dan wel even ..
hoe laat ga je ?
haha jaa echte zaken man maar heb hem al gesproken hoor .. ga je morgen varkenoord jan ?
piet bel mij even over morgen ..
ja is ook zo nouja in het buitenbad is ook niet verkeerd werken.. ga je morgen nog naar de voetbal?
en wij maar werken
altijd leuk die watervaste stift op wen dronken persoon
is die dirk kruijt troep al van de legioenzaal ??
incident mister feyenoord gaat nog geen lampje branden bij hem
jammer niet tegen jou je had een leuk welkom gekregen
mooi man de goeie oude tijd en voor mijn tijd haha
haha is goed wel mooie verhalen die in hoor is nu een collega van mij
eus hij was een bekende van jou zij die
ey jan ken jij deze lelijke vent nog ...
antwoord ik doe mee gezellig biertje der bij en een gezellige auto polonaise
goos ik was het ook vergeten was al gaan pitten spreken binnekort wel af ...
gecondoleerd !!
onze trots vandaag 104 jaar ...
haha zo een figuur ben je wel
ga je naar varkenoord
pfff ik ben toe aan voetbal!!
en al toegehapt op al je partyflock berichten hahaha
nog 1 week en dan weer lekker biertje drinken op varkenoord .. verlof al geregeld .. moooiiii
“@nannna010 hoi, goeiemorgen. ” ze is al vroeg aan het werk...
mensen zie het niet zo somber in .. feyenoord uit eigen kracht voort gebracht!!! de jeugd heeft de toekomst come one
is jammer inderdaad kunnen er geld goed gebruiken ..
pfff 4 miljoen en 25% kwijt en dat voor een van de beste mensen van afgelopen seizoen
men in black 3 op naar het kampioenschap
dat wordt dus niet zo veel geld voor onze aanvoerder
ronnie moet blijven !!! we zijn bezig met iets moois nu..jij als captain moet blijven !!!
jaja ga zo weer even hopen blijft het droog
we kunnen binnekort weer. mijn ouders hebben een nieuwe
ja zij ik ook al maar wil graag uitvak ...
ey jan weet jij hoe ik aan een kaartje voor het uitvak kan komen vriend van mij is mallorca fan...
goos kom nu zwemmen dan buitenbad
aardig foto heb je nu haha