hebben we nog fotos van shakhtaruit? 😀
gelukkig benadert feyenoord de wedstrijd niet als een trainingspartijtje.
supporters met een kaart voor de uitwedstrijd tegen shakthar ontvangen morgen de infomail.
voor de kharkiv gangers het is daar nog gevaarlijker oversteken dan wanneer kluivert ergens is gespot.
feyenoord heeft 1.000 van de 2.000 kaarten voor shakthar uit teruggestuurd. tot nu toe hebben 857 supporters een kaart gekocht.
wat denk je zelf...?
voor de uitwedstrijd tegen shakthar zijn +/ 800 kaarten verkocht tot nu toe.
kaarten shakthar uit dienen in nederland omgewisseld te worden. dit kan voor zwolle, shakthar en swift thuis bij loketten 712. id verplicht
nog een vlucht nodig voor manchester uit? klm vliegt voor iets meer dan 100 euro retour naar bradford vanaf schiphol.
er zijn nog enkele kaarten voor de vliegreis van te krijgen, de rest is uitverkocht.
kaartverkoop city gaat erg hard. nog enkele kaarten verkrijgbaar.
enkele uren voor de kaartverkoop voor silvercards begint is dit de tussenstand voor manchester cityfeyenoord
update kaartverkoop manchester cityfeyenoord. morgen start verkoop voor silvercardhouders.
normaal gesproken zijn de vakken 113, 114, 213, 214, 313 en 314 de uitvakken in het etihad stadium.
overzicht beschikbare plaatsen manchester cityfeyenoord
in het eerste kwartier van de verkoop voor uit zijn er tot zo ver door diamond en goldcardhouders 862 kaarten verkocht.
er zijn inmiddels 700 kaarten verkocht voor shakhtar donetskfeyenoord.
hoe wij het begrijpen zijn de reizen van te koop via de online tick…
supporters die reizen via zullen een kaart voor het middelste vak krijgen.
de feijenoorder organiseert reizen naar manchester
feyenoord krijgt 2.700 kaarten voor city uit €45, p/s. verkoop diamond + goldcards vanaf woensdag, silvers zater…
vluchtopties voor shakhtar donetsk uit
na twee dagen verkoop zijn er iets meer dan 200 kaarten verkocht voor shakhtar donetsk feyenoord.
reizen naar italië is natuurlijk niet verboden. we kunnen het zelf zo gezellig maken als we zelf willen.
vertaling afschrift van napels aan feyenoord
lijst geannuleerde ryanair vluchten, zitten een aantal vluchten van brussel naar rome tussen
ad definitief geen kaarten voor napolifeyenoord
vanmiddag is besloten dat napoli af mag reizen naar rome
komt van de offciële napoli site en wordt vertaald als voorlopig. dus gewoon precies dezelfde situatie zoals het al weken is.
20 euro per retweet voor degene die deze pot nog ff gaat spidermannen in de netten
wij zij er klaar voor!
wat moest er allemaal gebeuren in de kuip voor vanavond?
inbox ze willen ons niet echt hebben in dat apenland.
hou het maar op een kansje.
city heeft 2.400 tickets gekregen maar deze lijken niet allemaal verkocht te zijn.
dat kan inderdaad wel.
het europese shirt zal helaas niet te koop zijn in de fanshop.
geef toe, ze hebben nooit gezegd welk weekend.
volgende week pas duidelijkheid of feyenoord kaarten krijgt voor de wedstrijd napolifeyenoord.
feyenoord manchester city staat onder leiding van de poolse arbiter szymon marciniak.
na 14 jaar eindelijk weer champions league boarding in de kuip! via
geen uitsupporters toegestaan is voor je annuleringsverzekering geen geldige reden. dus kaarten of niet, gewoon gaan!
feyenoord klopt aan bij italiaanse autoriteiten ‘besluit zal snel komen’
komt hier vandaan
morgen gaan er nog zon 750 kaarten in de verkoop voor feyenoordmanchester city. verkoop aan scc, legioenkaarthouders en kameraadjes.
feyenoord stuurde vandaag een delegatie naar napels. verder is er nog niks bekend betreft de uitwedstrijd.
update europese wedstrijden fsv de feijenoorder via
het zit je wel diep he vent! wie heeft ajax eigenlijk geloot in europa?
wie zegt dat er gesloopt wordt? je mag toch wel je club achterna reizen, ongeacht waarheen. nitwit.
haha, dat zullen we nog wel eens zien. vooralsnog een gerucht. verbieden kunnen ze je niks.
deze week gaat er een delegatie van feyenoord richting napels voor een vooroverleg betreft
komt uit eindelijk wel goed hoor. en anders met zijn allen op losse kaarten! boeken die trip!!!!!! 🛫
napoliuit vooralsnog geen kaarten voor feyenoord supporters.
de wedstrijd tegen shakthar wordt gespeeld in charkov en niet, zoals zojuist gemeld door in lviv.
champions league badge beschikbaar in de fanshops! 😍
nogmaals shakhtar speelt in kharkiv.
hierbij het speelschema van poule f! excuses voor de late info moesten eersrt even snel alles snel en goedkoop b…
gelul, niet in trappen.
onderstaand de capaciteiten van de stadions volgens uefa regels. clubs kunnen onderling overeenkomen om hiervan af te wijken.
gelul dat shakhtar in lviv speelt ze spelen echt in kharkiv.
speeldata woensdag 1309 dinsdag 2609 dinsdag 1710 woensdag 0111 dinsdag 2111 woensdag 0612 welke wedstrijd welke dag volgt later
shakhtar speelt niet in donetsk, maar in kharkiv. we komen!!!
kans is een stukje groter op rusland/oekraïne, omdat shakhtar pot 1 en cska pot 4, onze pot elkaar niet mogen loten.
ach man. het gaat nog wel even duren voordat ze bij pot 4 zijn met de loting...
helaas geen tijd meer voor gehad
nog een keer dan maar de speeldata in de groepsfase van de
gozert! jij had vorig jaar met de el als eerste het speelschema op twitter gegooid. vanavond weer met de cl?
volgorde pot 4 klopt bij jullie ook niet
dat was 24 uur geleden al 🐸☕
dit is echt een nummer voor jou… uno dos tres van bassie en adriaan
met de 30 voorsprong van liverpool kunnen we er van uitgaan dat de mogelijke tegenstanders bekend zijn.
fsv de feijenoorder organiseert reizen naar de champions league
daar is rekening mee gehouden bij de kaartverkoop. zijn vakken voor beschikbaar.
5% van 90.000 plaatsen.
overzicht capaciteit uitvakken champions league
morgen vindt hier de loting plaats in monaco. en wij zijn er bij. 👀
we hebben nu ook instagram en fb. of we er wat mee gaan doen geen idee. liken kan altijd.
woensdag 2045 is er nog maar 1 wedstrijd belangrijk voor feyenoord. wordt het celtic, of gewoon liverpool in pot 3…
morgen volgt een overzicht van de capaciteit van de uitvakken in de cl.
we knallen er gewoon nog even 4 proeflotingen uit, gewoon omdat het kan. de potverdeling 13 is al zo goed als zeker. jullie keuze?
zelf loten? dat kan hierrrrrr
voor ons is het duidelijk dit gaat 95% zeker de potverdeling 1 t/m 3 worden in de cl! alleen liverpool kan nog p…
twaalf feitjes voor de cl loting van donderdag! nu ook op onze eigen website.
kans is volgens de bookies 1 op 8.5 dat we nog kunnen loten.
ook in pot 2 is nu elke club verzekerd van champions league voetbal. welke club willen jullie hier uit loten?…
officieel zit donderdag om 1800 in pot 4 bij de loting van de groepsfase van de uefa champions league.
wij zitten met bovenmatige interesse de overige wedstrijden te bekijken! playoffs.
haha ja 6. rtl z. die hebben verder normaal gesproken geen voetbalverstand
dat hymne. wat lekker zeg!
hij is fijn.
nu op ziggo 402 astanaceltic. vanavond 2045 de rest kanaal 402 t/m 406 rijekaolympiakos mariborhapoel sevillabasaksehir nicenapoli
12 feitjes over de loting van ⚽❤
fsv gaat bij voldoende animo georganiseerde vlieg en/of busreizen naar de uitwedstrijden aanbieden.
de loting van de groepsfase van de is donderdag vanaf 1800 te volgen op eurosport 1. ziggo kanaa…
speelschemas als deze kloppen dus niet, dit wordt werkelijk pas donderdagavond na de loting in elkaar gezet door d…
we krijgen veel vragen over wanneer we tegen welke tegenstander zullen spelen. zie onderstaande tweet.
volgens de bookies ziet de potverdeling er voor de groepsfase van de er aanstaande donderdag als v…
vandaag en morgen de returns in playoffs cl! interessant bij falen sevilla, napoli, olympiakos of lpool kunnen we…
dat klopt niet. die nummers 14 worden random toegewezen na d…
wij boeken ook eerst zelf
hou onze site hiervoor in de gaten, per bestemming zullen wij reisopties publiceren.
wordt pas na de loting bekend.
nog iets meer dan een week tot de loting! hier weer vier proeflotingen. welke geniet jullie voorkeur?
in theorie kan feyenoord nog in pot 3 van de komen.
uitgelicht tegenstanders in pot 1
vier bedoelen we natuurlijk
zomaar drie proeflotingen. voor welke poule kies jij?
bij een misstap in de playoffronde cl van sevilla, napoli, liverpool of olympiakos kunnen we ze direct loten.
de potverdeling bij de loting van de groepsfase op 24 augustus, zoals de bookies het verwachten.
ruim 13.000 seizoenkaarthouders van feyenoord hebben inmiddels een passepartout gekocht voor de groepsfase van de uefa champions league.
was ook onze verwachting. maar shakhtar is de kaartverkoop voor de groepsfase begonnen en dat is voor het stadion van metallist.
volgens uefa richtlijnen zal feyenoord hier iets minder dan 2.000 kaarten krijgen.
wanneer feyenoord shakhtar donetsk loot zal de uitwedstrijd in de plaats charkov worden gespeeld, in het stadion van metallist.
we willen niet vervelend doen, maar virtueel valt nu te loten in de cl.. update volgt later op de avond op onze website!
feyenoord start woensdag met blinde kaartverkoop champions league
vak z blijf tijdens groepsfase gesloten overige vakken wel geopend. netten blijven.
het grootste gedeelte van de supporters geeft aan alle drie de uitwedstrijden in de groepsfase cl te willen bezoeke…
dan ga je dan alvast maar voor je tv zitten.
de loting voor de groepsfase v/d champions league is op 24 augustus om 1800. speelschema waarschijnlijk tussen 2000 en 2100 bekend.
hoeveel europese awaydays gaan jullie maken met in de groepsfase van de 😃
nog precies 1 maand tot de loting! op wat voor poule hopen jullie? 🇪🇺🔴⚪⚫
nog 39 dagen tot de loting.. nog even tijd om aan de europese vocabulaire te werken!
mochten jullie zelf alvast de champions league loting uit willen voeren, dat kan
vandans heeft welgeteld 4 hotels, 9 restaurants, 4 barren en 1 discotheek
feyenoord zal naar alle waarschijnlijkheid op trainingskamp gaan naar het oostenrijkse vandans. data 1823 juli.
pot 1 staat vast. welke kampioen willen jullie loten? bayern, real, juve, benfica, chelsea, shakhtar, monaco of spartak? 😃⚽
wij niet. doei.
hou je agenda de volgende dagen leeg!
de uefa beslist in juni of rb salzburg en rb leipzig beide deel mogen nemen aan europees voetbal of niet.
wie vond het ook alweer overdreven om een cl update te doen na de 05 bij groningen?
morgen, als we weer enigszins nuchter zijn.
wieeeeeeee heeft er zin in champions league?
verdeling plaatsen europees voetbal vanaf 20182019 en nieuwe opzet cl + el
vanaf nu zullen we ook in meer dan 140 tekens info rond europese wedstrijden kunnen geven
verwacht van ons geen live verslag vandaag
oefent op 7 januari in het estadio municipal de marbella tegen 🇪🇸⚽
feyenoord speelt zaterdagmiddag 7 januari een oefenwedstrijd tegen fsv mainz. locatie estadio muncipal de marbella.
knvb betreurt goed gedrag feyenoordsupporters in manchester ‘tellen niet meer mee in europa’ via
onjuist. we zouden tweede zijn geworden. dus in positie manutd.
als feyenoord door had gegaan, had het st etienne geloot.
mocht feyenoord met twee doelpunten verschil van winnen en tweede eindigen, ziet het lotingsschema voor…
als alsnog als tweede doorgaat, kan het de volgende cltegenstanders loten lyon, kopenhagen, besiktas en tottenham hotspur !.
vol uitvak morgen, waarvan slechts 58.33% woonachtig in turkije.
hoeveel turkse fans verwachten jullie morgen in het uitvak?
bookies geven gemiddeld 2.35 voor om te overwinteren in de er is dus nog hoop.
mocht alsnog overwinteren in europa ten koste van en tweede einigen, ziet het te loten rijtj…
training is besloten, enkel eerste 15 minuten open voor media.
van feyenoord moeten er rode polsbandjes gedragen worden door kaarthouders in manchester. onze tip? &gt&gt&gt
complete infomail boekwerk manchester united feyenoord is hier te vinden
zondag de infomail voor united uit.
manchester united, feyenoord &amp de engelse politie adviseren om niet zonder wedstrijdkaart af te reizen. wij adviseren dit advies te negeren.
update 8/11 definitief geen extra kaarten uit.
slechts een quote van 1.55 als feyenoord de knockoutfase van de haalt. wel erg laag volgens ons. gaat…
met de groeten uit odessa!
de infomail voor odessa
heb je van feyenoord een kaart gekregen voor entree f / sector 25? dan moet je deze in odessa alsnog omruilen. handig.
waar blijft infomail zoryauit? eerste tientallen zitten al in oekraïne.
goede reis voor iedereen die deze week afreist richting oekraïne. de eerste liveverslagen uit de oekraïnese stripclubs stromen al binnen!
wie was de gelukkige met deze kaart?
manchester uniteduit is binnen enkele seconden uitverkocht. 3100 feyenoorders in het uitvak.
nog 1.860 kaarten beschikbaar voor man utd feyenoord. succes morgen aan alle silvers en natuurlijk aan het ticketsysteem!
slaat echt helemaal nergens op. drink er nog een paar.
uniteduit 1050 kaarten verkocht inmiddels
bijna 900 kaarten verkocht voor uniteduit.
het is niet mogelijk om meer dan één kaart te kopen per account. wil je een kaart kopen voor iemand anders heb je login en wachtwoord nodig.
na twee uur zijn er zon 600 kaarten verkocht voor manchester united feyenoord.
vanaf vandaag hebben 1200 gold en 400 diamondcardhouders de mogelijkheid om een kaartje voor te bemachtigen. silvers vanaf zaterdag
losse kaarten voor zoryauit zijn bij het stadion te koop voor slechts een paar euro. zwarthandel is daar niks geks dus betrouwbaar.
natuurlijk zijn er een paar supporters die kaart odessa hebben gekocht voor de punten.heeft geen zin gaat scannen bij uitvak
volgens onze laatste berekeningen gaan er 472 supporters naar odessa fsv vlucht meegerekend en aantal is inclusief feyenoord business club.
de verwachting is dat er zon 400450 supporters afreizen naar oekraïne komende week.
vlieg met de selectie mee naar odessa of ga gewoon voor zekerheid en boek nog via
reminder voor de supporters die naar oekraïne gaan vergeet je bankpas niet op wereld te zetten.
nog één weekje voor een nieuwe legendarische trip naar oekraïne. wij kunnen niet wachten!
mee naar odessa? het kan nog steeds! … via supportersvereniging fsv
kaartverkoop manchester united feyenoord start woensdag
veel vragen over hoe aan losse kaarten voor uitwedstrijd tegen te komen. onze tip regel via iemand die niet in nl woont. easy.
geen probleem joh als dat wel is, geef je gewoon kaarten door aan elkaar.
er zijn nog genoeg kaarten te koop voor thuisvakken. lite membership icm met een buitenlands adres zou moeten werken
verkoop united uit start woensdag 0900 voor diamond en goldcardhouders, silvers 29/10 930. € 45,50 per kaart en weer omwisselen in nl.
omwisselen kaartje zoryauit morgen de laatste mogelijkheid. van 11001430 uur bij loket 7 t/m 12 tussen poort 52 en 53.
mee naar odessa? het kan nog steeds! via supportersvereniging fsv
de ironie klantenservice begint over laagdrempelige wijze waarop wedstrijd georganiseerd is. niet normaal.
fenerbahceuit geweest? grote kans dat punten niet zijn bijgeschreven. feyenoord doet er niets mee belachelijk!…
boek je trip jaar odessa nog via € 299 voor een directe vlucht, vervoer van en naar het centrum en je wedstrijdkaart!
nog geen kaart voor zorya uit en na vanavond toch nog mee? je hebt nog een half uur om te kopen! na vanavond enkel nog via fsv.
feyenoord klimt door de overwinning van vandaag naar plaats 85 op de uefa ranking.
vandaag is de laatste dag dat je kaarten kunt kopen voor zoryafeyenoord. kaartverkoop loopt tot 2359, zon 350 supporters gingen je voor.
maximaal 150 zorya supporters vanavond in de kuip.
tot en met donderdag 20 oktober 2359 uur
met hoeveel supporters komt zorya naar stadion feijenoord?
de fsvheeft nog steeds plaatsen over voor de eendaagse reis naar odessa voor de uitwedstrijd tegen zorya
momenteel zijn er +/ 300 kaarten verkocht voor zorya uit. je hebt nog tot donderdag om je kaart te kopen.
de palen staan weer overeind in stadion feijenoord voor de el wedstrijd tegen via
voor dm, zou gewoon moeten kunnen zonder te volgen.
je hebt vandaag de mogelijkheid om je kaart voor zoryafeyenoord om te wisselen 11151400, loketten 16
je hebt zijn gebruikersnaam mailadres en wachtwoord nodig om een kaart voor hem te kunnen kopen.
kaartverkoopschema voor zoryafeyenoord morgen 0930 silvercards,1030 seizoenkaarthouders, 1130 legioenkaarthouders.
een informatiemanager die supporters informatie wilt ontnemen. jij kunt zo terecht in het maasgebouw.
wij zijn een groot voorstander van de feyenoord zonder kaarten groep. ook deze groep heeft recht op info. zou jij toch moeten weten
inclusief
200+ kaarten verkocht voor zoryauit. start verkoop voor overige kaarthouders start zaterdag. 👌
wij weten natuurlijk niet van onze 5.600+ volgers waar ze wonen. of je gaat zwartrijden, kijk maar wat je doet.
overigens lijkt ons informatie voor duizenden mensen die feyenoord zonder kaart achterna reizen aardig over fr in europa gaan.
je hoeft ons niet te volgen, dat weet je he?
wie deze reis daadwerkelijk maakt krijgt van ons ter plekke een vodka cola!
voor de échte budgetreiziger. odessa inclusief hotel en wedstrijdkaart € 118,49. hoe dan? nou, zo
in oekraïne betaal je inderdaad met grivnas. 1 grivna is ongeveer 4 eurocent waard iets minder nog zelfs.
kortom eventuele ongeregeldheden tijdens wedstrijd in de stad had directie op voorhand kunnen voorkomen. dan weet u dat.
+ 8000 supporters naar manchester. 3100 stadion. 4900 blijven in stad. dit wordt een mooie trip. en er zal nog lang over gesproken worden.
feyenoord reduceert uitvakcapaciteit in kuip voor en vindt het dan raar dat dat zelfde gebeurt voor eigen fans in manchester. krom.
manchester united en de engelse politie adviseert om niet zonder wedstrijdkaart af te reizen. wij adviseren om dit advies te negeren.
diamond en goldcardhouders kunnen vanaf 26/10 een kaart kopen. silvercards vanaf 29/10. indien kaarten over scc houders op 05/11.
feyenoord krijgt 3.100 kaarten voor manchester united feyenoord.
ho, wacht. dacht dat je op een andere vlucht reageerde. deze is niet via turkish airlines dus geen gratis overnachting.
leuke trip parijs istanbul odessa istanbul gratis overnachting parijs voor € 211
jawel, je krijgt een hotel op kosten van turkish airlines.
vind je een lange tussenstop niet erg? dan vlieg je voor € 199, vanaf düsseldorf naar odessa
ook vanaf brussel vliegt ukraine international. korte tussenstops en het kost je € 248.
ukraine international vliegt deze dagen voor € 239 lange tussenstop en € 273 korte tussenstop.
odessa met nachtje istanbul? ook dat kan! boek met turkish airlines, heen op 01/11, terug op 04/11. vlucht € 300 + gratis hotelovernachting
zijn een aantal kaarten die zijn gereserveerd voor de fsv reis die nog niet verkocht zijn. werkelijk verkochte kaarten +/ 160.
nee, oekraïne is visumvrij.
dat is meegerekend.
in de eerste uren van de verkoop zijn er +/ 150 kaarten verkocht voor de uitwedstrijd tegen zorya.
reis naar odessa is beschikbaar voor €299, voor leden van én
voor €299 kan je direct vliegen op odessa met de makkelijkste optie! vliegtuig gaat gegarandeerd.
reminder morgen om 0900 start de verkoop voor gold en diamondkaarthouders zoryauit. kosten €8,. info
vente en malacia met feyenoord 2 mee naar swansea via
feyenoord gaat zelf maar een kleine 3000 kaarten voor het uitvak krijgen voor de uitwedstrijd tegen
we kennen allemaal wel iemand uit engeland. onze tip regel je kaarten via een engelsman.
club gaat hierbij zelf de mist in. duizenden zonder kaart in manchester. dat gaat gezellig worden.
alleen de mcdonalds paal stond nog overeind..
feyenoord past kaartverkoop aan alle seizoenkaart en legioen clubkaarthouders kunnen een kaart voor deze wedstrijd kopen.
seizoenkaarthouders kunnen zaterdag 15 oktober vanaf 1030 een kaart kopen. legioenkaarthouders een uur later.
feyenoord krijgt 1350 kaarten voor de uitwedstrijd in odessa tegen
wedstrijdkaart zoryauit slechts €8,
moet goedkomen. lezen we mee desnoods koop je een zwart kaartje om/nabij het stadion voor maximaal €5,.
eigenlijk zou ook de mogelijkheid moeten bieden voor normale scc houders om een kaart te kunnen kopen.
de makkelijkste reisoptie naar odessa biedt aan €299 🛫 directe vlucht! incl. 🏷 meer info 🔴⚪⚫🇪🇺
persoonlijk kennen wij al veel meer mensen die naar odessa gaan dan naar fener. wat ons betreft mogen er nóg meer bij! 👀
wordt een hele mooie trip. geweldige stad, goedkoop bier, genoeg vertier. en feyenoord speelt er ook nog eens. 🇺🇦
wij verwachten 5 tot 600 supporters die feyenoord achterna zullen reizen naar odessa. nog niet geboekt? zie reisopties van gisteren!
een stuk of 22. zelfde als dinamo kievuit in 2012.
verkoopplanning uit 3/11 diamond en gold kunnen op wo. 12/10 een kaartje aanschaffen. silvercardhouders op zat. 15/10.
kort na.. waar blijft de info?
odessa &gt woensdagvrijdag vanaf brussel ook mogelijk voor €270,33
reisoptie odessa woe 02/11 t/m zaterdag 05/11 met minimale overstap voor €258,45 &gt 🔴⚪⚫🇪🇺🛫
reisoptie odessa woe 02/11 t/m vrijdag 04/11 met minimale overstap voor €291,47 &gt 🔴⚪⚫🇪🇺🛫
rot maar op met je
enge neel
meer info georganiseerde europese reizen feyenoord via op hun website 🔴⚪⚫🇪🇺
100% kans rond het stadion te koop voor enkele euros.
verkoopinfo data voor zoryauit. met correctie, want dit wordt gewoon in odessa gespeeld en niet in luhansk, zoal…
stap maar over de vangrail, kijk maar wat je doet
fenerbahce supporters zijn aan het boycotten tegen hoge prijzen. ook tegen feyenoord zullen velen niet aanwezig zij…
de kaartverkoop voor zorya luhanskfeyenoord zal voor diamond en goldcardhouders starten op 1210 0900, silvers 1510. verdere info later.
wij zijn daar ook eens in het uitvak geweest 2013. inderdaad echt onmogelijk met taxis. druk qua verkeer ook.
hier moeten dus supporters afgezet worden met taxis in istanbul. tja. vertel ons maar hoe.
nee. er zijn veel supporters die vervoer willen hebben. taxis vrij onmogelijk bij drukke zijde van uitvak.
gaat feyenoord alsnog voor vervoer zorgen voor de uitsupporters in istanbul?
416 kaarten vergeven voor fenerbahceuit. vandaag de laatste mogelijkheid om een kaart aan te schaffen.
de fsv gaat ook reizen aanbieden voor de uitwedstrijden tegen houdt hun website in de gaten!
ook biedt de fsv nog een mooie reis naar istanbul aan. zie
scc + lcc kaarthouders hebben tot as donderdag 22/092359 tijd om een kaartje aan te schaffen voor@fenerbahceuit.
ik denk dat onze volgende vluchten gratis zijn na alle reclame voor jullie?
feyenoord verkoopt dik 400 kaarten voor uit, hierbij zou het ongeveer wel blijven. fbc meegerekend zon 500 supp ri. istanbul.
momenteel bijna 400 kaartjes verkocht voor de uitwedstrijd bij 29 september.
feyenoord krijgt minder kaarten voor uniteduit. waarschijnlijk een kleine 3000.
incompetente organisatie? valt best mee toch....
na de overwinning van vanavond op manchester united is feyenoord virtueel geplaatst voor laatste 32. tegenstanders
wij zijn op zoek naar v1, v2, v3, v4, v5, v6 en v7. waren op zoek naar onschuldige feijenoorders.
grootste wedstrijd in jaren winnen en dan in dit decor, gudde bedankt!
tegenstrijdig..
het zicht van morgen vanaf de eerste ring. via
inbox. spijkert op de kop!
1 paal lijkt ook weg te zijn ?
definitief het algemeen dagblad weet zojuist te melden dat feyenoord inderdaad één veiligheidsnet heeft weggehaald op last van de uefa.
spelers manchester unites slapen naar verluidt in het mainport hotel in het rotterdamse centrum. 🔥🔥🔥
dit lijkt ons de bevestiging net aan de olympiazijde kant van de hoofdcamera ligt inderdaad al op de grond. 😂
momenteel gaat het gerucht dat het net op de lange zijde weg gehaald gaat worden, op last van de uefa. nog niet bevestigd.
terug van weggeweest tierips!
feyenoord komt waarschijnlijk morgen met een hele trieste sfeeractie waarvoor ze zelf zorg dragen plastic vlaggetjes of azklappertjes.....
feyenoord bedekt ook nog eens alle parterre vakken, belachelijk.
scc zal gescand worden bij betreden uitvak
gezellig! genoeg barretjes en dakterrasjes in die metropool. er is niet echt een verzamelpunt.
in 2014 kregen uitkaarthouders 27 uitkaartpunten voor istanbuluit. dat zal dit jaar niet anders zijn.
als we feyenoord.nl moeten geloven ..., zijn er al 211 kaarten verkocht voor fenerbahçeuit. verkoop silver morgen en s/lcc 17/09 10u.
aanvullende info fenerbahçeuit. lachwekkend wijst met het vingertje naar de lokale authoriteiten.
waar heb je het nou over man?!!
feyenoord laat uitsupporters aan hun lot over in istanbul geen georganiseerd vervoer naar en vanaf het stadion. triest &amp lui
en zo hangen de netten er bij..
hoofd? hooguit een aansteker
belangrijke info na aanschaffen wedstrijdkaart voor de uitwedstrijd in istanbul.
ter verduidelijking dit instagram account is niet van ons. wij zitten alleen op twitter.
klopt niet. wij krijgen &lt3800.
wij gaan er vanuit dat feyenoord zélf trieste klappertjes of plastic vlaggetjes neer gaat leggen.
geen sfeeractie a.s. donderdag via
en zo werd europees voetbal in de kuip kapot gemaakt.
slo afdeling laat het na om zich voor nog meer kaarten in te zetten. schandalig. losse kaarten via