de instructies vooraf waren dat dit in elk geval niet was toegestaan.
nee, dat kan sinds twee jaar niet meer.
waarschijnlijk dachten zij dat dit het geval zou zijn op zon centrale locatie.
de scanners moeten nog worden uitgelezen, dus dat is nog niet bekend.
ehhhh...... geen idee, waarom stel je ons die vraag?
men heeft dit bij ons nagevraagd, aantal klopt.
dank voor het aanbod. we slaan m dit keer af.
die veranderde tijdens wedstrijd in een bus.
volstrekt belachelijk. achter de schermen is ook gehele avond geprobeerd dit aangepast te krijgen, zonder succes helaas.
geduld werd vandaag behoorlijk op de proef gesteld. complimenten aan alle supporters. goede en veilige reis naar huis!
portemonnee gevonden van tamara. graag contact via dm
plannen gewijzigd! na afloop staan bussen klaar voor vervoer naar centrum.
lange wachttijd bij ingang. ben je binnen maar liefst drie fouilleringen.
rugzakken, tassen en andere zaken die je niet mee mag nemen kun je afgeven bij de luggage storage achter de contr…
ons is niet bekend of er gependeld wordt, waarschijnlijk niet.
erg vroeg ja, klopt. politie organiseert dit en bepaalt dus. je bent uiteraard vrij om er wel…
rond half 7 vertrekken er vanaf het vrijheidsplein bussen naar het stadion.
we hebben een verloren ing pinpas ontvangen. contact via dm
vakken 30 en 31
na afloop wedstrijd ophouding van ten minste 20 minuten.
dat is aan iedereen zelf. politie wil een grote mars liever niet vanwege verkeershinder.
onze verbindingen zijn slecht hier. hopelijk kunnen we updates blijven geven.
scannen voor eigen uitpunten vanavond vrijwillig. je treft de stewards achter de toegangscontole. achteraf claimen niet mogelijk.
geen idee, dat moet je even zelf checken
na afloop metrostation nabij bezoekersvak speciaal en exclusief geopend voor feyenoordsupporters. wel ophouding van 2040 minuten.
stadion vanavond open om 19.45 uur. slechts twee toegangspoorten. kom dus vroeg naar het stadion!
de feyenoord fan embassy is geopend al vanaf 1000 uur
de politie adviseert en verzoekt feyenoordsupporters om vanavond met het openbaar vervoer metro naar het stadion te gaan.
toegang is gratis.
zeker, de wedstrijd wordt gespeeld op trainingscomplex van metalist, vysokyi, kharkiv oblast, oekraïne,…
vanavond nog expliciet gevraagd. voor en na rijden er metros is door p…
woensdag vanaf 10.00 uur is de feyenoord fan embassy nabij de patrick pub geopend.
vooralsnog heeft niemand vervoer.... heeft contact met onze dlo als het goed is.
deze info wordt op verzoek van rodajc gecommuniceerd opdat de feyenoordsupporters zijn geïnformeerd ove…
op 21 oktober j.l. is op 80 jarige leeftijd nol hendriks overleden. direct na de aftrap volgt er een twee minuten durend applaus.
vrijdag
op de wedstrijddag bij de feyenoord fan embassy. locatie vind je in de infomail.
let op vanavond laatste kans omwisselen voor shakhtar uit.
wordt vandaag gesteund door zon 200 supporters.
biedt de reizen aan inclusief kaart voor level 2.
uiteraard, graag even contact via hierover.
klopt, dus kunnen dan ook pas de reis reserveren.
verzoek is reeds gedaan, maar we verwachten dat het hierbij zal blijven.
nee want de verkoopperiodes lopen gelijk.
de bezoekersvakken bij via
correct, zitten in het totaal. als je met reist kom je op level 2, het middelste vak dus.
mooi alternatief reizen via informatie supportersreis naar manchester city via
moet goed komen dan
dat wel, maar is 40 km buiten de stad.
de trainingen voor europese wedstrijden zijn sinds vorig seizoen besloten.
voor supporters, door supporters.
leuke extra activiteit voor de jongste supporters bij thuiswedstrijden!
1.000 supporters vandaag vanuit breda aanwezig. eindelijk weer eens serieuze awaysupport in
het was een constructieve avond. iedereen bedankt voor de inbreng!
mooi initiatief, wellicht begin van een nieuwe traditie?
passie en gezelligheid gaan hand in hand bij ek walking football
wordt vanavond vanuit vak gg gesteund door 450 supporters.
staat inmiddels online.
onzin. document gisteren in digitale versie door feyenoord ontvangen om 12.47 uur.
feyenoordsupporters definitief niet welkom in napels
die info vermelden we nooit expliciet, maar wat wil je weten?
daar hebben we eerst een officieel bericht uit italië voor nodig. we verwachten het al meer dan een week.
en op weg!
graag even via dm
start kaartverkoop az feyenoord uitgesteld
feyenoord verwacht geen kaarten voor napoliuit
wij gaan altijd voor het maximaal haalbare aantal. info over kaartverkoop via zodra…
ondanks de geruchtenstroom er is nog geen besluit genomen over de kaarten voor de wedstrijd in napels.
waarschijnlijk is er behoefte aan wat sterkers, maar dat is helaas niet verkrijgbaar.
geen idee wat je precies bedoelt.
intenties van feyenoord moge duidelijk zijn we willen graag met zoveel mogelijk supporters naar napels.
ook de uefa is gehouden aan zaken die vanuit overheidswege worden bepaald.
wordt morgen in gesteund door ruim 1.800 supporters.
nog geen duidelijkheid over napoliuit
wij zijn aangewezen en wachten op officiele berichten. uiteraard wel weer direct navraag gedaan.
het ad zal ongetwijfeld navraag hebben gedaan. we kunnen het onderstaande niet bevestigen. maar een reactie is er n…
veel lege plaatsen in het polman stadion. die hadden we graag opgevuld!
aan de bezoekerskant van het stadion wél een gastvrije ontvangst voor feyenoorders.....
laatste bericht uit napels besluit over kaarten voor feyenoordsupporters komt waarschijnlijk pas na het weekend. helaas!
nog niet bekend. definitieve standpunt van autoriteiten komt in loop van deze week.
uiteraard hebben we van onze kant contact met de initiatiefnemers en hee…
robert junier van nam vandaag het stokje over van onze eigen maurice als slo van het jaar. gefeliciteerd!
napoli vooralsnog geen kaarten voor feyenoord
hopelijk draagt het bij.
ook vandaag weer een gastvrije ontvangst voor de supporters van de tegenstander.
de eigenaar van deze bus is klaar voor een mooie roadtrip door europa
graag verwijzen we je hiervoor naar
wij zoeken een nieuwe collega! binnenkort op
met summiere info voor supporters die naar oostenrijk komen feyenoord klaar voor oefenduel met sc freiburg
feyenoord oldstars komend seizoen in actie met extra team
graag even via dm
feyenoorders in rotterdam, nederland en de rest van de wereld maak er een geweldige dag van!
dat mag zeker. we gaan proberen om dit voor elkaar te krijgen.
klopt, met deze kaart heb je in combinatie met je uitkaart toegang tot de bus vanaf heteren.
inmiddels is er toch nog een loket geopend.
bij de oefenwedstrijd tegen mainz in marbella zijn helaas geen horecavoorzieningen aanwezig.
voor algemene vragen of informatie over kaartverkoop is er nu
ja hoor, omwisselplaats ongewijzigd.#azfey
zij konden over vijf plaatsen beschikken
1200, waarvan er ruim 700 uit istanbul reizen. 500 kaarten zijn verdeeld over fanclubs in diverse landen.
goeie vraag. onwil. men voldoet aan voorwaarden knvb en is dus tot niets verplicht.
bezoekersvak az feyenoord 750 kaarten is uitverkocht.
klopt, zie onze tweets van enkele weken geleden svp.
toen ajax op bezoek was was het reguliere vak omgebouwd tot zitvak door uel. hadden niet meer plaatsen beschikbaar.
we hebben in utrecht helaas geen toestemming voor extra autos.
er is alleen gescand bij het omwiselpunt
toch korte ophouding na afloop wedstrijd. max 15 minuten is beloofd.
stewards van man utd vragen bij fouillering om je jas te openen.
in het feyenoord verzamelpunt uiteraard eten en drinken verkrijgbaar en zijn toiletten aanwezig.
straks naar binnen via car park e2, ingang nabij hotel football.
openingstijd van het omwisselpunt verlengd. we blijven ten minste een uur langer open. kom zo snel mogelijk langs.
zolang er aanbod is
wachtrij wederom weg!
geen
nu zelfs live muziek in victoria station. een mooi moment om je kaart op te halen!
momenteel wederom geen wachtrij!
beste jw, is het mogelijk om deze af te geven bij de omwissellocatie?
geen wachtrij bij de omwisseplek!
het omwisselpunt is geopend! kom zo vroeg mogelijk je voucher omwisselen.
goedemorgen manchester! vanaf 9 uur kun je je voucher omwisselen. victoria station, kom vroeg svp.
alle vakken zijn in aaneengesloten deel, we weten niet in hoeverre man utd zal handhaven op vak en plaats.
kleine tassen zijn in principe toegestaan, eventueel is er opslag beschikbaar.
omwisselpunt gesloten, morgen vanaf 9 uur ben je weer van harte welkom. kom zo vroeg mogelijk!
omwisselpunt nog een half uur open. geen wachttijd dus kom nog even langs als je in de buurt bent.
op dit moment is er geen wachttijd voor het omwisselen. ben je al in manchester, kom dan omwisselen.
op dit moment bedraagt de maximale wachttijd voor het omwisselen 35 minuten.
eerste dertig supporters hebben omgewisseld!
vanaf nu kan omgewisseld worden op victoria station. kom direct langs als je in de gelegenheid bent!
er zijn alleen vouchers uitgegeven, dus je kan niets uitprinten.
al in manchester? kom vanaf 15.00 uur meteen even langs victoria station om je voucher om te wisselen.
kaarten worden verstrekt per vak, niet duidelijk is of door manchester united streng gehandhaafd wordt.
uiteraard is dit advies ingewonnen en is de maatregel getoetst bij de uefa.
indien nodig wordt de boarding verwijderd.
helaas niet, maar googlemaps kan daar ongetwijfeld bij helpen.
bij omwisselpunt volstaat eigen uit/seizoenkaart en voucher. maar bij engelse grens heb je id nodig.
wie jij wilt. wij waren bij alle gesprekken en jouw contact ? duidelijk niet.
je moet helemaal niks, maar niemand bij man utd kan gezegd hebben wat jij beweert. het is namelijk totale onzin.
met alle respect en geen idee waarom je het doet, maar er klopt werkelijk helemaal niets van wat je beweert.
totale onzin. op last van overheid mocht man utd alleen onder deze bepaling kaarten verstrekken.
eens, alleen betekent niet meewerken dat die 3100 er ook niet in komen.
en wat is er volgens jou niet waar?
we hebben een gezamelijke brief van man utd en greater manchester police toegevoegd aan infomail.
maar wel om die 3100 man binnen te krijgen.
altijd!
geen expliciete bepaling. wel zegt art 7.02 van de uel regs dat de thuisclub verantw is voor de orde en veiligheid.
daar gaat de uefa niet over. man u moet kaarten beschikbaar stellen, maar bepaalt ook onder welke voorwaarden dat gebeurt.
supporters die laat na 16.00 uur aankomen adviseren wij om vooraf contact op te nemen met feyenoord service en tickets.
regeling die nu staat is verre van zoals feyenoord het wenste.
feyenoord is in deze slechts het doorgeefluik, verantwoording en uitvoering bij man utd en lokale politie inderdaad.
reden is voornamelijk dat politie snel wil kunnen zien wie wel en geen kaart voor bezoekersvak heeft.
er is anders bepaald door politie en man utd. alleen de combinatie geeft toegang zegt men tot dusverre.
het kan vanaf woensdag en we adviseren iedereen direct na aankomst in manchester naar het omwisselpunt te komen.
alle in de voorgaande seizoenen
toch wel, ga het maar na.
man utd geeft al een aantal seizoenen bij eur wedstrijden niet meer dan 3100 kaarten, om veiligheidsredenen zoals men zegt.
dat is reeds gebeurd, en zoals gemeld zonder het gewenste resultaat.
onjuist. man utd heeft daar nooit een punt van gemaakt en speelt geen enkele rol.
en toch is dat zo. bij nationale wedstrijden hanteert man utd andere regels en daar zijn ze vrij in.
omdat de thuisclub dat beslist. pogingen hen op andere gedachten te brengen helaas zonder resultaat.
feyenoord heeft zich verzet hiertegen, maar kon pas over kaarten beschikken indien het met deze maatregelen accoord ging.
aanstaande zondag wordt de infomail voor verzonden. mogelijke aanvullingen of wijzigingen worden via dit account gemeld.
al jarenlang geldt dat bij een buscombi 40% korting wordt gegeven op een stadionkaart.
het staanvak was vanwege uel verplichtingen omgebouwd tot zitvak. ook zijn hadden in totaal slechts 750 kaarten.
verkoopdata zullen ivm worden aangepast. info volgt via website.
verzoek 1.000 ipv 750 kaarten afgewezen. met wat meer bussen en minder autos had dit mogelijk moeten zijn. az handhaaft buffer.
tevens informatie over omwisselen van de kaarten.
enquete van cafe, europese belangenorganisatie voor minder valide voetbalsupporters.
hopelijk kunnen we vandaag informatie geven over de omwisselprocedure voor
toegang tot het bezoekersvak section 9 verloopt via entrance c, section 1011 visiting fans
de feyenoord fan embassy is geopend tot 1630 uur
ja. zorya heeft per abuis een aantal verkeerde kaarten gestuurd. gaat om slechts een klein aantal.
de infomail voor is om 12.00 verzonden. niet ontvangen? meld dit s.v.p. even bij service en tickets.
volg ons even en stuur dm svp
over dit soort zaken kun je contact opnemen met feyenoord service en tickets.
let op vandaag laatste dag verkoop voor in odessa op donderdag 3 november.
er worden max 150 supporters van verwacht.
uitnodiging van de burgemeester voor stuurgroep op de stip op 24 oktober. aanmelden via supportersbco@rotterdam.nl
naar in odessa? verkoop loopt t/m donderdag! vergeet na reservering niet je kaart op de halen bij service en tickets.
personele inzet ongeveer gelijk, maar kosten worden verdeeld over minder supporters.
berekening is als het goed is inmiddels aangepast.
elk uitvak in nl is te klein voor feyenoord. maar als clubs zich aan knvb reglementen houden kunnen we helaas weinig.
daarvoor moeten we je verwijzen naar feyenoord service en tickets.
de thuisclub bepaalt wat het beschikbaar stelt, moeten daarbij aan regels knvb voldoen. en dat doet gae nu.
bij europese wedstrijden worden niet alle kosten doorberekend, maar slechts minimale bijdrage gevraagd.
aantal klopt, is ook conform knvb regels.
we hebben gevraagd hier nog eens goed naar te kijken, het lijkt idd niet te kloppen. wordt vervolgd.
voor dit soort vragen kun je contact opnemen met feyenoord service en tickets.
de datum vermelden we hier niet maar in elk geval op korte termijn.
er zijn geen aantallen en voorwaarden bekend, clubs en autoriteiten gaan nog in gesprek hierover.
feyenoord zal uiteraard haar best doen om het maximale aantal kaarten voor haar supporters te verkrijgen.
los daarvan is dit altijd al de bedoeling geweest. zie ons bericht van een aantal weken geleden.
nog geen informatie kaartverkoop man uniteduit
start verkoop op 12 oktober. uitkaarthouders, seizoenkaarthouders en legioen clubkaarthouders kunnen via een kaart kopen.
bericht voor onze vrouwelijke supporters wij adviseren nog voor komst naar stadion naar het toilet te gaan.
turkse
houd bij stadion rekening met lange wachttijden ivm controles door stewards én politie.
update bussen vertrek rond 19.00 uur, reistijd 60 tot 90 minuten.
wil je met de bus mee? dan rond 18 uur aanwezig. politie zal vertrektijd laten afhangen van verkeersdrukte.
bussen zijn er rond 18.00 uur maar vertrektijden zijn nog niet bekend. als we daar straks meer over horen laten we het weten.
deze is inmiddels verzonden
infomail is vandaag verstuurd. niet ontvangen? neem dan svp contact op met feyenoord service en tickets.
na afloop van de wedstrijd staan er ook bussen gereed richting het oude centrum.
klopt. politie wilde dit eerst niet, maar hebben zich vandaag bedacht.
de bussen staan vanaf 18.00 uur gereed. het gaat om vrijwillig vervoer, als extra service dus. 3/3
feyenoord fan embassy is vlak bij de sultanahmet moskee 2/3
morgen toch mogelijkheid om met bus naar stadion te gaan, vertrek nabij feyenoord fan embassy 1/3
let op politie wil morgen toch bussen inzetten vanaf centrum naar stadion. meer info later vanavond.
het stadion zal morgen niet om 19.00 uur maar om 19.15 uur geopend zijn.
zoals reeds gemeld is de training in het stadion straks besloten.
in de infomail voor staat vermeld dat een identiteitskaart niet geldig is om turkije in te reizen. dit is echter wel het geval.
voor de fsv reis stonden 50 kaarten gereserveerd maar er waren slechts 15 belangstellenden.
mochten er nog zaken wijzigen of indien er aanvullende informatie is melden we dat in de komende dagen via dit account. 2/2
de 386 supporters die een kaart voor kochten ontvangen vandaag een mail met alle relevante informatie. 1/2
al omgewisseld voor zondag laatste mogelijkheid. in istanbul kan niet meer worden omgewisseld.
graag de bevestiging meenemen.
daar kunnen we op dit moment nog geen zinnig woord over zeggen helaas.
info verkoop voor zoryauit in odessa wordt kort na de wedstrijd bekend gemaakt. tot die tijd geen verdere mededelingen daarover.
de infomail voor wordt maandag verstuurd.
er staan 50 kaarten in reservering voor fsv reis.
naar istanbul maar nog geen kaart? verkoop t/m do 23 sept. 350 supporters gingen je voor. omwisselen kan zaterdag en zondag.
nieuwe belijning, zodat onze mindervalide supporters makkelijker hun plaats in het stadion kunnen vinden.
klopt, seizoenkaarten zijn donderdag geldig
beide treinen rijden via kortste route terug naar rotterdam. op dordrecht wordt een tussenstop gemaakt.
het is op dit moment nog niet bekend of de treinen ook terug via utrecht rijden.
eerste trein op de nieuwe aankomsttijd binnen, trein 2 volgt spoedig.
nieuwe verwachte aankomsttijden trein 1 13.45 uur, trein 2 13.55 uur. 2/2
vanwege een ongeval op de route vertrekken treinen later en dient via utrecht gereden te worden. 1/2
let op parallelbaan a16 over de brienenoordbrug richting dordrecht en o.a. afrit 24 feijenoord zijn afgesloten. zie ook vananaarbeter.nl
reservering voor fenerbahçe uit en straks naar eindhoven? haal je kaart even op bij service en tickets.
zolang je zelf maar nuchter bent en je seizoenkaart bij je hebt.
psvsupporters eren en herdenken morgen in het bijzijn van enkele veteranen de bevrijding van 18 september 1944.
flesjes mogen nooit mee naar binnen, tenzij je die medische redenen kunt aantonen.
inmiddels kochten 276 supporters een kaart voor de uitwedstrijd tegen fenerbahçe op 29 september in istanbul. verkoop loopt t/m 23 sept.
dat kan ja
die vervallen
het bezoekersvak van willem ii telt 600 plaatsen, waarmee de club voldoet aan de knvb richtlijn.
daarvoor moeten we je verwijzen naar feyenoord service en tickets, 09001908.
dank, info staat inmiddels op feyenoord.nl
woensdag start verkoop voor wii uit voor dc houders. 600 kaarten, autocombi 4 p/auto, omw omgeving tilburg, bus rdam en bus l zwaluwe.
in de infomail zullen we vermelden hoe het scannen in istanbul verloopt.
klopt
niets is verplicht, het is een advies. alleen taxis kunnen daar komen, weg is verder afgesloten.
voor de mensen die de link niet geopend krijgen, ga naar en klik de wedstrijd fenerbahçe feyenoord aan.
aanvullende informatie kaartverkoop fenerbahçe feyenoord
mooie actie van supporters.
om in elk geval voorkomen dat men ons dwingt die handeling op een voor ons en supporters ongewenste locatie te verrichten.
nee hoor, we zullen iedereen uitgebreide informatie verstrekken.
alle verdere informatie zullen wij enkele dagen voor de wedstrijd verstrekken via een infomail.
dan kun je misschien aan iemand anders vragen om je kaart op te halen.
dat kan niet, want het zijn de fysieke kaarten van fenerbahçe.
met psv uit en roda thuis zal het voor de meeste mensen een kleine moeite zijn.
normaal zouden we vervangende kaart kunnen opsturen, dat gaat nu niet.
tijdens verzenden bedoelden we uiteraard
willen risico vermijden dat kaarten zoek raken.
mindervaliden kunnen kaarten voor fenerbahçeuit telefonisch reserveren via feyenoord service en tickets.
later vandaag via informatie over de verkoop voor de uitwedstrijd tegen fenerbahçe op 29 september in istanbul.
de 1.600 kaarten voor zijn uitverkocht.
mochten er wel extra kaarten beschikbaar zijn dan zal feyenoord er alles aan doen om deze voor haar supporters te bemachtigen.
dat zou betekenen dat er naast het reglementaire deel geen extra kaarten beschikbaar zouden komen.
overleg voor deze wedstrijd vindt pas begin oktober plaats. engelsen hebben wel laten weten dat wedstrijd waarschijnlijk uitverkocht raakt.
berichten over beschikbare kaarten wedstrijd in manchester zijn onjuist. feyenoord gaat voor maximaal aantal kaarten.
feyenoord organiseert nooit reizen naar het buitenland. je kunt wel informeren bij de supportersvereniging.
bij wedstrijden van deze risicocategorie geen/laag vind selectieve fouillering plaats. dus zou niet aan de orde moeten zijn.
door even contact op te nemen met feyenoord service en tickets.
vandaar helaas
matchday! ten minste 500 feyenoorders helaas zonder vlaggen maar gelukkig zonder supportersvreemde hulpmiddelen op weg naar almelo.
in loop van dag toch toestemming voor actie supp. zien hier vanwege onvold. voorbereidingstijd nu vanaf. begrijpelijk en jammer.
almelo verbiedt een sfeeractie met vlaggen die conform de reglementen zijn toegestaan. erg apart.
in een uitverkochte met een kleine 600 supporters van in vak gg. welkom!
vacature bij de feyenoord supportersvereniging marketing communicatie manager
alle informatie over het bezoek van uitwedstrijden staat in de infomail.
onmogelijk om dat hier goed uit te leggen, maar je bent altijd welkom voor een toelichting.
die hebben we ja, maar nog niet in een aparte functie. we onderhouden hierover nauw contact met
infomails voor uitwedstrijden worden in principe altijd op woensdag verstuurd.
versterking gezocht voor ons slo team. reacties via
je kunt hiervoor terecht op de website
er is nadrukkelijk verzocht alle zichtbeperkende materialen in die vakken te verwijderen. heeft toegezegd dat te doen.
infomail voor is inmiddels verzonden. aanpassingen/wijzigingen waarvan ook wij op de hoogte gesteld worden zullen hier gemeld worden
woensdag wordt de infomail voor de wedstrijd tegen psv verzonden.
voor de wedstrijd op de jc schaal zijn 5.500 kaarten verkocht.
klopt, op de vakken 112 t/m 116 aan de noordzijde van het stadion.
omdat treincombi snel was uitverkocht is direct overgeschakeld op verkoop bus. dus had je toch gelijk, excuus voor de verwarring.
op dit moment is alleen de trein vanaf de kuip in de verkoop.
bedankt voor je steun dit seizoen!
supporters kunnen vandaag op de foto met de knvb beker.
bij verlaten uitvak kleine attentie voor de supporters als dank voor de steun.
omwisselen op raakeind? erg druk met vrachtwagens. houd rechts aan en stel daar je auto op.
vanwege koningsdag 2016 is de infomail willem ii feyenoord vandaag al verstuurd.
wederom een hartelijk ontvangst bij
stewards blijven aanwezig opdat je nog kan omwisselen.
pakjes drinken mogen niet mee het vak op. was vooraf niet bekend gemaakt. is beleid en wordt gehandhaafd. excuses voor ongemak.
let op bus rdam vertrekt vandaag niet vanaf de kuip. de opstapplaats staat in de infomail vermeld.
prachtig, een van de vaste bezoekers van onze thuis én uitwedstrijden.
tot gisterenmiddag waren dat er 23.000.
bussen zijn gearriveerd. helaas is één tourniquet defect. nu nog drie beschikbaar
nee, we hebben rond de 80 plekken beschikbaar, inclusief onze blindentribune.
50%, wat neerkomt op ongeveer 35 plaatsen.
let op vanwege een rommelmarkt in de kuip maakt opstapplaats rdam gebruik van toegangspoorten 12 naast de fanshop
17.900 is het totale aantal kaarten voor feyenoord. inclusief fbc, sportclub, sponsors, personeel, spelers, enz.
ongeveer 1750 uitkaarthouders hebben voorrang bij de verkoop.