willem van hanegem klaar met feyenoorddefensie “ongelooflijk gestuntel weer tegen ado”
video speelt royston drenthe altijd met zichzelf met fifa? jack van gelder heeft daar heel…
video eric gudde ‘door de voordeur weg’ bij feyenoord als algemeen directeur
video jan de jong ‘ga het op mijn manier doen’
video wethouder visser overhandigt de rotterdammertpenning aan eric gudde
video vertrekt martin van geel naar de knvb? ‘daar wil ik het nu niet over hebben’
breaking ‘ik verwacht dat van persie in de winter naar feyenoord vertrekt’
lex immers stond versteld van wereldgoal meijers “dacht dat ik in een computerspel zat”
van bronckhorst ‘het ligt alleen aan het afmaken van de kansen’
dirk kuyt cancelt mediaoptreden “nu even niet. even rust in de tent”
renato tapia ‘ik wil alles geven voor feyenoord, ook als verdediger’
arno vermeulen over nieuwe feyenoorddirecteur jan de jong “kanjer”
video jan boskamp “feyenoord is de redding van het nederlandse voetbal”
video royston drenthe “mijn leven verdient een boek”
‘dirk kuyt hield de boel goed op scherp bij feyenoord’
kijk live en gratis naar check en krijg 2 x 10euro om vrij in te zetten!
feyenoord krijgt geen extra kaarten voor manchester cityuit
van bronckhorst ‘alle fouten worden afgestraft op dit niveau’
video steven berghuis ‘dit is doodzonde’
sofyan amrabat bevestigt keuze voor marokko ‘maar nu niet moment dat toe te lichten’
video zelfkritische amrabat ‘twee keer negatief bij goals betrokken’
el ahmadi ‘kansen gaan er niet in, dat is iets van de laatste weken’
van hooijdonk steunt keuze amrabat voor marokko “het is geen transfermarkt”
dirk kuyt over voetbal en geloof ”voor wedstrijden belde ik mijn moeder, vrouw, kinderen en…
karim el ahmadi geschorst voor uitduel tegen manchester city
krijg gewoon 2 x 10 euro om vrij in te zetten op check
video feyenoord overhandigt kleding voor kinderen in oekraïne
foto! vliegtuig met 40 feyenoordfans botst voor opstijgen naar kharkiv tegen vrachtwagen…
‘sofyan amrabat heeft definitief voor marokko gekozen’
‘feyenoord verrast met opstelling voor shakhtar’
video giovanni van bronckhorst voor vertrek naar charkov
kenneth pérez “ik zou er alles aan doen om kevin diks níét centraal op te stellen”
steven berghuis schrikt niet van slechte start feyenoord “gezien de vele wisselingen bij ons……
gertjan verbeek over feyenoorddoelman jones “hij wordt zenuwachtig van diks”
‘van bronckhorst zet feyenoordaanvaller voorlopig op de bank’
kevin diks probeert zich af te sluiten voor kritiek ‘maar hier en daar hoor je wel wat…
oudfeyenoorder ruud vormer schiet op fantastische wijze raak voor club brugge
van bronckhorst ‘te weinig gekregen’
dirk kuyt krijgt koninklijke onderscheiding
fc rijnmond over feyenoord “er komen nog wel betere tijden”
video dirk kuyt en helene hendriks zingen samen het feyenoordlied
‘as roma heeft vervanger in beeld voor rick karsdorp’
oudfeyenoorder kick van der vall over hans kraay sr. “het was een hele rustige en fijne…
wat waren voor kuyt de mooiste klassiekers? “dat je de winst met de uitfans kon vieren”
sam larsson beschrijft ‘magie’ van feyenoord “buitengewone familieclub, wil hier nog jaren……
nicolai jørgensen kan hele wedstrijd aan tegen roda jc “volledig hersteld, nergens last van”…
feyenoord speelt met rouwbanden tegen roda jc vanwege overlijden hans kraay sr.
‘dirk kuyt belt met van persie voor winterse terugkeer bij feyenoord’
bekerloting ajax op bezoek bij twente, psv en feyenoord spelen thuis
van bronckhorst baltempo was gewoon niet goed
video sam larsson een goede avond voor mij
michiel kramer ‘lastig als je geen ritme hebt’
st. juste na feyenoord – avv swift “we moeten bij elkaar blijven, met elkaar blijven praten”
feyenoord mist laatste vier penalties op rij
kijk live en gratis naar en krijg 2 x 10 euro om vrij in te zetten! check …
kijk live en gratis naar en krijg 2 x 10 euro om vrij in te zetten! check
kijk live en gratis naar en krijg 2 x 10 euro om vrij in te zetten! check
video van bronckhorst ‘van swift moet gewonnen worden’
video sam larsson blikt vooruit op feyenoordswift
‘feyenoord begaat een fout die de club jaren terugwerpt’
nicolai jörgensen door lastige periode bij feyenoord “hij krijgt ballen op z’n piemel…
oudfeyenoorders “kuyt wordt gemist, nu geen leiders”
zidane beste trainer van de wereld?! “ik had van bronckhorst verwacht” lol!
aboutaleb ‘goed om uitfans weer te proberen, maar initiatief van fans blijft uit’ …
el ahmadi begrijpt het publiek wel ‘als het 14 staat mogen we ons zeker schamen’
karim el ahmadi ‘ajax had een beter plan’
kijk nu live en gratis naar check … deel! laat je maten ook meegnieten!
kijk straks live en gratis naar check deel!! laat je maten ook meegnieten!
karim el ahmadi ‘dan zie je hoe belangrijk de wedstrijd voor de supporters is’
video el ahmadi “klassieker niet cruciaal, maar wel heel belangrijk”
vader en broer van rick karsdorp kijken uit naar de klassieker “alleen zeggen we liever geen…
video fans voorspellen klassieker… wat denk je dat zij voorspellen?
kijk straks live en gratis naar check deel! laat je maten ook meegnieten!
video persconferentie giovanni van bronckhorst
video karim el ahmadi kijkt reikhalzend uit naar zondag
‘sven van beek mist klassieker door heupblessure’
‘torino wil shoppen bij ajax of feyenoord voor vervanger van belotti’
video jeugdtrainer scholten ‘moeilijk voorspellen wie kan doorbreken bij feyenoord’ …
jeanpaul boëtius over de klassieker “mooiste dag van mijn leven was debuut tegen ajax”
video het europese avontuur van feyenoord onder 19
volg nu ook in de via en maak kans op een wedstrijdshirtje v…
win een wedstrijdshirtje! volg je cluppie nu ook in de nederlandse edivisie!!
renato tapia definitief ook niet inzetbaar in klassieker
van bronckhorst ‘stijgende lijn in champions league’
sven van beek ‘prima wedstrijd gespeeld en dan heb je niks!’
steven berghuis ‘je leert er veel van, maar koopt er niks voor’
sofyan amrabat ‘er zijn nog kansen om derde te worden, daar gaan we voor’
bart nieuwkoop ‘we hebben weer stappen gezet’
video de kuip wordt helemaal gek bij de 10 van berghuis, wow!
bart nieuwkoop maakte zijn rentree en stond meteen in de cl ‘ik had het gevoel dat ik er…
kijk straks live en gratis naar check en krijg 2x10euro gratis!!
jeanpaul boëtius ‘wij hebben ons huiswerk gedaan voor shakthar’
vermoedelijke opstelling van feyenoord tegen shakthar donetsk
‘feyenoord bood zeven miljoen euro op speler van juventus’
maandagtip! ben jij de winnaar van deze max verstappen hoodie?!?!
shakhtarcoach ‘ik ga morgen een held ontmoeten bij feyenoord’
“feyenoord had gezien de kansen gewoon moeten winnen”
giovanni van bronckhorst ‘heel frustrerend’
volledige persconferentie giovanni van bronckhorst
steven berghuis speler van de maand ‘waardering van de supporters vind ik belangrijk. deze……
sofyan amrabat ‘we hebben iets goed te maken in de kuip’
st. juste en tapia hebben iets ‘extra’ “we hebben een goede connectie”
klik hier! en win gewoon deze max verstappen hoodie!!
video hoe gaat het met de geblesseerde marko vejinovic?
gaston taument over spelen voor ajax “nooit, zelfs niet voor één miljoen euro”
sofyan amrabat “investeren in jezelf, trainer overtuigen”
‘fenerbahce belt met feyenoord over robin van persie’
‘fenerbahce belt met feyenoord over robin van persie’
video drenthe op stage bij feyenoord “maar sta niet te popelen om trainer te worden”
‘feyenoord informeerde naar vincent janssen’
ajax en feyenoord in gesprek over toelaten uitfans bij klassieker
‘feyenoord wilde niet verder met dirk kuyt’
ajax en feyenoord in gesprek over toelaten uitfans bij klassieker
‘feyenoord wilde niet verder met dirk kuyt’
steven berghuis ‘van advocaat kan ik het hebben’
supertip gratis livestream nederland – zweden | wk kwalificatie 10102017
vermoedelijke opstelling nederland – zweden
update nicolai jorgensen traint weer mee met de selectie van feyenoord
‘sofyan amrabat kiest voor marokko’
“heel de wereld denkt over oranje wat is daarmee gebeurd?”
kijk nu live en gratis naar check deel! laat je maten meegenieten!
tonny vilhena ‘mijn droomclub is barcelona’
sam larsson over de wedstrijd tegen nederland ”ik wil naar het wk”
video reportage michiel kramer deelt cadeaus uit in sophia kinderziekenhuis
dirk kuijt maakt maanden na de onvergetelijke 14 mei nog steeds emoties los bij het legioen
gemeente bestempeld bekerduel feyenoord – swift als risicoduel
‘fantastisch nieuws voor feyenoord over robin van persie’
‘mounir el hamdaoui staat open voor feyenoord’
‘fantastisch nieuws voor feyenoord over robin van persie’
video feyenoord onder 17 – ajax onder 17 21
video giovanni van bronckhorst in het luxor
eljero elia dolblij met vertrek ‘hoe verder weg, hoe beter’
video voetballer verliest teelbal na trap tussen benen wtf!
video koevermans over jaarcijfers 20162017 van feyenoord
sven van beek over rentree ‘ik ben er persoonlijk klaar voor. afwachten’
kenneth perez zet nog geen streep door kevin diks “de kuip doet iets met je, hij is nog…
feyenoord rapporteert winst van 6,2 miljoen en recordomzet van 68,7 miljoen
sofyan amrabat praat vrijdag met delegatie marokkaanse voetbalbond
feyenoord rapporteert winst van 6,2 miljoen en recordomzet van 68,7 miljoen
mario been denkt dat feyenoord kramer niet veel meer gaat gebruiken “in de prullenbak gooien”
kijk live en gratis naar check deel! laat je maten meegenieten!
kijk straks live en gratis naar check deel! laat je maten meegenieten!
marko vejinovic ‘wil het graag laten zien tegen feyenoord’
eric gudde begint aan laatste week bij feyenoord “sluit met heel goed gevoel af” …
jens toornstra ‘echt twee dagen gebaald van die pingel’
video persconferentie giovanni van bronckhorst
dick advocaat ‘gesproken met amrabat’
video reportage van het europese avontuur van feyenoord onder 19
steven berghuis ‘we missen ook gewoon veel jongens’
sven van beek na rentree ‘keihard voor gewerkt’
video feyenoord fans ontvangen spelers bij hotel
van bronckhorst ‘nu niet het gevoel dat we kansloos waren’
renato tapia dankbaar voor steun fans bij hotel
sven van beek ‘ik heb mentaal moeilijke tijden gehad’
breaking ‘feyenoord zes weken zonder van der heijden’
kijk live en gratis naar check en krijg 2x10 euro om vrij in te zetten!!
kijk straks live en gratis naar check deel! laat je maten meegenieten!
video zes feyenoordfans brengen kaarten terug bij sigarenboer
van bronckhorst ‘tegen napoli moeten we verdedigend goed staan’
steven berghuis “een punt of drie punten tegen napoli zouden heel erg welkom zijn” …
breaking feyenoord maanden zonder eric botteghin
feyenoord gaat met deze aangepaste opstelling spelen tegen napoli
breaking feyenoord maanden zonder eric botteghin
feyenoord gaat met deze aangepaste opstelling spelen tegen napoli
‘sofyan amrabat lijkt oranjeknoop te hebben doorgehakt’
eric gudde over zijn laatste thuiswedstrijd ‘het voelt apart’
janarie van der heijden ‘kampioenonwaardig’
van bronckhorst ‘dit kan en mag niet’
van bronckhorst ‘harde dreun’
kijk live en gratis naar check … … deel! laat je maten meegenieten!
kijk live en gratis naar check … deel! laat je maten meegenieten!
kijk live en gratis naar check deel! laat je maten meegenieten!
tonny vilhena ‘ik ben soms te gehaast in de aanval’
loting knvb beker swift naar de kuip, ajax treft de dijk
video euforie in amsterdam na loten feyenoord
video euforie in amsterdam na loten feyenoord
van bronckhorst natuurlijk raakt die kritiek kramer
sofyan amrabat ‘het was niet best, maar belangrijkste is dat we gewonnen hebben’ …
lex immers ‘feyenoord en ado niet met elkaar te vergelijken’
‘aanvoerder van champions leaguetegenstander feyenoord verdacht van doping’
‘aanvoerder van champions leaguetegenstander feyenoord verdacht van doping’
kijk nu live en gratis naar check deel! laat je maten meegenieten!
kijk straks live en gratis naar check …deel! laat je maten meegenieten!
kijk straks live en gratis naar check deel! laat je maten meegenieten!
video handen van dirk kuyt krijgen plekje op rotterdamse walk of fame
‘knvb wil sofyan amrabat strikken voor oranje’
breaking feyenoordfans definitief niet welkom in napels
breaking feyenoordfans definitief niet welkom in napels
knaller! pak jij deze max verstappen hoodie?!?!?!
steven berghuis mist thuisduel tegen nac breda door schorsing
karim el ahmadi ‘gebrek aan scherpte bij snelle tegentreffer’
jens toornstra ‘je moet een beetje geluk hebben en dat had ik vandaag niet’
steven berghuis ‘van slag na botsing met de jong’
‘vrees voor gebroken ribben luuk de jong’
van bronckhorst over berghuis ‘ben daar wel pissig over’
video michiel kramer reageert bij aankomst feyenoord met ‘kusje’ op teksten van psvfans
video jens toornstra mist levensgrote kans voor open doel in wedstrijd tegen psv
video michiel kramer reageert bij aankomst feyenoord met ‘kusje’ op teksten van psvfans
kijk live en gratis naar check deel! laat je maten meegenieten!
kijk morgen live en gratis naar check deel! laat je maten meegenieten!
persconferentie van bronckhorst voor psv – feyenoord
st. juste ‘we gaan er vol op klappen tegen psv’
nathan rutjes over kampioenschap feyenoord “vond het gigantisch mooi”
nathan rutjes over kampioenschap feyenoord vond het gigantisch mooi
‘toptalent heerenveen verkiest ajax en feyenoord boven psv’
‘politie napels heeft komst feyenoord fans verboden’
‘toptalent heerenveen verkiest ajax en feyenoord boven psv’
‘politie napels heeft komst feyenoord fans verboden’
jeanpaul boëtius ”ik weet zeker dat we hiervan gaan leren
van der heijden ‘verrast door speelwijze man. city’
sofyan amrabat ‘misschien te veel ontzag getoond’
van bronckhorst ‘de jongens moesten wennen aan dit niveau’
sofyan amrabat ‘het was voor mij een beetje onwennig achterin’
sam larsson ‘moeilijk om na zo’n start terug te komen’
jeanpaul boetius ‘het had minder pijnlijk gekund’
video feyenoordfans zingen ‘hand in hand’ bij aankomst spelersbus manchester city
kijk live en gratis naar en krijg gewoon 2x10 euro om vrij in te zetten! …
kijk live en gratis naar en krijg gewoon 2x10 euro om vrij in te zetten!
de volledige persconferentie van karim el ahmadi
pep guardiola ‘gio had het in barcelona altijd over de sfeer bij feyenoord’
de volledige persconferentie van van bronckhorst
kenneth perez vindt dat feyenoord in een 532 formatie moet spelen tegen city
‘gio van bronckhorst komt mogelijk met truc tegen city’
‘gio van bronckhorst komt mogelijk met truc tegen city’
van bronckhorst ‘de terugkeer in de champions league geeft een speciaal gevoel’
‘psv wint zondag wel van feyenoord’
‘sterspeler man city waarschuwt feyenoord alvast’
‘psv wint zondag wel van feyenoord’
‘sterspeler man city waarschuwt feyenoord alvast’
video jerry st. juste over ‘billenknijpende’ tweede helft tegen heracles
steven berghuis we moeten initiatief blijven nemen
jerry st. juste punten zijn het belangrijkst
sfeer! feyenoordsupporters zetten uitvak op z’n kop “wij zijn feyenoord”
michiel kramer klaar voor manchester city “zou mooi zijn, ik hoop het”
breaking ‘feyenoord tegen man city vrijwel zeker zonder jorgensen’
hamsik over feyenoord ‘ze zijn niet het zwakke broertje’
breaking ‘feyenoord tegen man city vrijwel zeker zonder jorgensen’
kijk live en gratis naar check … deel! laat je maten meegenieten!
kijk live en gratis naar check deel! laat je maten meegenieten!
legioen speler van de maand augustus – jeanpaul boëtius
kevin diks ‘ik moet er nu staan, dat weet ik’
michiel kramer ‘ben beter dan vorig jaar’
boëtius over heracles “kan me daar geen makkelijke wedstrijd herinneren”
volledige persconferentie van bronckhorst voor heracles – feyenoord
‘robin van persie bij ontbinding van contract ook niet naar feyenoord’
feyenoord ziet niets in samenwerking met manchester city
‘robin van persie bij ontbinding van contract ook niet naar feyenoord’
van bronckhorst komt met goed nieuws voor sam larsson
video rick karsdorp herstelt goed van knieblessure en traint weer mee met as roma …
van bronckhorst ‘alles komt in dit blok voorbij. we zijn er klaar voor’
tip! ‘met deze opstelling kan ajax domineren tegen feyenoord en psv’
‘feyenoord hoopt op snel uitsluitsel vanuit napels’
van bronckhorst ‘alles komt in dit blok voorbij. we zijn er klaar voor’
feyenoorder keert met blessure terug van interland
feyenoorder keert met blessure terug van interland
‘robin van persie opweg naar portugese competitie’
jan de jong ‘emotie bij feyenoord is wat ik juist zo mooi vind’
‘feyenoord bracht bod van zeven miljoen euro uit op deze speler’
supertip gratis livestream nederland – bulgarije wk kwalificatie 03092017
‘feyenoord bracht bod van zeven miljoen euro uit op deze speler’
jan de jong ‘managen verwachtingen is grootste uitdaging bij feyenoord’
video nicolai jorgensen krijgt klap in het gezicht van kamil glik wtf!
video samenvatting frankrijk – nederland 40
jan de jong heeft zin in nieuwe uitdaging “iedereen die van voetbal houdt, is gek op…
gio openhartig over thuissituatie vroeger “mama heel dankbaar dat ze mij heeft gehouden”
nu gratis livestream frankrijk – nederland 31082017
supertip gratis livestream frankrijk – nederland | wk kwalificatie 31082017
video jordy clasie vertelt over zijn transfer naar club brugge
jordy clasie per direct van southampton naar club brugge
breaking feyenoord presenteert nieuwe algemeen directeur
breaking feyenoord presenteert nieuwe algemeen directeur
breaking ‘feyenoord zal zich in de winterstop weer melden voor van persie’
breaking ‘feyenoord zal zich in de winterstop weer melden voor van persie’
leo beenhakker roept oudspelers op gyan te steunen
breaking ‘feyenoordaanvaller verkast naar willem ii’
van persie over feyenoord ‘ongepast om nu over te praten’
breaking ‘feyenoordaanvaller verkast naar willem ii’
feyenoordfans “derde worden en dan finale europa league!”
napoli stelt geen kaarten beschikbaar voor feyenoordfans
napoli stelt geen kaarten beschikbaar voor feyenoordfans
video georginio wijnaldum speelt tegenstander helemaal zoek
kevin diks dacht dat hij scoorde voor feyenoord “maar jens heeft hem harder nodig” …
boëtius nam larsson mee op de boot door rotterdam. ‘hij komt uit friesland, dat is toch wat…
video cheick touré ‘voor dit moment heb ik hard gewerkt’
video steenpapierschaar om wie de penalty mocht nemen bij feyenoord
kijk straks live en gratis naar check deel! laat je maten meegenieten!
jens toornstra “lijn van resultaten doortrekken, maar wel beter gaan spelen”
jens toornstra niet bij oranje “ik zat op het randje denk ik”
‘feyenoord hoopt robin van persie nog binnen te halen’
‘feyenoord hoopt robin van persie nog binnen te halen’
jan boskamp geniet van ‘handinhandzingende’ swart “klasse sjakie”
feyenoordspits tekent bij bayern munchen
video ben wijnstekers over loting champions league
video mark koevermans ‘op naar geweldige avonden in de kuip’
cor adriaanse “ik ben geboren als feyenoorder en ben nog steeds feyenoorder”
wtf! sjaak swart zingt feyenoordlied ‘hand in hand’ uit volle borst tijdens voetbalgala
video feyenoord reportage voetballer van het jaar gala 2017
‘feyenoord versterkt selectie met deze speler’
‘feyenoord versterkt selectie met deze speler’
video dirk kuyt in zonnetje gezet op voetbalgala