ja bereik was echt fuckt up
en weer niet gezien 😜😂
tot vanavond 😂💪🏻
😍👌🏻 mijn speler van de week bij voetbal inside is sven van beek via
dacht je dat t niet erger kon de vorige x zitten er van die hazes mensjes in de metro🙄
gefeliciteerd !
verschrikkelijk... rust zacht anne faber.. en veel sterkte aan de nabestaande!
zo feyenoord 😍👌🏻waarom kon dit nou niet tegen fucking nac.....
heb t idee dat ze ons nu maar een beetje laten voetballen aangezien we toch niet gevaarlijk zijn😂
omg zo erg he kon t ook echt niet hendelen net 🔫
denk je dat t allemaal niet erger kan zit de metro vol met mensen die naar oktoberfest gaan..
was de wereld maar vergaan dan hadden we dit niet aan hoeven te zien......
waarom kan de wel en niet😭😭 ziet er zo vet uit 😍
alweer😜🙈
oh vlak bij haha ik vakantiepark arcen!
welk vakantiepark?
weeeekend😍
ja hoor pff🙄 nieuwe wekker tegenwoordig🙄
tot en met september heb ik precies t zelfde!
4 nov is radical🙈 ga je alles opruimen?😂
ik ook haha aan t werk💪🏻
ah dat is ook niet alles😂😜
pff wil terug naar t eiland haha dan kan ik tenminste rustig slapen😜
dan kan je mij normaal spotten😇 moest nu werken
tijd voor didadominatoorrrr
nou geloof me er stond een vrouw naast me en die was aan t zeuren over die idioten.... je gaat naar feye…
hey ik kreeg dit na het afrekenen geld is van de rekening maar de kaarten staan niet op me account…
haha tomorrowland is nu ook al 4 dagen, ben daarna wel gesloopt hoor haha
weeeeeekend👌🏻
morgen alleen nog dagje werken en dan vrijdag richting defqon😍🎉
gehoord van vriendin die daar was, ze wou met de metro maar die reed daar niet
nog steeds een beetje boos op thunderdome dat ze de tijd hebben veranderd naar 1800 😡 en zeker de reden😡 werken ge…
haha echt he😂
ik word zo gek he van dagjes mensen op w1🙄🙄🙄
tril gewoon van de zenuwen😭
die denkt even stemmen te winnen zie tweet 2 min er voor🙄🙄
steeds meer zin in tomorrowland 😍 zeker als ik deze line ups zie❤️
wouden ff langs woudestein maar dat was helemaal afgesloten😱🙄 dus gelijk maar rondje stad gedaan met de mooiste afs…
rondjes rijden door rotterdam ❤️⚪️ mooier kan t leven toch niet zijn💕 cant sleep
iemand nog een kaartje voor de maastribune over?😱 rt is lief❤️⚪️
voor hoeveel?
ja wij zoeken nog een kaartje
welk vak?
toch maar naar de kuip toe.. laten zien waarom wij anders zijn
haha snap ik! vandaar dat ik maar niet ga en vorige week masters geweest
morgen ook stadhuisplein? haha of dat maar niet?
haha lekker dit😏 hopen dat t goed komt zo!
haha handig heb ik veel aan😇😋😂
zijn al verstuurd helaas volgens mij.. hopen dat er morgen dan maar een mail komt😱
geven jullie nog codes dit jaar voor tomorrowland 😍🎉
veel sterkte !
zoveel zin in xqclusive ❤
onverwachts tijdmachine ❤😍
is de lijn 104 van ouddorp naar spijkenisse uitgevallen van 629? hij is er namelijk nog steeds niet brrrrrrrr
wat een held die 👌🏻
supportersvereniging? weet niet of ze nog plek hebben
onderweg naar weekendje weg👌🏻 met 26 man zin in👌🏻👯
mooie dingen 😍
heerlijk project one op slam😍
goed zo goed werk van de politie!
zoals t hoort!!! nederland neem aub een voorbeeld aan
ik hoop dat alles vandaag goed gaat met de intocht in maasluis... maak er een kinderfeest van aub zoals t hoort👌🏻
sinterklaas intocht vergelijken met een risicowedstrijd waar gaat t heen met deze wereld🙄en dan ook nog is dit..
ook leuk hij stemde automatisch ja 😱 was niet de bedoeling maar ken m niet meer veranderen was gewoon me tl aan t doorlezen
pff ze maken het steeds moeilijker uitleggen zo als ze nou gewoon een lijn trokken🙄
zag ik nou een hagenees met verstand of zag ik t te snel😱
en weet je wat die dokter zei ..... pompen met die subwoofer😍🎉 wat een heerlijke set😍🎉
vind de hardbass line up beetje tegenvallen...
op een overwinning maar groetjes uit die kut stad👌🏻🍸 wel leuk feestje🎉🎉🎉
goed bezig op de vroege ochtend💪
oh laat maar ik hoor ze al fluiten😂
wachten.. tegen over die pisbak lijkt net alsof er geen wedstrijd is zo stil is t😂
nee daar zijn we geweest haha 😊
dat hoef ik ook niet😂 maar leven zonder muziek is geen leven
rellen in de hel want in de hemel is geen hardstyle 👌🏻🎉
ziet er weer mooi uit!
zullen we met ze 4e gaan dan?😁
gezocht 2 mensen met wie we mee kunnen rijden of 2 mensen die met ons mee willen rijden met heracles uit!?
super tof goud op de balk! 😍
het is ondertussen al gelukt👌🏻
ik heb nog geen kaartje maar krijg dit?!
gelukkig hebben ze bij jou wel goed gereageerd!
die raden maar aan om weg te gaan want kon de veiligheid niet garanderen
toen de beveiliging er bij gehaald waardoor ze een kanker kakkerlak genoemd werden uiteindelijk iemand gevonden van de organisati
pff fuckt up maar helaas herkenbaar bij vriend van mij gebeurd op free festival
craft zeker....
heerlijk setje van overigens 😍
die tomorrowland live stream is echt om te huilen 😭 valt hele tijd weg
volgende weeeeeek dominator😍
lichte vertraging sta al fucking 45 min te wachten op een pendelbus en nu nog is 15 min wachten op de metro...😡
ondertussen sta ik al een half uur op een pendelbus te wachten 😭😭😭😭
woon je zo dichtbij moet je nog wachten omdat de metro niet rijdt😭
nog 11 dagen tot dominator 😍 zoveel zin in👯😍
wat moeten we nu doen? kunnen jullie me hierin misschien helpen?
mijn vader zou als cadeau van mij dit weekend naar cas gaanmindervalide kaarten maar heeft zijn ribben gebroken dus kan niet
kunnen jullie alsjeblieft reageren??!
hoi mn vader kan niet meer ivm gebroken ribben maar heeft rolstoel plekken wat moeten we nu doen?
hoi ik heb een reactie formulier ingevuld met een vraag 😊 hoop dat jullie hem snel beantwoorden
dagje werken dan richting oisterwijk intents weekend 😍🎉🌞
misschien een tip geven wat we kunnen doen? 2/2
hallo, wij hebben van de week een monteur langs gehad omdat we geen tv hadden en nu geeft de tv het zelfde weer aan kunnen 1/2
morgen 12 graden 3x raden wat ik ga doen...😱 pff zit weer niet mee
wat is t toch heerlijk festival weer helaas alleen vandaag geen festival 😭
onderweg naar supersized
op naar de metro stadhuisplein varkenoord kuip hopelijk weer stadhuisplein💪👌🏻
ik heb een fooooodbaby😱😭
.@knvb ik denk dat de wint. wat denk jij?
vermeer kasdorp vilhena kuyt
kan niet wachten🎉👯
mn fb geeft alleen nog maar de populairste berichten niet meer recent weet iemand hoe je dit kan veranderen?
inderdaad 👌🏻
op naar t vliegveld😱
laatste dagje ultra😱 morgen nog een dagje hier en dan savonds terug😱😱
net heerlijke american pancakes gegeten mmmmm
sterkte!
heel jammer nu moet ik nog langer wachten op je hardstyle track tot ultra dan maar
kaartje voor de finale gekocht alleen kan het niet downloaden meer mensen last van?
nice we komen naar jacked en ultra!
haha helaas wou hij niet
goedemorgen uit het mooie miami 😍☀️ op naar orlando!
zo op naar schiphol
koffer klaar, teennagels en nagels &amp wimpers laten doen! straks nog even lekker zonnen en dan helemaal klaar! maandag miami here we come😍❤️
weet ik maar vroeg me af of iemand hem niet gebruikte
iemand een code voor tomorrowland gehad die die niet gebruikt? kijkt heel lief
mijn bus van 759 104 is niet op komen dagen.. nu kom ik te laat aangezien de bussen maar om het half uur rijden!..
eindelijk 😍kom maar op met die feestjes🤑👯
nog 8 daagjes werken en dan😍☀️☀️👯
ik had een presale code van een vriend gehad geactiveerd. die vriend heeft een mail gehad maar ik nog niet
gefeliciteerd!
mijn speler van de week bij voetbal inside is kenneth vermeer via
blijft mooi dit
heel veel succes lexie! bedankt voor al je werklust! we zullen je werklust zeker missen!
kom maar op met achabarrr!🤗
volgende week hardbasssss😍 zoveel zin in! 3 maanden geen feestjes geweest👌🏻
is er nog deurverkoop vanavond?
sterkte!
manmanman alleen maar dagjesmensen
jij zocht toch nog ?
goede service van feyenoord👌🏻 miste de punten voor roda uit vanochtend gebeld, nu al terug gebeld dat ze de punten hebben bijgeschreven👌🏻
ook voor het eerst
heerlijk dit😂
nee staan er ook niet op heel apart 😭
zo geef je wel je angst toe.. dit is juist wat ze willen! zonde...
geweldig toch😂😂
dr gaat hier iets gruwelijk mis bahbah doe maar niet he
bikkel haha ik heb radical maar overgeslagen met feyenoord morgen in t vooruit zicht ook al doet t pijn😱
zaterdag het album van me superheld op me deurmat😍 ❤️
nee helemaal niks indd als we volgende week weer winnen is er niks aan de hand
ik kreeg ook al een reactie 😂 dat ze dat helemaal terug kijken
haha geweldig 😂😂😂
bingoooo
🤑🤑 en eindelijk een middelvinger !
mijn speler van de week bij voetbal inside is simon gustafson via
wat is dit heerlijke wedstrijd😍
gefeliciteerd🎉
ik heb het nog nooit meegemaakt ook niet bij b2s!
ja dat was indd heel apart!
pussylounge was echt heerlijk 🎉😻
haha bij mij t zelfde
ben je pussy? dan heb ik net gezien denk ik
bestel net een shirt maar geld is er niet van af maar wel bevestiging mail gehad.is het goed gegaan?
het is gewoon maar 8 graden😱
zo lekker slapen morgen nog een dagje werken☺️
lekker dagje om vrij te zijn ☀️☀️
als er dan ook wat meer festivals mogen komen...
dat valt nog mee wij zijn al onderweg😂
geweldig😂
fijn
dat klinkt lekker zeg!
geweldig weekend decibel gehad😍
dan was t vlak bij! nu moet je stuk lopen
oh chill alleen jammer dan dat de weekend tent verplaatst is!
jij ook weekendje?
volgende week decibel weekendje😍👯
ff naar de kapper haartjes laten verven ❤️ morgen naar tomorrowland 😍
vanavond nog avondje werken dan vanaf morgen lekker weekje vakantie met liefie 💕
sterkte!
heerlijke opening van defqon weekend! ❤️
ik kijk de stream nu😳 heimwee!
ik wil terug naar defqon😢
defqonnn😍😍😍 thanks liefies voor dit top weekend💕
we zijn dr bijna 😍 defqon❤️
tot strakjes vast en zeker👯
goodmorningggg 👯 zo klaar maken en dan ri defqonn 👯🎉
weeeeekend 🎉
laatste dagje werken deze week 😍
wij hebben een tent gekocht bij jullie en kunnen daardoor via de snellere ingang waar zit die?
nog 2 daagjes werken en dan is t tijd voor defqon😍
dat eerste uurtje bij de hardcore al😊
nog eventjes wachten 🎉👯
nog even genieten in de zon😇
hallo defqon kriebels😍 nog een weekje en een dag😍
nog niet gebeurd? bij mij nu wel
morgen perfect weer voor intents! zoveel zin in😍
maar dan wel het hele jaar door! haha
ach t is hun geld😂
ik heb een vraagje zouden jullie me even terug kunnen volgen zodat ik een privé berichtje kan sturen
vandaag flying dutch met de metro naar huis ipv met de bus minimaal 4 uur😂 wat een luxe 😍
maakt niet uit heb ondertussen al 3 kaarten!
. in de basis donderdag ik ben voor✋🏻
op naar jochem myjer!
zo uitgewerkt op naar een leuk avondje❤️
de politie denkt weer dat die heel wat is hier in hvh, staat er een mannetje voor staken cao staken cao😂
oeh het defqon anthem in unleashed 😍😍😍 dat maakt vroeg opstaan op zaterdagochtend een stuk minder erg😍😍😍😍
crackin your ribs blijft zo lekker nummer he😍
haha veel plezier! is een leuk feestje!
gister in je slippers vandaag in je winterjas en laarsjes oh wat hou ik van dit land zn weer
geen dank! dikke set😁
dat word knallen 😍
ja daar hebben ze geld nodig in enschede
“@studiosporf clasie vs az supporters. tongetje en 04! hahaha! ” 😍
zon wedstrijd is ook wel is lekker😍
jaaa ik ook👌 nu maar kijken👯
vanavond qapital stream💕 beter dan helemaal niet😳
wil terug naar masters💕
gefeliciteerd gaaf hoor!
nee hij doet t nog wel😳
jammer dat het alleen te druk was.. verbeterpuntje voor de 21e editie voor de rest top feest💕💕
thanks gaat wel lukken denk ik☺️
powernapje gedaan💪 lekker chinees gegeten en klaar voor mastersssss😍
nice! scheelt weer een hoop gestress
ja haha zie je op feesten haha😂 allemaal snookies😂
t is nog een oempa loempa ook😂😂 kijk die make up! oranje😂
zo weekend💕
hij wilt naar huis
ik moest contact opnemen met jullie hoe kan ik dat doen?
volgende week zaterdag masters💕 komt goed uit in interland weekend 👌
haha echt he! ze hebben hun best gedaan van qdance
wooow de line up van defqon😍
gewoon wat hardstyle aanzetten kan ze niet tegen op met dr blokfluit neem ik aan😂
dit weer, zaterdag pussylounge 😻 krijg er alleen maar meer zin in! goed getimed ☀️
wat een ramp
leuk feestje!
iemand heel toevallig een code voor tomorrowland ?! staat bij spam mail☺️
ga je hem gebruiken of niet ?
staan jullie dit jaar weer met pussylounge op tomorrowland 👯👯 en geven jullie nog codes weg☺️?
met powerhour💕 goede combinatie!
haha onze held en hij maar zingen manuuuuu
koffertje staat klaar vannacht naar brussel dan sochtends vroeg naar rome! ❤️
vandaag tas inpakken voor rome, morgen dagje werken en woensdag vroeg weg!
geeft t hoop? is wel echt op zn feyenoords om nu tegen rome een top wedstrijd te spelen👌
haha fling met een supporter van lazio!
volgende week zijn we al in rome rond deze tijd💕
hardbass was lauw👌 was t gelderdome ook een x uitverkocht 😂
we zijn drr😍
zeker dat gaan we vieren op hardbass👌
dus nu onderweg om de gelderdome te slopen!
is ze ingeënt ?
morgen wimpers laten zetten ❤️❤️
haha de ns en sneeuw😂
als je nou vorige week gewonnen had he...
op de boot naar ameland!
de trein rijdt op tijd juicht
zoo fantasy island is ook weer een feit❤️❤️
neeeee sssst ik moet morgen met de trein😂
ik weet het zelf door me werk en opleiding! ☺️ daar merk je dat ook wel! geloof ik zeker, maar gelukkig is het maar een fase!
jaa klopt ze gaan alles tegen werken! lekker koppig! gelukkig gaat dat vanzelf weer over ☺️
straks lekker uiteten voor met verjaardag❤️
kijk uit hoor straks worden ze weer boos 😂
van die sets van freaqshow word je toch intens gelukkig❤️❤️
jaaa zin in! haha gaan al naar hardbass rome dont let daddy know! celtic lijkt me ook fantastisch!
21 bij spijk!
lauw he
over maandje hardbass😍
&amp thanks ❤️ voor de prachtige freaqshow en het mooie fotoboek van feesten in 2014❤️
vanavond het laatste feestje van 2014😍 en gelijk t eerste van 2015❤️ the freaqshow😍😍
hoe weet je wie de orangecard heeft gewonnen? 🙏
instellingen &gt privacy
“@frchris92 de regen en wind horen buiten werkt niet heel motiverend om mn bed uit te komen.”
hihi nee zei t voor jullie zelf☺️
dit zijn offshoulder sweaters
😍 rome is geboekt! samen met ❤️
en nu
“@tommy06101977 volgende keer toch maar wel handschoenen aandoen.” zo inderdaad had t zo koud
oehh hebben😍
zeg dat wel
nee hoor we staan nog bij de kuip
yessss mastersss ook weer feit! ❤️ helaas niet een van eerste 20 wel een van eerste 500!
ik hoop t😍 als oma naar masters!
wat blijft powerhour toch heerlijk!
niet meer gewend aan deze tijd😳
kunnen we achabar niet een keer proberen in de spits? proberen kan geen kwaad denk ik? zolang we niks anders nog kunnen kopen!
waar heb je die sets van?
😜 kijk deze
en heb je kaart?
hardbass is alweer een feit😍❤️
“@dezeurpiet horen jullie dat gebonk op de achtergrond? dat is niet de motor, maar de stereo van gabberpiet
yeah❤️ album van daar gaat me internet😂
partybus nodig naar freaqshow? boek onze georganiseerde bus!
toooornstraa!
weet je in ieder geval wat de opstelling is
toen was je gespot!
15 november loudness!!😍 zoveel zin in!
“@ferrodomerd wat voor dance feest zou jij graag op 24 december zien in de ferro dome rotterdam ? raw style !!
super week ade gehad!
nooit meer naar 020!
haha tyfusstad beter word nieuwe locatie goede partylocatie
waaaauw! echt wauw wauw
klopt zonder die discussie was zwarte piet er gewoon nog
nou het is een traditie hoe ga ik dat de kinderen op me werk uitleggen