was de trainer ook blij met deze goals ? 😂😜
stijlvolle foto aanvoerder jrmw.10 feyenoordacademy…
regenboog aanvoerdersband acceptatie van diversiteit ⚽️❤️
⚽️❤️
alle teambegeleiders na ‘17‘18 voorzien van handige…
gefeliciteerd fam oosterbroek ! kunnen die boys nóg beter voetballen als kan zingen ....... ⚽️🎤👍
de spijker op zn kop ! ode aan heinrich welling ⚽️🔥👍
feyenoordacademy samen aan de lunch…
feyenoord waardig vertegenwoordigd door deze kanjers 🔴⚪️…
remco heerkens ?!
regeren is vooruitzien !!!
winnaar personeelstoernooi trots op mijn shirt van…
gefeliciteerd ! meer dan verdiend. op naar meer ..... ⚽️❤️
inspirerende dag chaos
nimmer desespereren ! 10 is toch voldoende ?! waarom zoveel negativisme ? bûugn 💙⚽️
brigitte kaandorp feyenoord gaat nooit verloren❤️⚽️
over voeding gesproken ..... dos en donts samengevat en toegelicht ! via
supporter ☺️ ..... neo hooligan 😜 natuurlijke leider van de 👊🏼
vandongederoo nogal dominant mbt naamgeving stadion woudestein 😬…
zoals in veel landen havensteden vs hoofdsteden
oud rvb voorzitter piet spelbrink ? met fototoestel
ondernemen risico durven ‘opvolging? hoezo opvolging? ik ben net begonnen...’ nieuws friends in business
schoppen &amp slaan door boek van heengeknald ongecompliceerd lastige persoonlijkheid !
realistische terugblik ! tim
trainer onderbouw
rodrigues schiet galatasaray naar plek drie, sneijder en de jong invallers via
de film wacht met smart op jouw sterrenstatus ! erg benieuwd naar 😉
valesca van rees richtte zich op keepers bij beloftenteam. met haar kenmerkende wreeftrap trainde zij o.a. keeper…
feyenoordacademy blij met flexivers.nl
nielsvwetten &amp jaronvicario bladerend in het
reservecompetitie kan je geen kampioen worden
chapeau🎩 bijzonder knappe goal !
gustavohamerr gefeliciteerd !! vvcs
commentatoren gaan uit hun dak via bal is echt over de lijn !!!
leo beenhakker 74 je zult van mij nooit horen dat het vroeger beter was via
seizoen 1617 zien ? zat 11 febr 15u res.2eklassec
trots op 🇳🇬 wereldstad rotterdam groeit met hoog tempo de lucht in via
het resultaat van een seizoen oefenen roast of gordon by peter pannekoek
gerucht gaat bij samen met en vormen ? waarschijnlijk…
waardevolle avond
make it happen !
als dank voor vele seizoenen feyenoordacademy hierbij jouw…
van harte gefeliciteerd 56 niemand is onsterfelijk, maar…
dacht en met mij velen dat dokter john aan het afstuderen was als teevee doctor 😂😂😂
twijfel niet aan jouw kundige analyse, maar ondanks terechte schorsing zou onze joris hier wel degelijk een punt…
duidelijk! kijk toch ook even naar moment waarop sprong antonia inzet en moment dat tegenstander been vooruitschuift ...
graag jouw lezing hierover .....
aardig gebaar ! wat als ze de volgende tegenstander koploper brabantunited aan de zegekar binden ........ bossch…
belangrijk nieuws !!! sloop claraziekenhuis volgende zomer afgerond…
kleine sfeerimpressie van de sportieve opening parlementaire…
wat een geweldige marketing op twitteraccount tip
sterkte mannen
heb je geteld hoe vaak naam is gevallen ..... zonder mee te doen ! best knap
jaja hans toch naar de kuip !!! eindelijk 👍
succes hans in rio !!! we zien de reportages graag tegemoet
lobbyende suikerindustrie heeft brussel in zijn greep 100% suikervrij
naar verluidt is ondergedoken na eerste confrontatie…
dat waren nog eens tijden ⚽️❤️
mooi gesproken 😏
goedbedoelde dieet tips/verhalen/fabeltjes, in begrijpelijke taal verklaard door chapeau🎩
een groot mens, maar ook begenadigd bokser is heengegaan. r.i.p.…
regisseur na weer voltreffer met
geen topic meer ?! met mij velen hebben jouw commentaar gemist !!!
bijzonder knappe prestatie van onder leiding van van harte ! 🏆⚽️❤️
wat ben je rustig ?#esf .....
je leren kennen op legendarische campingtour. na al die jaren nog altijd authentiek, blijf je volgen, klasbak
vanavond naar zijn grootje murph kills me…
kort#erop timoletschert heeft er baat bij !
euforisch na titel lcfc
samen met op bezoek bij kaandorprotterdam bij onze…
leestip denk positief hoe doe je dat? … via
voor als we even niet meer weten hoe t spelletje gespeeld moet worden ⚽️❤️
voer voor gezonde discussie
fcbarcelona wederom verloren😢 na overlijden vaderjohan…
een voorrecht om op dat hoofdveld te mogen spelen !
➡️ maximaal !!!
hans, van harte gefeliciteerd !! hele fijne dag, tot gauw 🙏🏻
open sollicitatie van !? analist bij ......
ook in !
kaartje vergeten bij slagboom parkeergarage 😭 top#service 👍#vriendelijktewoordgestaan 🙏🏻#forza
complimenten voor je nederlands ! ga je ook klompen dragen ?!
kleine jongens worden groot keep smiling ❤️
mooi in carlo 🙏🏻
loop en coördinatietrainer bijzonder verrast met
voorzie opgaande lijn medio februari ! kerrenaval !
⚽️ puike#prestatie ! ⚽️ laatste 4 wedstrijden 4 punten .... 👊👍
we zijn er klaar voor ! 2 2 duitsebank
stadionfeijenoord wijze woorden van dirk.kuyt.7 je carrière…
cheicktoure op de weg terug !
karimmossaoui10 selectie
je hebt maar een paar !! ⚽️hoort de bal daar ook bij ?? ⚽️
heracles.almelo polman stadion
💦regen💦 heracles.almelo vs feyenoordrotterdam ....voor altijd verbonden aan het…
wesleydesterke vandaag helaas niet actief op ivm eerder deze week al wel op…
gustavohamerr sluit aan in de rij van spelers die voor langere periode aan feyenoordrotterdam…
⚽️ omarelbaad gefeliciteerd !!met in ⚽️ ieder kent eigen pad naar zijn of…
nieuwe feyenoord zichtbaar ⚽️ langdurige jeugdspelers
beste kan je de eerste edities ook nog nabestellen ?!
leerzaam met ex feyenoordacademy spelers en o.idrissi17 vizier op de toekomst,…
o.idrissi17 nu ook in het bezit feyenoordacademy fijn om te weten hoe hij terugkijkt op…
terug van ⚽beloftes zien winnen 23 mo. vroeg op bliksemsebezoeken
⚽️sportfoto van het jaar⚽️ 📸 breng je stem uit 📸
feyenoordacademy michaahempenius klaar voor de stadiontour samen met rondleidster stadionfeijenoord…
na en nu eindelijk weer een blad om naar uit te kijken santosmagazine ouderwets…
mooi te zien hoe familie koemans zich inzet om tot een te laten verworden !
steeds minder ver van ons bed erasmusbrug
geconcentreerd aan het werk
seizoenskaart besteld geen commercieel bericht 1e#exemplaar !!! na…
cs.7 mooie dag om een potje te ballen !!
feyenoord2 scheerenveen2 varkenoord 18.30u entree#gratis hartelijk welkom…
jarig 55! talent is niet zaligmakend, blijf jezelf ontwikkelen stadio san…
⚽️no one else ⚽️ als mens struikelend door het leven, als voetballer rechtop overeind
is er klaar voor !! feyenoordacademy stadion…
stroomt vol alle ingredienten om erop te de kuip
alleen maar naar kijken no comment de kuip
hoofdveld ligt er bij ! 1830u aanvang /…
vandaag wisselende resultaten feyenoordacademy nu even lekker ! tot…
twee vrijwilligers die de titel geschikt mogen dragen ! onze zaterdagfotograaf samen met…
mooi !
heerlijk netje om te laten bollen ! feyenoordacademy
hoofdpersoon op mvo@feyenoord…
klassieker ⚽️ varkenoord
melvinkingsale op bezoek bij basisschool feyenoordacademy
vraag thuis op de bank of ze enig idee hebben ?
leuk hoor ! geniet ervan, gaat echt snel 😊
dit seizoen mogen onze jeugdspelers feyenoordacademy weer genieten van het gratis fruit van onze…
knappe goal van maar wel gepikt 😊😊 gisteren bartfiegel al voorgedaan hoe het…
teambegeleiders van feyenoordacademy presentje ontvangen van manager raymondvanmeenen map met eigen…
kippenvelmomentje in catacomben van dekuip in spelerstunnel door onze…
feyenoordrotterdam op ! morgen verdedigen koppositie tegen sccambuurlwd met…
goodold rdekker6 rick#dekker op middenveld feyenoordacademy
vandaag boys !! feyenoordacademy wissel? nooit bij de pakken…
forzastoffel ook weer vd partij ! donderdag zal ik de pecunia overdragen ..... op ?!
oude bekenden ontmoeten elkaar op vs
leuke wedstrijden op feyenoordacademy speciaal momentje
oud feyenoordacademy speler randyelst op bezoek gastvrij ontvangen door
als dank voor de fijne tijd op onze feyenoordacademy een aandenken voor caneryalamoglu…
⚽ ️voetballer vh jaar ⚽️ georgino wijnaldum ex feyenoordacademy sieraad voor de…
blijft mooi bedankt voor je komst, u bent een geweldig publiek.
hij flikt t weer back on top !! man met vele gezichten voormalig feyenoordacademy…
zoek een plekkie in de zon ..... fantastisch hoofdveld !!…
måns herrmann aan de slag met leontine van meggelen voedingsleer
3x jarischuurman justinbijlow gustavohamerr feyenoordacademy…
wat nou ....... model#2016
chapeau voor marcelvds geweldige#foto dekuip de kuip
we gaan weer los !! eindelijk 😊 feyenoordacademy…
nuttige#info ideale voorwaarden ben je juist zelf verantwoordelijk voor
amusant! absolute voetbalkenner en zn versprekingen is
dit is !! feyenoordacademy ⚽️ hier gaat het gebeuren ⚽️
en zo is het maar net !!!
we zijn vertrokken ! eerste wedstrijd feyenoord 2 winnend afgesloten scheerenveen 2 mooie poefff…
hanswarnaarfotografie.nl
nieuwe jeugdteams vormen zich in rap tempo ! 1516 oude ploeggenoten houden contact !…
nice !!!
01 vrije trap
vanav 2000u oefenduel vs altijd#gezellig !
we plakken er nog een jaartje aan vast!
steeds meer dat er a.s. maandag supergemotiveerde spelers en arriveren
mooie week voor de boeg ! start trainingskamp#o19 derbycounty vs
kos is ook top hoor andere orde van
kos is ook top hoor andere orde van
jaarlijkse dag lelijke#eend zonder mijn deelname 😓😂
blijven
jaarlijks#terugkomend ritueel !
nederlands graag !!! 😖😂😇
binnenkort overtocht naar kos have a nice
mr. wang en mss wang !!! 😉😜
haha ! onze jongens zijn toe aan de laatste loodjes ...
laatste loodjes voor zomerstop regen wind herfstachtig forza
spel dan lukt het wel !! en
splinter16 beterschap splint#da#beauty als je dan toch t gips in moet dan maar in vakantieperiode !…
is limburg klaar voor ??!!
waarvan sdo bussum laatste horde gooisch#matras opschudden
vandaag op weg naar !! terug naar waar ook hoort
hoe staat jo#nesbø op jouw !??
mooie gasten !! gemis voor de club ❤️
today fpupillen
brian en ik
martijn is losssss
geen#respect voor hen die ons ontvielen
van harte gefeliciteerd !!! morgen bloemen voor ??
👑fijne koningsdag👑 kan er maar eentje dè koning zijn ..... 😜
lekker weer om te ballen geniet ervan !!!
zou het dan toch ?? laatste speeldag ..... ouderwets schakelen
lekker#weer spannende#wedstrijden succes voor…
heerlijk toernooi daar. de krim is fantastisch voor die knullen. jan van dee goed voor elkaar. enjoy junior ook vd partij !!
sterkte in deze tijden meer dan een club !
vandaag naar huis voelt soms nog ...... maar komt goed ! onkruid vergaat niet
er aan be back
welke club is de gelukkige !?!? !?!!
jahoor daar is tie weer 😀😀😀
truitje gekocht !! mooi presentje van opel bijpassende kleur
vanmiddag academy
klaar voor de 1e divisie a
opdat we alle mooie sfeeracties nooit vergeten
finaledag geweldige#affiches !! in finale ???
mooie pot voetbal op varkenoord zal koppositie verstevigen !? aanstormend#talent 1200u aanvang
forzastoffel jr stoomt op vs zultewaregem exca#o13
pelusa op zijn paasbest alvast een /
sombere herfstachtige woensdag laat de zon alsjeblieft doorkomen please please please
gefeliciteerd samen met baassss van !
mooi#stel fijne#groep toernooi#texel
tassen pakken en hupakee naar huis ! 94
“@sportgalaalphen winnaar sportman van het jaar van harte
met tong op onze schoenen na eerste toernooidag still#alive
stille krachten, o zo belangrijk chauffeurs
sport verbroedert vandaag xital
kan er maar één de beste zijn !! quintin#rustveld it#is
tactische bespreking op vooravond toernooi we hebben er zin in !!!
uurtje of twee dekrim we gaan lekker o14 toernooi texel 94
potje gaat weer nergens over 😊
thuis in mijn eentje klappen voor ennnnn
was weer heerlijke dag op
vandaag bezoekje aan mijn oude uit 1875 dulci
“@voetbalprimeur nieuwe clasie mocht vertrekken bij feyenoord een enorme teleurstelling ”
regelmatige#overwinning jong@feyenoord /exc op jong#sparta vier! maal reclame voor t voetbal
prominent in beeld tot dinsdag bas 1830u jong@sparta
deklasseert 61
de vraag is niet of, maar wanneer gaat pakken ! op#ramkoers
vriend goed werk zien verrichten tegen 41
‘wij waren sterk, omdat anouk zo sterk was’ ad.nl lieve anouk, altijd in gedachten
honkbalmiljonair woont in camper van 37 jaar oud
“@svspakenburg lees hier voorbeschouwing van topaffiche sv spakenburg – kozakken boys ”
“kostas lamprou ik proef nu wat het is om elke week te spelen. dat is belangrijk voor iemand van mijn leeftijd. vi
prima eerste#helft mindere tweede#helft jong#hveen jong@feyenoord/exc laatste minuut 12
mooie pot op planning bij jong versus oude bekende
ouderwets middagje mooi#affiche volle#tribune
vandaag 2 mooie potten o14 o14 o17 o17
op dagostini denk terug aan mooie tijden
“@barthulsbos award uitreiken aan hoofdkantoor in rotterdam!” oude roest niet !
“@robertbraber haha ik doe helaas niet mee stoffel.” vanavond niet van de partij
“@pierrevh17 2nd half ” al toe aan de verlenging !?!
het zit er overduidelijk weer aan te komen .... op
volle bak varkenoord academy 7 thuiswedstrijden!
de nieuwe kaart is binnen
zojuist per post ontvangen haal eruit wat erin zit !!
maar dinsdag mag er ook zijn ! na talentendag als toetje o17 o17
ondanks 40 nederlaag met bijzonder jeugdig team bij jong@vitesse toch kunnen genieten van puike eerste helft
vandaag, morgen opdoen#ervaringen
jong@feyenoord /exc met jeugdig team op weg naar jong@vitesse aanvang 1830u
site van in nieuwe lookandfeel !! zaakjes goed voor elkaar !
varkenoord 1200 o17 1330 o16
fotograaf hanswarnaarfotografie.nl heel de dag op zoek naar mooie shots varkenoord
“@naatvelde zat ik maar op
getoond wedstrijd met twee#gezichten knappe jong /exc 42 jong az
jong /excelsior vanavond vs jong@azalkmaar aanvang 1830u gratis#toegang
voor
openhartig thee van jenny theorie theo koomen stiletto van zoonlief
winterse varkenoord deel wedstrijden op
“@naatvelde ik blijf er bij. het is carolina jaja ! carolina ...ahum hihi lol
“@voetbalr cel en taakstraffen voor supporters alphense boys ” 2 juni 2013 ?! wat een schande zwarte#bladzijde
van harte !! met jullie kleine wonder loïs#lanza mooie#kaart ! prijs#onbetaalbaar lieve#yara
vanavond 1830u jong@feyenoord /exc op bezoek bij oude bekende
“@jarischuurman bros ❤️ ” wheres ??!
dm lukt niet zonder te volgen
“@scvvnoordwijk le congé noordwijk mooiste stap in mijn carriére ” van harte
dikke zonder dreigen weg te gaan tot twee keer niet teruggebeld 6!
“@vinl fc oss en scunthorpe akkoord over fenomeen van veen ” gefeliciteerd dick, je protegé naar
“@dereuverc na de bekerwinst van gister, kon mijn verjaardag niet beter beginnen!! vandaag alweer 20 jaar! 👍🎉” &gt van harte baassie !
jong@feyenoord /exc remiseert met hakken over de sloot 11 doelpunt
leuke reacties !! van groep 3 rotterdamzuid
rules !! man van staal, samen met
jong@feyenoord back in town verdiende zege fijne ontvangst !
“@boulahrouz81 indrukwekkende middag in sophia kinderziekenhuis ”
vanavond sluiten we lang voetbalweekend af 1830u jong@feyenoord /exc
weer beslissend op niveau waar hij thuishoort ! rust in wedergekeerd ! back in town
mooie middag ! de punten vs scoren in
ja hoor !!! duveltje uit een doos! in#optima#forma kan niet wachten op zn tweet !
even mijn huiswerk gedaan ! je was een geweldig publiek!
“@feyenoord video schitterende sfeeractie door hele kuip bij opkomst! ”
uitzending#gemist docu aanrader meeslepend lionelmessi
officine panerai luminor 1950 en 8 ! dagen in één week
varkenoord feyenoordacademy.nl 1430u
de competitie gaat weer van start ! vanavond aftrap bij
aandacht voeding belangrijk ! varkenoord kanjers fey#o14 achter potten en pannen
na drukke periode dikke voor en de feyenoordacademy.nl totaal vernieuwd !
met vriend rikketik geen maar ouderwetse
voorbij weer opgeladen
een hard gelag | is
geweldenaar, baas over bal, fluwelen techniek, heerlijke dribbel, afgemeten vrije trap diego#armando#maradona
voor tarik#fagrach met#vlag#en#wimpel geslaagd voetbalmasterz.nl
marinus, van harte ! op#handen#gedragen#in#kralingen#en#omstreken 😉
l€€nh€€r
great job / goed gedaan !!! forza
een#mooi#stel veel#succes
leuke#afsluiter van een boeiend voetbaljaar
mooie#herinneringen aan mille#grazie e
“@ruudjevormer8 weekje vrij beginnen met weekendje maastricht😀😀👊!” n top 2014! beloftentitel nl, transfer, nu op titelkoers be 2015
samen#voor#ons#eigûh#laat#de#rest#de#rambam#krijgûh
blijft boeiende materie de#neus de#poes
hèt boekencadeau voor kerst en just#arrived
2015 spitsenfurie mogelijk in &amp
“@estivamusic let it go lyric videoooooo ” top#deejay vanaf de boorden van de
na 1/2 jaar senior nu al je dikverdiende afgegeven aan de ! forza
grote#klasse komt pakketten brengen voor voedselbank. ” sociaal bewogen