ben het ook volledig met je eens hoor. 👍
das een behoorlijke open deur die je intrapt he 😉
denk eerder amrabat, ahmadi te belangrijk op get middenveld
verklaar je nader aub.
kleur maakt niet uit, zolang het maar bij het tenue past.
dat zagen we tegen frankrijk ja.
is allang genomen joh, is gewoon tactiek. kaarten kan je verge…
geen toornstra en wel kramer?
uitkomst weet je toch al joh
denk dat je ons liever in het stadion heb dan in de binnenstadt
gaat niks worden vrees is, denk dat mensen die vliegen op napels misschien zelfd ter…
heeft die jongen gedaan dan?
dat was de reden waarom ik vond dat we hem niet moesten halen, heeft vorig jaar maar 6 volledige wedstrijden gespeeld.
daar ben ik er 1 van, wat is het probleem dan?
voor hoeveel extreme rechtse mensen moet je bang zijn dat ze een aanslag willen plegen met als doe…
klopt, kwestie van tijd idd, gelukkig zijn we meestal de aanvallende partij. iets met aanval is de beste…
klopt, maar verdedigers die geen fouten maken kunnen wij niet betalen he. 😁
toch tevreden met haps?
staat om 0530 gepland voor zover ik weet, maar denk niet dat iemand het risico neemt om dan pas te gaan kijken 😁
haha, denk 95% beter niet tegenkomen, hebben er totaal niets te zoeken, gwoon zak met geld ophalen en doei!!!
wie was een haalbaar alternatief?
oh yes!
je vergeet bilal bruur.
vilhena wilt gwoon lkkr cl met ons spelen, die gaat nergens heen hoor.
idioot he, van geel niet te stoppen man!
nope nope nope
je hebt iig de 1 van rosenborg goed 😂😂😂
ik was nog op tijd, heb nog die van 5.0, maar pas vorige week ingezet, heb jij em hoger?
unibet heeft het gelijk aangepast naar 4.75 ipv 5.00 x je inzet 😁
wijzelf ook nog geen enkele overtuigende wedstrijd gespeeld, liverpool echt wel paar klasse beter imo
heel nice!!! toch deel van de opvoeding he als je uit rotterdam komt 👌🏼
hallo, komt er een 3e tenue dit jaar voor bijvoorbeeld de europese wedstrijden?
400 en 700 dacht ik, is al 14 en 23 x zoveel als bij utrecht
gaat een stuk makkelijker als er maar 30 gaan he
uitzending op fox begint om 0300 uur
alleen is er geen publiek voor, dan houdt het toch al gauw op?
ze zouden woudenstein geneens uitverkocht krijgen, is juist totaal g…
ja hoor, maar dan van ajax
en gudde neemt lekker de benen en hoeft uiteindelijk nergens verantwoording voor af te geven wanneer het mis gaat.
kunnen zich nu wel volledig op de competitie richten, toch een voordeel
die 2 maanden moeten toch wel te overbruggen zijn?
dennis van eersel denkt hetzelfde, krabbendam en gouka juist weer vermeer, vind ik mooi om te zien.…
heftige discussies bij mij in de vriendegroep, journalisten ook 50/50 verdeeld, fascinerend!
wie zou er eerste keeper worden denkt u?
goedemorgen mikos, mag ik vragen wie er volgens jou 1e keeper zou zijn geworden indien vermeer niet geblesseerd zou zijn?
denk die spelers van ajax ook niet 👌
zie hem liever tegen whittaker, maar die mag voorlopig nog even niet vechten dacht ik.
gaat toch naar hsv?
dat moet idd ook nog blijken, maar de tijd dat wij zekerheden konden kopen is allang voorbij
gewogen en te licht bevonden, kan je nooit een goede prijs voor krijgen.
klopt, maar iig 1 volwaardige back, zou ook geen andere haalbare back kunnen noemen eerlijk gezegd.
psv en ajax hebben geen betere gelukkig, zijn nauwelijks te koop. al met al haps zeer goede keuze lijkt me.
wordt ook uitgesteld, gewoon nog lekker een jaar op de trap op s 😍😍😍
organiserend land is standaard geplaatst 😉
overdrijven is ook een vak, ff normaal blijven doen hoor.
voel jij eens aan je paasei man, jezus mina
mij ook, daarna de weg omhoog ingezet met koeman 😉
zal wel geld zijn, voor het grote publiek niet al te aantrekkelijk waar vooral ufc ook haar contracten…
check vrijdag koopavond in de stad, echt om te janken man.
true, alleen die soort van haakjes slaan nergens op, zit ook een groen broekje bij, maar die lijkt wel lichter van kleur
zwarte broek man
mooi, alleen die haakjes aan die balken slaan echt nergens op
aight
waarom kunnen we berghuis vergeten?
noem eens een haalbaar alternatief wat geen middelmaat is aub?
je vergelijkt aanvallers met verdedigers, kom eens op man, daar wordt altijd meer voor betaald
moet hij ook zelf willen, je vergeet voor het gemak dat ie al 5 jaar in het eerste speelt e…
noem eens een back uit een opleidingscompetitie die voor meer verkocht is?
het is maar een verdediger en ook nog 1 die minimaal 10 wedstrijden per jaar geblesseerd is
15 miljoen voor een verdediger die veelal geblesseerd is met nog maar 2 jaar contract is niks mis mee toch?
uitshirt niet eerst?
minimaal korte zijde, echt kansloos dit man
open dag toch pas?
in cl sowieso kansloos welke aankopen je ook doet, maak je geen illusies.
toch geen gevalletje van wolfswinkel he? 😂😉
janmaat +/ 8 miljoen winst op gemaakt met maar 1 jaar contract over, kan slechter volgens mij toch?
maar voor te weinig volgens jou, wil niet lullig zijn, maar de spelers die wij verkopen zijn…
zoals clasie die heel het jaar op de bank zit bij middenmoter southampton?
wie is er voor te weinig verkocht volgens jou? waarde wordt bepaald adhv salaris, contractduur en status club toch?
en ajax werd ook kampioen toch? 😂😂😂😂😂😂😂😂😂
mix van house of cards en homeland, wel te doen.
club en land moet je gewoon gescheiden houden imo.
niet zo heel gek toch of ligt het aan mij?
seizoen 3 echt heel slecht, 4 en weer 5 in orde.
1e ronde dacht ik die em zou pakken zelfs zonder legkicks man
heb je een eigen voorkeur?
klopt niet he 😉
qua uitvak totaal niet natuurlijk en ook nog eens een buscombi 😭
100% mee eens, maar geen enkele gewonnen toch?
buiten amsterdam hebben ze toch helemaal.niet zo bihzonder gepresteerd in de europa league?
met de vlag is het bij mij vorige week ook fout gegaan, gaat nu pas uit als het zover is
waar is de vlag te koop aub?
contrast kan niet groter tov de mensen die al maandenlang bijna niet nor…
jullie sporen niet, komop joh, hen gvd net verloren man!!!
spijkenisse centrum
ik heb een kaart voor s, denk je dat daar een plek vrij is als ik aankom? 😂
mogen de uitsupports zondag na de wedstrijd op hun eigen vak of is er een vak apart gehouden mbt eventuele uitreiking?
jahaha, van de zomer nog he 🤣
zit wat in ja.
mag volgens de reglementen van knvb niet als ik het goed heb, uitwijken naar neutraal terrein wel.
bijna, gewoon echt bijna zou ik hopen dat het gebeurd als ik zulke mongolen zie, man man man hoe kansloos ben je dan.
zou wel heel gek zijn ja, maar romero zal wel een titleshot willen eerst. denk dat bisping er dan aan gaat.
romero is een beest man, denk je dat ie em kan pakken?
ben je zo de laatste 2 jaar geen kampioen geworden? denk als je de 1e seizoenshelft zo gespeeld had dat…
omdat hahn zelf tegen een speler aanloopt? wat eeb bullshit man
je hebt tochbgewoon een hele goede serie neergezet na de winterstop? kan je toch op voortborduren lijkt me.
ik hou helemaal niet van house o😂
het mooie is juist dat moeten geen must is. neemt niet weg dat winnen veruit het beste zou zijn natuurlijk.
meest vreselijk, maar kan de mooiste van het jaar worden dit keer
dus dat, volkomen kansloos en is de goden verzoeken, je zou bijna zou ik hopen dat het niet lukt 😂
is toch pas vrijdag op varkenoord? 😉
arnhem en zwolle we komen!!!
dubbel gestikte jasjes?
wat zegt dat volgens jou?
sissen niet gehoord man, kwam dat van s dan?
uitzending op fox begint om 03.30 uur
daar gaat je inzet lees is net, gevecht gaat niet door 😓
apart, denk je van de match van khabib?
woodley laatste keer toch ook gewoon gewonnen?
twente thuis voor de beker, utrecht uit, rome uit, was toch niks mis mee?
we gaan ervoor zondag, psv thuis gekkenhuis!!!!
precies, zondag gaan we er een gekkenhuis van maken!
haha, zo ongelofelijk slecht, man man man. soms denk je dat ze gewoon niet beseffen dat er dit jaar echt iets mogelijk is
ik zou zondag lekker naar de bios gaan ipv naar fr
je bent niet op de hoogte van de kijkcijfers van bijvoorbeeld het nl vrouwenelftal?
op basis van wat? totaal geen animo voor.
voorlopig gwoon 31 voor tegen de nr2 van duitsland.
waar betalen dat extra geld voor aub?
een stadionkaart voor de autocombi is 20 eu 8 eu meer dan de buscombis moeten minimaal 4 man in 1 auto.is 32 euro meer
rodauit moet je met minimaal 4 man in 1 auto, 8 euro parkeerkosten p.p. dat is 32 euro voor max 2 uur. is dat niet te veel?
of gewoon een gebrek aan betere spelers. zegt genoeg als je een cv linksback moet zetten
1230 uur afschaffen is toch perfect?
tjap
zou gelijk ff manchester meepakken, wordt gezellig daar vanaf woensdag 😉
q 1700 uur niet wat vroeg???
alvarez heel matig tov ze vorige gevechten
snap je, maar de gedachte alleen al. trek het niet meer tot zondag! 😱
40 voorstaan nog wel, wow!
zondag wordt het 🔥!!!!
rustig blijven, focus op eigen wedstrijden, seizoen is nog lang
wow, heb gewoon serieus het gevoel dat er echt iets mogelijk is dit jaar. come on feyenoord!!!!!
niet zo arrogant joh, psv iets van 6 x kampioen laatste 15 jaar
klompvoet.nl
heeft psg 2 jaar geleden ook gewoon gedaan tegen onze gesnavelde vrienden, geen consequenties verder gehad
maar alleen zo eeinig voetballend vermogen op het middenveld man, alleen maar postbodes en totaal geen creativiteit
ben het zowaar een keer eens met een geschreven stuk. wow
finale pas over een week, ff eerlijk, wegsturen buiten alle proporties
een junk nog wel, zit een groot verschil tussen een junk en een gebruiker. heb jij inside info dan wat er is gebeurd?
wat een gejank man, te kansloos voor woorden!!!
denk dat die knipoog met een knipoog is en er wel degelijk een serieuze ondertoon bij is.
dat is zeker waar, ben er ook echt benieuwd naar, ondanks topgozer denk ik dat hij toch tekortkomt.
whauha, overdrijven is ook een vak
doet u tegenwoordig feyenoord of is het tezamen met
waar is stefan de vrij?
haha, het is trouwens nr 19 geworden
van wolfswinkel al in de kuip gesignaleerd?
is middelmaat, gaat pas voor de 3e keer een top 10 in de tour rijden.
zeg ik niet, wereldtop wint grote rondes, dat is hij niet. maar tussen wereldtop en middelmaat zit nogal wat tussen
als trek in de tour
tussen wereldtop en middelmaat zit nogal een verschil, middelmaat zal nooit en te nimmer kopman zijn voor een ploeg
hahaha, huilebalk.
whuaha pannenkoek, volgens mij snap.je er vrij weinig van. doen er 200 mee en er wint er maar 1. de overige 199 middelmaat?
middelmatig? dan snap je er vrij weinig van. als je 5e van de 200 eindigt is wel iets beter als middelmatig
jonge trainer, komt vanzelf.
wat is dat in godsnaam dan? nog nooit van gehoord mbt voetbal, waarom kregen we dan niks met van persie naar united?
opleidingsvergoeding niet geldig bij binnenlandse transfer
laf? ga hoor, kon gewoon niet meer
berghuis zou wel heel fijn zijn.
staat geen maat op momenteel, gaan we nog lang veel plezier van beleven
absoluut, het zou je sieren als je ook eens al je voorspellingen die niet uit zijn gekomen zou benoemen
een stilstaande klok heeft ook 2 keer per dag gelijk
is dat zo, heb liever vlaarde vrij.
of had ie een betere verdediging voor zich?
het is de speler in het feyenoordshirt op die foto
zal wel psv/ajax gaan ben ik bang voor
zonder ook niet de afgelopen 17 jaar
van beek geen goede mentaliteit? gebaseerd op wat?
sevilla had dat seizoen europees maar 1 wedstrijd verloren!
denk het niet
doet het niet man.
zelfs een stilstaande klok heeft 2 keer per dag gelijk!
whuaha beunhaas. van mij had vermeer nooit hoeven komen, maar is 100% beter dan mulder
zegt totaal niets als je de kwaliteit van de schoten niet meeneemt.
k heb ook diamond, maar als je in combibus stap naar nec/roda ben je gwoon niet goed bij je paasei en heb j een chronisch tekort zelfrespect
als iedereen zoals jou denkt veranderd er dus nooit wat
geen moeite met onnodige combis?
hoe sympathiek ook, vrees dat ie niet goed genoeg is
excalibur van na 7/8 jaar weer eens geluisterd, heerlijk, flashback, nostalgie, respect, goede oude tijd!!!
ben jij niet goed, jij wilt een combi + slechtste uitvak inwisselen voor vrij vervoer de graafschap?
perfect gezegd!
dan ken jij de regels niet.
vrees het ergste voor mcgregor
zo zin in man, hoe naief het misschien ook is.
niet voor het elftal maar voor de club.
coke moet je roken!!!!
vrees met grote vreze voor zondag man.
als hij de concurrentie.met immers niet aandurft ist gwoon een pannenkoek geweest! alle aankopen maar basisplekgarantie geven?
wat had feyenoord meer moeten doen om ziyech te halen als de speler zelf de keuze maakt om niet te komen??? is bullshit man!
excelsior uit 😉
de lul stond nog buitenspel ook, had nooit goedgekeurd mogen worden 😉
kwam door immers!!!
niveau wel heel laag hoor vergeleken met pdc. kan er maar moeilijk naar kijken
hij is goed man!!!!
zal jij niet gwoon ff die dikke plofkop van je dichthouden en je met je eigen club bezig houden, opkk en gauw!!!!
jazeker, in de tijd dat de echte liefhebbers al keken en niet al die gloryhunters van tegenwoordig!
precies, en iedereen was het er over eens dat dat juist niet goed was toch?
gio houdt dat niet voor niets tegen, en seizoen was al begonnen hoor, hoe slecht zou het zijn als ze dan nog spelers nodig hadden?
zeg niet dat ze vd heijden moesten halen, zeg alleen dat het ondoordachte supporterspraat is dat ze vlaar hadden moeten halen
wat een bullshit, geblesseerde 30+ speler met zware blessure geschiedenis ga je toch niet vastleggen?
haha, ik was meer bezig met het bereiken van de finale.denk ik
volkomen mee eens hoor! alleen juichen doe je voor jezelf toch of voor de club dat er gescoord wordt, toch niet voor een speler?
halve finale nac thuis aardig doelpuntje hoor
vlaar is 30+ inclusief blessure geschiedenis. toffe kerel met wereldinstelling, maar is gwoon totaal niet logisch.
en het eerste half jaar maar voor de lol erbij nemen, op hoop van zegen dat hij hersteld? ga hoor
staat van dienst? gaat er verdomme toch gewoon om dat een speler moet kunnen spelen of wat?
bullshit, je gaat geen verdediger vastleggen die nog een half jaar moet revalideren van een 3e ernstige blessure!
kerel, is toch fucking logisch dat joden eerder uitverkocht zijn dat willem 2 of wat???
bull shit, is logisch, wedstrijd pas over 2 weken
als vilhena weg is heb je geen fatsoenlijke vervanger voor el ahmadi of vejinovic toch?
joden ook, lekker door laten gaan en extra wedstrijden laten spelen doordeweeks
denken dat fer je naar de coolsingel brengt whhahahahahahaaaaaaaa
kon gewoon ze contract verlengen!
bijdehand, heeft ons in de steek gelaten toen het slecht ging, nu gaat het met hem slecht mag ie lkkr wegblijven ook, opkk!
is bull shit, hij heeft ons laten zitten toen het moeilijk werd, hoeft hij nu zelf ook niet te komen nu hij het moeilijk heeft!
bedrijfsleven met minimale salarissen t.o.v. profvoetbal, haha wat een lachertje! heeft ons in de steek gelaten, simpel
maar hij kon wel bijtekenen toch? is gewoon gevlucht joh na een slecht jaar. club in de steek gelaten, 0.0 karakter getoond
denk je dat het reëel is dat dat lukt?
misschien neemt ie met de beker genoegen
heb het jubileum boek van 50 jaar, bijzonder of niet echt?
10 95e minuut!!!!
ligt eraan met wie je hem vergelijkt, wel zeer balvast gisteren.
maar niet in de 14e fucking minuut!!!
sterkte wensen is al een vorm van respect toch, vind ik ook ok en het enige wat we moeten doen
vergeet de kampioenschappen niet!
doe je zelf aan mee toch?
was er met happel dan?
3e seizoen haalde al bij lange na het niveau niet.
doe je mee?
moet je bij de trainer zijn
toch niet voor he ?
beter een voorbeeld nemen aan zn reactie
nummer is zo verschrikkelijk, gaat door merg en been
gouwe vent!
zal dit niet in overlgen met de technische staf / gio besloten zijn?
zal die dat niet in overleg met de technische staf hebben besloten denk je?
lijkt me dat wouters, van gastel en gio daar voor zijn toch? beter zou zijn om botteghin op te stellen
geweldig, speelt het zoals het gespeeld moet worden!
voel met je mee man!
spartauit had ook wel tof geweest
als je dat zo zeker weet, weet je vast ook wel welke clubs?
interesse van?
als het ergens niet aan ontbrak was het inzet/passie vandaag. wordt jij niet een beetje moe van jezelf? hoop gebler steeds
zeker, maar niet als het gebruikt wordt om geforceerd intellectueel over te komen.
is toch gewoon als 10?
eerder voor toornstra man
el ahmadi niet gezien? bleef maar diepgaan toch?
noem eens de laatste keer thuisshirt in een uitwedstrijf bij roda dan?
1 x laatse 5 edities?
doe jij daar nou weer
doe mij ook zo glazen bol pannekoek!
zelfde met neushoorns, gaat bijna allemaal naar thailand vanwegde de zogenaamde medicinale werking, wat onzin is natuurlijk.
moet sowieso van de buitenkant weg, had em spits gezet na uitvallen kramer
niet gelijk overdrijven met een hele grote joh, die hebben we na van persie niet meer gehad. speelde wel echt heel goed natuurlijk
denk niet dat je veel medestanders hebt, waarom afstappen van 433 en dan kramer opstellen?
dit valt toch totaal niet te begrijpen, komop zeg!
was vorig jaar aan het begin al sprake van, schijn hij zelf totaal niet te willen
zou je favoriet zijn dan?
basis zondag!!!!
helaas geen fatsoenlijke lineup, sla dit keer over
met het nl elftal publiek heb je nergens fatsoenlijk support. gaat gewoon heel ander soort mensen naar toe
coen moulijn ook altijd dezelfde beweging, gaat om de timing he
ik wil graag die zwarte bestellen in maat s. wat te doen aub?
das toch vooral de trainer die daaraan moet voldoen? helemaal als je selectie op orde is.
wederom met je eens, alleen snap die koppeling die je steeds maakt niet echt met de doelstelling van het 1e.
een selectie waar iedereen tevreden over is.
dat strookt niet met elkaar, als de prestaties op t veld niet goed zijn is daar de trainer voor verantwoordelijk, helemaal met
ik noem het eerder realistisch, je hebt nog geen fatsoenlijk wedstrijd gespeeld dit jaar.
volledig mee eens, maar met een doelstelling kampioen worden tref je ook je trainer, en daar ga je heel gemakkelijk aan voorbij.
en als ze dat niet redden de trainer eruit zeker? komop zeg
wat had jij wel goed gevonden dan?
flutaanval man.
zou wel de perfecte speler op 10 bij ons geweest zijn momenteel
sowieso met vilhena linkspoot op links en wat meer voetbal in de ploeg, dat zag er vooralsnog niet uit natuurlijk
vilhena of el ahmadi voor immers, verder zou ik het ook zo doen
precies, dus slaat het wel ergens op.
nog wel veel meer trainers zonder prijs. slaat kant nog wal deze opmerking
3e trainer op rij, zal niet zonder reden zijn he.
tegen psv hebbie maar aan een echte verdediger als rechtsback lijkt me. goede keuze voor deze wedstrijd.
zin in zondag, wordt gek als we winnen.
heeft gewoon keihard gelijk mbt de discussie met over positie van kuijt. niet als buitenspeler opstellen!!!
jij had vilhena er toch niet in?
net als elke andere nl club kansloos zou zijn
cska ongeslagen nr 1 rusland, wolfsburg en united + verkoop depay en wijnaldum kansloos joh
dan maar spelers houden die door gio / van gastel niet goed genoeg bevonden worden?
als aanvallende middenvelder toch, of ben ik nou gek?
bilal toch veel meer buitenspeler dan karsdorp?
laatse keer cl ooit?
al die wijven die per se op de trap willen staan moeten niet janken als er geduwd wordt. hoort erbij!!!
wijven op s op de trap, en dan janken als er geduwd wordt tijdens een doelpunt, pleurt toch op man!