“erg lastig gemaakt” wat een grap 🙈, binnen 5 minuten stond shakhtar gewoon voor met 21 en eenvoudig werd het 31
de voetbaltactiek van de nederlandse school is dood durf te veranderen
snap niet dat maar vast blijft houden aan 433 werkt toch niet
snap die basis plaats voor niet zoveel beter
het land waar voetbalsupporters aan de hoogste boom worden opgehangen en verkrachtende moordenaars vrije rond mogen lopen 🙈
is echt te treurig. ik snap nu wel waarom de jeugd wegloopt bij
heb je eventueel een linkje?
ja helaas is die van youtube verwijderd
waar kan ik de video vinden die hierbij hoort
kansloos slecht ingeschoten door makkelijke prooi voor de keeper
zo dom verdedigd en hij die er al af had gemoeten scoort
is de weg kwijt
gelukkig geen
had de wil en het vermogen niet om te winnen vandaag veelte laag tempo, speelde weer op 80%
nee
denk nu eigenlijk dat gewoon heel slecht was 🙈
gelukkig blijft het publiek er wel achter staan, daar waar het al op heeft gegeven
wat is toch een partijtje slecht deze pot
wil niet. lijken genoege te nemen met 00
zoals bekend geeft geen penalty aan
de wil ontbreekt bij sommige
en zijn van het zelfde niveau
probeert het op 75%
voetbal nr 3 die op de parkeerplaats ligt
faalt en geeft niet de tweede gele kaart
is weer lekker bezig
zal weer de pot dood fluiten?
gelukkig was de reactie van zeer professioneel in tegenstelling tot de journalistiek van de
het is wachten tot dat in mag vallen
feyenoord wint eenvoudig in alkmaar
heerlijk ontspannend potje voetbal
dit is precies waarom de jeugd allemaal weg rent naar concurrenten in binnen en buitenland
ouderwetse schouderduw
zo zijn er nog wel een paar klaar bij feyenoord
volgens mij ben je in de war met dirk kuyt??? die bezorgde toch het kampioenschap en de beker???
waar wacht die van boekel op??
toornstra ook een partijtje slecht hoor
eindelijk na lang wachten een goede aanval en een doelpunt van berghuis
inspiratieloos dat maar niet tot voetballen komt
kramer mag gewoon blijven staan
jullie mogen hem gratis ophalen
zaaddodend
ruststand 00 mocht je niet kunnen kijken? je heb niets gemist
gelukkig maar 1 minuut extra tijd pfff wat zaaddodend is dit
en die het best vinden dat hij basis staat is ajacied 😂😂😂
kramer moet lekker gaan basketballen
het is weer zover botteghin meteen geel en immers niet consequent is van boekel niet
tot dus ver nog een zaadloze wedstrijd
als je niet schiet, kan je ook niet score
kan het aantal wedstrijden niet aan of ze zijn zwaar uit vorm
had liever vente basis gezien dan kramer
doet zichzelf te kort en verlies van en
is wel een kant op
verdiend het ook niet als je zulke 100% kansen niet benut
en daar is de volgende gele kaart blijft er maar mee smijten
gaat sws nog een cadeau doen
is echt de weg kwijt
gelukkig kon jij wel altijd je mond houden 🙈herinner mij nog iets met een k en een n woord
zeker niet handig met zn ongelofelijk partijdige scheidsrechter mag u als voorbeeld neme…
👏🏻👏🏻👏🏻 heb je je fout weer recht gezet
vind geel maar raar speelde volkomen de
gaan beide vol voor de bal, meer dan geel was het niet
is het even helemaal kwijt
is niets van wat het in de eerste helft was
goede keuze 👍🏻 veel betere optie met alle respect dan fcdordt
zelfde verhaal als het gras niet maaien
geen kwestie voor zijn al lang blij te mogen spelen op een vlak veld
laat ik het zo zeggen kuipers is geen thuisfluiter 🙈
gelukkig een echt franse naam was al bang toch niet weer
en weer wordt een terroristische daad weg gemoffeld onder het mom van verward persoon
was ajax nou zo goed of fc groningen zo slecht? 1 ding is zeker tegen heerenveen wilde fc groningen wel voetballen
kom aub eens met een verbod voor kunstgras in de
kuipers heeft poep in zijn ogen
kuipers kuipers toch kon je hem al 3x op de stip leggen
bijzonder 11 overtredingen van exc 4 van fey en een doelpunt en geen extra tijd
alsof blanken geen moslims kunnen zijn? je begint nu wel racistisch te worden horen 🙈😂
bedankt voor je uitermate zinvolle bijdrage 👍🏻
volgens mij is het bij geen kwestie van links of rechts?
om te janken
wel tegen stieren rennen want dat is zielig maar offerfeest waar schapen onverdoofd vaak illegaal thuis geslacht niet
nee waarschijnlijk d66 rechter
alleen maar positieve reacties ben benieuwd na de uitzending
vrijwillig afwezig zijn van om te vieren is dus ??? mijn geloof in de rechterlijke macht is nu echt weg
bij het is het inderdaad nooit welke maar dan zal het zijn het welk het terras het welk .......
niets meer dan en maar klagen over en
gelukkig gedroegen de 020 fans zich wel goed door de tribune te slopen. als je dat erbij v…
terroristenstudies zijn niet nieuw heeft hier al decennia mee te maken en laten wij van leren
benieuwd hoe ze dan reageer op een agent met kippa 👍🏻
doordat dit soort mensen een podium geef heb ik mijn abonnement heb gezegd
1x score lukt al niet laat staan 2x
zn 4000 supporters in het stadion maar je hoort ze niet
werd even in de houdgreep gehouden mag allemaal van
bedroevend de sfeer bij
gaat laten winnen wat een
is de tweede keeper in het veld aan de zijde van ajax
in tegenstelling tot die russische scheidsrechter van donderdag jl. trapt er niet in
wat een baas!!! 20
net als
doet het weer
doet eens iets goed
eerste 25 minuten erg sterk alleen laatste 10 minuten komt utrecht steeds dichterbij
wie het hardst geschreeuwd krijgt de bal
die rus van donderdag, had de penalty wel gegeven
🙈 nee, sporadisch fluit er welles een een goede pot maar die zijn zeldzaam
wat een slechte scheidsrechter
zoals ik vaker heb gezegd dit seizoen nu houden ze hun mond een keer over het kampioenschap#zwofey
daar gaan we weer
media probeerd weer een bepaalde sfeer rond de wedstrijd te creëren net als woensdag jl. bij
dit geldt tevens voor jullie twitter account
wel rekeningen versturen op zaterdagen maar zelf niet bereikbaar zijn typisch de overheid
bij gebrek aan scheidsrechters heeft de knvb vanavond een handbal scheidsrechter ingehuurd
voor rust op een 50 voorsprong!
gelukkig herpakt zich goed en spelen tot dus ver erg sterk
zelfs vind zijn beslissingen opmerkelijk
analisten bevestigen slecht optreden en
wat een grap
dankuwel voor de snel reactie en de oplossing
open ik een bak turkse yoghurt zit er vuil en haren in 🤢
waarom schrijf je niet eens een artikel over het met twee maten meten van de
ik weet wel waar het aan
moet ik nu mohammed b zielig vinden?? dit hoort niet eens aandacht te krijgen
kunnen jullie slaande en elleboog gevende ook even bekijken
waar zijn jullie nu????
wat een scheidsrechter 🙈 haalt eigen verdediger neer maar krijg wel een vrije trap mee
kan ook echt niets
vandaag op
beschamend hoe stond te schreeuwen
door dit soort politiek correcte reacties ontken je het probleem en steek pechtold zijn kop in het zand. 5/5
ja maar aboutaleb heeft ook een dubbele nationaliteit en heeft uitstekend werk geleverd. 4/5
en instant gehouden wordt. hierop reageert pechtold 3/5
bruma stelt dat er een loyaliteitsprobleem onder turksenederlanders is en dat dit mede door de dubbele nationaliteit komt2/5
pechtold steekt zijn kop in het zand door het probleem politiekcorrect te ontkennen 1/5
pechtold liet weer een knap staaltje zien bij
voor een nederlander met een migratie achtergrond wel aardig bedankt voor je compliment welterusten
jouw iq is net zo hoog als jouw aantal volgers 🐸 maar ik bemoei niet
heeft op de gevoelige plekken geraakt
kan beter zijn mond houden wat een nutteloos commentaar
speelde weer uitstekend! geweldig die inzet en een schitterend doelpunt
grensrechters zijn echt drama vandaag
met de dag minder
waarom kijkt dan niet elke wedstrijd terug op niet beoordeelde overtredingen
weer geen kritische vragen aan
hoe serieus kan je en nemen? elke avond aan de bier en wijn, iets met
heeft het weer voor elkaar
geen geen geen op basis van de eerste helft verdiend gewonnen
hopelijk heeft genoten van het spel van
helpt met verdedigen
zoals ik al vaker heb gezegd hopelijk, houd iedereen nou eens op over
weer een kansloze corner
pech, bal was gehele over de lijn maar geen doellijntechnologie in het kasteel
en weer geen serieuze kans
nooit meer opstellen had gewoon gebracht
basacikoglu valt weer subliem in grootste talent van de eredivisie 🙈🙈🙈🙈😂😭😭😭
zn beetje 200 hoekschoppen heeft dit seizoen gehad en zelden zijn ze gevaarlijk
wissel 53’ basacikoglu komt erin zijn laatste hoop
gaat weer proberen een kaart aan te naaien
helemaal uitvorm wanneer gaan ze nou eens voetballen
niet om aan te zien commentator niet geheel objectief
terugkijkend naar pauw&ampjinek van 28/02 wat laat zich toch kennen. nooit verwacht maar zeer
toppunt van spijkers op laag water zoeken
kan nog wat leren van
man zegt het zijn mensen die er jaren lang voor geleerd hebben kan beter meteen stoppen
luuk
snap het niet
gevaarlijk voor de nederlandse transportsector? onze transportsector wordt gedomineerd door oosteuropese werknemers
hoe durft de familie koomen te spreken over slachtoffer hij was een
heeft een behoorlijk beheersing probleem cursus en 5 wedstrijden aan de kant
duidelijk rood, 4e man staat er bovenop bacuna trap op het been van kongolo geen intentie voor de bal
lekker tackle van bestraft met geel
hoe kan zo iemand fluiten
fluit weer bijzonder
zou er nu ook meer beveiliging komen bij onze museums?
15 hoekschoppen en geen 1 x een goal of een echte kans
niemand zit toch te wachten op meningen van een journalist? maar alleen op de feiten die zij opsporen.
zo dat was dan weer het europees avontuur van
hopelijk zijn nu alle mondjes gesnoerd, met kampioenskandidaat en wij worden kampioen
als een kip zonder kop staan ze daar te verdedigen
hahahah welke inzet?? die niet mee verdedigd zeker en de heerlijke storm van voorzetten. volgens mij kijk ik een andere pot
waarom 100x beter
zoals elke week het bekende knvb handje boven de hoofd van ajax speler gehouden schone, klaassen, veltman et cetra
elia en nelom wat een drama
tijd voor hervorming in de 2de kamer invoeren kiesdrempel en stap je uit de partij dan stap je uit de 2 de kamer
volgende week maar thuis laten
hopelijk houd iedereen nu eens zijn mond over het kampioenschap
zoals van ouds, profiteert niet
zware wanprestatie tot dus ver
spaart gele kaarten blijven uit
scheidsrechter laat zich leiden door spelers van zor
scheidsrechter zit mis geen
mag volgende week weer fluiten
waarom wisselt gio niet?
heb ik nou de wissels van gemist?
wat een aanfluiting is die kerel zeg
het doet weer pijn aan de ogen
toont door in de laatste minuten de 3 punten uit het vuur te slepen
nu vol houden
ouderwets weet geen serieus kans te creëeren
gekke in
was weer pro ajax vandaag
eerst was het het is vakantie dan is het iedereen is aan het werk dan is je moet een clubkaart hebben en nu 1230? 👍🏻
vraag mij af met welk excuus ze vandaag weer komen, waarom de arena zo leeg is
is enkel een geldmachine voor en
ben wel benieuwd wat er van vind als er iemand op zijn auto danst
probeert gedrag goed te praten wat een faal voor platenlabel
mist de alles of niets mentaliteit
scheidsrechter heeft zin in de thee 2 minuten blessuretijd komt erbij terwijl wedstrijd ruim 5 minuten stil lag
veel kinderen?? de tribune was zo goed als leeg 🙈 neemt niet weg dat het gevaarlijk is om met fakkels te gaan gooien
om te janken 🙈
het 😅
fluit eens een goed wedstrijd. mag ook eens gezegd worden
is toe aan zijn pensioen
die scheidsrechter is echt een
die spanjaard fluit echt voor alles, vieze
heeft altijd al last gehad van vrees
is voor de helft gevuld maar gelukkig hebben ze nog een en een
is weer terug op het oude niveau
is weer goed bezig 🙈
wat een zure kerel die bij veel oud zeer 🙈 hij lijkt wel zwaar gefrustreerd
bedankt voor de reactie
hoelang duurt het gemiddeld voordat mijn aanvraag via reggefiber bij de gekozen provider is?
supporters willen graag op supporters lijken
tuig van utrecht gooit vuurwerk naar spelers
heerlijk rusten met een 10 voorsprong voor wetende dat het 20 had moeten zijn
kuipers fluit vreemd vandaag. vaak zit hij er naast
11 🤔 wist niet dat hij speelde
gelukkig zijn de statistieken in het voordeel voor van want het verloor nog nooit met nelom als aanvoerder
dit geeft vertrouwen voor zondag
mevrouw els is niet zonder reden vermoord
makkelie redt
maakt weer kampioen
was toch die agent uit
dat er ooit zoveel betaald is voor
jammer he dat gaf kunnen jullie niet verder met jullie tegen
beschamend gelijkspel
zal wel aan zaterdag, 1945uur of het weer liggen
politieke islam bestaat niet en de kansarme positie van die jongeren is het probleem niet.
anderhalf uur later dan verwacht
tijd afhandig gemaakt wordt 2/2
vervelendste is dat het niet aangegeven staat op het station alvorens je een kaartje koopt en hierdoor onnodig 1/2
maarssen richting utrecht centraal
bussen nemen die maar 1x in het uur tijd ipv de trein 4x in het uur top geregeld minder service maar wel de zelfde prijs
kansloos weer! koop je een kaartje loop je naar het perron is het perron gesloten voor werkzaamheden kan je de vervangende 1/2
de christenen ging enkel op omdat de islamieten mensen de islam met geweld/dood opdrongen
zn jongen had je beter de kans kunnen geven dan
ja ik heb een kenteken zal ik deze via een pm sturen
wat een asos die chauffeurs van hard rijden door woonerven. op de overtoom zelfs doorrijden na aanrijding
bilal moet basis
waar waren jullie bij de elleboog van m.v/dhoorn??
hoe kan elke wedstrijd gewoon weer basis staan???? 😓🙈
ben nu toch wel blij niet uitgeloot te zijn voor de bekerfinale 🙈
je nu maar dood
bilal basis en elia banken lijkt mij duidelijk
kuipers wat een neus, loop elke keer in de weg
mag er ook wel af! weer niets gebracht
dat toch weer elke week in de basis staat is wel opmerkelijk
wanneer moet uhm bedoel gaat feyenoord voetballen
makkelie was denk ik ook agent in amsterdam
spat er weer vanaf wie er volgens de arbitrage moet winnen vandaag, in tilburg
speelt weer een super wedstrijd! wat een bijdrage levert die jongen elke week
prachtig hoe zonder enige visie achter de bal aan rent
binnen 3 min als het al weer klaar
hier staat wel boven aan
seizoen is zo goed als klaar
gelukkig hebben klanten rechten. niet goed, geld terug.
belt met help ik ben bang voor de klanten. kan je politie sturen?
bizar, wat er gebeurt rondom de kuip. belachelijk politie optreden
bijzonder dat het veld er in de vijverberg beter bij ligt dan die in de arena
prachtig om te zien dat het gewoon nog kan
nederland kan nog veel leren van denemarken
we gaan voor 10 op een rij!! 10...10...10 op een rij!!
misschien dat het bestuur vanavond eens op rot
houd de gele kaart weer op voor mister elleboog
krijgt een gele kaart voor een rondvliegende arm helaas is niet consequent
fc groningen vergeet zichzelf te belonen in de eerste helft. nu in de tweede helft afmaken.
en ook in deze wedstrijd kan het weer niet laten om een speler te slaan
volgens mij is hans zelf een goed voorbeeld van een gevaar voor de democratie. lees dit
een banaan kan niet. maar het symboliseren van het ophangen van een voetballer kan schijnbaar gewoon
de meest speler in de eredivisie, enkel schwalbes
klaassen veel te laat maar blijft onbestraft
kan weer afgezeken worden en genaaid worden
brengt slagkracht ken alleen maar slaan die jongen
fopduik kost geel
tweede helft net begonnen eveneens als de aan het adres van
leuke eerste helft alleen meet weer met twee maten
beetje roepen
gaat weer verder met
daar gaat weer met het slaan waar zijn jullie nu? het is geen he
volgens was het een geweldig voorzet echter kon er geen speler bij komen