weeeeee worden kampioen!
want in een half uur kom je van amsterdam naar rotterdam?
kunnen er ook kaarten gehaald worden vanavond aan de balie? of moet je via internet bestellen
hey maat heb je nog een kaartje voor mij voor zaterdag
is ook wel weer zo natuurlijk
huilie huilie huilie huilie huilie huilie huilie
ja nee het zal ook eens niet
geef deze man een huldiging
jaja rot toch op
coolsingel was om half 10…
ja wat moet je blijven do…
als ik vandaag iets bestel bij jullie, wanneer heb ik het dan binnen?
wanneer komt jullie kampioensvlag in de webshop?
is natuurlijk ook gewoon een belachelijk tijdstip dit.
rijden er zondag treinen van en naar rotterdam stadion?
hoeveel kaarten zijn er nu verkocht voor het uitvak aanstaande zondag?
aanstaande zondag word het weer zo druk, dus misschien een tip om een grotere trein in te zetten, of meer treinen.
waarom zetten jullie zon kleine trein in tussen zwolle en rotterdam? wat een drukte zeg
ja dat bedoel ik. wat heeft het dan voor nut om rond te kunnen lopen als je toch niet op…
wat voor nut heeft het dan?
van donge &amp de roo stadion
tien tekens
optyfen achterlijke mafkees
whahahahahaha. wij zijn feyenoord!
hebben jullie morgen ook jaarboeken bij jullie kraam?
mijn
hij heeft een snee in zn hand. man man man
gefeliciteerd aller, aller, allermooiste stadion van de hele wereld. op naar de volgende 80 jaar!
zing op zn minst even hand in hand en ga het filmen.
hahahahaha blokkeren. joden lopen altijd weg
jaaaaaaaaaaaaaaaaaaaaaaaaaa
bedankt!
bedankt!
huilie huilie
neem nog een snuif
net zo corrupt als die gegeven strafschop.
hoeveel kaarten zijn er nog voor feyenoord utrecht?
hoeveel kaarten zijn er nog voor de wedstrijd tegen utrecht?
domme onzin. nooit weer doen
neem nog een snuif
supporters die massaal 10 minuten voor tijd weglopen
haha ga je lekker? je bent wel erg veel bezig met guidetti he, het zit je zeker nog erg diep?
dat een stadion vol volwassen mensen zich zo laat gek maken door iemand die jullie een beetje uitdaagt. hoe sneu is je leven dan
wat zijn neppe feyenoord fans volgens jou?
neem nog een snuif
nogmaals, er is geen volgorde meer. domme jood.
er wordt geen eens meer een volgorde aangegeven joh. hahahaha
zieke gek
al een half jaar. of langer.
zonder trommel zijn ze stil!
daar kan ik je geen ongelijk in geven uiteraard
nee maar lekker wegblijven heeft zin, supporter ben je in mooie en mindere momenten.
lopen altijd weg!
voor mij persoonlijk het eeuwfeest. mijn eerste keer kuip.
wat een plaatje.
wat moet hij er doen dan? jupiler league kijken?
kun je even een link van zijn account sturen? zou hem met alle liefde willen rapporteren maar kan zijn account niet vinden.
welke datum is de loting?
vanavond nog online??
ik heb meer het gevoel dat echt iedereen op ajacieden na fan van de graafschap is.
ik denk dat je je woorden terug moet nemen.
echt 150.000? dacht veel minder
hoi kees, jammer he?
vind die van utreg beter eerlijk gezegd.
kan via internet en er is deurverkoop.
kan je een paar vragen zeggen zodat ik een beeld heb?
maar, is het nu wel vol?
maar irritant is het wel.
ja al een hele tijd, de app opstarten gaat traag, een foto laden gaat traag, reageren gaat traag, alles gaat traag.
mag ik vragen hoeveel verschillende sjaals jij heb? heb er al heel veel vershcillende voorbij zien komen op je twitter haha.
? wat is er gebeurd dan?
spelen ze het hele bekerseizoen al in, zal wel een speciaal bekertenue zijn ofso.
weet je toevallig hoe die heet?
van beek, alleen al om zn juichen.
klanten waren we toch?
ik zat me al te bedenken waar die ar moest maar kon het niet bedenken haha.
haha heerlijk
een neus van een 020er is ook niet te missen natuurlijk
alleen op instagram?
pleur op man, stelletje randebielen.
word het uitgezonden?
heb het al vaker gehoord/gelezen vanavond, dus zou wel een kern van waarheid inzitten..
ja, eerst samenvatting van pisv vs utrecht daarna loting.
eigenlijk wel.
ik zat al te wachten tot je m ging maken
201011 toch? een nog veel verschrikkelijker seizoen..
eens
was wel zeer terecht geweest, een karsdorp of el ahmadi bijvoorbeeld.
verschrikkelijk om te moeten zeggen als we winnen lopen we op heracles uit..
helaas.
weten jullie of ergens league cup word uitgezonden?
goedendag, zenden jullie geen league cup uit?
en volgende week gaan ze er ook af tegen roda. zoals je vandaag speelt ga je daar nooit winnen.
ik gun het hem van harte, of is dat heel gemeen?
en van der vaart dan? haha
wat een drama weer, doodzonde.
is er een reden dat er geen sfeeractie was?
sneeuwt het daar?
ja, is me niet echt opgevallen. 1 kopbal op de lat thats it.
same here, gelukkig maakte rotterdam veel goed.
geen aanrader dus?
zoals altijd??
kon aardig voetballen inderdaad, waar is ie gebleven? dortmund?
1 2 3 4 5
dat zijn diezelfde die toen met dat idee over cruyf etc kwamen toch?
geen idee joh, iets van 25 keer achter elkaar gestemd, nu kan ik niet meer die site op haha.
wat is er aan de hand? ben geblokkeerd dus ik kan niks zien..
topper, stuur me even een berichtje als je je eigen show begint, dan kom ik even luisteren
ben je nog druk met de radio dan?
over een paar jaar jij in het glazen huis?
de beker klassieker, mijn eerste klassieker, als kleine jongen van 15, in die geweldige kuip.. elke keer weer kippenvel!
hup vlaar!
de kuip blijft mooier.
psv thuis zou wel geinig zijn.
mag dat ding boven in het midden weg?
hoelaat nederlandse tijd en waar te zien?
inkoppertje deze
pakjesavond is maar 1 keer per jaar hoor, wat zijn de excuses voor de andere wedstrijden?
gio, gio, we wooooorden kampioen!
van plastic ga je dood.
02 bij rust, 03 na 90 minuten.
ah, daar zijn de boefjes weer
suarez word niet gewaardeerd in rotterdam, maar ik denk dat je dat al wel door had.
bommen op rotterdam mag wel natuurlijk.
wanneer begint de kaartverkoop voor feyenoordpsv 17 januari?
wat was de laatste wedstrijd dat niet uitverkocht was?
meen je deze?
jammer weer, vond je tweet van gister iets leuker.
ik hoop dat hij deze reacties allemaal niet te zwaar opvat.
kunnen jullie even stoppen danku.
moet je als nederlander voor ajax zijn?
kapotlelijk, waarom die achterlijke strepen
kunnen ze niet iets doen aan die tyfes scoreborden?
wat een bullshit, laten ze wat aan de scheidsrechter doen
feyenoord thuis, gekkenhuis
volgende week wel kijken eh? dan maken we ze af
zonde
als je pvv zal stemmen zou ik inderdaad anders naar je kijken
dat zijn die van feyenoord al
hahahhahaha
ik zie supporters op de achtergrond? of zijn feyenoorders nou echt nooit te stoppen?
blauwe kaart heb je toch niks aan
supportershome dat afbrandt 2 dagen voor de klassieker in adam.... karma
dit zijn zo weinig mensen. de meesten zijn goede mensen.
maakt niet uit hoevaak ik hem zie, het blijft een van de beste films ooit gemaakt/verteld
dankje grote broer!
braveheart, heerlijk begin van mn verjaardag!
confirmed bafana bafana and orlando pirates goalkeeper senzo meyiwa shot dead. walgelijk.
maar even iets treurigs. hoe kan de lange zijde van de arena zoo leeg zijn. doet pijn aan je ogen.
dankje voor t onnodig spannend houden feyenoord!
dat is de bal scheids..
twitter is echt langzaam aan t sterven..
hahaha
gefeliciteerd!
t zal eens tijd worden zeg
nijhuis please, stop met fluiten.
nijhuis, vuile kwal.
hehe. eindelijk
toornstraaa! waarom woensdag niet?
ondanks alles weer uitverkocht!
zijn we al begonnen?
jammer zelfs frank de boer zegt dat het geluk was.
je ziet m aankomen.. godverr
komopboysss!
wat een kut verdediging. pfoe
gefeliciteerd
helden
had 05 moeten zijn..
betere keeper dan mulder. maar toch, het blijft raar klinken..
heerlijk wakker worden! pfoe wat een wedstrijd gister..
feyenoord.. dacht eindelijk rustig van een wedstrijd te kunnen genieten.. komop!
fantastische wedstrijd!
douche jij nooit ofso?
drama, maar wel gewonnen!
ja helemaal. 3 punten voorsprong met nog 33 wedstrijden. nee echt eerste stap richting de titel.
al weer eventjes terug van kermis
europa league dan maar, maar dat is ook onhaalbaar met dit team.
om te janken. jezus, ga godver nou eens werken voor je geld!
hoe de fackk kan hij daar vrij staan.
maaaaaaaaaaatchday! hopen op een wondertje!
één van de mooiste weken van het jaar is weer aangebroken! gaat een mooie week worden!
wat een drama weer..
jii bent echt dom..
de tekst klopt niet, het is 532, niet 352
wauw, indrukwekkend!
hahaha die nieuwe aflevering van .. helden haha!
gefeliciteerd! alsnog
mijn cluppie is jarig! feyenoord 106 jaar!
dit is echt erg. verschrikkelijk wat een ramp..
jochie toch. wat zielig.
blijft jammer dat nederland hier vanavond niet stond.
oprotten argentinië, had je nederland maar niet uit moeten schakelen.
trots op dit elftal!
zo zonde dat wij die finale niet spelen.. wat een team, had het zeker verdiend!
oh serieus? wist ik niet eens.
pelle, het gaat je goed! succes en bedankt voor alles!
slapen, ben dr helemaal klaar mee.
vlaar, wat een wedstrijd speelde deze man. zeker hij verdiend het niet om een penalty te missen. wat een verdediger!
ddayyy! nederland vs argentinië!
damnn, kan niet slapen..
eigenlijk over een paar uur al..
maar is gaan slapen! morgen werken..
dit waren zo ongeveer de spannendste 130 minuten uit mn leven, ongeloofelijk!
ga maar lekker mensen nat gooien
godverdommee jaaaaa!
wat een tyfus scheidsrechter, we hadden al 2 penaltys moeten hebben.
realiteit.
nee
wauw!
rt voor oneens | de schorsing van 4 maanden en 9 interlands voor luis suárez is een passende straf. veel te laag
ajaks wel wou je zeggen
suarez sterft toch joh.. langzaam en pijnlijk.
colombia 1e? wtf..
zometeen de belgen in actie zien, hopen dat ze de finale halen, en dat ze die dan verliezen van nederland!
jezus wat een verschrikkelijke pot. en dat op het wk..
morgen de weer vroeg uit, maar fuck it, zometeen argentiniëbosnië!
heerlijke goal sturridge!
wereldkampioennn!!
bizarre avond was dit. revanche op de spanjolen! heerlijk!
dit was echt geweldig! nooit durven dromen..
een tikkeltje zenuwachtig maar..
wat een tyfus scheids
hahah geweldig! koning voetbal!
zo verschrijkkelijk veel zin in het wk! kan niet wachten!
morgen verjaardag van mn neef!
godverdomme, we kunnen net zo goed thuis blijven op dat wk. wat een slappe hap.
bij huize dekker!
weer thuis van dauwtrappen, geslaagde ochtend!
morgen dauwtrappen. om fucking half 6.. nu slapen met
wat een aflevering, haha geweldig!
de vrij godverdomme weg voor acht miljoen.. hadden wel een paar miljoentjes bij mogen komen!
dordrecht en excelsior terug! geweldig!
maarliefst? haal liefst maar weg.
pisvent/wijf
goede zangeres + goede zanger en dan zon lied..
de jeugdopleiding van feyenoord is voor de vijfde keer op rij de beste van nederland!
janmaat komt van heerenveen
schaam je
ik schrik van wat sommige mensen over dodenherdenking op twitter zet. heb respect, jezus.
respect voor de mensen die zijn gestorven voor ons, hebben gevochten voor ons.
dat was me weer een heerlijk avondje!
kutzooi, 11. seizoen toch al gespeeld. belangrijker dat roda degradeerd!
maaaaaaatchday, laatste keer dit seizoen! nog één keer knallen! en ik hoop natuurlijk dat roda degradeerd! hup eagles!
ajax spelers lopend naar huldeging..
10.000 man bij de huldiging, schaam je diep.
kuch kuch
heerlijke pot
en dr weer uitgestuurd...
heb je de rotterdamse me een keer nodig. zijn ze er niet. schoonvegen dat vak en de trein in richting..
ik zeg 6 punten aftrekken in de reguliere competitie.
affluiten, en de pecsupporters de beker geven. primabest.
vuurwerk gooien en dan ook nog naar je eigen keeper. wat ben je dan een stuk dom vuil.
stop vuurwerk in je eigen bek, maar blijf van de heilige grasmat af!
grijp ze bij de neus!
nou ajaksieden, nu betreed je zometeen een echt voetbal stadion.
wat een kut doekje.
15,000 kaarten in de verkoop. 10,000 plekken bezet. ajaks...
pfff, joden in de kuip.
mooiste stadion van nl
juist. de bekerfinale in de kuip is niet uitverkocht.
verschrikkelijk volk. stadion loopt leeg
terug van schoolvoetbal, was geniaal met
een concurrent minder voor voorronde cl!
300 hartkloppingen per seconde, altijd het zelfde als feyenoord een uit wedstrijd speelt...
beslis het nou godver!
almelose joden! hoerenvolk.
de kuip voor altijd! hij blijft!
jajajajajaja! de kuip wprd gerenoveerd!!! niks geen nieuwe kuip!
nee.
donders mooi avondje gehad!
gewonnen 75 vs wright
020 supporters komen 20 april naar rotterdam, aboutaleb, wat ga je nou weer verzinnen hier op? lekker slapen vannacht hé
neuzen komen weer naar het mooiste stadion van nederland
het mooiste stadion van nederland vandaag 77 jaar.
vanmiddag bij robbys geweest met
in de les met boze hallie
de kuip en de adelaarshorst. wat mij betreft in die volgorde ook de mooiste en sfeervolste stadions van nederland.
wat een held! echt, wat een held!
wat een baas!
wilders sterf langzaam!
kut kut kut... rvp geblesseerd...
divorce, geweldig!
geen woorden maar daden!
roda verloren, mooi, degradeer en kom nooit meer terug!
morgen punten terug pakken op vite$$e! prima uitslag dit!
eindelijk! hij is binnenn!
gewoon alles
mooie optocht gezien!
dit seizoen word alleen maar erger, je mag al blij zijn als we niet via playoffs europees voetbal hoeven te halen...
waaaaaaaaaaattttt? fred rutten? waarom fred rutten? heeft helemaal niks met feyenoord!
2 weken geleden werd feyenoord genaaid, vorige week werd feyenoord genaaid, en vandaag werd twente genaaid, helemaal gek daar bij de knvb...
we worden weer genaaid! we worden weer genaaid, we worden weer genaaid, we worden weer genaaid!
wat een dom voetbal, verschrikkelijk...
nog 1 minuut
wat een verschrikelijke clubje daar in eindhoven...
schaam je kapot! belachelijk...
jij bent de enige ja