in de mooiste stad die er is
al donderen er hagelstenen ter grootte van bakstenen uit de hemel, jij vindt het nog een perfect voetbalweertje 😂
via keulen voor 35 euro retour 😎
welke data ben je aan het kijken voor manchester?
de enige leuke wedstrijden die op kunstgras worden gespeeld zijn hockeywedstrijden.
gelukkig gaat hij nu naar de club van geen woorden maar daden en een mindere mentaliteit zal de selectie…
doe nou niet of hij niks toevoegde aan heerenveen, jongen wilde gewoon een transfer, dan kan een club meew…
jij had toch een artikel geschreven over die kinderfeestjes hype, ben op zoek naar dat artikel 😅
dont take me home is prima, zolang het niet bij thuiswedstrijden gezongen wordt.
alle vertrouwen in bijlow
ik neem aan dat de clubs die dan doellijn technologie hebben door eu groepsfase, het hele jaar de techniek hebben?
gehoord in de ontbijtzaal ik wou even melden dat mijn zoon niet op school komt vandaag, klein probleempje
had ik al veel eerder moeten doen, nu ook officieel lid van de
en dan ook nog een jij boft maar weer.
hou op met me
wedstrijden gespeeld. hij maakt de selectie alleen maar sterker. dat die van hunnie komt iedereen maakt fouten ...
ik snap echt de haat op vermeer niet. hij zegt nooit domme dingen, traint hard, heeft bij feyenoord geweldige wedstrijden 1/2
eindelijk een goede omschrijving van feyenoord supporters gevonden. 😂😂😂😂😂
kan ik niet zijn geweest, ga altijd met de auto 😅
zelf gister geboekt via skyscanner.
via hamburg kun je nog voor 57 euro naar manchester retour &gt woensdag heen ryanair vrijdag terug easyjet
ik denk dat de wint. wat denk jij?
wordt aardig druk in de broekzak van botteghin!
dat ze van de erasmusbrug kunnen pleuren.
voor dit soort kleine overtredingen geel krijgen? in andere grote voetballanden wordt hier niet eens voor gefloten..
iemand enig idee waar de johan cruiff schaal wordt uitgezonden in rethymnon, platanés?
kunnen jullie mij een scherpere deal aanbieden of houdt het dan bij jullie op?
hoi typhone, bij de concurrent kan ik een iphone 6s 64gb voor 120 euro goedkoper afsluiten, zelfde abonnement. 1/2
deze trein is om 1332 in heerenveen
zit nu in de ic naar den haag opgestapt in grou, deze trein rijdt wel naar steenwijk?
is het spoor nou wel of niet defect bij akkrum? op station melding geen treinen tot 1530 en op app en website geen melding?!
valt dit onder de garantie, heb bij het afsluiten in de tmobile shop ook toestelverzekering afgesloten. 2/2
sinds januari in bezit van iphone 6s heel tevreden alleen batterij gaat nu al veel sneller leeg dan in het begin.. 1/2
het maakt mij verder ook niet uit, als er maar gewonnen wordt!
feyenoord kennende, 11 en winst na minimaal 20 strafschoppen !
ik weet niet of kuyt aan dit team nog zoveel toevoegt.
onterechte penal, terecht mis!
deschoenenfabriek
wel betaald kan niet printen???
banaan banaan banaan we gaan er tegen aan
moreno breekt door in eerste champions league duel
wat een dwaas, je kan jezelf niet serieus noemen als je dit telt als een gestopte penal.....
een groot drama vandaag die kuipers
ik heb een stel samen abonnement
maandelijkse kosten zijn. 2/2
hallo, ik zit erover na te denken om mijn internetbundel te verhogen. ik vraag me dan alleen af wat de nieuwe 1/2
ben benieuwd
vermeer beste keeper van nederland, het enige goed wat uit amsterdam is gekomen 😅
als ze het eindelijk een keer over feyenoord hebben wil jack gelijk het onderwerp veranderen....
messi met een kopbal wie verzint het 😂
waarom duitsland het beste bij huub stevens past een duits salaris
gewoon geel voor die obeche...
veel plezier!
een sneijder die de laatste 2 jaar niks meer laat zien...
als je met nigel de jong op het middenveld tegen kazachstan speelt kun je jezelf niet eens serieus nemen! waarom zo verdedigend....
goed lezen! voor ons pas 18 oktober
daar sta je dan met je bakkes goed in beeld!
en zaterdag verlies je weer
helemaal naar de tering met fred rutten
de pleuris breekt uit, is het vanavond niet dan morgen wel
je kan nog beter aanstellen als hoofd coach!
hou de eer aan jezelf stap lekker zelf op en en ook lekker wegwezen!
laat zien dat je het shirt waard bent!
tijd voor een grote schoonmaak... out!
vanavond breekt de pleuris uit.. gelukkig is er nu een relhek bij het maasgebouw..
je hebt het beste middenveld van de eredivisie... goede buitenspelers een redelijke spits en het team nog niet kunnen laten voetballen...
rutten ontslaan, enige oplossing. man zonder uitstraling. ...
hou is op met die kansloze voorzetten.. meneer de italiaan zit in engeland....
het wordt wel heel triest allemaal...
met te vrede sloop je alleen maar het positie spel, feyenoord 2014 &gt fc bal op het dak
rutten haalt de kerst niet
weer zon achterlijke wissel
onverdiend verloren maarja...
wat een gestolen punten...
ik wil uit de automaat een papieren ov chipkaart halen en de automaat geeft de melding printpapier is op gewoon een loskaartje
misschien me treinkaartje
bedankt he geen printpapier op station steenwijk dus trein gemist....
toornstra, komt er in voor immers volgens fox
hahaha als je 15 miljoen voor nigel de jong betaald, snap ik ook dat je 18 miljoen voor blind betaald...
dat veld ligt er ook lekker bij......
niet mee eens, vermeer is 10x beter dan mulder
sterke vooruitgang, prima keeper
echt zo?
ik denk dat het een truc is om de vraagprijs van guidetti te verlagen.. misschien speelt hij het zo
echt schaam je kapot
feyenoord schaam je dood
dat twente terwijl ze onder curatele staan een miljoenentranfer kan doen...
je zou morgen maar naar school toe moeten !
ziyech ik had het wel geweten, rotterdam of het kansloze enschede...
omdat er wellicht meer dan 10000 gedupeerden zijn is de vraag welke oplossing u gaat verzinnen om dit bedrag te vergoeden!
omdat het bij de kuip niet mogelijk was om uit te checken hebben vele supporters waaronder ik te veel betaald voor de reis! 1/2
oekraïne valt russische troepen aan en feyenoord zou aankomende donderdag in kiev en wedstrijd moeten gaan spelen
ja eigenlijk zou je niet zo willen winnen p
zon slechte wedstrijd maar toch winnen, prima
dramaaaatisch
die makkelie fluit ook geen eredivisie wedstrijd meer dit seizoen,
wat eendramatische wedstrijd...
niet dat ik het niet leuk vind dat dordrecht wint haha!
en heerenveen was ook barslecht!
hou op hoor, heb nog nooit zon slechte, slome wedstrijs gezien
lekker hoor dordrecht!
heerenveen gaat ook lekker
die mulder zal ook nooit een keer beslissend zijn...
met hemelvaart heb ik mijn horloge retour gestuurd en sindsdien heb ik niks meer vernomen van u.
ik zeg niks meer over blind, blijf maar lekker ballen naar voren pompen!
nog steeds snap ik niet dat buttner geen kans heeft gegeven van louis...
hij raakt hem niet eens!
indi vind ik ook niet erg sterk spelen
die blind pompt ook alleen maar ballen hard naar voren !
scherven brengen geluk
ja hey gewoon zonder onvoldoendes geslaagd! wonderen zijn de wereld nog niet uit
ik heb u een pm gestuurd omdat ik niet kan inloggen op mytmobile
hallo, zojuist een my tmobile account aangemaakt. maar nu ik wil inloggen krijg ik de melding kan niet inloggen
onze grootste mattie joost
boem boem theo bij koning voetbal hahaha
ik vindt dat het met een baard echt een wanhopige vertoning, wrm kijk ik dit uberhaupt
dat het met een baard is echt een aandachtstrekkertje/wanhopig geval!
laat dat nec maar lekker degraderen in de nacompetitie
haha xabi alonso geen finale bij 30
barcelona is echt dramatisch, frank de boer zou hier perfect coach kunnen worden. het elftal verjongen!
alweer een goed uur onderweg naar rotterdam, en vanaf de kuip door naar eindhoven!
lekker hoor cambuur!
echt een top zaak, klantenservice echt prima bereikbaar!
netjes feyenoord, 2e plek met 4 punten voorsprong op de rest!
die keeper van twente is ook wel dramatisch!
blind bondscoach, nog nooit wat bewezen. wat een grap dit!
pec wordt genect 11!
in één keer geslaagd voor mijn rijbewijs!
neuzen gefeliciteerd, wat een klere partij
misschien moet 020 gewoon van der hoorn in de spits zetten!
als die ajaxcieden die nu janken om een schorsing voor pellè. dat is pas triest..
kan niet, dit gebeurt buiten de wedstrijd, alleen geldboete
goed is het niet. begrijpelijk ja!
aub gebruik videobeelden!
eerlijk verliezen oke, maar zo dit kan echt niet!
koeman is woest! schop die scheids doormidden aub!
koeman vindt die turk ook een schande! niet capabel om te fluiten
ik had precies hetzelfde gedaan als ik pelle was! ik had alleen nog wat meer schade aangericht!
ook nog buitenspel dat laatste doelpunt! doe normaal hoor kut turk
het moment van 100% tje?? dacht ut wel!
dit toch ook, wees redelijk man als het jou clubje was geweest had je ook gezegd dat dit een penal was...
en nelom vorige week dan eh?
hou op hoor hij houd hem gewoon tegen die bal...
het is zo boxem..
hands is geen overtreding meer
wat moet feyenoord doen om een penalty te krijgen, hands is geen regel meer?!
hou op hoor, kut turk 2e penal door de neus geboord!
rood en penalty door de neusgeboord
niveau van de scheidsrechters is echt dramatisch...
100% penalty door de neusgeboord! knvb is joods!
wereldniveau hoor die scheidsrechters in de eredivisie...
hoe kun je opzettelijk hands maken als je omgedraaid staat en de bal dus niet eens ziet aankomen?
lexie! komt eraan!
is wel zo, feyenoord speelde echt kut.
art ik zeg toch ook terrecht verloren!?
ze hadden gewoon moeten strijden net zo als tegen utrecht dan win je wedstrijden!
wel terrecht. dat afwachtende kut voetbal vandaag van feyenoord.
altijd die twitter fanboys, als je een supporter van hunnie was zat je wel in de arena! niet eens uitverkocht schaam je
strijden voor je club
geen lef gezien vandaag..
je roept het ook zelf op je af, zo spelen
verdommmeeeee
moet ook
weinig overtredingen eigenlijk
jankies bij die neuzen
ik ben toch een potje zenuwachtig
fuck dit
wereldgoal van pelle!
avondje met de boys! ft
met &amp &amp &amp !
eerste cijfer toetsweek binnen, 6 op wiskunde ben wel tevreden opzich!
was weer lachen gieren brullen in de c1000 niveautje hoor!
me hand au, iets met beschouwing...
ik heb maar een wens dit jaar.... coolsingel coolsingel coolsingel!
superavond gehad in de bieb! terugreis ging moeizaam met remon, wil hij vast snel vergeten!
mensen die nu siervuurwerk afsteken...........
wat is toch een fantastische band!
een verdiende overwinning voor tegen en een hartverwarmend eerbetoon aan mijn vader. trots op &amp
zijn er uitsupporters welkom in de arena?
slijp de messen maar feyenoord gaat vechten voor elke millimeter!
ik ruik bloed!
afslachten afslachten!
joden uit lekker hoor
niet dat ik graag zie dat koeman weggaat. maar hiddink kom op zeg. houdbaarheidsdatum is al lang verstreken..
je gaat toch geen bejaarde als hiddink aanstellen als bondscoach..
rapporteer
ik ben niet zon fan van het glazenhuis
waarvoor farid
dampo opgesmeerd.
dit is feyenoord niet mogen, toch met honderden supporters in het stadion zitten. who are ya
te zenuwachtig
laat de loterij maar beginnen.....
nijhuis deelt ook kaarten uit als kerstkaartjes..
laat zien dat je dat feyenoord shirt waard bent!
zaadpartij 110%
wat heb ik een hekel aan schaken ga maar eens scoren ipv de hele dag bless te roepen
keelpijn en niet te zuinig..
vandaag werken van 1 tot half 6 beter d
jij moet helemaal je mond houden, want als er iets drama is, is dat dat psv van jou!
met deze helden had 020 wel gewonnen!
tis dat ik geen ac milan shirt heb anders droeg ik die morgen d
jankie is er ook op
winnen in san siero kan alleen maar hiero, part 2 2002.
jij hebt er echt geen verstand van
geen uitvak deze keer maar ik ben er bij!
ik zeg nationale rouw en morgen lesvrij!
en jij hebt er echt geen verstand van
welterusten morgen weer om half 6 me bed uit....
is de ps4 nog ergens verkrijgbaar?
deze update duurt zo verschrikkelijk lang
het is weer zon dag
was ik niet,
gozer na vanavond ben jij geen jood meer
tering zeg doei, ik gooi me mobiel nu kapot
beter onverdiend winnen dan onverdiend verliezen!
lichtelijk overlast van een stoere jongen die stickers aanbiedt is daar een regelgeving voor?
wat wil je nou bereiken dan?
ik zou vooral je bek gaan houden. want der komt helemaal niets inhoudelijks uit dat hersenpannetje van jou
bedankt man! ik kon het al nergens meer vinden..
we hebben zelfs onze eigen clubhuisdoos
je huilt alleen van blijdschap en dat gaat aankomende weken zeker niet gebeuren!
je hoeft niet meer te huilen als heerenveen verliest?
stuur ik ze op naar jou!
bedankt, als ik op feyenoord.nl naar uitwedstrijden ga staat sc heerenveen er niet bij!
ja maar ik kijk er dan misschien overeen maar ik zie het niet staan!
zijn er nog uitkaarten beschikbaar voor sc heerenveen feyenoord. zoja wanneer start silvercardverkoop
ontslag hih?
team immers! ronald zet door! studio voetbal!
clasie en immers speelden echt fantastisch! sterker door strijd!
feyenoorder zijn doe je niet voor je lol,
leuke surprise party van en ook een gezellige avond in de karre met rémon!
zaadweer
wauw wat een gezeik
jij ook niet
jij bent de veroorzaker
wauw
wauw! deze bitchfight tussen ingeborg en elianne slaat helemaal nergens op!
dippertje dap zit op de trap
jij gaat altijd hard toch!
morgen nog even geschiedenis liquideren en daan een leuk weekend tegemoet gaan!
glorix, 1\10 glorixbleek en de rest water!
een mogelijkheid dit probleem op te lossen?
ons internet valt vaak weg en we moeten vaak opnieuw verbinden. onze modem is geïnstalleerd door een van uw monteurs is er 1/2
regering doet niks
ik moet ook vaak opnieuw verbinden bij ziggo..
aardrijkskunde en wiskunde vandaag!
op dit moment niey
blijkbaar niet badr jari
wij staan boven de joden!
oei! nu ik dit werrt gaat mvr. mulderpaard je aanpakken
denk dan aan het anti pestcontract wat we moesten tekenen in de 1e! helpt echt
hele slecht grap natuurlijk hahahha
te vrede is weer tevreden!
spoor jij wel helemaal?
cambuur is echt de hoer van nederland overal liedjes vandaan jatten!
zielug
helaas missen we onze gekke italiaan
raarste seizoen ooit! als feyenoord morgen maar wel zijn plicht doet! naar rotterdam!
het sterretje van de knjb, vink
zwaar dieptepunt van de abitrage in nederland, voor de heer vink is on sterretje van de knjb
het niveau van de scheidsrechters is trouwens weer tot een dieptepunt gekomen knjb
en dan krijgt pelle rood voor iemand die die niet eens raakt. en die rekik doet even een aanslag met 2 gestrekte benen en krijgt geel. knjb
echt mooi om te zien wat dit voor die man betekende!
video ontroerend... man met spierziekte ms zijn grote wens nog een keer naar de kuip. !!!!!!!!!!
moe als de tyfus
wauw schaken is echt slecht
weet ik hahahha
dikke baas die te vrede!
te vrede is erg tevreden! goal! 30
amateurs aswh speelt vanavond tegen ajax voor de knvb beker, baasjes
je zou maar een bevroren pet hebben
dus jij hebt een probleem
vindt ik niet, als hij hem nou daadwerkelijk geraakt..
echt die blom zouden ze ook ergens onder de grond moeten stoppen
nederland waar zijn we mee bezig.
in ieder ander voetballand had je misschien een gele kaart gekregen. de knjb gaat weer veel te ver
knjb! rot toch op man! wat zijn de scheidsrechters toch een lachertje!
alles of niets mentaliteit dat had ik willen zien!
alsof feyenoord denkt laten we sympathiek doen tegenover de andere ploegen..
ben nog steeds chagrijnig dit wordt een lange week.
schaken zal wel armenteros zijn plek overnemen en dan verschuift armenteros naar de spits positie
te vrede en manu, armenteros
die hekken op de vakken z slaan trouwens ook nergens op gelijk weer weghalen.
chagrijnigheids graad tot de max. maxi maxi maximaal
bedankt den haag en waalwijk! groetjes rotterdam!
zo komen silvercardhouders ook nooit meer aan de beurt! schaf het punten systeem af!
gefeliciteerd! en ook met je rijbewijs!
als messi zoveel traint als ronaldo dan is die helemaal niet meer te stoppen.
misschien, maar ik vind eigenlijk niet p meningen verschillen
maarja maakt niet uit, welke speler zou niet gaan liggen p
kom op man, ronaldo hoeft voor zoiets niet eens te gaan liggen, had niet eens de intentie om een stoot uit te delen.
niet eens man dikke aansteller van een ronaldo
dikke aansteller..
wat een naaibak die ronaldo! grote naaibak! bah bah bah
wel terrecht rood
dom maar amper geraakt
denswil heeft niet zijn avond hahahaha
blijkbaar niet p