we zijn op bestemming op europees avontuur
rip hans kraay sr.
hallo daar zijn we weer!
wedstrijd nummer 1 van vandaag stadion woudestein
nieuwste aanwinst
op naar woudestein voor de onder 19
op naar rotterdam
mijn speler van de week bij voetbal inside is sven van beek via
rotterdam komt al inzicht
eindelijk op naar rotterdam
kaartje in de pocket we komen! 🔴⚪️
zijn we weer!
nac is binnen
nac is binnen
kijk ze komen op het veld!
eerste wedstrijd voor vandaag tegen…
.@totonl, ik voorspel dat wint. natuurlijk!
zijn we weer! in de kuip
kijk ze komen op het veld
we zijn binnen bij wedstrijd nummer 1
op naar rotterdam
mijn speler van de week bij voetbal inside is steven berghuis via
toekomstige tegenstander gaan we even kijken.
zijn we weer eerste van het seizoen
rust 10 voor vvv tegen sparta vvvspa de koel
wedstrijd in de koel meepakken de koel
nieuw seizoen nieuwe stadion
schijnen daar in de verte! 🔴⚪️
onderweg naar de kuip 🔴⚪️
daar zijn we weer!
.@feyenoord trekt hem vandaag over de streep... 🏆
breaking! miquel nelom naar psv!#feyenoord
1993 als 3 jarige toen ik beelden van kampioenswedstrijd zag. helemaal sinds 1997 eerste…
mooi eerbetoon bij in de 32ste minuut voor
de goal die je zag vallen bij vermeer😅
dat is nummer 1 al voor onze deen van het seizoen
kijk ze komen op het veld!
met speciale shirts bij opkomst
keepers zijn bezig aan de warmingup
top! mooi gedaan super! ❤️
dit soort beelden zie je liever niet op een veld en gun je niemand.…
kijk ze komen op het veld!
voor mij geen eerste vijfde training. maar zo op naar lisse voor
rust zacht kleine grote held❤️.
super vest helemaal blij😁. kom maar op met het nieuwe seizoen 🔴⚪️.…
ik zeg niets meer aan doen
prima te doen zo.
kijk wat er in de bus lag bij thuiskomst van en jaaroverzicht van
en feyenoord magazine met leuk extraatje waar ik heel blij van word 😊. 🔴⚪️
we beginnen met feyenoord de eerste van de eeuw
mooi aandenken van een mooi seizoen!
en daar is die dan de schaal. 🔴⚪️
kuyt met zijn derde
daar worden de schalen uitgedeeld.
we gaan vandaag kijken. 🔴⚪️🏆
heb mijn shirt nog mooier gemaakt 😁 🔴⚪️
winnen van united is niet voor iedereen weggelegd.
nu zeg ik ook voor het eerst helemaal niets in 020!
mooie dag om deze weer is uit de kast te halen
deze foto uit de dan lees je hem met een hele dikke lach op je gezicht.
dan besef je dat het over is dit seizoen. en wat voor seizoen…
mooier stoppen kan niet! en zijn dan ben je een…
lekker fietsen met dit weer!
wat een club! dit zie je nergens anders.
.@feyenoord trekt hem vandaag over de streep... 🏆
mijn speler van het jaar bij voetbal inside is nicolai jørgensen via
jaaaaaaa matchday!!!!! feyenoord wat gaan wij doen vandaag?…
replica is binnen!!! nu morgen de echte nog halen op woudestein.…
bedankt voor de levering
even de fiets geparkeerd langs de waterkant. heerlijk in het…
room, vlaar, baker, van wolfswinkel
heerlijk leesplezier met
weer is een bestelling geplaatst bij
waar zijn de lichtmasten? stadion zonder is geen stadion.
wat een mooi gezicht de lichtmasten er boven uit.
als pupil van de week mee op de platte kar na kampioenschap.…
mijn speler van de week bij voetbal inside is terence kongolo via
op naar de kuip!
mijn speler van de week bij voetbal inside is steven berghuis via
ze komen op het veld
daar zijn we weer! op naar varkenoord voor
goede middag! vandaag kijken naar de de stadsderby op
sinds jaren weer in één keer van leiden naar stadion
dit kan nog wel is een belangrijk doelpunt worden deze 21
51 winst voor de onder 17 tegen psv
geen laatste training maar onder 17 gewoon afkijken
ik denk dat de wint. wat denk jij?
vandaag mooie mijlpaal bereikt in de mooie kuip.
mijn speler van de week bij voetbal inside is tonny vilhena via
dat was heerenveen voor de tweede keer en laatste keer dit seizoen.…
was in toch met de bus! abe…
veld ligt er niet best bij abe lenstra stadion
heerenveen we komen!
was niet moeilijk deze keer! 🔴⚪️
breakingnews ik heb verlengd tot 2018! jij ook?
mijn speler van de week bij voetbal inside is nicolai jørgensen via
heerlijk weekend! goed herpakt met de 52 winst op az. nog 8 finales…
mijn speler van de week bij voetbal inside is nicolai jørgensen via
wij gaan europa in!!!!!!!!!
geen gezeik wie er wel of niet is vandaag de draad weer oppakken en van week tot week leven.
op weg naar de kuip voor
en het is geworden waar zo de mini klassieker gespeeld…
we zijn er bijna!
de trein pakken richting
wachten op de trein naar huis en aankomen op voor de enige…
lekker weertje hier!
richting gaan we
we beginnen op
speel je halve finale en geen vol huis hebben
nu kijken
gecondoleerd en sterkte!
mijn speler van de week bij voetbal inside is terence kongolo via
moment van het jaar! jaaaaaaa!!!!!
zijn we weer! de kuip, stadion feijenoord
via de kapper nu op weg naar
tot over een paar weken maar weer voor
20 veerman
10
vandaag een avondje heerenveen abe lenstra stadion
mijn speler van de week bij voetbal inside is jens toornstra via
dit was het weekend voor een mooie mijlpaal.
zijn we weer! de kuip, stadion feijenoord
nou de boeren zijn er ook de kuip, stadion feijenoord
mijn speler van de week bij voetbal inside is jan arie van der heijden via
hoppa! weer 3 punten mee naar rotterdam.
we zijn er! de grolsch veste
eerste stop op naar de duitsers voor
mijn speler van de week bij voetbal inside is nicolai jørgensen via
heerlijke dag was dat 42
mijn speler van de week bij voetbal inside is nicolai jørgensen via
feyenoord wat gaan we doen vandaag?
naar de kuip voor
gister een mooi kado gegeven aan mijn broer. vond die leuk als supporter van hunnie 😂😂😂
hallo daar zijn we weer! de kuip, stadion feijenoord
nog een ochtend werken en dan naar
mijn speler van de week bij voetbal inside is eljero elia via
3 punten binnen en morgen rustig kijken naar en
we zijn er weer!
leesvoer en zo voel ik mij altijd alleen nu nog beter.
mijn speler van de week bij voetbal inside is dirk kuyt via
en we zijn binnen!
we mogen weer!!!
bij op de site
hij hangt op zijn plek eindelijk. mooiste hoek van de kamer
gelukkig nieuwjaar iedereen! hopen op ons jaar
dit was zo mooi!
mijn speler van de week bij voetbal inside is steven berghuis via
via leiden centraal nu naar rotterdam voor
en toch nog een stunt deze beker ronde 😂😂😂 👍👌
mijn speler van de week bij voetbal inside is bacoschaarie van der heijden via
jaaaaaaa!!!! wat heerlijk dit zelf 04 winnen en joden verliezen lekker hoor!
op naar alkmaar belangrijk dat drie punten weer meegaan terug!…
mijn speler van de week bij voetbal inside is nicolai jørgensen via
daar zijn we weer!!!!
helaas zit de week er weer op en begint morgen alles weer. wat was…
en we zijn thuis na een wat slechte wedstrijd is dat je nog punt pakt maar houd mee op
nog geen 24 uur terug en nu al weer de focus op
er moest toch even een sticker vervangen worden op old trafford…
eindelijk thuis op de bank en laten we maar even kijken
en we gaan weer we naar huis! we sluiten af met deze selfie van de…
yessss! we hebben de dubbel!
even bij het bezocht manchester…
ondanks resultaat wat was dit geweldige trip! blij met een leven als…
we zijn bij het stadion
lekkere sfeer hoor!
eindelijk de dag die sinds de loting omcirkeld is. het is
wat ik nou weer zag bij old trafford. kijk die van der sar dan 😂😂😂
sterren van united
nieuwste aanwinst!
wat prachtig stadion
even al bij het stadion gekeken old trafford stadium manchester…
we zijn klaar voor de dag!
nu even bij komen op de kamer van de reis maar we zijn er
we zitten op naar manchester
nu de trein naar schiphol
mijn speler van de week bij voetbal inside is karim el ahmadi via
volgens mij dacht er één dat het een springplank was 🙀😂😂😂
blijft een mooie herinnering.
ze heb nu nu maar ander plekje gezocht om te liggen geen zin naar…
aandachtig aan het kijken naar
mijn speler van de week bij voetbal inside is rick karsdorp via
zijn we weer!
mijn speler van de week bij voetbal inside is karim el ahmadi via
ik denk dat feyenoord de klassieker wint.
laten we vandaag verder werken aan de tafel van 3 naar
ik denk dat de wint. wat denk jij?
zit je de wedstrijd van zondag te kijken zie je jezelf in beeld
nog steeds krijgt niemand die lach van mijn gezicht. nu…
dat was een avondje varkenoord 21 winst op jong ado den haag
en we zitten in de trein naar leiden op naar huis
nu in de tram naar centraal
dat was weer een avondje varkenoord 21
bart nieuwkoop
zijn we weer! nu op naar varkenoord voor jong feyenoord jong ado…
onderweg naar varkenoord voor jong feyenoord
we zijn weer thuis en jij krijgt die lach niet van mijn gezicht. 😁💪💪
blijft mooi om naar te kijken 27 uit 9
dit zijn de lekkerste 12 👍🏻💪💪
we zijn binnen zoek een plaatsje in de zon
kaart omgewisseld
onderweg naar nijmegen
in de interlandweken dwalen de gedachtes af naar dit soort…
sterkte!
onderweg naar
maar wat triest om mede supporters uitfluiten. om dat ze anders denken over wanbeleid
21 uit 7 lekker!!!
daar zijn we weer!
gister even wezen uitwaaien langs het strand
even wezen uitwaaien bij hoek van holland
weer zo een heerlijke begin van de week 😀😀😀 18 uit 6
aankomst spelers bij de kuip
mijn speler van de week bij voetbal inside is brad jones via
helemaal naar de klote na wat heerlijk 💚feyenoord
wat is dit heerlijk kijkend naar de stand.
ik denk dat na de topper van vanmiddag bovenaan staat in de eredivisie. wat denk jij?
nu op fox herhaling kijken
wat heerlijk wakker worden is dit 😀😀😁
onze mannen zijn er
we gaan maar is richting rotterdam
ondanks geen spanning voor is het toch
zo voetjes omhoog en het is weekend
gm laatste dag werken deze week nog. de laatste uurtjes nog even bikkelen💪🏻
mijn speler van de week bij voetbal inside is jens toornstra via
zijn wel zulke vlaggen rood/zwart op elke stoel
heracles supporters nu al meer gehoord dan paar weken terug tijdens
en nu kijken en hopen op een leuke wedstrijd
en we liggen klaar voor en celran
na lang wachten en gevloek is het gelukt.
mijn speler van de week bij voetbal inside is steven berghuis via
en de volgende laat ook punten liggen nu alleen aan kop
ik had een score van 206 in de categorie ronald koeman
blijf maar langer winnen we tenminste😂
mijn speler van de week bij voetbal inside is eljero elia via
zeker gaan we alles voor doen👊🏻👍🏻
zeker slaap lekker. ga ik wel stukje toeren🏎 voor
fijne vakantie
enige wat ik kwijt wil nog is die stinklucht heb ik eraf gedoucht
op weg naar vreemd grondgebied
eerst op weg naar rotterdam voor
matchday op naar voor
zolang het daar is het goed
dat is ook weer zo ja niet op te zeggen 👍🏻👊🏻
is net als feyenoord daar heb je ook geduld nodig tot we wat te vieren hebben 😂😂
was zeker lastig maar geduld is alles😅
vind zulke dingen wel leuk te doen zeker als het met iets is😄
haha ik heb er twee in elkaar gezet ook voor mijn zus 😄👋👍🏻
niet iedereen kan het zelf 😂
bouwpakket in elkaar en mooi plekje gegeven
dat was weer een dagje
onderweg naar de
ik had een score van 219 in de categorie ado den haag
klaar voor
zo op weg naar
mijn resultaatfeyenoord! welke nederlandse topclub past het best bij jou? via
mijn speler van het jaar bij voetbal inside is dirk kuijt via
ik had een score van 235 in de categorie fc twente
mijn speler van de week bij voetbal inside is bryan smeets via
kostas blijft een
wat prachtig moment kippenvel bij
mijn speler van de week bij voetbal inside is dirk kuyt via
mijn speler van de week bij voetbal inside is vincent janssen via
mijn resultaatjan boskamp! welke voetbal insidespeler ben jij? via
zo erg was het gister dus niet de 11. ik had een score van 165 in de categorie fc groningen
ik had een score van 117 in de categorie oranje. valt mee voor iets wat je niet boeit.
ik had een score van 217 in de categorie bayern münchen
ik had een score van 156 in de categorie lionel messi
mijn speler van de week bij voetbal inside is karim el ahmadi via
mijn speler van de week bij voetbal inside is iliass bel hassani via
mijn speler van de week bij voetbal inside is jens toornstra via
verdiend natuurlijk maar één!! mijn speler van de week bij voetbal inside is stefan thesker via
twee punten uitgelopen op az
vandaag laat die vaak na mislukte actie zijn kop hangen
wat een droom rentree van twee goals
toch benieuwd of die precies het zelfde kan doen bij ons dat bij twente doet
wat speelt ze eigen wedstrijd totaal niet in de wedstrijd denkt dat die de man is
logische opstelling bij door alleen kongolo en kuyt te vervangen en niet heel je team om te gooien door bilal te brengen
het sprookje van leicester blijft. nu op naar de kuip voor
ja dat is zo dat je nieuwe kameraden leert kennen.
eerst nog even kijken of leicester city sprookje voortzet voor we naar gaan voor#feygra
dat is maar toch wil je niet alleen koop dan geen kaart en kan een ander scchouder wel
waar je door heel het land word geroemd en daar buiten behalve door de clubleiding zelf. die willen geen
top shirt bedankt voor de levering
koop dan geen kaart en dan de volgende in de rij wel je hoef geen kaart te kopen als je uitgeloot bent
wat triest ben je uitgeloot voor de koop je een kaart verkoop je hem voor veelvoudig
mijn speler van de week bij voetbal inside is bilal basacikoglu via
krijgen we een supercup over twee wedstrijden?
onbegrijpelijk kan je na winst boven aan komen blijf je liever thuis voor de buis. allemaal de griep zeker
slechte wedstrijden winnen word je .......... vitesse op zes punten
ook wel maar pakt ook te vaak domme gele kaart
zijn ook zeker in kwa positie beste kwa aanvoerders
ik kom eerder nog uit bij vermeer dan el ahmadi
geen idee zie geen aanvoerder na kuyt
niet verwacht dat er nog doelpunt valt
kan alleen maar beter toch tweede helft?
mijn speler van de week bij voetbal inside is jens toornstra via
mijn speler van de week bij voetbal inside is tonny vilhena via
mijn speler van de week bij voetbal inside is ron vlaar via
mijn speler van de week bij voetbal inside is sven van beek via