tactiek is min of meer hetzelfde, maar toen had je de beste linksbuiten, rechtsback en linksback in je e…
wat is hier onzin aan. heb je het wel gelezen?
omdat je vorig jaar topspelers had met elia, kuyt, karsdorp en kongolo. nu buiten larsson g…
is dit een serieuze vraag?
hahaha. nee. had hij zijn rode kaarten wel bij zich gisteren?
voldoende voetbal? alleen met berghuis en jorgensen kan je iets.
toont nogmaals aan hoe belangrijk de ervaring van elia en kuyt waren, vooral voor gio. totaal geen…
kan er niet zoveel van... matige scheids.
het meest indrukwekkende moment uit zijn carrière. tim de cler door zijn benen spelen.
totaal geen zenuwen voor het eerst sinds... ooit? heel apart gevoel
moest ie niet zelf voetballen dan?
pec hield feyenoord ver van het goal, dan heb je niks aan kramer.
de slimheid en goals van kuyt en elia. de power van karsdorp en kongolo. te weinig kwaliteit t…
hansie hansie konden we natuurlijk al langer niet serieus nemen
prima. lekker temporiseren en balletjes breed geven. goede keuze van dick! niet verliezen…
oke ja, als het nou enigszins grappig zou zijn...
toivonen maakt zelf de overtreding 😂
denk dat ze bij de ook hebben zitten huilen om deze breuk. wat een niveau..
vind de omschakeling naar voren zo lang duren. middenveld blijft ook constant op 1 lijn
wat dan? als utrecht die kansen benutte had je dit nooit gezegd.
utrecht heeft drie 100% kansen gehad. hoe slecht stond het dan wel niet?
maar kramer is toch stoïcijns hoor ik altijd
verwacht binnenkort wel weer een contract verlenging voor bilal. misschien nelom en kramer ook nog.
bilal, diks en kramer op 3000% zijn al niet goed genoeg. jeeezus.
schenkeveld, de vrij, castaignos, rashid, van haaren, lamprou, janssen, van huijgenvoort, bmi, isoufi, cl…
je weet het van te voren gewoon al.
larsson links, boetius centraal, berghuis rechts. lijkt me prima toch?
100% penalty ook onthouden door
wat vond je van de scheidsrechter vandaag?
onbegrijpelijk met 12 man inderdaad
kuipers ziet nooit wat. tegen excelsior ook al geen penalty gekregen
kuipers, beste scheids van nederland zeggen ze dan. lachwekkend.
wel leuk. 2 overtredingen 2 keer geel. hendrix 4 overtredingen 0x geel. arias haalt vilhena neer ran…
ben je toch gewend van kuipers bij psv tegen feyenoord. kan me nog een vasthoud moment…
in de categorie van inconsequent fluiten past ie ook wel.
echt een smeerlap die kuipers. hoeveel overtredingen heeft hendriks wel niet gemaakt zonder een kaar…
logisch. de enige fitte rechtsback in je selectie. amrabat hoort gewoon op het middenveld
al hadden we met 13 spelers gespeeld, dan nog zouden we dik verliezen. feyenoord hoeft zich hier niet voor te schamen.
kwalitatief uitstekende vragen van
tja, bij je eigen club valt er niet veel te genieten.
kan bondscoach dick advocaat nu eigenlijk niet meer om huntelaar heen man man man...
6 miljoen voor luckassen 😅
brahim darri moet lekker gaan zaalvoetballen
pffff feyenoord twee pingels onthouden en nu wel fluiten
stonk neres hier naar wiet?
dan moet je wat aan je ogen laten doen. vilhena heeft al zoveel ballen onderschept vandaag.
wie zegt dan dat janssen een topspits is?
helaas. niet verwacht van dick
vente als 10, speelde daar vorig jaar ook regelmatig
oke. heb je nog stats van spelers die niet van ajax zijn?
moeten wij de champions league maar winnen😎
ajax zonder bosz is gewoon een soort ado
de doos met middelmatige buitenlanders is weer opengetrokken in spangen. leren het nooit.
peter r is gewoon een walgelijke narcist.
eerste helft bij de kans van jensen stond haps aan de verkeerde kant te dekken. kan…
ik vind haps ook niet veel. heel wild en loopt teveel met de bal
amrabat was een van de slechtste spelers vandaag. publiek hoorde je ook al morren bij…
nelom zeurt niet omdat hij zelf ook wel weet dat hij tekort komt.
om dit serieus te nemen, dan ben je pas een droeftoeter.
dit is dezelfde man die zei dat dolberg 4050 miljoen waard is 😂😂
je gaat toch geen keeper aantrekken voor 2 maandjes
voor 2 maanden? denk van niet.
ook geen optie als nelom en woudenberg weggaan? die kans is natuurlijk ook aanwezig.
linksbuiten plek toch erg mager bezet vind ik en geen backup voor 10
voor 15 miljoen kan je 658 betere spelers halen dan haps.
vond hoogma meer indruk maken dit seizoen. st juste werd fysiekweggespeeld door dolberg
nou moeten we dus ook al een backup voor toornstra halen...
mooi.
de linksback van hull gaat naar liverpool en was sowieso al onhaalbaar voor feyenoord.
vind dit toch zon matige speler. vooral dom, fysiek wel oke.
10 miljoen voor een back die een half seizoen goed gespeeld heeft. next.
betere linksback dan kongolo zijn niet te betalen voor feyenoord
wtf lekker thuis komen zo
volgens de site duurt de storing tot morgenmiddag, beetje te gek, niet?
storing in hellevoetsluis? postcode 3225 ge, al sinds 11 uur geen internet.
nieuwkoop vervangt karsdorp, diks vervangt nieuwkoop.
diks, troupee is te duur.
wanneer afscheid kuyt en in welke vorm, oefenwedstrijd tegen liverpool of vrienden van kuyt? verdient deze held wel.
nee, mislukt bij feyenoord, mislukt bij basel en niet goed genoeg bevonden bij genk. je moet vooruit als club, niet achteruit
volledig mee eens met alle punten die je opnoemt.
je vergeet amrabat!
7 ton lijkt mij aan de lage kant. voor hahn zou je toch gerust 1,5 2 miljoen kunnen vangen. prima keeper.
dalbert is een linksback.
neem nog een wijntje aad
als jullie niet zon grote muil hadden dat jullie wel ff zouden winnen en de landstitel ma…
om zoiets sneu en zielig te vinden is pas sneu en zielig. man up.
voorlopig zijn we de afgelopen 2 seizoenen succesvoller dan ajax. al 3 jaar geen prijs met…
verschil tussen mourinho en bosz ook. zo naïef weer.. je eigen spel spelen.. zucht
geweldig voetbaljaar zo
nieuwkoop tegen utrecht?
hebben ze m al gewonnen dan?
word het op eurosport uitgezonden?
haha heerlijk dat ze nog hoop krijgen, is de deceptie volgende week groter!
belachelijke kaart. maarja, penalty werd ook niet gegeven vlak voor de 10. typisch blom. enge man.
haha, vooral clay zijn tape vond ik heftig. hopelijk komt er een 2e seizoen.
net 5 minuten geleden de laatste aflevering gekeken.. de tering...
je had niks verkeerd gezegd man
van mij mogen ze nu ook degraderen
zulke teksten na zon dramatische wedstrijd gespeeld te hebben. lachwekkend en typerend voor het ho…
prima idee, ook bij het vrouwenvoetbal invoeren graag
bas nijhuis was aan het fluiten zeker
bedankt voor je assist klaassen!
wedstrijd zonder publiek.
moest wel lachen hoe je het misschien een penalty voor kluivert vond maar hij zelf de overtreding maakte. vreemd.
valt wel mee hoor. verliezen uit bij ajax kan gewoon. nog 3,5 punten voor, alles in eigen hand met no…
was ook een smerige overtreding natuurlijk
nou bij de 10 was er niks aan de hand. beslissend, alweer tegen feyenoord.
mislukt schot man
kuipers is totaal ongeschikt om topduels in nederland te fluiten.
weet makkelie ook waar hij staat.
ik hoop het maar zal wel niet gebeuren
nope, speelt niet. moet op tijd in bed liggen.
dat is al jaren zo maar om een of andere reden speelt hij nog bij feyenoord. misschien kan hij goed koken?
de ligt, viergever en tete, zou een voorkeur hebben?
vorige week nog kinderlijk in de fout, nu bij het nederlands elftal, alleen bij blind..
mooi, door te lang met de bal te lopen lekker terug naar eigen helft dribbelen. prima gifje
vermeer, woudenberg, kuyt als vervangers
en dan naar johnny heitinga en ronald waterreus luisteren na zon wedstrijd
was het ook niet gewoon hands?
hahaha wat dacht je van het moment met elia dan? kut zender, kut commentator..
100% dive
blom had hem gegeven
alleen draxler is door hem gehaald..
we stonden ook al niet al met 20 had 40 moeten zijn voor natuurlijk.
volgens mij wel hoor. word aangetikt, lichte overtreding maar het is er wel een
je zit er wel mee he
ard van peppen ook.
achteraf heeft hij er wel invloed op. karsdorp dacht er te makkelijk over, gio moet hem nu gewoon op scherp zetten.
heb jij er wel iets over gehoord?
barcelona speelt ook een ander soort voetbal dan whu. hoeft niet zo zeer denigrerend te zijn, gewoon anders.
moe zijn is ook mentaliteitgebrek aan. zit in je kop, het lichaam kan gerust 2 wedstrijden binnen een paar dagen tijd spelen
hoezo was je onder de indruk dan? ik vond hem vrij pover spelen, vooral in balbezit. telkens balletjes ophalen bij botteghin ook..
jij hebt vast wel een streampje voor mij
nijhuis vanmiddag?
dit dus. en normaal gesproken staat nijhuis erom bekend dat ie veel toestaat. alleen vandaag niet...
ben benieuwd.. afwachten dus. volgens mij was dit wel een redelijk talent, zonde dat hij destijds naar spanje is gegaan.
groningen wou hem toch een paar jaar geleden hebben? zouden ze hem nu weer willen of toch psv? of... feyenoord?
heb jij met hem gesproken? zoja, wat was jou gevoel bij het gesprek. komt hij naar feyenoord?
haha volg nu al een tijdje de tweets van thijs maar wat een eng ventje met noninfo is dat zeg. kansloos.
brady van ierland.
en die poolse spits mariusz stepinski dan? schijnt dicht bij een overgang naar feyenoord te zijn
hoe kom je er überhaupt bij om baco arie 68 ton salaris te geven, hahaha huilt
heee kees, hoe gaat ie?
heb je nog een stream in de aanbieding?
hoeft toch niet? hij kan gio altijd nog adviseren
overigens meldt dat achahbar wel speelt..
na de bekerwinst wat beelden gezien van achahbar met vilhena onder de douche... heeft een aardig buikje hoor.
fit worden?
toornstra en kuyt zijn geen rechtsbuitens en bilal komt te kort. begrijp wel dat ze daar iemand willen, maar berghuis?..
elia... ?
je hoort alleen maar het excuus minder te besteden maar geen oplossing hoe hij het gat gaat verkleinen..
klopt, maar we staan 3e dus we doen het goed volgens van geel. totaal geen visie om de volgende stap te maken met de club...
ajax haalt toch ook younes en milik samen voor minder dan 5 miljoen binnen. minder geld is het probleem niet..
al die miljoenen op de bank komen nu mooi van pas
van der heijden speelde met kashia centraal achterin. vejinovic op 6, propper en atsu of qazaishvili verder op het middenveld
speelde toch ook bij vitesse op 6. mist fysiek om zowel op 6 als op 8 te spelen. zit eigenlijk heel weinig bij die jongen..
stijn schaars is transfervrij... zou dus best kunnen
word het nog droog vanavond ed?
mario drinkt nog wel eens een bacotje op zaterdagavond
bouwen met veltman en blind..
gaat lekker..
had wel een goede voorzet in de tweede helft maar er was geen bezetting voor de goal, maar goed.. dat is alsnog te weinig.
snap jij het nog? ik zie de hand van de trainer totaal niet terug
schuurman? heb je tapia niet zien schitteren vanmiddag?
balans? vejinovic kan ook niet verdedigen.
ben geen fan van jullie gezeur op gudde maar mijn maag draaide wel even om na dat interview.
hopelijk raken ze bij celtic nu nog meer in de war en halen ze kazim binnen!
selectie is absoluut niet top maar zou wel goed genoeg moeten zijn om van ado te winnen. dat valt gio te verwijten..
wat doe je nou stoer joh droeftoeter
sust ajax zichzelf niet in slaap met zulk voetbal?
wist hij dan dat kramer geblesseerd zou raken? botteghin normaal basisspeler en kongolo vaste lb.
maar 5x 2,5 miljoen is wel veel.toornstra, bilal, vejinovic, kramer.. allemaal miskopen. tapia grote vraagteken
weer versterkingen waar je u tegen zegt! ....
jezus, wat een poll...
waarom was van geel niet aanwezig bij de contractondertekening van hansson? bezig met een andere transfer of gewoon toeval?
toch nog lang meegedaan dit jaar
maakt niet uit met zon verdediging. backs, vilhena en el ahmadi willen alleen maar aanvallen.
of een rechtsbuiten die kan sprinten?
onmogelijk om te winnen met zon verdediging.
wanneer haalt van geel nou eens echte versterkingen voor feyenoord?
pelle naar juventus?
middenveld is prima? welk middenveld. el ahmadi staat altijd naast de spits en vejinovic kan niet verdedigen.
geweldig gedaan ook door el ahmadi.. man man man
schandalige eerste helft.
onzichtbare kramer ✓ dramatische corners ✓ op 3 meter dekken ✓ laag baltempo ✓
nee dan mag het niet. ik gaf alleen een voorbeeld dat dit soort praktijken wel voorkomen in engeland.
moet je ook eens opletten wat weghorst doet. kramer had alle recht om daar te provoceren
of heb je diego costa nog nooit zien voetballen?
goed praten? je ziet dingen die er niet staan vriend in engeland zie je trouwens veel ergere overtredingen
zouden de journalisten in engeland ook zo zeuren over deze wedstrijd?
toornstra is nog wel eens van waarde geweest voor feyenoord. vejinovic nog niet.
opmerkelijk hoe jij suggereert dat nijhuis voor feyenoord gefloten heeft vandaag. hij was aan beide kanten dramatisch.
ik heb zojuist pack pinguin opgelost in wordbrain als nummer 9912 ooit!
speelt aardig inderdaad.
klopt maar verdedigend vind ik hem ook niet goed.
schoof vandaag toch prima in?
die kans van kazim ook. typisch. kop die bal gewoon naar de grond..
heb je prima spelers als duplan, havenaar en schaken en dan zo voetballen. triest.
waarin hij bijna alles gespeeld heeft, plus europese duels doordeweeks gespeeld wat ook nieuw voor hem was.
het laatste gedeelte van het seizoen was dramatisch van kongolo, maar van heel feyenoord. en het was zijn eerste seizoen..
vorig jaar was kongolo samen met van beek tot 3/4 van de competitie gewoon erg goed hoor. minste goals tegen toen..
haha, ja tuurlijk
misselijkmakend programma. paar minuutjes feyenoord om vervolgens door te gaan met het hoofdonderwerp ajax.
winnaar playoffs?
zeker, maar als je hem gaat vergelijken met depay.. wat is die slecht geworden zeg.
dan deden de vrij en martins indi het toch niet zo slecht...
moeten ze voetballen dan
moeten we daar blij mee zijn jd?
oke, duidelijk!
als er onvoldoende bewijs is waarom wilt de knvb elia eerst voor 43 wedstrijden schorsen?
3 weken lang zijn salaris inhouden. onprofessioneel gedrag van een volgevreten vedette
we zijn altijd aan het zeuren dat we in nederland als mietjes verdedigen, wordt er eens hard verdedigd is het nog niet goed
6 wijzigingen waarvan 2 noodgedwongen. blind heeft wel een duidelijke visie..
toch twee prima voorzetten van depay gezien hoor
veel geïnvesteerd om een grotere selectie te krijgen. maar geen selectie waar veel kwaliteit in zit...
onbegrijpelijk inderdaad, in zon wedstrijd iets nieuws uitproberen is lachwekkend.
middenveld word ook overlopen, vejinovic wint 0 duels en immers is immers.
voetbalt die babbel nog dan?
janmaat, de guzman, van beek...
valt nog mee dat daley blind geen aanvoerder is
al enige idee welke rechtsbacks feyenoord op t oog heeft?
ik vond van beek en kongolo ook niet vrijuit gaan, beide gingen naar dezelfde bal toe.
kunnen ze die blom niet eens wat wedstrijdjes in de premier league laten fluiten?
aardige defensie, middenvelders zonder creativiteit, 2 middelmatige spitsen.
heb bilal zijn mannetje niet 1x zien uitspelen en hij schoot bijna alle voorzetten tegen zijn tegenstander aan.
pinchhitter? kramer is nou niet iemand die oorlog maakt, voor die rol is juist kazim uitstekend geschikt. raar....
en een niet al te slimme. zon beperkte kramer gaat nooit meer een seizoen draaien als vorig jaar.
onbegrijpelijk, miljoenen betalen voor een middelmatige 3e spits. bewaar dat geld voor versterkingen voor de basis...
viel het op?
vind het ook jammer hoor, maar boetius heeft zich de afgelopen seizoenen totaal niet doorontwikkeld en wilt zelf niet verlengen.
waarom alleen als boetius vertrekt? bilal en manu komen ook gigantisch tekort...
danny buijs en pascal bosschaart willen ook weer voetballen. halen!!
laat gaan. iedereen met een klein beetje voetbalverstand ziet dat kramer niets voor feyenoord is. zeer teleurstellende aankoop.
middenvelder volgens mij.
mag toch hopen van niet zeg.. word wel erg triest zo
zojuist geprobeerd en ik krijg nog steeds de error, ik zit bij ziggo en heb alleen de eredivisie in mijn abonnement.
dat staat niet op het scoreboard
de statistieken zijn dat vermeer minder goals tegen heeft gekregen dan hahn in het vorige seizoen. als het dan zo moet
hoezo heeft lexie niet gespeeld vandaag? transfer in de maak?
404 error wanneer ik online wil kijken. probleem al bekend bij jullie?
nog een contract tot 2018 en feyenoord hoeft niet zomaar meer een speler verkopen. minimaal 10 miljoen denk ik.
necid heeft al een club, in turkije.
in het buitenland komt ie ook niet aan spelen toe. kan beter bij feyenoord voor zijn kansen gaan.
matige seizoen van boetius kan misschien ook te maken hebben door immers die vlak bij hem stond i.p.v de voetballende vilhena.
klopt, immers was altijd de meest aanvallende middenvelder, el ahmadi had die diepgang ook wel, maar kwam aanvallend te kort...
feyenoord speelde zo ook al onder rutten. immers stond vaker als linkermiddenvelder gepositioneerd dan achter de spits.
er is ook nooit goed nieuws he
zijn beide toch rechtsbenig? en hooiveld ging terug naar zweden dacht ik...
hij is wel afgetraind zeg..
dus dat kan ook een links of rechtsbuiten zijn.
van geel had interesse voordat hij naar hveen ging. en feyenoord zoekt niet specifiek een spits, maar een aanvaller.
gewoon niet aan de orde. ook niet nonconcreet. moyes zat op de tribune voor of boetius maar was niet onder de indruk.
jawel. een ruildeal is totaal niet aan de orde.
dat is een ding wat zeker is!
ja inderdaad dacht ik dus ook! assist op te vrede tegen fc utrecht..
clasie 0 assists?
haha, godver! nou blijf ik heel de tijd nadenken over wie het gaat. denk jij dat diegene een absolute toegevoegde waarde is?
aha, vandaar dat je zo reageerde. gewoon blocken joh!
van geel gaat pas in september met vakantie.
haha echt waar ! had het ergens in april aangevraagd..
23 mei brief ontvangen, eergisteren het geld al op mijn rekening $
goed nieuws!
wat een dramatische verdediging zeg..
ben benieuwd hoe gio het gaat doen volgend seizoen..
komt handelingssnelheid te kort. had je net zo goed kunnen behouden. vind ik nog beter dan el ahmadi ook trouwens
ehm. janmaat was bij heerenveen al een prima back hoor. dijks redde het daar niet eens!
heb je bij je getrainde teams ook een houthakker achter de spits?
das nou het mooie van voetbal, iedereen heeft zijn eigen mening. iedereen behalve jij dan
je kan ook gewoon mn tweet lezen. ik ontken niet dat immers een andere rol heeft.
en de oude lex laat me niet lachen joh. zelfs toen kwam ie gigantisch tekort. pure middelmaat..
hij heeft vaak genoeg tond kazim gespeeldonlangs nog tegen vitesse en bakte er niks van.
met pelle voor zich, nu immers zelf wat moet doen is het tien keer niks
dat vinden wij helemaal niet erg mikos..
op welke positie staat lex immers?
hahaha. immers hoort niet eens op 10 te staan bij feyenoord. topclub onwaardig.
niks voor feyenoord. zelfs manu is beter.
feyenoord vitesse gaat dus niet door. kan ook alleen maar in nederland..
bedankt! altijd leuk om te zien
psv is weer eens kampioen na een jaar verkapt countervoetbal en ze krijgen het al weer hoog in de bol..
ik weet wat je bedoel..
die gaat weg zo te horen. soms moet je egoïstisch zijn verklapt het al.
en dan lees ik reacties op fr12 dat het een gevalletje cabral, biseswar is en dat biseswar zelfs beter was. triest...
heb me voorgenomen om helemaal niets van psv te gaan kijken vanavond. zou je ook moeten doen, scheelt een hoop ergernis
gio zal zelf ook wel aangegeven hebben dat hij met wouters wilt werken. lijkt me ook niet onverstandig.
heeft chong al een contract getekend bij feyenoord? zeer goede speler!
kreeg hij ook bij het betreden van het veld..
was wel 34 keer slordig in het begin door de bal ver voor zich uit te spelen, ging telkens maar net goed.
was in het stadion en er werd voor iniesta geklaptdoor fans van nederland toen hij het veld in kwam..
dezelfde mulder die altijd zegt dat trainers overschat zijn. wat een vent..
uitstekend idee. en dan je topscorer de jong op de bank zetten. en dan hebben we het nog niet over zijn salaris gehad..
zijn transfervrij nu..
haha je bent nog dommer dan je eruit ziet. heeft totaal niets met racisme te maken..
gaat denk ik ook om contractduur. rutten wilt meerdere jaren, feyenoord wilt vast houden aan 1 jaar.
wanneer word immers eens gewisseld? mag wekelijks een wanprestatie leveren maar blijft altijd staan..
heeft vilhena linksbuiten goed uitgepakt zeg..
inderdaad. probeer nou maar in slaap te vallen.. mij lukt t iig niet..
gelukkig maar.
buitenspel goal en verder 1 keer op goal geschoten. wel redelijk verdedigd maar dat lag meer aan feyenoord.