hebben jullie wel een beetje gelachen met de telstar boys jongens?
dat is feyenoord! kan zo op zon spandoek joh
ik herhaal gewoon mn tweet van vorige week. maandag lekker naar oekraïne met de jochies! 🍻🇺🇦
gelukkig gaan we over een weekie gewoon lekker naar oekraïne 🔴⚪🇺🇦
prima dagje hamburg gehad gisteren, nu volgas richting rotterdam! beat the scum!!
thannks! dan moet dat deel goed komen, alleen de zondag dan nog maar. haha👌🍻
weekend! morgen naar duitsland voor wat goudgele rakkers 🍻 en zondag dday!
en maar huilen over een opblaasbanaan die per ongeluk het veld op waait..
hij scoorde toch? 😜
laatste kans vanavond voor europees overwinteren, alles los!
waarom zendt geen uit..?
klaar mee. 👋👋
maar dat is toch helemaal niet mogelijk in die ouwe kuip?
toch toevallig dat feyenoord altijd in een stad speelt waar ik die periode een citytrip heb geboekt..
moet jij weten 😜
mooi te laat, al twee autos meegenomen 🤙🤙
bekerhouder eerste ronde eruit is natuurlijk niet standaard, zeker niet tegen amateurs
niet gewonnen op het veld met dank aan kuipers, maar heer en meester op de tribune! eindhoven tyfus dorp!
martijn, aangenaam!
vorig jaar kon het ook tegen dat andere clubje uit manchester, dus wie zijn ze dan?
maar jij ziet er ook echt uit als een beschaafde jongen 😜
behoorlijke wat 020se arrogantie in deze tweet 😂
zijn betere prijzen dan dat wij 2 jaar terug kwijt waren 😂
al bekend in welke pot hunnie zitten?
de uefa zal het europees voetbal vast voor een jaar afgelasten als hunnie niet mee doen.. 😂😂
en waarom dan wel? niet doorgebroken en geen hele smerige overtreding. gewoon stevig ingaan
vd heijden voor?
nu pas? ben der al wel langer klaar mee..
dan heb je dus kunstgras liggen dat er nog slechter uitziet dan een gemiddeld amateurveld..
maar één ding is een feit, zoals het nu gaat is te gek!😍
die gast met die microfoon mogen ze ook wel neerknuppelen..
voor niets hele dag vergaderzaal geboekt 😂😂
dat raad ik je al jaren aan..
sowieso minder regelmatig dan kenneth.
omdat die bijlmerramp standaard onder ballen door duikt, als voorbeeld al die…
gefeliciteerd feijenoorders met onze mooie ellendige club!
uiteraard sneu voor die jongen, maar zoals vorige twee…
gebeurd genoeg in de wereld, toevallig omdat hij beken…
houd zelf is op joh!
je ben zelf een nathals
vond degene die hem mee zou nemen een hoer weer belangrijker?😂
zo dan, dan is ie mij gewoon nooit positief opgevallen 😂.
een rechtsback huren die afgelopen seizoen 2e keus was achter leerdam.. 🤔🤔
dit blijft puur genieten 😍😍
die netten voor europese duels hebben blijkbaar wel indruk gemaakt in europa..
balen zeg dat ik op vakantie ben..
wel even rekening mee houden dat hij draadloos is he! net als de boxen
brommapojkarna if degerfors if
laatste dagje werken, morgenochtend lekker weekendje naar stockholm.🇸🇪
jawel jawel, kaarten zijn binnen. over anderhalve week naar stockholmderby. hammarby if djurgardens if…
potverdompie, volgens mij ben ij eindelijk weer nuchter..
waarom niet gewoon elke seizoenkaarthouder zon jaarboek opsturen?
rotterdam, sterker door strijd! kunnen het zondag gaan bewijzen.
dit gaat een lange week worden..
mocht het zondag zover komen en feyenoord de titel pakken, dan zal heel nederland zien hoe groot feyenoord is! wij zijn feyenoord!
ben nu wel benieuwd naar het antwoord. zondag echt bier in de kuip ja of nee?
ojaks zou verboden kunnen worden. 👏👏
se sijn aan vakansie toe ouwe!
weekend! het kan een hele mooie worden. 🍻
en onze commerciële man sluit een shirtsponsordeal met lange looptijd voor bijna hetzelfde bedrag als dat we nu kri…
feyenoord, altijd de eerste!
aboutaleb feyenoord komt eraan!
geen woord aan gelogen. sir bobby robson.
weer niet die tyfus punten uit zwolle gehaald.. maar sterker door strijd. still on top fighting for the dream!
zwolle uit, al jaren lastig daar. enige wat telt morgen zijn de drie punten, op naar die droom! come on you boys! 🔴⚪
storten jullie maar ff heel gauw in elkaar met dat zooitje in zeist..
klasse hoor lekker uit de samenvatting houden.. weten we jullie voorkeur ook weer gelijk. 🖕
wees gerust, zo voelt feyenoord normaal gesproken ook elk jaar 😂
standaard daar joh, pas als ze scoren. enige wat ze dan laten horen tegen ons is 10, 10, 10 kansloos volk..
als één van die vier het been van klaassen doormidden zaagt heb ik een mooi interlandweekend.
knvb maakt zichzelf weer compleet belachelijk met deze willekeur. als jullie hunnie zo graag kampioen zien worden, waarom dan nog spelen?
hey zouden jullie is willen stoppen met het continue bellen, nadat ik al had aangegeven niet meer gebeld te willen worden..
je bent zelf een gênante populistische vertoning!
koning karim, tot dit seizoen vaak ondergewaardeerd. blij dat ie bijtekend!
precies dit dus! standaard halfleeg stadion daar..
over exact een maandje weekendje naar barcelona, lekker zeg 🍻☉☉
zo dan, cursus hoe verkracht ik een logo in turijn..
hoop dat die zn been breekt volgende week, arrogantr tyfuskwal
zijn toch geen tijden dit..
ohja, want dit is in belgië natuurlijk een groot succes..
wat heeft hummels met zn haar gedaan dan? 😂😂😂😂
wat doe jij in regio utrecht op een woensdagmiddag? daardoor wordt het druk..
12.30 afschaffen lijkt me een prima plan doe 16.45 ook maar, alleen optyfen met zondag 19.00! football without fa…
niveautje weer op fr12 hoor.. pff.. feyenoord wordt vast beter van een sfeerloos stadion met dikke schulden 👍
geen van beide.
lijkt mij dat je met zon investering toch minstens mag verwachten dat je volledig over die gasten heen klapt dan.. 2/2
maar even serieus.. je wilt dus 1,5 miljard euro investeren om op hetzelfde niveau als hunnie en lampies te komen? 1/2
optyfen gauw!
zoooo jij bent niet bang heb ik het idee! 😂
heb ik zo mn twijfels over 😂😂
kunnen we even gauw kappen met dat dont take me home bij thuiswedstrijden en al helemaal bij achterstand of gelijke stand...
kennen ze de spelers de week voor de klassieker niet een mediaverbod geven. elke keer kramen ze van alles uit, maar geen daden
he even serieus €46 voor een buscombi vanaf deventer naar go ahead in deventer..? met je kop op de stoep gevallen?
zijn nu taksim proberen nog in uitvak kiev te komen. anders kort zuipen in buurt taksim
soms vraag ik me serie af is dit mijn club nog wel?
kan natuurlijk echt niet... wie zijn ze daar in eindhoven dan joh? 😂😂😂😂😂
ik teken mee..
godverdomme wat is dit lekker!!! wie zijn ze dan joh?
maar één stadion in nederland dat trilt en de tegenstander laat beven, geen stadion kan daar aan tippen!
wie ben jij dan joh? 13jarig anoniempje met een pf van de clowns reünie..
zeer zeker, dan hoor ik niet zon monotone tik in mn hoofd. meer alcohol geeft ook een gekkere sfeer dan zon tromjosti..
precies dit dus, koppijn materiaal..
betaald en vervolgens eruit getyft, zonder bevestiging of iets. lekker bezig weer...
dat worden mooie potjes dan, duizenden feyenoorders zonder kaart in manchester en paar honderd engelsen in roffa 😂😂
probeert feyenoord van de buis te stoten ofzo met hun late informatievoorziening.. pf..
was het nou zo moeilijk om dat ff wat eerder te doen?
hey gaan jullie zelf ook nog wat naar buiten brengen over het wel of niet stopzetten van de kaartverkoop?
heeey zouden jullie niet is wat meer informatie verstrekken over hoe en wat met dat ballensysteem?
dat ze effe gauw in elkaar mogen tyfen in het maasgebouw..
lekker geregeld weer feyenoord! stelletje amateurs... de tyfus!
bestuur is het seizoen lekker begonnen. woede eigen supporters op hun dak, woede man utd op hun dak en nu abou erbij. toppers.
al iemand die zeker weet waar luhansk speelt? eigen site zegt iets over kiev, uefa site odessa.
morgen lekker dagje scheveningen, even al het gezeik laten voor wat het is. 🌞🌞
13 boetes gehad van de u€fa afgelopen jaren en het totale bedrag van die boetes komt nog niet eens in de buurt van de €500.000 per pot nu..
dat ze effe gauw de tyfus mogen genieten in het maasgebouw.. hopen op een buscombi, man man man..
2 jaar geleden eindelijk europees weer is reputatie opgebouwd vanwege de sfeer in de kuip, bestuur breekt alles in een tel af.
bij de uefamaffia lachen ze ondertussen de ballen uit hun broek..
hebben ze nelom niet verteld dat alle kaarten van mensen die niet uit almelo geblokkeerd zijn?
wat een mooi weekend zou moeten worden, wordt nu dus gewoon een tyfus weekend. fuck it.
zoek de verschillen. heracles en almelo de tyfus!!!
heracles almelo, meest trieste club in de eredivisie. beter die hele twentse hoek afstoten aan de oosterburen..
op naar belgië, dagje
het is niks, nooit wat gewest en het zal ook nooit wat worden. grafbetonbak
020 we komen!
dus.. weer lekker in zee met een bedrijf dat liever hunnie sponsort..
excuus geaccepteerd hoor lieverd 😘
ook niet lief..
waarschijnlijk deze
amsterdam de tyfus met jullie!
doelstelling voor vandaag ● om 16.00 dronken zijn ● proberen nog wat mee te krijgen van rksv driel feyenoord
waar een kleine club groter is dan een grote club. geen gezeik over fakkels bij 1e training.
jarenlang toveren met de cijfers en er vanaf komen met een boete van €180.000, wat een lachertje die
nieuwste vandaag aan de collectie kunnen toevoegen, puur vakwerk. 👌
het enige postieve wat uit enschede is gekomen. aufwiedersehen! 👋👋👋
wel leuk dat vak 410 eindelijk een van hun liedjes eer aan doet. vak 410 in vuur en vlam ze gaan namelijk in rook op.. adios👋👋
voor altijd de eerste, nog altijd de laatste! 🏆
klein uitstapje gemaakt naar vasas budapest, lekkere lampen!
omdat het kan. punt.
aardig dorpje hoor dat boedapest
ingenomen en opnieuw verleent, anders degradatie naar jupiler league onmogelijk.
hey wanneer krijgen en hun licentie terug van jullie?
rabi is naar pieter buren geweest en denkt nu dat die een zeehond is denk ik. of het is een inburgeringscursus fries.
lekker op tijd naar bed, morgen mooi dagje tilburg voor de boeg!
respect voor supporters met hun steunbetuiging aan jelle ten rouwelaar!
.@knvb ik denk dat de wint. wat denk jij?
vejinovic enkeltje arnhem geven en verder gewoon kut gevoetbald...
wauw.
zou men in het dwaasgebouw wel beseffen hoe fans van andere clubs naar european nights in de kuip kijken?
feyenoord, feyenoord... wat ben je toch een trieste club aan het worden met dit bestuur..
gecondoleerd en sterkte maat ❤
hoop voor de mensen bij de dat de speeches van infantino niet net zo lang duren als het gelul voor een europa/champions league loting😂
rotterdamse politie nog serieus nemen met zon sticker in de wagen?no fucking way!
hopelijk zijn er ook nog verhuisdozen over voor aboutaleb. uit het niets ingrijpen door me uit zijn advies terwijl ie de mars toeliet.
gudde optyfen!!
feijenoorders klanten noemen ipv supporters.. die gudde moet het wel van zn uitspraken en timing hebben.
mag verdomme toch lijen dat we die bekert winnen voor weer tripjes zoals dit.
op dagen als vandaag ga je je echt afvragen waar je eigenlijk allemaal voor doet.. feijenoorder ben je niet voor je plezier..
hebben onze vrinden uit 020 weer goed geregeld mocht het werkelijkheid zijn. de tyfus met dat hele 020 van ze!
nee hoor, pas als is. en ook de rest overigens.
vi er zou namelijk gewoonweg geen visie te bespeuren zijn in de kuip. wanneer nemen die dwazen hun verantwoordelijkheid eens?
wie zijn ze dan? fuck 020!
gudde nou moet je heel gauw optyfen!!!
wel grappig die jochies uit 020 denken eindelijk keer een gekkere training te hebben gehad dan feyenoord, niet wetende dat die werd geboycot
carnaval de tyfus! gaat al jaren als clown door het leven..
hoe doet er niet toe, maar we zijn door! leve feijenoord!
the badge on the front is bigger than the name on the back!vandaag geen egoïstisch gezeik, met zn allen erop klappen voor feyenoord!
wanneer tyft die gudde nou eens op bij onze mooie club?!
een foto zegt meer dan 1000 woorden.
feyenoord de tyfus! tijd voor schoon schip.
fuck deze tyfuszooi. klaar mee.. tijd voor een aantal exits..
wanbeleid de tyfus!
ga jij even tellen hoe vaak jullie een vol uitvak hebben gehad laatste 15 jaar dan? shit support, shit city.
goed verhaal joh. nemen jullie volgende keer een uitvak mee dat ook geluid maakt bij 00 stand? fuck you eindhoven
eindhoven de tyfus!
eindelijk die vervelende winterstop voorbij! matchday! beat the lampies!
het eindigt toch altijd met drinkie drinkie?😂
tip ga nooit met je maten rustig avondje darten, loopt altijd uit de hand ook al is het woensdagavond..
el ahmadi mag overigens wel genomineerd worden voor ezel van het weekend. zon domme kaart pakken..
mocht ik overigens niet oud worden, dan acht ik feyenoord hier verantwoordelijk voor..
lekker suggereren, zonder enkele onderbouwing..
de tyfus
matchday!!!
wie zijn ze dan?
mensen zijn hypocriet..
hahaha tyf een eind op joh. pleuris vlag. gisteren aanslag in libanon hoor je niemand over. ver van me bed show...
mag overigens ook hopen dat botteghin voortaan de voorkeur krijgt boven baco arie..#feyenoord
lijkt me vrij duidelijk dat deze over de lijn is of niet stelletje tyfusneuzen..
fuck vrouwen, fuck hunnie, fuck alles. beat the scum!!
daan komt hedendaags vaker in dat dorp dan in rotterdam.. waar gaat het heen met de wereld?
niet goed genoeg vandaag, herpakken en op naar volgende week. beat the scum!!
haha soms met drank op heb je van die momenten. buiten dat gaat het uitstekend met me 😀
ja zegtie!?
leef jij ook nog joh?😂😂
wordt tijd dat eens een statement maakt tegen het zwartmaken van haar achterban door de media..
hahaha. dikke vingert naar de
een ding is zeker, over 14 dagen heb ik een gigantische kater. hopelijk van de drank..
van oostveen na mislopen ek in frankrijk hebben ze toch geen kroketten.
dit is passie voor je land, niet in een wortelpak lopen.
beat the fucking scummmm!!!
hij zou nog gelijk hebben ook 😂😂
come on you boys!! 3 punten ophalen in eindhoven vandaag!
manu bedankt voor een heerlijk seizoen europees voetbal! succes bij league
haha erik gedraag je eens, terechte pingel en geen kans gehad. lekker terug naar londen nu, of niet?
prima avondje gehad bij
hoorde jankende fans na de 10 43, die getroost werden door paar kussen van maten. feyenoord taferelen
hoop dat hugo borst gelijk krijgt!! zal wel weer tegenvallen 😂
blom lekker je jodenster opknopen en optyfen
haha niet zo stroef lullen joh, feyenoord heb er niks mee te maken. allemaal media gelul
heb inderdaad wel is slechtere openingswedstrijden meegemaakt.
aardig begin in de 2. bundesliga, 30 na 13 minuten spelen. waarvan twee pingels
kameraden van harte! onze mooie club 107 jaar!
echte mannen hebben een vrouw die eten voor ze kookt, ipv zelf moeten koken na werktijd👌
t is in ieder geval niet mijn dag vandaag, nu al niet..
leuk avondje eagles gehad in emmen met me pa.
lekker crossen.niet betalen!😂
heel zuur voor supporters dat ze niet welkom zijn bij de wedstrijd in boedapest..
haha je mag aankomend jaar weer twee keer juichen van me, als jullie tegen hunnie020 spelen
helaas weer in nederland. goed weekje griekenland gehad👌🍻🌞
avondje met voorlopig voorbij en ik leef nog steeds, hoppaaa!
kunnen nac en roda niet gewoon allebei degraderen?
ik ga me best doen, kan alleen niet garanderen dat ie ook mee terugkomt
over een weekje lekker een week naar athene. kaarten voor atromitos fc panathinaikos ook in de pocket, wordt een mooie week🌞🍻
pas op hoor, zijn gekke boys😂😂😂
ja het word weer een jaar afzien met heracles almelo, cambuur en excelsior in de kuip ipv sevilla en roma..
mijn herinneringen aan
helaas viel de uitslag tegen, maar eagles is en blijft een mooie club! succes in de jupiler league
gudde en van geel optyfeeee
vorige week gezworen niet naar die playoffs te gaan, maar het gevoel voor feyenoord is toch te sterk, ofwel
dijks optyfeeee!!!! klaar met die derderangs neuzen..
lekkere tijd ook, goed over nagedacht!
nou ik had er liever juichend en lachend op gestaan dan zo..
feyenoord onwaardig. optyfen met die mooie praatjes van te voren en een keer op het veld laten zien
laat dat godverdomme is op het veld zien ipv elke keer van te voren in de media roepen! geen woorden maar daden!!
zeker waar, maarja wij halen die bekerfinale nooit...
de kuip ziet er nog enigszins fatsoenlijk uit haha
redelijk potje voetbal en twee oude stadions gezien gisteren.
vandaag maar weer een hopje doen, kv mechelen sv zulte waregem. laatste keer achter de kazerne voor verbouwing
sommige dingen besef je pas als het te laat is en je kans verkeken is..
speelde we eigenlijk om half 1 of om half 3 vandaag?
feijenoorder ben je niet voor je plezier. al jaren zijn we niet meer de beste, maar we blijven altijd de mooiste!
aardig begin bij porto bayern, 20 binnen 10 minuten..
moet je niet eens willen halen, arrogant pisventje
matchday! straks richting tilburg om te kijken of we vrijwel zeker plek 3 gaan pakken
is er eigenlijk een deadline vastgesteld wanneer het onderzoek na aanleiding van roma afgerond moet zijn?
hebbie dan even het iq van een baksteen onie?😂😂
lekkere overwinning vandaag in alkmaar op az! op naar volgende week, willem ii away!
kostas is een feijenoorder!
anass moet blijven!
een onbelangrijke dag wordt vandaag een belangrijke dag. zijn we racisten volgens de uefa of niet.
altijd gezellig!!
moet je nagaan hoe snel je ermee stopte😂😂
hopelijk houd je dit langer vol dan je vorige 7 baantjes😂😂
opstelten en teeven hebben hun conclusie getrokken, tijd dat ook gudde dit eens gaat doen!
ja dat was nodig. punt.
zo dan, weer een gezellige avond gehad!🍻 nu snel slapen, wekker over 4,5 uur..
aad de mos zou jaloers zijn op deze rekenmethode!
zon fabriek komt denk ik anders best hard aan😂😂
bam! binnen 2 minuten van 00 naar 20.
feyenoord bedankt voor een mooi europees seizoen. helaas had de uefa in de persoon van een franse clown besloten dat rome de laatste was..
uefa.. als we niet door mogen bel dan even, dan blijft ik gewoon in de kroeg zitten!
uefa tyfus mafia!! die franse homo gelijk rotterdam uitpleuren..
het is koud, het is guur, gooi wat romeinen op het vuur!
op de livestream goed te zien hoe de politie supporters provoceert.. pleuris kit!!
zeker weten!
kijk ze genieten, zwaar jaloers. have fun boys. .@lunaticnews .@frfc1908 genieten hier haha!
iets te veel drankjes op pik? haha
niet te zuinig😂
man man man.. het uitvak met een deel van de 750 supporters van psv in carnavalsstemming
ik zal je vast mijn bankrekening sturen voor het eerste salaris, gaan natuurlijk niet gratis voetballen!
nieuwe scout, achteruitgang is bijna onmogelijk dus..
tja, wil wel eens zien als een hele speelronde alle stadions leeg zijn hoe leuk dat is op tv..
in een week twee keer om 12.30 spelen en daarnaast nog een keer om 18.30 in heerenveen.. its all about the money. fox, fuck you!
je weet waar de unfollow knop zit toch?
cillissen moet gewoon niet zo huilen joh, optyfen met die stumper
cillissen tyfus nsber val dood!!!!!
teken ik voor!
pec zwolle az zou wel leuk zijn!
weer een weekendje voor in de boeken!
echte stadions hebben lichtmasten!
gloryhunter.
ik geef je twee dagen 😂😂
gary anderson, wat een baas! terechte toernooiwinnaar
eindhoven de tyfus!!!
matchdayy! lange dag nu werken tot 17 en dan door naar eindhoven.
eindelijk weer pils! onderweg naar roffa!!
wel leuk dat de profclubs akkoord zijn met de nieuwe voetbalpiramide, maar zouden de amateurclubs niet akkoord moeten gaan?
ook dat nog ja
ja dat zou echt zwaar gefucked zijn. nu had je voordeel dat psv uitspeelde en dan moet je gewoon 3x vol gas..
gtst is er niks bij..
wat een dag gisteren, keel verrot maar het was het allemaal waard!! nu nagenieten!
drie punten, bier en gezellig met me maten!
haha, en die vlaggen die ze kwijt zijn dan? grote googeltruc? 😂
we blijven samen voor altijd, jij hoort bij mij! hahahahahaha
its fucking matchday! alleen winst telt vanavond!
hophop, dagje werken en vanavond naar deventer voor ga eagles fc twente
maar stiekem meer uitkijken naar maandag. kroatië we komen!
lekker lekker, wij maandagavond rijden en dusseldorf sankt pauli meepakken en ook de vrijdag naar huis!
lekker lekker, wanneer tot wanneer ga je?
vrijdagavond bieravond! oude gewoontes gaan nooit kapot