ik heb het stuk wel gelezen. ik heb er moeite mee hoe hij max daar neerzet.…
gaat doen alsof hij verstand heeft van formule 1? hou het lekker bij…
vreemde lucht in alkmaar 10.02 uur.
nieuwe eigenaar brandend zand
mevrouw barend heeft wel een ajax pet op natuurlijk
de familie heeft inmiddels bevestigd dat tom is overleden lees ik zojuist.
sterkte jeroen
en daar is de eerste melding voor brandweer westwieringen
paar rondjes gevlogen en weg was ie... geen idee wat er aan de hand was
die vloog hier inderdaad ongeveer 45 minuten geleden boven hippolytushoef....
geniaal he? wij hebben deze show gezien in de schouwburg... erg leuk
van harte gefeliciteerd!
in de leiderstrui eneco tour
3,7 km
op zon moment is het niet belangrijk voor welke club je bent. heftig dit!
wint m morgen
nou draai die schorsingen naar weer terug.....
gefeliciteerd!
politie zoekt getuigen woningbrand via
wat een atletisch lichaam heb je toch ook
daar gaat ie! come on
kunnen jullie mij vertellen tot hoelaat de werkzaamheden duren in hippolytushoef? als sinds vanmorgen geen internet
valverde
heerlijk ontwaken op deze mooie zondag! koffie en tv op
gefeliciteerd, wereldkampioen!
van avermaet
de sneeuwhoofdprijs is denkelijk voor t gebied haarlemschagen. plaatselijk ligt er c.a 5 cm. maar een verdubbeling lijkt me best denkbaar.
in alkmaar ook!
dat is wel een hele dunne theorie...
wij gaan straks ook ff kijken.
op wieringen inmiddels ook sneeuw
zojuist is het op wieringen ook begonnen met sneeuwen
iedereen een gelukkig 2017!
wat een liefde!
glazen huis hippolytushoef gaat goed van start
glazen huis hippolytushoef overtreft vorige jaren
wauw wat een weekend!
glazenhuis hippolytushoef 2016
we hebben het weer met heel veel plezier gedaan! succes jullie in breda!
voorlopige uitslag glazenhuis hippolytushoef 21629,00!!!!
glazen huis hippolytushoef gaat goed van start
kijk live mee in het glazenhuis hippolytushoef!
eerst dit weekend glazenhuis hippolytushoef!
van de week meegedaan met deze actie en wat denk je??? 4 kaarten gewonnen voor zondag!!!
win 4 tickets voor isu world cup!
alweer n jaar voorbij....
alweer n jaar voorbij....
net thuis van het werk. vandaag begonnen met de verhuizing van groenhart alkmaar van ivoorstraat 1 naar...
bij plukker in schagen.
vloggers gezocht voor noordkop tv – rtvnoordkop.nl – noordkop nieuws
minimaal 5 eurie er voor vragen, dat betalen ze dr wel voor... 😜
haha als je er 1 miljoen laten maken ben je ze in no time kwijt 😜
dat is een gat in de markt. laten drukken die stickers, paulus
dat is niets nieuws... ze presteren het ook regelmatig rond 6.30 uur.....
aftellen.....
politie zoekt getuigen dodelijk ongeluk n242
vacature ict medewerker – rtvnoordkop.nl – noordkop nieuws
we hebben gisteravond genoten van jullie! superconcert!
niet zo handig van jaap....
dumpert sierd de vos uitspraken compilatie
huis te koop koningin emmaweg 13 1774 be slootdorp funda
als je dan toch nog vakantie hebt...... — kijkt naar wk wielrennen qatar 2016
vast volk uit 072
wees blij dat er geen klapvee op de tribune zit
kom in actie en vraag een plaat aan
grote den oever/oosterland bij de zingende wielen
3fm serious request 2017 in apeldoorn
onderweg naar hippolytushoef
de laatste in dublin
onderweg naar dublin
succes daar. best fikkie
nou idd.. daar was weinig aan.
jou koren staat weer te bloeien top 10, stage 3
afsluitdijk open afgelast ivm verwachte weersomstandigheden. sneu voor alle betrokkenen/deelnemers....
lees net dat de koninginnenrit wint in la vuelta. potverdikkie dat heb ik gemist.... topper die gesink!
en wakker! go
nee heb geen verbinding met netwerk. hoor al van meer mensen dat ze geen verbinding hebben op deze postcode
mijn netwerk verbinding is weg... is er een storing?
gaat vanavond historie schrijven?
≥ verticale platenzaag holzer 1265, alko motafzuiginstallatie machines en bouw | houtbewerking marktplaats.nl
haal je een keer de os, doe je dit.
amateurvideo toont hoe annemiek van vleuten 2 minuten moet wachten op medische hulp
van avermaet grijpt wegtitel in rio
mooiste moment van eerste helft ajax? sierd de vos die een ziekenwagen nadoet..
tien nieuwe koersen in de worldtour 2017
≥ cd dvd kasten zwart benno 2 stuks kasten | overige marktplaats.nl
wieringer kermis is aan!
aangeboden 2 kaartjes voor zwarte cross 2016 zaterdag € 32 p/s
van de ene ellende in de andere...
wakker worden en het verschrikkelijke nieuws lezen vanuit frankrijk. stopt dit nou nooit?
dumoulin wint koninginnerit in ronde van frankrijk
wat een cool tshirt
appartement te koop eksterstraat 23 1021 eb amsterdam funda
kijkt naar germany vs france
kijkt naar portugal vs wales
hét wielerspektakel van het jaar is gelukkig weer begonnen! — kijkt naar le tour de france
de ll2 is ook opgeroepen dus dan zal de dijk wel afgesloten worden
| prio 1 beknelling zwaar monument afsluitdijk a7 r afsluitdijk den oever ongeval w |
tot nu toe het natst in het noordwesten
bruce springsteen is super! wat een energie!
kijkt naar belgium vs italy
sta je in den helder te wachten op de neemt ie een andere route!
sta je in den helder te wachten op de neemt ie een andere route! mus
ff een rondje dijk gedaan
bokslegende muhammad ali 74 overleden
kijkt naar real madrid tegen atlético madrid
potverdikkie
politieheli boven hippo? weet iemand waarom?
kruijswijk pakt roze in koninginnenrit giro
en toen liet steven kruijswijk nibali gewoon ff staan!
je staat in den oever zo te zien?
iets te voorbarig geweest?
ze smaken best hier in apeldoorn, edwin bellis !
schip gezonken op amstelmeer drie opvarenden gered
weer een icoon....
axl rose tijdelijk zanger ac/dc
boasson hagen, boonen en stannard in achtervolging op sep vanmarcke op carrefour de larbre. wat een ambiance!
en we zijn onderweg naar de hel van het noorden!
wint de hel
morgen maar weer eens kijken hoe deze kasseien er bij liggen!
land in zicht!
100 jaar ronde van vlaanderen
t streelt je als prof om dit zo op twitter te zetten! uitslagen zijn niet belangrijk nu.
dit is niet best....
en dat is 2
en dat is 1
ongeluk slootweg/wierweg. slootweg afgesloten
iedereen bedankt voor de felicitaties! — erkentelijk
en nog jarig zijn ook! wat een topdag!
de prinses op de erwt......
eindelijk begint vandaag het voorjaar weer!
ze hebben m....
wat een verrassing... ook bstaal schaatser koelizjnikov positief
vanuit den oever neem ik aan ipv den helder?
u2 wordt ff verkracht door de 3js....
het was een topshow. heerlijke avond gehad! bedankt!
tot vanavond. erg veel zin in!
den oever 21 uur. water staat inmiddels op de kade
duitsland nederland afgelast. stadion in hannover wordt op dit moment ontruimd....
vanavond een fantastisch optreden gezien van danny vera in de kampanje in den helder. top avond!
pfffd niet best dit!
dit artikel bevestigd dat er iets mis is met de pillenindustrie. hoeveel mensen zijn er wel niet die ontbijten...
blind selecteert pak vla voor oranje | de speld
kom in actie
veldhuis en kemper met leven na de dood
iedereen bedankt voor het medeleven. doet me goed!
gistermiddag thuisgekomen van een heerlijk weekend zeilen. gisteravond naar de huisartsen post omdat mn...
wat een fantastische uitvoering!
bert rugge, wat voor jou?
idd. zag vanmorgen nog een foto waar het duidelijk op te zien was, maar hij krijgt geen tijdstraf
fotos bewijs aru geduwd in slotfase 19e etappe vuelta
wat n lachertje dit...
de lucht hier is gewoon groen!!!!
toch maar eens op zoek naar een andere aanbieder denk ik. slechte zaak dat er geen compensatie komt.....
kleine correctie het is wieringerwerf....
gister n dagje naar maastricht geweest
doei het was weer een topvakantie
wat een spektakel op alpe dhuez!
fotosoep bruno martins indi kijkt op van zijn nieuwe ploeggenoot casillas
en we staan in montfoort
wachten op de tour de france
onderweg naar de tour!
foo fighters daveinitief niet op pinkpop 2015
marketing medewerker m/v
zo maar eens een rondje op de fiets!
glazen huis 3fm serious request 2016 staat in breda
veel plezier theo. hopen op een goede afloop...
de testopstelling staat bij breezanddijk, en niet bij breezand...
weekend!
dit verveeld nooit! prettige wacht!
dagje wielrennen kijken is begonnen!
zojuist mijn laatste wedstrijd voor heren 1 van break out 88 gespeeld. volgend seizoen bij de recreanten
er is een italiaanse vissersboot gekaapt bij libië. wordt er door de telegraaf een foto bij geplaatst van een...
bus gemist?
ik heb een nieuwe foto op facebook geplaatst
heerlijke dag gehad op carrefour dabre in parijs roubaix
nee. wielrennen kijken
onderweg naar de hel van het noorden
goedemorgen! heerlijk om met deze foto wakker te worden. werkze!
vloertje leggen bij broer
zondag maar eens een kijkje nemen in noord frankrijk
die was ik ff vergeten inderdaad.
kruipend naar huis gisteravond?
goedemorgen! vandaag is het dan zo ver de hoogmis, vlaanderens mooiste oftewel de ronde van vlaanderen! maar...
!
de laatste op vlieland voordat we weer naar huis gaan.
is benno baksteen al op tv geweest??
iedereen bedankt voor de felicitaties!
zojuist aangemeld voor nk kubb!
haha hartelijk dank!
concordia weer open?
net nog ff naar dijk geweest. kijken of we het noorderlicht nog konden zien. helaas alleen maar 1 vallende ster gezien.... nu naar bed!
heerlijke middag gehad!!
velden aan het uitzetten voor kubb
vandaag een dagje vrij, straks ff richting schiphol om mirjam glim en fbloze patrick en bo op te halen....
het voorjaar is weer begonnen! omloop het nieuwsblad op tv
deze scheidsrechter is toch een schande voor het voetbal
ze zijn er bijna olaf binnenhei !
goedemorgen! wauw! hier wordt een mens vrolijk van
n vroegertje voor de zondag. zometeen ff richting schiphol.
wat heerlijk om te zien hoe de van 1985 op tv werd uitgezonden...
ik ben er pas in de zomervakantie weer.... dus dan ook nog op de tap?
zo, we kunnen weer naar buiten kijken hier
onderweg naar met
dat valt inderdaad mee. ligt tegen de belgische grens
van harte gefeliciteerd!
op wieringen inmiddels ook sneeuw
hippolytushoef is op dit moment erg glad door ijzel en sneeuw
waar kubb blokken al niet goed voor zijn...
ok, dank je wel. wacht het af
wordt er door de gemeente nog iets georganiseerd nav de gebeurtenissen in parijs?
jullie ook! wij komen in 2015 zeker terug bij jullie!
cultuurbarbaar!
veel plezier mannen! ik kijk op tv
jij ook! heb je al sushi gegeten??
brievenbus nr.3 wordt nu geplaatst in het glazen huis!
volgens mij is dit geen antwoord op mijn vraag?
heeft de strooiploeg zich verslapen vanmorgen? het was spekglad in de gemeente!
mijn telefoon kan geen netwerk vinden, is er een
as dinsdag wordt tussen 1416u bekend welke 3 djs in het glazen huis zullen worden opgesloten voor#3fmserious request#sr14
veel plezier. ze hebben lekkere biertjes daar
is een schuit van de vries &amp van de wiel
zo weer thuis na een heerlijke avond in met 10 jaar! in een woord fantastisch!
giel! ingecheckt bij carré theatre
vrijdagmiddag besteding....
weekend!
hulpverleningsdag hoorn
gefeliciteerd, al mag henk wel even wat vrolijker kijken p
sem mag best wat vrolijker kijken.....
ontbijt op schiphol....
pa en ma ff afleveren ingecheckt bij amsterdam airport schiphol
sterkte robert en familie!
onderweg naar dday
ter info het is piet ottstraat
de foute plaat van vandaag...
weer in ons eigen bed slapen na 10 nachten op n matje in de tent
op naar terschelling!
nieuwe hobby... toch maar lid worden van hsv wieringen..
lotto nieuwe hoofdsponsor belkin via
mooi zo! klonk super in de ether!
jazeker. doet de hele dag live verslag
succes vandaag!
goh waar heb ik die recentelijk nog gehoord?
nog 1 keertje dan maar....
en met lange mouwen in ruim 30 graden???
alvast in de stemming komen....
en dan staat ineens ard schenk bij je aan de balie.... — at groenhart alkmaar
nog 1,5 week!!!
dag 6 van deze week
en dat was geen penalty...
bijna weekend...
voel je je gelijk weer jeugdig, leo?
slechte zaak! wanneer dan wel?
van harte met deze topprestatie!
vakantie is zwemmen
buiten douchen op vakantie
waarom hangt de vlag niet uit voor de verjaardag van de koningin in de hippolytuskerk in hippo???
genieten dus!
mogguh joery, mooie foto zo op de vroege ochtend!
verbouwde kantine vv succes moet alweer sluiten
opbouwen voor live uitzending dodenherdenking in de hypolytuskerk. vanavond live op noordkop radio!
je had daar vorige week moeten zijn!
bedankt voor het lenen van de trap!
jos &amp ria 40 jaar getrouwd!
van hetzelfde gewenst, theo!
ll1 staat nu in alkmaar op het parkeerterrein bij az
wederom een palmke halen. — at cafe t zwaantje
palmpje halen — at cafe t zwaantje
yeah!
aan deschoonmaak met op de achtergrond wierrennen
dat is meer uit nieuwsgierigheid p
dodelijk bedrijfsongeval aan havenweg in den oever
topdag gehad in thialf bij het wk allround!
we zijn binnen! yeah!
het wordt meer de keel smeren denk ij p
onderweg naar
top mannen!
ze lopen achter bij de
lijsttrekkersdebat hollands kroon live vanuit de ontmoeting in anna paulowna.
laatste daggie voor het weekend — at groenhart alkmaar
het is heerlijk weer om binnen een kubb toernooi te spelen
bedankt. zal deze gelijk gaan volgen...
nos.nl
burgemeester nawijn slaapt amper op woonark via
dat zou heel mooi zijn!! spannend!!
boem!
vanaf 21 uur twee uur lang de beste live platen in gewoon live! luister mee via !
sneeuw!
sneeuw!
de worst is warm! — at groenhart alkmaar
de foute plaat van vandaag... zometeen op noordkop radio!
terugluisteren glazen huis hippolytushoef 2013
gezelligheid!
nieuwe trainer vv succes
top 30 van 1974 bij noordkop
missie glazen huis hippo geslaagd hippolytushoef dichtbij via