schrijver die zich vereenzelvigt met onderwerp. beste michel, als een bakker brood bakt verdient hij ook niks
sierd meestal druk met irrelevante aangelegenheden
laat zich blijkbaar inspireren door
tjekken tjuitje pinantie...meer genieten van dan van
als kiezers behoefte hebben aan eerlijke politici dan is, in dit geval, de man
dat wordt billenkoek van vrees ik voor je,
corners voor cursus...#feypec
doorbraak nieuwe kabinet staat experiment toe met wietteelt door de overheid via colombia...
naastenliefde christenen van unie en appèl strekt zich niet uit tot kinderen van overwegend andere gezindten...#kinderpardon
rommelige aanloop naar wk brengt sanne wevers niet uit balans sterke kop hoor zuigt puntje
spijker op de kop inzake legervest niet alleen in beeld bij maar ook in
merkwaardig dat op als nieuwslezer zijn mening laat doorschemeren inzake
heeft gio het vandaag qua opstelling goed gedaan of de laatste weken fout?
volgens mij was jos geen rondetijden aan het checken
slechts één langdurig geblesseerde...
maar zou wel foutloze zin verwachten ..
fluitconcert klinkt me als muziek in de oren...
zou het als supporter waarderen als ideale schoonzoon zich ook eens zou gedragen richting arbitrage
goede doelen met semicriminele praktijken
moraal van start nooit meer met kramer...#feyenoord
ontmoette tijdens hardlopen ouder echtpaar van wie man van ogentest moest doen in ziekenhuis paar jaar weg...
staan op twitter ... zie ik nu...alleen zonder rugnummers
nu bij wel fijn zijn opstellingen te weten
en zo is het blijkbaar de dag van de ...ik hoor het nog vragen willen we meer of minder koet..?…
godzijdank in geen trommel...#herfey zo
waarom neemt berghuis die vrije trap niet...
zouden er, naast de trommelaar zelve, meer mensen zijn die het getrommel bij op prijs stellen?
het is winnaar 100e en niet 100e winnaar beker
waardeer op zichzelf uw enthousiasme echter nogal in schrille t…
wel klantvriendelijk reserveren via tippelzone@utrecht.nl en daarna keurig uitnodiging ontvangen
om dit te vieren zal de sjeik morgen aantal personen feestelijk laten ophangen
bovenste lijkt me niet 101 waardig
dat je als enige publiek ziet bedanken
volgens mij heeft gert jan verbeek gisteren met jan smit gedineerd
hoe triest ook voor haar en nabestaanden maar waarom is dit belangrijk nieuws bij ?
mooi initiatief, doch kleine correctie de savornin...wel zo netjes richting de freule...
wellicht idd fans maar toch vooral
kan uit ?#ziggosport
geen zomer van maar zomer van ...godallemachtig wat een intro
met alleen maar mannen en, veel erger, zonder
huldiging niet in aldus presentator waarom niet wel in
thijs van den brink redeneert niet alleen vanuit de heer maar ook vanuit zichzelf
en een daverende schwalbe van een engelse dame...
breek de tik een
sinds concert intrigeert mij deze deur met slot in toilet en achterliggend nie…
spreekt vloeiend amerikaans nederlands, mevrouw frans minder...gilles müller wel heel nederlands uitgesproken
prima voorstelling betrokken en enthousiaste theatermakers met leerlingen 1 en 2 mavo dank!
straks extra vrijlating bolt en follender...of baby en raffie ? niet meer
en mien ruys als enige vrouw tussen de mannen vervolgt relevant maar niet in dezen...
gaat naar drie mannen en een vrouw aldus jounaal...mij ontgaat de relevantie geslachtsonderscheid
gaat me niet om medewerkers, van prima kwaliteit op tractieweg, maar om het blijkbare besluit van hogerhand
verbaasd bij afvalstation te horen dat plastic bij huisvuil moet ivm onenigheid met afnemer. graag reactie
als se supporter genoten van legendarische wedstrijd. felicitaties, vooral aan ten hag
in afwachting van het plasfilmpje...
heeft denk ik meer met suv dan met stolwijk te maken...
als het nou leuk was...
lachen hoor met je persiflage van dumoulin...wat meer respect voor diens prestaties die de jouwe ver overtreffen zou mogen
ter gelegenheid van het bezoek van aan zijn 30 politiek gevangenen feestelijk opgehangen.
kunnen jullie direct zorgen dat die bloedirritante reclame van de radio haalt..?
eerste 60 dagen hebben zich gericht op bondscoach en kampioenschap dan eens...
niet roken voor een rijbewijs mn achttiende leek nog zo ver weg
ik ga schermpie kijken...net als 24 jaar geleden...
😃op het randje...
en en wij hiervan vandaag nog bevrijd worden...#bevrijdingsdag
dewinterdraaitdoor kan dit stoppen?
?
vóór keiharde bestrijding terrorisme volgens journaal...iemand tegen dan?
best bereid mee te gaan in enthousiasme ik hem tenminste kon verstaan...#dwdd
zie hier de reden dat reserves niet aan kunnen haken bij basis...domme beslissing…
wereldrecord sedney...lees ik zomaar in de krant....was me destijds even ontgaan...
juist wegens respect en waardering voor uw werk vind ik de schijtlolligheid van de laatste opmerking niet bij uw professie passen
blijft bij nos...de oude grieken noemden dit reeds een de hashtag, dat dan weer wel...
rustig maar hebben de verkiezingen al verloren
vandaar die emoji welligt...?
volkomen gelijk annemiek...burgemeester heeft vast geen nederlands gestudeert 😉
laat zich troosten met het feit dat nog slechter is...#bulned
mooie van in voor van marwijk in saudi arabië...zonder hoofd...
meer vreugde bij pvda dan bij directie nos
feyenoord zeurt niet, ajax klaagt niet, onana schuldbewust...gedrag in gaat flink vooruit bij meeslepende zondag
mis bij uitkomst peiling roc amsterdam zoals gehoord bij leerlingen stemmen op eigen kleurtje...baart zorgen
geheel wederzijds henk!
respect voor afstraffing vorige week nu winst...
ayoub slaat spijker op kop nederlandse voetballer...behalve talent ook harder werken naast groepstraining en wedstrijd...#groutr
jij en collegas bedankt voor het belangrijke werk wat jullie doen!
iets meer empathie zou mogen
al zappend aangeland bij analyses silooy en blinker 😂😂
lekker goaltje voor een controleur😂
tis weer een echte slecht....
beste marokkaanse voetballer buiten hoezo buiten ziyech is sowieso niet de beste...#feyenoord
docu over luigi bruins...benieuwd wanneer voormalige linksback van a2 aan de beurt is...
tis afgeschrikt...
zou het op prijs stellen wanneer uw artikelen het niveau van schoolkrant ontstegen
zou toejuichen wanneer fidan ekiz zichzelf even uit zou zetten...
ben die van mij kwijt...
wil dat dader door knieschijven wordt geschoten.. blijkbaar ook politieke aspiraties...net als
denk kijk keertje veelgeprezen zie stegeman met ranzig iets, kelder en lijk op straat...triest...#jinek
rivm color runs slecht voor je gezondheid mooi zo...stoppen met die onzin
formidabele u, althans morgen, naar slijterij
akkoord met aad de mos als cocommentator...maar kan ie dan wel gewoon zijn mond houden..?
is wel dat jongeren als beoogde doelgroep theaterbezoek geen televisie kijken
maar hebben ze ook op maaskant gewacht..?
het zal niet meer warn worden voor ik in de kempen ben...aldus een snikkende sportheldendichter des vaderlands!
daar gaan we weer...tussen hoop en vrees...tevens in gezelschap van angst en beven...#hetisgeenlolletje
graag gedaan...overigens beschikbaar als redacteur, zelfs op zondagochtend vanuit bed...
dacht nou nou...stoer van en maar blijkt niet helemaal te kloppen bij
leuk...de ene halve finale in de andere in
heerlijke wedstrijd geweldige sfeer in contrast met gisteren. ..waar was publiek
de financiële tegenvaller die je wist dat zou komen...
geweldige onbedoelde opmerking grot is groot...#necnijmegen
was er één met vijf poten...#adelebloemendaal
balen van onterechte uitslag soms maken supporters meer goed dan je lief is. forza utreg!…
straks naar hoop dat fans als protest tegen bepaalde spreekkoren achterwege laten. forza utreg!
2016 jaar van overlijden van popsterren en bekende kok...2017 lijkt jaar voor dat van ondernemers, striptekenaars en moeder bekende kok
niet strooien op gladde wegen...is dit wellicht ook gevalletje
kortom... moet gewoon eerder leren sluiten...sluizen als kanalen leeglopen en rijstroken als het ijzelt..#sluitfunctionaris
iemand enig idee hoe de van heet?
valt het onder bedreiging wanneer je tweet iets later te remmen wanneer de makers van de radioreclame oversteken..?
krijgen en betaald voor hun zware werk😂?
met de kinderen prima avondje beleefd bij in alle opzichten...aanrader!!!
opnamen stop zo oud dat ik wacht op moment dat postkoets wordt aangehouden..zojuist werd boete geformuleerd in guldens...@rtlnl
soms spijt van niet afronden rechtenstudie...heerlijk om als rechter zon uitspraak te mogen doen...#beschuit
stel om te beginnen voor dat zijn chauffeurs iets heel eenvoudigs en basaals als fatsoen bijbrengt...…
onbegrijpelijk....@jenstoornstra op de bank wil iedereen te vriend houden....zie
nondeju...wat is de rookbock van weer lekker dit jaar...spoedt u naar mitra rokade
waarom rechts die tabel in beeld?
tja...@josdeblok..of mag ik joost zeggen....en ja...zou mooi zijn als buurt als thuis zou voelen..wordt vervolgd...
ontmoeting met man op fiets in nog geen weer voor meneer, zeg ik..hij had hem geschaatst...in 1941...
sterke bevlogen wedstrijd goal
dat zouden meer beroepsgroepen moeten doen....
typisch gevalletje ambtenaar grappiger dan wethouder slim....#rotterdam
vormt in de regel geen beletsel voor de media er over te beginnen, zoals jij zult weten 😃 en in gaat de baan morgen open
maak me zorgen...nog niets vernomen over eerste op
krijg tieten...daar is weer...
met de minuut slechter...
open haard ipv verwarming...heb niet het idee dat dat het milieu ten goede komt...#energiebesparing
zolang het een zwakke lijst is kan het altijd nog meevallen....@telegraaf
laten we eerst pec maar eens proberen te verslaan na wanprestatie deventer...
gerichte reclame...@adnl
totaal idioot onderwerp in over jachthonden....
om met te spreken die memphis mag een hele grote hoed opzetten en hele brede das omdoen
gaat vergaderen over verkiezing welke knopen ze nu weer doorhakken...
bij kon het alleen maar tegenvallen, bij alleen maar mee...
op journaal...maar ach...waarom ook niet...😃
procedure zorgt voor chagrijn bij aldus ze bij ergens goed in zijn....😃
maar wel complimenten van de coach na wanprestatie
doe normaal beginnen met voorin...#stabiliteit zeker zonder en
en nu weer speelt wederom de vraag waarom diens naam wordt uitgesproken als veinovic of veenovic
voorziet de referendumwet ook in een tegen een
lerares geschokt door verhoging leeftijd waar gaat het heen?
ja hoor...we hebben er weer eentje...zich irriteren aan...@wegmisbruikers6
nuis moeilijke zomer gehad...vader geworden...#schaatsen is weer begonnen
is hoe het vanavond was op het
steun voor nationalisatie prorail via ik pleit voor referendum...
en al was verzet wallonië nu nog principieel ipv politiek opportunistisch...#ceta
graag pelotonnetje me richting die kereltjes die op cs foute liedjes zingen, verzoekt deze fan onderweg naar
had niet de indruk dat mieke daar zelf op zat te wachten...
wij willen graag rt!
met de constatering dat die tui en die jumbomeneer niet dezelfden bijken te zijn...
dacht slim te zijn en bij een reis van te boeken...
heeft in elk geval communicatiemethoden van russische collegas overgenomen...zeer tevreden...#sciaparelli
ze spelen compact en kunnen in de omschakeling heel gevaarlijk zijn. aldus gio graag verbod op deze uitspraak, voor iedereen
soms heb ik het weer even nodig...dank voor je inspiratie na heerlijke ontspannen, tijdloze herfstloop vandaag
goede analyse bruggink...@necnijmegen ontbeerde de rust...zal wel iets met die trainer te maken hebben...#necfey
paar weken geleden
bakker snapt interviewster/consument niet...is net kiezer vs.
saied en met hem rob van architecten
werd elke weg zo snel aangelegd als paranadreef zouden we over ongerepte natuur niets te klagen hebben
reportage gaslek was nu eigenlijk oorzaak en vooral spreek nooit meer over oudjes !!!
blij dat ik geen fan ben..scheelt me elke keer dat geouwehoer van gelukkig vanmiddag premiership op sport
helemaal met je eens
volgende interview woordvoerder graag in koelcel...dat scheelt slachtoffers..
dank ... hoewel hier toch beter dat gebruikt zou kunnen worden.. mooie term trouwens functionele i…
als één foto pleidooi tegen ondersteunt...overigens prima suggestie
van de dag
meest sympathieke voetballer van nederland belachelijkt door van hooijdonk en van marwijk
zo lang een vraag kunnen voorbereiden...en dan zeggen geglooft...hulde
heerlijke pot...geweldig beste speler held
dacht gisteren al...wat lult bert van de veer ineens over bij vanavond verklaart
anders zijn de apen nog niet gaar...loving
gedrag heeft volgens niets met coup te maken...is volgens mij het enige domme dat ze niet hebben gedebiteerd...
minder suiker bij in filiaal alleen koud...werd dus flesje lauw water...
weer eens gekeken...viel niet mee...vond ie volgens mij zelf ook...
wees blij met die gozert uit utrecht die de kastanjes voor je uit het vuur heeft gehaald
afgelast...balen...voor lopers maar vooral voor organisatie...sterkte!
tja...als al denkt dat de wedstrijd maandag is ipv dinsdag...
mooi gedaan inderdaad...is ook historie...voor de se fijnproever
italianen woedend over cartoons aardbeving in charlie hebdo blij dat ik nooit charlie was...#jenesuispascharlie
koekkoek en de mos over voetbal...de mos en mens over trump...ik ga slapen...#pauw
goedemiddag, net account trachten te activeren doch werkt niet...wat te doen
grappig...#stop op ...wacht op fragment dat een postkoets rechts voorbij scheurt...
bedoelt kay van der linden nu dat politici ergens gehakt van moeten maken...of toch chocola...of beide..?
ook ik word geen assistentcoach benieuwd wie het nog meer niet worden...
beetje nederlandse voetballiefhebber kijkt liever dan
jammer van gemist metrum...alleen maar ipv slechts had beter gebekt...
typisch gevalletje advertorial zonder het zo te noemen in
geen bij spelen ...tja, zo word je natuurlijk nooit serieus genomen...of serieus genómen...#rio2016
eervolle vermelding top 5 nationaal
de jury is eruit...#rio2016 top 5 nationaal 5. dames 4. 3.@dafneschippers 2. 1.
zege op karakter, adus gio...tja, bij gebrek aan organisatie, samenhang en dus fatsoenlijk spel
boksen....curling is opwindender en verrassender...
zelfs zo uit evenwicht dat el ahmadi scoort...is ook een tactiek 😃
opstelling gio brengt totaal uit evenwicht...met één vleugel kun je niet vliegen...
tja...een trainer die de tegenstander uit de wil halen verdient natuurlijk wel een
vond het wel mooi, kriegel als ik word van die vlaggen als symbool van mi ongewenst nationalisme tegen geest os in
met alle respect voor leon haan maar denk, en weet nu ook, dat dafne minder blij is dan hij...#rio2016...zelfde geldt sedoc
en dan nu....#slapenvoordafne....#fb
reportage medewerker die zegt ik ga inzoomen op de skills van u😣😣😣😢😢😢
heb niet zoveel met maar die shootouts zijn wel leuk...#neddui
omdat anderhalve zwaluw wederom geen zomer zal blijken te maken...
😂😂😂heerlijk ambtelijke reactie. heb hier nog een vlag...die mogen jullie lenen...#gouderak
blessure gelegenheid 4 4 2 uit te proberen...met opkomende backs, ruit op middenveld en kuyt en jørgensen voorin
had zoveel vertrouwen in dat ik dat biertje van al ruimschoots tevoren had geconsumeerd
advocaat alweer weg bij oranje...was ook geen gezicht...dickie als assistent...en dan ook nog van blind...
mooier wordt voetbal dit weekend niet...de 20 bij
zes medailles, niet slecht toch? lees dit artikel en concludeer met mij mee...#zegdanniks
zit ook niet mee in eindig je tussen de campbell sisters....win je nog geen medaille..
dames fiji hebben wel een piemel
ambassade schiet 32 nederlanders te hulp in rio in of exclusief ?
weinig boeiend...#judo maar voor maak ik graag een uitzondering...#rio2016
een klassieke opleiding verloochent zich nooit..
elke weer blij dat ik beperkt boeiend vind...#rio2016 overigens ben ik van mening dat terug moet...
hockeydames zorgden voor onrust bij roel braas...#nocnsf overweegt hen naar huis te sturen...#rio2016
die de sporter dienen te faciliteren bij het presteren...voor sommigen hoort daar het drinken van een biertje bij
waarom dan wel?
mag toch aannemen dat wel meer heeft geflikt dan het drinken van een paar biertjes...althans, dat hoop ik voor
feiten en opinie lopen in artikel michael persson wel heel nadrukkelijk door elkaar...
eerste wedstrijd 2016/2017 zelfde tegenstander en uitslag als laatste 1992/1993
na eerste wedstrijden handbal en volleybal kunnen we in elk geval concluderen brazilians prefer blonds...#rio2016
lekker loopje met duik op weg naar en, wie weet,
graag keertje wat aan doen ipv elke wedstrijd opnieuw schrikken...#feyenoord
niveau spel gelijk aan dat van personeel bestelt een bier en een sprite en je krijgt een sinas en een radler
tweet....
verbijsterende grammaticale fouten bij sensatiezucht...gaat blijkbaar goed samen...@rtlnieuws
onderweg naar duitsland bij bunnik gebroken uitlaat...met dank aan garage toch vandaag ter plaatse gearriveerd
meteen strafschoppen graag...#frapor
denk dat straks kruis wordt opgericht waaraan zich laat nagelen...#frapor
tot nu toe één allochtoon in beeld...en die was aan het stofzuigen....
sprint giroud deed denken aan beste dagen van beukering bij
de schoonheid van sport
ziet geen kansen voor individueel
laatste nieuws vervoeging werkwoord stelen gewijzigd...
dus je hebt bij een persofficier...en dan ook nog een voorlichter...die de persofficier corrigeert...tijdens opname
zoekt kruising en pascalplein en gij zult haar niet vinden...
verslaggever verwijt draxler tunnelvisie doch situeert dhaka in indonesië...
geweldig om uitgerekend alistair campbell om commentaar belazerij te vragen
des te fraaier....
het was voor even nadenken over voordeel , maar dan heb je ook wat...
torenhoge glazen glijbaan in los angeles geopend leuk idee voor ?
zou ensing dit echt zo hebben gezegd of is dit verbasterd door ?
woordvoerder jens overgelikt...leidt nogal eens af van boodschap...welke dat vaak ook moge zijn...
de altijd kritische bret maalderink noemt axel witsel alex...@nosvoetbal
woord van de dag bananenrepubliek...dat helaas juist in het onderhavige geval nergens op slaat...#fctwente
misschien ook nieuwe naam...
eens op ritzeges en niet op klassement...dat hadden rabo en al sinds grofweg zoetemelk moeten doen
zou het beschouwen als gereformeerde humor...vind het bezwaarlijker dat hij als adjunct geen les meer geeft...
tis de 26e...bijna goed...
heerlijk op maar ook ter ontsnapping gewauwel van hooijdonk en mulder
legt deense spits jørgensen vast zou niet weten wat komend seizoen nog fout kan gaan...#coolsingel
dan was ie vast op tijd...
met zulke prominenten heeft geen vijanden nodig...of ontgaat me strategie? als, nog steeds, lid schaam ik me!
ff stukki kiki kieken...met sonore stem umpire als begeleiding..mocht het weer gaan regenen kan ie zo optreden
in elk geval goed uit het tijdstip van je reacties te mogen opmaken dat zulks voor provincieambtenaren reeds geldt..😂😂
kiki niet...integendeel zelfs...maar als voetballers drie keer in de week moeten spelen, dan hoor je al gauw gepiep
speelschema laatste 3 weken...heren voetballers nog iets te klagen enz.
na 8 km gestaakt...#feelslike maar dan zonder vangrail...#fb
voor de nederlandse sport...en niet te vergeten...
karakter held !!! spelers spiegel je aan hem!
een nederlandse wielrenner die aanvalt!!! uit het juiste hout gesneden...forza !!!
merkwaardig dat ik de engelstalige versie ontmoet...
gelieve bijnaam de neus niet meer te gebruiken voor verdachte h.
gelukkig dat ze weer over rusland kan praten ipv koninklijk huis. minder blij...#pauw
excuses...maar toch volhouden dat 27 keer harder wordt getroffen dan slachtoffers concentratiekampen..
interessant ... maar wat is verschil met ?
mij bekruipt het gevoel dat je met vrienden als jan hein kuijpers geen vijanden meer nodig hebt...#nieuwsuur
ergerlijk...wie niet springt die is een ....ga uit van je eigen kracht en niet van het tekort van een ander...gefeliciteerd trouwens...
heb begrepen dat gio dat straks doet op de middenstip...
zeker en vast. groeten aan bart!
dat zonder meer...geniet ervan...ik ga vanmiddag vooral voor
dacht dat zich had aangemeld voor odw..?
heeft natuurlijk streepje vóór bij
trots op mijn stad primeur utrecht gaat vluchteling al op dag één aan de stad binden via
nou kende ik lou reed niet persoonlijk maar volgens mij was hij geen hond of moeder
niveau familie mulder in nog lager dan dat van bekerfinale
prijs voor het lelijkste tenue is voor
ook als supporter zeg ik dat we het sportieve hoogtepunt van deze dag hebben gehad gefeliciteerd
goed plan aflossen met
hetgeen ik zonder enige twijfel kan beamen...
heitinga irriteert zich aan alba...ik erger me aan heitinga...#championsleague
canossa of medelopers veel succes vandaag bij
had het idee dat benitez zich wat onwelvoeglijk uitliet over janmaat
europeaans...ach, het is de zullen we maar denken...
musthave voor de supporter...
niet mijn favoriete sport maar doet niets af aan waardering prestatie..succes vanavond
die stegeman komt vaker op de kazerne als de gemiddelde soldaat...
als analyse nederland waar werd voor en waar werd tegen het verdrag gestemd?
krijg de indruk dat die toch wel een aardige coach is...#okt
twee democratisch gelegitimeerde regeringen die een verdrag sluiten...zojuist laten weten dat ik dat wel goed vind..#referendumnl
scoort uit standaardsituatie...hoe lang zou dat geleden zijn...?
dank aan medewerkers eetcafé voor even sympathieke als uitstekende verzorging brunch vluchtelingen noodopvang
heb de indruk dat de fransen de afscheidswedstrijd voor willen imiteren