zeker met de bus?? of toch met je inmiddels verfoeide vliegtuigen ?
sorry hoor, maar die van bronckhorst is ook de weg kwijt met zijn wissels. nieuwkoop eruit ???? vilhena x amrabath was beter geweest
en je muizenholletje open zetten 😂😂
waar zijn de foto’s ???
nu in de tuin gooien ... heb je van de zomer een top tuinfeest denk ik 😂😂
droog ?? dat haar dan hoop ik anders ...... 😂😂
dus als ik biefstuk eet ben ik 80% vegetariër ??
die gaan het verliezen van veeel leuker !!
je kan natuurlijk een andere spits inbrengen kramer en ........ je kan een andere spits inbrengen dolberg, de jong pppppfffffff
nu maar hopen dat het woensdag tegen swift niet op penaltys uitdraaid !
en weer scored diegene die met rood niet meer op het veld had moeten staan ! larson erin en jp eruit nu en stormen
nou al een hekel aan die makkelie. dat worden ongetwijfeld rooie voor feyenoord.
mijn eerste gedachte na het zien was ook geregiseerd !
nee jou werk is doe dit, doe dat, doe zus, doe zo !!
op mijn blokfluit kan je ook blazen wat je wil maar ............ 😂😂
oohh emile roemer is geen burger !! daarom tekend hij geen burger initiatief . op zondag
mijn complimenten en felicitaties voor je moeder , die geef je echt geen 87 !!!! 🎂👍🎉
sorry jan, verlogen je afkomst niet. jaren onder de rook van zestienhoven.
zou het nlelftal ook met rouwbanden spelen wanneer er in de kuip zou zijn gespeeld ? vs
kunnen ze vast wennen !! die arena is altijd leeg
😳😵 dat vertel je nu pas !!! dammm
ik dacht dat jij jezelf altijd scheerde ? 😂😂🙈
staat kimi raykonen daarom stil ? daar wisten ze ook niet wat het is
als nu verliest is het zijn schuld
na veel moeite huis in druk rumoerig rotterdam verkocht en naar rust op veluwe vertrokken.…
ik hou van jou maar dat wist je al 💋💋💋
dat zeg ik ook altijd tegen die vrouwen, maar krijg dan een klap op mijn bek 😂😂
de chronisch zieken zijn die lachebek weer dankbaar.
wat een verschrikkelijk leuke vrouw die jammer dat de week van linda over is.
voor hetzelfde geld had je toen paling gevangen. 😂😂 🐍
vier en een half !!
die had stevie wonder nog gescored als je zo met je benen open op de lijn blijft staan.
en ? nog een potje gevangen ?? 😂😂#zoujewelwillen
goedemorgen marc, dan moet 1 van ons langs schonenberg !!
misschien eerst je nederlandsche taal verbeteren ???
bij rennen de girafs ipv giraffen door de zonsverduistering in paniek in de volle zon rond !!!
komt goed man !! duim voor je en alle narcolepsie lotgenoten
der was ook een ander plekje waar ze hem makkelijk kwijt kon 😂😂
wat een lulkoek !! ga je nu rtl boulevard kijken dan ??
nee, ons hadden ze al uitgeschakeld !!
nr. 19 !! houd feyenoord nr. 11 vrij voor rvp ??
berghuis definitief feyenoorder maar met nr. 19 !! houd nr.11 dan toch vrij voor rvp ??
omdat man/vrouw niet meer mag volgens die onzin.
zou jan echt niet weten dat zaad ook voor iets anders dan slikken gebruikt wordt ?
uuuuhh ..... het woordje een 😂😂
dat had je vorig jaar al kunnen weten !! allemaal herhaling.
en dadelijk weer eruit voor kunst gras !! schandalig !!
zal wel zijn die de oranje leeuwinnen aanmoedigt 😂⚽️🇾🇪
oranje leeuwinnen winnen door echte spitse goal 😂😂
kijken jullie nou net zo naar die vrouwen als ik ?? 😂😂
wat staat er op het briefje tussen de ruitenwisser ??
ja haha, maar zal zeggen het is natuurlijk geen en dat betaal je ook.
jooohhhh je meent het !!!!
dat wordt een klus om dat weg te krijgen voor de open dag.
dat deden kongolo en karsdorp ook ! alleen maar voor hogere vraagprijs.
ik zou de m2 van je tuin maar berekenen en de kippen en bob alvast zwemles geven ! 😂
feelings never change !!! 💋
check raikonen voorbanden 1x soft en 1x supersoft bij binnen duwen pitbox
nee maar dan red je het niet met een paar honderd bijbetalen hoor. 41% van heel veel is nog steeds veel
dat wil ik ook niet 😂😂
wat een doperwtjes controle !
het was zon aardige vent die koeman, maar kan hij niet ergens anders verder winkelen?
dat je met een adidas shirt uberhaubt naar binnen mag van nike !!!
geen voetbal dan mijn andere liefde elke 14 dagen naar buiten.
ooohhh dit keer geen beste maatje maar lover
moet ik russisch gaan studeren? ach ik heb nog een jaar tot 9 mei 2018 😂😂
hoe laat zijn we welkom ?? 😂😂😂
kan iemand me de tussenstand melden? ik zit ncis new orleans te kijken 😂😂😂
zal niet voor 4 miljoen netto bedoeld zijn
wordt het geen tijd om zonder d66, vvd, en met anderen te gaan praten.
men verwacht 100.000 mensen op museumplein! waar waren die in het stadion dan?
ik ben geen hillesluizer. die eer valt anderen meer te beurt.
is je emmertje al vol ?? want je zit ongetwijfeld naar npo1 te kijken !! 🤢. 😂😂
zeer terecht 👍👍
dank maar na 3 dagen wachten op antwoord zelf er door try and error oplossing gevonden.
messi, messi , nelom komt eraan nelom komt eraan. !!!
in tilburg oefenen met podium opbouwen !!! hahahahah laat me niet lachen
nou ik kan weer in en uit ademen gelukkig. toch nog kaarten weten te scoren voor in het . nog een jaartje geduld
heeft gewoon zijn server niet op orde ! heb het opgegeven. eerst…
bij jullie ook al 40 euro hoor !!! vroeger was ik vip met voorrang maar kost tegenwoordi…
sta al 45 minuten in de digitale wachtrij bij. dan maar ticketshop
heb nu al 2 weken last van haperend geluid op tv. lijkt op atmosferisch maar duurt te lang wat kan dit zijn? niets veranderd
moedig om zo je masker even af te doen niet bemind maar wel bewonderd !!
beterschap voor ukkie
veel plezier en voor twee juichen hé
wat hebben die gasten uit kralingen vannacht nou toch gedaan??#excfey
nog een paar daagjes en rotjeknor staat in vuur en vlam !!
welke macht ?? of onze gekozen vertegenwoordigers zo vlekkeloos zijn
de gemeente rotterdam beseft niet dat sommige gebeurtenissen niet te organiseren zijn !!!!!
niet effe je kop in beeld met een wijntje ??
wordt nog beroemd zo !!
gelukkig doet het zelf morgen met twee nulletjes minder maar wel 40 jaar 😂😂👍
nou maar wachten op mijnheer de leeuw zei de andere panda terug.
is het doel niet gewoon dat er betaald wordt voor de verleende dienst. door wie dan ook, op welke manier dan ook ?
trauma heli van voor in de kuip 😂😂😂
wil jij geen vleeswaren in je mond nemen die .......... laat maar realiseer ik me net 😂😂
13 mei met dubbel alarm in de agenda gezet !! in het geen show gemist moet vervolg krijgen
niet alleen je ogen zijn vooruit gegaan !!
ik denk dat de wint. wat denk jij?
wereldnieuws een kind gaat aan tafel zitten bij agent om te kletsen in usa !!
hoe heter hoe beter is ook mijn motto 😂
lang genoten van een voorsprong hahaha
dan moet toch nog eens gekeken worden naar de lastste wedstrijd van 020 !! beoordeeld en niet bestraft !!
rtl niet anders, geen uitzending zonder onzinnig vs item !!
een luie luie lange slungel die wehopelijk nooit meer in het eerste zien voetballen
ik zal wel ff zoeken vanavond. wedden dat ik hem vind !! 😂😂😂
staat die nelom nou centraal of links back ?? ligt helemaal open.
vanmorgen enrique iglesias op de radio. dankzij hoor ik dus nu constant die kikker. 😂😂😂
er kan er maar 1 de beste zijn !!
rutte bij presentator en toevallig janine hennes te gast !! programma
vilena schorsen adhv tv beelden? kan dan dat doelpunt adhv de tv beelden ook alsnog toegekent worden ?
gewoon volledig scheren die moestuin !!! 😂😂😂😂
als dat geen broodje shoarma wordt met al die schapen !!!
ook ja, helemaal waar
ook een penalty kunnen geven voor vasthouden jörgensen.
gevraagd blinde geleide hond voor scheidsrechter makkelie omdat het hem aan haviks ogen ontbreekt.
lekker op tijd medegedeeld 😂
...... dank je wel, ik ook van jou 😂😂😂💝
jesus wat fluit slecht zeg. en ado heeft ook een groen/gele bus gevonden in de koffer van groenendijk
heel knap een finish van 171 !!!
waarom denk ik bij het zien van die kuzu altijd aan mr. bean ??
het doelpunt wat er uit de voorzet voortkwam werd wel goedgekeurd !!!!
klagen ze wel eens over de bus van roda jc, maar groningen kan er ook wat van in hun 541 systeem
effe omkijken als er gefloten wordt als je uit de tram stapt !! 😂⚽️
en is de volgende die het toneel via de achterdeur gaat verlaten in maart.
johan derksen moet eens een gteam coachen in een wedstrijd 8 tegen 8. herziet hij beiden meningen
als je een afgekeurd niet buitenspel doelpunt en een niet gegeven pingel meetelt kom je inderdaad op 30
al weer even geleden, maar ben je niet vergeten hoor . ik wens je alvast een heel schoon en zuiver weekend toe xxx
ik heb weinig nieuws gezien van een 31 zege van exelcior op die neuzen uit 020 😂😂
nu de adrenaline gezakt zal zijn, alsnog gefeliciteerd !! ik heb 2 weken van je en de anderen genoten
fijne werkdag vandaag en je bent goed bezig x
graag gedaan, droom lekker x
in beeld sttaat 450 keer 180 en commentaar zegt 443 !! kijken heren, net als wij anders mond dicht houden.
omdat ze op de radio meeluisteren !! luisteren, zou je ook meer moeten doen, dan wist je dat
die ben je al lang tegen gekomen !! 💋💋💋
waarom stijgen de sevicekosten mee met de kaartprijs ?? en stadion layout, waar kom ik te zitten kaart
niet genomineerd ?? 25 toernooien winnen in 1 jaar? criteria niet olympisch en 55x wk geldt ook voor f1. sorry
dus als je een shirt vast houd ben je voor die club?? dan was hazes voor…
de visagie heeft vandaag extra zijn best gedaan ! ziet er prima uit sanne
zijn spel was al even kansloos. waarom nog steeds selecteren als bank/tribune klant bij manu ??
kan je vast wennen aan het einde van de competitie. schakel met 020 op basis en kampioen feyenoord op internet stream
el ahmadi ..... wat verschrikkelijk slecht, gauw vervangen
gaat de fifa voor de rechter slepen voor qatar. laten ze doen wat ze moeten in nl en zorgen voor cao in de vlakglas branche.
wat een lul die snoeks. 9 van de 11 fransen spelen dit seizoen champions league. die andere 2 kneuzen zijn pogba en payet.
daar wordt malta zwakker van hoor ! 😂
als je nou nog steeds bruma verkiest boven de vrij dan ben je steke blind. gelukkig kan karsdorp puinruimen.
het is wel duidelijk waarom sommigen op de bank zitten normaal gesproken !!
waarom een kitten en zeekoeien en geen beschoten woning rosmalen en dode in woning maastricht?
neem me niet kwalijk maar kuyt is wel de minste van allemaal. kan hij dan dit niveau echt niet meer aan ??
waarom wordt mevrouw sabia noch steeds boulahrouz genoemd ? is zij niet jaren geleden gescheiden van kalid ?? het is engizek !!
zou die klaasen weten dat die bal langs de keeper moet en niet er tegen?
allemaal tenminste het wilhelmus meegezongen. en nou knallen !!!!!
leuk programma en direct aangeschaft
nou hij staat er op hoor succes dit weekend !
gefeliciteerd max , je gaat goud winnen. oeps ... je hebt helemaal niks gewonnen !!
en hij had gelijk. eindelijk de tegenstander eens in blessuretijd punten stelen
tikkie op de neus van vodafone voor henk krol 😂😂😂
ik ben stiekum fan van alle dames in rio 😂
savelkous staat op de verkeerde mat, dit is een sumo uit japan
wie nog 1 keer durft te zeggen dat die göziklukluk een feyenoord fluiter is laat ik deze wedstrijd bekijken!!
wat een onzin om 2000 supporters in een aquarium te stoppen met zoveel lege stoelen in die kattebak
ochtend weer begonnen met banaankiwi shake
ik ben toch blij dat ik nooit voorgesteld heb om eens andijvie te eten samen 😂
kunnen ze die scheidsrechter ook effe wisselen in de rust ? hoe onterecht deze voorsprong door thuis fluiter
nou maar hopen dat hij wel de echte vader is !!
zielig is inderdaad verkeerd gekozen. maar men denkt zo wel.
gaat het om de beste zang of het zieligste koppel ?? eindelijk een eerlijke vakjury
slechste optreden krijgt de meeste medelijden punten.
geld vergoed een hoop, maar je kan er geen sfeer van kopen. koude bedoening bij shanghai masters of darts
dat het seizoen maar snel voorbij mag zijn !! smaken verschillen maar dit tshirt is spuug lelijk !!
die is wel een echte vriend die voor je opkomt als je bonje hebt !!! is zelf een lokvriend.
diep triest dat die willems de eerste goeie bal geeft als de jong in het veld staat.
de hand van advocaat is al goed zichtbaar ppppffff.
gefeliciteerd met jullie overwinning !!
zonder discussie weet ik zeker dat ze dit besluit niet hadden genomen !
geen paniek stopt er mee. geen paniek geen paniek. maar missen doe ik je wel. zie ik je alleen in luxor nog !!
je bent goed bezig je leven te leiden zoals jij wil. en hebt goeie vrienden.
laatste dagje werken. weekend is loading.
gaat die blonde zwarte piet nu nog de politiek in ook? sinterklaas was ook een turk hoor !
hij zal het feyenoord shirt voorlopig niet meer dragen hoor !!!
yeeeaaahh beiden mercedesen van de baan. weg vrij voor podium verstappen !!!
weer voor 25 jaar genoeg songfestival gezien. nog steeds dat politiek, corrupte schouwspel.
vorige week al geprobeerd. zalig
schitterende rondleiding en schitterend geworden. geniet er maar lekker van.
heeft niets geleerd van de kritiek van vorige week. weer 3 kanalen ajax en psv. streaming vol met storing voor je geld.
tevens heb ik niet de beschikking over fs2 en fs4 als daar wel eredivisie wordt uitgezonden !! streaming is dan overbelast
van roulatie is geen sprake, het is constant ajax en psv, onderbroken door een doelpunt op een ander veld, daarna weer terug
wat is het nut van een schakelkanaal en dan constant ajax en psv uitzenden die op de andere twee tv kanalen live zijn ??
fijn hoor dat geen 4 op tv en een systeem fout online. bedankt sukkels
kan me niet voorstellen dat hij op het lijstje stond als twijfel geval.
temperatuur gaat omhoog maar wolkjes komen binnen schuiven.
heeft gewoon gelijk met nigel de jong.
8 graden en regen, dan met korte mouwen en handschoenen aan ?? moet niet gekker worden
in de naam van allah ....... maar die houd zijn mond !!
die zich afvragen of het werkwoord tieften wel bestaat. nou in rotterdam an je gewoon optieften naar dat palingdorp.
die wisten dat je die bal er overheen moet jassen de laatste tien seconden. dom dom dom
half uur gekeken naar dames. als dit dan de nationale top is ?! pppfff
wat heeft gvd in die thee gezeten ??
kan gio die kramer een bijles geven wat buitenspel is ??
dus dadelijk een sigaretje opsteken naast de wieg ?? of is het dan wel slecht ?
overal maar racisme in zien .... je krijgt toch bijna een hekel aan door het telkens te zien krijg je het de wereld niet uit
en wat doet de hier aan ?? randdebielen !! jood of banaan wordt bestraft en dit dan ?
en dan nu vsbb in de kuip voor de halve finale please yyyeaahhh
nog een half uur billen knijpen. aub geen penalty loterij
beterschap en een spoedig herstel en weerzien op de buis.
lekker thuis en aan het weekend begonnen met een flinke doggywalk.
oooohhh dan weet ik waar deze wanvertoning aan lag. brassie was er niet !!!!
blijf jij maar in alkmaar ! neem nog maar een stukje gatenkaas.
karsdorp moet terug naar de basis als rechts back verdedigen !!
nou ja, win je 1/3 van de power ball loterij van 1,5 miljard op je 32ste. sluit je alvast een lening af voor feest met coke en hoeren. dood!
oogjes dicht en snaveltjes toe .......
ik schaam me niet voor mijn tranen bij dit nummer. via youtube
goedemorgen, laatste weekendje zonder, nog even volhouden.
beste , langs deze weg alle sterkte voor jou en je familie deze dagen. en hopen dat je kan slapen zonder dat ouwe dametje.
franse friet eruit, hollandse boerenfriet erin houden. voortreffelijk en warm nooit meer weg doen
ja hoor 48.243 met 15.000 lege stoelen is cap van 63.000 haha er kunnen er maar 53.500 in die kattebak
het is principe. geld wat al in handen is van v en d waar die mensen hun salaris al van is betaald dat is geen egoisme.
kerstshoppen bij v&ampd ..... nou niet met je kadokaart met geld erop. wordt dus niet meer geaccepteerd. dieven !!
hij gaat nog stunten ook die plofkip
gaat die eidams een poging krijgen om een dubbel te gooien ?
praat gustafson wel een straf aan met 100x herhalen in zijn radioverslag op rijnmond
zit ik nou naar ik hou van holland te kijken of naar
zaterdag el classico zitten kijken met open mond en nu tegen as roma nog even dunnetjes over. wat een voetbal !! alweer 30
dan maar koekenbakker, heb je geen vorm voor nodig !!
ik zit klaar voor de uitzwaai wedstrijd van wales. het nederlands elftal is dit keer de sparrings partner.
schrijf in alfabetische volgorde staat er toch ! zou zegen . van mij krijgt hij een 10
deze is nog kleiner als wesley ! maar een gewonde leeuw kan nog gevaarlijk zijn hoor.
en nu nooit meer janken dat de arbitrage in het voordeel van feyenoord fluit
tebbie de gouden mossel van nog nooit geproefd !! hahah p
dat krijg je als je radio luistert en geen televisie kijkt.
die van der heyden is echt het zwakke punt bij feyenoord. daar gaat het dadelijk ook fout in de tweede helft
lekker al thuis en de hond uitgelaten. op de bank geploft en weekendddd !!!!!
zelfs boodschappen doen is leuk vandaag. hier zal nooit uitverkocht staan. de kuip elke 14 dagen en beker
wat nou uitfluiten ?? we juichen hem juist toe met 50.000
vandaag extra lekker
wat is dat lekker slapen gaan zeg. in de laatste minuut van blessuretijd door een eigen doelpunt
effe aan vragen of ze al zin heeft in een natte ........ keel ?? niet zeuren , gewoon slikken hahaha
lekker bakkie gedaan met dochter lief.
voor mij langer geleden als voor jou. weet ik zeker
beter 2 poezen op de bank dan 1 in de hand !! nouuuuu ???
van harte gefeliciteerd met je verjaardag. een fijne dag en nog heel veel gezonde jaren toegewenst.
lost rebels rotterdam , ken je dat niet horen dan?! via
me voorgenomen om voor het eerst deze week mijn pauze te nemen !! laat die telefoon maar even 30 minuten de tering krijgen.
over een paar uur ?? na 35 minuten weet je het al !! wat een drama
we kunnen nu wel een pingel tegen krijgen !
oppakken steriliseren en dichtnaaien . wezenloze
zolang ik een positieve uitwerking op je houd is het goed. 😜
laat ik maar niets zeggen over het verwennen van jou poesje
wat is dat voor een bondscoach ? geen karsdorp, wel tete en nog wel een hele stoet 020ers. is die man of zo ???
er komen wel feyenoord fans naar ahoy !! is dat ook goed ??
goedemorgen twitties, fijne zondag !!!
maar goed dat ik het lees, anders had ik voor niets op de bongert gestaan vanmorgen.
eindelijk iets zinnigs gezegd bij raar dat het alleen maar mannen zijn gelijk heeft hij.
ze zijn lekker bezig die fransen in groningen. zal feyenoord wel weer de schuld voor krijgen, die zijn het altijd ppfff
aan mij zal het niet liggen. ik heb alle tijd. was zeker gezellig 💋
daar zou ik wel meer dan een griepje voor over hebben
allemaal door jou aangestoken. en ik heb nog zo gezegd niet zoenen !!
goed begin bij je nieuwe baas !! beterschap xx
3,1 miljoen kijkers voor heelhollandbakternietsvan op het ander net. ook koekebakkers !!
geef de hoop niet op, dan ben je zo weer boven jan.
even succes wensen met haar eerste werkdag bij nieuwe baas. gogogo anietje, je kan het
verlogen het hollandsche kinderfeest niet.
omg naar eindhoven voor de wedstrijd lampjes . onze tob scheids zal wel effe laten zien hoe het moet
nooit meer reageren op iets waar je het ware verhaal niet van kent. sorry
hebben jullie nou maar in de helft van de tuin radio kootwijk ontvangst ??
ontbijten in de tuin met mijn grote vriend.
dat is wel 020 bier. kijk je uit dat je niet ziek wordt !!
oohh wat begonnen ze te zingen bij 22 maar 3 minuten lang, nu zijn ze muisstil hahaha
veschrikkelijk hopelijk alleen gewonden.
zal wel zeggen dat het atmosferische storingen zijn , maar met upc onweerde het nooit voorgaande jaren!!
gelukkig houd ook bob een oogje in het zeil, dan voelen ze zich zo weer kip lekker.
is dat de haring die ik ruik of .... p
en alles was uitverkocht na jullie bezoek ...... bedankt !!! 😂😂😂
skinny dipping ???
als een operatie onvermijdelijk is, dan weet ik een goede arts
kleurt goed bij haar jasje dat sapph setje
mooi voorbeeld van wel en niet kunnen zingen. top , kenny b flop
snelheids controle richting spinozaweg onder vaanweg viaduct.
heb je je grootmoeder vandaag chocolade gegeven ? van harte gefeliciteerd, prachtige leeftijd.
eindelijk zussie ook weer aan het tweeten. en nou volhouden hé
gelukkig nog nederlanders die wel makkelijk van de verenigde staten weten te winnen
social media award voor en zeer terecht !! niet alleen posten maar ook antwoorden op tweets. gefeliciteerd toppertje.
.........gaat anietjuh pesten
overdreven opgepakt door media. natuurlijk komt iedereen om te lachen met jochem maar dit was overdreven.
maar wij hebben de ballen john !! was zeker top
bedankt voor een natte top avond met tumorhumor. oh ja, ze ligt in de maas dat
benieuwd wat aan het doen is nu. wij na regen in de tram naar
al helemaal zin in vanavond. lekker naar in de laatste na lachen om
en nou een bekeuring voor elke bak welke buiten de ophaaldag op de openbare weg staat
bedankt ziet erg natuurlijk uit die kut bakken. het wordt er wel groener van
wat zie ik nou op fb? after party met in nieuwe luxor op 6 juni. shit, zit ik een dag te vroeg in de zaal. dan maar
vermeende corruptie bij de ?? verrassend !!. als de onderzoekers zich nu maar niet laten omkopen !! maar blatter blijft buiten schot
tien minute geleden springt alles aan.
kut ligt al vanaf 10 uur tv plat. als ik om 1530 geen voetbal kan kijken , verbouw ik heel die tent. nooit last met
jij moet onderweg zijn naar friesland, niet naar je werk !!
bij de belastingdienst reorganisatie. 5000 gedwongen ontslagen
trijntje kiest toch voor andere jurk
van geel zou ook zijn conclusie moeten trekken en samen moeten oprutten !
gelukkig toen jeliaskov genomen ipv v/d gijp