ik ben voor wie ben jij aanstaande zondag?
wordt geschoven op zijn enkel. maar kan natuurlijk niet bij de selectie met alle ophef. wees gewoon transparant als club
staat nu 50 stemmen voor 💪💪
respect mannen. succes 💪💪
wat vond je van het veldspel? was de laatste tijd niet geweldig. werden nu veel kansen gecreëerd. of kwam…
heb je daar enig vertrouwen en gerard? de enige met pit tegen oss was saj... mannes, boerlage en houtkoo…
wordt een lang seizoen zo... hopelijk pakt het na de winterstop goed uit en pak je een periode...
kip komt er niet aan te pas... schils begon goed maar is ook helemaal weggezakt...…
ga ook steeds meer twijfelen aan de trainers. dat middenveld van vandaag... dan was…
ja dat weet ik wel zeker... snap er dan ook echt niks van dat het zo lang duurt met…
maar vd laan is blijkbaar ook nog niet fit. lijkt me dat cummins beter moet zijn. a…
eem heerser op het missenveld die fit is dan.. zou smeets moeten kunnen zijn. ander…
keihard feit. slecht op geanticipeerd. ze missen een echte spits, een heerser op he…
bedankt voor alle mooie momenten. hopelijk heb je vanavond voor een kleine wederopstanding van het nederlands elftal gezorgd
narsingh?
kan sai ook op links? al van deelen weer fit is?
als ik twitter goed begrijp is scc tenminste gelijkwaardig... waarschijnlijk beter... nu de goal nog 💪💪
dan hebben we wel een probleem...
dat is de helft al idd... succes vanavond 💪💪
succes... vertrouwen in een goed resultaat?
wie heeft u als favoriet maarten? en wat denkt u van landa bij movistar... onbetwiste kopman of delen met qu…
prima.. maar dan kunnen we ons in elk geval een beetje gaan verheugen op de nieuwe namen 😉
kunnen we deze nieuwe watcher serieus nemen of worden alle geruchten gewoon geplaatst.....
peters maar de omgekeerde weg laten bewandelen 😉
vrijdag gelijk in de goal. samen met bertrams in elk geval 2 goede keepers. nu nog een scorende spits…
wat is dat met die trainers om lilipaly steeds op de back te zetten.. is toch zonde van zijn voetball…
weer te laat gehandeld. platje op proef bij telstar... benieuwd welke spits dan als directe versterking/doelpuntenmaker komt
bij akkrum 4. een bijzonder bijelkaar gekomen team wat sportiviteit en gezelligheid h…
goedenavond... weten jullie wanneer de indeling van de bcategorie in het amateurvoetbal bekend gemaakt worden?
dat wordt demare met ✌ in de 👃
waar blijft die 2de speler arjen 🤔
zal die van eindhoven wel gaan worden..
welkom bij sc cambuur. op naar een mooi seizoen met promotie als einddoel 💪💪🖒🖒
kijk... blij mee... en eindelijk wat minder stress bij standaard situaties als het goed is met zijn lengte
even aanmelden bij de akkrum sub league van lars goerres. jou wel bekend 😉
weet je of er verder nog iets concreets speelt over spelers die komen? klein ploegje zo op trainingskamp 🤤🤤
oh sorry haha. vond het al raar want het gerucht ging idd dat er een bertrams bij ons zou ko…
gaat bertrams niet naar willem 2 ?
hahaha grapjas 🤣 maar barguil dus... zal eens kijken hoe ik met mijn punten uit kom 😉 dank en heel veel succ…
heer ducrot, even tussen ons... welke verrassende renner moet ik dit jaar zeker in mijn tourpoule opnemen...
gisteravond een fantastische avond gehad bij bedankt
nieuwe spelers.nl
zo hoppa... niks geen geruchten. gewoon achter de schermen goed handelen en gelijk vastleggen. op naar de volgende 🖒🖒💪💪
van harte gefeliciteerd. top prestatie
die moet altijd spelen maar dan wel op zijn eigen positie. denk dat dijkhuizen dat wel begrijpt...
iets over het bedrag bekend of is het weer het bekende appel en het ei ....
kaya van helmond sport? nog een 1 jarig contract
hahaha. had op zich gekund maar hebben de tuin over de kop. zal aan je denken 😉
ja dat zeker... zie het wel voorbij komen hoe het is gegaan
eens.. ook fysiek wat meer mannen dan het gros wat er nu staat 💪💪
je moet wat voor promotie over hebben succes 💪💪
mag hopen voor 1 a 1,5 miljoen...
slecht begonnen, te gemakzuchtige geëindigd... doorselecteren en vanaf minuut 1 om de titel strijden komend seizoen...
in ieder geval kundig commentaar vanavond. op naar de eredivisie 💙💛
vond em bij excelsior altijd prima... fysiek sterke middenvelder met een goede trap. eerst maar promoveren 😉
oh ik heb ook allen vertrouwen in je belt. maar dit is wel een hele kern.. stans van nac? kent dijkhuizen nog wel 😉
werk aan de winkel voor de td. bakker misschien naar zwolle, vd streek in beeld bij utrecht, mont…
snel nu die ahannach van almere halen ....
duidelijk.. maar ook prima keus dit denk ik. alle vertrouwen in vd belt en dijkhuizen wat betreft de sel…
de gier was eerste keus dus?
dikke prima... sta je een keer niet met de handen in het haar bij de start van de competitie wat betr…
dat zou dan weer typisch cambuur zijn. maar dan nog... dit bedrag zou dan extreem laag zi…
dat bedrag klopt echt niet... maar een nulletje erachter lijkt mij reëel. topscoorder en contract. ..
heeft nog een aardig contract meende ik...
nieuwe trainer al gespot ? 😉😉
ook nog door deze beslissingen verloren dus. schandalig...
normaal doen in mijn ogen. het zijn jochies die plezier moeten hebben en niet zo overdreven naar ee…
op zich leren ze zo wel waar en wanneer de bal in de handen mag. heb het zelf nog niet eerder gezie…
zal volgens de regels waarschijnlijk kloppen. maar in de fjes ben je ook scheidsrechter om dingen…
er zijn oriënterende gesprekken geweest met kandidaat trainers aldus vd belt... enig idee wie dat zouden kunnen zijn ????
wat ...... een ..... goal...... wordt tijd dat jou naam bij de eerste 3 op wedstrijdformulier komt. elke week...topper 💪💪💪💪
heel veel succes alvast met je nieuwe uitdaging. maar eerst nog een promotie op je palmares toevoegen. knallen de laatste weken
sipke ... moet een nieuwe hoofdtrainer komen nu ...
dank voor de tip. zat voor feyenoorddordrecht 😂
waardeloos... dit is gewoon een top jupiler league duel. had gewoon live op fox moeten zijn
dank voor de snelle reactie. ga ik dat proberen 🖒 fijne dag allemaal
storing bij online luisteren?
hopelijk ben je de vermoeidheid helemaal weer te boven, zodat je elke wedstrijd in de basis kunt beginnen. topperrrrr 💪💪
waarom nou weer zon rare opstelling, zo komen er nooit vastigheden. heel apart dat je dan zo wisselvallig blijft presteren 😩😩
spel maakte niet uit vandaag. de overwinning was het belangrijkste 🖒🖒
goed hersteld na de bekerwedstrijd. respect 🖒🖒op naar promotie 💪💪
en weer geen lilipaly? heeft die jongen iets verkeerds gedaan ofzo... anders begrijp ik er helemaal niks van. ..
doelpunt van wuytens
mannes voor de penaltys
begin nou gewoon met je sterkste 11 spelers man 😈😈😈
geen tissoudali en geen lilipaly... en dan achteraf zeggen dat ze het hebben geprobeerd om om te draaien in de rust. ...
geef dan nu ook eens groen licht voor het nieuwe stadion. of ligt die lat weer te hoog. ...???
dus met lilipaly en tissoudali . liefst ook gyasi maar die kun je nog achter de hand houden om de voorsprong uit te counteren
er zijn ruim 1100 man mee. sfeer zal voelen als een thuiswedstrijd. gewoon 433 en er opklappen. die lui geen kans geven
doorsnee speler? in mijn ogen nu al 1 van de meest belangrijke en bepalende speler ... hopelijk laat hij het morgen weer zien 💪
lilipaly uit tactische redenen ernaast... 1 van de beste spelers sinds hij er is.... of zie ik dit nou helemaal verkeerd. ...
maar een leuke woordspeling 🖒
dank je... zullen we nodig hebben daar.... jullie ook succes. alleen een klein beetje minder als ons 😙
wat voor pot hen jij gezien? ???
jullie hebben je naam weer eer aan gedaan. lucky .... 😜
ja het is niet best. maar ik deze fase tellen de punten 😉
idd een wereld pass
onbegrijpelijk....
tissoudali ernaast... er hoe ver is gyasi .... die 2 moeten altijd spelen indien fit. zijn een absolute meerwaarde
laat voor straf het zogenaamde eerste maar ballen .....
van wedstrijd tot wedstrijd blijven bekijken. niet op een topploeg willen lijken en gaan rouleren. vasthouden aan basis 11...
waarom nou zo veranderen.. laat lekker staan, lekker vertrouwd... je moet die lui vanaf eerste minuut opjagen...
platje zou nog kunnen. is clubloos 😉
gvd das een gemiste kans. hou nog hoop. er zijn nog 3 uurtjes te gaan 😉
was dit ook de verassende naam die je eerder al verwachtte?
vd heijden ado naar cambuur
daar was de middenvelder al
ok dank voor de info
verwacht jij nog ingaande of uitgaande transfers bij cambuur de komende anderhalve dag?
2de van tissoudali
enig idee waarom ze de laatste wedstrijden steeds 3 keepers in de wedstrijdselectie hebben ipv een extra veldspeler?
dan doet de trainer zelf ook even mee? 😉😉
weet jij al iets meer over een eventuele versterking voor scc... dit naar aanleiding van je verhaal met vd belt. ...
waarom moet dit zo schandalig lang duren....speeltijden achterlijk vroeg, loting achterlijk laat ...
als het maar thuis is... voorkeur voor sparta uiteraard
das ook waar. houtkoop sprong nog net niet aan de kant....
wederom uit een standaard situatie. moet volgend jaar een echte keeper komen. dit kost onnodig veel punten de laatste jaren
zag ook lukoki ergens voorbij komen... maar hoop toch stiekem op een echte goalgetter ...
wat is dit voor enorme cliffhanger 😀😀
volle mep laten betalen en een scorende spits halen. goede middenvelders zat nu die het op kunnen vangen
morgen gelijk maar in de basis. samen met noor en tissoudali
wij zijn er blij mee. kan me voorstellen dat telstar dit niet prettig zal vinden.. krijgen nu wel een transfersom uiteraard
echt? dat zou vet zijn
kom maar door met die topspits 😎😎
wederom salaris ruimte voor die scorende spits die er nog moet gaan komen 🖒🖒
nog een kans dat cambuur alsnog een transfersom betaald zodat hij/je toch direct over komt?
zit ik idd ook op te wachten... gewoon die boere van oss vastleggen
wordt hier ingespeeld op een eventueel vertrek van vd streek of bakker oid... wel weer een snelle transfer, geen gerucht gehoord
vreemd linkje onderaan 🤔🤔
en dan de transfersom kwijt zijn aan zijn salaris zeker... moet een spits als vervanger komen dus niks ruilen !!!!
had gehoopt dat je nu had gezegd dat ze met een echte spits bezig zijn haha. maar toch bedankt. we wachten af...
gerard... weet jij of er nog redelijk concrete belangstelling is voor een versterking bij cambuur? of van een eventueel vertrek?
behoorlijke transfersom dit keer ????
mooi terug komen. plekje van peersman is vacant 😉
als ze maar een waardige vervanger halen. middenvelders genoeg. een echt scorende, echte spits. of een creatieve speler
drost in huurdeal betrekken en van het transfergeld boere of een andere doelpuntenmaker halen... middenveld is op te vangen
zou een top versterking zijn... nu nog vleugelspelers die em van voorzetten voorzien 😉
wat is het akelig stil qua geruchten omtrent cambuur ... heb jij ook nog geen leuke dingetjes die er spelen ...
dan maar voor omroep leo voorlopig
welke is dat?
iemand een goede live stram voor rkccambuur?
kan ook op links buiten meen ik... zou een top versterking zijn. kan ook een goaltje maken
van harte en veel succes
heel veel succes bij de superboeren... op 1 wedstrijd na uiteraard maar dat zult u begrijpen 😉
edwin, jij bent niet zo van de chips volgens mij 😂 geweldige aflevering. complimenten ook aan chantal, heerlijke humor
ja dat kan bijna ook niet anders. hopen op een paar versterkingen in de winterstop dan moet het nog wel goed komen
dank je jullie ook. en met scc uiteraard 💪💪
na die 5 minuten was bij ons de pijp leeg... gegokt en verloren. maar een leuke pot gespeeld
ja we hadden niks te verliezen. hebben zo lang mogelijk geprobeerd om hoog druk te zetten.
ja was een mooi potje. persoonlijke fouten kosten ons de kop. al waren jullie voetballend uiteraard beter...
van harte. hadden gehoopt op een puntje 😉
dat hoop ik niet haha. we zij onderweg. mooi weertje erbij 😂
wat een gast haha
vandaar dat ie alles gooide op het laatst. zondag 3 punten halen en dan maar wat mensen in de rustmodus
maar snap de wissel helemaal niet... jorgensen er uit 😩
helemaal omdat ie een minuutje eerder ook geel krijgt...
bosz ondanks zoveel wijzigingen nog geen basis? hopelijk maken we voorin eentje meer dan we tegen krijgen...
goedenavond gerard. is de formule 1 enkel en alleen op ziggosport te volgen?
ja hallo. ga niet meer dan 2 spelers een compliment maken 😝 wel zwaar onterechte voorsprong overigens
top spits hoor. samen met sanchez de beste van jullie vandaag
ik denk dat de wint. wat denk jij?
begint vanavond met 3 punten. ben benieuwd... top 5 is nog steeds gemakkelijk haalbaar... hopelijk nog meer. ..
ja ik nu ook wel weer. lijkt net of de sfeer ineens helemaal is omgeslagen. alleen maar positieve reacties op social
er is nog een vacature als td vacant 😉
sipke heeft de papieren maar wie wordt de eindverantwoordelijke? heb persoonlijk slot wat hoger zitten en dan sipke als stroman
alle vertrouwen in je 🖒🖒💪💪
gerard.... ben je al een beetje achter het lijstje met namen wat betreft de nieuwe trainer van cambuur ...
als het dan maar in deze volgorde wordt. slot als trainer, en sipke voor de hesjes en pionnen
12 en 14 eerste doelpunt in de 9de minuut
we hebben een nieuwe meester voorspeller. waas
twee ploegen die niet overlopen van het zelfvertrouwen... had ook geen sprankelende pot verwacht 😂😂
ok dank je voor de info. is wel een welkome versterking in mijn ogen... hopelijk kan hij spoedig spelen
vraagje. .. waarom laten ze schilder niet wat minuten maken. zou tegen den bosch weer aansluiten las ik.. succes vanmiddag
ik zeg moeilijk en zwaar zat 😉
goedenavond... ben jij toevallig straks aanwezig met tweets van de forumavond?
het lijkt mij dat er voldoende aspecten zijn waar extra op getraind kan worden. vrije dagen moet je verdienen....
50 . begin van de wederopstanding
06 eindstand, 02 ruststand. eerste doelpunt in minuut 19
zeg het maar .... komt niet goed zo. ...
hoe lijkt het met gyasi?
welkom bij cambuur 💪💪
prima versterkingen in mijn ogen... maar die echte spits komt niet meer of wel... of verwacht je de laatste 2 uren nog iets...
haha. .. ik denk ik snap je aanwijzing 😉
muhren transfervrij. daar moeten ze een poging voor wagen. ..
oh sorry. .. lees nu pas op welke tweet deze reactie is. excuus haha. kunnen sowieso spelen volgende week. scherp 👍
dat is bekend 😉
normaal gesproken voor cambuur een goede speler., maar geen nr . 10 of die killer spits die oh zo nodig is/zijn ....
nog minimaal 1 nadat ze schilder hebben binnengehaald of was dit die ene 😯 moet toch echt nog een killer spits komen. ...
eventueel nieuwe spelers mag vrijdag in elk geval nog niet meedoen neem ik aan gerard?
nog geen nieuws rond aanwinst en?
toch niet bakker. ... aangezien maduro bij groningen erg mag...
goede vervangers terug halen 😠
nee die zagen in hemmen de doelpuntenmaker .... iets wat ik niet begrepen heb...
we wachten het af...
eens met punt 1. maar deel 2 is ook echt een must in mijn ogen. .. en van vele anderen
spelbepaler en spits die een goal kan maken ervoor terug?
ben bang dat de directie ene hemmen als de scorende spits ziet... vind nu nog maar eens iemand die er 20+ maakt
heb ik iets gemist omtrent bosz of gewoon een blessure. ...
dank voor de info👍👍
wordt het dan beide spelers of ten aller tijden maar 1 van de 2... er was sprake van nog 2 nieuwe buitenspelers meende ik..
mogen vanaf komend seizoen meer wissels op de bank zitten. zou dat er mee te maken kunnen hebben?
ik dank voor de info. dan kun je ook niet veel waarde aan zon duel hechten... stukje conditie en weerbaarheid
was den bosch dan zo slecht, of was dat een uitschieter van cambuur... dacht echt dat dit een prachtige voorbode zou zijn....
wat is je indruk van vandaag? en weet je ook of ze fit aan de pot zijn begonnen of vanochtend nog hebben getraind. ...
snap je de keuze ook qua spelopvatting? hoog druk zetten en in de omschakeling toe slaan? op zich voor de jp league een goeie
organisatorisch van achteruit ook goed toen al...
toen viel op dat ze wat directer naar voren speelden ipv tikkie terug...
is de hand maas echt goed te zien in jullie ogen? ben alleen bij dtd geweest
weet ook namen? muhren wordt vaak genoemd maar neem aan dat ze niet op 1 speler gokken. ....
best... wachten we nog even af 👍
hoe lijkt het met die beloofde naam 😉 of heb ik die gemist. ..
viel me tegen dtd op dat ze weinig terug spelen op de keeper en wat sneller vooruit denken....
maar wel weer de nul achterin. dat staat wel aardig voor komend seizoen?
heeft u enig idee hoe contador de dag door komt tot nu toe ....
beste michael. heb je misschien nog een gouden tip cq verassing voor mijn tourpoule 😉 heb em al nagenoeg rond... fijne tour
jij van hetzelfde
dan wachten we nog maar in spanning af 😉 misschien tot vrijdag dan 👍
zijn het aardig eens 😉 misschien toch nog kipp erbij? zou een goede zijn... vrijdag n ook naar dtd?
oh netjes. is dus echt doorgegaan 👍 aankomen zijn ook goed tot nu toe. het is wachten op de spits, misschien nog een buitenspeler?
wachten het af 😉
weet jij of er al schot zit in de nieuwe spits....
niet waar ik op gehoopt had gerard haha. maar daarom niet minder gefeliciteerd en heel veel succes met je nieuwe uitdaging 👍👍
niet dat henk de jong naar groningen gaat he 😉
kom maar door met de topscoorder
en el makrini terug halen van dat geld
beide als ik goed gelezen heb. .. nu op naar die scorende spits...
ben benieuwd. voorbereiding begint bijna..... hopelijk kunnen ze verrassen met enkele heel goede versterkingen ...
ik ben het met je eens hoor haha. we gaan het mee maken 😉
jouw idee benno of zijn ze hier mee bezig 😉
en wanneer komen echt definitief de versterkingen. ......
akelig stil wat betreft nieuwe spelers voor scc.... heb jij nog een scoop in petto?
hoe lijkt het met de nieuwe spelers gerard? verwacht je 1 dezer dagen nog enkele serieuze aanwinsten?
geen geluid bij de wedstrijd via nos.nl .....
dat was inderdaad te zien bij vitesse. ... zijn in de war met peter bosz zeker.... wanbeleid
on.....ge.....loof.....lijk.....
ok. ... dank voor de info. succes 👍👍💪💪
dhr de graaf. hoe kan het dat van zwam wel weg mag bij de knvb en ze grim aan zijn contract houden...
vraagje.... waarom kan van zwam wel zo maar weg bij de knvb en grim niet....
en wie is de serieuze kandidaat nu in jouw ogen? trainingskamp komt al aardig dichtbij. ..
toch bizar.... andersom had de knvb echt wel doorgepakt... contract voor nog 1 jaar maar toch zijn droomclub af laten zeggen
heeft grim toch zijn contract opgezegd? las via een collega van je dat hij zelf nog een poging ging doen bij de knvb
want?
ik dank voor je reactie 👍 afwachten maar dan... nog een scoopje over nieuwe spelers?
hoi gerard. weet jij iets over het gerucht john de wolf als nieuwe trainer van scc ????
dat scheelt weer vier 😂 maar moet nog aardig wat bij.... en rap !!!!
poot stijf houden geen optie? als grim zelf nou echt graag wil ....
is dit definitief of heeft grim zelf ook nog iets te zeggen waar hij graag wil werken....
waar blijft de nieuwe trainer.... seizoenstart schiet al op... zullen nog mooi wat versterkingen bij moeten...
lijkt me een goede keus. is denk ik ook wel iemand van de discipline, niet zo maar iets doen maar met een bepaalde gedachte....
ik dacht dat er deze week een nieuwe trainer gepresenteerd zou worden.... nog angstvallig stil....
hebben ze hun telefoon alweer aan 😉
hoe komt het dat jullie mono klinken en enorm kraken via internet radio. ... jullie als enige zender 😢
spelers 😉
van veen had ook al zon soort blessure in zijn aller eerste oefenwedstrijd voor cambuur. ..
heb je al enige info over de ernst van de blessures?
moet dat met hoofdletters gerard 😈
veel te laat dat je weer eens in de basis staat maar maak het alsjeblieft waar vanavond. succes 💪💪
tranen van het lachen. blijf nog maar een uurtje geer en goor. fantastisch... en super programma wederom heren. respect !!!!
opstelling waar keizer al veel eerder mee had moeten beginnen. overgoor/monteiro maakt niet zo veel uit
ja dat scheelt achterin behoorlijk in vergelijking met het begin... en dat van veen nog steeds niet begint.... ongelooflijk. ..
morgen winnen en je bent weer een punt los... daarna klaarstomen voor de nacompetitie 💪💪👍👍
on......voor.....stel.....baar....
top wedstrijd zeg. respect. .. volgend seizoen mooi bij feyenoord tekenen 😉😉
onze grootste voetballer ooit is niet meer... rip johan cruijff ........
cabral? een rechtsback?
dacht dat hij juist gehaald was om de productie wat op te schroeven. ...
weer jij hoe het zit met van veen? bevalt hij tot nu toe niet of zijn anderen fitter/scherper op trainen oid ...
wat heeft die sam hunt toch een fantastische stem.... heerlijke radio zo in de ochtend
eens... al heb ik twijfel over de rechtsback positie. ..
onmiddellijk terug halen die man
weet je waarom van veen niet speelt? is de enige die niet twijfelt in en rond de 16 toch. .. al heeft ie nog niet gescoord
geen van veen... de enige die wel eens een bal op goal schiet. ... tsja....
dit beloofd wat voor morgenavond 😉
is je qua trainingsstof iets opgevallen? tactisch, fysieke belasting, aanpak, systeem oid?
moet echt iemand met harde hand komen die de boel wakker schud. strijd, daar begint alles mee en juist dat ontbreekt nu !!!
eeuwig zonde dit.. maar een dapper besluit. denkt dat dit het beste voor de club is... vd vegt ontslaan en henk als nieuwe td
en waar is quincy?
haha prachtig. edwin mag blij zijn met zulke top collegas. ... eeeeeeej 😂😂
lies? las ook ergens hamstring... het zal toch niet....
meen je niet... ernstig?
welkom bij cambuur. dat je maar veel goals mag maken. vanmiddag al toeschouwer en sfeer proeven? 😉
gebroken dus door de klap? verschrikkelijk. .. grote smet op wat normaal een prachtige happening is...
hahaha mooi toch dit. een man die nog echt hart voor de club heeft. zijn club. . op naar 3 punten zondag. ..
bij laten tekenen die man. samen met de rest van de staf
zou dit stiekem voor twaalven al rond zijn geweest???
nieuwe spits?
een mooie versterking maar hopelijk niet de opvolger van mister b ... ik hoop nog op een echte nummer 9
oeh.... had eigenlijk gehoopt dat je zou zeggen dat ze bijna rond zijn met de kogel. ... helaas 😜
leuke versterking maar niet de gedroomde spits... lopen er nog dingen zo ver jij weet? en liefst voor 12 uur uiteraard 😉
onzin in als niet afgeketst nog druk in onderhandeling , of onzin in als er is helemaal geen onderhandeling gaande. ..
verassend... wetende dat b weg gaat maar geen alternatief kunnen presenteren. ..
andere suggesties van jullie kant?
jammer... had ik wel wat gevonden. ..
maar die kan met het geld van b wel opgehaald worden of zou die duurder zijn... misschien heeft ie ook een clausule
hoe zit het met de kogel? is die van de egels of nog van utrecht. ..
fantastisch dat quincy nu mee traint 👍💪 komt er ook nog een directe vervanger voor mister b... liefst speel klaar voor de derby 😉
klinkt leuk maar.... eerst maar eens een fitte scorende spits erbij voor morgen... kan ie zondag vlammen
nou kom maar op met de naam van de nieuwe spits 😉 neem toch dat er een plan b is en hebben ingespeeld op deze situatie...
veel plezier. al iets bekend over een waardig opvolger van b? en wie in de spits vanavond. .. een verassing, dammers?