helaas weer een avond+nacht waarin inbrekers het makkelijker hebben en het verkeer gevaarlijker is i…
na gisteren ook vandaag geen in deel van geef inbrekers geen vrij spel! graag actie…
gijzeling in radiostudios npo 3fm tijdens ochtendshow opvolger giel beelen. zou een alibi hebben? 😉
iemand al gevonden? hij zou toch niet zijn ontslag aan het aanvechten zijn? 😉au sérieux hoop dat…
italiaans jongetje 7 overlijdt aan oorontsteking na homeopathische kuur...
stop massaimmigratie om verzorgingsstaat betaalbaar te houden
hoppa nr 150 voor mooi man!
zou mij niet verbazen als deze kerels niet eens in nederland wonen maar ingevlogen zijn.
wat is een feit? gesjoemel met tellen vd stemmen? welk bewijs is er voor dat feit? zelfs zegt dit niet...
bent u echt zo achterdochtig? alle stemmen zijn 3x nageteld door heel veel mensen...
zucht... echt...? om 21uur was de uitslag van de exitpoll dus nav telefoonenquette onder veel mensen. 1/2
en in de rest van nl?
vandaag heb ik tijdens mijn werk 10min pauze genomen om te beleven wat werklozen meemaken ...
ontevreden kiezers willen naar het malieveld...
als dat zo is is dat vreselijk. hoe komt u hierbij? wat gebeurt er?
ja en de overige 80% schaamt zich bij tijd en wijlen voor de uitlatingen van het enige lid...
bedoel dat er iemand de schuld van zal krijgen dat een gewenste coalitie het niet gaat redden
denk dat de meerderheid van nl die partij graag zou vergeten...
u verwart de staat israël met het joodse volk. als het iets zou zijn is het hoogstens antizionistisch...
en dan vervolgens maar wachten op een fout bij klaver en hoppa de cu erbij nemen...
erdogan verwijt nu merkel nazimethoden
leuk keer te meten, best tevreden. nu zien of ik het kan verbeteren.
deze man is best eng. en het erge, door de censuur van de overige media is dit het enige geluid in
dacht het niet geert
door wie? vara? dwdd? vannieuwkerk? zuurpruim freek?
heeft ze buiten universiteit bestuurlijke ervaring? welke partij zou ze prefereren? d66?
zet die lijn voort geert!
kan dit ook met terugwerkende kracht ingaan...?!
zie eerdere tweets, vanavond belangrijk goed antwoord en visie op en vraagstuk. toon je dé pa…
zie nu wordt als onderbelicht maar door de als belangrijk thema betiteld. nodig
die partijen zouden eigenlijk ook moeten fuseren! zou beide goed doen en zou de ware links lijn van d66 tonen.
hoop dat vanavond goed verhaal over heeft! onverwacht, kan belangrijker blijken dan hoe zien jullie dat?
nog bizar dat 16 zetels zou krijgen... vvd sprint weg van wegzakkende pvv via
zonet deze petitie getekend. bereid je goed voor succes!
en....geblokkeerd. dag.
stoere praat, piet! voel je je nu een grote jongen?
prof barbara baarsma heeft bij daar iets zinnigs op gezegd. zie einde van
geen probleem met positieve discriminatie?
oh okay... nou u verdient een reprimande van twitter juist een er zou beter moeten weten.
goed beargumenteerde ingezonden brief van oud stemmer. beter ten halve gekeerd dan ten hele gedwaald.
nog even verder nadenken en op van stemmen! met alleen maar en
waaruit blijkt meer eu en massa immigratie? immigratie is met 95% afgenomen. eu heeft niet meer macht dan 4 jaar geleden.
als de wil gaan winnen moeten ze nu met aandacht voor en komen.
om maar wat te noemen...
sneue reacties gekregen op tweet over thuis twitterende van zijn fans.
welke realitiet bedoel je? en wat is napegaaien? kom het in het woordenboek niet vinden?
gaat erom dat hij wegloopt voor verantwoordelijkheid en geen haalbare plannen heeft.
hoezo dreigen met geweld? als er iets is wat een wilders fan niet zou moeten doen...
mag je geen kritiek op iemand hebben omdat hij bedreigd wordt?
zit je weer lekker op de bank te twitteren geert...?
in welke pijling heeft u meeste verdusie?
aanrader over hoe het achter de schermen in rdam ging. goed bestuurder en burgervader.
hoezo derde? leider van de 3e partij van nl!
neem aan dat nl meer goede hackers heeft? is het strafbaar op te roepen tot een antwoord? maak ze gek!
als dit gewonden zijn dan mogen deze hun evt nl inleveren en verder thuis in herstellen...
zo die kan de prullenbak in...
erdogan wordt gek van toeterende nederlanders
erdogan hekelt aantal tvschotels bij nederlandse gezinnen
erdogan overweegt nederlanders als gastarbeider naar te halen voor vuile werk
stikte tevens van gloednieuwe cayennes en amgs etc met belgisch en duits kenteken...
niet alles geloven wat je leest, hoef ik jou toch niet uit te leggen was kiezen tussen pest en cholera. mist kwade is gekozen.
overigens hoor ik in verschillende media wel veel over milieu en terecht. maar ik luister dan ook naar 2/2
gaat niet om islam maar om een vreemde mogendheid. milieu is een ander onderwerp. daar gaat het nu niet om. 1/2
om niet onder gesneeuwd te worden door dictator moet je hun respect winnen. overigens, jij wilt geen buitenlandse inmenging, toch?
erdogan kon op korte termijn niet verliezen hierin. harde hand begrijpt en respecteert hij en dan neemt hij je serieus.
erdogan zoekt dit op, hem laten komen is net zoals met putin, niet slim. dit soort mannen respecteert harde en duidelijke lijn.
niet alleen denk ik. ook escalatie wat betreft dubbele paspoort en loyaliteit, ondermijning voor buitenlands regime etc
niet bang zijn maar daadkrachtig en eenduidig reageren op deze provocatie. politie en regering hebben goed opgetreden. toch?
conflicten zijn echter soms ook nodig om verandering teweeg te brengen
niet heen met vakantie, geen handel, niet tegen voetballen. niet zolang en zijn bende regeren
zeg niet dat het goed gaat, zeker niet. gaat mij om beschaafd gedrag én om de redactie.
ja... zucht... je kan ook beschaafd argumenteren zonder vriendelijk te hoeven zijn
gaat niet om u maar om deze mensen op tv
ja. geen zin om het persoonlijk te maken overigens. het gaat om je einddoel en met dit geschreeuw verlies je de sympathie.
onbeschoft gedrag helpt je casus niet. onrealistische eisen ook niet. gestress al helemaal niet. de kraan staat al half dicht.
heb kritiek op het programma. de boze groningers zijn niets opgeschoten. onbeschoft gedrag en onrealistische eisen ten spijt
met teruggezien. boze en werd onbeschoft bejegend, makkelijk scoren.
sinds kort een hond, even een vraagje. hoe doen mensen met bv een baby dit. je partner is van huis en de hond moet uit...
ja hoor, dank voor dit mooie eindresultaat! en dank aan alle twitterende supporters van 020 voor hun lange tenen haha
gelul, afscheid was minstens zo mooi
lekker schelden vanachter je telefoontje egbert? stoere kerel!
lees even na wat je typt...
ik ook in de kuip bij loopt nog wel eens fout af voor de thuisploeg kan ik je vertellen
nu al excuses?
lekker boeiend...
te koop mooie jaren 30 2onder1kap in autoluwe kindvriendelijke wijk in dichtbij
sinds gisteren in de verkoop mooie jaren 30 2onder1kap in autoluwe kindvriendelijke wijk in zeist dichtbij utrecht.
kan niet naar met knalt erin en goede tekst!
hoi femke, dank voor je antwoord. zie bijlage
pakket aangetekend verstuurd nr zweden. volgens track&amptrace is bezorger in zweden al sinds maandag onderweg... zorgen maken?
laten we de weinig afkeurende signalen van jonge moslim allochtonen serieus nemen in plaats van kortzichtig afkeuren! hier zit de kern!
laten we dan met terugwerkende kracht de katholiek kerk ook maar verbieden?
slechte timing maar deze gevoelens heersen onder veel moslims. hier moeten we wat mee. pas op voor tweedeling
staat je goed, zonn kleintje, wouter!
angst trekt angst aan iswilders nog erger is dat het elkaars geloof en mogelijk de mate van acties versterkt.
3+4 juni groot feest in utrecht agm en 70j tafelen zie
tafelaars opgelet 3 en 4 juni groot feest in utrecht agm en 70j tafelen in nederland
gelukt! wat het was, geen idee. heb wel paar keer alles moeten recetten. dank!
vreemde is merk ik nu dat netflix op laptop wel draait. combi met appletv helaas niet. youtube wel hierop.
zie foto melding dat netflix niet opstart
al geruime tijd omgeving utrecht. is dit een bekend probleem? oplossing in zicht?
storing ? of wordt na en nu heel netflix ontslagen?
arm dier! kat loopt botbreuk op door kogel €500 voor gouden tip
omg en door ontslagen! goede arbeidsrecht advocaat nodig wie belt mr grapperhaus van allenenovery?
hier nu ook paniek! zowel sam als ook bob binnenkort zonder baan! wie zag dit nou aankomen? soort massaontslag?!
omg en door met vervroegd pensioen gestuurd! hier in huis staken er inmiddels ook twee 2&amp4jr!
omg en door met vervroegd pensioen gestuurd! reorganisatie? niets over op bnr en fd gehoord?
omg en door met vervroegd pensioen gestuurd! reorganisatie? wat zullen aandelen nflx gaan doen?
in de kuip heb ik afgelopen 25jr niet meer racisme gehoord dan bij bv. az, sparta of welke club dan ook!
klopt, leuke brede selectie.
rond 9u hmp 99.5 richting zwarte gevaarlijk rijgedrag. minstens 1 auto raakt beschadigd. gezocht graag rt
gezocht. wie zag vanochtend een zwarte audi meerdere autos afsnijden waarop er 1 in de berm is beland? hmp99.5 graag rt
vanavond spreek ik met collega over en belicht hierover de achtergrond en kliniek
falende integratie of gezond behoud van eigen identiteit?
synergie van wijn en spijs, genieten! thuis
terechte reactie vanderkolk op column
voelt ieder jaar weer als thuiskomen. beste veterinaire congres van het continent! stream
laatste hand aan mijn presentaties voor en aan het leggen. zin in volgen en geven van de lezingen.
gezellig op de teaparty?
ja, dank voor reactie. was wel spannend in een pikdonker zwembad te zijn haha
zat weer half leeg vandaag. waarom dan 49.723 toeschouwers opgeven?
helaas is de stroom weer werkende...
stroomstoring in duurt nog wel uren volgens dat wordt een mooie fles wijn van het huis bij het diner...
stembrevet dat je kwijt raakt als je bv 3x niet stemt en dat je op je 18e moet verdienen na afleggen klein tentamen algemene ontwikkeling.
geen gelul, kiesdrempel omhoog en stembrevet ipv stemrecht
ingehuurd door
soms is het niet wat het lijkt. ?
goed om in het achterhoofd te houden bij het bepalen van uw prijzen.
geslaagde verbandleer workshop deel i zit er op. de patiënten zien er goed uit!
geef vandaag aantal workshops op dag. zie
weet iemand de afkoopsom van het contract van voorlopig bevestigt hij mn voorgevoel. geen team, geen scherpte, geen gogme
nog iemand opgevallen dat 3 wel heel erg op lijkt? niet allen camera en licht maar ook verhaallijnen... jammer, vond 1+2 top.
okay, maar euthanasieeuvrede is een redenering die boven mijn pet gaat...
slok op? “@metaalarbeider euthanasiespreekuur. is dat een synoniem voor een bijeenkomst van d66? immers, euthanasieeuvrede.”
... brengen meer op als... ?
nee zodoende zou het heel jammer zijn als we speciaal hiervoor eerder moeten komen. zou dit niet anders kunnen?
lengte 87cm, doorsnede 7,5cm
dank voor antwoord. koker zie foto bevat opgerolde a0 poster voor congres. kan dit meer als handbagage?
kan ik kostenloos een koker met posters meenemen als extra stuk handbagage? afmeting is a0 formaat. hartelijke dank!
je zou maar met je lamme kop 51 voor hebben ingevuld bij de bookie... schijnt dat ene meneer wong uit shanghai dit gedaan heeft...
is geopend! kijk uit naar een leerzaam congres en mag zelf ook 3 lezingen geven.
zelfvertrouwen, concentratie en 100% inzet en niets minder! succes mannen!
interessante ochtend met lezingen voor en door specialisten in opleiding chirurgie voor gezelschapsdieren.
klopt. ben bang dat er bij geen screening door plaatsvindt van de te gebruiken afbeeldingen?
endocrinoloog hans kooistra ukg spreekt over ziekte en syndroom van verhelderende stellingen.
leuke mooi geïllustreerde lezing van mijn collega kim gerritsen decvdi over van abdomen
bijscholing voor gevarieerd programma. beginnen met lezing over gebruik.
met oude jeugdheld op de foto.
wat leuk!
verplichte literatuur voor alle kennis van en kan hen helpen mensen te genezen.
janmaat kwam lomp in maar was dat nou een penalty? boukhari dom bezig inderdaad.
duidelijk moment van bezinning. besef hoe goed we het nu hebben. dankbaar voor de inzet van de veteranen en het verzet.
nog naar geweest? hadden tim puddle en eric garcía als sprekers over marketing en communicatie incl soc. media
ben benieuwd. is zeker vraag naar. hebben jullie voldoende veterinaire input?
zit leuke interactieve lezing van ej de boer voor over verschillen tussen diersoorten.
bedoel dat eigenaren kritisch meedenken en dierenartsen en mate van zorg vergelijken. niet dat kwaliteit darts laag zou zijn!
en hoe zit het met de en overige zien we jullie ook allemaal
komen alle dierenartsen ook naar bijscholing hoog in vaandel? hopelijk tot dan!
komen alle dierenartsen ook naar bijscholing hoog in vaandel? hopelijk tot dan!
komen alle dierenartsen ook naar bijscholing hoog in vaandel? hopelijk tot dan!
komen alle dierenartsen ook naar bijscholing hoog in vaandel? hopelijk tot dan!
komen alle dierenartsen ook naar bijscholing hoog in vaandel? hopelijk tot dan!
komen alle dierenartsen ook naar bijscholing hoog in vaandel? hopelijk tot dan!
geïnteresseerd in de research award, en student en clinical cases award biedt u dit!
persoonlijk kijk ik vooral uit naar lezingen over en welke onderwerpen v/d gaat u volgen?
men is steeds kritischer over kwaliteit zorg dus dat u u onderscheidt en houdt uw kennis en kunde uptodate
geef u nu op voor meet the specialist met dr kooistra door antwoord op dit bericht. voor al uw endocrinologische vragen.
succes gozer. geniet vooral ook. heb het zelf als erg leuk ervaren!
volgens mij is de nou typisch zon wedstrijd waar alleen de winnaar telt...?
heeft u na lezen glossy vragen? schroom niet en laat het ons weten. voor companion animal program ben ik aanspreekpunt
het nederlands 11tal dus...
bij tvd van de de glossy van de veel leesplezier. u komt toch ook? 1820 april
drs zwingenberger en boroffka geven drylab interpretatie röntgenfotos thorax en abdomen op inschrijven via registratie.
eu steun gemeente aan psv was ongeoorloofd. benieuwd wat de gevolgen zijn als ze geen cl halen?
gelijk misschien wel maar slim om te zeggen? nee. mensen zullen spaartegoed gaan opnemen in bv spanje.
laatste vergadering voor tijd om puntjes op de i te zetten. programmas
mea culpa...
daarbij is mycobacterium bovis een potentiële zoonose. meer weten over zoonoses? kom naar voor symposium.
daar gaat het 6 weken na de operatie heel erg goed mee. neurologische klachten verdwenen! 2/2
benieuwd hoe het met de patiënt gaat met schedelfraktuur? 1/2
klopt. dus als je concurrent dommer en onhandiger wordt hoef je je als dierenarts niet bij te scholen, dan wordt je vanzelf de beste
als je concurrentie wel vooruitkomt is stilstand relatieve achteruitgang. bedrijfskundige
breedste en grootste bijscholingsprogramma voor in europa op bsava na de u komt toch ook? 1820 april
stilstand is achteruitgang. dus school u bij en investeer opdat u sterker de crisis uitkomt. zie het programma van de online
buiten is het koud en guur. mooi moment om binnen met een kop thee je aan te melden voor de zie
oa dermatologie, radiologie, orthopedie, endocrinologie, neurologie, management, oncologie, spoed, chirurgie zie website
in klein gezelschap vragen stellen en discussiëren met hans kooistra? meet the specialist sessies 20/4
precies en na tel contact bleek dat mijn vrouw en ik een gehele aangifte moeten doen om hypotheekrenteaftrek stop te zetten.
wijziging snap ik na verkoop huis maar waarom gehele voorlopige belastingaangifte over 2013? veel werk om iets stop te zetten?
waarom moet ik aangifte 2013 doen om hypotheekrenteaftrek stop te zetten na verkoop huis? wat is de link hiertussen?
huis verkocht en wil stopzetten. moet hiervoor een gehele over 2013 invullen.
kuipers doet aan einde het licht uit als afsluiter. ook spreekt hij op symposium.
met collegas promotie voor aan het maken bij carrièrebeurs van
nieuwe cd van is genieten. gewoon lekkere muziek. helaas treden zij niet op tijdens de wie wel? verrassing...
bij lastig? management een uitdaging? dr langleyhobbs uk laat u zien hoe het moet tijdens
nieuwe cd van is genieten. gewoon lekkere muziek. helaas treden zij niet op tijdens het wie wel? verrassing...
wie kan u beter bijpraten over dan hans kooistra? juist, niemand, dus komt hans. registreer nu!
maakt u optimaal gebruik van website en social media? geeft u praktische tips tijdens 1820april
soms is het ook wel lekker om met geluk, kunst en vliegwerk hard bevochten te winnen! zet hem op pec zwolle!
zaterdag 20 april dag lang zeer praktische how and when to lezingen van verschillende specialisten achter elkaar in 1 zaal
susan hackner usa uit davis is onze critical care spreker. ze weet als geen ander hoe intensieve zorg verleent moet worden
2/2 zorg patiënten. heeft u zich al ingeschreven voor de hoezo niet? wilt u meer informatie? zo ja waarover?
1/2 voeding heeft onmisbare functie in dr bjornvad spreekt over voeding bij dermatologische, orthopedische en intensieve...
zowel tandheelkunde van honden en katten als van konijnen en cavias komt aan bod tijdens aankomende
hans kooistra s lezingen over oa hyperthyreoïdie en cushing en ook 2 meet the specialist sessies.
interesse in bij en dr verbruggen praat u in april helemaal bij tijdens
europese toporthopeed voor gezelschapsdieren spreekt op aankomende sorrel langleyhobbs uk. 1820 april
van reptielen tot van social media tot endocrinologie. voor ervaren dierenartsen tot coschappers voor ieder wat wils!
je kan het zo gek niet bedenken of het komt aan bod tijdens de 2013. check onze website en kom ook!
hoi
spreker praat niet over voer maar over management en marketing. zodoende vind ik sponsoring niet onethisch. jij wel?
gesponsord door gerenommeerde management spreker tim puddle zal op 18 april dag spreken op de
gefeliciteerd!
veel management, social media en communicatie lezingen tijdens 1820/4 zowel als tim puddle spreken.
dr radlinsky usa spreekt tijdens over kno, oncologische chirurgie, laparoscopie en spoedchirurgie. practische lezingen van topchirurg
aankomende 1820/4 zal er weer gestreden worden om de student award en royal canin clinical cases award
interessant voor iedereen mijn collega tryfonidou over bij en zie
herstel het staat met mega veel geluk 01.
beeld is bij mij zo schokkerig? door sneeuw en springen fans of verbinding?
beeld bij jullie ook zo schokkerig? door sneeuw en springen fans?
slecht nieuws voor de pvda, kabinet en voor nederland. pvda sterks terug bij af zien pvda wil linksere koers
dank voor jullie opmerkzaamheid. app wordt snel aangepast. kijk voor bijgewerkt programma op site.
waarom korting? neem aan dagende service onveranderd goed of zelfs beter is?
heeft u toevallig ook meegekregen dat marianne vos gister voor de 6e maal wereldkampioen is geworden...?
workup en operatieverslag past niet goed in tweet. hond was gebeten, is nu blind, gaat terug naar ic en bo aangevraagd.
intraoperatieve opname van gat in schedel.
7 kleine en grotere schedelfragmenten uit hersenen verwijderd. nu moet natuur de rest doen.
op okprogramma hond die door bijtincident schedelfraktuur heeft.
trotse paranimf van luc smolders. derde promovendus in reeks veterinaire wervelkolom onderzoekers.
heeft een vernieuwde website! bezoek en bekijk de programmas. u komt toch ook?
die gaat steeds beter lijken
en bedankt verjaardagsfeestje voor mijn vrouw geb 274 organiseren zal nooit meer zo makkelijk worden.
jaja, laat eerst maar eens een rood scherm zien. anders is ze volgende week opeens weer terug.
twijfelt aan bestaan afscheidsbrief
ironie? “@jochemmyjer wat een grappige oudejaarsconference op ned1 van oa ! snel, grappig en van niveau! heerlijk!”
strategie voor aanschaf nieuw huis bedenken doe je met inspiratie van
wat een goed nieuws van harte! maak er wat van de aankomende jaren. je hebt het verdiend.
het verschil tijdens zat hem in 20cm... maw hoop dat mulder snel terug komt.
hé doet ook mee! dag nog spannend laatste kwartier? ben bang dat het, onverdiend, 12 blijft.
maar is het enorm gewild zijn voldoende?
vanavond weer vergadering. belooft weer een leerzaam en leuk congres te worden 1820 april 2013 inschrijven binnenkort!
te koop se met transportkoffer nu eur 300, goed bruikbaar voor dierenartsenpraktijk.
dag 1 van cursus bracht ook ervaren orthopeden aan het zuchten en kreunen. disease
morgen oa ivm bij een jonge cane corso. dankbare ingreep met doorgaans goede resultaten. nu aan voorbereiden.
vandaag bij katje uitgevoerd. helaas wilden eigenaren uitgebreide fracturen niet laten behandelen.
kijk uit naar cursus van aankomend weekend. ben benieuwd naar verschillen met techniek.
dank!
dank je. jij veel sterkte! hoop dat je snel herstelt.
dk de graafschap verkoopt nieuw middel of af te vallen?
laatste tijd meerdere honden geopereerd aan kaakfraktuur na trap van paard. niet alle paarden houden van honden...
nog paar dagen de tijd om mijn promotie voor te bereiden. 11 oktober is het hora est.
vandaag operatie aan fractuur onderpoot konijn, lastig want erg dunne botjes. toch mooi resultaat. bij
teleurgesteld in werk scheidsrechter bij penalty gemist en geeft geen geel waar nodig. belangrijker, feyenoord valt nog meer tegen.
nog klein aantal plaatsen beschikbaar voor symposium op 111012 voor artsen en dierenartsen zie
snap dat de keuzes graag realistisch wil houden. ontbreekt toch ook als optie? beide ongeschikt
de twee aanwinsten, manu, anachbar. op dit moment is vrijwel iedereen beter. cissé en fernandez zijn zonder dreiging en scherpte.
leerdam bedankt.
hoop dat de heren cissé, fernandez en eigenlijk ook hun laatste basisplaats hebben gehad vandaag. geen deuk in pakje boter.
gaat om inkomen niet om de tarieven. en, 200, incl narcose, ingreep en avond/nacht spoedconsult is normaal.
bij aantal spelers vitesse bv ontbreekt niet alleen sponsor maar ook clublogo op de shirts. onprofessioneel.
2013 van 1820 april. ook dit jaar veel inter &amp nationale topsprekers over tal van specialismen
zou fijn zijn als ze als politica de socioeconomische positie van de dierenartsen zou verbeteren.
mijn grootste onzekerheid hierover is of bij ons wél opeens gaat scoren. afgelopen jaren te weinig gedaan.
haha tsja... en dan hebben we nu de niet scorende spits erbij... ben bang dat die niet europees aan de bak gaat hoeven.
ja, voorbij ben ik bang.
is dit alweer het einde van europees voetbal voor mijn cluppie?
poli orthopedie/neurochirurgie op belooft weer interessant te worden. met voorbereiding bezig en gelijk ook even feyenoord kijken.
is het gebrek aan vorm of talent? ik erger me al tijden aan cissé. ik ben bang dat hij echt niet beter kan.
gelezen op gers pardoel over uitspraak badr uit context getrokken tsja... passie voor zware mishandeling...
en falen maar nog niet zo erg als de aanstekergooiers. wat een sukkels.
dank! weet jij al of je ook een ecvs residency kan gaan doen? hoop het voor je! tot 11 oktober.
dank! kom je, gezien je interesse in orthopedie, 1110 naar het spine symposium? leuke sprekers uit med en vet wereld.
tijdens symposium aandacht voor zie
morgen begint mijn residency met 6 mnd werken bij en van de ontzettend veel zin in!
politiehelikopter hangt bijna stil boven ben benieuwd waarom? wie weet er meer?
dierenartsen kijk op site van voor mooi en duidelijk overzicht van alle veterinaire nascholing in nederland.
quote van beveiliger in ach vanavond wordt rellen of feest en rellen is voor mij ook feest.. professioneel gedrag?
zet hem op gozer. hoop dat je je zinnen beetje kan verzetten. iig morgen even geen probleem lijkt me.
ben bang dat déze dsk geen idee heeft waar je het over hebt... de franse dsk ook niet trouwens
zo, versie voor leescommissie van ligt bij drukker. het loslaten is begonnen. 11 oktober verdediging en spine symposium.
opmerkelijk dat een jongen die acties e.d. telt meteen tot wetenschapper bombardeert. statistiek en logica is ook nodig.
moet ook niet 12 uur puur onderwijs zijn. maar de 7 uur van nu is te kort. grote behoefte voor langere schooldag
groenlinks kind van 7 tot 7 op school ik hoop dat oa de en dit ook oppikken. goed plan!
als oud speler van f6, f1, e1, d2, d1, c1, b1 en a1 kan ik alleen maar beamen dat het mooi voetballen is in
en wil je hierna nog meer weten? op aanstaande zal uitgebreide aandacht zijn voor social media
al één wachtende? dus jochem is er al?
heb er toch wat moeite mee overreden kat omgetoverd tot vliegende helikopter
gefeliciteerd!. hoop op een feyenoordclausule?! en weet wel dat over drie jaar een terugkeer naar rdam te laat kan zijn...
dank voor felicitaties. hoop jullie 111012 te mogen verwelkomen!
vandaag naar promotie leidse vriend geweest. sterkte verdediging van dik cardiologie proefschrift. zenuwen voor eigen verdediging 111012
yes! zonet zijn twee artikels bij the veterinary journal geaccepteerd! beschrijft ons werk mbt discus degeneratie bij honden. zeer trots op!
genoten van de ons dakterras is te koop oh en ook zie
maar vergeet het verschil in kiesdrempel niet! neem je dat mee dan kom je in nl met veel minder draagvlak wel in de tk.
op 111012 op fac dgk spine symposium zie ook diagn beeldvorming komt aan bod! kom je ook?
help!!! nee!!!! samsom wil premier worden en regeren met de sp...
waarom worden deze mensen zo anders behandeld? zie gemeente utrecht bood romafamilie 13 keer woonruimte aan
komt mooi uit om aandacht van misstanden in bestuur af te leiden?!
en wat vind je ervan dat studenten langstudeerboete krijgen omdat hun studie twee jaar langer duurt?