ik moest vanochtend krabben... de auto ramen!
als ik ga knippen dan gaat het niet goed komen hoor...😂
haha nee ik moet dan mijn haren laten knippen... 😂
ik drink geen koffie...
zie hier... de hele dag nog wel!
eens!
snijbonen
boor van de tandarts brrr
hiep... hiep... hartelijk gefeliciteerd met je verjaardag!
...zo dat lucht lekker op!😂
dat is knap...!
slimmert
betaal jij het eten en de reis?
nope 21
kan je nog een stukje 2de helft meepikken!
when you in de rust even snel naar buiten wil gaan... maar t gaat gewoon hagelen!
erg hè... kruimels overal, omelet kan je niet goed snijden... glas sinaasappelsap pleurt bijna om... zucht!
ik gebruik dat ook bijna niet...🙋‍♀️
het is nog vroeg hoor mensen!
kan kloppen... ik moet nog douchen😂
...maar hoe dan!?
mornin
0736u stopte bij de delta in poortugaal
dan zou ik eerst even de plantenhal proberen... hebben ze het daar niet dan kan je altijd nog naar de intratuin.
yep het zijn echt buren. er zit 100 meter tussen...
maarrrr... intratuin zit er naast! hebben ze deze niet in de plantenhal dan kan je de intratuin proberen.
ik kom er bijna wekelijks voor bloemen, heel betaalbaar! nadeel ze hebben geen vast assortiment. ik wee…
oké... grappig wat een toeval!
plantenhal in rhoon misschien?
hieroooo
kip tandori en rijst... en ik maak groentesoep voor morgen!
donker staat je super!
ik ga koken met deze op volume 28... en dat is best hard mensen...
komt mij bekend voor...🤔
ik wens jullie een verdomd goede morgen allemaal!
de warme bakkert roept!
goede morgen lekker geslapen?
ik weet het niet hoor....🤔
uiteraardt!
lasagne staat in de oven...
top, gaat goed komen!
net even gegoogled en ja... dat is m! bedankt!
oh ja... daar had ik nog niet eens aan gedacht!
ik dacht al zoiets... ik zet hem dan maar in de slaapkamer naast mn bed! 😂
ik kocht deze plant maar er zat geen kaartje bij... weet iemand hoe deze heet en of ie veel water/licht nodig heeft?
lekkert!
whoop whoop! lijkt verdorie wel of je jarig bent ofzow... hahaha!
pepertje!
ja taart vandaag!
wow... fanmail!
hartelijk gefeliciteerd met je verjaardag!
gelukkig wel... alleen nog inruimen
eens... maar tadaaaa!
kleine kastjes vind ik ook nog wel geinig om te doen... maarruh... als je je verveelt...😉
wat een ellende
weeeeekend!
goede morgen gespuis!
het is te vroeg!
nou inderdaad!
helft gemist... wamt half wakker...
net terug van een etentje met vrienden 👌...maar waar was jij? heb je de uitnodiging niet gehad?
jaja aan het uitbuiken!
nee dat is zooooo 2016!
nee... over 3 kwartier ga ik onderweg!
winterslaap
plankton is zo stoned als een garnaal...😂
sudoku voor gevorderden!
stamppot andijvie!
0706 poortugaal
vanochtend al gestreken... ik was een beetje vroeg vandaag...
ik geloof in chocola... ik word daar heel gelukkig van.
speciaal!
nou inderdaad.... fck off!
ik merk niks van dat uurtje terug... jullie? ik ga nu lunchen! 🤗
dat is een compliment... toch?
😂😂😂 ik ook!
😂
klopt!
....maar eigenlijk is het nu 0731u!
dat is het waard!
of ik net een hele reep tonys karamel zeezout op heb? zou zomaar kunnen...
gelukkig niet!
deze is voor beginners...
iets aardigs
klopt
ik wil nasi! ik ga het verdomme maken ook!
zwaardert!
ieder zn ding!
ballenbak!
zondagochtend.... is nog erger!😁
jij mag dat!
nog van harte
klopt!
eens! erger dan de hel!
ik ben verdwaald....
zaterdag in de ikea is.... maak de zin maar af...
dan kan je mij wegrollen...
amandelbroodje, puddingbroodje, koffiebroodje...? keuze is reuze pfff
wat zal ik eens nemen bij de warme bakkert?
daar heb ik geen alcohol voor nodig hoor schat! 😉😂
uren geleden al...
lauwe bami... moet heet gegeten worden!
voor wat hoort wat....
bijna...
de ah ovenschalen!
cheers!
1tje mag... 😂
jij wel... ik alleen het bier van de zaak! 😉
...ook! 😂
een enge!
hamburgers met bier!
ik zie ze hier dagelijks hoor... koeienesten!
...maar dat kan je de rest niet wijsmaken... 😁
dat gaat na 1800u worden!
kliekje van gister..
eens!
opsluiten!
goede morgen schatjes!
schrik me de pleures!
was dat het?
quiche lorraine staat in de oven!
poortugaal... bij de rotonde 3de afslag 😂
de buurjongen/man mag vanmiddag uit het ziekenhuis... of we zijn huis versierd hebben als hij terugkomt? oké!…
eens!
alleen die küdt spierpijn!
levensgevaarlijk voor je creditcard!
0713u poortugaal
zuurkool bij die mamma gegeten!
gekookte witlof 😝
mijn alibi is in slaap gevallen...
oh mooooooi, ik ben fan van zwart wit. ben benieuwd naar het eindresultaat!
altijd!
gaat het een zwart/witte worden of met kleur?
vanavond finale van
ach ja... ik ben een optimist! ik blijf altijd hoop houden...😁😂
gelukkig hebben we vanavond de finale van nog...
als jullie mij zoeken... ik ga even in een hoekje zitten lopen te huilen... doei!
deze heb ik ook in mn la liggen
goede analyse😂 kommie uit rotterdam? ken je dat niet horen dan?
daar was ik nooit opgekomen😂
bankhangen is ook topsport...!
luiheid is een gave!
top, dan mogen we naar de speciale kamer!😂
ik mag toch geen bezoek ontvangen hier in de delta....😂
ik voel een tweetup aankomen😂
ben ik ook.... op zn tijd!😂
hahaha 😂😂😂 eens!
0929u zoefde hij voorbij!
we zijn ontsnapt! we hadden nog 2 minuten op de klok... phew
ik durf niet meer mensen...! 😂😂😂
ja volgens mij wel! ik wil zeker ook een keer naar de ssrotterdam om te kijken hoe ver ik kom.
ze waren nog niet eens op de helft en toen was de tijd al om! 😂
thanks... ik hoorde van collega dat ssrotterdam wel leuk was locatie maar heel erg moeilijk!
omg🤤 tijdens het scrollen heb ik schijnbaar met mn dikke vingers gestemd ? als ik ja heb gestemd bedoel ik uiteraard nee!
zou de warme bakkert al open zijn?
wat ben jij vroeg btw...?
...dat is juist het probleem...😂
ik laat me morgen opsluiten in zon escape room... dus als jullie mij gaan missen
hahaha ik denk echt dat heel mn rug dan onder zit... 😂😂😂 proest
thanks voor de tip!
3/4 weken... miss krijg ik het nooit!
of ik net aliexpress zooi heb besteld? ...zou kunnen...
gefeliciteerd!
hihi... volgens mij wel gelukt! soep is voor komend weekend!
volgens mij smaakt ie wel goed!soep is voor komend weekend!
over het eerste woord zijn we het bijna allemaal wel eens... volgens mij 😂
zout /peper etc kan er altijd bij zodra de soep gegeten gaat worden. ben bang dat ie anders weer te zout…
ik denk het wel... net beetje geproefd maar beetje flauw. ik heb er een maggi blokje bij gedaan, moet goed komen.
ik ga voor het eerst in mijn leven verse groentesoep maken... wish me luck!
boodschappen inruimen...
when you have a vrije dag, maar je al voor 0700u wakkert bent...
wie wekt even?
maar je heb er wel van genoten! 😂
daar doen we het voor! \o/
het is dus egypte geworden! weet je wat je daar ook veel hebt... egyptenaren, het stikt er van de egyptenaren! 😂 have fun!
ligt er aan welke... aardbevingen liever niet. maar een goede storm kan ik wel waarderen... en zon r…
jeeee einduluk!
mornin!
zucht, ook dat nog... zet emmer onder lekkende
ik vind dat toch wel een mooi prijssie voor een waterkokert 😂
er wordt hier lekker voor mij gekookt mensen!
fotos maken?
tis weer zondag zeker?
beetje jammer dit...
oh ruk! waar ben je deze kwijt geraakt denk je? kan misschien helpen?
ow in dat geval... 27 dec staat genoteerd! 😁👍
aangezien dexter er af heeft gehaald... gaat ik vanavond lekker oldskool dvd kijken!
ooow ik maak weinig kans... ik heb je pas net ontdekt! 😂
yes ook maar direct aangezet... was voor mij ook nieuw!
dubbele bodem!
ik ook... was in de bonus 😂
jarig? gefeliciteerd! de postbode is laat vandaag maar ik zal de uitnodiging vanmiddag wel in de br…
waar ik blijf...?
...dit zal zeker niet de laatste zijn...
hadden ze geen lauwe bami?
klopt iedereen moet elkaar voorrang verlenen... dus met oogcontact en gebaren moet je…
hij heeft de vaart er wel in!
eens!
de keuze was reuze!😂
snap ik... maar dan komt hij er wel makkelijk vanaf!
ach ja... geld moet rollen!
puzzelen is goedkoper 😂
ooow, nee. is volgens mij wel een dure hobby!
ik heb dees... maar die gebruik ik alleen in de winter.
lol met die mamma... zijn dat dingen voor op je nachtkastje te zetten?
viel mee... alleen tandsteen!
gelukkig niet zeg!
tandstenen hele grote... rotsen! 😂
viel mee... mag me over een halfjaar weer melden.
onderweg naar captain hook
busje haarlak of deo in je gezicht gespoten krijgen kan ook heul vervelend zijn.
oh... ik vind het een goed gelukte amateur foto. alleen had ik hem ook meer in het midden van het trappenhuis gemaakt.
schrijf je in bij flickr
bruine bonen!
fijne verkanzie!
die roomkaas met ananas en perzik van de hè... ik vind die zalig!
intratuin rhoon/ staelduinsebos in vlaardingen
aanwezig zijn...!
was vast een test
integendeel!
beter kon ik het niet omschrijven...😂
grieks zorba de griekspijkcity
het ziet er uit als het prutje uit het doucheputje maar het smaakt wel lekker
0704 poortugaal
eens... en vrijdag eigenlijk ook niet meetellen, want dan is het eigenlijk al weekend, nog 2 dus!
...ik ben de tel kwijt! 😂
waar gaat de reis heen?
bijnaaaa nog maar 4 dagen!
mijn weekendverlof is weer over...
ik ben zojuist weer opgenomen 😁
tot morgen... doen jullie het licht uit? bye
schitterende paleizen en kastelen... en het is er zoooo groen!
sintra
lauwe?
1719 poortugaal, op tijd terug voor het avondeten!
bedankt jij ook ...en alvast de beste wensen voor het nieuwe jaar!
geef mij ook maar zon pilletje!
ik zie dingen...
ik hou van grof en pittig...!
weerbericht hele dag regen en af en toe een bui!
ontbijtje op bed...
lekker hoor!😂
ja inderdaad. jij en ik... dat zijn er al 2!😂
...om bij weg te dromen.. &lt3
meestal hebben/krijgen ze een vast plekje waar ze keutelen... 😂
ehm... volgens mij is je haar juist weggewaaid!? 😂
haha daar ben ik het helemaal mee eens.... 😂😂😂
welkom!
zoiets...!
haha bij mij eerder code rood 😂 dankjewel!
ik blijf nu ook lekker binnen!
hoelaat ploppen ?
is het zo erg?
ja... nu je het zegt! inderdaad! 😂
thanks... ik had weinig keus, de wind wint! 😂
dames en heren, jongens en meisjes... ik presenteer u, coupe
eigenlijk hè... kijk ik alleen maar om die barman...
okeee.... demy &amp mishel wtf ze hebben in ieder geval goede wenkbrauwen... ofzow.
dat vind arie ook...!
katwijkse arie mot lekker gaan daten met een pijpvis! sjezus!
ssssttttt terugkijken, niet storen!
het was te proberen... 😂
poortugaal storm...
geen idee... maar ik denk dat het een mannetje is 😂😂😂
moeilijk... moeilijk... moeilijk...
ook nu... heb ik geen idee! 😂
een rode!
goede morgen en fijne
uiteraard!
ben al gek genoeg! 😂
nee bij 10x vooraan staan...
bij de 10de keer krijg je een kadobon twv €10,
ik wacht op je.... 😂
straks weer naar mijn knappe kapstert... ben benieuwd welke kleur mijn haar nu weer gaat worre... keep you posted!
uiteraard! mjomjom
pleurt ze in je bek dan!
neem!
jaaaaaaa de nieuwe dan brown is uit!!!!
0707 poortugaal
ik heb zin om je te zien middel is je adres van die ook nog eens kijken wat een beetje liggen en je dat n…
wel gehoord maar niet gezien...
😂😂😂 zou zomaar kunnen!
ik hou wel van die crunchy dingen... 😂
bijna hetzelfde, ik had er alleen een glas melk bij...
yep, ik vond m ook hilarisch!😂
ik zit aan de thee!
lekker hoor chinees.... 😂😂😂
ze zeggen het!
eens... maar wel net zo duur! 😂
😂😂😂 is dat niet elke dag... als de wekker af gaat?
goed bezig geweest dus! hier gaat het ook redelijk goed... voor een maandag😂
jaja... ik ben nog oldskool ik stuur nog weleens een kaartje!
... zo na een lang weekend viel het niet tegen...!
tot nu toe... ?