eens. goed om te zien dat deze debuterende scheidsrechter 29 deze kaart zonder twijfel trekt. er is hoop!…
feyenoord morgen naar den haag. zin in deze wedstrijd van de ommekeer. goed gevoel gebaseerd op niets.
het statement is nog lachwekkender dan de kaart. noem me ons? naïef, maar dit kan niet waar zijn. echt, gelul.
sterkte!
hopen dat shakhtar wint van napoli. dan is 20 winst tegen napoli thuis genoeg. ik heb gekkere dingen m…
20 winnen van napoli thuis kan genoeg zijn voor 3e plaats.
city wint van napoli feyenoord kan gek genoeg nog steeds derde worden.
onderling resultaat weegt zwaarder dan doelsaldo. feyenoord kan in de thuiswedstrijd tegen napoli bij 20 winst 3e worden.
city komt op voorsprong tegen napoli. derde plaats blijft mogelijk voor feyenoord.
jones, bedankt voor een prachtig jaar maar nu is t klaar. zondag vermeer. niet voor niets de nr 1.
ja, speel m recht in zn voeten. klojo.
het was een geweldige minuut.
elke paar minuten weer zon arrogant mislukt passje. walgelijk. roda moet dit afstraffen.
het enige wat écht vervelend is kijken naar deze ploeg. thats what matters.
hele timeline vol klote excuses vervelend veld, vervelende scheidsrechter, vervelende tegenstander, vervelende kleur broekjes...
het is wéér niet om aan te gluren. wat een ongelooflijk lachwekkend niveautje van de landskampioen.
lekker die andere dingen blijven doen.
volop kansen, balbezit en overwicht voor feyenoord. en toch lijken alle ingrediënten voor een kloteavond aanwezig. zo laks, zo lamlendig....
alweer zon wedstrijd waarin feyenoord welgeteld 10 minuten goed speelde. kampioen onwaardig.
vilhena postbodevoetballer. komt de bal te vaak brengen. vertraagt het spel.
deze crosspass van berghuis op larsson zien we waarschijnlijk nooit ergens terug. maar oh, wat was ie prachtig.…
dwars door t centrum dribbelen. ongelooflijk slecht van amrabat.
zo kon t ook nieuwkoop en larsson goed in vorm i.t.t. diks en boëtius. amrabat met hulp van el ahmadi centraal naa…
kracht van botteghin wordt nu extra gemist. maar ik verwacht dat rentree van jørgensen belangrijker is dan de defensieve puzzel. 21
ook ik zet mn vraagtekens bij deze opstelling, maar het vertrouwen in gio is groot.
en nu maar hopen dat diks niet nog even wat motivatie probeert te tanken door zn twitter te openen in de kleedkamer.
allemachtig wat een verhaal zeg.. en wat een avontuur met hoge pieken en diepe dalen. knap da…
drie vallende sterren in een paar minuten. awesome!
matchday!
een maand gestopt! van 30 sigaretten per dag naar 0 bevalt prima. nooit meer die troep voor mij 💪😊
niet mee eens
ondanks de uitslag een goede wedstrijd. 12
tranen met kuyten.
ik doe met je mee. cheers 🍷
van harte gefeliciteerd!
veel fietsers némen voorrang. fietsen te snel en zonder te kijken voorbij dat gevaar…
met bij canto ostinato door bij vlagen erg mooi, echter de kracht van minimale muziek zit hem…
voorrang moet je krijgen, niet nemen.
omdat uit het aantal incidenten blijkt dat het kruispunt er niet geschikt voor is. fietsers…
ja natuurlijk.
moet er echt eerst een dode vallen voordat de voorrangsregels mbt de fietssnelweg weer worden teruggedraaid,…
aanrijding nummer zoveel. groningen draaft door met antiauto beleid in stad.
duitsland 10 gespeeld 30 punten 43 voor, 4 tegen
t is na 2 minuten al duidelijk gaat er een potje zomeravondvoetbal van maken. groot gelijk, het leed is al geschied.
feyenoorders volgen. ook middenin de nacht, want tapia staat tegenover messi in
je motiverende tweets zijn zo waardevol... echt. dank
dag 15. als inmiddels exroker vallen bepaalde situaties me op. hoeveel van dit soort stukjes zullen er wel niet…
absurd. bij de wedstrijd met het mooiste eredivisie affiche vh jaar hoort de beste scheidsrechter.
waarom niet? de aanstellingen zijn nog niet bekend toch?
niet alleen was vanmiddag in topvorm. scheidsrechter bewees weer eens de allerbeste te zijn. 04
een week verder. 7 dagen rookvrij, 168 sigaretten niet gerookt, €53 bespaard. 💪
stel je voor dat je een week geleden bent gestopt met roken...
goed nieuws nieuwkoop loopt warm.
in balbezit speelt feyenoord sinds de 30e minuut 4231
ongelooflijk
dat gio kramer niet in de basis zet tegen napoli is logisch. dat de spits ook niet op de bank zit is wel opvallend.
hey keizer, misschien nog een spitsje erbij zetten? 😂😂😂
ik kijk er enorm naar uit... fijn om zoveel steun te krijgen
t is een flinke test inderdaad! maar tot nu toe gaat het prima nog niks gerookt.
botteghin onherkenbaar.
botteghin speelt zn allerslechtste wedstrijd voor feyenoord ooit.
yes! 24 uur zonder! 😊 veel binnen gebleven met my new best friends doppindas. vanmiddag 5km gaan har…
bedankt! van 10 pakjes per week gedurende de afgelopen 10 jaar naar nul. ik hoop dat t lukt. dank voor de tip!
hugo borst, ik begrijp t niet. als agüero picasso en brood kramer doe mij dan maar een kramer aan de muur.
ik ga morgen bellen met de tuchtcommissie. volgens de statistieken had namelijk een gelijkspel moeten zijn.
wauw.
mag ik uit deze discussie zonder eind aub?
uitslag shakhtar napoli lijkt ongunstig voor 3e plek in poule. ervaring voor dit onervaren feyenoord…
volkomen normale uitslag tegen een topteam. de ervaring van dit duel is waardevol voor de ontwikkeling van dit feyenoord.
gelukkig zat de arena wel vol vanavond. oh wacht.....
het legioen verdient een goal.
wat is je boodschap? kom maar, ik heb ongeveer 100 reacties paraat. ps je accountnaam is achterhaald. groetjes!
heel mooi om te horen dat het legioen blijft zingen en steunen.
zelfs als we twee spelers extra mogen opstellen worden we ingemaakt, en dat geeft niet, maar wilfried de jong heeft gelijk toornstra svp!!!
dit gevoel lijkt op de spanning die ik vroeger had bij een sinterklaasavond. héérlijk! laat de cadeautjes maar komen.
blessures vermeer, nieuwkoop, haps, van beek, bilal, jørgensen. als ik gio was...
heel veel plezier!
larsson klopt op het logo van de club waar hij zo van houdt. doorliep de gehele jeugdopleiding en scoort bij zn de…
amrabat brengen, en snel een beetje. 23 86
frankrijk luxemburg 00! wauw.
leuke gozer die janssen maar totaal ongeschikt als spits van dit oranje. blind, pröpper en vilhena redelijk tot goed. 31
vilhena erin, strootman eruit. en snel een beetje.
met zn tienen? gevalletje onderschatting 😉
arme stoel.
wauw! wát een vrouw. wereldkampioen!
noem me ouderwets, maar ik ga naar de kuip voor voetbal. 2x 45 min. offline was eigenlijk best prettig
16 augustus 2009, 9.58 sec. dat vergeten we nooit.
gatlin wint, maar bolt is de beste. voor altijd!
daarvoor heb je mij toch.
wéér geen prijs. jammer joh.
nu het afscheid van een grootheid. usain bolt.
ik wist trouwens niet dat amrabat inzetbaar was als rechtsback, maar het leek een betere optie dan diks. was die slecht zeg... kuipvrees?
goed gespeeld, succes dit seizoen!
en dat weet de commentator van fox sports blijkbaar niet. wat een pannenkoek. nogmaals geen verlenging.
reminder indien gelijk na 90 minuten geen verlenging, meteen strafschoppen.
nee
simpelweg niet waar zie volgende tweet.
welja
terecht besluit van makkelie. game on. 11
makkelijke miljoenen! kching!!
de spelt...? nee, real life cees wint jackpot hij eet zeker 30 eieren besmet met fipronil
ze kocht jx allesreiniger. hoorde dat ik de inhoud vd fles door toilet spoel. pulkt t etiket eraf en plakt er een ander op.
de tijden dat topclubs uit de eredivisie een club uit kroatië in een thuiswedstrijd met 50 verslaan zijn al lang vervlogen.
kijk, dát is nou wel jammer voor het nederlands voetbal. die fysiek sterke kroaten speelden verrassend goed tegen psv. 01 ft
wat een onverwacht lastige tegenstander zeg. die gasten kunnen heel aardig voetballen, fysiek vooral sterk.
van harte gefeliciteerd, winnaar!
froome rijdt weg bij landa! schande!!!!!
ad st. juste en haps onderweg naar feyenoord. ben over eerstgenoemde enthousiaster. beide versterkingen op de gewenste posities.
ik ben niet de grootste fan van froome, maar hem uitjouwen zoals al die fransozen elke dag weer doen is echt een schande. bah.
landa rijdt weg bij zn kopman froome. ik neem aan dat hij probeerde bonificatieseconden te pakken ten koste van aru / bardet.
sterkte nouri. bah....
robbie williams zingt my way als toegift. iets mooiers had ik niet kunnen wensen.
ik hoor je niet! mijjjjjn feyenooooord
ik sta te wachten op mn vriendin die zich door de meute een weg probeert te banen richting wc.
dan weet jij meer dan ik weet. not my cup of tea.
hoe kan deze band in godesnaam in het voorprogramma van rw komen?! doet me denken aan vengaboys maar dan slechter.
gaan we naar elkaar zwaaien?
wat een lachertje. dom, dom, dom.
leg me uit waarom. ik geloof niet in een succesverhaal à la dirk 1 zeer blessuregevoelig 2 zeer duur 3 zeer arrogant
prima gozer hoor, goede voetballer geweest, niets dan lof... maar het valt erg op dat hij nu nog graag gehoord worden. elke.dag.weer.
elke dag een nieuw platform voor piair om zn mening over een willekeurig onderwerp bij een willekeurige club te etaleren. elke.dag.weer.
over de ontvoerders ze waren erg beleefd, onze relatie was goed. het zijn keurige mensen.
we hebben voor ons leven moeten vechten. hard moeten rennen door de jungle. we werden opgejaagd door de colombiaanse militairen.
wat knap hoe in spaanse volzinnen uitlegt hoe de afgelopen dagen waren. we waren erg bang.
🔊 we zijn weer olifant in plaats van muis 🕪
misschien een idee,
hoi, ik heb nog wat ijsjes over. willen jullie ook één? dankjewel topper!
groningen.
.@nsonline de reis van colombia naar schiphol verliep prima. nu vast in lelystad doordat trein naar zwolle niet verder rijdt. en nu..???
thanks mate!
nog 20 uurtjes... kaartjes en shirtje zijn binnen, laat dit zuidamerikaanse feestje maar beginnen!!
nog een keer! nog een keer! nog een keer!
misschien wel het mooiste doelpunt dit seizoen. in de clfinale. wauw!!
wát een uitzicht over bogotá! t is hier prachtig.
mourinho. wereldgozer, altijd al gezegd.
meer van dit soort beelden!
ze lopen altijd weg! doeidoei!!!!!
ik zet hem alvast in... helemaal niets in amsterdam heeeelemaal nietssssss in amsterdaaaaaam
staam er nog mensen dan? 😂
internet nog stééds niet gefixt in 020...?
ik heb de vi kampioensgids vandaag nog bij de boekhandel kunnen kopen. aanrader voor 5 piek!
jensieeee!! drié jaar erbij, wauw!
schitterend boek vol mooie herinneringen! dank!
bouwvakker normaal voor ajax en nu feyenoord kampioen is snel een feyenoordshirt aan? ik natuurlijk, ik heb er 18. van elke club één.
probeer maar eens een moment van tegenslag te vinden waarbij dirk zn kop laat hangen. zul je niet vinden. captain!
nu al online te bekijken dirks droom 33 min.
mvv staat er niet tussen in dit rijtje
eredivisie 17/18 gelijk aantal kunstgrasvelden of één minder gae/vvv beide wel roda wel, mvv niet nec/nac beide niet
kijken!
toen td ton caanen vorige maand bij roda vertrok had hij in 3 transferperiodes liefst 29 spelers gehaald. 18 verschillende nationaliteiten..
zelden zon sympathieke aanvoerder gezien. tevens zelden zon bij elkaar geraapt zooitje spelers gezien. wat een cl…
hou op met die term hoge noorden!! aarghh!
ook in groningen wordt het kampioenschap van feyenoord groots gevierd. kermis, vlaggen, zon alles.
kampioenswedstrijd op de radio
thuis komen, vriendin een zoen geven, met de jas nog aan de trap op. ik moet eerst even wat doen, schat...
de allermooiste rotstad ter afsluiting vanavond vanuit de bekeken... wauw! ❤
weer in groningen. deze dagen waren abnormaal lekker. wát een gevoel!
prima! thx!
yesss jij ook van harte kerel!! wat een mooie dag!
iedereen op de coolsingel wordt vriendelijk verzocht de straat te verlaten ivm voorbereiding huldiging. verloopt ru…
natuurlijk! woehoeeee
wat een verschil met een weekje geleden.
langzaam keert men huiswaarts. sfeer was, is en blijft top!!
dank!!
geniet ervan bob, we hebben t verdiend!
aan ons nu de glorie het dal is voorbij!
temidden van het gekkenhuis wist niet iedereen dat we om 1328u het bombardement op rotterdam herdachten. maar we d…
wat een goede sfeer!
4x !! mn tas leeg moeten halen bij aankomst op rotterdam centraal. politie overal en stuk voor stuk vriendelijk. moet gezegd.
een gezin stapt in op station amersfoort. geboren in rotterdam, woonachtig in zwitserland. even op en neer om dit mee te maken.
goedemorgen deze schitterende morgen. daar gaan we weer! groningen rotterdam.
f minuten 2017 de sfeermakers van de kuip via
mijn speler van het jaar bij voetbal inside is karim el ahmadi via
wauw!! kijk, daar kan ik blij van worden!
voor het eerst in mn leven daley blind aanmoedigen. dat ik dat nog mag meemaken...
al die over t paard getilde snavels. bah... dat ze de finale maar met weetikhoeveelnul mogen verliezen.
mag ik weer... terug naar rotterdam?
kaartjes stadhuisplein kosten niet €7,50 maar bijna €10 p/stk door administratiekosten en ideal kosten. +33%!!! anyway geboekt.
ah, van harte gefeliciteerd!
me tuig van de richel. zonder waarschuwing of aanleiding keihard meppen, lekker anoniem. wie zijn nou de relschoppers?!
blauwe arm en natte kop, zal er wel bij horen ofzo....
doorgeschoven types van de me. eerder al gehoord, nu aan den lijve ondervonden. tuig!
maar wat een kansloos beleid de sfeer was zo goed, net als mijn intenties. en gewoon keihard meppen. blauwe en tintelende arm. au!
liever een onbekende medesupporter behoeden voor wandaden dan niks doen en weglopen. dan maar een paar klappen met zon knuppel.
in elkaar geslagen en door waterkanon kletsnat. bedankt me!
wat doe je in groningen?
de drie dames voor me gaan een dagje naar de musical. weten niet wat ze meemaken. voetbal? oh. ik ken de spelregel…
ah to go umcg of station als je van slechte croissants houdt.
🔊 we zijn het legioen 🕪 🔊 en we worden kampioen 🕪 🔊 en iedereen komt naar rotterdam 🕪 🔴⚪🔛🔝
groningen cs bommetjevol, in de trein idem dito. en allemaal dragen we met trots dat mooie shirt.
vandaag moet het gebeuren.
oh, die gierende zenuwen... toch maar proberen te slapen. morgen vroeg op en voor de zoveelste keer naar rdam. deze keer voelt t anders...
14c bij bevrijdingsfestival
twee jaar erbij, tot 2020! wat een geweldig nieuws!!
genieten, werelds!
shirtje maar even omgedraaid want anders loop ik natuurlijk voor lul in mn nederlands elftal shirt.
test
messi! tien seconden voor het laatste fluitsignaal de winnende treffer 23.
er zijn nog 3 kaartjes beschikbaar voor excelsior feyenoord. kan iemand me wat geld lenen..?
achttien jaar bloed, zweet, tranen, volhouden en blijven steunen.
zowel voorafgaand als tijdens de wedstrijd heb ik me geen moment zorgen gemaakt om vitesse. nu lekker relaxed kijken
super excelsior! wat knap om met de kleinste begroting nu al zeker te zijn van handhaving.
enige voordeel is de verlenging en weer twee extra wedstrijden die ze moeten spelen.
goed voor het nederlandse voetbal? mn reet. nooit zal ik ook maar enigszins blij zijn met een goal van die neuzen. ik herhaal nóóit.
en doorrrrr!!!!
wat een spanning wat een sfeer
altijd gezellig op varkenoord! met
vader met zoontje vanuit hoogeveen onderweg naar rotterdam. hangt shirtjes op we haadn ze in taas zittn en toen…
mogguh! matig zonnetje in groningen. hoe is t weer in rotterdam? deze paashaas gaat zn cluppie even naar 3 punten…
kijk wie we daar hebben
43 goals in 9 wedstrijden. wow.
een slecht voorgevoel bij deze wedstrijd... bewijs mn ongelijk feyenoord!
aangekomen in rotterdam, snel naar het allerallerallermooiste stadion!
en dan nu... van marwijk? advocaat? seedorf?
eén voordeel danny blind zien we niet meer terug.
mail aan
kom op feyenoord! tweede helft iets meer geconcentreerder en op de juiste momenten druk zetten, dan komt t goed hi…
door weer en wind onderweg naar heerenveen!
mooi! 👌 maar altijd baas boven baas 😉
wat een vreselijke rotclub is barcelona. credits naar psg 2 weken geleden één van de mooiste wedstrijden in lange tijd gezien.
dit juweeltje uit 1978 kocht ik vandaag. zo blij als een kind 😄
goeie kiek!
uithuilen en bussie terug naar eindhoven nemen, luuk. doei!
dank! prachtige, spannende pot.
standbeeld voor de persoon die goal line technology heeft bedacht.
vannacht om 0400u uit oostenrijk vertrokken om op tijd thuis te zijn voor gelukt in iets minder dan 9 uur reistijd. jeej!!
de is letterlijk! al urenlang dezelfde deuntjes automatisch aan het afspelen. is daar een reden voor?
mocht deze onzin doorgang vinden zou de samenwerking met per direct moeten beëindigen.
zeker, ik was ook onder de indruk!
waar zit ik in godsnaam naar te kijken..?!?!
rotterdam wat ben je weer mooi!
en weer vanuit groningen onderweg naar het mooie rotterdam!
wauw, wat een beauty. 11 74
zeer terecht!
dat was het nummer fly, van ludovico einaudi. bekend geworden door de film intouchables
eens, altijd voor het kampioenschap gaan. subtopper heb je mij niet horen zeggen maar is helaas al jaren de bitterharde realiteit.
... en hoeveel titels heeft dat opgeleverd? geloof? ja. hoop? tuurlijk. uitspreken? nee. geef je over een paar mnd graag gelijk.
waar waren al die demonstranten tijdens de campagne van clinton? je weet wel, toen men nog dacht dat ze fluitend zou winnen.
prachtig allemaal, maar het heeft geen nut. ga lekker thuis op de bank zitten en relax.
mind you we zijn nog lang geen kampioen. laat het arrogante gelul maar aan 020 over, ik wacht even rustig af.
veel balbezit via de flanken, jørgensen werd weinig bereikt.
benieuwd of het buitenspel moment van elia de komende week net zo vaak herhaald gaat worden als het moment van kuyt tegen roda.
hoe dan ook 3 punten. niks aan de hand 😉
doelpunt elia onterecht afgekeurd en de tackle op bilal was een 100% strafschop en rood. wat een schande.
en terwijl het hele legioen hoopt op mo el hankouri ipv berghuis komt bilal in het veld voor elia.
als feyenoord nu al last heeft van titelstress kunnen ze beter meteen stoppen met voetballen. kop dr veur!
vilhena nu aanvoerder, mooi voor hem!
helaas, inmiddels 11
marokko togo na 5 minuten al 01. als marokko dit duel verliest zijn ze uitgeschakeld.
belachelijk om voor zon tikje direct rood te geven. geen doorgebroken speler, geen grove overtreding met kans op l…
wat een belangrijke overwinning! 💪👏
bijzonder doelsaldo roda jc nr 17 8 voor, 21 tegen verreweg de minst productieve ploeg terwijl slechts 5 clubs…
ik kan niet wachten om mn cluppie morgen weer te zien spelen. true love. ❤
wauw
voor het eerst een ijshockey wedstrijd bijwonen. zeller eisbären ritter buam!
is dat erg? nee, zo hoort wintersport te zijn. vandaag was het fantastisch op de piste poeder, poeder en nog eens…
veel wintersporters zijn van plan morgen terug te rijden naar nederland. het is de vraag of dat überhaupt mogelijk is.
men zegt hier dat morgenochtend rond 800u een 5 jaar oud lokaal record gebroken gaat worden 22c.
de weersvoorspelling voor vandaag klopte precies 14c.
gelukkig heb ik mn muts mee...
na weken hard werken eindelijk een welverdiende vakantie. morgen vlieg ik naar oostenrijk!! 😊
klopt, bijna. fans gaan naar jan smit, feyenoorders zijn supporters. no matter what. 🔴⚪🔛🔝
liefevolle kerstdagen allen! 😙
wat wil je horen? dan tweet ik het even.
erg knappe eerste seizoenshelft van psv had vorig jaar na 17 wedstrijden 4 punten minder en werd kampioen.
slechte loting voor feyenoord.
net weer thuis. rotterdam, de kuip, het legioen allemaal uniek en de lange reis wederom meer dan waard! 😚 51
en toen stond ik tijdens de rust ineens middenin een moshpit 😄
daar zijn we weer! zin in een mooie pot voetbal!
bedankt maat
matchday! straks naar rotterdam voor de bekerwedstrijd feyenoord ado met en 😊
ik hou niet zo van koffie, hebben jullie latte macchiato? uhm, jawel ok, mag ik dat met tien zoetjes onderin h…
wederom een vermakelijke aflevering van
super heel nederland behalve dat dorp in noordholland juicht! bedankt! d 10
wanneer ben je jarig?
100% terugspeelbal van pröpper. zoet pakt hem alsof er niks aan de hand is en scheidsrechter janssen doet niéts. 10 87
excuus, tweet gemist zie ik. ik vind darten geen sport omdat t geen fysieke arbeid is. conditie speelt geen rol. puur vermaak.
nou, hup. gooi nog eens wat vuurwerk, dan valt er tenminste wat te genieten.
het enige wat resteert is de mooie herinnering aan de overwinning op manchester united 1509.
toen feyenoord een paar weken geleden eindelijk eens scoorde uit een hoekschop is gio blijkbaar gestopt met het trainen daarop. kansloos.
zuur dat feyenoord met 7 punten zal worden uitgeschakeld, maar deze poule was een paar maatjes te groot.
neus op de feiten fenerbahçe speelt stukken beter dan feyenoord.
sinterklaasavond breekt bijna aan
mild is een understatement
het hoge noorden is t meest noordelijke deel v. scandinavië en/of rusland. zó ver weg is groningen niet, dus kappen met die term. ok doei.
blijkbaar is de vreselijke term het hoge noorden dermate ingeburgerd dat volgens van naam…
mijn speler van de week bij voetbal inside is jens toornstra via
misschien beginnen aan een sport?
de enige echte is al maandenlang bekend
schokkend om via de timeline te zien hoe half nl jankt omdat een pijltjeswerper niet is genomin…
wat mooi dat botteghin ook zn goal meepakt. 50!
wat een lekkere wedstrijd om te kijken. een echte derby met twee hééérlijke goals!! 💪
hoe dan ook chapeau scheidsrechter kamphuis! 👍
nathan heeft blijkbaar géén gele kaart gekregen. zowel vi matchcenter als nos teletekst heeft bericht aangepast.
de vraag die resteert na het doelpunt van nathan kreeg hij een gele kaart wegens eerbetoon aan of…
yesssssss!! 99e minuut!!
a6 tussen emmeloord en joure, flinke fik. stilstaand.
40. jammer, maar geen schande. erg mooi om te zien hoe de duizenden supporters feyenoord de hele wedstrijd positief bleven steunen!
en maar blijven zingen. dit legioen is geweldig!!