gvd binnen een minuut kaarten uitverkocht. altijd pech met dit soort verkopen. geef mij de ouwe tijd maar met kaarten halen😤😠😢
welk doel heeft hij zichzelf gesteld omtrent zijn eigen ontwikkeling. assist en goals
kijk dit is beter weer met no comment 😉😉😉😉
mijn denkbare loting vandaag
laat lekker gaan die jongen is het nieuws niet waard. wil niet meer blijven prima, voor hem 10 andere.
ik denk jones ondat vermeer moeite heeft met hoge ballen. en jones juist. maar vermeer blijft een geweldig…
aardig wat geld maar als je talenten koopt voor 10,5 van 20 en 24 jaar van de 30 miljoen die je incas…
en feyenoord heeft dadelijk een te krappe selectie dat er geen versterkingen komen. zie het somber in zo!
komen er nog mensen bij voor de helikopter vlucht is het meer de pamge adem show en geduld hebben.
denk het ook dat het wel komt. slim om niet met geld over de balk te gooien alleen ideaal beeld zou zijn selectie al klaar.
bij gebrek aan nieuws dan maar een training pakken😉
goed bezig met het verkoop van je jeugdspelers voor veel geld.maar middelmaat terug halen kan ik geen beleid noemen,scouting weg!
gefeliciteerd met je welverdiende transfer naar .bedankt voor alles wat je voor ons gedaan heb.
leek meer of pierre hem uit zijn broek heeft gehaald en ze schrok van zijn enorme grootte.....
lijkt bijna of je hem uit broek gehaald heb en ze schrikt van de grootte hahahaha
is er al iets bekends over de hoogte van de transfersom van karsdorp? en hoeveel blijft er van over vanwege talentpool?
kan hij zeker krijgen maar om hoeveel gaat het? is daar al iets over bekend?
my bad, biertje van mij
even nagevraagd ik heb de mail verkeerd gelezen hahaha je geeft morgen waarschijnlijk een clinic waa…
hahahah dan ben ik in de maling genomen. dacht dat je clinic padel ging geven.
moet wil wel staan
morgen clinic van je,gemeente rotterdam. altijd fijn een mede feyenoord supporter maar ik wil ff met je op de foto.
bedankt voor alles wat je voor ons gedaan hebt. media mond gesnoerd, 2 prijzen en schitterende acties.…
held en gelijk in de geschiedenis boeken. dumoulin for president hahaha
zou mooi zijn en lens als vervanger van elia?
nou ja intact. elia weg berghuis terug naar watford is wel gelijk 2/3 van je sterke voorhoede…
laatste natuurlijk
bedankt voor alle jaren dat je voor ons gespeelt heb. je bent en blijft held! ynwa. dirkfeyenoord,komt er nog een afscheid wedstrijd?
in leiden hangt de vlag ook
is er al iets bekends of er nu echt bier geschonken gaat worden?
speelt nu als ze kampioen worden,ongeacht wel of niet winnen van ajax in uefa cup?
bedankt voor de reactie!
wanneer wordt nu eens bekend gemaakt over de kaartverkoop voor zondag? nu wel echt bier schenken anders zal het rustig blijven.
allemaal leuk en aardig die uitreiking in de maar wordt er dan ook eens een keer echt geschonken?
kunnen julie dit delen we willen voor de grootste stoet ooit gaan.
zou jij dit willen delen? we willen na excfey en kampioen zijn de grootste stoet ooit regelen
zou jij dit kunnen delen? we willen de grootste kampioensstoet realiseren! woudesteinkuip
kunnen jullie deze link delen?de de grootste kampioensstoet ooit
zou jij deze link kunnen delen? we willen voor de grootste kampioensstoet ooit gaan woudesteinkuip
kunnen jullie dit delen? we gaan voor grootste stoet ooit!
zou je dit willen delen? we willen voor de grootste kampioensstoet ooit gaan.
laat me raden hier doen jullie niks aan zeker eerst klaassen en nu viergever. meten met 2 maten
je heb weer laten zien hoe belangrijk jij voor ons bent. puur genieten weer die acties aan de zijkant. ala n.w.a. fuck the media
laat je niet gek maken natuurlijk bedoel ik
aint that the truth!! doe je ding en laat je gek maken. we support you ever more. sterker door strijd
mooie goal jammer dat we verloren hebben maar zoals ik al eerder heb gezegd. we hebben nu nodig. juist nu! sta op en gaan!!!
whahahaha we wisten het wel van jullie maar moest en zou geschorst worden voor de klassieker. 020 dat is clear
grote klasse dat je het beeld van de stoot van klaassen laat zien. bij 100 x herhalen op fox . meten met 2 maten
als de elleboog van niet bestraft wordt dan is het . hij niet wel? belangenverstrengeling?
maakt zichzelf kapot en zorgt allleen maar voor meer daling in professionaliteit door amateuristiche beslissingen. voetbal is kapot
heeft er weer eens baat bij dat feyenoord geen kampioen wordt? wees dan ook man genoeg op tv beelden een goal toe te kennen bij spafey
maakt zich weer volstrekt belachelijk. als scheidsrechter het duidelijk ziet en dan toch omdraaien tbv schorsing.
is het misschien nu duidelijk door de blessures dat kansloos is.dat is de reden van achteruitgang van ons kwaliteit in nl
verliezen van ploeg dat woensdag nog gespeeld heb afgetroefd op inzet. bedankt voor verspelen van titel
laat zien dat je nooit een spelere moet afschrijven. werd bestempeld als nergens gelukt maar nu is hij voor ons de absolute held
als het waar is dat je geen zin moet ik zeggen begrijpndat je het moeilijk maar je kan het gewoon als prof niet maken.titel telt
laat hem lullen weet dat je bij ons altijd welkom bent nu en na je carriere. sterker door strijd niet door kansloze woorden.
gebakken eitjes kunnen niet normaal meer zout krijgen.
iemand 12 voor 2018? . voor de vrijdag of zaterdag!
ik mag hopen dat dit geruchten zijn omtrent . want we hebben je echt nodig voor het kampioenschap.
ik was de enige halve deen in het vak hoor maar altijd leuk on het terug te zien
wow. heb de eerste al nubwil ik deze ook wel heeeeel graag
maak niet uit bedankt dat je aan me gedacht heb
zou hem graag willen hebben maar ben nog 2 maten dus als je er nog 2 heb hoidt het op
mijn zoon rent de hele dag rond als paniekpiet .heerlijk die enthousiasme alleen heb ik moeten zeggen dat je met pensioen bent
de uitspraak van bronckhorst en nijhuis dat hij beter zicht heeft dan de camera.die man voelt zich echt te goed
heb je hoog zitten. en het is een vervelende situatie vilhena geweest. maar een compliment aan de ploeg? belachelijk!!!!
heel veel sterkte toegewenst in deze moeilijke tijd. je moeder is en zal altijd trots op je zijn.
wordt gezellig in ook al hebben we geen . fail en . feest in manchester 10000 man
en weer bedankt met je waardeloze systeem. nou ik ga gewoon met de hele groep naar manchester kaart of niet!
dat is de spijker op zijn kop slaan . alhoewel koppen ook moeilijk blijkt vandaag
3 misschien moet daar is eens aan gaan denken. anders denk je niet maar roep je alleen nederlanders worden zeker nooit gediscrimeerd
2 zij zorgt er juist voor dat mensen gaan discrimineren omdat men het woord discriminatie overal maar voor gebruikt.
wat is die toch een eng en mediageil mens.wel of geen zwarte piet boeit me niet. maar te pas en onpas discriminatie roepen1
hoe zuur ook dat je niet speelt is het wel belangrijk dat je alles geeft en dat doe je en als iedereen het beseft
dan maar wachten op je samenvatting morgen. veel plezier straks, hou ons op de hoogte👍🏻
is dit ergens live te zien?
mooie en eerlijk woorden van over . waardering voor je, hoop dat je snel hersteld.
hahahaha ik ook eigenlijk wel. maar mooi exemplaar!
daar zou ik vroeger op school prima achter lunnen schuilen om een tukkie te doen😂😂
feyenoorder met de vinger in de neus via did you get it 😂😂😂😂😂
als ik maar hutspot kan komen halen😉
donderdag speel je gewoon weer minuten maken en scoren en laten zien dat we iedereen nodig hebben dit seizoen. werken als team
je kan beter je naam veranderen van sandeep naar dieptriest 😂😂😂😂
op mijn hotelkamer in valencia balen dat er niet bij was maar toch nog kunnen kijken
hahaha awrsome bericht en asskicking geven met goldie oldie fifa hahaha
maar wat denken jullie zaterdag? ik ga voor 2 ronde knock out
ja snap ik wij zijn het trage spel niet gewend 😂😂😂
bedoel je niet 17?
11 lang geleden dat ik hier niet blij mee bent. wel voor nederland maar dan blijft die koekbakker van een blind langer
zo volgens rene van der gijp ben je totaal niet loyaal. hij heeft blijkbaar niet een hoge pet van je
wie hebben ook betaald voor 5 kaartjes maar geen bevestiging of iets staan bij mij bestellingen?
ik heb wel betaald maar geen bevestiging. hoe kan dit?mag toch wel aannemen dat ik kaartjes heb anders neem ik juridische stappen
eerste rang vanuit
je hoeft niet blind te zijn om te zien dat het niet goed gaat
€22 milj. 30milj. nou als ik dit zie spelen zou ik er nog geen stuiver voor over hebben
waar is de tijd gebleven dat je een lekker potje kon kijken. dit wil je toch je kinderen niet voorschotelen
berghuis wordt nog geeneens gebruikt
waar zijn de karakter voetballers die overzicht hebben en een andere wat gunt
jezus wat is slecht zeg! . iets met ego en centrisch!
heel slim om maar 1200 kaartjes aan te geven. wordt een ramp dadelijk uit. want iedereen geboekt maar geen kaartje.
whahahahaha en een paar jaar teug zeggen ik ga er niet meer heen omdat ze me slecht behandeld hebben. gemaakt mannetje!
hahahaha. heb liever ook dan andre het hazespad neemt
waar was de verdediging en deze was zeker houdbaar voor de keeper
kuijt die kan handig zijn in de begeleiding van de jongens en altijd invallen. moet wel zijn ego opzij zetten dan.
te belachelijk voor woorden. zo worden die landen alleen maar sterker en de andere landen zwakker. maffiapraktijken
zeker een dure fout maar wel een begrijpelijke. was niet genoeg geld en achabar was op dat moment verder. keuzes
is er eigenlijk al iets bekends over sen vleugelspeler? of wachten ze tot het seizoen al is begonnen. berghuis niet denk ik.
hoofdsponsor bedoel ik
ik denk namelijk een nieuwe sponsor
op de foto lijk je wel een vis te veel te hebben gegeten😜😉. veel succes adhdkarper
vandaag alle ballen naar voren. al hangt er wel een luchtje in deze zaak
is het ook te volgen? of is het tempo rapido hahaha. als je in de buurt van de stevenshof bent kan je hen dan afgeven? lol
moetmooi
moet dat hij weggaat. zulke spelers denken maar aan 1 ding en dat is geld.
hoeveel gaan we nog horen met de voor snel voor volgend jaar hebben
de tijd is weer aangebroken iedere dag kijken
hahahaha dirk kuijt sliep vroeger ook onder een 020 dekbed. die is onze held geworden dus zegt niks!
en dan al die kinderen tegen je aan stoten. ben wel eens zelf mee gegaan erin. nou ke komt opgevouwen terug
1 woord voor jou prestatie vandaag wow!!! waarom rijden als je ze op je 18de eruit rijdt
geef nou gewoon eerlijk toe dat je voor het geld gaat dan kom je tenminste nog eerlijk over. je was vorig terecht bankzitter
wie heeft er in je geïnvesteerd in de jeugd! idd en omdat je op de bank zat wil je niet bijtekenen. zelfreflectie
veel succes bij je volgende club. maar noem jezelf geen als je gratis de club in de steek laat. 1
weer de winnende vandaag?
jammer dat ik geen reactie heb gekregen nadit ik voor de wedstrijd de winnende had voorspeld. volgend jaar kampioen??
verschrikkelijk dit shirt. lijkt wel een wielrenshirt. leuk dat we adidas hebben maar uitshirts wordt alleen maar lelijker
ugly, verschrikkelijk, wielrenshirt
lijkt wel wielrenfiets.
verschrikkelijk lelijk. ze worden steeds erger😡😡😡😡
zeker weten. volgend jaar is hij helemaal los. let maar op mijn woorden!
had wel een reactie verwacht van nadat ik voor de wedstrijd had gezegd dat hij de winnende zou maken. shirtje voor me zoon?😉held
altijd lekker eindelijk weer naar de
uuhhh wat zei ik nou over wie de winnende ging maken? als dat geen gesigneerde shirt met handtekening voor me zoon oplevert
onderweg naar . biertje pakken en kijken winnende goal!
als iedereen een kaart heeft en jij niet. en dan krijg je een app ik heb een kaart voor je.#feyenoord
was ik ook bij met afscheid jozef!
ik niet was nummer 13924
ja is niet anders idd. ook ik ga stadhuisplein maar wel ruk dat er alleen kleine schermen zijn. veld en scherm!
hou op schei uit. ga al 22 jaar alle thuiswedstrijden en vroeger ook nog uitwedstrijden en nu door loting er niet bij!wanbeleid
na honderd x het jasje, zeg ik nu 1000 x het
ben bereid €100 te betalen voor bekerfinale kaartje. 22 jaar alle thuiswedstrijden geweest en nu er niet bij
kan jij niet met al jouw connecties een bekerfinale kaartje voor je ouwe ploeggenoot regelen? durftevragen
via deze weg wil ik vragen of je misschien kaartje bekerfinale loot. na 22 jaar alle geziendoor loting niet bij. durftevragen.radeloos
nee natuurlijk niet. nummer 13924. na 22 jaar alle thuiswedstrijden bezoeken. was er al zuur van en nu weer.
na een eerste teleurstelling komt de 2de weer. t/m 12998 een kaartje fijn 13924 te zijn . na 22 jaar altijd gaan.
vandaar deze zeer brutale vraag. maar ik heb geen andere opties meer dus probeer het via deze weg. brutaal en radeloos
ik ben bereid je auto of autos te wassen haha. ons vaste groep gaat wel, of via loting of via relaties die ik helaas niet heb.
met grote schaamte en laatste kans. na 22 jaar alle thuiswedstrijden bijgewoond, kan jij een kaartje regelen? durf te vragen
zijn er nog mensen die mij nog blij kan maken met een bekerfinale kaartje?
ik neem het terug.
en heeft hansson een tweelingbroer? hahahaha
als jij zo blijft spelen met lef en durf sta je zo in de basis
bedankt voor wat je gedaan heb voor het nederlandse voetbal en mijn club
deel 3 als ik de ramen ga zemen van het pand. kun je dan een kaartje regelen voor de bekerfinale?
deel2 als ik nu heel de week in studio broodjes maak en koffie zet en breng kun je dan bekerfinalekaartje regelen#durftevragen
hahaha gotta love this talith wordt 16 jaar en dan al denken dat je er bent.
gaat naar de klote, en vaak door geloofsovertuiging.als er een god zou zijn waarom hebben we dan zoveel verschillende soorten geloof
al 20 jaar een seizoenskaart alle thuiswedstrijden bezocht en nu door een postcodeloterij wr niet bij. ik dus!
als ik heel het jaar jullie auto was kunnen jullie dan een finalekaart regelen voor bekerfinale?
heerlijk systeem ik ben er niet bij en de zogenaamde supporters zetten ze al op marktplaat.
bedankt dat ik geen kaartje voor de finale heb. en mensen die dit seizoen niet alle bekerwedstrijden zijn geweest wel
nee moest sinds 95 zijn en dan 4. 2x winst 1x verlies en 1x uefacupfibale
sinds 96 nooit een finale gemist. al de hele week gespannenen voor .
you lucky basterd😉
als je alle wedstrijden van de#knvbbeker heb gemist en besluit om met de loting mee te doen.heb je kans op een kaartje
jij bent het prototype iq met een poffertje.
de reactie van jullie omtrent pop is echt schandalig. is niet vreemd dan men jullie beticht. als het feyenoord nou was?
horen we hier nog iets over? of doen we weer de ogen dicht als het om betreft
wordt dit weer in de doofpot gestopt? als het feyenoord was geweest mediagekte.
lijkt erop dat ze niet voor versterkingen gaan.
moet je als je bedreigt. dit zijn geen we support you!
bedankt voor je inzet en strijdlust. nooit een verkeerde klank over de club en altijd positief. succes en het is je gegund.
ja maar 69x maal 2 is voor de modale mens best veel geld. maar goed ik ben toch wel benieuwd
ik zie graag normale kaartprijzen. wilden graag met partner gaan maar dit is toch ff een beetje bizar
laat het nu maar eens zien dan.
thx bro.
nu al weer een tijdje speelt en weer op niveau kom zou je ook langer willen blijven?
hoop dat de prijzen wel normaal zijn
hell no ben affleck als batman is al bij voorbaat een flop
bedoel je niet 😉 wordt weer vlammen langs de zijlijn.
ok bedankt voor de info. ben benieuwd
waarom geen prijs bij? of wordt het weer absurd duur
bedankt voor alles en nu op andere spelers richten. zo gaat dat in het voetbal.
nu focus op het voetbal en de nieuw cultheld worden
zoontje blind maakt elke wedstrijd fouten en blijft staan.2#blindvision
janmaat maakt een fout niet meer geselecteerd. bmi maakt een fout precies hetzelfde. 1
gelukkig ken ik je niet alleen je kansloos uitspraak.
meer triest dat jij een club erbij moet halen als het over het nederlands elftal gaat. zegt meer over jou.
zo jij bent grappig not
de meeste kijken nog sesamstraat😂😂😂
bij het schaatsen hebben ze een dwijlpauze. wij hebben hem de eerste helft gehad.
echt een aanwinst hoor je doet je naam weer eer aan.
top dat nederlands elftal. ik blijf erbij hoe kan een falende coach vervangen worden door zijn assistant.
als ik de opstelling zie ben ik blij dat ik uiteten ga
heerlijke uitspraken telkens van je. michiel in de tweede kramer. held in opkoming
spook van de opera aan het kijken? of was dat nou die vrouw die een hele volkswijk in 020 heeft gehad😂😂😂😂
wereldgoal. klasse spat er van af.
whahahahaha. altijd al gezegd dat een koebakker en is vervolgens heb je er 2. koekebakker+koekebakker fail extreme
shit dacht dat 1900 de wedstrijd was maar waarom verbaasd me de stand niet. mijn visie is namelijk niet
jij wel want je moet je voorbereiden op zondag😉
welkom! nu hard werken en sterker door strijd
present vakkie r
maar waarom niet gelijk na de medische keuring tekenen?
civieltechnisch
vorig jaar geweest super leuk daar. have fun
bedankt voor al je inzet. je wordt enorm gewaardeerd! veel succes bij je heb het verdiend.#ynwa
zat er je er toch weer in de buurt. maar tien miljoen?
de grieken houden hun hand al op
het bedrag rondom clasie gaat al aardig oplopen😜😉. ziet het ernaar uit dat ze vandaag rond gaan komen?
goed bezig. eén voor allen en allen voor één doel. sterker door strijd.
ok dan wachten we het af
zeker goed op de hoogte voor de rest. ben er ook wel blij om. nog nieuwtjes betreffende verdedigers of tot nu toe gustafson
ziet er toch naar uit dat je geen gelijk ga krijgen wat betreft transfer clasie. in ieder geval hoogte transfersom dan.
clasie wordt verkocht onder 10 mil. en dan talentpool er nog af. grote schande. v geel out!!
grote schande. eerst min. 18mil eisen en vervolgens onder de 10 uitkomen. talenpool ook nog eraf. onkunde
is het waar dat we spreken van een transfer onder 10mil.dan is echt diep gezonken en ongeloofwaardig
toen de grijze haren nog verscholen zaten. of waren de tranen dat de eerste grijze haar doorkwam😜😜😉
succes morgen. top 3 dit jaar.
mooi stukje. ik neem van het weekend er wel een biertje op!
hahahahah 12 bier 4 cola 6 wijn en voor de 2 heren een glas melk zeker😂😂😂😂
glinsterende ogen. biertje te veel op!😜😜😜
als je blijft spelen zoals je de laatste thuiswedstrijd tegen heerenveen deed wordt je onze vast rechtsbuiten.
en ze vinden zichzelf toch echt modieus
en aan al aan de øl gegaan. en ga niet naar de kapper en zeg wil je me knippen want knippen is 👉✊😂😂😂
ok leuk man. alleen slecht geregeld dan hahahah. have fun. skol is proost. en øl is bier. succes met de begeleiding
mooiste land dat er is. zei de geboren deen hahaha. maar voortaan beter zoeken en niet zo zuinig zijn hahahaha
wat een geruchten over spelers willen vertrekken omdat ze geen spelen volgend seizoen. en door wie komt dat?
please be the difference tomorrow. iedereen heeft over je vertrek. jammer maar logisch. maar eerst een waardevolle afscheid
lijkt wel de toppers. maar altijd beter dan 020 tv
hahahahha. dan nog liever eurovisiesongfestival kijkend op een spijkerbed met een glas azijn
dat doet toch verschrikkelijk pijn aan je ogen. dan nog liever trtint 😂😂😂😂
veel erger in de kuip zijn mensen die de contract van kazim verlengen
het zou er nu alles aan gelegen zijn om nu te investeren in spelers. kazim, immers kan gewoon echt niet.kuijt alleen is niet genoeg
guidetti spits, kalou linksbuiten, boetius rechtsbuiten en kuijt op 10. top aanval#feyenoord
natuurlijk zegt iedereen maar gaat het slecht dan verlies je weer clubiconen. ben bang dat je het met alleen talenten niet red.
ben sceptisch en benieuwd, maar qua ervaring altijd fijn om te hebben. succes vanavond, dat het gezellig wordt met doorgaan .
ik denk dat hij het wel zou willen. qua mentaliteit misschien niet verkeerd maar niet de spits die we verwachten. zapata nog optie?
nu geruchten gaan over verlenging kazim kunnen we concluderen dat feyenoord geen echte spits haalt of dat kuijt komt?
blijf je humor waarderen. zo gevat en zo snel. vooral die gisteren van hans van der togt.
gefeliciteerd met de zwangerschap van jullie 2de kind. nu kan nog je niet weg na dit seizoen😜😜😜😜. al is het je wel gegund!
congrats!!!
misschien ontercht omdat hij hem niet raakt.maar springt hij niet op en wordt wel geraakt dan heeft swerts ernstig blessure
mooi hoor. duidelijk te zien dat het katja schuurman is
katja schuurman
eerst gedachte was bij maar na eerdere grap van mij gaf dit een nare onderbuik gevoel. voor de
man met pistool bij de eist zendstijd wat een of is het misschien zelf. feit blijft de wereld is loco
gefeliciteerd met je contractverlenging. je verdedigende kwaliteiten verbeteren en je haalt het nederlandse elftal
ik kan het wel waarderen. ga alsjeblieft door met je humor. makes my day!
hahaha bepaalde supporters kunnen niet tegen humor van . zijn waarschijnlijk dezelfde mensen tegen zwarte piet.#humor
hetzelfde als een pornoster die niet naait maar haakt op tv. ook een vreemde gewaarwording
en heb je het overleefd? en neem je de kater voor lief😉
gelukkig heb je twitter nog. hahaha. van water naar wijn . van wijn naar shots. van lam naar nachtrust. kleine tip😉 have fun
zo hoort het met jeugdspelers
hahaha mislopen van een toptalent omdat je liever houtenklaas#immers op 10 wilt hebben. big fail#vgeel#rutten.#feyenoord
het schijnt dat fernando torres moeilijk scoort. misschien bij ons ervaring op doen😂😂😂😂
denk meer een aankoop om de supporters te sussen maar v geel weet wel te verassen. niet gelekt. wie wordt nu spits en.....???
altijd makkelijk iets roepen zonder je verder te verklaren
angstvallig stil omtrent spits voor#feyenoord . airmiles genoeg voor maar resultaat. zie dan liever ziyech
altijd fijn als een club ligt te slapen. haal ziyech nou op! vizier op toekomst toch?v geel heeft in ieder geval genoeg airmiles
een elftal neer te kunnen zetten. waarom 32 jarige aantrekken die niet fit zijn. slecht
als je niet goed op deze situatie in speelt. jaarlang knokken om vervolgens niet
een redelijk goed elftal neerzetten. scouting komt in ieder geval amateuristisch over
wat is in feyenoords optiek belangrijk. gezond maar geen elftal. of geleidelijk gezond en
mooie ploegen. moet te doen zijn. 3e begroting van nl . maar een nieuwe spits ho maar. sterker door strijd
wat houdt de voorloting in? meer duidelijkheid tegenstanders?
als je v geel spreekt vraag dan wat het voor nut heeft om 2 de te worden als je toch geen elftal op been kan krijgen aub
goedemorgen. 12 wordt en feyenoord gaat door via penaltys
een bal is en blijf rond. en als je geen geloof heb hoef je niet te gaan.
al enig idee waarom v geel naar napels vliegt? ? huisjurist gaat toch niet voor niks mee.#feyenoord
helemaal mee eens maar zou toch nu echt wat versterkingen willen zien
broer wilders. norwegian air.😂😂😂😂
1,92m en best sterk alleen weinig kans gehad bij cardiff.
verkopen en dan geen vervangers hebben wanneer je europees speelt. vind dat het beleid met beloftes niet helemaal kloppen
persoonlijk heb ik er moeite dat je vooraf aankondigd20132014 europees voetbal moet halen. om vervolgens je beste spelers te 1
heeft v geel niet gefaald als hij de vrij verkoopt voor maar 8 mil.? nummer 1 verdediger op het
hoe kan v geel nu zeggen dat er mogelijkheden zijn tegen als we nog geeneens aankopen hebben.
in ieder geval een aanvallende rechtsback liefst ook links. miscchien van aanholt en van anholt. en een spits janko of dost
word de wedstrijd nog live uitgezonden??#fcefey
vraag me echt af of de van#vangeel zo indrukwekkend is. geen dost dan spelers die we hebben. ? vooruit kijken?
congrats and good luck at southampton fc. bedankt voor de 2 jaten waarin je alles gegeven heb
altijd fijn naam maken als goedkoop verkopen van spelers om zelf geen nieuwe spits weten te halen#feyenoord
beweerde dat er geen sprake zou zijn van leegloop bij of verkopen ze iedereen voor het te bouwen#stadion. raarrrr
2 hoe wil je dit gaan verkopen aan de supporters. dit is toch zwak onderhandelen? hoe denk jij erover?
misschien wel marktconform#pelle 8mil. maar vorig jaar 10 mil. verkoop je hem niet en nu 8mil. dan verkoop je hem wel.1
heftig op de schiedamseweg persoon is inmiddels meegenomen
heftig ongeluk op de schiedamseweg. persoon is inmiddels met ambulance meegenomen
en gesignaleerd samen in zeist. naar in de maak?
jagen op een cultuurfeest is pas discriminatie. suikerfeest afschaffen discriminatie voor de diabeten wat een land
er wordt gesproken bij pelle over bonussen wat over de de 10 mil kan komen. maar het kan dus zijn dat feyenoord maar 8 mil krijgt?
daar heb je gelijk in. in mijn optiek moet je snel handelen om op tijd spelers klaar te stomen voor vcl. wacht vol geduld op nieuws
blijft nog steeds angstvallig stil rond eventuele nieuwe spelers bij feyenoord. ze negeren je toch niet?😉😉😉
kijk maar uit want we wanne go home gaat van jullie winnen#hahaha#wishfulthinking#bier is belangrijker dan winnen.
het zou een geschenk uit de hemel zijn.
zou een geschenk uit de hemel zijn.
hij heeft ons weer een gezicht gegeven en we doen weer mee. succes en misschien kom je weer terug#gajemee
im horny op schat waar ben je als ik je nodig heb😜😜😜😜
hermandad rotterdam. altijd gemotiveerd in elke sliding 😜😜😜
het is te zien dat feyenoord je niet meer doet.je gaat liever naar vitesse dan naar feyenoord kijken.#clubliefde#rotterdam