het gaat weer goed met het nederlands voetbal... luuk de jong opgeroepen voor oranje 😲😲😲😲
kon het waarschijnlijk niet meer aanzien en heeft weg gezapt... wat een kneus 😲
weet niet of je wel eens een stier, onder zijn staart gekeken hebt 😲
je mag het niet zeggen ,maar dat mokkel van wim moesten ze toch voor een weekje onder een stier binden
psv afgeschreven door veel analisten nog voor de competitie begon... kijk waar ze nu staan ... mijn moeder van 91 weet beter psv fan 😇😇😇
hoop dat pec kampioen word
enne ... leeft ie nog dan
juist .... psv veel geluk ook door gogme en inzet en toch ook higler ... te nadrukkelijk aanwezig
het werd al gezegd en geschreven ... psv in januari al kampioen 🍾🍾🍾
als je bovenaan staat ..dan
heeft toch veel misselijke trekjes die van ginkel...
never nooit geen pingel.
bekijk het positief feyenoord , is wel een punt op ajax ingelopen ....
jonguh zie er de grap van ... serieuze
blijft zo...
en nu vd poel kijken
volgens mij niet altijd of bijna nooit
vond ook dat niemand maar dan ook niemand protesteerde bij dat ze penalty moment .. in de rug lopen.. zegt alles
berghuis man man wat een pech
het zit berghuis ff niet mee pfffffffffff
wel.. kongolo heeft heeeeel vaak door goed positie spel en snelheid gaten gedicht achter
kongolo en natuurlijk 3 centrale verdedigers weggevallen
vilhena draait zich om bij ieder duel echt niet normaal
nee hoor teveel kwaliteit ingeleverd .. absoluut
serieus let nou eens ff op vilhena
wat zetten die zich te kijk zeg... kan het nog slechter
ballet van boetius
er blijft of is helemaal niets van over... wie grijpt er in..
larsson op 10.. 👍 heeft diepte in zijn spel
het zit ff tegen ja
helemaal naar de kloten dit elftal
ze staan er bij en idd staan erbij
den haag gaat gas geven
el ahmadi staat weer vlak voor zijn verdediging te ballen..hele middenveld ligt uit elkaar vilhena weet totaal niet hoe of wat daardoor
zoveel ruimte achter de verdediging van den haag... niemand met slim steek balletje bij feyenoord... is ook kwaliteit
er sluipt bij feyenoord weer iets van angst in het elftal... geen doorjagen meer tempo veel te laag.. brengt den haag in de wedstrijd
hey bergmuis... geel groen is de tegenstander
lekker berghuis... waarom zoveel risico
een wereld van verschil op vrijdag tegen jong ajax of op maandag , met meerdere eerste elftal spelers... competitie…
volgens mij vuur uit. voor de betrokkenen sterkte..
nu laait het weer op... weet niet was eerst weg... misschien gecontroleerd uitbranden is thv haar maas
is bij mij achter... vuur is uit nu ... wel hevig vuur zonet
brand burgemeester visscherstr? ???
hoop echt dat de oppositie die hele show van leugenaar rutte... afzeikt en bestookt met de een na andere motie... wat een farce
wat is de volgorde van die boeken serie
ja er komt een filiaal vd spar en een dependance vd bieb
on ge loof lijk... hoe is het mogelijk... dass gibt es nicht...
teveel kwaliteit ingeleverd .. over het hele elftal gezien...
echt die boetius kan er dus helemaal niets van
kijk als je zo een bal niet bij jorgensen krijgt tja dan
boetius.... pfffffffffff geen idee waar hij aan begint werkelijk geen idee
beslissend is amrabat wel... vorige week tegen ajax en nu weer uitverdedigen door het midden... kreeg ik op de d1 geleerd nooit doen
tja boetius. dat zegt veel
wat shaktar toelaat.. zit totaal geen lijn in.. helaas
wat is vilhena aan het doen
el ahmadi speelt te ver naar achter geen druk op de bal..
ging amrabat nu voor marokko spelen...
een tempo versnelling en het ligt helemaal open
nog slechter uitverdedigd
kinderlijk verdedigd
mooi voor celtic... verdiend
is het niet zo dat de auto zo afgesteld geconfigureerd is.. of is dat altijd zo
ja idd het is nog lang
klopt, is ook nog nooit gebeurd... journalist 😲
nu vettel... met het vingertje in de lucht .
ik mag van het vrouwtje niet zelf denken 🙃
ben nu benieuwd wat ze met verkel vettel doen
hoop maar dat max vrijuit gaat....
boh dacht ff dat max geraakt was... 👍
maximaal
ook dat ja...
nee hoor, die worden wakker in een ajax pyjama...
als die van roda zouden verliezen... dan dan.. ja wat dan.... ®¢¥} ®™ ¥¢©®™{{{{&lt^¡¿¡®¢
mag er ook in hoor larsson
het spijt me, maar dit heeft geen zin met die jongen het begint zielig te worden
nee serieus... kan een goeie worden
yep. stoeprandje
en wie zei dat toornstra niet mee deed
haha dat dan weer wel
jammer nelom. bijna
wat een klasbak die kramert
doet toornstra niet mee
ooooo bijna
wat een vertoning... daar kunnen ze zelfs geen huidvleisch van maken
wat een amateurs
weet je wat nu het erge is.... ze kunnen echt niet beter
foi foi foi. ga je schamen
verschrikkelijk die nelom denk echt dat hij goed is
mieljaar wat een muts
nee hoor, mijn tante in surhuisterveen die kun je er voor wakker maken.
hey... pas op hé.. qatar is beter dan swift... niet veel maar toch
zeg ik toch.. geen bal komt voor vd vleugels hij is gvd 2.40 groot
aha je bedoelt vermeer... ik denk camera man omgekocht
zijn ze stiekem al mee bezig denk ik...
nee hoor
is dit het eerste van swift
idd ik vind vermeer prima keepen
idd gewoon blijven zeiken...
spits van 2. 40 en geen hoge voorzetten van de vleugels... knap
euh amateurs en met 10.. wat klopt er niet
kijk um vallen.. nelom lever die schoenen in en ga biljarten
denkt dat hij neymar is..
lastige bal voor kramer 50 cm vd goal .. offfff
daar zakt nelom door zijn hoeven
ik ga mn kiksen aan doen... wat die kramert ken ken ik beter
nee hoor... volgens het boekje
kramer rood voor straf
wat... klompvoot is ut
ik zeg toch alle ballen op larsson
pingel..
wat een ventje die vente
zeker weten..
alle ballen op larsson
mijn vader.... ongekend als je mij ziet
de grootste eikel van nederland ..
ben bang dat derksen en consorten, feyenoord helemaal afbranden...
och och peter brrr de vries vindt max maar niks... luister pannenkoek wat jij vind moet je naar de politie brengen..
nee dank u, vindt de boven kant al erg genoeg
nou, ik denk dat hij de dozen die om zijn schoenen zaten eraf moet halen, misschien helpt dat.. verschrikkelijk w…
mijn collega is voor ajax heb hem zoals het hoort gefeliciteerd met de overwinning.. hij is nu op weg naar de gips afdeling van dijkzicht😁😁
belachelijk
max en vettel... word leuk
mafkees dat was vanmiddag hoor
is koeman al onderweg naar zeist
waarom, kan een reporter niet gewoon verslag doen van een wedstrijd.. zoals bv in duitsland zonder euforisch te worden als zijn clubje wint
en twee goeie vaste centrale verdedigers mis je ook heeft weerslag op rest van het elftal.. en ik blijf er bij te w…
je hebt veel ingeleverd met elia, kuyt, karsdorp , kongolo.. komen talentvolle spelers voor terug.. deze staan…
o ja zeker doe piemelen die je nooit hoort... en nog nooit in een stadion geweest zijn.. zitten nu in een ajax t…
natuurlijk niet objectief zijn zit niet in dat dna.. ze blijven zichzelf zooooo geweldig vinden.. vandaag de m…
frits, heb je nu weer gedronken en de verkeerde wedstrijd gekeken...
van andere kant... diks is als back al onrustig... centraal levensgevaarlijk.. dat bleek
dacht ik ook... maar hij beschermt
zoals feyenoord het liet lopen de laatste minuten.... heb ik al hèèl lang niet meer gezien... vind ik veel erger dan de nederlaag
en morgen gaan we weer gewoon aan de gang. het is maar een spelletje 😢😢😢😢
iemand ... echt het hele jaar nog niets van gehoord .. met van ajax kampioen. juist ja succes in je verdere carrière.. en geblokt mafkees
vilhena had wel moeten knijpen richting dolberg...
och dat blijft.. zal ook nooit veranderen helaas
diks komt ook als centrale verdediger te staan, terwijl hij als back al vrij onrustig speelt. niets aan te doen tev…
zeer slecht maar feyenoord nog veel slechter.. je ziet wel nl en europese wedstrijden kan niet.. en natuurlijk…
moet je nu zeggen verdiende overwinning of verdiende nederlaag
niet veel... maar dit ajax.. och nee last maar
de minst slechte wint... eigenlijk te verwachten.. 4 centrale verdedigers weg...
lijkt mij ook.. vraag het... sjokt over het veld... alles op safe
psv gaat fluitend kampioen worden..... feyenoord komt dit seizoen niet meer voor in het stuk.. en ik denk ajax... misschien ....
schade beperkt houden lijkt het wel. wat een verschil met vorig seizoen
idd.. en ze lijken zelfs niet op elkaar
vilhena zwemt zwemt en verdrinkt laat dolberg lopen
je ziet het aankomen foi
dat ziet hij dus niet
makkelie spaart huntelaar
de ligt bevonden
tooooooooor stra
feyenoord zal heel snel een creatieve middenvelder moeten halen.... heel snel dus
haal die mafkees boetius eraf... vanaf de eerste minuut... slecht
zoals zo vaak de man die eraf had gemoeten scoort
boetius nogmaals eraf gvd
oké we hebben boetius , vilhena en berghuis nog op de bank.. mogelijkheden genoeg dus vd tweede helft
het probleem word iedere week duidelijker.. geen creativiteit op het middenveld spitsen worden niet bereikt.
wat is er toch met vilhena.... overal te laat loopt alleen maar achteruit
vilhena en boetius.... slecht zeer slecht
die janssen mag nooit meer fluiten nooit meer.... ongelooflijk
grammatica ... pannenkoek ...pffff
och.. heb je altijd en die club heeft meer shit gehad dan mvv en die hebben al veel over hun heengekregen zolang…
o ja is me nooit opgevallen 😉
ff steuke
denk dat koeman na morgen op vakantie kan
mindhunter.. top serie op netflix
ayoub.. van utrecht
creativiteit, slimheid op het middenveld dat mist feyenoord nog...
tegen de koplopers van engeland, italië en oekraïne... dan weet je het wel
nederlandse clubs hebben op dit niveau niets te zoeken. helaas, of in ieder geval veel spelers niet
ojee wat valt boetius door de de mand.. schrijnend
amrabat top hoor wordt iedere week sterker
waarom zo moeilijk...
wat is er toch met vilhena.. ongelooflijk..
boetius mag er van mij af.. spijt me maar..
boetius mag er van mij af.. te min
het gaat sneller te snel voor feyenoord
dat bedoel ik... hebben er ook niet veel nodig.. dussss
mocht feyenoord dit onverhoopt winnen, dan mag je het gerust een sensatie noemen...
show time .. vallende ziekte
nieuwkoop loopt mank...
helemaal niets.
voetballen gemakkelijk..
het is een heel goede ploeg ... dat shaktar.. ech wel
nederlands verdedigd , dat dan weer wel
niet te gehaast... rustigggggg blijven
ja toch niet dan
geen paniek komt goed
zag het in de herhaling
tja.... boetius...
swiebertje vd belasting wordt gewoon minister.#oprutte wat een bende, heeft de burger miljoenen gekost met blunders bij de belastingdienst
denk het... ben bang dat feyenoord dit jaar weer als vanouds in de achtervolging blijft... maar het is nog lang
tja.. knap hoor
maar buiten dit, psv speelt goed vvv mocht ff denken dat er wat te halen viel.
nou nou... kijk goed hij raakt hem... gelukkig... niet... was ook geen corner... duss makkelie zit er zeeeeer vaak naast
altijd gelazer als makkelie fluit.. altijd
vvv wordt dus belazerd... en niet zo zuinig triest hoor
het is het hard inkomen van promes, hij raakt arias niet.. direct rood zwaar bestraft
vraag me ook af wat er met vilhena aan de hand is.... alles breed en terug op safe. geen enkele diepte in zijn spel
gisteren vaak heel veel ruimte achterde verdediging van pec.... geen enkel slim steek balletjes gezien.... pec speelde tactisch slim..
resume.. feyenoord geen creativiteit of intelligente voetballers op middenveld... bij compact spelende tegenstander geen idee wat te doen..
niet goed dit....
maar maar
nu in de samenvatting. vilhena loopt streds achter zijn tegenstander aan.. klopt niet
boetius in de spits werkt dus vandaag niet.. dussss
valt wel op.. hamstring blessures bij feyenoord...
een mooi moment voor een club na 20 jaar ellende en tegenslag ... via
gelukkig voetballen er geen buitenlanders bij mvv. .. 😁
tja... vvd ... wat verwacht je dan..
dus.. als je geen 3% loonsverhoging krijgt, dan ga je er dus 1,5 % op achteruit.. rutte bedankt pannenkoek
op advies van gullit
dickie gaat voor de winstpremie
ff wachten loopt nu van het veld ik pak hem zo
ja hé.. . niet vol er voor gaan
wijnaldum valt toch tegen hoor... lijkt wel of hij niet vol er voor gaat..
hoop het niet
laat die gekke locadia maar opdraven.. oorlog maken in de 16
yep
de ligt uit in bulgarije voor de leeuwen gooien ook een reden van tactisch onbenul... dit is geen verwijt aan die jongen... wel aan blind
zit huntelaar op de bank ik bedoel reservebank niet thuis hè
ja janssen... die moet je hebben . moet
wat een gif in dat schot ...
tja... zo moet dat
het is in amsterdam hè..
man man... knatsch gek
waarom geen huntelaar...
snoekbaars hou je kop
die gast gaat niet echt de duels aan
ja ja ff aannemen
janssen komt als aanspeelpunt toch veel te kort...
boh 3 man vrij.. zoooo dlecht verdedigd
ik blijf het zeggen die babel. .. loopt raar
eigenlijk is het jammer.. zou zoveel spannender zijn als het in punten gelijk zou staan
maakt niet uit... gewoon winnen goeie wedstrijd spelen... en dan 2 jaar bouwen aan nieuw elftal
man man robben... nu al een traan. owee
en ik hoop dat toivonen degradeert...
hoop in ieder geval dat die watjes. . robben een passend afscheid geven
ik denk dat het 2013 wordt...
amen
grappen maken over het nederlands elftal is makkelijk scoren. 😢😢
ijsland gaat gewoon naar het wk.. knap voor een land met minder inwoners dan de stad utrecht..
jazekers.... bergaf
hoe zou het toch met vettel zijn 😢😢😢😢
nee vriend... 7 goals verschil 2013 kan wel 👍
is peter r. de vries al om commentaar gevraagd
juist... wat een lamzek geen passie geen inzet... verschrikkelijk..
die mag die bal nooit meer kunnen voorgeven.. janmaat. bah bah
komop dick, een paar extra verdedigers erin...
een punt in een uitwedstrijd kan belangrijk zijn.... je weet het niet hè
heeft depay handschoenen aan.
het is dat die wit russen er niets van kunnen anders...
die propper loopt zo slim dat hij in geen enkel duel komt, ongelooflijk
te sjlech veur ondur ut zoermoos
rood janmaat 100 %
idd de strijd om de vierde plaats is weer open
geef robben een publiek wissel... verdiend hij
dit elftal is nog slechter dan dat van 82 en 86....
yess we gaan risico nemen klaassen komt erin
nee hoor klopt niet.. die heeft nog nooit een bal geraakt... man man
het word tijd voor plan b
je hebt niets meer te verliezen, waarom jaag je ze niet af.. ipv dat oeverloos heen en weer gecombineer..
probleempje.. tov andere vergelijkbare landen komen we toch veel kwaliteit te kort...
wel meer dat geloof ik ook... maar het is de komende jaren niet anders, hopen op nieuwe generatie
verrassend robben die naar binnen komt met de bal... gelukkig weten die wit russen dat niet 😤
20 minuten bezig... en wat is gebeurd... eerste schot op doel... nou op doel
weet ik, maar dat maakt toch nirts meer uit.... we zijn echt op het niveau san marino, far oar enz beland en dat is realiteit
zag ik al voor de blessure.. dat die raar liep, motoriek klopt niet
eigenlijk beter zo... bouwen aan nieuw elftal... niets verloren op wk
ondertussen in wit rusland ... klop klop op de kleedkamer deur van oranje... assistent trainer met briefje .hoeveel om met 17 nul te winnen
gegarandeerd , maar die of deze gaat zich niet melden denk ik..
en per direct de benelux opheffen... en nooit meer tanken en sigaretten halen...
shit ,hier is geen handbal...
gewoon met 7 spitsen starten ... met een beetje geluk winnen we dan met 211
dacht dat zoiets na 1983 ...spanje malta niet meer mogelijk was... maar kijk en huiver ...#zwelux
ja ja en advocaat boos worden op een journalist .... het word echt geen 80 voor zweden ... moet jij eens opletten dickie ...n
hoop dat luxemburg degradeert
haha die berg heeft nog nooit een deuk in een pakje boter gevoetbald... maakt nu een hattrick.. knap hoor
zappen, niet meer kijken dus.. het is klaar
och gewoon met 12 0 van wit rusland winnen en van zweden met 70.. dan op naar de play offs
wat een farce.. never nooit geen penalty
volgens mij is nec heel goed, want die hebben met 41 van mvv gewonnen.. kan niet missen
rauwe italiaanse serie...beter dan menig andere
wie is dat die scheids.... eerlijk zelden gezien.. wat een droplul
zeg hem maar dat hij aan zijn hart moet denken.. 👍
en idd voor alle twee de teams
is toch niet normaal.... die fluit pas echt slecht.
zelfs de reporter vraagt het zich af... zelden gezien dit
haha.. die maakt het echt bont... vraag me af waar ze die gevonden hebben... duidelijk hands van nec.. kan vrij door.. man man
kleine overtreding nec speler, geel.. wat een kneus zeg
overtreding van fortuna speler, zo opzichtig.. door spelen... niet normaal
ben eens onbevangen naar fortunanec aan het kijken.... maar die scheids echt ongelooflijk die maakt wat... niet vaak gezien..
juist.... ik vind het best een goed salaris, wat leraren verdienen... weet niet precies hoeveel uren per week, m…
als leerkracht word je ingeschaald tussen de €2.317, en €3.640, bruto per maand. wat een verschil tussen het mini…
idd.. munitie gekocht van de amerikanen , die aangegeven hebben dat ze niet instonden voor de kwaliteit .. munitie…
goh... alweer een vvd er...
oja.. en niet de minste namen, die met hem weglopen... triest is het
mafkees... geef dat jochie een ijsje... en dan vinden ze het gek dat niemand vertrouwen in de politiek heeft , wat…
zo... nog ff een paar uurtjes met het veer nasr uikeve..
fluit maar af.. klaar