voor als je zelf alvast even een loting wil doen😀
je vergeet elvis manu als tegenstander😉
haha die zijn nog niet eens begonnen met trainen. anders waren jullie kansloos geweest😉
😂😂 die laten we daar zitten. bijlow💪
ja
aad de mos als scout binnen gehaald?
kun je ervoor mooi gaan winkelen😙
jammer. geen heicop, herovina, haaften...
zeker mooi geworden! blij mee😎
en zo is het en niet anders!
vandaag stonden voor gesloten deur hadden bij kuip parkeerd. gister unieke kans o…
hebben ons gistermiddag verbaasd waar na wedstrijd het feest was rond of in stadion na sp…
precies dit! na 1 minuut al tranen over je wangen....❤️
wat een held!!!!!
aan ons is de glorie, het dal is voorbij!!!
vreemd🤔
klopt het dat de facebook pagina niet meer bestaat?
insiteman ben jij😉
wat een middag!
ze mogen a.s. wedstrijd proberen😉
nu paard van sinterklaas?😌
zlatan is uitgedaagd😉
kun je ook duidelijke foto maken?
het moment van 2016?👏
hahaha ja zag het😂 zou die uitgerust terugkomen?👌👈
za hier heel erg blij mee zijn!!
hoelang is verwachting dat kongolo er nog uit ligt?
de verwijzing naar de website feyenoordcity is ook wel grappig. nieuwsstukje op deze website is van 18 maart 2015!!
zo moet je het lezen dus... top! leuke affiches.
volgens mij nuenen oirschot?
kan helaas niet aanwezig zijn maar wil wel goedkeuren geven. kan ik mail sturen is dat voldoende?
heb je brief gehad of mail? ben dat ook namelijk maar nog niks ontvangen..
heerlijk!
volg mij even voor dm
dit is lekker zeg!!!
website van onze supportersvereniging is al volledig op deze nieuwe soap ingericht
haha mooie foto herken hem nu pas.
volop genieten dus....😊
ja indd! ga vakantie vieren joh😜
tot zover de kaartverkoop van voor de europa league verkoop...
wat een dramatisch systeem! ga je schamen!
je kunt ook eens bij ash in hellouw kijken of bij svs65 prachtig bordje morgen gratis bier
haha helaas een kat komt er hier niet in...
iemand de gouden tip om weg te jagen? last van
komen de samenvattingen van de premier league niet meer te zien in jullie app?
thnx voor de info. voorlopig nog niet veel om warm van te worden.
overigens benieuwd naar deze speler. speelt vanaf 10 deze wedstrijd?
zonder vrouw? als dat maar goed komt...
fik karsdorp
mooi he. moest er gelijk aan denken
haha😂😀
bedroevende deal voor feyenoord dan...
hopelijk in meerdere termijnen...
aardige uitdaging😉
dat is een schijntje! ook je wissels kunnen op een redelijk niveau spelen. beleid bij van geel ver te zoeken....
wat kost zon elftal ongv.? lijkt mij dat je liever 20 talenten hebt dan 1 overbetaalde janarie...
hebben wij ook😑 inmiddels met wifi extender wel goed bereik. kan ook aan je huis liggen...
prachtige beelden!👍👏
anderson uit arkel ook weer bij rkc toch?
wel jammer van dat kunstgras😞
waar blijft je gifje van een heen en weer rennende simeone? heerlijk om naar te kijken!
zo kun je de lastige klaten uitloten en de makkelijke klanten inloten..... kansloos!!
kan feyenoord ook niet dat japanse bureau inhuren?
enig idee wat er met karsdorp aan hand is? erg afwezig na wedstrijd liep er beetje verloren bij.
in de emotie is dat een uitspraak van fred rutte?
heeft denk ik niets met sportieve prestaties te maken meer met andere zaken...
waarschijnlijk zullen ze niemand flitsen voor hardwerken
is td geen leuke functie voor jou bij feyenoord?😀
wat doet deco daarbij? zaakwaarnemer?
misschien kan deze man je nog helpen aan wat speldjes?😄
dank. zonde dat ik nu pas achterkom.
nog ergens live te zien?
😰 dan maar wat drinken.
wel met pierre overlegd voor je dit inleverde?😭
tapia als middenvelder of centrale verdediger?
verlengen kongolo lijkt me grotere prio dan tapia. spits geen overbodige luxe als achabar kans niet geeft voor langere periode
dan zou het mogelijk moeten zijn.zo maak je wel ruimte in salarisbudget voor een spits? kramaric helaas naar hoffenheim.
gaan we onderzoeken. bovenaan wensenlijstje.
ook leuke pot. en lekker naast de kachel! wens van ons in nieuwe huis.
en met dit nummer ontvangen? of zit je lekker bij 🔥? napoli inter
die is toch alleen geldschieter? oh wacht...
dan zouden het 2 stoelen moeten zijn toch? of mag mevr. van geel niet meer mee naar uitwedstrijden?
geen idee wat het is? wel leuk dat je gewoon maximaal kunt stemmen achter elkaar.
lees je mee😜
is de man die de namen moet voorlezen al aan het oefenen op de namen van hem en die iraniër?
na woensdag ist alleen nog maar 🌞🌞 voor hun
joppie vd linden met zn goeie linker😩
die doet niet mee woensdag😉 die gozer is wel echt een beer zeg. tering!💪
tevreden? thuis afmaken hoop ik voor jullie.
ga je erheen? makkie joh. louis heeft het ook nog niet op de rit staan..
nog gefeliciteerd met de 3 punten. leuke poule alles nog mogelijk.
zag net dit filmpje voorbijkomen. gespot😉 boeruuuuh!!😜
ok, word niet kwijt gescholden? tegen vitesse thuis vorig jaar. zou zonde zijn als die vandaag een kaart pakt. speelt sterk!
nieuwe regel dat kaart van kongolo blijft staan na wedstrijd van vorig seizoen?
wat die haller wel niet aanricht!
op half veld dat er zo snel gescoord kan worden?😜
deze gezien?
1000e volger opgevallen?
is het al volgende week? wat een eind van
nog ergens te volgen?
ok bedankt. is de online app nog wel in ontwikkeling?
waarom staan de samenvattingen van dr seria a niet in de foxsports app?
is deze coëfficiëntenlijst ook ergens te vinden? online?
ok bedankt. zal het in de gaten houden.
wil volgende week een training bezoeken of dinsdag of vrijdag. welke dag raad je aan?
bedoelde ligt niet alleen aan zaakwaarnemer dat hij niet bijtekend dus. blijft eeuwig zonde.
ok. ligt dus niet alleen aan zaakwaarnemer? als je hem zondag zag invallen snakt hij wel naar minuten...
is er nog een kans dat hij ooit bijtekend? als hij nu opeens zou gaan spelen bijv.?
boogers al in de kleedkamer geweest?
nu zn gedrag nog😜
snap ik. ben wel benieuwd hoe afloopt dit. die jongen heeft echt veel talent vind ik. kleine broertje van adriano
haha was ook een opmerking met een 😉. ik wil echt dat die kwal weggaat. en locadia vind ik echt goeden zeker versterking voor fr.
hij mag wel in een ruil deal met kazim😜
haha oke dacht misschien weer terug naar gras😜
er ligt toch kunstgras? lijkt net een droog grasveld..
maar zijn de spelers nu komen beter dan wat je hebt? dat is denk ik de grote vraag.
kunnen jullie niet eens in de scouting verdiepen en erover schrijven? spelers die nu komen bij studio sport gescout...
is tommy oar niet voorbijgekomen bij ipv elia? stuk goedkoper en jonger...
welkom besloten trainingen?
denk niet dat we met de spelers waarmee feyenoord nu in verband word gebracht kampioen worden. dan echt goede spelers halen!
vind de app die er nu is erg onoverzichtelijk.
veel plezier vandaag met je broer. geniet van de atmospfeer!😊
als jullie toch nog bezig zijn met verbeteren van jullie app kan er dan ook niet weer een menutje met alleen videos terugkomen?
vergelijkbaar bord met eten!!
immers naar feyenoord
hoe gaat het met van beek?
ruildeal met kazim dan hoop ik?!
hoe zit het met de schwalbe van machlas in de arena tegen feyenoord?😀
dit wil ik ook !!
het hoog van toren blazen met grote namen heeft toch niet erg geholpen. lijken toch over andere boeg te gooien... wel jammer!
volgend jaar weer?😜
haha! of go ahead overwinterd en barca word 3e in de groupsfase.
er is een optie dat messi op de adelaarshorst speelt
of achabar natuurlijk
gok op 532 vermeer, wilkshire, van beek, mathijsen, kongolo, woudenberg, clasie, el ahmadi, toornstra, kazim, boetius zoiets?
gaan we dan maar van uit. zou zeker een topaanwinst zijn voor fey.
hebben jullie het telefoonnr. van van geel? heb een mooie naam voor hem eens werk van te maken. djuricic!
om zijn uitspraken of voetballend? blijft toch een gok als je hem haalt vind ik. een zekerheid is alleen onbetaalbaar
veel plezier!
je bent alweer in werkendam zie ik?! geen feestje daar?
gefeliciteerd man!! goede fakkel?😜 en al dronken?
vertrouwen hebben. ik denk vandaag 11
komt allemaal wel goed joh en anders volgende week?😁
doe eens normaal joh. haha
8 mei 2002 wat een prachtige dag was dat en wat een prachtige herinnering aan deze super dag!
finnbogason? waarschijnlijk zelfde vehaal.
ok, ben benieuwd dan! 442 ook een optie of verwacht je gewoon 433?
ok, benieuwd of ze nog verder kijken dan guidetti en kazim. kuyt vanaf rechts of verwacht jij hem in de punt?
wat moet die kosten? guidetti ook tekenpremie en iedere andere spits kost ook geld. finbogasson een optie? speelt heel weinig...
zonde als ze niet onderzoeken. als hij echt wil salaris is hij een super optie. beweeglijk, doelgericht. beter dan kazim,annas
is deze wedstrijd nog ergens te zien op het open net?
je had gelijk. mooi verhaal dit😀
blijft de huidige fysiektrainer ook? of langlopend contract?
robertha al eens met aselectie getraind toch?
kan wel begrijpen dat die opstapt na zon reactie.....
zat die dokter daar ook op de bank?
laten we hopen dat het ook daadwerkelijk in punten gaat uitbetalen.
tja... liever de meeste punten😓
daar gaat je geld.... “@rvoetbal broodje balgeld vv schoonhoven bij inbraak ontvreemd ”
mathijssen houden voor juiste salaris. op de bank constant aan coachen naar nelom/kongolo. moet anders nieuwe centrale v bij komen
zie het nu ja. goede zet!
is het al bekend dat hij terugkomt?
omschakeling idd zwak. maar systeem onder v.marwijk dat 4231/4222 met kuyt in rol van tomasson die rol kan achabar ook prima
dat is waar. alhoewel die naar mijn mening ook prima vanaf het middenveld kunnen spelen met 2 controleurs. boetius zeker.
niet? met guidetti en kuyt misschien goede optie. met 2 aanvallende flanken en 2 centrale middenvelders lijkt me prima optie..
mocht feyenoord volgend jaar 442 gaan spelen met kuyt en guidetti komt hij misschien beter uit de verf? verdiend een kans!
inmiddels doet niets het meer nadat ik de kabel direct heb aangesloten zonder splitter. willen jullie nog eens kijken?
kunnen jullie contact opnemen met mij? wederom geen voetbalzenders terwijl ik wel fors!! betaal hiervoor.....
ja dat is ook belangrijk. en wat er gaat vertrekken uiteraard. maar kan naar mijn mening prima als hangende buitenspeler spelen.
had maandag een gesprek toch had ik ergens gelezen? wat zijn jou verwachtingen mbt zijn toekomst?
volgend jaar weer in de kuip? speelt erg sterk bij eindhoven!
volgende week kuyt presenteren en alles is weer vergeten.....
ja maat! is de maat die ik meestal ook van andere kleren heb dus zal wel goed komen hoop ik. tijd voor een winkelpandje 😜
haha oke! bestelling geplaats zie wel wat het word dan!😄😄
vraagje, ben ook van plan dat jasje te gaan bestellen maar twijfel tussen xl &amp xxl. valt die groot of klein??
hij heeft toch geluisterd!!
inmiddels weer wel. laatste wedstrijd winnende gemaakt. zou wel topspits zijn voor feyenoord.
maar denk jij dat s. kalou haalbaar/aantrekkelijk zou zijn voor feyenoord? mits hij wil inleveren natuurlijk.
ja bah wat is dat feyenoord een racistische club!😆
weet jij waarom pogba wissel zit? heb 1e helft niet gezien misschien toen verteld oid?
om het uit te leggen dan niet voor een terugkeer haha
hebben ze het nr. van 1 van de kalous niet? kunnen die het uitleggen.. kunnen ze salomon gelijk ff polsen voor een terugkeer😄
had er wel over dat vuurwerk uit feyenoord vak afkomstig was??
is een jongen die bij mn broer sport. aantal wonden in gezicht en hand. hand zat flink in het verband.
en dat soort spelers die categorie.
ja daarom snap ik niet dat rutten hem per se wilde hebben? ik vind opleiden en alleen echte buitenkansjes kopen. dus niet boulah
wat vind jij van dat kopen? chery kopen als je al 5 goede middenvelders hebt en met schuurman en nieuwkoop er aan komen?
tja, dat heeft ook niet gewerkt.. we zien het wel maar zoi van gastel geen onverstandige keuze vinden.
ja idd zoiets. ben benieuwd maar zou wel terecht zijn dat v gastel eindelijk eens de kans krijgt.
maar bij wie zouden ze moeten uitkomen? exfeyenoorder? of iemand van buitenaf? joop gall ofzo?
stel dat v.gastel het overneemd wie vind jij naast gio een gepaste assistent? ervaring belangrijk denk ik.
wat mij betreft beste optie met een ervaren assistent naast jp&ampgio.
hij interpeteert het zo maar deze banaan was niet zo bedoeld. scheidsrechter deed wel meer vreemde dingen.....
dat ontken ik niet. maar die banaan heeft in dit geval 100% niets met racisme oid te maken.
dank! nogmaals is misschien niet slim maar heeft er echt niets mee te maken. durf ik hand voor in vuur te steken.
feyenoord heeft zelf ook donker spelers! banaan was vorige week ook in rome. dit is dingen zoeken die er niet zijn!
hopelijk kun je dit nog tweeten oid.
snap dat het zo word opgevat maar heeft echt 100% niets met racisme te maken. wij hebben zelf ook donkere spelers.
is actie die al vaker word gevoerd. bring back the banana is iets uit jaren 90. niks met racisme te maken!
zou er iig niet rouwig om zijn als niet bijtekend. talenten worden niet beter en komen qua resultaten ook niet verder.
vandaag maar weer gezien dat je op mentaliteit ver kunt komen. iets wat onze huidige trainer er niet in krijgt. geef v. gastel eens de kans!
waar zijn de fotos van de mystrieuze man gebleven? ben benieuwd wie het nu was....
ten alle tijden voor jp&ampgio kiezen! ervaren man erbij &amp jp naar voren schuiven. rutte is graag of niet liefst wil die kopen,kopen.
vind ook dat hij teveel om aankopen zeurt. focus je op selectie ipv impulsen van buitenaf etc.
lijkt mij dat contract met deze heren belangrijker is dan rutte.. die moet zich aan feyenoord aanpassen ipv andersom is een passant
balotelli met de 32 en wat was hij blij!! 😐😐
haha idd echte clowns. onze tobspits kan moeiteloos mee in dit theater.
wat een prachtig theater bij de africa cup! wat een slecht voetbal maar de beleving is geweldig!
ja dat wel. maar kan hij nog sportief van waarde zijn? hangt ook prijskaartje aan. zeker voorin problemen met goals..
benieuwd wat daarmee gebeurd. en haal je die als spits? nagenoeg altijd rbuiten laatste jaren..
guidetti? je ziet gewoon in momenten dat kazim weinig ervaring als spits heeft.
it giet oan! vanmiddag voetbal bij
wat gaan ze met basacikoglu doen? en verwacht je nog binnenkomende transfers? een buitenspeler?
het is al verholpen. toch een aantal uren helaas niet kunnen kijken. ging om de zenders van fox sports.
nog supporters aanwezig? mensen die een bak met geld neer hebben gelegd voor ?
niet aangekomen in spanje? zie je niet op de foto
kunnen ze voor dat geld beter voor een speler als reus gaan... of depay in de zomer?
gezellig dagje rotterdam met nu lekker wat lunchen in de markthal.
ja indd. ff mee opletten dus ook als we orders krijgen??
gaan het idd wel zien. zag net deze link belooft niet veel qua goals. succes ook voor andere mantelinhos
😪 haha. ik hoop dat je een leuk avondje hebt maar hoop toch zonder winst/gelijkspel voor jullie
nog kaartje over?
heb jij een internetadresje waar je deze prachtige truien kunt kopen?
zie
middagje arnhem geweest. helaas geen 3 punter. had meer ingezeten. wel weer de 0. spits blijft een probleem!
das goed. ook van teneu vragen aan david haha. klopt wel zie
helaas geen 1e maar toch een leuke quiz met voortaan iedere werkdag een quizvraag verzinnen voor elkaar🙉
kan ik jou als hulplijn gebruiken? ook vragen over topklasse &amp koz. boys😐
vanavond voetbalquiz bij benieuwd of de 1e prijs al voor ons klaar staat
haha helaas dan maar direct de groepsronde cl in😉
staat feyenoord er ook al beter voor bij een eventuele nieuwe cl voorronde loting in vergelijking met dit jaar qua punten?
upc word binnenkort overgenomen door ziggo dus ook die massaal opzeggen?😉
fc krasnodar
jammer. even gas geven nog.
hoe gaat het? verdiend?
word er in alkmaar gespeeld?
henk fräser in mijn ogen de toekomstig nieuwe trainer van
jij zoekt mij op....😨 ik zag jou hongerige ogen voor fifa!
kazim op aanraden pierre en kan nooit gescout zijn omdat die nooit speelde. dus gewoon lekker zitten klaverjassen!!
toornstra kan iedereen zien dat die aardig kan ballen en dat bilal een talent is was ook al duidelijk voor iedereen.
alle aankopen zijn niet echt gescout lijkt me? el ahmadi, wilkshire, boulahrouz uit het old boys netwerk van trainer/td
“@markla94 feyenoord onder fred rutten 12 wedstr. v 7x w 2x in blessuretijd g 3x doelpunt 10+ 16” ga je schamen! diep schamen!
“@bvnontour feyenoord ik haat je. feyenoord ik hou van je.”
fotos van de wedstrijd van afgelopen zaterdag nog ergens te bezichtigen online? kort verslagje van zaterdag op vvasperen.nl
benieuwd wanneer je gelijk krijgt. rutte out fraser in?! ado speelde erg goed vanavond!!
titel zegt genoeg feyenoorder ben je voor het leven!!
wel echt een aanfluiting hoe ze hebben gespeeld. veel over het paard getilde mannetjes.....
wel vol in beeld met het spandoek!
kan me niet voorstellen dat we die verkopen.
van mij had die lekker daar mogen blijven!
wat vind jij? mulder niet sterk met voorzetten en hoekschoppen maar dat is vermeer nou ook niet bepaald....
koopje voor hertha blijft weinig over voor feyenoord helaas.
enig idee voor welk bedrag?
wat een wanvertoning was het eigenlijk. maar gelukkig hebben we nog
dankje. wel prachtige ambiance daar... 3 kippen en een paard. dat is wel jammer in dat soort landen.
heb je toevallig een linkje? ja was vorige week ook al niet best tegen die gasten. voor ons idem. nu hopen op leuke loting
wat een baas!
pffffffff bedankt man. wat een wanvertoning!! wel mooie ontlading😊
prachtig dat athletic bilbao door is naar de
bekend of fey. een premie krijgt bij transfer van bmi naar porto bij behalen cl? en kans op vertrek clasie groter?
iets met een kuil voor een ander. ”
ja, alleen waar is scoutingslijst? nog maar 1 kandidaat??
bij ons niet veel beter
haha mooi man! nog wat spelers kunnen regelen voor psv van bayern? ja goed man! gaat goed met dr en dan met ons ook goed!
jullie hebben het getroffen!!
kun je ons wat meer vertellen over kazim richards? wat verwacht jij van hem bij feyenoord?
jan, heb je mailtje gestuurd ontvangen? gestuurd naar janenannevandijk@ziggo.nl
stiekem wel ja
dramatisch! met of zonder nieuwe spits maakt geen verschil als je zo slap speelt😞
. zien het wel! moet eerst rondkomen?
weet niet of je er blij mee moet zijn? goede speler maar wel naar mannetje volgens mij
lijkt me ook niet veilig zie polen? cyprus? 2x in rotterdam?😄
“@lunaticnews luhansk de stad waar raket is afgevuurd op mh17. hoe bizar is deze loting.” benieuwd wat er gaat gebeuren met deze pot.
misschien in samenwerking met investeringsmaatschappij doyen waar ze eerder zaken mee deden?
morgen maar constant alle wedstrijden volgen...
als je realistisch kijkt word het lastig dus.. laten we hopen dat de goden ons eens een handje helpen..
deel 5?
tja... als je zo verdedigd....
mag toch hopen niet voor maduro als opvolger van clasie....😳
algemeen ook meer € op
ja dat is wel belangrijk voor die jongens. beetje weerstand. laten we hopen dat deze jongens doorbreken. aanvallers brengen over
gaan het wel zien! weinig goede aanvallers de komende tijd vanuit varkenoord gok ik..
afwachten is enige wat je kunt doen. maar moet wedstrijden in benen krijgen. bij slabbekoorn heb ik vraagtekens of hij het haalt..
ook dat! zou wel zonde zijn als zon goede voetballer niet doorbreekt alleen het fysieke gedeelte ..
neemt niet weg dat die jongen wel veel potentie heeft. alleen hoelang heeft feyenoord geduld??
die speelt daar op rechts toch?
wat voor club? top jupiler of eredivisie?
wat moeten ze in jou ogen doen met sleegers? voetballend sterk maar moet gaan spelen! verhuren aan dord/exc? of verzuipt hij daar?
snel slapen dan is het sneller 20.00u! zin in! erop klappen feyenoord !!
of die baldé van krasnodar? salaris zal die wel moeten inleveren maar lijkt me dat die ook nog wel eens westeu wil proberen
word er ook naar buitenlanders gekeken? rudnevs bij hsv geen topseizoen maar wel goede spits. zou optie kunnen zijn?
of broer van adebayo akinfenwa? doettie wel mee? of zit die in de kantine?😜
is het niet de broer van zeefuik?
heeft de kantinebeheerder al wat extra snacks ingeslagen voor deze afgetrainde aanwinst?😝
wat een spanning....
bizar! gewoon 🚲 heb je er geen last van
😂😂 “@vdgorinchem breed transport vanavond klem op de merwedebrug. veerdienst het juiste aternatief! ”