en dan zon boëtius gewoon volop aan ut lachen met de tegenstander na de tijd. schaam je kapot knul en ga trainen
jorgensen is een monster!
doe rustig dijk
om 17.05 hoor je nog te werken ... mooi leventje jij
verloren omgeving richel/oude dijk
verloren omgeving richel/oude dijk...#pleaseretweet
moet er een selectie van ut hobby op komen draven?
in plaats van zaalvoetbal aan basketbal gedaan vanavond?
haal die diks er alsjeblieft uit en ga gewoon met 10 man spelen. kan er geen ... van
matchday!!! we gaan stunten in napels vandaag
retweet voor dijks. like voor nelom 😂😂. die is gewoon 3 klassen beter
zucht.... ik kan elke tweet wel uitleggen. januari 2016 laatste pot in de kuip verloren. jad ut over eredivisie
geen paniek... kan gebeuren. werd toch tijd om weer es te verliezen in onze kuip...
dat kun je op je buik schrijven
de quiz van voetbalflitsen in adam wordt dus overgeslagen?
je raadt nooit waar ik over gedroomd heb.....#3punten
klopt helemaal arie... neem maar contact op via dm.
ohja vanzelf... dat is ut. wacht maar als ze een jaar of 10 aan je zij loopt vriend
jij moet een x mee menox. want nu sla je onzin uit🤣👊
we zijn erbij!! hopelijk 3 mooie potjes👊
vilhena was een monster...
dat zag je goed vriend. die gozer moet ten alle tijden bij blijven
gertje, je stelt me teleur. de kuip al eens meegemaakt? daar pakken we 7 puntjes
5 stuks makker. ken je statistieken. andere seizoen 7m cissé is een beest
uth is een monster. die maakt er nog 3 die gozer
zucht dus een handje naar achter is direct rood? welke mafkees doet ut commentaar bij ?
3e worden zou ook prima zijn teun, poulefase is ajax ook al jaren niet meer doorgekomen. maar…
die was gisteravond in de arena ook al stil...
korfbalvereniging de slappe pols zoekt nog leden. wel leden wie van een biertje houden
daar hebben we nu weinig meer aan vriend. het ned voetbal is nu gebaat bij punten en iedereen laat ut liggen. dieptepunt
die doen de laatste paar jaar weer lekker mee vriend barends
tis daar wel een spulletjen or. dat je nog niet eens thuis van rosenborg kan winnen. dat 020 kost ons flink europese punten... .
held! zonder de teen had hij bij de top5 beste voetballers van de wereld gehoord.
doe ik ook altijd. dan neem ik er 1 extra omdat ik die calorietjes verbrand heb.
daar gaan we weer! jorgensen is een monster!!!!
zuur begin voor 020. hallo kampioensschap, daar komen we weer
als ut euros zijn hebben jullie goed je best gedaan👊😉
jacques, zou frank net als jij ook fans hebben? gr jaap en jaap
hee hallo, f geen kwaad woord over de beste voetballer die ooit bij men club gezet…
sooooo... dat was zeker een snel mannetje... ik denk dat ie ut zelfs t…
en ik ben ouderwets veel biertjes aan ut drinken. excuus nelom
nieuwkoop speelt gewoon rechtsback makker. geloof me. diks banken
daar zat ik net ook even aan te denken..... toornstra en scharie moeten ut doen
st. juste prima aankoop...haps moet ik nog maar zien. kost in mijn eigen teveel geld voor wat ie tot nu toe heeft laten zien.
verstappen dit verstappen dat... laat die knul nou eerst ut einde van een race urs halen. is ook geen toeval meer dit!
respectloos tegenover christelijke volgers...
mwah, ben zeker in voor humor. maar wel met respect☺
aiii. daar gaat men sympathie voor pierre....
oneens. nieuwkoop is een topper
nieuwkoop makker
17 miljoen voor karsdorp is een prima prijs. opvolger staat klaar. goed gehandeld dus...
aanslag gepleegd op urk??? er staan welgeteld 11!!!! politiebussen bij het politiebureau...
er werd wel flink gelachen om die grap of niet??? als dat jouw humor is heb je een grote vriendenkring....
matchday!!! vanavond speelt de hobbyselectie tegen urk 1. komt allen. wedstrijd start om 19.30 en de entree is 2, voor footballplus!
niet ver vriend
nou nee hoor, alleen maar goed voor feyenoord
hier en nu vriend. laatste europese + nationale prijs. gewoon de beste. en dat is om trots o…
nikswauw.gewoon knap.wij wonnen met dominant voetbal van dezelfde ploeg inclusief zlatan.dat…
oh dus dat is de betekenis... en ik altijd maar anders denken
feyenoord man utd 10 ajax man utd 02 wij zijn feyenoord wij zijn de beste ajax maatje te klein voor grote mannen werk
boos ook verstand van politiek? moet niet te gek worden hoor
man o man wat een dag...
gewoon de beste
aan ut werk??? op de coolsingel ja, mogge
wij zijn de beste!!!!! wat een club, wat een dag, wat een verhaal. heerlijk!!!!
wekkertje op 8 uur in plaats van half 5. toch nog iets positiefs
hier heeft ie f om gezocht hoor😂😂
en terecht. verschrikkelijke overtreding 😂😜
tja, hier kon je op wachten natuurlijk...
rustig rustig. deze is ingecalculeerd...
ja zo blijft ut.... late goal van roda leverde um bijna 1800 op immers
zeker vermaakt vriend. alles is nog rustig. deze was al bekend, wij winnen daar niet zo vaak zie. maa…
knjb! 1e goal zwaar onterechte vrije trap. zoals altijd kunnen ze alleen op deze manier winnen. achja. 4 puntjes rommel zat
heerlijk man van berghuis... had alleen f iemand vol voor zen kanis moeten schieten. zat jij niet in dat hoekie ?😂😘
no problem... dit wordt een makkie
klopt klopt
oneens. ook te soft. en mag zich eerst nog wat meer bewijzen bij een club
je oppert serieus voor frank de boer? kan echt niet... louis nog t/m wk en anders alles er aan doen om koeman binnen te halen
ik weet wel waar dat aan ligt....
niet alles draait om voetbal vriend
nu nog goeie vrienden. straks 1 van beiden waarschijnlijk een enkelbreukje . voorbereiding op vanmiddag
zeker
altijd lastig..... excelsior uit😂😂😂
hij is heerlijk
tocosol zet goeie reeks voort. 41 overwinning op noordzee boys
wil je zeggen dat jaap en jaapniet meer de enigsten zijn jacques?
zou ik verrassend vinden
zo kan je ut ook bekijken...
ik schat de pvv flink hoger in harm. vele mensen zeggen het misschien niet maar stemmen er wel op. we gaan ut zien
ik heb zon voorgevoel.... geert komt morgen op minimaal 30 uit. mark my words
daar begint ut wel op te lijken inderdaad
10 monsters arie. dus maar f zo
heerlijke goal!
voor degene die het lelijkste tenue zoekt van dit seizoen. check az
nope.. dat al die aanhangers hier wonen. lijkt turkije wel man.
als je dus dat volk ziet met turkse vlaggen en gekke geschreeuw!ja dan ga je toch weer denken om je stem op te plaatsen...
4 goals tegen met zon keeper is onmogelijk
ik zou zeggen, never change a winning team. van slossen, kom es op ut bankie
al zou dat leicester nu 4x op rij degraderen zouden ze rainieri nog niet moeten ontslaan... is toch onbegrijpelijk!
tuurlijk man. nooit teruggeven
dan zou ik eens bij cool dental kijken
zijn wij niet nodig. wij hebben bilal
dat jij liever die lampies ziet als feyenoord zegt ook genoeg
vriend..... al kopen jullie nu messi en ronaldo. dit seizoen is al verloren
kashia 10???? die staat bij mij toch echt op 4 punten. uitleg graag?
ik denk anderson vanavond. laatste 2 jaar wereldkampioen en als ut echt moet staat ie er.
54 taylor
hij begint lekker
daar lijkt ut wel op ja😂
we gaan echt vlot achteruit in dit land... wordt toch tijd dat er iets veranderd!
origi
prima overwinning feyenoord. morgen zien wie er puntverlies lijdt. ik begin er zowaar echt in te geloven
cambuur uit..... altijd lastig 😂😂😂😂😂😂😂😂😂😂
heerlijk hoor......
badr is een monster
even duidelijk aangeven dat het publiek bestond uit 1 persoon. de scheidsrechter
noordzee maakt coenen/snijder reclame dik in. 51
jij bent nog steeds voor die galclub?
punten van luuk de jong worden nog aangepast? oordeel luidt namelijk dat het gewoon een goal van de aanvaller was
van wolfswinkel
flevo carservice 85 kramer fishkramer timmerwerken 24
ja ook dat nog. van men zus geleend. geen idee waar die um vandaan had
gods not dead 2. zeker een aanrader om te kijken!
koldetti is een monster
john de wolf
jij zou niet eens een tegenstander hebben. 1 keus
boudewijn zenden
badr is een monstee
jij zal nog wel dronken zijn
ik doe ook een kleine voorapelling vriend. 30
alles moet ik hebben van je!
eerst f van the bullet genieten. heb je die zen onderkin al es gezien?
hahaha ik zie ut ja, als je ze sochtes rustig wil houden moet je f je telefoon afstaan boos😂😂
dit is echt waar?siem de jong opgeroepen voor oranje?die blind wil echt de laan uitgestuurd worden met een zak geld volgens mij...#wanbeleid
mwah, kijk die f in de herhaling. puur geluk hoe ie um meekrijgt vllgens mij. maar speelt prima tot nu toe
zeker. nu de 02 erachteraan en klaar weer
jorgensen monster!!!!
die gozer begrijpt ineens wat scoren is
je hebt geluk dat team sv urk dit jaar helaas moest afzeggen mark. volgend jaar ben je de schaal kwijt
zo terugvliegen van vakantie... donderdag mag ik weer
heerlijke overwinning hoor!! gaan we dan echt meedoen dit jaar?
in zuid frankrijk helaas😂 volgende potten er sowieso bij!
wat een club he???
wie is ibra? depay? pogba? wij hebben tonny en bilal ouwe
dick advocaat natuurlijk
mega mooie loting. nog meer balen dus dat kaartjes krijgen niet zo makkelijk is!
geldt pas voor het jaar erop he
dan zijn we direct geplaatst vrind
zullen nog een paar rosti rondjes bbqen 😂😂
je mocht toch willen dat feyenoord voorronde moest spelen.........
en waarom? omdat er vorig jaar een opblaasbanaan welke elke week aanwezig op het veld kwam!ongelooflijk dat je zo met je supporters omgaat
lekker geregeld door met die kaartverkoop van thuiswedstrijden voor europa league.dikke fail door maar 26.000 kaarten te verkopen
sowieso. zen eingste goal van ut seizoen weer gemaakt
martin van geel kost maar 15!
neenee geen rugslagen vriend.
😂😂 ik ben elke week trots op men 50 baantjes waarvan om de 8 rust maar dit slaat alles.
is wel ongelooflijk dat je er nog zon sprint uitgooit na 10 km 🤔🤔
zeg dat. is toch overduidelijk?
rommel zat. die gekke duitser met zen hoedje, daar kon je niet van verliezen
prima 1e half uur van feyenoord. wie weet waar dit toe kan leiden!
biseswar is een monster!
toch jammer dat monster verdwijnt van de europese velden.maar geef um eens ongelijk!40 miljoen pakken in 2,5 jaar.het ga je goed held
geef nou gelijk alles gratis weg. manmanman dat jelui die shit verkopen
klopt randy. maar die hebben ook baarden dus is net wat je wil
eens! maar ik heb aan de andere kant genoten van de ijslanders. engeland is giga droevig
genieten man. dit is prachtig
wat een geweldige pot voor die ijslanders zeg. ik geniet met volle teugen!
ok, hier gaan we f voor zitten
ik mis nog een baas daar!
mwah.zit toch ook wel logica in frans?pas bij ziekte verzekeren doet toch niemand?neem aan dat kind al onder ouders viel?
ze konden toch ook altijd een paar keer on challenge aanvragen met tennis? is dat afgeschaft?
seamen en james
bedankt ouwe reus. tijd voor een biertje met zen 2
die heeft 2 wedstrijden gevoetbalt. waarvan 1 een 50 verliespot. valt weinig te bedanken😂😂
jaap en jaap zetten daar de wekker voor held! we missen je trouwens. wordt weer tijd voor een avondje!
de prijzen worden dit jaar verdeeld over rotterdam en eindhoven. 020 weer met lege handen
megaprestatie van atletico. elk jaar zo goed meedoen tegen dke grootmachten in spanje en opnieuw de champions league finale halen? respect!
wat een ongelooflijke prestatie van !!! onbeschrijflijk☺☺
inderdaad vriend. van harte alvast!
ik heb zomaar een voorgevoel...... dat ut weleens flink mis kan gaan
wat een mooie club is ut ook he??? wij zijn feyenoord
beest!!
gekke mo. nog een goal?
dit is 100% doorgestoken kaart....
let op!! laseren bij rotonde van profinis
love you broer. geen zin meer in discussie. gekkos
als dat rood is moet je je richten op toepen/dammen/biljarten. gebeurt niks man
tja. je moet me gelijk geven toch? aanfluiting zeg...
hahaha ja idd. je kan er geen 5 minuten voor krijgen
corners bij leicesterwest ham😊😊15 penaltys zou makkelie daar geven voor 1 moment.
niks tegen 020.maar kzie toch 10x liever psv in de champions league. wat een aanfluiting die penal zeg.makkelie geen pot meer laten fluiten
ligt eraan wat je er voor in de plek hebt gedaan. paar biertjes doen heb je geen spijt van lijkt me.
die legde jij toch ook wel ers zo neer harm?
broertje. relax😘
lekker he? zon bal maakt de hele wedstrijd al mooi
elia is een monster man. sowieso basis in oranje. of is depay beter?
zal je broertje of neefje maar zijn. zoeken mensen!
ok excuus dan maar
pastore heeft wel wat weg van toornstra. zelfde type speler.dat verfijnde!of kraam ik er nu weer onzin uit?
buitencategorie
die fernando 😂😂 eerst die goal weggeven,daarna 2 corners expres weggeven en dan je man laten lopen met een corner. mogguh....
kan ik men kilo karbo vandaag ook nog ophalen? helemaal vergeten maandag😂
heeft dat jouw eerste prioriteit dan?
mja.... zoet is nou eenmaal geen vermeer
die zoet mocht er wel 1tje pakken lijkt me? 8 penals wallie
vind die locadia overschat trouwens. kan er weinig van....
is er iemand jarig bij jullie????
helaas. zou um de groeten doen. maar kon um niet vinden vriend.
heerlijk or!! anderen twitteren over jouw cluppie wie zojuist de finale gehaald heeft! mega avondje in de kuip
hij heeft er nu alweer spijt van. als we maar f lekker uit eten kunnen zegt ie!
rijden kan ie als de beste die rein. duurt even maar dan ben je er wel
hoe laat moeten pisvee en 020 vanavond??? oh nee, die zijn al uitgeschakeld hahahahahahahah😂😂😂😂😂 we zullen instappen. nice day everyone!
precies. opzouten met dat volk
tja, dat media kritiek op feyenoord heeft wss, daarna naar v.bronckhorst toe. hee,hallo?mogen we kritiek hebben als supporters?
misselijk mannetje zeg die vilhena.....
hoppa!! als het eerst maar donderdag is
klein biertje en dan zullen we de stap opnemen
zeker. die wordt ondergewaardeerd. mega voetballer
liep daar maar 11 x de van ginkel van gisteravond. dan nog zou ut beter zijn.....
nee sorry harm. ik vond um waardeloos. misschien let ik er na 3 balcontacten extra op maar echt alles ging verkeerd
soooo echt wel. alleen maar balverlies gezien
misschien kijk ik niet goed maar die van ginkel bakt er niks van
stegeman met gonzalo van heracles
wij hebben elia
topwagen
west
wie heeft er een fiets met rode fietstassen gezien/gevonden? rt graag!
blauwe parels blijven doorgaan met winnen. 53 tegen strampel
jouw cluppies maken er dit seizoen een puinhoop van
klopt. in die hele staf niet. van gastel zit er al jaren,niks veranderd. wouters heb ik dit seizoen ook niks van gezien/gemerkt
advocaat erbij. die wouters en van gastel zit daar dus ook voor spek en bonen? wat een belachelijke move zeg...
top ouwe. ik ben ook voor 10 op een rij. misschien dat er dan wat veranderd
dat pec viert een feest zeg... tis feyenoord maar hoor?????
gelukkie dat we die van beek hebben. die zou op ut hobby dus netjes afgewezen worden....
jaartje geblesseerd houden en lekker op de lijst bij de blauwe parels!
dan loot ik ook nog stiekem mee
die doet inderdaad ook lekker mee
mijn excuus. maar hoor ik hazes muziek dan moet ie uit. jammer is dat he! doe mij maar ronnie flex😄
en ik een fobie
soooo die elia viel me een potje slecht in.... dat gras opvreten man!!!
en mag je die week erop vrij
eens
toornstra is een monster!!!!!!!!!
blauwe parels zonder wissels vernederen seafresh met 94!!
zo is dat vriend. maken we maar weer f mooi dagje van
prima loting. thuiswedstrijdje. zullen we ut maar weer proberen
lekker wedstrijdje hoor!! go vvsb!!!!!!
lekker op je reet krijgen in limburg. kan er niks anders van maken.....
geen volk meer sjonnie. man of 7 vast. de rest te vaak afwezig.dat kon niet nog een seizoen
😂😂😂. veel clubs zijn op zoek naar goals dus mijn telefoon staat op knappen!tzal bij arie rustig zijn😉
tocosol is uit zen dip. 84 overwinning op de wit assurantiën
mwah. beste kopper van de eredivisie. hij kan echt wel wat. je moet um alleen niet laten voetballen.
en dan zeuren over kramerwie uiteraard tekort komt... zet kees wakker en jacob tol aan de zijkant en hij maakt er 35
die heeft i i g een voorzet. elia dus absoluut niet!
echt op de flanken niet. qua middenvelders zit je wel glad. maar ik zie nog liever basacicoglu dan elia....
tis niet te bidden dat ie dat meent.
zo......... dat was me het dagje rotterdam wel weer. keurig hoor.
lach daar niet om vrugt
wat een grote baggerzooi zeg. die van beek kan er geen hout van. nelom is nog geen tocosolwaardig en wat ze voorin doen kan ik op me eentje!
blauwe parels denderen door 63 overwinning op korf kb.
dit is voor de doofpot arie.......
uiteraard aanwezig. maar ben anti amsterdam. f klein plekje ernaast dan ofzo...
1e in de poule. droomkoppel jaap en jaap. dankzij grote inspirator
niet mee eens. zijn te goed. nja jaap en jaap zijn er ook om ze te verslaan natuuurlijk
1e tentamen voor men nieuwe opleiding privaatrecht 😴😴😝😝
zou wat zijn mark..... kben voor de graafschap! gelukkig nieuwjaar gozer
klopt! f poepie laten ruiken met oompie in de goal
18.15 vriend
stephen bunting ook aanwezig zie ik?
ik heb het gevoel dat jij die weergaloze goal van vorig jaar nog niet vergeten bent
ik zou volaan juichen na een 180er en er zijn dus ook mensen die balen ervan!! erg zuur voor onze dirk...
tis niet makkelijk jan om feyenoorder te zijn....
dit zijn de wedstrijden die bepalen of je meedoet of niet.... mogge, dit hoorde ik in de 1e uitwedstrijd ook al.je bent 17 ronden verder!!
elke keer hetzelfde gezeik.die uitwedstrijden!graafschap,roda,nec,cambuur,weet ik ut!maakt niks uit wie.welke trainer kan hier wel iets mee?
vilhena gaat weg en begint ineens te scoren
we houden ut in de gaten
7 maal grote vriend
tocosol vernederd de noordzee boys 90
vanaaf koppeltoernooi gooien in de rake gooier.gaan jaap en jaap voor het grote geld?zou onze grootste fan ons komen steunen?
was niet best frankie. hopelijk bakken wij er wat van
haha nee maar ze volgen me wel blijkbaar
inderdaad. jacob westerink en bert ook vol in beeld
wie hebben we hier in beeld dan . gebruik je verstand broeder
puike prestatie van psv!! en niet ongunstig voor elke nederlander.
michiel is een monster!!
kramer is een beest!
dirkie is een monster
mwah.. ben je toch wel met me eens
vardy is een monster!!!
en dan mag er gezegd worden dat ie foutloos floot!! complimenten namens de blauwe parels 44
noordzee international zorgt voor daverende verrassing door met 41 van fruytier schilderwerken te winnen!
wordt weer tijd dat jelui naar boord gaan
precies. al zou het in mijn ogen wel een aanwinst zijn. maar de club is groter dan een speler
fer terug willen halen als vilhena vertrekt? wegwezen! laat maar wegrotten in de championship.
gustafson is een monster!!!!
proef ik hier frustraties onder kameraden???? want dan gaan we het f uitpraten!
tocosol speelt zonder wissels jp de wit assurantiën van de kaart. 42
ik heb jullie even dringend nodig maar de klantenservice kan ik al een half uur niet bereiken?????
ja klinkt eenvoudig. maar je weet zelf ook. gaat echt niet gebeuren