op termijn terug bij fraser wil vitesse niet verlaten niet aan de orde
zo blijft de cultuur in almere helaas een zorgenkindje! &ltp&gtpersoneel kaf heeft ernstige zorgen om toekomst&lt/p&gt
niet overdrijven..
dank je voor het creatief meedenken. zullen we een spacecake bakkerijtje beginnen?
almere politieke partijen willen proef met staatswiet
d66 stelt via een motie donderdag ook beschikbaar .
d66 is in beginsel positief over de verhuizing camping naar de noorderplassen. de finale afw…
verandering in de directe woonomgeving geeft weerstand. de vragen van omwonende zijn relevant.toch is het ook een recreatieve + voor almere!
logische vragen over geluidsoverlast, handhaving,natuur en parkeren bij de komst van de camping in het noorderplassen gebied.
veel belangstelling informatieavond over verplaatsing camping waterhout naar schateiland noorderplassen
nederland stuurt afghaanse burgers terug naar hun onveilige thuisland. kom in actie tegen gedwongen terugkeer
ondertekening van de pledge alles is gezond! special olympics
de regionale special olympics zijn geopend
zo aanwezig bij de opening
voor de jeugdhulp en bij behorende tarieven totaal overbodig, tenzij marges van 1% voor problematisch z…
symposium over transformatie in flevoland. de stip op de horizon.
wat een ontluisterend beeld over bij blij dat we dit soort zaken bij niet kennen !
fijn model gemeente biedt te weinig geld
mooie portefeuille welkom voor een werkbezoek bij in flevoland,
samen? dat woord is bij de pvv niet bekend!
gisterenavond aanwezig bij een boeiende anton de komlezing ‘bruggen bouwen’ in almere via
ze hangen ook werkelijk overal in !
over een halfuurtje bij de anton de komlezing 2017 door franc weerwind
almere allgobus rijdt in spits elke vijf minuten
met opendeuren
wie niet? eens en beetje opendeur! pvda wil af van monopolie nuon op stadsverwarming
over flauwekul gesproken! je kletst uit je nek!
het is dringen op de rechtervleugel.
mooie woorden over het verlies van ouders.
toch wel een uitdaging te gaan!
verkiezingen op komst?
voor het weekend een 60 tal moties op het menu. er zijn er die goed smaken en andere die over de datum zijn…
ik denk overbodig...maar we gaan het zien ! almere vvd start meldpunt over politieaangiftes
terecht....het is rotzooi!
pareltje gevonden in uitdaging voor cultuurbeleid!
neemt ook de hrm activiteiten van de gemeente over...elke aanstelling moet via een raadsvoorstel door de raad worde…
felicitaties voor de winnaars!
zo is het maar net!
in almere lijkt qua wonen alles mogelijk via
tariefverlaging jeugdhulp tot onder kostprijs geeft conflict
wat is toch fraai met een zonnetje erbij.
graag niet gelijk door naar everton zet ronald koeman op straat /via
ongewenste combinatie van functies! partij voor de dieren doet mee aan gemeenteraadsverkiezingen
dramatisch, maak er maar een opera van!
whow op bezoek bij zoonlief en
ahoy rotterdam. lang niet geweest en prima hernieuwde kennismaking.
d66 vrouwenkampioen van rutte iii
ik voorzie een nieuwe vierdaagse zeeslag wethouder post mobiliseert vissersdorpen voor brexittop
dat hebben we bij goed gemerkt! explosie accountantskosten vanwege sociaal domein binnenlands bestuur
een jaar langer extra financieel bijpassen.
waar blijft de rest van de raad? algemene beschouwing
pvv in almere kampioen tunnelvisie met islam en floriade
berouw komt straks na de zonde. afknijpen van tarieven! jeugdzorg in verzet tegen te lage vergoedingen via
en geen verantwoording afleggen de raad? bijzonder! dronten cdawethouders stappen op
trots op dit bedrijf minder stroomstoringen dankzij nieuw opslagsysteem
zorgelijke ontwikkeling! geldgebrek fnuikt gemeentelijke aanpak ondermijning binnenlands bestuur
ik ben heel blij met de 2e plaats achter lijsttrekker op de voorlopige kieslijst van
bij café op 2 presenteren de lokale kandidaten voor zich. de advieslijst is klaar. nu leden a…
met de old table weerwater 155 een weekend in essen. voor en na het bezoek
aanbieders hebben vervolgens geen enkel zicht op de tarief opbouw van gemeenten. via
eerste zin van de sp bij de bespreking van bestuursopdracht financiën financiën zijn nog steeds niet mijn hobby!…
lijkt me niet echt realistisch. met een computer jagen op zware knallen.
afscheid van voor de wk. ik denk dat bayern voor een maand of wat kwijt is. respect voor zijn inzet en verdienste voor nl.
door de spiegelende achtergrond zie ik als aanstichter van deze karton grap.
flevoland provincie tevreden over plannen vvd, cda, d66 en christenunie
goed bezig in almere gemeente gebruikt ecozand voor aanleg nieuwe wegen
toepasselijk voor vandaag! ik word genoemd.wmv
in ligt er al een motie klaar om aan te haken. komt na de herfstvakantie in de !
10 jaar oké op school . meer dan 10.000 almeerse kinderen hebben op of buiten school kennisgemaakt met dit…
kansen voor flevoland regeerakkoord raakt ook flevoland
mooi dat dat de markt aantrekt!
commentator heeft ruim van te voren al een fles gedronken het is niet goed, maar dat weten we wel .
vermakelijke wedstrijd en terecht 3 punten voor
vacature in limburg! bisschop wiertz van roermond treedt terug /via
almere floriade gaat de goede kant op
goed nieuws ! almere camping waterhout kan naar schateiland verhuizen
mooi eerbetoon aan een bijzondere amsterdammer.
onze tijdelijke behuizing ziet er vanavond weer heel anders uit. oppositie is dit keer tegenover de coalitie gezet…
presentatie van de almeerse begroting. sluitend en met verbetering van onze reserves. ook de laatste van deze perio…
eindelijk de door gewenste coffeeshop in buiten! drijvende coffeeshop in haven meridiaan
er is daar nogal wat werk aan de winkel! arnhemse bestuurders beledigen en schofferen binnenlands bestuur
goed voorbeeld doet goed volgen! 15 miljoen voor hulp in speciaal onderwijs amsterdam
heisa om zorgaanpak rijnmond via
zorg aan kinderen in 300 kwetsbare gezinnen onder druk via
aanbesteding jeugdhulp 2018 blijkt worsteling
was totaal overbodig, het kon al!
deze onrust gaat voor 2019 in meer regios komen! heisa om zorgaanpak rijnmond via
deze man haalde jan nagel over tegen de verlengde naturalisatietermijn te stemmen via
en wat nu met de werkdruk binnen de jeugdzorg bijna half miljard euro voor verlagen werkdruk leraren | nos
almere sympathie voor oproep culturele instellingen
in nederland gaan we kijken of honden een veganistisch dieet kunnen krijgen minder huisdieren lijkt mij een betere oplossing!
we zullen een keer ergens voor zijn! almere omwonenden niet blij met nieuwbouw seniorenwoningen
zo hoort het...
komt de almeerse begroting er aan? almere water staat culturele instellingen aan de lippen
dan maar promoveren !almere city fc degradeert dit seizoen niet uit jupiler league
vroeg aan de start met de fractie. pizza overleg!
ik zou zeggen extra tempo maken! oproep aan nieuw kabinet stel opening vliegveld uit
het bezit van wapens in de usa is vast geen onderwerp dader las vegas had geen banden met terreurgroepen /via
mooi inhoudelijk congres midden nederland in utrecht.
klinkt goed ! nieuwe kabinet wil belastingen met 5 miljard verlagen /via
er zal ongetwijfeld water bij de wijn worden gedaan. maar ja..gl en sp blijven langs de kant staan. ik ben ook ni…
ik heb nog geen regeerakkoord gezien. regeren is voor d66 geen doel op zich. d66 loopt niet weg voor het nemen van…
de ontdekking van almere komt er eindelijk aan!
ik raak de tel kwijt voormalig staatssecretaris linschoten moet de cel in wegens belastingfraude /via
weer een vvd er met het stempeltje ongeschikt! fouten in mali zwaar genoeg om af te treden /via
vandaag terugkoppeling door 2 raadsleden experiment publiek verantwoorden. gesprekken met lokale stakeholders. novi…
het is geen gemeentelijk taak. van mij mag het rijk ruimhartig de portemonnee trekken. vng oproep was ook misplaats…
volgende week verder en om te voorkomen dat alles door elkaar gaat lopen, gaat niet over wedstrijd. eerst de betonc…
verdedigt 2 moties om speedpedelecs op het almeerse fietspaden te laten. almere heeft een afw…
de bespreking rond omgevingsvergunning betoncentrale trekt veel belangstelling. industrie en natuur kunnen elkaar i…
geen meerderheid om 100.000k te doneren voor de ramp st. maarten. terecht geen gemeentelijke taak!
zullen we wat minder voorspellingen doen? alles over gp maleisië verstappen kan met mazzel in top drie eindigen
optie of niet? laat mensen maar flink dokken voor hun schadelijke, betegelde tuinen via
feest op sbo bombardon
zaterdag 7oktober! dag van de democratie | motiemarkt | gemeente almere
het zonnetje blijft het proberen in
vanmorgen in gesprek met expertisecentrum over invulling sroi in regio ijsselland
in de tuin prettige geluidsoverlast van de festivals in ik zag op sociale media al weer klagers. ik ben blij met
onbegrijpelijk van zowel als lachende derde. de rest zakt sowieso weg.
ik ben stom verbaasd met het imitatie gedrag van
het is dat het zulk mooi weer is. en na 25 thuiswedstrijden dramatisch verlies thuis tegen nac
wereldfestival in buiten. zon en lekkere muziek!
weer spannend avondje tegen 0ss. met de rust 02 achter en toch nog 22. blijft afdeling…
volt slaat natuurlijk op de power van !
pvv is tegen de overeenkomst verplaatsing camping waterhout. eerder waren zij via een motie voor een ruimhartige compensatie ??????#raad036
ronde tafel gesprek over gebrek aan lokale media en journalistiek. waarom lukt het toch maar niet? niet alleen gebrek aan geld.
damar ismangil volt nicole de jong op als raadslid voor in almere.
wat een topper !
vrijdag thuis nog een x voor 3 punten almere almere city fc bekert door na 02 zege bij fc oss
sociaalweb landelijk accountantsprotocol 2017 wmo en jeugdwet
inspirerend begin van de werkdag hoezo kan nederland niet in vijftien jaar volledig duurzaam zijn? via
berouw komt na de zonde.@
absolute wereldtop vanavond in de goede rede
heel goed dat de vragen van en adequaat worden opgepakt . lekken is strafbaar en ondermijnend.
tijdens studiedagen een leerzaam bezoek aan eindhoven.
laat vooral de sp dit goed lezen! inkomensverschillen in nederland deze eeuw nagenoeg onveranderd /via
wat heeft toch een fantastisch publiek! ondanks het europese pakslaag blijft het publiek achter de ploeg staan
mooie wolken boven
buma ontpopt zich als een trumplight via
ondanks al het hemelwater en een scheidsrechter die een beetje van het pad is geraakt 31!
overschakelen op het en jawel ook 10 voor .
&ltp&gtvideo wat gebeurt er met de a6?&lt/p&gt &ltp&gt &lt/p&gt
2e groter vliegveld naast schiphol is noodzakelijk. economische spinoff is ook voor ijsselland belangrijk! veel…
gaat vast meevallen !
laten we een keer tempo maken! luchtvaartsector wil vaart achter bouw lelystad airport
met alle respect afghanistan is zinloze missie!demissionair kabinet verlengt militaire missies /via
almere groei windesheim zet door
arena is wel erg stil en zit volgens mij vol met de bekende ajax interlands horen in de
ik ga er natuurlijk als liefhebber voor zitten ik blijf ook optimist. arena niet vol en bondscoach die wilhelmus niet meezingt.
mooi door en
klaar voor in
komen we nu in het grijze gebied van nepnieuws? in het verleden stond medisch onderzoek gelijk aan mij zien ze ni…
mooi voorbeeld over samenwerking onderwijs en jeugdhulp werkagenda case almere via
vincent jansen huren? city fc hoopt extra spits vandaag te verwelkomen
aan de wijze waarop de technische leiding van het meezong, kan je het resultaat voorspellen.
miljoenen tekort op jeugdzorg in limburg de limburger mobile
goede actie en broodnodig. ambtenaren jagen op achtduizend uitvallende jongeren binnenlands bestuur
handleiding voor omgaan met eritreeërs binnenlands bestuur
van gogh museum meest gewaardeerd in europa
veel aandacht, waar blijft aandacht voor o.a harvey treft ook nasa houston, we have a hurricane /via
zo fraai straks in arnhem ?
ik stap vannacht vrolijk in het vliegtuig richting shanghai en amsterdam.
crisisbeheersing in de bunker van de zuid vietnam president tijdens de vietnamoorlog. ho chi minhstad.
doen! kwetsbare vluchtelingen verdienen een veilig thuis. teken de petitie!
ik ben er toevallig bij !
niet doen. sp is conservatiever dan com. partij vietnam. roemer zet deur naar linkse samenwerking wagenwijd open
ho chi minh en che guevara stonden in de jaren 70 nog op mn t shirt. hcm ziet nu toe op snel groeiende vrijemarkt…
ho chi minhstad lijkt me een aardige deelnemer voor in
triest dar dit via de media loopt! geld voor familie nieuwenhuizen staat op rekening buitenboys
welke ster straalt het mooist boven ho chi minhstad ?
dat is nr. 1 vvdkamerlid duisenberg vertrekt vijf maanden na verkiezingen uit kamer
lijkt mij een uitstekend idee
vandaag tijdens de lunch heerlijke waterplanten gegeten wat kan almere?
gefeliciteerd met deze eerste editie!
is op te lossen met een initiatiefvoorstel✍️
brug kapot, je gebruikt de bomen die er naast staan. idee voor kliko kan ook veel langer mee.
alsnog spannend en billenknijpen in gelukkig 3 punten!
als het maar 3 punten worden!
mooi, kan zo met een gerust hart in gaan eten !
mooie lucht boven onze hutjes in modulkiri. goed geregeld door
kritisch blijven op wie er binnenkomt, haatpredikers weren en zorgen dat jongeren een perspectief op een fatsoenlij…
hartgrondig mee eens!
de chinese activiste su changlan is ernstig ziek. ze heeft dringend medische zorg nodig. kom in actie!
gefeliciteerd en bedankt voor je inzet bij city uitblinker ahannach naar brighton /via
het blijft natuurlijk wel gewoon regentijd
ernstige klacht over veel te snel overal doorheen! compliment!
de eerste prijs dit jaar!
beetje billeknijpen ,maar terecht de . .
wie zit op dit nieuws te wachten? bners vieren feest tijdens canal parade in amsterdam via
is geen probleem, ik zie alleen de noodzaak niet.
iedereen is welkom !
ik ben nog niet zover! is dit wat 65 + wil? almere festival voor 65plussers op de esplanade
&ltp&gtd66 en pvda willen onderzoek naar lek bij gemeente&lt/p&gt
almere partijen willen onderzoek naar lekken geheime floriade informatie
aan de lijn met stelt samen met pvda kritische vragen over het lekken van vertrouwelij…
eerst lantarenpalen en nu dit. almere is geen bouwmarkt! mannen stelen toilethuisje
afvalpas landelijk onder de loep na uitspraak binnenlands bestuur
niet iedereen is daar altijd toe in staat! sommige mensen hebben even een helpende hand nodig. zelfs vvd ers.
helemaal eens! ‘jongvolwassenen hebben meer hulp nodig’ binnenlands bestuur
bij veel gemeenten staan de schotten nog overeind! sociaalweb rapport met 18 jaar ben je niet volwassen
sociaalweb gemeenten krijgen integrale jeugdhulp niet van de grond
erdogan heeft deze taken al overgenomen! turkse militaire raad eens over ontslag voltallige legertop /via
velen hebben een mening , weinigen kennen de feiten! almere haddock vreest voortbestaan
dit geloof je toch niet! dronken, geen rijbewijs én twee gestolen lantaarnpalen op het dak
13 september afsluiting deel a6 almere rijkswaterstaat
mare doet de naam eer aan! stortregen .
martens wijst oranjevrouwen de weg naar halve finales
eerst kijken en daarna snel naar diner was uitverkocht. elk nadeel heeft een voord…
is ook de eindstand. ik hoop er zo nog de nodige te zien !
naïef dat dit niet voorzien was . stormloop op website politie vanwege check inloggegevens /via
mooie wolken boven almere buiten..het oog van wat?
ik ben er weer klaar voor !
convenant pakt problemen woonplaatsbeginsel aan
gaat nooit gebeuren!
we zijn het eens ans !
maar wel vaak variant op melkert baan . pvda wil minder extern personeel op gemeentehuis
ik hoop niet vanwege een brandende jeugdhulp zaak! flevostate geëvacueerd vanwege stankoverlast
d66 laat snelle elektrische fietsen weer op het fietspad toe
complete dwaasheid! monaco accepteert bod real madrid van 180 miljoen euro op mbappé
helikopter cirkelt continu boven de bloemen/faunabuurt
moeder natuur is onverbiddelijk.
dit seizoen 37 raadsvergaderingen en 7000 bladzijdes informatie. nu laatste vergadering in deze raadszaal…
vervolgens gaan we wel even op reces!
steeds meer gedoe tussen 2 en 4 wielers! almere gewonden bij ongeluk tussen scooter en auto
veel succes vandaag! zelf laatste gemeenteraad en daarna reces.
ik ga de leegstand niet missen bij de begroting! kantoorgebouw alnovum wordt gedeeltelijk hotel
de fractie van d66 twitterend &ltp&gtcommentaar raadsvergaderingen via twitter begrijpelijker&lt/p&gt
mooi resultaat! tempo realisatie gaat steeds meer omhoog!
fijn dat onteigening niet meer nodig lijkt! camping waterhout volgend seizoen nog op huidige plek
mooie start van !
fantastische etappewinst van in !
motie vvd en pvv roept op om kinderen van nieuwkomers uit te sluiten om 6 maanden gebruik te kunnen maken van leerlingvervoer.
goedkeurende verklaring accountant is binnen, de + is 9 ton hoger dan gedacht.de buitenkant is wel donker…
tja......nu wordt vanwege een verbouwing door zijn eigen partij bij het vuilnis gezet
heeft best een groot werkgebied, de veerpont gebruiken voor een regionaal overleg is weer even nie…
sociaalweb ombudsman onderzoekt buitensluiten van schuldhulpverlening
flevoland pleegzorgcampagne succes 25 nieuwe belangstellenden via
symptomatisch voor huidige turkije boycot vicepremier typeert nederlandse democratie /via
geval van ballen tonen light turkse minister niet welkom in apeldoorn voor herdenking coup /via
pvv misdraagt zich voor de zoveelste keer, nu met verdachtmakingen dat vriendjes geld verdienen aan de floriade. maken niets hard!
fantastisch met pegida en volksunie betoging wilders en co. marcouch /via
onzin en vertragingstactiek ! meer tijd nodig voor bespreking bestemmingsplan floriade
carré ligt er fraai bij voor het optreden van .
wat doe je daar dan ook?
zondagmiddag raadswerkmiddag met o.a. bestemmingsplan weinig zienswijzen en goede aanpassingen t.o…
première nieuwe buitenvoorstelling het begin is goed.
ik kan me er iets bij voorstellen ! automobilisten halen kapotte slagbomen haringvlietbrug weg /via
het was een talentvolle vvd politicus. persoonsgegevens op straat door beveiligingslek belastingdienst via
op werkbezoek bij belangrijke cultuurschakel in en
grote meerderheid stuurt motie van wantrouwen van pvv het floriadebos in!
p&gtmartine van bemmel lijsttrekker d66 almere&lt/p&gt
is er natuurlijk ook ook te vinden.
bestemmingsplan aantal gaan over vorm van eeuwig recht op het zelfde uitzicht…
lezen! een dement oudkamerlid d66 en de nieuwe kloof over voltooid leven via
even een momentje op ons fractie weekend fractie + ondersteuning
gelukkig niet!
jammer genoeg geen flevoland, daar klinkt alles in .wegen in belgië komen omhoog door hitte /via
fractieweekend kan van start !
almere rapport jeugdzorg op de goede weg
bordes scène voor de nederlands kampioenen zaalvoetbal voor gemeente 200000 +
raadsonderzoek geeft aan dat beleid breed gedragen wordt. samenwerking en mogelijkheden raad voor sturing kunnen beter.
almere heeft hierin al stappen gezet! kindcentra 2020 biedt petitie aan | kindcentra 2020
er is meer dan limburg! bij dezen de uitnodiging voor een bezoek aan
over de sp maar niet te spreken!
wat mij betreft met tegenzin. medisch ethische zaken prio! formatiepoging vvd, cda, d66 en christenunie
op zo weinig inwoners onbegrijpelijk gedogen urk strengere regels en controle rond jeugdhonken
van harte gefeliciteerd !
te gast bij
sylvia huisman vitree over een wervingscampagne voor pleegouders via
almere zoekt pleegouders
kijk even naar de objectieve schrijver
voorzichtig begin van tegenkracht ? turkse oppositieleider op sportschoenen bevecht erdogan met bordje /via
dat zien we morgen wel weer acount gebruik ik niet.
almere grote drukte bij eerste open dag floriade
wat reclame voor insectenpannenkoekjes. vandaag op open dag te vinden op stadslandgoed…
het is een aanrader! ik nodig je uit voor een werkoverleg bij i…
tijdens de open dag aan de insektenpannenkoek van restaurant smaakt pr…
wat een drukte bij eerste open dag . veel positiviteit en schot in de roos.
open dagen themapark in wording kans om almere op bijzonder wijze op de kaart te zetten…
knakwortel trekker open dag floriade
voor de iftar de diepte in over samenlevingsvraagstukken
zo op weg naar bijeenkomst over de kunst van het samenleven en daarna gezamenlijke iftar maaltijd.
blijft nog wel even op de agenda. het bestemmmingsplan voor de wijk komt er aan 25 cm.
nog maar een keer onder de aandacht.
iedereen die werkt met kinderen moet gaan steunen. kom op mensen 0800 1310! mooie uitzending vanuit
bypass voor te hoge kosten decentralisatie binnenlands bestuur
mooi almeerse innovatie! cinnovate voorziet skills lab verpleegkunde van nieuwste zorgtechnologie
almere arbeidsbureau moet bijstandstrekkers aan baan helpen
almere maanden omrijden door werkzaamheden aan hogering
tijdens drukke algemene ledenvergadering. de leden bijpraten over recente politieke ontwikkelingen in…
presentatie van als kandidaat lijsttrekker gemeenteraadsverkiezingen
mooie dag voor afdelingsvergadering
helaas na 30 jaar einde afscheidsreceptie van stichting samenwerk en dus ook ontwikkelingssamenwerking…
flexibiliteit gevraagd!
dit helpt herziening woonplaatsbeginsel jeugdwet binnenlands bestuur
wachttijden jeugdhulp zijn onvermijdelijk binnenlands bestuur
met dit voorbeeld kunnen alle 600 woningen in deze flats worden gerealiseerd.
gebiedsvisie neemt in het najaar een besluit over het ontwikkelingsplan. d66 is positief over…
krijgt lesje trends en cijfers afdeling statistiek en atlas voor gemeenten. valt veel te doen…
blijft spannend! almere almeerse hc wint van schaerweijde na shoot outs