ja ja. on a serious note ga ervoor dan. minimaal gemeentelijk.
en ik lach niet, ik huil. ik blijk slechts geschikt voor iets wat niemand interesseert, inclusief mezelf 🤔
maar wat zou jij dan voorstellen?
pijn aan mn ogen.
ik vond de suspense tussen km 4 en 1 wel tof eigenlijk.
welke is de krent uit de pap? beter gezegd krent der krenten?
leuk bedrijf, leuke baan.
ulissi.
pfff... nouri. wat een treurnis. bah.
kittel.
roglic.
niet goed kunnen lezen, werd afgeleid door die zwoele lippen... zucht
waarom ben je vegetarisch? sic doet het ook altijd goed.
een netnietdag voor cannondale.
leuk, al die oasisgeruchten, maar komen the stone roses straks?
veel overleg aan de voorkant tussen grim/dick de laatste dagen. altijd belangrijk natuurlijk.
prachtig!
maar ik hoop het zo he. go
moet het nog zien morgen. niet al te zwaar parcours, pinot goede tijdrijder, dumoulin niet meer de dumoulin van vorige week.
dumoulin, mollema, kruijswijk en niet te vergeten mathieu vd poel. heersers!
nlers in leiderstruien zijn de nieuwe wkfinales.
kijktip. erg mooi.
gewoon normaal doen, jongen.
ik was overigens alleen bij dezelfde coverset met merauder in the cave. tevens de enige hc show die ik ooit geboekt heb, haha.
arkangel sowieso. 25 ta life volgens mij ook. hatebreed?
ik begin er pas net aan te wennen dat ik elabdellaoui wekelijks bij motd voorbij zie komen.
groot fan. in indonesië hadden ze oreos met pindakaassmaak. megalekker.
lekker middagje schelden tegen de tv.
door het oog van de naald.
ik wens dit soort vulgariteiten niet op mijn tijdlijn te zien.
die plaat is zo goed!
prima lijstje!
een tribal. mijn god.
ik denk dat dit samen met van basten 88 en bergkamp 98 mijn favoriete oranjegoals zijn die ik bewust heb meegem…
ooit een keer binnengelopen om mn ipod te laten nakijken. paar minuten rondgedoold, weer naar buiten gelopen.
jeugdheld kirk gaat even los in deze en volgende tweets. mooi.
heb je die docu the 13th al gezien? verbreed dat tijdsbeeld nog. aanrader.
getting away with murder is niet hetzelfde als iemand beschuldigen van moord,
ik stond laatst in de pit bij judge.
eerlijk is eerlijk. ik begreep het ook verkeerd.
royalty &amp andere bobos die door racing in the street en my city of ruins heen praten. dieptepunt van deze docu.
een long longread, maar zeer de moeite.
zo zo. conservatieve christen vertelt andere conservatieve christenen waarom blijdschap om trump totaal misplaatat…
voorlopige voorselectie. het bestaat en je kunt erbij zitten.
wordt de licentie weer nederlands, of blijft het duits?
precies wat ik dacht.
eindelijk.
ik weet nog steeds niet of het een kipfilet of snijboon moet voorstellen.
qua juridisch geneuzel welk marketinggenie heeft dit bedacht?
ik hoop dat we zo nog even live gaan meekijken naar heel holland bakt.
begin bijna te verlangen naar zon ticketmasterwachtrij.
ah, te gek! geld wel afgeschreven door creditcard, maar 0 tickets in orderbevestiging. thanks en wat nu?
attn. en dit elticketgedoe kan écht niet. ronduit gênant. hoe gaan jullie dit in de toekomst voorkomen?
mevr de voorzitter, kan de minister garanderen dat er meer stagedives in de monitor komen?
o, dat geloof ik best. maar dit losse lijstje zegt me heel weinig over de situatie op dit moment.
zinloos overzicht zonder te weten hoeveel er in iedere regio is aangevraagd.
meer gunnen dan realististisch, maar ik ga ervoor degenkolb.
s. pauwels
exact dit. ik wil anthrax ook nog even vermelden.
sagan in een shirt met zichzelf erop, bij wat een koning. mijn dag is goed.
.@tomdumoulin held!!! | thalita de jong | | estafettedames. geen slechte nl sportdag.
belachelijk concept.
waarom heeft iedere wedstrijd op een openingsceremonie?
der spanische rosenstock, op de middelbare school. het was dun en vervelend. meer niet onthouden. maar mooi huis ja.
ongelofelijk.
wat een held. attn. goed leesvoer
help martijn de zomer door.
go én pieter weening
go
laatste show is volgende week vrijdag 10 jaar geleden. ongelofelijk.
hebben we 2 weken terug al gedaan he. maar tof voor de fans die dat moesten missen.
noem het maar gewoon gênant. lekker helemaal niets in adam schreeuwen terwijl je team een overbodige ereronde loopt.
ik hou wel van die filosofische levensvragen. ik ben daar wel van. het zet je altijd aan het denken.
werktweet we starten een nieuwe winkel.
brentford pne 10, 2014. promotiewedstrijd. tevens 1e pot in engeland, dus pure mazzel.
wát een race. mooiste in jaren. sagan, wat een heerser!
man met de mooiste naam in het deelnemersveld van de ronde van vlaanderen giuseppe fonzi.
stybar!
attn. offline influentialiteit voor het oprapen!
hij had er zelf toch ook begrip voor, gezien de potentie van achahbar toen?
harry als bondscoach van jordanië. jiskefet is er niets bij.
waarom opgeven soms een goede optie is. heel mooi stuk, en hartgrondig mee eens.
brilliant! louis van gaal. shapeshifter. via
paddenstraat in beeld, greg &amp tiesj vooraan, renaat op de motor, michel &amp josé hebben het over balegemse jenever lente in aantocht.
.@volkskrant al speelt natuurlijk niet het servische infest maar de us hardcoreband op netherlands deathfest. whoops.
leestip grote spread over autopsy maar eigenlijk over voor dummies in de mokerhard.
goed verhaal.
kijktip op dit moment op npo2. over recentw geschiedenis mo en hoe we in huidige situatie terecht zijn gekomen.
totale afgang natuurlijk, maar dit was echt geniaal.
of hoe je óók om kunt gaan met uitsupporters.
ronnie, wat een heerser.
dit is mijn nieuwe favoriete twitter account.
wauw.
mooi in theorie, anders in de praktijk. nog nooit een minister gezien die op wilde klimmen tot kamerlid.
zeker mijn meest gebruikte app.
straks jur fest benefiet voor &amp in maloe melo. mn band speelt, net als giant tiger hooch, autoblonde en clvstertrvck. kom af!
een skinhead, een alto, een magere kid met nektattoos en een normalo met een flying v. goede lineup!
uitstekende trefwoorden, ben beneieuwd.
off the record op wat een tof programma. nl muziekliefhebbers slaap er niet op.
2 punten onnodig verloren maar wat ik eigenlijk wilde zeggen mgła exercises in futility, op repeat.
even de fik erin voor de finishing touch.
by dot comme. maar leuke photoshopcreatie
wat is de laatste keer dat nl 3 ritzeges in een grote ronde had? dekker in de tour?
allemachtig, held! conpenseert die ellendige een beetje.
misschien toch proberen. je bent een online influential of je bent het niet.
seksistisch kutbedrijf
morgen speelt mn band in paradiso. helemaal gratis, we beginnen om 22.45. speelt nog veel meer leuks. joe.
sagan. meer hoop dan verwachting, maar goed.
als ducrot nog 1 keer over de derde week begint word ik gek.
nibali
wat een band!
froomie, how are you? quote van het jaar.
lars bak
erg mooie vanavond, complimenten aan &amp zie het morgen terug te kijken indien gemist.
jullie vergeten impey.
ik doe eens gek luke rowe.
mccartney?
uiteraard niet. wordt weer seizoen vol afzien, schelden, teleurstellingen en wreed verstoorde illusies. kan niet wachten!
feyenoordvitesse werd door zon geintje een dag verplaatst.
geen idee eigenlijk. misschien op de npo cultura site?
die fnmshow op is echt waanzinnig goed. zou bijna wensen dat ik er was. bijna.
lekker bezig,
steengoed stuk over en de kortzichtigheid van de
lastig te zeggen zonder context. wat is de gemiddelde leeftijd bij de commerciëlen?
ac/dc kaartje was zo gepiept, show was geniaal.
staanplaats gezocht voor ac/dc vanavond. hoor het graag!
dag van de waarheid! kijken of er na vanmiddag nog een playofftrip gepland moet worden.
dit is een cool interview. en nu ga ik denk ik heel snel kijken. via
na die ellendige pot van net op weg naar voor show met in de 17u, komt allen.
stybar
nyhcmiddag alone in a crowd, underdog, lifes blood, supertouch en warzone op de playlist. het kan slechter.
journalistiek anno 2015 had het vandaag over discriminatie zaken. heeft het nu doodleuk over rascisme. pfff.
.@dwightyorkie dvd in de pub. spits hoor. allemachtig.
siked! gaaf! “@festivalinfo podiuminfo nieuws reigning sound naar bitterzoet ”
ultieme zentv.
steengoede plaat idd.
voor die dagen dat je niet in een tolerante bui bent.
goed pakketje nieuwe aanwinsten.
je bedoelt natuurlijk niet dat iemand dit niet wil
mijn god. laat dit een grap zijn. adfo column over jett rebel. vooral dat stukje over het sony team…
fan van op nl2 nu. echt heel cool.
zou een solotour van bruce dickinson er nog eens in zitten? hoog op de verlanglijst.
spijker &gt kop.
natuurlijk niet.
zonder wat en word je natuurlijk nooit een
mn nieuwe band is nu ook op twitter te vinden. en we deden een sessie
de sharing economy én participatiemaatschappij gedefinieerd in 140 tekens.
de voetbaltwittertop 50 van mooi lijstje.
kerstdiner. zelf gemaakt.
waar zit in vredesnaam de inlogbutton op jullie site desktop? totaal onvindbaar.
geen idee, ergens tegen 21u gok ik. geloof dat er ook wel zin in heeft.
groeten terug
ik zit vanavond samen met die bolle zanger bij om wat darla sinnershits ten gehore te brengen. luister mee, gezellig.
slayer angel of death op nummer 210 in de het wordt nog eens wat met die lijst!
nieuwe ghostface.
leuk voor en hoor, maar verder is het besluit over toch ronduit genant? idiots.
naast de idiote prijzen ook belachelijke verschillen onderling. 71 voor een staanplaats vind ik voor u2 anno 2014 niet zo gek.
ik zit dus in die band van de vorige tweet.
gorki. wel eens een nummer gehoord, nooit op gelet verder. vandaag mia maar eens beluisterd. hit hoor ook die stadiontribute vanavond. rip
wat een amateurisme. groeten uit de kuip.
tips gevraagd wat zijn de beste tools voor het maken van custom facebook tabs?
20 december he? als ik kan wel, ben wel benieuwd!
die nieuwe van is cool. nog cooler hij is gratis te downloaden vanaf hun site
ah, wereldrecord wave is gelukt zie ik.
minuutje vi aan en de eerste nietgrappige homograp is alweer gemaakt.
leestip collega heeft windows 10 geïnstalleerd en het bevalt. windows 10? en windows 9 dan?
radiohead is gewoon een kutband natuurlijk.
leuk dat gedoe bij maar ik zou even het hakkelen van munstermann over schimmige constructie rond gutierrez bij bekijken.
etampes, zondagochtend kwart voor tien.
in 3 dagen de eerste 5 afleveringen van fargodeserie bekeken. echt heel goed.
deze trein kan niet vertrekken wegens overvol. yup.
zowel mijn tvontvangst als jullie website ligt eruit. wat is er aan de hand en enig idee wanneer is het gefixt?
fniedan?
ja, die voorspelling over armenteiros kwam feilloos uit. vreselijke pot.
guidetti wint, pelle wint, dan zal te vrede vandaag ook wel winnen. toch? hoop ik?
maar hebben we nou al een spits?
van der jar, willens, groenenoijk. nooit meer wat van gehoord na die dag.
leestip, mojo van deze maand topper headons laatste show met the clash in 1982, in lochem. lochem, ja. promotor is nog steeds chagrijnig.
benieuwd of we dit seizoen een veldgoal gaan maken.
dat ding is toch de beste viral vd laatste dagen? misschien niet helemaal een bewussie, maar minimaal bij stilgestaan.
zojuist l. binets hhhh uitgelezen. te gek. mooi geschreven en loeispannend, zeker voor een verhaal waar je de afloop al van kent.
hebben de nl ploegen vorige week al gedaan.
zelfs in een tevoren ingesproken stuk zegt dijkstra pfanzerwagen. wat een treurnis.
vlaamse velden, daar wil ik meer van zien.
ah, van hooijdonk en borst pullen een minigijp/derksen.
hoe irritant was gisteren geweest zonder
ik wil naar bed.
degenkolb
benieuwd!
wordt niks natuurlijk.
kap nou eens met dit nummer te verkrachten.
die gaat er zo aan de andere kant in.
ah, algerije komt uit een ander afrika dan nigeria. goed bezig snoeks.
ik hoor iig geen herbert dijkstra, das al een hele vooruitgang.
wedden dat pinilla zo mist?
of was het echt hands?
webb, wat een matige scheidsrechter is dat toch. hoewel dit laatste geintje aan de grensrechter lag uiteraard.
orly
slecht spelen, toch winnen. onnederlands. uitstekend.
al geregeld via radio 1. old school
geen goede stream te vinden helaas.
potje voetbal luisteren in de vs.
in een trein met fortarockbezoekers en toppersfans. sweet.
ik draai nu my dying bride. ik draai eind mei vrijwel nooit my dying bride. met je herfstweer.
polaroidje maken kan gewoon.
fail.
terwijl jij natuurlijk je vriendelijke vrolijke zelf bent.
niets gezien vanavond. hoe deed de afdeling rotterdam het?
waar is mn feestneus?
ah, de filosofische benadering. muy bien, hermanos.
als je als conducteur een station in het spaans aankondigt ben je toch gewoon een pretentieuze klootzak?
en duidelijk de highlights van gisteren. desperate journalist ook cool ondanks de bandnaam.
is de rest van die poolse act net zo goed als de 10 sec die ik net zag?
en gaat natuurlijk over leprosy.
klopt, evolutie van de band blijft wat onderbelicht. maar voor de nietkenner een prima introductie.
tof stuk in de over deaths megagoede plaat leprosy en death metal in het algemeen. check het.
na voetbalweekend londen terug op vaste stek.
gevalletje neus in de boter idd. prachtig.
hier sta ik ergens tussen. zelden zoiets meegemaakt. brentford pitch invasion today. ”
word. volgend seizoen wil ik echt naar anfield.
komend weekend bezoekjes aan brentfordpreston of charltonbolton, spursfulham en millwalldoncaster. veel zin in.
cool, dank. tamelijk enthousiast voor de 4 pubs. ben benieuwd!
brentford bezoeken welke tribune is aan te raden? wellicht een tip?
ik lees iedere keer hatebreed ipv heartbleed
volgende maand op tour he? ga er denk ik wel heen.
thanks, ga het checken!
goede platen in 2014 cloud nothings, beck, fluisteraars. iemand metaltips?
vreemd dat het pakket totaal ontraceerbaar is. maar bedankt.
traceren op mijnpakket.nl. enig idee hoe dit kan en waar pakket is? 2/2
2 dagen geleden sms gehad dat pakket die dag bezorgd zou worden. nog niets gezien, geen niet thuisbriefje in bus, niet te 1/2
dat vkartikel over rutte 1 is toch gewoon een nieuw voorbeeld van de naïviteit en onderschatting waar wilders al jaren garen bij spint?
supergoed. halfvolle max met behemoth en coffans niet de ideale setting, maar was echt te gek.
daarom!
goede plaat! ben je morgen in adam?
jazeker. ziedaar een van de oorzaken voor mijn mening
wat een ontzettende aap vind ik dat toch. maar saaie boel zonder, natuurlijk!
er is geen eikel zonder lul mario de clerq
tof stuk, waar gaat cw heen dan?
t is geen club nomad he.
complicaties bij operatie, geloof ik. meer info op 3voor12.
kan een nflfan vertellen waarom ik a. live naar de ariz. cardinals kijk op een nl zender terwijl b. de baseballvariant uit st.louis komt?
ik heb stiekem toch altijd meer nieuwe platen dan ik denk.
als ik vooruitblik op mn jaarlijstje zeg ik voor nu 1. nick cave 2. tribulation 3. in solitude. zo, nu weer voetbal kijken.
met ieder doelpunt groeit zowel respect als afkeer. kan er louter bewondering voor hebben, dat maakt het des te irritanter.
ik dacht dat het na die 01 wel afgelopen was, dus zapte even weg. whoops.
nick cave zojuist megagoed. echt heel erg cool. held!
op weg naar nick cave &amp the bad seeds wat een heersers.
the art of rap op ned3, zet het nu aan als je nog niet aan het kijken bent.
en nu te gek, verplichte kijkkost voor iedereen in het onderwijs.
aankopen van bij kost maar liefst €11,95. das een stuk meer dan vorig jaar. toch maar langs de lijn dan.
heerlijk middagje afzien in de kuip. its good to be back.
weening wint ronde v polen. waarom moest deze laatste nl etappewinnaar in tour en giro en rozetruidrager ook alweer weg bij rabo?
ronnie, wat een heerser! nu al hoogtepunt van heel geniaal sportmoment.
goed gedaan man. wees trots.
dijkstra &amp ducrot hebben in de vorm van de derde tourweek een opvolger voor het nieuwe wielrennenmantra geloof ik.
vandaag over een maand ajax feyenoord. voetbal oorlog!
ik doe eens gek kreuziger.
quintana. maar ik dacht vandaag albasini, dus zal wel 2e worden.
albasini
cavendish
in de thalys terug vanuit paris met en familiebezoek, bruce born usa integraal &amp gintonic. mooi weekend!
bummer van james gandolfini. gelukkig staat er een nieuw world collapse nummer online!
ik vergeet nog te melden dat ik voor de 2e bruce show even naar parijs ga
net kaartje weten te scoren voor iron maiden volgende week. muziekschema bruce s za, maiden di, bruce s za, kickback zo. mooi man.
vanavond naar ghost en sl &amp his enemies. behoorlijk siked!
onweer in amsterdam. tijd voor thin lizzy.
vanmiddag maar eens de tracksbox van bruce springsteen gekocht. mooi spul hoor.
lee towers. wat een aardige man.
voorspelling denemarken griekenland azerbeidjan, italië nederland. in willekeurige volgorde.
ah, jeff hanneman is dus toch niet dood, maar geëmigreerd naar ijsland.
als ik dan toch voor een keer kijk, dan wel met commentaar van graham norton op de bbc.
ronnie osullivan. wat een ontzettende heerser.
vraagje staat de syllabus van afgelopen donderdag nog niet online of klopt het password op de infosheet niet?
jungle by night stond op straat electric funeral te spelen. megacool.
volgens de experts bij moet je jongeren mee laten doen en denken in marketing. aantal jongeren onder de sprekers 1. leuke dag verder!
all out war tussen cool cat en bliep tijdens met het complete publiek als toehoorders. beetje genant.
ik lees net dat midnight in oktober komt, gaat nu op!
probleem ook dat die niet zo goede zang helemaal vooraan in de mix staat.
interview met onze operationeel directeur in de nationale onderwijsgids
hoe kan ik me inschrijven als exposant/standbemanning ipv bezoeker?
niet vaak genoeg als je meteen na binnenkomst station je kaartje koopt. plak desnoods een a4tje op de automaat.
dit niet hoeft? scheelt geld, ergrnis en tijd bij,het inwisselen voor een tegoedbonnetje wanneer ik hier al tijd voor heb. 2/2
vandaag voor de zoveelste x onnodig een fyratoeslag gekocht. wanneer gaan jullie het eindelijk op de automaten aangeven als 1/2
allemachtig, wat een ellende. maar goed, 3 punten, snel vergeten verder. zolang ik singh maar niet meer in de buurt van een veld zie
we hebben je goed in beeld gezien, renaat. goed om te weten dat je ook effectief aanwezig bent. lol
de ronde!
google reader gaat verdwijnen, bummer. wat is de beste vervanger? hier alvast wat alternatieven
wat een song, wat een plaat, wat een band!! danzigchristvonbiscuits, zeldzaam goede lineup!
doe mij ook zon vormcrisis.
17 uit 20. pittige quiz wel. herkende slechts twee cofregels direct!
telstargae niet om aan te zien, prachtige ambiance. mooi supportershome ook.
exact, des te mooier
vanavond naar telstargae. draagvleugelboot naar ijmuiden, snackbar, tata steelstadion nah g!, écht bier, wordt mooi.
onno cromag overleden. zonder de beste man had mijn muzikale horizon er heel anders uitgezien. gek hoor. r.i.p.
nog drie dagen tot de laatste show van mn band. begin een beetje nerveus te worden.
andere tijden over de compact disc nu. cool!