wat een ander ook mag zeggen maakt niet uit. bedankt dankzij jou is feyenoord kampioen transfer is je gegund
goedemorgen. was de huldiging op de coolsingel of toch op de
wat is dit weer voor kut antwoord. typisch feyenoord. een cursus klantvriendelijkheid is geen overbodige luxe
welke enquete dan? heb jij hier een…
allianz arena vergelijken met feyenoord is appels met peren.
de verpakking netjes inpakken heet dat
ja 1 reactie is positief. die van wat volgens mij een fake accountje is
gewoon een fake account zodat ze hun zin kunnen doordrijven volgens mij.
ik blijf het apart vinden. overal om mij heen zijn mensen sceptisch over fc maar volgens is dit de minderheid...... erg vreemd
jullie zijn echt zielig. wij zijn geen minderheid. wij laten onze stem horen dat mag in een democratie
mensen als jullie mogen lekker wegblijven bij de mooiste club
jullie zijn zeker van het zit en hou je bek principe?
laten wij het hopen
op de achste dag schiep god de belgen. want zelfs nederlanders hebben helden nodig
en jij lult als een natte krant. maar goed je kan er ook niet aan…
gast wat voor onzin lul jij. ken duidelijk merken dat jou zintuigen niet werken
hallo hoe bevallen je wijntjes
met van die achterlijke opmerkingen haat je zelf ook. dus spring lekker van een brug af dan
beter doeken wij jou even op. met je achterlijke uitspreken. lekker haatzaaier ben je
als dat zou kunnen. zijn we meteen van die afgekeurde neus verlost
een voorbeeld nemen? hoe bedoel je. moeten wij vermeer ook ophangen dan?
knvb is een joods gezwel
veel succes bij je nieuwe club
waarom zijn jullie er zo op tegen om voor het eerst in 125jaar een uitverkocht stadion te hebben?
de leukste vind ik toch de pmds im arnhem 😂😂😂😂😂
daaaaaag
en ik word godverdomme weer gediscrimineerd
volgende is het voor de dames rosbief dag
tnx man housewarming ben je welkom
de tijd van vooruit kijken is aangebroken. de huizenjacht is begonnen.
tnx beenhaar
ik heb het perfecte nummer voor de stewards. heb je op school niets geleerd ben je uitgemastrubeerd dan word je steward
waar je zo gezellig zit
laat de zon in je hart
jij heb ook nieuw horloge dus
die was afgelast in eindhoven heeft al het licht uitgedaan
breaking news. carnaval in lampegat is afgelast vanwege te zoet bier
gratis ontharen ohohooo
martij die heb niet eens een doelpunt nodig om in de gracht te belanden
in mijn ogen wel maar.........
wedde dat jij je nog best zou vermaken. jij doet elke dag gek
de netwerkbijeenkomst start vanaf 13u
bij deze nodig ik je uit voor vrijdag 3maart in eindhoven
bij deze wil ik jou uitnodigen om volgende week een goed gesprek te voeren op locatie. schikt dat voor u
is lastig voor mij
ik kom tenminste voor je op. die pesterijen moeten stoppen straks spring je er nog voor
nog een vraag waarom moet jullie altijd pesten. dat vraagt die brave borst zich oprecht af
memmen jij hebt geen remmen
ok we twijfelden of het hiermee te maken had
hoezo is dat niet het rad van fortuin
hallo daar ben ik weer 😃 als ik hier aan draai wat win ik dan?
ja dan is het tijd voor de zonnebloem on tour
die zoeken we vooral met neusjes uit
zou het mss ook kunnen dat eten gewoon erg slecht is
deze naar het schijnt
dat ene moment dat houtman zegt. ach laat maar jullie luisteren toch niet
deze was niet dubbelgestikt. maar met de enkele naaimachine gedaan
en ze vallen nu weer in de paardenshit
ben je ook een nephagenees
schop ze op der neuzen ja zo hard als je maar kan
zoo het 1e goede nieuws voor het weekend is ook weer een feit. lekker ip de tribune zitten
hopelijk ligt een terugkeer onder de lat nog erg vermeer. nou ja eigenlijk nooit meer
als je willem een oude zeikerd gaat noemen. sla je zelf een grote plank mis.
nee je kan over mensen met meer respect praten. kan jou toch oom een achterlijke grafmongool noemen wat ik niet doe
je heb een mening en je hebt respect. dat was in jou bericht ver te zoeken
hou lekker zelf je zeikmuil. man mag gewoon zijn ongezouten mening hebben
een verkochte keeper nog beter
als kluivert junior zijn 1e rijles heeft mag vermeer wel even oversteken. is dat keepersprobleem meteen opgelost
hey ga je in de voetsporen van je vader treden? veel verkracht plezier he gap
grote vriend van harte kameraad
ja want de meisjes liet ie nog leven als hij klaar was
nooit meer vermeer
is dit je nieuwe vriendin
heb nu al medelijden met ze
maar zonder gekheid bij kameraden zijn nog 2 plekker over
heb je bij roda nog geen vrouw wezen gevonden. je bent toch zo een grote clubwippert
mss heeft de nog plek
kenneth die heeft zijn feestneus op. 🎉 kenneth heb je ook een masker op? onee dat is je ebolakop tijd voor je pensioen
die katten komen dag erna altijd aanzetten
of de nieuwjaarsborrels
nee die gun ik lieve katten
ben er nu echt helemaal klaar mee. wie wilt er een kat? mag je gratis ophalen
net als mijn haar
kijk feyenoord is overal
ik heb het niet op ajacieden. ze hebben niks te bieden
tja dat is ten voeten uit. voor mij de reden om stop te zetten voor eeuwig en altijd
iets met ebola
anders moet je maar op mij wachten
jongens ga nou van een mug geen olifant maken
ik zou maar ja zeggen tegen . heb je goud mee in handen
en we allemaal iets wilde zijn. iets met opblaas
de dag dat jij je wilde haren verloor
hopelijl heb je aan de kerstman je voetbalkwaliteiten terug gevraagd. heel jammer dat deze weg zijn
misschien kan zich er eens mee bemoeien
is gewoon een familie dienst niet zeuren verder😉
je heb natuurlijk ook zo een doorsneekop maar goed.
vind het zoeken om te zoeken van de club erg makkelijk door de bocht
als ze dan nog eens met goede reden komen. maar goed
als ik dat eens zou weten
maandag brief lezen en afwachten
ze bekijken het maar
mijn passie, mijn leven uren, dagen, weken steek ik in mijn club voor het naaien van doeken. en nu word ik door mijn eigen club genaaid
sc blokkeren voor iets wat niet klopt. lkkr makkelijk
enige waar mijn club goed in is. is het uitdelen van onzinnige stadionverboden
dat zeg ik ook al jaren over onze directie
je keek in de spiegel?
ook met zijn kapsel mist ie volledig het doel
wang had voor te weinig wisselgeld gezorgd
verkeerde woordkeuze. bedoel geholpen
nu blij
dusdat echte fans maken doeken zelf
wat een schijtelijer. beetje grote muil maar ipv gesprek aan te gaan doet deze held je blokkeren
zo een lelijk doek lekker boeiend
nee maar je hangt beetje moraalprinses uit nogal zielig gedrag. waar maak je je druk over.
nee jij bent de heilige maagd maria zeker
ga jij nou maar je dierenkooitje in mislukte jongen. beetje zielig vertoon je
😂😂😂😂😂 jij bent echt grappig zo op de maandag. zou stand up comedian worden als ik jou was
benside dat is de kidsclub van az?
altijd leuk om een 020 er klappen te zien krijgen
je moeder is gewoon een milf hoor
na jaren van jagen heb ik besloten mijn jacht spullen aan de haak te hangen. de milfs hebben weer rust ik gaat op pensioen
2jaar geleden deed mijn hart even stoppen. maar kapot krijgen ze me nooit
wat is dat dan
even verdiepen in de echte materie is ook te moeilijk. sportief gaat goed en dan moet ik ineens zwijgen
leedvermaak als ik de plee zit
je tweet nog net niet welke kleur stront je hebt gescheten vandaag
en ik maar denken dat stijf uitverkocht was
dat plan gaat nooit van tafel
nieuwe manier van kerstboom plaatsen? ik vind het erg artistiek gedaan
zooo dat is echt interresant boeiend. oftewel i dont fokin give a shit
iemand tips voor leuke niet al te dure hotels in madrid
ligt altijd aan een ander. maar dat ze al moeten zeggen als het niet doorgaat zegt in mijn ogen genoeg
voor nog geen 900 miljoen verlaten we het huis van coen.
rip
paden zijn er om te bewandelen. jij had jou pad en ik het mijne. nu de padden elkaar kruisen word het ons pad
nog steeds beter dan vermeer
mensen praten over rembrand en van gogh. maar feijenoorders dat zijn pas kunstenaars
aardig pijnlijk hoor deze maandag
30 hartverzakkingen. jezelf 90 minuten opvreten, schelden en foeteren.
misschien dat ze in rome en nederland eens met de politie in kunnen praten hoe je met supporters omgaat.
het grote verschil tussen sfeer bij ons en bij andere clubsis dat wij geen capo of ultra nodig hebben. wij zijn gewoon gek
is ook niet zo moeilijk he. als de grootste problemen eigenlijk meer komen vanwege incompetente organisatio
1 ding hebben we duidelijk aangetoond. football is for you and me. not for fucking industry.
mss is het nu ook duidelijk dat rome gewoon politie oorzaak was. voor relaxedheid van engelse politie
ipv ineens met complinenten te komen zou het media als ook meneer eric g. sieren om excuses te maken aan de feyenoord supporters
nou dat heeft daadwerkelijk wel met stadion te maken.
1 ding is hij wel heel erg goed in. namelijk verstoppertje spelen
die is echte clubliefde niet gewend natuurlijk
of beter gezegd excuses
ja hoor en wie krijgt straks de schuld van dat gooien
leuk voor je 😂
7u deze morgen
en wanneer laat je je aan die grafkop behandelen
gaat ik zeker doen. bedankt voor je gulheid. de rekening komt je kant op
die mogen toch vliegen vanaf waar ze zelf wilt
na de kansen mist de jong nu ook al zijn vlucht
de award van slimste opmerking van de dag gaat naar ........
thijs alle luchthavens in nl. be en duitsland is 1 grote uittocht slimme
welke polsbandjes delen jullie uit? dan weet ik welke ermee moeten
pffff thuiskomen zal nooit meer hetzelfde zijn zonder mijn grote vriend die op me wachte elke dag
daar moet je zowiezo mee stoppem bij thuiswedstrijden. beter focus op de eigen fr nummers
3/3 erbij naait dat boeit niet. filmen doe je thuis op gele zijde zing je luid
2/3 vinden ze leuker dan mee sfeer te creeeren. dat er door die filmpjes en fotos ook je mede supporters er
wat vooral hinderlijk is dat mensen enkel met de telefoon in de handen staan en niet zinge. 1/3
komt goed kameraad
ja mijn zieke hond wil ik even niet alleen laten
kameraad ik ga zondag helaas niet redden.
17112012 gone but never forgotten. vnvd proost ik op jou in heaven kameraad
ik wil jou niet meer horen totdat jullie prinsesje het levenslicht heeft gezien
ben ik rond 11.30 bij jullie
doe maar een flesje net als de kleine man😂
kameraad zijn jullie zondagochtend thuis?
lijkt wel op immers
hoe laat mogen we aanschuiven. of kan ik via thuisbezorgd bestellen
is pas voor morgenavond. maar tnx. zo zie je maar drink meer dan alleen bier
ik heb niet aangedurfd om mee te nemen. nu een lekker plankje en wijntje
denk voor bij de borrel te overweldigend
moet eerlijk toegeven. smaakt goed maar ook zwaar overheersend.
die is idd goed. net geproefd bij de plaatselijke kaasboer
echte piet is zwart bamm einde discussie. of zoals mijn neefje van 4 zegt. dat is een namaakpiet
een hele lange
wat zwart is moet zwart blijven
het is volgens mij tikhemaandonderdag.
onderweg naar mijn stadje. zonder mijn schatje
nee en mijn eigen rooitje ook niet
waar mag ik mijn oude schoenen heenbrengen en wil je daar nog saus bij?
vanavond met de meiden naar helaas wel zonder de leukste meid
vrij zijn op maandag is best lekker. genieten van quality time
ja als ik opgeblazen ben
daarom lach ik niet meer
naaionderdanen zijn ook helden
held
kom je ons anders even helpen zo
fok die badr. tyfusventje rico spontane kerel. moet ik ook zegge. anders krijg ik ruzie met zijn moeder
gooit hij het verkeerde pakkie op het veld
hij moet denk zelf van de suiker afblijven
ik vraag mij echt oprecht af of door is gehackt
zou ik maar snel beginnen met vragen
krijg je ineens een melding volgt je nu.
je keek gewoon hoe de baas het deed
je keek gewoon hoe de baas het doet
hier kan bvo nog voorbeeld aan nemen
altijd fijn als je onderweg naar de liefste bent. mensen weer tegen elkaar moeten rijden waardoor je weer in de file staat
hoezo uitkijken naar vrijdag als donderdag de mooiste avond van de week is
ik drink mijn koffie zwart. mag ik dat nog wel zeggen van beroepsjankert of ben ik dan ook meteen racist
of maakt ook goede kans. net als laten die hun klanten ook in de kou staan
zolang je in jezelf blijft geloven komen goede dingen vanzelf op je pad. carpe diem
onder het motto durf te vragen. ik zoek een lekker eettentje in den bosch
lieve sgat jij ook van harte ik kom snel ff langs
ik hoop voor de wereld wel dat zijn kleine man het karakter van zijn moeder heeft
voor mij was dat ook reden om weg te gaan. hoe verdien je makkelijk je geld
een reden te meer om over te stappen. hoe raak je klanten kwijt he
grote vriend van harte gefeliciteerd met kleine wondertje
zolang de vaste mensen ze niet zingen zijn het geen nieuwe liedjes
snuif geen drugs uit amsterdam want daar krijg je kanker van
ik snap werkelijkwaar niets van jullie beleid. dus een opblaasbanaan is pas racistisch als ik naast op de tribune zit
dan is het wachten op onze klassieker. weet je wat ik wel zou willen zijn
doe is lief tegen je vrouw
daar moet op gedronken worden
ach ja. binnekort haalt mick weer iets uit. kan jij weer boos zijn
gudde zal wel blij zijn. geen uitsupporters mee
wat een heerlijk weertje voor een boswandeling. was even heerlijk genieten met zen 4tjes
vind dat rangers er niet bij hoort. deelname moet aan de hand van afgelopen jaren gebeuren niet mbt verleden
aaaaaaahhh. binnekort maar weer eens drankie doen dan
dat is geen indruk meer maar de waarheid en niets anders dan de waarheid
mag jij wel binnen in de striptent
de identiteit van de horror clown in rotterdam is ook bekend gemaakt. zijn. naam is e. gudde
niet te veel aan me denken
gefeliciteerd met de baas meneer
ik ga in den bosch aan de slag
vandaag weer jaarlijkse sluitingsprijs. dat is dus bier en milfs oja en word ook nog wielerwedstrijd gehouden
ja vriend verkoopadviseur
meneertje graaft rustig heel rustig zijn eigen graf
sterker door strijd was mijn motto. finally kan je oogsten wat je zaait. 1 november starten bij mijn nieuwe baan
waarom maken we er vandaag geen block maandag van
kan ik je ook inhuren om voor onze groep te komen bbq e schat
als zelfs 538 het al overneemt
wat denk je zelf
ik moest vragen wat je van je schoonmoeder vind
binnekort op help mijn man heeft een hobby
wij wel. maar wij zijn slim nu de rest nog
wat lul je nou. ik koop kaart. kaart word geblokkeerd. maar betaal alles netjes hoezo heb ik mij dan misdragen
waarom worden dan enkel nederlandse kaarten geblokt. wel erg toevallig he. is de schuld van de kaartkopers zelf manmanman
en dat ze er weer een smerig spel van maken verbaast me nog get allerminst
op de trap dan wel
moet ik die machtigingen mee nemen of zijn die bij jullie bekend
vol ongeduld wachten op witte rook of
probleem is dat je altijd van die mallootjes hebben die het niet kunnen handelen. 99% is het gewoon hartstikke gezellig altijd
helaas niet
nee hoor maak je er zelf van.
met mij wel. herfst komt weet in het land dus mijn grapjas kan weer uit de kast en met u
excuus meneer
humor bestaat blijkbaar niet meer op de maandag
mensen hebben ook geen humor meer tegenwoordig
ik heb zon een vermoeden dan boos is. erg boos
kijk heb je iets te lezen vnvd
hoezo is de waarheid niet aardig dan
die vent zal denk ik wel bijziend zijn
moet niet gekker worden
ze laten wel zien dat ze goed zijn in structureel falen
kenneth heb een nieuwe carrière
sterkte kameraden. ze kunnen proberen maar wij geven niet op
stop onnodige stadionverboden
word het wel een xxxxxl boek want past niet op 1 flyertje
maak ze dan
wat is het verschil tussen een penalty voor psv of een ijskoudbiertje? biertje gaat er altijd in
verdiep je eerst voordat je wat roept he. hun boycotte dus zit amper volk
lijk wel of mijn halve kennisenkring de hoodvlogger achterna reist
dit jaar komt er ook nog wel wat.
excuus excuus rkc. toen toegelaten door kerkum en nu geeft die er sv s voor
is inderdaad sparta
heb jij ook al een plan
hoe kom je aan die foto
manmanman dus omdat het sportief goed gaat. moeten we ineens maar zwijgen en onze ogen sluiten voor alles
hoi
sfeer is helemaal niet nodig. hoe stiller hoe beter
sfeeracties enzo heb je toch niks aan joh
wat ze wel vergeten dat juist de mensen zijn die altijdmet de club bezig zijn
zij vooral die rooie dakduif
enige wat ze doen is grote muil op social media. zeggen wel is kleine groep. maar waarom klinkt het dan steeds massaler
verdiep je even goed in de materie voordat je makkelijk lult
😂😂😂😂 je bent echt grappig waarschijnlijk te druk met fluiten.
thanks in tegenstelling tot hun als passanten zullen wij er altijd blijven staan
lees even je eigen tweet terug. onze spelers steunen wij ten alle tijden. maar verdiep je even in beleid
dat is dan wel iets waar ons bestuur goed in is. dingen weigeren
moet je ook niet heel tijd onder hoogspanning staan jij
duidelijke taal jij weer
je computer past zich aan jou aan dus
je heb weer niks te doen he
kijk dat is nog eens nuttige info. kan een mens iets mee
kan je lekker jezelf zijn natuurlijk
gewoon omdat het kan 😘
weer lekker overdrijven het is september doe ff normaal. ow vergeten dat kan de media niet
houd ik voor mezelf. is mijn prooi haha
nu jij nog stoppen met twitter en alles komt goed
er rijden 6 me busjes achter elkaar. de voorste stopt de rest te laat.. vind ik best grappig
het is altijd lente in de ogen van de doktersassitente. maakt het wekelijkse ziekenhuisbezoek stuk prettiger
dus na dit seizoen maar algemeen directeur maken
ja stel hij blesseerde zich 2 weken later. had je hanson gehad in de goal. heb je met jones meer zekerheid
ook al staan we bovenaan. voor jou is het nog steeds gedaan