wat een verschrikkelijke zwakke vertoning
goe bezig, weer een feestje 😘
volgens mij is het niet alleen toornstra die uit niet kan scoren.
larson, beter dan boetius en zeker beter dan bilal
is een reden maar ik vind ook dat hij verkeerde keuzes maakt. een aantal spelers vallen volledig door de mand.
ze moeten zich kapot schamen
nog steeds een hoop frustratie zo te zien
dit seizoen feyenoord geen kampioen maar ik denk voor het 5e jaar op rij ajax ook niet.
is niet anders momenteel rick.
duidelijk
walgelijk dit.
nee hoor, jij niet 😂
schaam je
wat een geweldige docu van een geweldige voetballer en een fantastisch mens. dirk kuyt.
hoe is de situatie momenteel op de a58 richting bergen op zoom?
hoe is de verkeers situatie op de a58 in zeeland? veel vertraging?
en dan hebben ook begin herfstvakantie en toerisme uit duitsland. weer aardig gepland maar niet heus.
goedemiddag, ik heb een dm gestuurd met vragen betreffende de a58 het komende weekend. ziet er allemaal verwarrend uit.
pouletje voor morgenavond nederland zweden ik zeg 13. wie volgt?
wat eigenlijk al zo was is nu helemaal zeker. geen nl in rusland.
overigens heb ik ook nog gereageerd op jullie dm met een vraag betreffende dit weekend misschien k…
heb ik gedaan nu
ik lees net voetbalflitsen dat het contract van v persie ontbonden zou, terugkeer naar feyenoord. weet je hier iets van?
deze opmerking slaat nergens op.
een wolf in schaapskleren
goed lezen. kritiek is zo makkelijk
verstappen op de max. geweldig
bij crystal palace gaat het echt beter nadat frank de boer weg moest
8 km file lijkt me toch hinderlijk genoeg en er komen er nog 2 weekenden. ik had begr…
kan dit nu echt niet anders, wat een zooitje. en bij de kop maar in het zand steken. onbegrijpelijk
waarom vente niet in de spits,is tenminste gretig om te laten zien wat hij kan.
gewikt en gewogen,helaas veel te licht
gaat goed hè de laatste tijd
we gaan vooruit ipv 2 duurde het nu 7 minuten
gelukkig,toch een fijne dag vandaag lieve schat.
goedemorgen 😘 wel helemaal heel hoop ik toch.
verklaart geestelijk gestoord, heeft hij een punt zijn er wel 2 bij elkaar. ga toch lekker spelen in de ballenbak.
is helaas zo, maken veel kapot aan de kust. campings moeten verdwijnen hiervoor.
de roofpot
ziet er niet naar uit 😭
in dit land mag ieder een mening hebben,mee eens of niet mee eens maar van andermans spullen blijf je af,not done
ik ben heel nieuwsgierig 💕
kappen met dat zooitje, wegwezen.
gevaar in de wereld,ok maar het grootste gevaar is kan iemand die meneer in een donker hok stoppen. levensgevaarlijke gek.
vanavond finale 800m. mannen tegen de vrouwen. eng 😎
en opa flikken het. wat een kanjers. kampioenen
wat gaaf van de nederlandse dames. een echt topteam,verdiende kampioen. gefeliciteerd 👏👏👏👏👏👏
ik weet nog een goede coach uit rotterdam
en hij heeft absoluut een punt
goedemorgen, wat is de reden van de belemmering momenteel richting borsele?
wat kunnen nog we verwachten van op de transfermarkt?
doet nog wat op de transfermarkt? kunnen nog wel versterking gebruiken willen we meedoen voor de prijzen,is maar stil
uran en bennett 20 sec tijdstraf voor aannemen van flesje water van een toeschouwer. wat is hier de achterliggende reden?
ongelooflijk
boodschappen doen 😂
klopt het dat de ploeg van cavendish protest heeft ingediend na 1e uitspraak,kwalijke zaak.cavendis…
waar zijn ze naar toe?
verkiezing slechtste man van de wedstrijd
wat een oeverloos gezwam van die ik zeg wisselen die man
zou er behalve goes nog een ploeg uit zeeland gepromoveerd zijn????????
gefeliciteerd met de promotie naar de 3e klas.
ik ga voor benfica, borrusia dortmund en??
en dan ook nog 15jaar en 12jaar,over opvoeding gesproken.
wat is het toch een verschrikkelijke matennaaier die ramos en zelf maar lopen uitdelen. walgelijk
afgrijselijk dat milka paars
heel veel succes lieve schatten 😘
vorige week nog aan de race maar vandaag zet hij de concurrentie te kakken is the man.
leuk zon videoscheidsrechter
heel zielig en misplaatst deze actie
voor een goede wedstrijd moet je 2 teams hebben die willen voetballen. manu was dat niet van plan,resultaa…
je bent pas een echte supporter als je trouw achter je eigen kluppie staat maar ook respect heb voor tegenstanders en andere clubs
jammer einar maar feijenoord supporters zijn jaren lang getrakteerd op hoon, dit gaat beide kanten op.…
nou nou, al wat spanning voor vanavond. gaat helemaal goed komen. ajax wint met 31.
kwam een klein foutje tegen in het boek.
bedankt voor een mooi verslag van een topjaar feijenoord, heerlijk boek met mooie verhalen.
wanneer beginnen de trainingen voor het nieuwe seizoen hopelijk houden we een mooie ploeg bij elkaar
of andere provider 👊
graag zou ik als abonnee korting krijgen.na verdwijnen van discovery,europoort,tlc is het zenderpakket veel verslechterd
bedankt dirk voor alle positieve en tomeloze inzet.een groot mens en sportman. succes in je verdere loopbaan,hopelijk bij
zo gaaf,zo mooi 130000supporters
vandaag kampioenschap van feijenoord vieren,geweldig.maar ook op 24 mei supporteren voor ajax in de europa league finale.
zo mooi, 18 jaar op gewacht. zit te janken als een klein kind
en zeker niet kansloos in de finale,top.
en zeker geen 5 👏
we winnen met 20 doelpunten jorgensen en toornstra. 👊
die van breukelen kan toch niet meer,wie gelooft dit nu nog. hij draait,keert maar lult alleen nog tegenstrijdig ongeloofwaardig
helaas niet kunnen zien,geen meer. jammer
heel teleurstellend dat ik de giro ditalia niet gewoon op de tv kan zien. delta verbindt? nee delta verbreekt!!
komt er nog even een vrachtwagen van zeeman in de straat om te lossen,is mijn inziens geen normale tijd s avonds om 21.40uur
op weg naar stockholm
incompetent persoon van breukelen, door deze figuren gaan we achteruit met oranje nog…
hoop ik ook,zou mooi zijn en goed voor het nederlandse voetbal.
volgend week extra support voor vitesse in de kuip
een hoop herrie vanaf arsenaal plein, zware bassen galmen door de burgemeester geillstraat.
eigenlijk vind ik alle twee keuzes heel zwak
ik denk dat massa hier toch een punt heeft. je kan niet zo maar alles roepen. learning…
gelukkig hebben we ook twitter
een topper kelly uit zoetermeer, doorzetten beloond
altijd positief blijven voor je kluppie
waarom zo negatief?
real soap daar in zeist,totaal geen controle meer,maken er een zootje van
dit gaat niet meer over vilhena. dit is een strijd tussen aanklager knvb en advocaat feijenoord. wie wint er nu!
typisch geen kandidaat voorzitter tk aangeleverd en dan klagen dat ze geen kans krijgen.niet geprobeerd is altijd mis
slaat de spijker op zijn kop. is verantwoordelijk voor de puinhoop bij de buiten gooien
vind het wel raar dat de aanklacht veranderd word. zou de aanklager dan toch niet zeker zijn in zijn bewijs
terecht ontslagen als bondscoach maar bij de lopen ook pipos die medeverantwoordelijk zijn voor het falen. ook wegwezen dus.
hoe blind kun je zijn
is te hopen dat de ligt het mentaal kan handelen. blind heeft hier echt geblunderd.
ben benieuwd of blind een vervanger oproept en wie. zou er niet intrappen.
rutte&ampbuma peuters op een kinderfeestje zegt maar zelf janken als een kleuter.heeft zijn eigen glazen ingegooid.#kabinetsformatie
zo raemon dat zijn nog wat openbaringen in door who is de boss
wachtkamer kno arts. inmiddels 45min. in de wacht.
goed voor het nederlandse voetbal, punten hard nodig in europa
stem uitgebracht op
zeg maar gerust puinhoop maar ligt niet aan tunnel maar aan autos die regelmatig in panne vallen in de tunnel
prima oplossing. 👍
dit lijkt op een trumpje, vlak voor de verkiezing op straat gooien om stemmen te winnen
en de prijs voor de grootste roeptoeter gaat naar dreigen maar niet
weer chaos op rotondes richting dow. weg naar poort 3 staat praktisch vast
dubbele paspoorten klaar,kiezen nu. steunen maar dan wel in turkije,land van democratie,mensenrechten en vrijheid. 👊✌👎
250 betogers bij het turks consulaat, kunnen in 2 dubbeldeks bussen met de turkse minister van familiezaken mee naar huis.doen ze vast niet
nu ben ik benieuwd met welk statement de eu komt na de uitspraken van wie is nu eigenlijk de fascist hier dictatuur.
terecht geweigerd dictatuur. alle turkse nederlanders die zich gegijzeld voelen hier, prettige reis terug naar huis.
verrekening is wel tussen knvb en feijenoord. knvb alle diverse keren bakzeil gehaald.
absoluut niet
de moet zijn eigen kapot schamen. een aanklaagster uit amsterdam die perse haar gram wil halen op feyenoord. hier word iets verrekend
deze aanklager is gewoon op oorlogspad en wil zijn gram halen. jammer dat dit zo moet.
denk je dat de wissels op de bank het verschil kunnen maken naar het kampioenschap, ajax lijkt een sterkere bank te hebben
en we staan weer stil op de sluizen richting westerscheldetunnel, reden????
kan wel zuur zijn maar 1e veel te slap begonnen
waarom kuyt niet inbrengen?
helemaal mee eens,maak gebruik van twitter, zie voorbeeld westerscheldetunnel, bij stremming word dit vermeld via twitter.
verkeer vanaf sluizen richting tunnel/dow helemaal vast. reden?
welk uitzicht??
as zondag een leuke todo. yesssss
heel triest dat dit gebeurd, ook al ben je het niet met elkaar eens. respect daar gaat het om.
maar er zijn nog 10 wedstrijden te gaan hoor. alles kan, zelfs op de laatste competitie zondag.
is te hopen dat de knvb beseft dat dit overal gebruikt moet worden
daarom is het vandaag ook leuk
een soort gelijk gevoel als met 0,01 seconde wk schaatsen word. gewoon terecht.
eindelijk iets nuttigs bij het voetbal
1mm voor 3 punten
en heel terecht, 1 ploeg die er echt voor wilde gaan.
ik hoop niet dat jij de technologie nodig heb om te weten hoever je zit. 😂
wel mm werk, goed dat er doellijntechnologie is al zullen anderen hier weer een mening over hebben.
dit is wel kort door de bocht, nu gebruiken we de doellijntechnologie eindelijk is het weer niet goed
niet eigen standpunt kunnen verdedigen maar vol in de aanval tegen andere partij, kloon van wilders.#pvv#hoedan#politiekgewin
morgen 1.06.38 let maar op.
morgen nieuw wereld record kjeld nuis, 1.06.38 let maar op
ben ik helemaal met je eens, ben je nooit te groot voor 💞
hij speelt het spel geweldig, een ander ook gunnen, niet alles perse willen winnen. er komen nog hele mooie koersen voor hem
als je niets doet kun je ook geen fouten maken. afgeven op anderen is makkelijk. peil nooit geregeerd toch?
is dit nu vrijheid van meningsuiting?
jij mag altijd bij mij schuilen 😘
pechstein met vinger voor haar mond over de finish, misschien moet ze gewoon eens naar haarzelf in de spiegel kijken.
is toch jammer dat je het schaatsen niet kan zien in het buitenland. topprestaties gemist 😑
wat een geweldig verhaal in over tonny vilhena, kippenvel en tranen. alles is nu anders.
heel mooi verhaal van vilhena in alles is nu anders. blij dat hij bij speelt. een grote club in woorden en daden
21 winnen is ook lekker hoor
rip lou. sterkte voor familie en de vvt.
kan het probleem worden een zwakke wisselbank
wel erg voorbarig al. we zullen zien wat die roeptoeter over 4 jaar heeft achter gelaten.
hoi lieverd 😘
het witte huis heeft verklaard dat de menigte bij de inauguratie van de grootste ooit was.nu nog een minister van propaganda benoemen
wat een roeptoeters en dan heb je nog de personen die er zonder na te denken achter aan lopen. word wakker!!
verplicht achter de baghwan lopen. vrijheid van meningsuiting? laat me niet lachen. veel schreeuwen maar weinig zeggen.
populisme,nieuw imago? op naar de verkiezingen. wat een stelletje roeptoeters
blind moet van persie gewoon niet, heel kortzichtig
zeeuwse powerrrrrr,wijsheid en slimheid.
sanne wevers,goud,ok max verstappen,geen goud, sportman? handbaldames,een superteam.gunfactor? zeg het maar?
respect voor de roeisters maar er is maar 1 echte sportploeg,deze dames hebben heel nederland laten genieten
wilders is niet de oplossing voor de huidige problemen in de wereld.
gevochten als leeuwen,enorm trots op de handbalmeiden van oranje sportploeg van het jaar.
vorig jaar 155 met de rust nu 1515 we can beat them
is inderdaad delta, ik ga het proberen, dank jullie wel.
ik heb via zeelandnet ziggo sport. kan ik dan ook de wedstrijd terugkijken??
ik vind het heel jammer,ik heb gisteravond niet kunnen kijken en had hier graag nog iets van gezien
wederom weer geen handbal terwijl het om 10.00uur wel gepland staat in de programmering. niet leuk!!!
goedemorgen 😍
klopt geen fuck de programmering, dacht naar de samenvatting en handbal te kijken om 00.10uur maar dus niet. foutje ziggo sport
het zou wellicht makkelijk zijn om een tweet te versturen al de sluisbrug open staat,zie vb afsluiten tunnel
een hele knappe overwinning op het thuisland zweden en thuisfluitende scheidsrechters zwened.
wat een verschrikkelijke thuisfluiters,schandalig
goedemorgen lovely. maak er een mooie dag van met veel plezier.
wat een come back, na een achterstand van 713 begin 2e helft gewonnen met 1817 van frankrijk, powerrrrrr
prima stukje, toch ook een puntje, in zws vlaanderen is er ook handbal, hv novitas. doen heel hard hun best
zegt heel veel over een falende afdeling, zou de school actie op moeten nemen eigenlijk
eigenlijk is dit niet bizar maar heel erg.
gebeurt vaker dat er laat nog een vrachtwagen komt om te lossen.geen ideale situatie helaas en gewoon vervelend
is niet conform planning van 20.3021.00uur waar ik rekening mee heb gehouden, nu te laat op afspraak
zojuist om 20.30uur komt er nog even een grote vrachtwagen van zeeman door de straat, niet normaal op dit tijdstip
hier alles goed
goedemorgen 😘
mocht pietje niet mee van sinterklaas? niets aan de hand...toch? paniek,paniek,paniek..leg dit uit aan een kind
dit vind 95% van nederland!!!!!!!!! resterende 5% krijgt gehoor en ook nog hun zin. democratie, nee! meerderheid ne…
daar heb ik in dit land helaas mijn twijfels over. kleine groeperingen blazen van de toren en krijgen nog gehoor ook
geert wilders, sylvana simons en jan roos aan 1 tafel, zou ik wel eens willen zien wie krijgt dan de zwarte piet?
citaat verstappen krijgt het een keer terug. dreigement van dhr lauda??
dirk kut? nieuwe speler
ik had eigenlijk wel een reactie verwacht maar helaas. niet belangrijk zeker voor de pzc
nog geen handbalverslagen gezien van afgelopen weekend. misschien gemist. vorige week nog wel gehad.
zooooooo, wat een goal van janssen, een echte spits staat op.
wat een armoede dit, moeten we die man nu echt nog serieus nemen
met wilders,roemer en buma zal het vast beter gaan.
quote een dag niet gelachen,een dag niet geschoten en een dag de schelde niet gezien is een verloren dag
onduidelijk, in de bijlage staan andere tijden bij diverse werkzaamheden. wat en waar is de omleiding?
blind kom van die bank af en ga wisselen. toon eens bezieling
een rondje fietsen met alle olympische sporters in het olympisch stadion en dan iets doen voor een goed doel. topsport!
jullie programma was heel positief, over de sporters en naar de sporters. dat mag beloond worden.
schitterend handbal gezien,genoten van de dames nu aan ons om hiermee verder te gaan in zeeland
heel veel respect voor de de dames voor het eerst op de os en dan dit bereiken.de toekomst is mooi
in het ioc zitten de mensen schijnbaar meer voor zichzelf dan voor de sporters.
helemaal voor, kritische maar positieve insteek,respect voor de sporters
wat ik afvraagt, wat is jouw mening als columnist over de losersvlucht, ik vind het belachelijk,geen respect voor sporters
losersvlucht echt belachelijk, iedereen doet zijn stinkende best en dan word je zo bedankt. meer respect voor onze sporters
gooit de handdoek in de ring
middelburg lange wachttijden.
behoorlijke dreun in het geluid vanuit de nieuwstraat
het blijft een zielig bekrompen kereltje
advocaat is niet blind
hopelijk heeft kiki vandaag meer geluk dan de andere hollanders dit weekend. succes,go for it.
niet het weekend van de nederlanders, kruiswijk in de sneeuwmuur,verstappen in de vangrail. cest la vie helaas
koning,keizer admiraal maar ik ben en blijf de grootste zei van gaal
cupfinal schotland. wat een sfeer, voetbal op zn best.
. chapeau kruiswijk
wat schieten we nu op met van geel. middelmatige spelers binnenhalen,talenten goedkoop de kuip uit laten lopen.van geel wegwezen
wat dacht je hiervan,ajax geklopt door fc twente dames op doelaldo
heb ik dan helaas gemist. jammer
maar helaas piesen wij naast de kaarten want die zijn er niet meer,al voor dat de verkoop was begonnen.
woekerprijzen? voor de verkoop was begonnen al uitverkocht in het scheldetheater??????
ik noem dat altijd een fluisterbroek, je ziet de lippen bewegen maar je hoort niets 😀
ben ik toch niet de enige die dit zei
wat is de status van de storing in terneuzen?
jammer van de storing maar ook jammer dat de berichtgeving hierover erg middelmatig is.
zit net naar het einde van de giro etappe te kijken, beeld weg. storing? onderhoud? niet leuk!! verkeerd moment.
ongelooflijk....
wat een wereldnieuws
makkelie is al uitgenodigd voor het feest
mannen,aanhang en supporters proficiat, top seizoen
weer een behoorlijke dreun met veel herrie vanaf arsenaalplein terneuzen
rio!!!!!!!!! wat een geweldige prestatie, topteam. nu al goud.
reden van de storing op npo 1,2 en 3.? wanneer opgelost?
momenteel geen ontvangst npo 1,2 en 3 in binnenstad terneuzen. storing??
hand in hand kameraden,hand en hand voor fatima
ik ben benieuwd wie er komend weekend nog meer af gaat zeggen??
ja raemon wat is nu je echte liefde, feijenoord of fatima?
en voor hartepijn is er nog altijd meldonium, blijf je op gaan
zakdoekje voor het bloeden nodig raemonsluiter?
we hebben er over gesproken, nee motto is geen woorden maar daden
gudd en van geel oprotten. neem je verantwoording en pak je spullen,jullie verzieken het al jaren
wat een talent zeg die van beek tijdje gaan wieberen
een verdwaalde opblaas banaan kostte feyenoord een wedstrijd zonder publiek. dit was erger. dus
ajaxfeijenoord gewoon staken,ongehoord en ver van enig fatsoen wat daar gebeurt. geen voetbalsupporters, stadion uit schoppen die gasten
de boer trainer van feijenoord. gaan ze misschien ook weer eens punten pakken
dank jullie wel. prettig weekend
komende week zijn er wzh bij de bruggen van de zeesluis in terneuzen. waar kan ik de tijden en datums hiervan vinden?
verloopt niet soepel is zwak uitgedrukt. ik ben zelf een binnenstadbewoner, parkeren een rommeltje en weinig controle helaas
ik mag hopen ook in de editie in zeeuws vlaanderen
ook voor jou een heel goed en gezond 2016
gordon blijft toch proberen om de toppers een oor aan te naaien. toch leuk zon apenpakkie 😜
wat ben je een grote jan lul als je bob de jong in zijn laatste race diskwalificeert,dan begrijp je niets van
hoe is dit mogelijk? kaarten concert adele op marktplaats 200 tot 800 euro schandalig
17.00 uur meer dan 100 man finale handbal kijken in kantine van sporthal baskensburg.
tophandbal in vlissingen, oude tijden herleven. tribune goed gevuld
vrijdag? vooruitziende blik?
wat een geweldige prestatie van de nederlands handbaldames,waar gaat dit naar toe
zijn niet bekend bij mij maar zullen zonder meer byzonder goed smaken. gezondheid of te wel slainte
eigenlijk wel nieuwsgierig met wat de voorraad is aangevuld. zijn vast goede smaken
jij hoeft van mij geen sorry te zeggen hoor, dat weet je wel. alles word helaas veel te veel opgefokt. we drinken er een biertje op
leg eens uit, ik heb geen beelden gezien alleen 1 foto.
en... een slechtziende grensrechter!!
toch weer een mazzeltje, bal voor het doelpunt duidelijk over de lijn!
wat een leuk boek, leuke verhalen in combinatie met lekkere taartrecepten.
lucky feyenoord. het engeltje is in rotterdam
we zullen het zien, wachten nog even af.
verplicht meekijken naar dance dance dance. wat een bagger.
weer een zwakke verbinding,weinig bereik hier 4531ec.
ze verdienen het,hebben realistische doelstellingen en goede instelling. handbal on the move.
klopt maar als feijenoord denkt dat ze elke week tegen de graafschap voetballen komt het niet goed. 😀😂😉
weer niet leuk hier in burg.geillstraat, terneuzen. geluidsoverlast vanaf arsenaalplein, zware bassen. is niet de 1e keer
wat is de dichtstbijzijnde mogelijkheid voor mij om sushi te bestellen? ik woon in terneuzen
we zullen het zien
ik woon zelf in terneuzen. momenteel redelijke verbinding
email niet uitgeschakeld, gewoon niet gekregen dus. helaas pindakaas
ok, maar waarom vooraf dit niet kenbaar gemaakt. scheelt een hoop ergenis.
is er een storing in de regio terneuzen? ik heb geen mobiel netwerk??
ik ga dit komend weekend dan doen.
thuis op mijn ipad en vannacht updaten gedaan naar ios9
en weer doet de app van delta tv het niet, boodschap om het maar een andere keer te proberen. andere provider dan?
momenteel functioneert het weer
tv kijken via de delta tv gaat weer eens niet. melding tv kijken niet mogelijk,probeer het later nog een keer. heb ik nu niets aan
opzouten met die kazim, geen recht van spreken
wat doet er nu toe in deze kwestie dat mike stok feyenoord supporter was. stemming makerij?
heel veel succes rudi
jammer dat jullie dit zo laat bekend maken, had eerder gekund. op de site stond ook geen storing vermeld
is er momenteel een stroomstoring in terneuzen en kunt u exact waar?
hoop ik ook maar moet nog wel het eea bij denk ik.
topact in de tent op het veerplein
wat betreft supporters geen betere club. top
maakt er een zooitje van. afsluiten a58 zorgt voor chaos.