zo slecht doet die het niet,ze moeten hem een contract voor het leven geven en een standbeeld
is er al meer duidelijkheid over de blessure van jørgensen, over hoe lang hij uit de roulatie is?
klopt, ik heb hem ook gelezen, zijn echt fantastische verhalen. en nu glorious hearts? haha
zal mooi wezen neef, want jorg is kwa potentie en uitstraling 3 klassen beter dan die drol van een klein
er is alleen maar gefaald, tijd dat de technische commissie opstapt want er is al jaren wanbeleid gevoerd
dat vliegtuig boven het veld met zn doek moest me aan een derby denken die we nog eens dik wonnen svs schijt aan de buren
laten we maar ophouden over gisteren want dat had niks met voetbal te maken
en dan met name de tweede helft
haha was gewoon in kattuk maat deze wedstrijden laat ik niet schieten
na de wedstrijd kwamen ze achter de staantribune langs omdat ze niet langs de stewards kwamen
die supporters van katwijk slaan echt als een stel wijven
daarom zijn we ook naar de bliksem gegaan
frustraties neef, ten ondergaan tegen het grote willem 2
jullie hebben het paard van troje binnengehaald
winnen van sevilla is ook niet voor iedereen weggelegd
met 11 man met 62 winnen tegen 9 knap hoor maar evengoed jij krijgt die lach niet van mij gezicht
in de doofpot
wel met een reden pannenkoek wij hebben 2 topklassen titels jullie 1
jij krijgt die lach niet van mijn gezicht
jij krijgt die lach niet van mijn gezicht superboereee
feest bij nazzz omdat het 6e kampioen geworden is, maarja je moet toch wat te vieren hebben als het 1e al jaren geen kampioen meer wordt
de vrije trap van marcel kamphuis strak in de kruising
me grijns word met de week groter en groter 😀
wie had dat gedacht,van 7 sterren op de borst naar volgend jaar spelen tegen fc horst
ferenc puskas award van 2016 al bekend nick tol met een weergaloos doelpunt tegen kozakken boys là messi
svs zakt 1 plek nazz 2 plekken! nou, als we weer 1 plek zakken en nazz 2 daar wil ik best voor tekenen.
dat is rothman voor nazzzz
op welk nummer is hij gevallen???
typisch spakenburg altijd verliezen van de kleintjes
haha wij werden nog 3e op het wk
zou ik ook doen als er alleen maar neuzen in het veld staan
ik hoop dat dit de laatste wedstrijd is van danny blind,meer landen dan ooit op een ek en je nog niet kunnen plaatsen
oranje onderaan iedereen kan ons verslaan want wij zijn de grootste losers weg ermee
karsdorp is vandaag met een liesblessure van de training gegaan en waarschijnlijk had hij geen zin om met ajax 2 mee te gaan
kavel 25 zou ook een mooie voor in de bu2 wezen coen
en we nemen afscheid van een legende steven gerrard wat een held
vroeger speelde nazzz nog elk jaar voor het kampioenschap maar tegenwoordig spelen ze alleen nog maar voor een district bekertje
je moet toch wat te vieren hebben als het 1e jaren geen kampioen is geworden
het is de laatste 5 wedstrijden al vulles het doet pijn aan me ogen zo slecht,maar had wel verwacht dat ze erop zouden buuguh
volgend jaar nemen we revanche en pakken de trippel met het gouden kwartet
we hebben het aan ons zelf te danken dat we geen kampioen zijn geworden
geen 2e plaats trouw aan de club tijdens voorspoed en geluk maar we zijn er ook na een nederlaag
dat zei je vorige week ook al jan en dat liep ook niet echt bepaald goed
volgende week zijn we afhankelijk van oer feyenoorder john de wolf en zijn ollies
het lijkt alsof we geen kampioen willen worden
bedankt voor de overwinning maat
denk dat nas harder juigt dan kozakken boys
dan ben ik in ieder geval uit mn lijden verlost
maar als je de kansen niet maakt
wat verrassend
tis zoals de laatste weken niet om aan te gluren
ik zou ook gefrustreerd reageren als ik 1414 dagen geen kampioen was geworden
nee niet echt een zeer matig spakenburg gezien en een hoek die vocht voor wat het waard was succes alvast met p/d
haha klopt komt ervan na zn lange bus reis
lullig om dom punten te verliezen na een dom gegeven vrije trap
tis toch nog geen schrikkeljaar
ik dacht dat jullie nog wat goed te maken hadden na de 08
en het jaar telt maar 365 dagen
en wie weet zal het grote exelsior met de felbegeerde prijs er vandoor gaan
langste rouwstoet die ik ooit heb gezien
klopt maar als je thuis niet meer kan scoren laat staan winnen dan zie ik het somber in
volgende week teken ik voor een kleine nederlaag
wat verrassend hij verzuimd de laatste weken te scoren
nee eigenlijk niet maar kan hem wel vaker erop gooien als je dat wilt
randje buitenspel van kazim maar ach wat maakt het uit we hebben ons uit doelpunt te pakken
dit bewijst maar weer dat ze 1000% achter hun club staan
feyenoord heeft gebrek aan een goeie spits als pellè er nog had gespeeld had je die 2 wedstrijden ruim gewonnen
dan had je een rooie zalm zeker haha
de nasgriep eist zijn tol
zullen ze bij nas last hebben van de vogelgriep
speelt vak midden noord uit vandaag
toen waren de doelpalen nog van hout en hadden de ballen nog veters
de nassertjes waren vandaag angstvallig stil
die goal van kees tol was geen goal het was een orgasme
als ik was zou ik van de winter met een zak geld naar kroatië afreizen om die spits vast te leggen
dat is alleen maar beter dan sta je met de derby al 30 voor voordat je het veld opkomt
ik zou hem ook een kans geven want sven die kost je alleen maar punten
voor een paar jaar terug speelde portsmouth nog europa league
kijken hoelang de nieuwe trainer van nas het vol houd ik geef hem tot de winterstop
43 na een 30 voorsprong maken ze nog 33 en in de laatste minuut maken ze de winnende
hè hè na jaren van het net niet mogen we een poging wagen wij gaan europa in
omdat onze voorzitter waarschijnlijk ook in hogere sferen zat hij had het nooit toe moeten geven
als het aan de nasbond ligt gooien ze ons uit de competitie,zodat hun favoriete clubje weer kampioen kan worden
ricky en raily 2 hagenezen die allebei weggestuurd zijn en die nu hun hachje proberen te redden
vandaar dat ik vorig seizoen het aan de stok kreeg met ignacio, want die jongen had last van afkickverschijnselen
als spakenburg maar kampioen wordt de rest is bijzaak
misschien gaat pec zwolle nog dit jaar meedoen om het kampioenschap
al 1183 dagen is nas was geen kampioen en er zullen nog velen komen
owja dit is al het derde toernooi die van persie verkracht
jammer, ik had gehoopt dat we wereldkampioen zouden worden dan hadden de nassertjes ook weer eens een feestje
we gaan dr uut
alleen dit had robben 4 jaar eerder moeten doen
wat een duik een snoek is er niks bij
maar het mooiste gaat nog komen amateur kampioen
heb je voor mij ook nog een kampioen shirt maatje l
gefeliciteerd blauwe tijgers en op naar de algeheel amateur titel
we beginnen wel op nas te lijken met 3 titels in 6 jaar
bedankt die 4e man maar die 7 minuten extra tijd gaf bij gvvv
u bent de zwakste schakel tot ziens
45 minuten verwijderd van het kampioenschap
gefeliciteerd boys dus over een paar jaar praten we over de grote h effect
schade blijft beperkt
ze kunnen er beter knnb van maken
quizvraag! wie was naast zn vak als trainer ook kickbokser is dat a willem leushuis b phillip de haan of c badr jan zoutman
en jij hebt helemaal niks te zeggen volgepropte jood
moet je mij weer overtreffen joh
quizvraag nr2 hoe zwaar weegt bolle frans
quizvraag wat was de grootste uit nederlaag van nas
heb je me kratje al koud staan
na een uur van vol frustratie heb ik toch nog een kaartje voor feyenoord020
nog 9 finales te gaan en we staan weer op de blauwe coolsingel
alvast eentje om in de stemming te komen
dan maar een week later kampioen
van gerwen wat een held
als van gerwen net zo blijft gooien als de laatste 2 sets dan gaat die er gewoon uit
feyenoord is overal dus ook bij ijsselmeervogels020
zo eerst effe een kerstborrel halen
sinds wanneer hebben wij zoveel moeite met hardenberg
je zegt 3x zwarte piet en de wedstrijd wordt gestaakt heel onnozel
en ook deze rooie dwaas is uitgeteld
ik hoop dat een thuiswedstrijd loot tegen ado of feyenoord
heb net naar los sport zitten kijken,maar in dat vakkie midden noord staan meer trommels dan mensen
gefeliciteerd neef
als morgen welcome to the jungle als opkomstplaat het ben ik genoodzaakt me lidmaatschap op te zeggen
dan staan we standaard al met 01 achter als we het veld betreden,dat is toch geen plaat man
en ook de rooien weten de weg naar de blauwe kantine weer te vinden
breaking sir alex ferguson naar spakenburg
want amsterdam is poep op de stoep
ajax heeft het lastig tegen het grote pec zwolle
amsterdam laat je likken
het nl elftal is net zo vullis als spakenburg
vorig jaar lieten ze nog beter voetbal zien nu is het armeujjj en verdriet
ik zie weer een potentieel klantje vandaag
en omkoping in de topklasse is ook een feit
dit was een schoonheids foutje
nog niks aan de hand er zijn nog 29 finales te gaan en er zijn nog 87 punten te halen
en ook hij ziet het niet meer zitten
we gaan hem liquideren haha
hahaha dat was ik maat heb per ongelukhet verkeerde adres opgegeven
waarom moet die armeujjj altijd op vrijdag komen
nog één dodemans vlucht en ik ben weer thuis
lekker feyenoord goed bezig stelletje ezels
ik weet niet wat ze bij feyenoord achterin aan het doen zijn maar het lijkt helemaal nergens op
maandag wordt het helemaal erg here i come
vandaag weer een dagje strijden in de bijlmer
ja klopt, maar ik moet ook een beetje overdrijven hè anders gaan ze denken dat ik niks doe
de hele middag lopen snijden op leven en dood wat een armeujjj
zaterdag naar dortmundbayern ik kan niet wachten
wordt vandaag weer ouderwets strijden in de bijlmer
laat het voetbalseizoen maar gauw beginnen want zit me helemaal kapot te vervelen
vanavond me vakantie vieren bij het bfv toernooi
bennekom pffff hebben we nog nooit van verloren, je een beetje druk maken om niks
wordt vanavond toch een schiettent je moet je nergens druk over maken
maar die keepster van arsenal die mag er wel wezen
dit is toch lachwekkend dat 3 vrouwelijke voetbalanalisten uitleg geven over de looplijnen van het veld
sfeer zit er nu al goed in,beloofd een mooie finale te worden
zal het vandaag dan een zwarte bladzijde worden in de clubgeschiedenis
zal dan vandaag het nekschot gelost worden
2e voordeel niet meer naar capelle
prinsen is back
het is echt kut volk in veenendaal
barca is weer rijp voor de slachtbank
heerlijke goal van bayern 01#barbay
barca gaat op de slachtbank
tis wachten op de 40
messi neem je rotzooi mee
het is en het blijven duitsers forza dortmund
niet zn bekkie volgepropte jood
nu ben je helemaal verpest
tijd om maatregelen te nemen tegen dat vullis
haha oh oh cherso op tv oude tijden herleven
gefeliciteerd neef zondag party
handen hoog we gaan voluit in rotterdamzuid bij feyenoord
heb zn vermoeden dat ik over 20 min. de hele buurt wakker maakt na een goal van el shaarawy
hey donderse rooie gehaktbal
was weer ouderwets genieten geblazen
wat een geweldig publiek bij celtic ondanks dat ze geen pepernoot raakt
vandaag maar weer de armeujjj in met en
wij zijn ook niet voor niets het het land van melk en honig
in de kuip hebben jullie geluk gehad nu komen wij het karweitje klaren in die achterlijke arena
en voor mij amstel die staat vast klinkende overwinning voor feyenoord
janken van vreugde ja dat pellè er 3 in rampt en de arena een half uur voor tijd leeg loopt
luister nou maar goed naar het orakel
ik krijg ineens het gevoel dat ik in mei op de coolsingel sta
blijft toch kippenvel moment als je de van brienenoordbrug op rijd en je ziet dat stadion staan langs de maas
kan ik nu via utrecht reizen denk je vroeg thuis te wezen
heb ik weer zit je in de trein springt er zn ezel voor de trein en heb ik weer vertraging
he schele waar loop je dan
mallorca dat is de bom gapp
effe de schone broek aantrekken haha
heb je morgen dan geen bedrijfsuitje of ben je dan aan het strijden in je huis
ondank dat je zeik nat geregend bent en met 41 achter staat is nog best gezellig hier
28 uur foute uur is vollop perfect ouwe klapper door de radio alles
ajax wat zijn ze toch weer heerlijk bezig haha
voetbal tempel daar was je vorige week
gewoon de volgende keer zeggen dat hij een jood is kijken of die dan nog praatjes het
kan niet wachten tot morgen wordt helemaal gek feyenoord till i die
je bent een schande voor de club hoe kun je van zn prutser verliezen, zondag is het andersom
maar nawi draait eerst het dak eraf bij het blauwe oktoberfest
het blauwe oktoberfest moet me dénken aan het mega park in mallorca
slechter dan kees duijst zou je haast niet kunnen scouten
hart van een krijger ziel van een strijder onderweg naar de top om de competitie te lijden
en ook de grote frits korbach jr is van de partij
haha krijg je effe de mentor van aan de lijn om te vragen hoe het gaat, maar effe een goed woordje gedaan
gewoon een eigen skybox hebben heel vervelend
wordt volgende week maar witte zakdoekjes meenemen dit is spakenburg onwaardig
nee dat niet janwillem had een bruiloft en ik mos voor hem invallen dus, vandaag samen met je moeder vdp haha
ik sta gezellig samen met je moeder op de markt anders had ik nog stokbrood met filet american in de vis schuur
aaahhh zou mama es een lekker broodje pindakaas voor je smeren
loopt er een hier met zn nicht te kussen zou ik maar niet zeggen haha
dat zijn nog eens duidelijke cijfers
aardig sjik gehad met
zeker, en volop realistisch en verslavend
helaas wel hij is niet meer in ons midden haha
dankje maat voor het medeleven
na 264823 trouwe kilometer heeft hij zijn laatste uitlaatgassen uitgeblazen
ik heb vandaag een droevige mededeling de legendarische ai ai tsss mobiel is overleden
vindt ik niet zo gek ook na de overwinning op de vogels haha
en de eerste rooie is al gesignaleerd in de sporthal van de blauwe haha
ze warmen zich al vast op voor het derby feest
zolang die me niet aanvalt vind ik alles prima haha
alleen maar rooie in de kantine van de regereend zaterdag kampioen
de rooie bingo is vast afgelopen
foto was ik vergeten maar hier is ie dan
de groote man weet van geen ophouden
niet verslappen
ik heb minimaal 8 man maar kan uitlopen naar 10
bestel voor mij ook maar alvast een tafel
altijd beter dan de vriezer met 18
idd kan het daar wel spuuguh
kermis volendam was weer legendarische
haha ja kon er weinig aan doen want voor je het wist lag dat beest al onder me wiel
haha als we er 5 kunnen maken
ik weet niet hoe slecht spakenburg en vooral die ignacio is maar als je zo blijft voetballen moet je straks nog vechten voor degradatie
ontzettende rooie gehaktbal
waarom denk je dat ze zo vaak kampioen zijn geworden
zing ik jan zoutman is zat en hij sloeg de grensrechter compleet van de mat
donderse rooie gehaktbal dat je er rond loopt alias bolle badr jan
ontzettende rooie gehaktbal
ontzettende rooie gehaktbal dat je er rond loopt
donderse gehaktbal
ontzettende gehaktbal dat je er rondloopt
donderse gehaktbal dat je er rondloopt
moet je maar in vervolg met ons meegaan
haha vind die clip wel sfeer en dat nummer helemaal
daar hebben ze ook sonnema broeder
451 op de counter
waarom ga ik nog naar het dorp terwijl ik er helemaal klaar me ben
heb je hem zeker op amateur staan ontzettende
de legendarische tommy d is er niet meer wanneer is de uitvaart haha
me auto kan dan wel op 2 wielen staan maar dit is veel leuker speelgoed
en we gaan gewoon door
en we zijn geland op party island ibiza
en nog eentje dan
laat ik maar straks me koffer inpakken voordat ik vannacht vertrekt naar t zon overgoten mallorca maar eerst effe eten met lukas in de slok
nu mag ik eindelijk een hele vervelende tweet plaatsen voor de mensen die werken#perfectlife
mooi zo want wij komen óver 8 dagen
is er nog wat te beleven daar in mallorca
zitten jullie me lekker te maken ofzo
hé luie klootzak morgen 5 uur in de schuur hè en niet half 6
heb er nu al zin
zit je in de wachtkamer zie je effe paul de leeuw zitten
nog 16 dagen strijden hard voor weinig en dan vakantie
hoe gaat het met het gelukspaket van kareltje
zo mooi filmpie ciske de rat
en zoals gewoonlijk wordt er weer kei hard gewerkt
zo lekker dat onweer laat het maar lekker tekeer gaan haha heb nu al medelijden met die mensen die nu bij defqon zijn in hun tentje
lullig dat het doelpunt van oekraine niet is gezien staat er een 5e man achter de lijn zien ze nog niks
haal je dildo uit de la want ronaldo verlangt ernaar jalalalala in zijn ferrari druk ie mn lekker in zn arie jalalalala
johan cruijff zou zeggen de verdediging is zo lek als een mandje
jammer dat van marwijk pas laat inziet dat ie vd vaart veel eerder moest opstellen inplaata van van bommel
nederland wordt op alle fronten afgetroefd,wat hebben wij nog als vicewereldkampioen nog te zoeken op het ek
ik kan maar op 1 naam komen,hij wordt ook wel de fabio capello van de westmaat genoemd
eigenlijk ook wel schandalig dat nederland het enigste land is die niet het gescoord op het ek
van persie heeft nu 2 toernooien verkracht wk finale en nu het ek waar blijft the hunter
laat alsjeblieft bondscoach worden van nl dat staat garant voor succes
woensdag gehaktdag 100
hoe erg is dit sta ik met kop en schouder bovenaan in de slok met me ek poule
gaat aardig de goeie kant op met rusland 20 en heb 31 voorspeld
jaaaahaa heerlijk tyton stopt een penalty voor griekenland en zo hou ik me voorspellen goed
heerlijk die grieken 11 en hopen dat het zo blijft dan heb ik de eerste wedstrijd goed gegokt met me poule
wat is dat voor nazi scheids was gewoon een penalty voor griekenland en hij geeft hem niet
moet je eric effe bellen hij gaat niet
ik heb er een voor je
waar gaan we zitten pk marktzicht?
gaat er vanavond nog iemand naar het terras
of niet te vergeten jorg vd gijp
als spakenburg zaterdag landkampioen wordt spring ik in de haven
ik hoop dat de strijdlustige plannen het liggen om met zijn blauwe kolonels en manschappen historie te schrijven#svskampioen
in dat blok beton genaamd de arena en ze spelen om 2000 uur
ik heb zn gevoel dat er zaterdag legendarische dingen gaan gebeuren op de westmaat
is goed en mochten we kampioen worden kan je ze als nog ophalen dan kun je iemand ander meenemen
moch spakenburg geen kampioen worden heb ik nog 2 kaarten voor nederlandbulgarije
haha moet je ook niet in busje 14 zitten
je moet op buienrader kijken dan zie je dat het om half 2 droog is en dan blijft het ook wel effe droog dusss
vanmiddag is het droog dus dan kunnen we voetballen of ben je bang dat je weer krom moet haha
gelukkig zijn al die slapenloze nachten niet voor niets geweest
stand up for the champions
kan niet slapen van de zenuwen
wordt helemaal gek van de zenuwen kan niet wachten op een zaterdag