ik heb heel wat concerten gezien. maar dit staat in de top 5
ik weet het het is nog vroeg maar dit wordt hem echt
dat was met name voor eddy treijtel😇
komend weekend de nieuwe
gelukkig hebben wij goaltjesdief 😇
vrijdag 20.30 uur
op de valreep
ben overgestapt van naar jullie wegens maar die dame ..........
we doen hem nog een wat een fijn plaatje
heeft een andere wedstrijd gezien fantastic ...... maar wel winst.
wordt het geen tijd voor
goed stukje met de juiste woorden. ajax steenrijk maar toch armoedig!
jawel de eerste na de zomer!
naar#ajax. heeft de medische staf ook weer wat te doen!
hebben ze zich niet vergist... is het niet jan keizer voormalig bzn zanger😂
wedstrijd niet gezien. zie geen tweets?
wat een gaaf boek.
hoe komt het dat jij altijd andere wedstrijden ziet dan ik!
die terreinknecht is al sinds de opening van de arena op vakantie 🙃
heb ik toch een andere pot gezien. vond er geen reet aan🙃
goed idee maar niet doen. suggestie…
ongelooflijk dat iemand met met zon staat van dienst het veld moet ruimen. bedankt npo dit kost heel veel luisteraars!
jammer van die lelijke kopjes😇
wat een goed liedje weer van dit duo
wat een fantastische plaat
danny blind is nog beschikbaar!
nl alert. museumplein stroomt te snel leeg. blijf vooral op je plaats !
nu met 1 been in de finale staat is kampioen worden van opeens niet belangrijk.
wow die ouwe kan er nog wat! geweldig liedje
die houden we erin 🙉🙉
wat een gezwam over die 120 minuten. ik werk er elke dag 570.
boeiende nabeschouwing met het duo waterreus/heitinga welterusten
lekker nieuw plaatje met het gevoel van de
wederom
sorry ik als trouwe fan zap weleens overdag. muziekkeus op dit moment inval djs doe er wat aan!
dat was ook het enige hoogtepunt🙃
wat een ontzettende domme praat. maar dat zijn we gewend van
dank je wel voor een strijdvaardige tweede helft!
over 3 uur op de nieuwe
bedankt en
fijn plaatje zeg!!
wat een goed
vanaf vrijdag weer te horen op
zo herkenbaar...maar helpt het🙄
dit is de nieuwe
jammer van dat lijstje dat al 30 jaar hetzelfde is.
daarom vind ik het zo leuk jacomet je bowlingschoenen
wat een raar gedrag van scoor gewoon een keer.
wat een goed programma nu met
de nieuwe
wat een fijne plaat!!!
nou volgens mij was die 11 echt een weggevertje
komend weekend is dit de nieuwe
1 kans in 90 minuten....hoe kun je dit een goede wedstrijd noemen
dit gaat hem worden
laat ik ook eens commercieel zijn de nieuwe tis maar 1 min morgen de rest
wordt dit de nieuwe wie weet luister morgen
voorselectie nederlands elftal
wat heb ik het naar mn zin 😁😁😁#ikea
en roda thuis op een gelijkspel houden is ook niet verkeerd🙄
waarom kijk ik nog???
het zou niet verkeerd zijn.......
dit is best wel een fijn plaatje.
eindelijk weer een goede werd tijd
ik word kotsmisselijk van al die knotjes bij die voetballers
tis moeilijk maar 1 van de 3 wordt het.
de nieuwe
het was even zoeken maar wat een lekkere funky
zie je wel dat de niet zo verkeerd is 😀👍
ik wordt een beetje moe van die zogenaamde supporters. was het wel
eregast bij huldiging
wat zeg je daar????
jawel dit keer een met hitpotentie
ik ruik de al. maar dit plaatje maakt alles goed. wat een plaat!
op de valreep de nieuwe wat een goeie plaat zeg!
alweer een lekker liedje
alweer zon belachelijk programma komen de scheidingen ook weer op de tv......#gedoemdtemislukken
zap ik langs een aantal zenders zie ik met een knotje
tis wel vroeg maar de is nu al bekend!
weer eens wat anders maar wat een goed plaatje
zie net de laatste minuten van ajax. dat matje ligt er na een paar weken weer aardig bij. op naar nummer 859.
hoofdtelefoon in orde...playlist klaar....broodje nog suggesties voor een lunchplaatje......??
gemaakt broodje met als eerste een lekker liedje uit 1976. 1214uur
jawel dit mag best wel weer een keer!! komende vrijdag
nee dat van schone ziet er lekker uit
straks weer 2 uurtjes broodje#altena
nieuwe weekendknaller
wat een vette janenfriends vrijdag 1922 uur.
de eerste van 2016 leuk clipje
nou zeg... als je ze tegen het licht houdt zie je de ontlasting zitten.
voor mij is het vanavond
tweede kerstdag. lekker gegeten. even tv kijken.@andrevanduin en radio dan maar
zijn er zoveel ingeleverd????? afc ajax 22 dec. neem plaats bij de titelstrijd. bestel jouw halve seizoenkaart hier
goede programmas
en nog even scoren
jij lijkt die verslaggever wel. dit noemen ze van dit soort hebben jullie te weinig.
sint is weg daar komt
weer die op de tv.
welterusten 😫😫
oh was dat zingen??
daar komen ze snel achter!
dit keer gekozen door
commissaris van de koning wim van de donk inclusief college van burgemeester en wethouders op bezoek . erg leuk!
zou een goed idee zijn
ongelooflijk hoeveel mensen moeten nu een wedstrijd bekijken goede beslissingen te nemen.
zometeen naar broodje neus dus veel muziek. suggesties??
dit gaat niet over voetbal!!
eens!
dat is typisch amsterdams publiek!
mag ik zeggen dat dit ook een bedenkelijk niveau was
morgenavond jan en friends
was dat vanmiddag joe stone met freak?
eigenlijk is mijn weekendknaller alleen zingt tie zo slecht.deze dan maar
matennaaien
maakt geen donder uit. over twee weken nog een keer en het seizoen is geslaagd.
verwende kinderen bedoel je berry!
daar is ie dan!
slaapverwekkend!
is dat vreemd dan?
de nieuwe komende vrijdag dank je wel wat een fijn plaatje!
mijn staat alles! maar ik moet je teleurstellen!
totaal niet!
nieuwe trend😁
vrijdagavond met de nieuwe
ik hoop dat het lukt maar verdienen ze het wel na zon kwalificatie???
met goed gevulde mp3 speler spontaan een rondje extra dankzij
morgenavond nieuwe
vrijdagavond
en snel naar broodje#altena
nog een week of 3 dan staat dit op 1??? met dank aan de jackson 5
vier uurtjes slaap na een heerlijke maar dit was ook weer fijn!
wat een fantastische plaat.
dat zijn de juiste woorden
dit moet moet verboden worden
zou er nog ergens een tiener beschikbaar zijn
ik zou nog meer voetballers opstellen
jij had het deze week over nieuwe muziek op spotify new music friday of zoiets. hoe heet dat lijstje?
lekker plaatje zeg!
lekker geurtje en op de achtergrond prettige
reclame komt op tijd voor
wat is er belangrijker guus of je
guus zn broek is te klein
morgenavond met de nieuwe
is wereldkampioen geworden??? mensen winnen van
wat een aanstekelijk deuntje
yes, deze mag er zijn zeg! de nieuwe
jawel is populair dit keer met wat is dit fijn zeg!
wat ga ik zo draaien? 12 uur broodje#altena. suggesties
ik denk dat ik geen van deze plaatjes komende vrijdag draai op
nina hagen ook weer van stal gehaald
ik geloof nooit dat ik het einde haal
alles is wit behalve 1 stukje op haar hoofd
ik denk dat ik binnenkort naar hon ga rije
is dat de jurk van linda wagenmakers. servië
die dame had beter op youtube kunnen blijven zingen
tussen het voetbal toch maar een nieuwe opgezocht.
en wat doe je op zon donderdagavond nee natuurlijk niet!
weekendknaller bekend wat een fijn plaatje!
straks even 2 uur lekker knallen, broodje
bekend! komende vrijdag janenfriends vanaf 19uur
ik ben echt fan van deze plaat...komende vrijdag voor de tweede keer
hij wordt steeds lekkerder....zeker met een zonnetje.
even een stukkie harlopen op helaas kan ik deze niet meenemen
zeg het maar...... weekendknallerpotentie
frapant detail is ook al een jaar of 46.bouwjaar 1965 zaterdag compliment!
welke muziek ga ik straks draaien. broodje 1214uur eentje is zeker
morgenavond met natuurlijk de nieuwe
nog even een bakkie en dan naar de studio van voor de eerste 2 uur
wat een fantastische opmerking!
even wat onderzoek en jawel hoor de nieuwe gevonden vrijdag 1922uur
dit is echt een nieuwe single ...en tevens
tien minuten aardig voetballen is te weinig op dit niveau 2 kansen creëren in 120 minuten.
wat een vette vrijdagavond 1922
zojuist voor de vierde keer het boek van gelezen. ik blijf van deze man.
wat een verslaggever 😬
zakaria el a., ashraf el m samet b vroeger waren er toch andere namen piet keizer, sjaak swart,arie haan,wim jonk ?????
soms weet je het al heel vroeg in de week komende vrijdag
korte broek en bedankt
broodje 12.00 uur met natuurlijk de nieuwe wat een plaat.....
haar gezicht staat regelmatig op onweer fleur. dat krijg je er ook gratis bij.
wat een drama kan die man niet pensioen.
klopt maar dan wel in de luier gezien zijn babyface
klopt nu loopt het echt uit de hand.
sommige scheidsrechters snappen het echt niet.
hoezo,was toch een leuke tweed helft!
vraag dat maar aan cees van oord
wat een gezeur over en we hebben het allemaal kunnen zien......#swingers
thanks voor weer 2 uur lekkere radio
de weekendknaller voor morgen
hans nout?
nee die baard van schone is mooi
je bedoelt ajax is niet om aan te gluren!
toch fijn om te lezen dat mijn favoriete zender zo populair is.#3fm
hoofdtelefoon opzoeken, de playlist zit in mn hoofd op naar de studio broodje
hij is het toch geworden
hebben ze in ook een
nooit weggooien alfred
vreemd kijk jij naar fox sport 3 zij werden net zoals heel ajax van het kastje naar de muur gestuurd.
hier word ik vrolijk van alweer een fijn plaatje!
dit is toch wel een heeeeeeel fijn plaatje!
waar blijven de tweets?
ondanks mijn hoesten en proesten toch een muzikale inbreng bij
jahoor komende vrijdag weer een lekkere
hiermee wordt je duurloopje op zaterdagmiddag een stuk aangenamer zelfs dat witje bij bombay maakt niet uit!
jeetje paul daar hoort absoluut geen bij!
wat een goed programma
de beste 25 van 2014
een traan over mn wang!
1812 wat een plaat!!!
waar al niet goed voor is....deze was ik bijna vergeten..
de laatste van 2014
het was weer fantastisch €15000, en weer een nieuwe vriend erbij
nog even een douche en daarna.....#gazenetalage steun ons ook check de webstite
met dit weer wordt het een lange weg naar de en maar meezingen no rain no rain
een mashup is het op muzikaal verantwoorde wijze door elkaar draaien van twee of meer muzieknummers.
wat een geweldige prestatie van mn cluppie
ik twijfel wordt het de soul van of gaan voor de dance van wat wordt de
shit ik moest stoppen maar jawel!!!!
zo dat was weer een avondje ploatjes knallen....nu nog even een lekker pilsje en daarna slapen.!
wat een geweldige plaat!!! morgen natuurlijk de
is je kapper overleden?
maar niet met een hoofd
nee de verslaggever!
kan die verslaggever zijn mond niet even houden
daar is ie al ....komende vrijdag
spontaan een extra rondje dankzij
komende vrijdag weer een ouderwetse 1922uur
zimling.......wie is dat???
morgenavond de nieuwe
rob geus
waarom staat kongolo niet centraal en nelom linksachter.
pyjamajasje vergeten uit te doen?
voor .........
van welk plaatje krijg jij laat het me weten broodje 1214uur
het blijft mijn cluppie maar gaat er nog wat gebeuren
dat fotootje op jouw twitter account dat vind ik zielig😢
jawel komende vrijdag mag ik weer los wordt dit de nieuwe weekendknaller ??
dit is gewoon een heel matig resultaat
die krijgt met de kerst de kans. op rutten zn bord
volgens mij was dat gewoon een goede vrije trap
zo wordt het ajax wel erg makkelijk gemaakt
moet er voor deze zeer beperkte keeper betaalt worden dan.
met zivkovich, sigthorsson en milik
niet terugkijken leo. dat is voorbij
hulk heeft de kont van henny meijer
zeker weten
mag je een scheids ook gewisseld worden
de herhalingen zie je liever niet. de eerste was buiten de zestien en de tweede was buitenspel
proost
het wordt geen maar
kom op oranje even scoren, ik wil naar bed!
komt in 1 keer iets binnen.... we winnen met 30
toch jammer dat we bij een eventuele finale niet tegen brazilië spelen.
erop en erover
eindelijk huntelaar. verdedigers heb je niet nodig.
wanneer je geen oranjefan bent, kan je nu beter naar bed gaan
heeft sneijder het schaamhaar van yolante getransplanteerd?
hebben ze in brazilië geen kapper?
zo even gas geven dan is die wedstrijd voor de rust al beslist.
vanmiddag 1214 broodje met de nieuwe
zet het geluid dan uit.
tot nu toe het slechtste wat ik heb gezien hopen op een goede tweede helft!
heeft dezelfde kleur haar als
heeft co verstand van voetbal??? bij welke club heeft hij langer dan een half jaar gezeten.
die te kleine shirts van uruguay kost hun de overwinning
bij deze
dat zeg je nu! jij kan niet zonder net zo als ik!🌞
ben jij dit niet dan? viel me op in de uitslagenlijst was net voor mij.
loop je dit jaar ook weer mee?
dit is wel een heel fijn plaatje....#weekendknallerpotentie. of niet
het was een duurloopje vanmorgen. gelukkig heel veel op de radio!
nog even een vette hap en dan naar
wat wordt de weekendknaller....deze of deze help me!
waar zijn de korte broeken!
tijd voor een warsteiner
vanavond half 8
yes, eindelijk weer een ouderwetse vrijdagavond
bewondering voor 👍
lang geleden ging voor 12 maar het werden er spontaan 15 dankzij deze zomerse plaat
beetje laat maar hier is de nieuwe in de remix
en weer zijn we de winnaar van de verliezers! toch goed gedaan.
straks naar de studio voor broodje zin in!
heerlijk zon donderdagavond
de nieuwe wat een pornoplaat!
ik denk aan een onder de hoed van
is dat de russische
dat gelijke spel is al een week bekend gelukkig kijk ik naar mijn cluppie
duitse wat een fijn plaatje
weer geen ........dan wordt het maar een windje. aaaaahh dat lucht op!
bedankt malloten voor dat vuurwerk, nu begint mijn favoriete programma ook nog later
ik heb nog nooit zo genoten van een wedstrijd kijken.
als of er geen betere keepers zijn dan de reserve doelman van ajax
heeft gelijk het is tot nu toe
tijd voor een beetje vuurwerk sorry dat is al even aan de gang
hoe is het mogelijk dat er zoveel troep in een stadion aanwezig is. fouilleren