en bij het voetbal zit iedereen door elkaar. in spanje gaan ze iets beter om met sport dan wij. 2/2
de spelers gaan met een staande ovatie van het veld. harde kern estudiantes scandeert donar, donar! 1/2
er zit geen hond.
hallo meneer de vos, heeft u toevallig een gouden tip om nog aan twee betaalbare kaarten te komen voor leganésatletico?
inderdaad. het is een laffe hond.
onzin, daar is helemaal niks mis mee.
we zijn het legioen. en we worden kampioen. niet stoppen
artikel over dat groningen bang begon te worden voor new heroes was ook goed.
ben jij maar eens kritisch op dat psv van je.
niks te danken hoor!
komt je toe, gefeliciteerd!
straks een wedstrijd spelen in de kuip. wat klinkt dat goed,
goed dat freelancers ook uitgenodigd worden.
hallo ruud, ik denk via het is sowieso bij de thuiswedstrijden te koop
tuurlijk! weet je dat niet meer? 32 en 04 🙈
hallo ton, die informatie volgt snel. sowieso bij de thuiswedstrijden.
coming very soon vandaag is zwart, over kees akerboom, stefan wessels en drie jaar spm shoeters den bosch.
polonaisekoning was inderdaad beter geweest.
het laatste nieuws rond hij is een kattenman. binnenkort meer in
de nieuwe albert?
hey het is op het veld te doen hoor!
waar?!
inderdaad. en het erge is dat het klopt.
nee. door spm naar buiten gebracht, maar marcel wist van niks.
veel plezier!
goed man! welke sporten ga je verslaan?
denk je dat het dit bericht kan overtreffen?
te lezen in de plaatselijke courant?!
mag dat nou ook al niet meer?
mooi, maar heb je de laatste turtlesfilm al gezien? kun je niet missen als echte knicksfan. goede bijrollen van melo en amundson
de laatste tijd vraag ik mezelf steeds vaker af of ik voetbal kijken op tv dan nog wel leuk vind.😴
als ze pendelbussen inzetten misschien wel!
nee joh! bij de kuip zit er ook eentje. happy italy maakt de seizoenkaart van feyenoord, ondanks het voetbal, een mooi bezit.
dit is het beste nieuws dat je ooit hebt gebracht!
als dit geen enorme impuls zal zijn voor het abonneebestand van het bd weet ik het ook niet meer.😉
beetje dom van de coach hoe hij met marcel is omgegaan dit jaar.
zeg dat wel.
niets klopt niet helemaal. in overtredingen faken is het de beste!
goed nieuws basketbal in de panorama van deze week. bio michael jordan.
stefan wessels wat een fenomeen.
geen dank!
hoe dat zo?! gefeliciteerd en succes in ieder geval!
graag gedaan!
hoi simon, ik zou namens het brabants dagblad graag in contact met je willen komen. zou je me even kunnen volgen??
heel jammer. gelukkig werd het geen complete afslachting.
liever een kunstenaar met gebreken dan een verdedigende overwinningsmachine.
kan ik daar een visitekaartje van krijgen?
geen idee. wie was de enige speler die nummer 1 vd wereld was zonder ooit een grand slam te winnen?
wat een mooie foto van sandra peerenboom vandaag in het bd!
dat is lekker wakker worden! eindelijk een lichtpuntje vanuit de kuip😉
bedankt!
dat was ook geen straf. bier en voetbal ik heb weleens mindere werkdagen.
goed zo! maar we winnen niet echt bijna hoor
en een topfoto van jou toch?. bedankt!
deze week in panorama hoe en ik bijna de winnen.
hallo meneer vermeegen, namens panorama zou ik u graag willen interviewen. kan ik u misschien mailen? groet, jarry popelier
verdiende loon voor van gerwen na het walgelijke interview in het ad/bd van vandaag.
kan toch niet. ben je gelijk heel je dagtarief kwijt.
willebroekcharleroi 7580. boxley 21 bij charleroi.
en je kent het patent op falen van feyenoord. kuyt zorgt voor een heel nieuwe identiteit, nog los van zijn goals.
dat is wel zo, maar ik ben vooral blij met zijn prestaties. zijn mentaliteit straalt over op het hele stadion
ik zoek stellen uit brabant die het leuk vinden om in de zaterdagbijlage van het bd te praten over geld en geluk!
eerst er alles aan doen om op tv te komen en dan je gezicht bedekken. podiumvrees?😉
mooie werkdag.
prachtige foto!!!😊
bedankt eerst voor het sponsoren van en daarna het uitzenden van de wedstrijden. hulde!
wat doet het goed! genieten hoor. vier hele knappe wedstrijden.
zit aan een stuk door te ratelen over onzin. alle cvs oplezen... vreselijk
echt een genot om het nederlands team te zien spelen! wat een energie.
duizend maal dank!
de eerste twee plaatjes zijn standaard. ik smeek je laat het derde plaatje ook de waarheid worden.
kids aan het bier. new school😉
groeten terug!
als dat eens zou kunnen.
vooral die laatste zin, 👌
staat tenerife al op de kaart?
reden er dan ook vrouwen mee?
bijvoorbeeld!
voor het bd zoek ik stellen die gedoe hebben over hun vakantie. dat de een heel andere vakantiewensen heeft dan de ander. rt is fijn👊
en zo is het.
nee siggy is vijf keer beter! ruilen?
ik weet nog wel een dramatische nr 10 voor nantes. zou dat geen komisch duo zijn, sigthorsson/immers?
een afspraak ergens tussen morgen en zaterdag 4 juli zou ideaal zijn..
hoi steven, namens panorama probeer ik in contact te komen met roelof luinge. kun jij me daar misschien bij helpen??
prachtige uitzending! maar wel veel te kort.
geweldig die maar wel drie uur te kort!
ik weet het.
helaas. wawrinka morgen in vier😉
lijkt mij ook!
daar zit zeker iets in. bij wedstrijden zonder publiek of cameras zou er denk ik geen betere zijn.
maar smaken verschillen! en dat is prima, niet schandalig, denk ik.
zien doen, maar dat niet. ik vind paul een aansteller, jaren aan geërgerd, dus ik vind het prima dat hij stopt.
recent voorbeeld een bekerfinale beslissen door floppen voor akerboom te fluiten... ik heb hem al 1000 keer zien spelen, alles..
er niet van als refs zichzelf boven de wedstrijd plaatsen. ken je dat hupje nog waarmee hij een aanvallende fout aangaf?
oh jee bas, blijkbaar is het schandalig om een mening over refs te hebben. met gevaar voor eigen leven ik hou...
bijzonder slechte ref die gek wordt als er cameras zijn. in mijn ogen dan.
vanaf nu iedere woensdag in het bd mijn geld &amp ik. we kunnen natuurlijk maar met een man aftrappen marcel aarts.
ik doel niet alleen op vanavond natuurlijk.
toch mag het voor een account die zich zo noemt wel wat objectiever en minder in de geest van de telegraaf.
kap eens met liegen. veters van bekkering waren los.
cheerleaders in groningen hebben niet veel om het lijf.
hey joost, wat is het muzikaal stil rond je! zit er nog iets aan te komen??
waarom is stevie wonder te gast bij kees jansma?
nu in panorama over zijn aanstaande bestseller topshow.
doe je mee?
alsof het gister was🙈
de onze is vandaag exact een jaar geleden!
als het niet oneerlijk was is het nog erger. excuses al aangeboden aan akerboom?
kijk maar.
vroeger ging je nog weleens mee naar bekerfinales.
binnenkort in de beste sportschrijver van nl,
zij buiten de lijnen, immers erbinnen!
je hebt geen idee. hij maakt me zo verdrietig. hij maakt de club kapot!!
eerste helft een 2, tweede een 5😉. maar bedankt voor je reactie!
waarom immers geen 3? slechter kan niet.
in een heldere analyse laat even zien hoe immers al drie jaar lang gijzelt.
wanneer ben je jarig?
hallo meneer westerman, namens panorama zou ik u graag willen interviewen. is dat mogelijk?
je zal vast een goeie reden hebben!
moet hij dit jaar niet voor zwitserland spelen ivm os?
hoi elvi, ik zou je namens het brabants dagblad graag even bellen over boschlogie en er is haast bij.. zou je me kunnen volgen?
jaaaaaaa!!!“@adsportwereld cover ad sportwereld van donderdag 29 januari! ”
ook veel ben wel iets later..
ben jij niet die jongen van tv?!
hallo meneer jansma, ik zou u namens panorama graag willen interviewen. is dat mogelijk? groet, jarry popelier
dank je, zal vast goed komen!
dat geloof ik gelijk! ik ga vrijdag😃
dat klopt niet he...
dat is je gegund!!
voetballiefhebbers wel hoor!
deze week in panorama het bewijs leeft nog! robert jensen ook?
toevallig iemand die 2 kaartjes voor effenaar 27 nov wil ruilen tegen een andere show?
toevallig iemand die 2 kaartjes voor effenaar 27 nov wil ruilen tegen een andere show??
dank je. ook veel aandacht aan besteed.
bosch belang rijdt door de stad met harde abbamuziek. ik denk dat ik nu wel op die partij ga stemmen.
ha, zei in maart in al hoe het zou gaan.
“@timcolijn ooit zat ik met open mond naar roger federer te kijken, nu hoofdschuddend...” helemaal gelijk!!😃
jij ook bedankt voor het fijne commentaar! toch geen onno hansen voor de finale?
nu in zes paginas over de steekpartij in café
de keuze om weer eens wedstrijd van mijn ouwe held totti te kijken, is al binnen 24 minuten beloond.
komt altijd goed uit als ie niet meedoet, maar deze week al helemaal!😉
“@mkrabby lex immers raakte gisteren tijdens sprintoefeningen geblesseerd. hij mist sevilla en zeer waarschijnlijk ook ajax
ik blijf fan van het hele blad!
nog regelmatig heimwee, maar probeer er t beste van te maken. mét de vi😉
de plaatjes zijn toch ook mooi😉
en waarom?!
dat dacht ik ook. dat is net zoiets als aan vragen of ie dit weekend naar het koeienvoetbal is geweest.
de goal van manu 21 keer teruggezien, nu kan ik wel gaan slapen.
manuuuu“@jandirkstouten beluister hier het verslag bij de doelpunten tijdens op
een geëmotioneerde assistentcoach
fijn om eindelijk eens te weten hoe ajacieden zich om de week moeten voelen. man man, wat een mazzel.
lekker ouderwets een cd gekocht.
ik hoop het! mooi statement ook.
dat is nog eens goede info!
precies! maar had ie al eens eerder een penalty gemaakt?
zit de commentator in een windtunnel?
even serieus, haat penaltys. wat dit zijn eerste rake penalty uit zijn carrière?
welke?
verkeerde contacten, verkeerde mensen volgen op twitter. daar denk ik. wat jij?
ik houd niet zo van cabaret, maar dit vind ik wel grappig!
die penalty doet me denken aan game 1, 3 en 5 van de dblfinale.
we gaan het zien
oh zo, natuurlijk. heb ik ook. ik kijk echt niet meer live
geen scorebord?! ik weet hoe t werkt, heel het seizoen van genoten!
wat heb je betaald, voor welke periode?
miami in zes, doe ik het ook wel voor. eerste twee beloven veel voor de rest
ik hoop het! die 3e dan. maar geen idee, gaat steeds maar om een paar ballen he. miami is thuis wel erg sterk...
je hebt veel verstand van kramp, voor iemand die dat nog nooit heeft gehad!😃
kun je iets minder tweeten? zo stroomt heel mijn timeline vol.
nee!“@jcbutter op beelden van pippo inzaghi, de nieuwe trainer van kon er iemand mooier juichen dan hij?”
van dam, sinterniklaas en van die derde lul vergeet ik altijd zijn naam
denk dat gro graag nog een thuiswedstrijd heeft voor de knaken, dus denk dat dat wel geregeld wordt
gro moet kampioen worden, dat is nu wel duidelijk. misschien zijn ze bang dat de club anders omvalt?
dinsdag is het probleem niet, maar game 7 zal gro weer naar winst worden gefloten.
weet ik niet man, het zat in onder ons
ben gisteren drie minuten positief geweest over de club, het team en de supporters. en wat zenden ze uit? de vijf negatieve seconden. 1/2
van dit leiden valt niet te verliezen. dinsdag dé kans om thuisvoordeel te stelen.
begrijp ik! zat je in de arena?
gefeliciteerd oude necer! wat een ontknoping!
robben die baalt van aanstellerij. humor!
ik word echt gek, live kijken is niet te doen in de po
geen alcohol, dat is maar goed ook!
en nee cj, weekend past veel beter bij me.
voor geldt hetzelfde, maar dan nog een jaar geleden.😃
zou lullig zijn om te verklappen dat cj vroeger jamesfan was en pas 3 jr voor ny is. dat doe ik dus niet
je twittert ook zo negatief. dat slaat waarschijnlijk over op de spelers.
peter van paassen duikt op in vitessesoap. hoe ik over nu over vitesse denk.
mijn telefoon!!
“@pierrevh17 onwaardige flipperkastklassieker gezien.#feyaja zal aardig wat🍻nodig hebben om wrange smaak weg te spoelen.” same here!
goed bezig! ik ga zoeken naar meer opdrachtgevers dan panorama...
dank u! hoe gaat het met jou?
dank u driftkikkertje
baan?! doe eens niet zo gek
merci! hoe laat vertrekken we dinsdag naar groningen?
dank u
ik ben er eigenlijk iets te jong voor, maar kan er helaas niets anders van maken afgestudeerd!
again, again en again.“@koeman1963 zeer terleurgesteld! dankzij het arbitrale trio 2 punten verloren!
kun je er voortaan ook een ingooien?
bij mij in ieder geval niet!
gefeliciteerd de jong!! een feestdag voor het gehele vrouwenvoetbal!
des te groter is de teleurstelling als je weer na 3 wkn stopt! wispelturiger dan een vrouw! maar toch goed nieuws
zo, nu weet andy van der meijde ook weer wat een diepteinterview is.
sterkte de jong. ook namens en
ga je het drooghouden de jong??
werd eens tijd! en de winnaar is.. cristiano ronaldo. de portugees is de beste voetballer van 2013
hallo meneer reinier, ik had u ook gemaild, zou ik u even kunnen bellen voor een artikel in panorama? mvg jarry popelier
mooi, mooi. om jou te spotten bij nec is iets moeilijker
ik had meer problemen met het fluitconcert van die scheidsrechters!
toch maar een seizoenkaart voor hetzelfde plekje gepakt
wow! heb alleen het laatste kwartier kunnen zien, maar ik kijk uit naar de samenvatting!
die 100 blijft een open wond, maar ik weet wel wie van de twee het meer schade heeft gebracht.
heb er al drie. hoeveel heb ik er nodig? doe je ook mee
snik. ongelofelijk dat je dit je trouwe fans aandoet. respectloos ook. ik ben al een handtekeningenactie begonnen voor behoud...
kunnen jullie er zondag not here opzetten?!
osc45?@feyenoordpings lex immers droomt van oranje ik zou liegen als ik zeg dat ik er nog nooit aan gedacht heb. ”
dank u.
dank je. welke job?
strakke outfit man! mooi gesproken ook!
beste meneer van roosmalen, zou ik u enkele vragen mogen stellen voor mijn scriptie, over humor in de journalistiek?
dat kan niet, ik accepteer geen opzeggingen.
hij was trouwens niet eens zo slecht zaterdag😳
ik geef geen halve cadeaus weg, je hebt een lidmaatschap voor het leven.
ik vind van wel!
goed is goed, slecht is slecht.
mulder is nog een niveautje slechter
dat vind ik aardig van je. ik blijf!
lijkt mij ook, goede techniek, goede trap...
groningen zal straks best gaan draaien, maar tot die tijd is dit een idee?
ik vond het niks nee, zeker niet op grote momenten.
bizar dat twee spelers die het bijna altijd matig hebben gedaan in oranje nu gedeeld topscorer aller tijden zijn.
filmpje met nieuwe bestuur spm shoeters
vanavond te gast in het titanscafé de nieuwe voorzitter,
echt?! wat is het goedkoopste uit het assortiment?
voor die paar rts heb ik geen abonnement genomen!
als het ten koste gaat van het aantal tweets van hoeft het voor mij niet meer.
hoeveel is het?
eredivisiemateriaal, duidelijk.
stefan wessels we zijn al redelijk ingespeeld, maar missen nog net de scherpte.
jawel!
zitten bij ons in de competitie😳. zondag hedelthuis... “@bddenbosch massale vechtpartij bij vv hedel &gtbd.nl
wat is dat voor geldklopperij?
tai wesley in hoe coach jones te werk gaat, zie je veel van korner terug. ?page1
tennis vanuit de martiniplaza... apart!
en dan die sambadingen in de slotfase. hoe verzin je het?
het was natuurlijk de avond van kleintje pils, maar toch even kort over pepinstershoeters
heb je toevallig de stats?
dat is inderdaad wel heel attent!
dit zag ik niet aankomen toch maar een bakje koffie gezet
54 slagen! eindelijk iets leuks!
dat sowieso, maar als zelfs djokovic niet tegen die computer kan opboksen, wordt het wel heel saai en vervelend.
ik vind t niet om aan te zien analyticus, wat jij?
inderdaad! via de app ook niet?
ik was er niet bij... maar scorebordjournalistiektechnischgezien wel!
kort stukje over 9489 nederlaag van shoeters, met quotes van sam jones.
wie heeft m gemaakt?
neeeeee!“@dennisvaneersel immers is fit en begint in de basis tegen roda. ook mathijsen speelt, indi zit daarom op de bank”
bedankt lexie immers, het was weer van je. tot zondag, want ik wil geen wedstrijd van je missen.
deze week in panorama mijn interview met mister psv, willy van der kuijlen.
nee hoor, volgend jaar weer! prima medicijn om die behekste onzin te ontwijken. doe je mee?
dat het maar snel 14.25 uur is. ik ben bowlen.
het leek me wel een leuk idee om akerboom eens te interviewen. gewoon, omdat het kan.
knap hoor, wat oranje liet zien tegen portugal. akerboom we waren het aan onszelf verplicht om te winnen.
nedestland, over ergens willen zijn en circus de jong
waarschijnlijk ergens zaterdagavond.
aan het terugkijken. wat een sterke slaappil.
toe maar, gefeliciteerd!! qua transfers ben je wel in de buurt van een profcarrière gekomen, of niet?
redelijk... net vaste rubriek in panorama verloren. als het goed is in nov afstuderen. bij jou?
nice!
nul goals... ben je al over de klap heen?
lees dit maar niet “@sjoerdmossou we wilden het te graag geloven. column over vrouwenvoetbal. ”
helaas nog niet!!
de polonaise werd net ingezet man!
17.30 uur op de bossche markt makkers, opschieten!
natuurlijk niet!
uiteraard, maar die heeft geen normaal referentiekader
wordt het ek voor vrouwen niet geanalyseerd?!
nee joh, nergens voor nodig die nieuwe kuip. feyenoord rijgt namelijk de titels aaneen.
daar doelde ik niet op
er zitten ook goeie tussen😉
uiteraard.
oh zo! chris moet het sowieso aankunnen.
als ze dat redden
vrees het ook. elk jaar springen de tranen in mijn ogen bij t rinus de jongtoernooi.
starter in de maaspoort
voor de duidelijkheid de selectie bestaat voor een flink deel uit eiffeltowersspelers. zal er ooit, buiten schilder, iemand doorbreken?
bondscoach roijakkers mu18 spreekt duidelijke taal over intensiteit nederlandse jeugdcompetitie.
niet normaal, niet normaal!
wat een mooie wedstrijd boys!
ja man, parker, ginobili, duncan... mijn favo teams spelen in t oosten, maar in het westen ga ik voor sa
precies. heb ook een zwak voor sa, maar nu even twee weken niet
voorkeur?
ben een beetje moe!
wilde eigenlijk tapen, maar na nog een filmpje op espn ben ik om. gewoon wekker zetten voor game 7. hup
goede grap!
mooi weekend gehad in halle. federeryouzhny was een droomfinale.
nou, eerder een vuistdikke biografie. uiteraard opgetekend door de polonaisekoning zelf!
check kun je doorgaan met lachen
hij is goed he!!