ik vind een leuk opnieuw beginnen skaten !
ik vind een leuk grandpa gave me a haircut!!
ik vind een leuk derksen en genee schelden er lustig op los doordekken
ik vind een leuk hoe je alles gratis kan laten bezorgen | gierige gasten
ik vind een leuk onze eerste grote ruzie?? supergaande q&ampa
ik vind een leuk verrassing voor de kids!
ik vind een leuk rob broer van gekke markie maakt achterwaartse saltos!
ik vind een leuk cod wwii beta stream w. king
ik vind een leuk coolest shops in carnaby street | street tours
ik vind een leuk eerste optreden in nederland qucee vlog
ik vind een leuk hoe youtube mij kapot gemaakt heeft
ik vind een leuk tiny is boos op de roddelbladen ik scheld ze allemaal de pleuris !
ik vind een leuk van bommel emotioneel vanwege kees kankerkachel
ik vind een leuk alles eten van de burgerking binnen 10 minuten!
ik vind een leuk cod wwii beta stream w. king
ik vind een leuk rookvrouwen compilatie!
ik vind een leuk war.
ik vind een leuk de 1911 pistol kracht! cod black ops 3
ik vind een leuk kun je al het eten van de bioscoop opeten tijdens de film?
ik vind een leuk voorbereiding videoclip | tony junior vlog
ik vind een leuk dit moet ik echt even kwijt ..
ik vind een leuk cod wwii beta stream
ik vind een leuk backpackers 2017 aflevering | london
ik vind een leuk crying over the solar eclipse!!
ik vind een leuk het beste van excelsior feyenoord
ik vind een leuk hoe fix je een chick op een festival? pukkelpop 2017
ik vind een leuk arthur van gils voelt zich bijna catalaan. hij schrok vreselijk van de
ik vind een leuk nieuwe pakken voor bryan | tony junior vlog
ik vind een leuk kkr neger val dood reageren op reacties van disstrack
ik vind een leuk scufkikkers! elvis op arkaden?! live moab maandag deel 153
ik vind een leuk we zijn aan het disrespecten | patjemoss vlog
ik vind een leuk grandpas dream car was stolen!!!
ik vind een leuk we met a hater in walmart!!
ik vind een leuk face to face before the dldo prank!
ik vind een leuk de ruzie tussen wilfred en johan voetbal international
ik vind een leuk hans kan niet zonder sofie voetbal international
ik vind een leuk het is weer dolle duikavond! voetbal international
ik vind een leuk kieft lookalike heeft ze ook een loopneus!? voetbal inside
ik vind een leuk hoe duur is mijn kleerkast +€10 000
ik vind een leuk dochter heeft nieuw verhaal over vissen qucee vlog
ik vind een leuk juultje ging vreemd?!
ik vind een leuk hoe word je een voetballer met vvbasvv fijne vrienden
ik vind een leuk illegaal meereizen op het dak van een trein! willem reupload
ik vind een leuk 100 hamburgers bestellen bij de mcdonalds! €120
ik vind een leuk de brecci 30% health 1v1v1v1v1 match! cod black ops 3
ik vind een leuk youtube poop munz van leemhuyzen in de keuken
ik vind een leuk samson &amp gert ytp burgemeester.exe vereist een update
ik vind een leuk qucee lekker man ft. sam jtaime prod. keyser soze
ik vind een leuk hey
ik vind een leuk opa in da club! stappen in spanje! 16+ dronken
ik vind een leuk two door cinema club i can talk guitar cover
ik vind een leuk deze video is verwijderd door school!!
ik vind een leuk bakkerij van ham kerstmis 1992
ik vind een leuk kerst winter wonder markt deurne
ik vind een leuk boskamp ik baal ervan als amrabat niet speelt voetbal inside
ik vind een leuk een nieuw begin ! langs slachtoffers gaan
ik vind een leuk visiting nike discount outlet kings cross
ik vind een leuk 16 year old buys his dad a rolex for christmas!!
ik vind een leuk backpackers 2017 aflevering | london
ik vind een leuk boskamp misschien moet ik toch veranderen voetbal inside
ik vind een leuk grote opruiming in de studio | tony junior vlog
ik vind een leuk jones niet op de training
ik vind een leuk met hoeveel vrouwen heb ik sex gehad | tony junior vlog
ik vind een leuk dit is de bekendste vlogger van belgië !
ik vind een leuk gratis naar een film première | gierige gasten
ik vind een leuk im uploading the dldo prank! revenge
ik vind een leuk ik ben bang, ren weg! cod black ops 3
ik vind een leuk giel stuktv bash tegen vloggers?! snapking vs qucee! fake drama?!
ik vind een leuk the dldo prank! will be the last
ik vind een leuk zatlap beledigt politie, echt lachen!
ik vind een leuk africa roadtrip life!
ik vind een leuk ziet van bronckhorst fraser hem op termijn opvolgen?
ik vind een leuk solliciteren met rap lines/woordgrappen! bassistent
ik vind een leuk youtube is veranderd
ik vind een leuk 100 kipnuggets shake van de macdonalds!
ik vind een leuk headshot only thermal sheiva 1v1v1v1 match! cod black ops 3
ik vind een leuk jamie kopt camera?! klapband met bus! malgrat 2017 vlog
ik vind een leuk ik heb een hele grote unit in mn broek | the pick up line concentrate
ik vind een leuk bier challenge! ft rossen 18+
ik vind een leuk dont look back in anger oasis cover
ik vind een leuk thehoxtontrend in hoxton | street tours | nudie jeans edwin + more
ik vind een leuk mijn broer voor het eerst in vliegtuig qucee vlog
ik vind een leuk champagne supernova oasis
ik vind een leuk dubai &amp rolex van 10 000 euro stuk ! dag 1
ik vind een leuk schieten met een hand kanon!
ik vind een leuk adrian lewis vs. kim huybrechts incident 2017 pdc premier league
ik vind een leuk try not to laugh challenge videos nadoen
ik vind een leuk fifa 17 divisie 1 met remco! deel 3
ik vind een leuk ik heb een rolex gekocht?! tunesie vlog
ik vind een leuk zelf wapens maken ninja thema
ik vind een leuk cavorting
ik vind een leuk top 5 darts walkons
ik vind een leuk is peter hoefnagels mijn vader? roast
ik vind een leuk clipshoot van yaaah lekker man qucee vlog
ik vind een leuk qucee uit de squad gegooid? + trickshots patje vlog
ik vind een leuk macdonalds medewerker wordt boos qucee vlog
ik vind een leuk schreeuwen voor bestelling qucee vlog
ik vind een leuk zeer slecht nieuws! opereren in ziekenhuis is engste ervaring van mijn leven!
ik vind een leuk alles van de kfc binnen 10 minuten opeten!
ik vind een leuk 300.000 abonnees... wtf
ik vind een leuk chillen met illies in tunesie tunesie vlog
ik vind een leuk de bier challenge! ft. rossen 18+ teaser
ik vind een leuk koken met hans, in minder dan 20 seconden mac and cheese
ik vind een leuk nice 180 calls russ bray
ik vind een leuk re de waarheid over zu5e
ik vind een leuk ga leip met ons
ik vind een leuk qucee en ik zijn bezig met enge praktijken patjemoss vlog
ik vind een leuk villa gehuurd met zwembad | spanje vlog 1
ik vind een leuk van gerwen voor ons is dit fantastisch rtl late night
ik vind een leuk kroesoe vrije trappen met matthy, rob, koen &amp raoul! bassistent
ik vind een leuk van gerwen met geluid iii blendtv
ik vind een leuk youtube is kapot!! zo fix je het!! stuur dit door!!
ik vind een leuk hoe je gratis uit eten kunt gaan 2.0 | gierige gasten
ik vind een leuk no look penaltys tegen mn broer!
ik vind een leuk touzani x sergio ramos 💯
ik vind een leuk kijker geeft xtc aan mij...drugs
ik vind een leuk bass chaserz big dick x qlusive holland xxl edit
ik vind een leuk maarten reist voor feyenoord de hele wereld rond ‘het is net een ziekte’
ik vind een leuk q&ampa met aangeschoten broer, samson imitatie &amp baard er af? bassistent
ik vind een leuk angry grandpas brought to tears
ik vind een leuk roda jc feyenoord laatste minuten en eindsignaal
ik vind een leuk overnachten in een belgische bouwmarkt!!! gamma
ik vind een leuk hoeveel is de outfit van kwebbelkop waard? horloge van € 25.990,00
ik vind een leuk 10 jarige roasten...
ik vind een leuk charlotte de witte live bij studio brussel op studio ibiza
ik vind een leuk met deze truc kun je gratis drankjes scoren | gierige gasten
ik vind een leuk grootste fan verrassen emotioneel verasvlogs
ik vind een leuk zondag 09072017 livestream,terwijl ik tv kijk.02
ik vind een leuk armoo nieuwe bmw! kwebbelkop vs dutchtuber? voorbeeldfunctie ja/nee?
ik vind een leuk waarom zie je mij niet!? cod black ops 3
ik vind een leuk stone island garment dyed plated reflective with mussola gommata jacket ss17
ik vind een leuk bassistent hoeken als een corner 101bas
ik vind een leuk nananananaaaa vincent van der voort walk on pdc world darts championship
ik vind een leuk angry grandpa comes home!!
ik vind een leuk uitvak eagles. bij vvvgo ahead eagles 03
ik vind een leuk droppen wij de nuked out!?
ik vind een leuk jordy wehrmann genoten van deze kans
ik vind een leuk manchester united feyenoord 24 november 2016
ik vind een leuk zaterdag 08072017 livestream,terwijl ik de tour de france kijk.00
ik vind een leuk bas overhandigt aad zijn boek allememaggies!
ik vind een leuk psv feyenoord, onvrede na optreden stewards aidshoven
ik vind een leuk sluipschutters wie niet springt
ik vind een leuk paris fashion week lookbook!
ik vind een leuk opkomst spelers psvfeyenoord uitvak 18/09/16
ik vind een leuk dinsdag 02072017 livestream terwijl ik de tour de france kijk.00
ik vind een leuk grootste fout van mijn leven, ...
ik vind een leuk eigen videoboodschap bestellen van rapper sjors mail
ik vind een leuk deze enemys zijn woedend! cod black ops 3
ik vind een leuk zonrdag 02072017 koffiepauze en wat bijpraten.02
ik vind een leuk infinite warfare is kapot!
ik vind een leuk zonrdag 02072017 koffiepauze en wat bijpraten.01
ik vind een leuk de brecci 200% health 1v1v1v1v1 match! cod black ops 3
ik vind een leuk penislengte, kingalert overnemen en meer! fishies q&ampa
ik vind een leuk waardeloos eten | tony junior vlog
ik vind een leuk passenger | fast car tracy chapman cover
ik vind een leuk ping pong trick shots 2 | dude perfect
ik vind een leuk fantabad challenge met prankster | baas zijn met kalvijn
ik vind een leuk zaterdag 01072017 koffiepauze en wat bijpraten.03
ik vind een leuk zaterdag 01072017 koffiepauze en wat bijpraten.02
ik vind een leuk zaterdag 01072017 hoe ik mijn twee frikandellen speciaal opeet.01
ik vind een leuk gghtv piraat, van hooligan tot spiritueel wereldleider
ik vind een leuk vrijdag 29062017 hoe ik mijn grote friet stoofvlees met 2 frikandellen
ik vind een leuk oasis take me away cover
ik vind een leuk donderdag 29062017 hoe ik mijn grote zelfgemaakte sperziebonen roerbak
ik vind een leuk woensdag 28062017 livestream en koffiepauze en wat bijpraten.01
ik vind een leuk mijn nieuwe poesje !
ik vind een leuk woensdag 28062017 livestream.04
ik vind een leuk dinsdag 27062017 livestream en koffiepauze en wat bijpraten.02
ik vind een leuk hoe kom ik hier uit!?
ik vind een leuk gratis met krop sla defqon festival binnenkomen | gierige gasten
ik vind een leuk top 10 duurste horloges
ik vind een leuk dinsdag 27062017 koffiepauze en wat bijpraten.01
ik vind een leuk maandag 26062017 koffiepauze en wat bijpraten.00
ik vind een leuk oasis dont look back in anger cover
ik vind een leuk zit je daar nu stil!?
ik vind een leuk eet ik wel eens gezond? | tony junior vlog
ik vind een leuk maandag 26062017 ad looij livestream 00
ik vind een leuk zondag 25062017 ad looij livestream 01
ik vind een leuk charlotte de witte live bij studio brussel
ik vind een leuk streamen omdat het kan!
ik vind een leuk ongeregeldheden mvvrodajc 2017
ik vind een leuk man bijt hond man kan niet stoppen met lachen na heup operatie
ik vind een leuk soccer trick shots | dude perfect
ik vind een leuk ik ben officieel een marokkaan! ramadan vlog
ik vind een leuk vites feyenoord uitvak bij opkomst
ik vind een leuk vites feyenoord uitvak bij warmingup
ik vind een leuk hacked lobby op modern warfare 3
ik vind een leuk wie is de slechtste youtuber challenge ?
ik vind een leuk zullen wij ooit volwassen worden? | tony junior vlog
ik vind een leuk wat zouden onze stats op fifa zijn?
ik vind een leuk donderdag 22062017 05
ik vind een leuk donderdag 22062017 livestream.05
ik vind een leuk ik sla mijn scherm kapot tijdens fifa | tony junior vlog
ik vind een leuk eerste tattoos laten zetten in japan
ik vind een leuk spugen in de klas
ik vind een leuk gitaarles valkenswaard +regio jebroer kind van de duivel
ik vind een leuk ad looij livestream
ik vind een leuk coldplay fix you one love manchester
ik vind een leuk hoe ik aan 20 duizend euro schuld kwam mijn verhaal
ik vind een leuk woensdag 21 juni 2017 hoe ik mijn huzarensalade opeet.
ik vind een leuk nummer gelekt! waar is het respect? youtube 2017
ik vind een leuk gestopt met school toen ik 12 was | tony junior vlog
ik vind een leuk oasis live forever cover
ik vind een leuk nagels lakken met dionne | tony junior vlog
ik vind een leuk zondag 18062017 test met apple iphone 6 camera.
ik vind een leuk top 5 best weekly designer deals 19/6/17 cp company
ik vind een leuk samson en gert octaaf rockgitarist
ik vind een leuk hey jimmy kimmel, i told my dad i love him!!
ik vind een leuk mijn allereerste auto gekocht!
ik vind een leuk samson en gert frieda is burgemeester
ik vind een leuk gewoon een lekkere brakke zondag | tony junior vlog
ik vind een leuk samson &amp gert ytp gert speelt gta v
ik vind een leuk samson en gert alberto wichelroedeloper
ik vind een leuk live forever oasis cover
ik vind een leuk verdwaald in het zelfmoordbos in japan
ik vind een leuk moeders geniet van de air
ik vind een leuk dochter is bang voor poppen qucee vlog.
ik vind een leuk grandpa needs your help!!!
ik vind een leuk kattenfilmpjes bloktips van de burgemeester &amp van leemhuyzen
ik vind een leuk zeeuwse toeter moeder
ik vind een leuk moeders &amp nerf gun
ik vind een leuk ik word van school gestuurd taakstraf + boete
ik vind een leuk gebruik ik drugs? | tony junior vlog
ik vind een leuk dit gebeurt er wanneer je een weddenschap verliest! ramadan vlog
ik vind een leuk verjaardag van onnedi | tony junior vlog
ik vind een leuk ginger ale van canada dry review!
ik vind een leuk ik heb fifa 18 gespeeld!
ik vind een leuk hele dag door shoppen! ramadan vlog
ik vind een leuk grandpas kitchen freakout!!
ik vind een leuk mijn probleem met black ops 3..
ik vind een leuk het is veel erger dan gedacht enkel is kapot
ik vind een leuk mijn enkel is gebroken echt kut
ik vind een leuk joost jan peter balkenende official audio
ik vind een leuk harde val met fiets!!
ik vind een leuk saying goodbye to charlie
ik vind een leuk the next rodney mullen?!!
ik vind een leuk rodney mullen almost round 3
ik vind een leuk 5 tips voor youtuber die vader wordt!!
ik vind een leuk de sniper erbij pakken!
ik vind een leuk hoeveel kost deze gucci drakenshirt?! ramadan vlog
ik vind een leuk mooiste plekje van nederland | tony junior vlog
ik vind een leuk grappigste nlxdon momenten 2017!
ik vind een leuk tokyo life
ik vind een leuk how to make a mcdonalds big mac!
ik vind een leuk shoppen in milaan!
ik vind een leuk angry grandpa hates the unicorn frappuccino!
ik vind een leuk het is me gelukt..
ik vind een leuk the pool party!!
ik vind een leuk top 5 best weekly designer deals 29/5/17
ik vind een leuk 11 maanden slecht leven 1 maand heilig?! ramadan vlog
ik vind een leuk skateboarden met de boys !
ik vind een leuk het pakketje is aangekomen !!
ik vind een leuk nieuwe kleren en colabom op het strand !
ik vind een leuk bekerfinale 2016 compilatie, uit het archief!
ik vind een leuk top 15 verboden reclames
ik vind een leuk the bloody haircut prank
ik vind een leuk het geheim van snapking...
ik vind een leuk reageren op armoowasright zwart haar prod. fraasie
ik vind een leuk the angry grandpa sandwich!
ik vind een leuk vlogtimaal
ik vind een leuk de waarheid achter fidget spinners...
ik vind een leuk terug naar de ak74u
ik vind een leuk armoowasright zwart haar prod. fraasie
ik vind een leuk jas &amp paspoort terug gebracht door?? qucee vlog
ik vind een leuk shake your body bloktips van de burgemeester &amp van leemhuyzen
ik vind een leuk dit kan toch niet!? voetbal inside
ik vind een leuk feyenoordheracles | eerste minuut goal kuyt
ik vind een leuk vlogtimaal
ik vind een leuk johan derksen in gesprek met verslaggever clay ruperti
ik vind een leuk het beeld van gio wordt onthuld
ik vind een leuk skateboarden in mijn huis | q&ampa
ik vind een leuk spinner vs cube adhd toys
ik vind een leuk de overheid wilt niet dat je dit weet...
ik vind een leuk mijn nieuwe skateboard !
ik vind een leuk scooter pech in het buitenland...
ik vind een leuk rolex van 20 000 euro aan moeder gegeven !
ik vind een leuk kings q&ampa 2017 achterlijk, dj duo, ajax, blocks en meer!
ik vind een leuk kut crossbar challenge!
ik vind een leuk best fidget spinners vs blender !
ik vind een leuk waterpark met kijkers!
ik vind een leuk autisme rapbattle
ik vind een leuk de slechtste vlogger van nederland !
ik vind een leuk als dit nu zou instorten...
ik vind een leuk i set them on fire!!!
ik vind een leuk dit doet echt pijn van binnen qucee vlog
ik vind een leuk de dag met twee gezichten
ik vind een leuk 13 lastige kijkersvragen met ezg
ik vind een leuk the worst haircut ever!! prank
ik vind een leuk wilfred breekt in na debacle feyenoord voetbal inside
ik vind een leuk welk liedje zal lee towers gaan zingen? voetbal inside
ik vind een leuk na 18 jaar weer kampioen
ik vind een leuk i went copenhagen lyke......street tours | gucci | moncler | louis vuitton
ik vind een leuk een tip voor danny vera voetbal inside
ik vind een leuk de spaanse 7up cherry review
ik vind een leuk feyenoordfans vormen kampioenslied met spandoeken reupload
ik vind een leuk emotionele van bronckhorst in ereveld vol leven
ik vind een leuk zou je iemand vermoorden om jezelf te redden? levensvragen
ik vind een leuk de verboden tompouce uit puttershoek
ik vind een leuk blond gaan voor de 100.000 abonnees!
ik vind een leuk feyenoordfans beschilderen kampioensdoek