hoi, wederom de vraag waarom er geen dubbeldekkers rijden traject utrecht leiden?!
hoi, waarom worden er geen dubbeldekkers ingezet in de spits, traject utrecht leiden?
jaa top, ik zag het. dankjewel! fijne dag.
hoi, ik moet van tramhalte zuiderpark naar hs komen, enige tips?
hoi. ik moet vanaf zuiderpark naar hs komen. enige tips?
met de auto naar manchester! beloofd een mooie trip te worden!
ik kom voor 0.5
weer sinds lange tijd met de trein in de spits. 2 jaar geleden waren de coupés overvol. nu genoeg ruimte.
gaan jullie reizen naar manchester organiseren die in de ochtend vertrekken en diezelfde avond nog terug gaan?
nee, jullie hebben wel mn gegevens nodig...
nu een week het tel bandje het is op dit moment zo druk dat wij u niet te woord kunnen staan hoe krijg ik iemand te spreken?
hoi wij hebben dit scherm al 24h en hebben alle tips etc. geprobeerd. postcode 2408
mn complimenten voor je optreden bij
ik ben een half jaar het land uit. enig idee hoe ik feyenoord live kan zien aan de andere kant vd wereld?
kijk jij nu serieus esf in plaats van darts?! p
geen vertraging! bedankt.
hoelaat zijn deze problemen verholpen?
ik moet morgen weer naar school, is de hinder op de al verholpen?
wat een fantastische interview met die speler van morgen stagelopen bij de hema.
mag de kachel misschien wat lager? 27° is een beetje overdreven, toch?! alphen gouda!
uitspraak van de dag van na het slapen ben je pas wakker
hahha mooi man! lekker wakker worden zo met een vloggie van jou. jij ook een fijn weekend
jaloers en trots maatje!
gefeliciteerd. ps4!
aaaaaaaaaaribaa
wat een speler. geweldig!
waar is turkije?
hoi! zaterdag op station amst. duivendrecht bij de gvb uitgecheckt ipv bij de ns. hoe kan ik die €4, terugkrijgen?
column van beschrijft precies hoe het was en hoe het moet zijn. ergens verlang je altijd terug naar die tijd...
hahahaha, welkom bij het nk crowdsurfen in de trein met als 1e deelnemer
hahaha! het zijn wel leipe boys hoor!
gekke boy!
ik heb een studentenkaart dus geldt dat zeker niet. nee, nog 20 minuutjes. bedankt voor t vragen!
slagbomen hefbrug alphen staan op rood te knipperen maar er gebeurd niks...
het halve zolenpad waspik ... net een slechte grap dit!
sieraden die zij niet af willen doen... zo verwonden zij er niemand mee!
wat een vreemdelingen legioen weer bij vitesse...
seizoenkaart allang en breed besteld maar krijg toch een mailtje dat ik nog een seizoenkaart moet bestellen?!?!
ohhnee he, ben jij zon begeleider? of ga jij een bakkie voor jullie beide halen?
ok. dank voor de reactie!
hoi, ik was mijn ov kwijt en moest daarom voor 2 dagen kaartjes kopen. kan ik die declareren? ik heb een studentenov week.
20 euro op ov. ov weg. nieuwe besteld. 20 euro eraf, maar wel mn abonnement erop. hoe kan dat?
in de trein raar aangekeken worden, omdat je de slappe lach met moeite kan inhouden.
toevallig de ov chipkaart van j.c.swerissen gevonden? den haag centraal of bus 24 richting kijkduin!
als de hele trein vol zit en veel mensen moeten staan, mag je dan 1e klas zitten ipv staan in de 1e klas?
gefeliciteeeeeerd en een fijne dag!!!
kijkend
jazeker. zijn we ook blij mee. toch blijft t raar dat het zomaar vervroegd werd.
een tentamen wordt 9 dagen vervroegd waardoor t tentamen morgen is. gelukkig is er examenregelement, die dit verbiedt
heel geslaagd avondje met in t casino!
gefeliciteerd toppers!!!
mag een keer uitpraten?
wat een dramatische interviewer bij de
vanavond vergaderen voor de acj
lekker veel kilometers gemaakt in de auto afgelopen dagen!
hahaha!
morgen normaal gesproken vrij, maar school heeft een of andere bijeenkomst georganiseerd!
top avond met gehad!
help! iemand tips om feyenoord roma te zien vanuit parijs???
vandaag eerste stage dag gehad. morgen gelijk een presentatie geven. fantastische locatie aan de maas, onder de euromast!
645 van huis, 1845 thuis.
manmanman. je hebt het goed voor elkaar maat!
deze buschauffeur houdt wel van zijn gas en rem we gaan door heel de bus...
kruispunt n11 bij leidse schouw, afgebroken bord. ligt niet hinderend op de weg maar wel los
ik begin alvast met duimen. succes!
alsjeblieft ik heb morgen een tentamen. laat de treinen alsjeblieft rijden!!!
koop je een laptop bij de vraag je nog na of er komende tijd geen btwacties komen... is er nu een btwactie. manmanman...
vandaag vrij maar dat betekent niet ontspannen. hard leren voor tentamens. vrijdag de 1e!
heen en terug naar school
yesh! jij ook maat!
nhope, eerst rijlessen en dan werken!
its my lucky day! vandaag mag ik 3uur reizen voor een gesprek van 20 minuten.
oi oi oi. wil graag naar roma feyenoord. helaas laat de studie het niet toe.
el sjierd laten we hopen dat dit nog een beetje schoppen wordt
anders doe je er ff 2uur over om op school te komen.... drama!
coen. de grootste, voor altijd!
muziek√ drank√ vrienden√ familie√ vuurwerk√
wat. een. wedstrijd.
zoals het hoort. genieten!
morgen niet de wekker 5,45 maar lekker uitslapen!
de welbekende foto van t uitvak, komt die vandaag ook weer?
ondertussen staat mn trein al 30 minuten stil midden op t spoor
mooi! man in de trein zit vol trots te vertellen hoe hij voor t eerst met zijn zoontje naar feyenoord is geweest!
wat een fijne kerst gedachte van de ze laten mensen samen komen. 2 treinen die een kwartier vertraging hebben overvol perron!
straks uitbrakken in de kuip
prima voorbereiding op voetbalwedstrijd!
met heino naar groots met een zachte g!!!!
al een verzoek ingediend voor jou vereniging of bedrijf bij alles is mogelijk.
ja joh. allemaal mensjes al 2 dagen niet gezien.
vandaag redelijk veel mensen tegengekomen die ik lang niet gezien heb d
yesss. weer een uitvallende trein! wat een geluk heb ik toch.
ik hoor dat veel treinen niet rijden van alphen aan den rijn naar leiden. rijdt die van 6.53 wel?
vroeg wakker worden begint op een gegeven moment te wennen. goedemorgen.
morgen weer de trein van 6.53 dus nu lekker slapen!
zometeen rijles!
wanneer komt je verslag online??????
vandaag de hele dag op de trap gezeten tijdens het reizen. weer eens wat anders!
vandaag door vertraging mn aansluiting op leiden gemist. gelukkig heeft wel een vrolijke buschauffeur!
yesssss. trein rijdt niet. .
zometeen rijlesje!
begin de dag met een dansje....
crossfit gehad. gebroken.
ochtend gymnastiek ook weer gehad. rennen op leiden centraal voor mn trein naar den haag. goedemorgen.
gearresteerd worden tijdens de intocht van sinterklaas. hoe diep kan je zinken?
onderweg naar rijswijk om verplicht vrijwilliger te zijn.
nieuw rooster voor school &gt drama
vanavond werken met bij
moet jij geen voetbal kijken?
weekend
samen met veel andere mensen niet in de trein passen omdat die stampes vol is. traject alphen a/d rijn leiden.
laat maar komen!
laat maar komen!
volg , like en neem een kijkje op voor een origineel kraamcadeau!
fiets in den haag gezet!
was gisteren een gezellig avondje met &amp
fotos van de supporters aub.!
haha. mooie televisie. in de slappe lach!
komende week opladen en dan weer knallen op school!
naar de kapper geweest, beetje huiswerk maken en verder niks doen... lekker hoor, zon vrij dagje!
onderweg naar ziggodome!
was weer een drukke dag. nu slapen.
zaterdag naar met en
vanavond werken. strak in t pak dit keer.
gelukkig is t de laatste dag van school.
morgen school van 9 tot 1430. daarna gelukkig weekend!
van half 10 tot 2 tussenuur!
onbegrijpelijk hoe jullie betalende klanten laten reizen, vanmorgen met mn buik tegen de rug van de persoon voor mij moeten staan
mannetje uit het ruggetje, de vrij
ohja, morgen ben ik vrij
lang dagje op school gehad, maar heb het zeker naar mn zin!
vannacht 11u geslapen, lekker uitgerust dus!
in de auto naar huis van introkamp. weer naar mn lieffie
vandaag naar de kuip. morgen introweek van
haha kijk die gary joh.
prima engels voetbaldagje!
de hele dag thuis niks doen, heerlijk!
burgemeester met menschen
vanavond een kijkje nemen bij se
helaas is het altijd hetzelfde liedje
op zoek naar een nieuw, goed en goedkoop telefoonabonnement. iemand tips?!
waarom hij waarschijnlijk met verhoek gaat spelen die misschien wel de slechtste speler uit de selectie is?!
lekker uitgeslapen. hele dag rustig aan doen en om 5u weer werken.
beentjes op de bank na weer een lange dag werken!
heeerlijke vakantie gehad met mn lief !!!
na 2.5u vertraging eindelijk geland op schiphol. nu koffers ophalen en naar huis, lekker slapen!
wtf is er met de wereld aan de hand?!
koffer ruim onder de 20 kilo. veel ruimte over. bij is dat wel anders, ghehe!
afsprong een 7!
tot vanavond bij ?!
overdreven gedoe ...
ik word oom!!! eindelijk hoef ik niet meer mijn mond te houden!
tot woensdag!
groetjes vanuit turkije!
heerlijk dagje met mn vriendinnetje gehad. nu snel slapen, over 3.5u de wekker om op vakantie te gaan!
via mijntele2 en een smsje dat ik kreeg
heel fijn dat je een abonnement bij afsluit voor 1500 mb, maar dat je 1000 mb tot je beschikking hebt!
hier gaan we eens even goed voor zitten
morgen een introductiedag bij , voor de opleiding sportmanagement. ik heb er zin in!
gelukkig hebben wij al geboekt.
lekker keepertje bij mexico!
vandaag 6uurtjes gewerkt. morgen hetzelfde recept.
manmanman, wat een héérlijk wk.
voetbal!
prima oplossing. geluid op 0. arno vermeulen op 0.
kan iemand de microfoon van arno vermeulen afpakken?! bij voorbaat dank.
over precies 2 weken, lekker, in alanya!
och och, al die examen feestjes die eraan zitten te komen..!
vandaag de uitslag, spannend!
over een halfuurtje voor de buis voor
man man man, wat heb ik zin in het wk!!!
lig nu alweer dubbel met
koning voetbal &gt harry from holland &gt vi oranje. heerlijk voetbalavondje. laat het wk maar komen.
hele weekend gewerkt. nu gesloopt op de bank geploft.
onwijs veel respect voor de mensen die mee hebben gedaan aan de zelf ook het plan om een keer mee te doen.
een meneer sluiter die voor de 2e x je tijdlijn vol stopt met fotos van een vaag hotelletje ... staat ook op de kaart!
ik kan niet meer inloggen op mijn computer account, heeft iemand hier ervaring mee of kan iemand mij helpen? thnx!
gezellig middagje gewerkt!
eindelijk thuis van werk. nu lekker slapen!
vandaag weer werken van 1200 tot 1700 bij
trekken er mensen vanavond nog een pak aan?
ruim 10u geslapen.
klaar met werken. nu lekker slapen.
wat nou vakantie?! gewoon elke dag werken! nu weekend, ohnee, morgen ook werken! bambambam.
haartjes ook weer kort!
bureau sport. heerlijk.
ouderwets op straat gevoetbald. ja, de vakantie is begonnen dames en heren.
gisteren een heel geslaagd feestje gehad!
over 40 dagen zitten we in turkije!
kunnen jullie aan de surveillanten vragen of zij geen hakken aan willen trekken tijdens de laatste examens!?
kan je bij het ook klagen over de verschrikkelijk slechte stoelen!?
komt er ook nog een gala?
veel stoeltjes die leeg zijn ....
heerlijke lunch van me lief gehad. nu weer keihard leren en voorbereiden.
hopelijk ook betaalbare prijzen.
vi even als afleiding tussen het leren door!
wat een mooie bulldog.
vanavond 9u gewerkt. straks leren en dan om 5u weer 8 à 9 uurtjes werken.
werken van 17.00 tot ongeveer 02.00!
we zijn niet allemaal duitsers zoals jij hen.
als me echte examens nou ook zo gaan als me proefexamens hoor je mij niet klagen!
nice! heeft ons spandoek opgehangen die we een tijd geleden aan hun hebben gegeven!
niet naar feyenoord vandaag.......
voor me gekookt en het boek van pelle voor me gekocht, wat een topper heb ik toch. ♥
hopen dat ik morgen opgeknapt ben voor
heb me in tijden niet zo beroerd gevoeld ...
ben je al aan het sporten?
hopen dat jullie niet ons spandoek weggooien tijdens het opruimen!
gisteren goed dagje gehad en er komen nog gezellige dagen aan!
typisch ashram op internet zetten dat een examentraining vervalt en dan toch door laten gaan! lekker bezig hoor!
verschrikkelijk
thuis van werk!
werken. 20.00 tot minimaal 04.00!
vervolg opleiding staat vast!
vandaag mijn lieve mama jarig!!!
had beter thuis kunnen blijven vandaag.
laat. me. slapen.
zondag naar psv feyenoord met en frank.
ik hoop dat ik volgend jaar een aantal mensen niet meer tegenkom op school.
ze willen verhoek verkopen. en dit zijn de wedstrijden waarin dat kan om zich in de kijker te spelen.
eindelijk in bed na een lange avond/nacht werk.
volgend seizoen spelend met rugnummer 25.
vanavond werken van 20.00 tot minimaal 03.00u!
vandaag mijn debuut maken, voor mijn nieuwe team volgend seizoen.
tot nu toe zeer tevreden met de cijfers die ik terug heb gehad!
eerste cijfer terug uit de toetsweek 7.2 voor maatschappij!
in bed na weer een dag leren.
seizoenkaart verlengd!
leuke en nuttige dag achter de rug.
alweer bijna een half uur aan het leren op deze vroege ochtend
drukke maar een goede dag. van 0830 tot 1630 op school &gt huiswerk &gt trainen 2115 tot 2230!
bedankt voor het niet doorgeven van het 1e uur uitval!
95 dagen tot alanya met !!! 107 dagen tot mallorca met !!!
vandaag me maatje jarig!!!
je zou maar pirlo en modric als controleurs hebben.
geniet op dit moment meer van het commentaar van sjierd dan van de wedstrijd.
ik wil bij deze alle docenten bedanken die alles in de laatste week inplannen!
vogeltjes fluiten, zon komt langzaam op en ik ben thuis van werk. welterusten!
laten we het hopen!!!
vorige x waren we 8u thuis haha!
vanavond werken van 22.00 tot uurtje of 06.00 / 07.00!
en dan haal je gewoon een 7.8 voor je totale pws. bam.
ik wil graag me complimenten geven aan iedereen die een presentatie heeft gegeven in lokaal 221!
voel me al 2 dagen knap beroerd. ben benieuwd hoe dat vanavond tijdens me pws presentatie gaat.
het is dat al 50 achter staat met nog 20 minuten te spelen maar het plan ziet er goed uit.
hopelijk morgen weer fris en fruitig voor de pws presentatie.
ziek in bed. net uurtje geslapen.
avonden zoals deze... perfect.
ik ook jongen. met zijn kale kop hahaha.
hahaha. is al ruim 10 minuten bezig, geen één woord over voetbal.
3 uurtjes les en dan weekend. al bestaat dit weekend alleen maar uit school en tussendoor voetbal.
trainen van 2115 tot 2230.
herkansing ging goed. hopen op een goede voldoende.
acda en de munnik stoppen. zonde!
je noemt 3 dingen op en dan al uitgeteld. p
maar weer eens een bezoekje brengen aan de fysio.
hoe duidelijk wil je het hebben. ongelooflijk.
vanavond voor het eerst in 5 a 6 weken trainen. heb er zin in!
morgen richting antwerpen voor 3 daagjes met ♥
ouderwets avondje met me maat !!!
wie heeft of verkoopt muziek box op accu?
zeker brieven van fc utrecht of de supporters nog wel van hun cluppie houden!?
ventoux van &gt aanrader
zeker de moeite waard om eens een kijkje te nemen &gt
je wilt niet weten hoe het hier is! het dorp staat op zijn kop!
het enige wat nederlanders kunnen is darten en plaatjes draaien
morgen weekendje naar zeeland met de familie. we hebben er zin an!
2 jaartjes samen met me lieffie! ♥
voor mij een weekje vakantie zonder mayonaise, alsjeblieft.
ik vind het mooi geweest, welterusten!
weer een bezoekje aan de fysio.
7.9 voor bsm. bam.
tuurlijk is die 7/7 ronde ook voor mij. klaar met toetsweek.
ronde 6/7 voor me gevoel net aan gewonnen.
de 4 hoofdstukken van geschiedenis zitten erin.
ronde 5/7 moet de jury nog even naar kijken.
jawel, dames en heren. ook de 4e ronde is voor mij!
ronde 3/7. jorrin 30 toetsweek.
morgen gaat de 5e persoon naar me pols kijken...
we leven het feyenoord leven...
ronde 1/7. jorrin 1 0 toetsweek!
vanmiddag vakantie uitzoeken met me maat !!!
komende 2 dagen alleen bereikbaar als ik wifi heb!
vanavond avondje leren en dan 7 toetsen komende 4 schooldagen knallen!
best wel blij jbhsvorisson
haha. wij hebben rubinho!
thanks hen. jij ook!
vandaag naar utrecht feyenoord met
3 februari naar de toelatingstest van
vroeger het hashram nu het ashram cokellege
nog 3 uurtjes school en dan staat er een goed weekendje op me te wachten!
onderweg naar de plaatselijke fc.
de welbekende stadionstem?
dankjewel!
ik wilde zilver maar heb nu goud!
en dan krijg je een bakkie koffie van je engels docent!
gewonnen na penaltys!
gefeliciteerd! feliciteer hem even namens mij!
carnaval 2014. en ik zijn van de partij!
spreken is zilver, zwijgen is goud!