doe mij er 50! moet ik dm sturen met gegevens?
wat een circus joh
dank, zag de mooie fotos voorbij komen!
wat een dag
sterf en trek dat shirt nooit meer aan pauperjong
niet alleen coolsingel, maar ontzettend blauw en groot. laat de kuip nou net groot zijn en blauwe stoeltjes hebben😉
uitslag?
maar joden lopen altijd weg naar eigen supporters kan iedereen ineens massaal meezingen... kansloos
kaarten zijn binnen💪🏼
zelfs bij psv uit zegt die dat...
zet je dan je wekker voor.. sterf 🖕🏻
brabbelde en wees naar lampje dat hij niet zag, verder geen normaal woord terug helaas.. niet echt klantvriendelijk👎🏼
kan zeker gebeuren. maar een excuses en/of fatsoenlijke reactie kon er bij deze buschauffeur niet vanaf.. 1/2
vervolgens naar vissershaven 10minuten verder. en nog 30minuten wachten op de bus terug. en te laat voor mn werk nu. kansloos...
top! busschauffeur vergeet te stoppen bij halte voorweg, hellevoetsluis. had zogenaamd het lampje niet gezien 1/2
verdachte tas en de reizigers kunnen er allemaal langs lopen en ernaast staan?
en dan maar hopen dat het vrouwen zijn he! 😂
jij gaat helemaal niet naar de finale😂
van gastel en gio
gisternacht geïntroduceerd
wat een nacht in rome
rome tot over een paar uur!
pmds locatie en spaanse trappen liggen alleen 2 km uit elkaar?
volgend jaar beter👍 klootzakken
3200 al, aardig gek
eindhoven de tyfusssss🙋
geintje is met bruseel airlines, maar reis en kosten zijn hetzelfde
ryanair, dinsdag t/m vrijdag. brussel rome. + 90 euro
is ook weer zo! ben nog steeds niet thuis😂
en de koelkast is leeg in bus 21😂
we zijn zojuist gaan rijden... man man man
en we staan nog bij de kuip.. prutsers
gewoon lekker bardienstje hoor, beetje cl checken
14, de ommekeer voor dit seizoen!
en we rijden de grens over. wat een trip!
on tour! richting brussel✈️
ik ga vanavond
morgen vanaf brussel naar madrid. en van madrid naar sevilla die dag erop. zelfde weg op de terugreis
800 naar sevilla.. valt tegen!
wat is de dagelijkse tussenstand van de verkochte uitkaartjes voor sevilla uit?
doe is opletten bij stage
klopt het dat er een storing is voor de passe partout? er staat er zijn geen kaarten meer beschikbaar voor de wedstrijd
aanpakken die turken
ik heb niks met die belgen. ze zijn 1x op het wk en hebben gelijk een grote muil. hup
heb je misschien de foto die als header bij het fotoverslag staat voor me? die voc gozer in duel met pelle. is een maat van me
de familie heeft ze weer binnen!
is die er ook zonder rits?
hahah wat heb je nou weer gedaan
alle ek kwalificatie wedstrijden in 020... pff alleen maar uitwedstrijden voor feyenoord dus
avondje in brussel gewerkt
raar ventje ben jij zeg idioot
helaas helaas.. hij was in ieder geval tof!
ondertussen degradeert fer!
feyenoord is de mooiste club van nederland bedankt!
komt die oranjebitter set er ook op?
reserve neuzen op spangen, zelfde trekjes
we staan elk jaar bovenaan, niks nieuws!
oja en die klaassen is het grootste talent... ook niet serieus te nemen helaas
blind de beste voetballer, 020 het sportiefst en gözübüyük de beste arbiter... is er een klassement dat ik wel serieus kan nemen?!????
propedeuse civiele techniek binnen!
gaan wes enzo weer mee?
laagste van het laagste
ad heeft aan de fles gezeten
nooit meer naar duitsland!
geen stoeltjes lijkt me een beter plan
wanneer zal de bouw beginnen?
iq van een stoeptegel dus op 410
behalve als ze tegen feyenoord spelen
kansloos volk.. valt niet te redden
huilie huilie
hahah ik kan hier van genieten zeg! mooie dingen
en terug naar rdam! ging goed los in het uitvak
hulde, toch een kaartje psv uit! deden ze niet moeilijk over
beller nummer 4 in de wachtrij... klantenservice hoor
heb je mij horen zeggen dat ik dat een toffe actie vond? en ook jou heb ik niks gevraagd snavel
heb ik jou wat gevraagd?
hoe oud zijn ze nou?
kaartje niet uit de printer, maar krijg wel infomail? heb ik dan toch een kaartje man man man
“@tonstrooband sfeeroverleg a.s. donderdag op varkenoord! via puntensysteem weg zorgt voor sfeer
rent er zon simpele de metro tunnel in bij beurs.. en die joden erachteraan joh, metro ligy plat en ik kan met de tram👍
ja, ik ga zondag een sjaal kopen als het 20 graden is!!👍
9 km/h te hard... 62€. zo rollen we in nederland
tevens was dat ook het geval bij de tweet van thijs reumer
pim fortuyn wordt hiermee voor de 2de keer vermoord.. belachelijk, die man heeft de hele samenleving op zn kop gezet!
en zo is het.. belachelijke bedoeling
dit is dan wel weer mooi natuurlijk
wat een belachelijk kut land is dit aan het worden. volkert vd g 2mei vrij... waar gaat dit heen man
hup leefbaar rotterdam
nooit meer kampioen!
sporten... kater van gister wegwerken
hoppa autocombi groningen, zo naar laatste training voor snavels thuis
kan die rare vent niet gewoon wegblijven uit de krant
die alternatieve heb je ook niks aan😂
jaja, volgende week voor jan lul naar enschede.. bedankt feyenoord
hooligan onderweg naar een civiele techniek beurs...
morgen vrij.. maar ik kom ook wel met arnold meetrainen
wat maakt het uit wie er voor die groep komt te staan.. die wanprestaties liggen niet aan een trainer
vrije dag morgen.. 700 is gekkigheid haha. 815 mooie tijd voor morgen
ik ben verhinderd om 700 morgen😂
naast wc richting kantine
hahahah humor man op de hro
nee haha, zwaar kaka
hou toch op haha
klootzakken, grote muil maar niks waarmaken..
zo niet, kunnen ze lekker oprotten met dat achterlijke puntensysteem
morgen weer silvercardlife, beter heb ik volgend jaar goldcard
enig idee of er kans is voor silvercard houders naar roda uit?
ik en de f4f medewerkers vergeven het je! tot maandag x
haha jaja dat zal wel!
verzaak je nou op de vrijdag ochtend?
“@keuningmatthijs bij gebrek aan uitsupporters gaan ze in vak 410 maar onderling op de vuist. inmiddels weer rustig. • whahahhaha
hebben jullie weer een mooi stukkie verzonnen?
gefeliciteerd kameraad
heerlijke awayday achter de rug.. 25
whaha in utrecht en dan terug naar rotterdam vannacht om in de ochtend weer terug te gaan met buscombi
hahahahhahahahah wat een ventje die
politie controle melanchthonweg
lekker makkelijk.. 2 maart de schuld hiervan geven!
maar het blijven ambtenaren, dus dat gesprek duurt nog wel ff hun kennende
zeker wel. wordt nachtwerk denk ik, maargoed we moeten er wat voor over hebben toch
haha overnachten ja! of een andere stad
stel we mogen.. kom ik waarschijnlijk niet eens aan de bak met me silver
jouw profiel foto is niet meer relevant na zijn gare transfer
aanwezig in utrecht, mooi man
is geen pretje zon silvercard
o laat maar. is 1e seizoenshelft, kleine uitvakken bij feyenoord in de eerste seizoenshelft haha
klopt. maar feyenoord heeft elke uitwedstrijd een uitverkocht uitvak. dus dan mag jij uitleggen hoe 020 er meer hb
op kerstavond en 1e kerstdag wordt er gewoon gewerkt
me laatste beetje verstand eruit laten trekken bij de kaakchirurg
steengrillen... onbeperkt bier dat dan wel uiteraard
graag gedaan
is het mogelijk dat ik grote fotos kan krijgen van hveen uit? die in het fotoverslag staan
jaja 3 punten mee naar rotterdam!! mazzel friesland
220 opgehaald in casino, morgen europees tripje naar friesland
een of ander feestje van een paar alternatievelingen
kan ze moeilijk uit hun klauwen trekken inderdaad haha, maar het is gewoon zonde toch.. misschien leren ze het ooit
de mention was meer voor jou, dat professionele fotos compleet verziekt worden hierdoor. niks te klagen over jouw werk
haha nee man. heb het over die mobieltjes die zulke fotos verzieken! niets te klagen over echte fotos met echte cameras!!
nee dit
meer wat voor
dat geloof ik best. zonder al die mobieltjes had dit een kicke foto geweest en staan ze er zelf ook normaal op..
mooii kaartje hveen uit gelukt!
hahaha knuppel
het is het is het is het is
ajoh. ik ben voorlopig nog lvl 1, omdat die geen connectie kan maken met de rockstar servers. prutsers zijn het...
geen idee. er is geen vorm van communicatie naar het publiek met opstellingen bijv.
mooie beelden
als dinamo fans woensdag ook naar die neuzenstad gaan wordt het een aardig bizarre veldslag haha
haha wauwwww! en wat mag dat kosten pm?
sick! hoe bevalt die? en welke provider heb je?
hoeveel man gaan er in het uitvak daar? enig idee?
ajoh jan, geza had zand in zn vagina.. daarom deed die zo
“@janv3 robinsonslet •
“@retrotterdam actuele storing. rijdt niet tussen rotterdam cs en slinge. • man man man man
haha als jij het zegt! hoef ik niet alle sks mee te nemen om 5 kaarten te halen dalijk, vandaar
is het 1 kaartje per sk voor hoek thuis?
“@lchtvrksldr take control! luchtverkeersleider, een baan voor het leven! solliciteer nu!
uit de oude doos!
hahahah normaal man
klasse vandaag! trotse sk houder van w1 weer!!!
def rhymz wat een eindbaas in de hooizolder
pmds is begonnen in rotterdamse kleuren
zo weer een kleine week chaos in zeeland
zo dan kan je goeie feestjes geven daar
ga je gewoon halen gozert
wauw lamborghini aventador door bergsedorp straat
beter ff wat sensatie bij de chinees dalijk
jeffo010 , hij is facking lauw
hahah wat een vent
wat een ballaar
wauw facking gierig! staat het online?
voor wat?
anders vermelden jullie even dat metro e vertraging heeft
best leuk nu om door de metro te lopen met beyonce aan alle kanten
seizoen feyenoord afsluiten bij maccie
ik weet dat heel kut maar het kan wel
wat is er gaande bij melanchthon park? naast de wilgenring
haha lummel! zit je bij psv fans of bij kaarten van de knvb?
haha succes vanavond!
feit, er zitten meer psvers in de kuip vanavond dan bij een thuiswedstrijd in de beker tegen feyenoord.
misschien leuk om te weten. nelom verloor gister 1 lens en had geen reserve bij zich. en dat noemt zich een prof? schandalig!!!
opscheer in 3...2...1
hoeveel wil je er? krijg direct van leverancier
wil je 1tje lenen?
lekkerr dan stickertjes van zijn binnen!!
is een pmds 3 dagen van tevoren te vroeg?!
jaja heracles pak slaag zondah
mimoza doet wonderen
bij mo?
gerechtigheid voor elke madrid fan met een grote muil gister!!
weer de kuip in! glory hunters ff afmaken!!
alles op rood! ogen dicht en op gevoel
same problem here. wiskunde lastig verhaal
hahaha dat duurt alleen meer dan 16 jaar denk ik! khuda hafez
hahah je moet je verdiepen toch in anderen
thuis wachten tot dienstregeling weer normaal is haha
zieke debielen weer in boston
weer eens dday voor feyenoord
ja cool ik ben aanwezig
vandaag ff bieb gepakt, maandag ochtend op school weer ff leren?
ovr man, ik dacht om half 3 pas
nee man wordt volgende week denk ik haha
mooie dingen bij de ret. 2min zijn er bij hun 10
tegen fc bal op het dak?
oude haven met el dalijk ja1 kijken bij
mn vakkie jarig vandaag!
yup aanwezig
leren op museumpark
krijg de tering
kijk die lege stoelen in de arena hahaha. trieste stumperts, zitten in de titelrace komt de helft niet. domme neusjes
wie gaat olli halen vanmiddag?
thuis jij school toch al?
ff wiskunde doen dan maar, 1350 tot 1750 school😩
hahaha bartender heeft geslicedddd
jaja het is weer weekend
jij trakteert dus op school?
oja en de woo ken ook de tyfus krijgen
utrecht de tyfussss! pak slaag in de kuip dan maar
ook hier een flinke gaande
weer is een avondje utrecht
er is maar 1 balkonscène en die is op de coolsingel!!
geld de seizoenskaart zondag overal op elke tramlijn zondag?
12mei op de coolsingel. dat staat er!!
waar zit je? ik bn er ook
wachten op bij de stink eur. dalijk hardlopen
maar uniq, worden we kampioen?!
oeiiii pijnlijk, sterkte haha
oja weekend trouwens
leventje vandaag. net sisha gedaan met wat gasten en nu maccie met freek. dalijk keuzevak
efteling verplaatst naar nijmegen?
kogel voor die bieber fanatiekelingen in de stad
beetje werken 🇨🇳
fitje met mo
haha sierd de vos altijd genieten met die dwaas
veel plezier gasten
dalijk weer ff keuzevakje pakken
iemand moet de eerste zijn!!!
hahahahah tief toch op p
superrr duitslandddd! heb in ieder geval wel een goeie speler te koop gezet
zeker trainingskamp van wout op mn dak door deze actie
hahah puur omdat ik te erg op osm ben
als je het volkslied niet meezingt moet je gewoon optieven
bruno martins indi gewoon meezingen met het volkslied! held
werd eens tijd met die rare bb onzin van je haha!
ik moet al taxi app maken haha
stuur aub mail
breda was lachen en kut tegelijk haha. nu eindelijk slapen!!
waarom staan die wijzigingen niet op 9292. sta ik dan van verdomme half 3 op breda centraal.. jammer hoor
zit je dan vanaf half 3 tot half 8 wachten op station breda...
eindhoven en pisv de tyfusss!!!!
en ik maar wachten op de woorden bier wordt goedkoper
lekker ferkassen naar everton inderdaad
haha daarom heb ik ook 4de kwartaal gekozen. hopen dat het dan wat warmer is!
jullie worden te commercieel man. doe jullie memes. wordt moe van die verlotingen voor 12jarige kids haha
alle gloryhunters staan weer massaal op! nooit wat met voetbal gehad en dan leuk doen met 020.
gezellig
feyenoord, feyenoord, wat gaan we doen vandaag.
joden gaan eraan!
haha ik ga het morgen in het tussenuur maar fixen
deze moeten jullie echt zien!!!!!
hoorde jullie iemand poep zeggen?
wie is die gekke twitter boy ineens?
of bijna iedereen?
echt iedereen?
oldskool twitter gesprekken
hij is wel klein beetje binkie ja, maar links achter is overdreven!!
lekkere pf hoor djopoe
sneeuw ziet er leuk uit maar daar blijft het bij
ziet er wat sportiever, fitter en sneller uit!
straalt in ieder geval wat meer autoriteit uit dan lopende agenten en ze zijn sneller lijkt me
heb ze nog geen 1 keer gezien
gouden bon avond
nee haha zat nog in het lokaal en moest nog iets voor koljekononomohomovic doen
hij was gekomen haha
zo werken met badgast en opper bar badgast !
zo weer werken met badgast 🇨🇳🇨🇳🇨🇳🇨🇳🇨🇳
mulder twitterde hem
beetje wel ja, maar ik gun je iets haha p
ik wou je het aantal bier laten optellen.. maar je kon niet meer tellen
ik kan wel weer doen hahahah
rijbewijs opgehaald!
gefeliciteeeerdd! xxx
haha en daarna aardig wegtrekkende gezichten
gister flink wat mensen gefokt met wat raki
en op de coolsingel staan!
zeker man! volgende keer revanche met poulen
bon
weer naar de kuip. ff drie punten pakken tegen groningen. met
laat je club maar in de steeek!!!
en we gaan naar eindhoven!
was te ziek feyenoord!!!! nu bus terug naar rofffa!
ja man was ab en daarna in je favoriete tent de beurs haha
volgens mij stuurde die hem pas gister man, maar had hem vorige week al gestuurd haha
heb ajb medijden nroeder
laat me omkleden enzo en dan kom ik eraan
wapp is brokko stuurde je nog wat?