volgend jaar cisco live us! al is het alleen maar omdat het in vegas is 😉
zou j. toevallig voor janssen staan ?
bedankt paul! en jeroen zoet natuurlijk 😉
een blunder is een cadeau?! het was een 100% doelpunt objectief geconstateerd dankzij moderne technologie…
schei toch uit zeg!
net als de goal van kramer in de 94e min tegen utrecht, de redding van jones bij psv uit in de laatste se…
zeg dan gewoon niets!
ondanks dat de naam anders doet vermoeden vroeg ik me toch af of jullie zondag de kampioenswedstrijd uitzenden?
huh? psv is toch al enige tijd geleden uitgeschakeld voor de landstitel?
haha! zo te merken ben jij ook nog steeds niet over afgelopen weekend heen 😉
wat denk je zelf?! 😂
van dichtbij is ie nog mooier en een stuk groter! succes vanavond!
het is een traditie met steeds minder inhoud. de afstraffing die in de lucht hangt tegen de buren is inherent
toch apart om te zien dat aswh op het eigen toernooi met een onherkenbaar bteam ten tonelen verschijnt
daar twijfel ik niet aan! maar iets waarvan je zelf aangeeft de bedoeling niet te weten een farce noemen lijkt me voorbarig
aan het voorkomen van incidenten en dus sancties is toch per definitie in het belang van de club?! 2/2
ik snap niet waarom een trouwe en goed willende supporter als jij zon punt hiervan maakt. alles wat bijdraagt aan het 1/2
de voorbereidingen voor het collaboration event zijn in volle gang. wordt een unieke dag!
jullie misbruiken je macht als leverancier en zadelen mij met extra kosten op om een ondeugdelijk product te laten onderzoeken
schei toch uit! jullie afspraak, niet de mijne! als er 3 weken vantevoren of 250 euro had gestaan had ik ook niks in te brengen
bij deze nomineer ik jullie voor het meest onklantvriendelijke bedrijf van nl! cc
ach ik ben maar een klant... als ik dat had geweten had ik ze lekker voor een dichte deur laten komen te staan 😄
vanmiddag de service afspraak van morgen met afgebeld. zegt mevr dat ik bij een nieuwe afspraak e75 belast krijg. serieus??
haha! ik voel een dwddtje aankomen inderdaad
weekendje antwerpen en dan op de hotelkamer tv kijken?! ik kan me wel iets leukers voorstellen 😜
dat weten we dan gelukkig ook weer
is het alternatief een zekere verbetering?
scorebord journalistiek! gelijkspel had ook prima gekund, maar effectief zijn betekent niet dat je een overwinning steelt
gestolen zelfs? dan heb jij toch echt een andere wedstrijd gezien dan ik. maar zit ons zeker niet tegen, dat mocht ook wel weer
en wat is het geworden?
even de aandacht op jezelf focussen....? narcist!
steven berghuis is de naam!
vast niet 😉
mijn tijdlijn is al tijden een soepzootje! berichten willekeurig door elkaar, geen enkele logica! wat moet ik hiermee?
hypocriet zeg!aan de tel meepraten met f.verstappen en een bulletin later stellen dat de telegraaf t vast niet verzonnen heeft
is het niet andersom? 😄
ouwe geldwolf
te horen te krijgen dat ik dat zelf via moet doen omdat jullie anders 7,50 euro in rekening brengen. 2/2
wat een droevige service en klantbeleving zojuist. eerst 10 min in de wacht om een nieuwe pas aan te vragen om vervolgens 1/2
voor een prikkie 😉
haha toevallig werkt mn vriendin voor corendon 😜
corendon is sponsor en heeft bali als nieuwe bestemming
wat te doen met diefstal fiets op station zwijndrecht, waarvan ik nog wel de fietssleutel bezit maar geen aankoopbewijs?
haha! bij mij waren ze er juist altijd als de kippen bij met het dringende advies om uit voorzorg maar het uit het veld te gaan 😄
cillessen schreeuwt het uit, dat meerendeel spelers er geen aandacht aan schenkt is veelzeggend voor gebrek aan teamgevoel
bedankt voor de dichte deur zojuist. niet bepaald eenduidigheid in openingstijden.
zuur voor zoet
wat is dit voor tendentieuze, ongefundeerde en suggestieve reactie?! nota bene vanuit het officiële account.
dit noemen ze t gelijk van een trainer? 😉
het hoofd van dirk 😉
gratis wifi. je hoeft alleen maar met je twitter account in te loggen. ze nemen dan wel gehele je account over.
haal mij ff uit de cc
haha ja zo lust ik er ook nog wel een paar
net zoals dat sunweb alleen zomer vakanties verzorgt zeker?
twee rijstroken op de a16 afgesloten, maar volgens is er geen vuiltje aan de lucht....
wat een ratten, 500m nadat de trajectcontrole op de a2 is afgelopen staan ze al weer met een mobiele flitser
jezus, wat een partij!
stop toch ajb met die schijtlollige fragmenten van ! goedkoop, tenenkrommend en irritant!
het zou je als kameraad sieren als je wat voor elkaar krijgt! dm komt eraan
klopt en dat had een uiterst teleurstellende uitkomst. te meer omdat ik om me heen tal van dit soort succes verhalen hoor
ik bedoel dat ik in tegenstelling tot niet word beloond met een gratis toon vanwege opgebouwde klantwaarde
toch teleurstellend dat@eneco hierop pure willekeur toepast. ondanks de 7jarige klantrelatie blijk ik niet in aanmerking te komen
ooh i see... dan ga ik ook maar eens met bellen 😃
goeie deal kunnen maken?
anders dan een iphone? 😉
reportage hangt er niet aan, wel een echte aanrader!
laat even weten wat eruit komt kock, ben ook al 7 jr klant 😃
aan de foto te zien baal je daar zelf nog het meeste van 😉
voor jou
na horen van nieuwe nummer denk ik er toch over om maar gewoon rechtdoor te rijden
vanavond zing je vast een toontje lager 😉
turkije geeft ons in dit geval even een insight look
na zon beschamende nederlaag ff volle bak bloed, zweet en tranen aanzetten, dan snap je er echt geen reet van!
dat vanavond in zeist het vertrek van eist is natuurlijk logisch!
ten rouwelaar bij nac kan echt niet meer! zelfs niet in de jupiler league!
janjoost van gangelen doet er werkelijk alles aan om zo min mogelijk te laten zeggen ik overrule je gewoon
hoor dat publiek eens als één man achter de ploeg gaan staan nu ze het echt nodig hebben...
zijn ze binnen? 😃 of heb jij alleen de primeur?
doe je weer goed kock!
neem deze klachten van bewoners nou eens serieus! niets moet, jullie bepalen dat het moet... slecht beleid!!!!!!
een mooie kans om oppositie te voeren lijkt me in een nieuwbouw wijk ineens een container uit 1990 plaatsen kan echt niet
alles? serieus... de groene aanslag zit er nog op. ondergronds met dat ding! waar is mijn vvd als je m nodig hebt?
suggestie? niet in het zicht van bewoners! past totaal niet in straatbeeld. en na 7 jaar ineens een container op straat, why?
wat is de bedoeling van deze lelijke, smerige, 2e hands papierbak aan de baars? blauwe bak is voldoende
ging er bijna in 😉
zal kennelijk niet best geweest zijn tweet is inmiddels al verwijderd 😄
vrouwen en kinderen eerst kock! 😉
om de 5 min schiet het beeld op zwart
storing?! beeld valt regelmatig weg bij
ik stem op voor de in categorie accountancy.
feliciteer dan meteen ook alle andere kampioenen uit de competities van f9 tot en met het 10e, wel zo sympathiek!
staat ook nog op mijn bucket list!
ga je ook echt voor het voetbal? 😉
jij ziet alleen die dollar tekens 😉
ik zou er nog niet gerust op zijn kock
en dan staat de slechtste op doel? die gozer bakt er echt niets van! lijkt wel omgekocht zo makkelijk vliegen ze erin
met gemeente geld ja!
dat kan alleen bij die gemaakte kutclub uit eindhoven, dat de spelers eerst nog even de kleedkamer in gaan vóór de huldiging...
bij de versmarkt in hia opnieuw minuten lang staan wachten om geholpen te worden... leuk concept, beroerde uitvoering!
.@kevinblom1974 die bij de doellijn moet bewaken is toch een beetje als die de keeper in moet schieten
wijnbarretje!
noem het maar een opoffering...
vreemde vogel!
check! werkt uitstekend!
geen twijfel meer bam!
zouden die italianen niet gewoon last hebben van hun maandelijkse periode en zich daarom zo aanstellen?
wat een schitterende quotes van in oa ajax supporters zijn succes supporters 😂
het is toch psv zenit en niet andersom? 😄
de dag beginnen met dan weet je dat vrijdag de 13e geen ongeluksdag kan zijn
super! bedankt voor de snelle reactie!
kan er vanavond weer volledig getraind worden? inclusief trainingsstrook?
was er dan ook een andere medium om dit van te vernemen? staat namelijk ook niet in de nieuwsberichten aswh app
zo blijkt feyenoord toch ineens op het laatste moment een scorende spits gehaald te hebben...
nog gefeliciteerd paul!!
betekent volgens de engelse stijl fluiten dat je helemaal geen fluit mee neemt?
in ieder geval stukken beter dan die gekke blauwe polo 😃
.@gersermedia en geert wilders die dan zegt niemand kan de waarheid nog ontkennen... huh?!
help ons de nationale business succes award te winnen. sms nbsa 4763 naar 4422 gratis. alvast dank!
stop maar met kijken... martine is onbetwist de mol!
de rising star blijft maar doorgroeien... het allerbeste voor 2015 linda!
leuk hoor dat maar die slechte woordgrappen en foute playback acts van beginnen nu toch behoorlijk te vervelen
.@raemonsluiter de koning van de woordgrap blijkt zowaar de keizer van de kwetsbaarheid!
wat is er met aan de hand jonguh?!
proost! dan doen wij m vrijdag! 😃
top! dacht dat het al bekend was eigenlijk...
sinds de nieuwe ios versie kan ik nog wel de app openen, maar geen enkele functie reageert
wanneer gaat de aswh app het weer eens doen?
... een klacht? dan moet u toch echt bij dat groene, zwarte of paarse logo zijn! wij zijn dat rode logo.
ook in de premier wordt dus weleens een foutje gemaakt
ook op texel zijn er bedrijven die niet meer om heen kunnen!
vandaag acte de présence met voor de integratie met
.@raemonsluiter overdrijft wel!! zo goed was je als tennisser nou ook weer niet! 😜
heb jij in principe dan een uber plekkie beschikbaar?
behalve dat dat natuurlijk erg gezellig is is er ook vroeg ik me af hoe jij dat logistiek doet... 😊
ga jij toevallig vanmiddag nog naar je stamkroeg in cruise terminal?
lol! al twijfel ik wel over dat niets meer aan doen
een dating programma met jou in de hoofdrol lijkt me een ware succesformule en een naam heb ik ook al wie lindate? 😃
poging 2 zonder spelfouten! 😄 mag ik je een suggestie voor een nieuw format doen?
ik zag t inderdaad incl. foto van de aanhouding bij t perenlaantje op twitter
haha! thnx voor de tip!
ff checken dan... nog niet gezien! ja 94 is de begane grond van die appartementen bij mij aan de achterkant
shit zeg! ben nu onderweg naar huis..
.@robherfst zo die hebben een aardig midgetgolf parcours voor de deur liggen 😄
ben je dan binnenkort wel weer eens op de buis te bewonderen?
grote jongen! vooral houden zo!
haha! wel uitdelen niet incasseren... loser!!
zegt de man die ogenschijnlijk zelf een scheiding van oor tot oor heeft...
en ik meer van het vorige, of bedoelde je dat niet? 😃
ik wacht met smart op een docu over jou! 😉
en dan ongetwijfeld bij een wedstrijd tegen afc of ajax amateurs uit
de straf voor ajax als gevolg van de ongeregeldheden tijdens de bekerfinale wordt zo wel heel relatief... sv urk uit!
touché!
dat is als een dikke vrouw die zegt dat schoonheid van binnen zit
vanwege de winst kansen dan toch zeker? niet vanwege de sfeer en entourage...
dat gebeurt in de regio de laatste tijd helaas wel vaker dat de best spelende ploeg niet de punten krijgt...
zou onmisbare schakel al door in het zonnetje zijn gezet?
zoek de woorden authentiek, nederig en dankbaar in het woordenboek op en je treft als verklaring
.@mkrabby slechts een kwestie van aftellen totdat die enge raymond verheijen weer van zich laat horen
.@fcdordrechtnl aswh 5 heeft helemaal geen budget en ook al 3 punten...
hahaha die martina als aanvoerder van twente voor de camera wat een lachtertje!
daar kunnen ze idd nog wel een fatsoenlijke keeper gebruiken
gaat er met de komst van vermeer ook nog een feyenoord keeper verkocht/verhuurt worden? 4 keepers is wel wat veel toch?!
haha in dit decor dan toch wel enigszins overdressed 😉
.@paulkock waarom speelt psv met rouwbanden aan beide armen?
de opnames voor de bij zijn in volle gang!
verrassend! terwijl de technologie meer kansen biedt neemt het aantal thuiswerkers nauwelijks toe, via
als ie er 3 zou hebben gewonnen, had ie ook niet verloren
.@paulkock ze blijven in eindhoven dus bouwen aan een vreemdelingen legioen?
mag ik je id dan even zien?
kijk je uit dat je niet gebeten wordt?!
willem icoon van feyenoord, maar tegelijkertijd de het glas is altijd half leeg man. pfff!
wel lachen met zon achternaam en dan vliegen via londen ! 😄
ik moest ineens terug denken aan ilse en waylon... kenners in de sport en muziek bestaan dus echt niet!
wat een sfeer en wat een ontlading na de bevrijdende 31 van korte
en dan is het nu wachten op de fotos van een dronken
toch scherp opgemerkt “@adsportwereld uefa kijkt naar lege plekken bij finale europa league via
ik zie dat we zelfs naast elkaar zitten! tot zondag!
als nummer 2 in de rij ook geen spijt ruim op tijd aan de kassa te zijn gaan staan! fijne wedstrijd alvast!
is een digitale kopie van een legitimatie bv. op een iphone voldoende of moet dit uitgeprint zijn?
.@aswhcside als het seizoensverloop van enigszins zou lijken op dat van sparta tot nu toe, dan is er nog van alles mogelijk
nou ja, dat is toevallig! ik was vanmiddag ook in scheveningen...
jij kunt een hoop hebben, maar die jurk.....
.@rtctaxi de klacht is voortreffelijk opgepakt! namens opa bedankt voor de gigantische bos bloemen en flessen wijn!!
bedankt voor de slechte service! niet op komen dagen bij een reservering omdat het zo druk is door de bekerfinale... opa en nu?
aan een biertje in t zonnetje!!
jij staat gelukkig bekend als de tweede enrique iglesias, dus dat komt vast goed cc
dan zal binnenkort vast ook nog wel naar krakau gaan
een blinkende auto en met minder geen genoegen dankzij
rodney kongolo op zn 16e van naar , die speelt dus binnen 5 jaar alsnog eredivisie alleen dan bij
er zijn dagen dat ik minder balcontacten maar meer tegendoelpunten heb
en, hoeveel staan er op je telraam?
misschien dat we bij toch eens de wijze van facturatie kunnen heroverwegen
ik vond je al de knapste programmamaakster van de vaderlandse tv, maar nu ben ik helemaal verkocht!
wanneer gaan jullie, net als de andere providers, fox go toevoegen aan de fox sports abonnementen? het tarief is tenslotte hetzelfde
wat zeggen de voorwaarden van je annuleringsverzekering hier over?
meteen ook maar weer stoppen met die samenwerking is mijn advies!
wat is het nieuws achter deze tweet?
wow!! wat een geweldig eerbetoon van aan de overleden voorzitter van hhc, met een voor iedereen diepere boodschap!
hmm... toch niet zon goed verhaal?! schijn een lichie gaat zo wel als een nachtkaars uit
dan zal de arena de tweede helft wel leeg zijn...
op de milieustraat misschien? 😃
het was zelfs 800.000 keer en niet door wehkamp maar door neckermann. onze thomas was zn tijd ver voorruit...
haha! offcourse! wehkamp kocht 10000 exemplaren van zn eerste single en schonk die aan haar klanten...
het is natuurlijk één grote farce die hitlijsten, maar weet jij dan bijv. ook hoe thomas berge zijn eerste hit scoorde?
dat zou pas een prestatie zijn, als het zaterdag bij de ploegenachtervolging ook weer een clean sweap voor zou worden
en... hoe voelt het om als lady gaga in de dop wakker te worden? 😃
niet?? bij deze dan!
niet doorvertellen dat ik je betaald heb voor een retweet! 😃😉
tja.... als de liefde net zo makkelijk te koop zou zijn als een hit in de top 40
ik zie dat je al huwelijksaanzoeken krijgt.... shit! te laat!
uitgelekt?! stond gewoon in de krant 😃
😂 “@despeld goud alsnog naar ronald mulder babys kort na geboorte verwisseld
de parkeerkosten die ze bij de hmh dankzij jullie moesten maken moeten toch ergens van betaald worden
helemaal eens! maar gekke kakkies?? dat is toch wel beneden jouw niveau!
ben je ondanks die helm van de week toch iets te hard op je hoofd gevallen?!
daar zijn ze dan wel consequent in want wout noë gaat eigenlijk door het leven als wouter noë weet ik uit betrouwbare bron
leuk dat jij twitter eindelijk ook eens hebt ontdekt
jij bent zoooo leuk!
mooie quote van in feyenoord is net als vitesse een club van eerst geloven, dan zien
nogal typisch, maar ondanks de mail van dat de verzending is vertraagd stond er toch iemand met een doosje voor de deur 👍
gevalletje wel woorden, geen daden van en de kerstcadeaus bij nader inzien toch niet voor kerst kunnen bezorgen...
....noemen dat de aswh aanhang al 747 euro heeft gespaard wat vervolgens in de tussenstand als saldo achter ifc staat... 2/2
wanneer worden we nou eens wakker?! op de site bij een tussenstand van een of andere spaaractie 1/2
ik ben gelukkig uitsluitend aangenomen om de spelling te controleren en niet de inhoud
ik twijfel nog, maar warme ballen krijgt zo wel een heel andere dimensie...
denk jij dat ze echt zijn?
de als voorzitter? dan zal er zeker een frisse wind waaien... of beter gezegd een orkaan!
misschien een rol als eindredacteur wat voor jullie?
als de vragen tijdens de aswh voetbalquiz nou net zo makkelijk zouden zijn als bij zou het een makkie worden
volgens mij vergeet iedereen of wordt het bewust weggelaten dat op diezelfde foto ook gewoon een bestuurslid stond...
de wonderen zijn de wereld nog niet uit
ajax supporters worden dan wel bioscoop publiek genoemd, alleen heb ik nog nooit iemand voor de aftiteling de zaal uit zien lopen
“@ajaxlife stoeltje 63 van dommelen
dan komt toch weer dat clublied om de hoek kijken....
dat jullie zon gefrustreerd persoon een podium geven.... kan de open deuren alvast uittekenen
zou thijs slegers weten dat ie voetbaljournalist is ipv mode ontwerper?
aan de andere kant de een zn dood....
als cor netto nou nog had geleefd hadden we zeker een andere winnaar gehad!
til bal 2013 krijgt een stofzuiger als prijs
wat een geweldige prestatie van
zijn er nog kaarten te krijgen voor vanavond?
bij uitstek jullie beste observatie! zagen jullie dat alle 4 of zijn jullie weer met zn drieën?
spelregel vraagje aan de kenners van de , beiden keepers in het zwart, mag dat?
column voetbal is oorlog, geen carnaval zo is het maar net!
wat is dat nederlands elftal publiek toch een vreselijk volk! lijkt thialf wel...
en wat te denken van skils met één l en jopie om een oud speler en huidige assistent van het 2e te omschrijven...?
hoe is het toch mogelijk dat in het nieuwsoverzicht in de aswh app steevast tenenkrommende spelfouten staan??
dat ziet er ook wel uit als een hele makkelijke put... beetje downhill, slope van rechts naar links
tegen het 19e van wds hadden wij met het 5e vast ook gewonnen
stefan postma heeft op dat vlak niet aan het imago van keepers bijgedragen, maar daar distantieer ik me ver van!
alsof mannen geen shownieuws kunnen kijken... dan ben zeker meteen homo?!
mooi dit... evert santegoeds zegt in shownieuws ik ken geen homo die voetbalt, dus gijp kan best een punt hebben als je het zo bekijkt.
als jij jezelf tot de nieuwe lichting rekent is dat maar goed ook...
.@aswhfacts de beste stuurlui...... daarmee heb ik meer dan genoeg gezegd!
als we iedere week de column van van hanegem zouden analyseren, wie zou dan de wedstrijd opendeuren intrappen winnen?
het vindt de borsten van zo bzndr dat het item zelfs 2x in het nieuwsoverzicht staat ?
nondeju... jij hebt ongetwijfeld ook gezien dat bruma nogal een eind verwijderd is van het nederlands elftal?!
denk je aan het begin v/h nwe seizoen eens leuk te gaan vlgn, blijkt het een aswhjeugdbeleid basher zeikerd te zijn
lekker hoor in je ééntje kopoverkop, in een waaier en op de kant. gelukkig wel een goeie waterdrager
pfff.... je zal er als man maar 4 weken tussen zitten
“@bartquist denk dat jij wel gaat kijken eerste namen expeditie robinson bekend ”
ask roger! zoekt nieuwe rogers!
steeds weer opnieuw kippenvel van enkels tot kruin bij het verhaal van michel
wel consequent om zowel op facebook als op twitter vrijwilligers foutief te schrijven....
wat besteld bij je eerst al vooruit betalen,moet je ook nog eens zelf voor de retourverzendkosten dokken zóóó 1999...
vlgns mij vond de gemeente het risico sowieso te groot, ook met draagvlak, anders is het een politiek besluit ipv principieel
vlgns de kromme heeft feyenoord slecht verkocht aan de achterban... huh? de gemeenteraad heeft toch tegen gestemd en niet de achterban?
het blijft een lastige discussie vanwege de sentimenten, kijk de discussie van gisteren op tv rijnmond eens terug
geen nieuw stadion geen nieuw geld geen nieuwe ambities geen vooruitgang
de jeugdopleiding van psv zit duidelijk niet in eindhoven!
pure verwennerij na hole 9
je zorgt bij en mij wel voor de vakantiekriebels! ga vooral zo door!!
check! ik volg al op fb, blijkbaar post ie al het moois alleen op twitter
weten jullie inmiddels wel hoe je foutloos schrijft?
facet accountants en adviseurs kiest voor clouduc van ask roger! facet uit capelle aan den ijssel kiest voor 50 gebruiker voor cisco ip tel…
de clubs zijn gepoetst, het weer is goed klaar voor
vandaag weer een goede les gehad, klaar voor
speciaal voor de dag een mooie nieuwe cartbag en putter gekocht!
koop je een tv met oa wifi internet blijkt de wlan usb adapter nergens meer te verkrijgen.
genieten 60 tegen nw lekkerland en nog 10 min te spelen.
wij zijn er klaar voor! zet de yagermeister maar vast koud...
ik ben bang dat het na dit weekend al weer op is
lekker hoor 380 eurotjes winnen in het casino!!
zo zie je, met keepers kun je maar beter geen ruzie zoeken...#lol
wat nou voetbal international?! zeg maar gerust voetbal 020... wat een gejank!
vandaag te gast bij voor twee themasessies cti
wtf?? feyenoord binnen 20 min. op 30 achterstand... ik kan niet kijken, wat is er aan de hand?
lekker zeg! dag vermeer!!!!
klinkt als muziek in de oren zon fluitconcert
houdt jij me dan op de hoogte?
nederland 1,2 en 3 staan al een uur op het zelfde beeld. storing in ambacht? en over 20 min. begint cl... $#%&
toch wel een mooie stand!!
voetbal international zonder van der gijp en hansie hansie is eigenlijk gewoon een ouwe wijven praatprogramma
na 2 uur eindelijk van de parkeerplaats en dat voor 14 euro...
succes! bij mij zag het er zo uit
wat is er met de onoverwinnelijkheid van het 2e gebeurt?
de tijd zal het leren!
wij staan bovenaan, wij staan boven aan!!!
watching de dino show, schitterend!