no dat is ziek man
terecht.
wat is verstandiger 4 of 5 aug vanuit zuid frankrijk naar nederland rijden.
dat die lekker gaat. een beetje met ajax praten.
en heb je al een fiets te leen gekregen.
bagger zeg.
pffff wat een voetbal nieuws allemaal dit weekend.
je hebt het verdient.
zet vet man. heb zo genoten van je.
zo hoer nog iemand die super blij is. hij is gaaf
lekker hoor dit weer.
en we blijven luisteren.
het was een fijne voorstelling.
nieuwe wet over wapens in stadions arkansas stuit op weerstand
mijn speler van de week bij voetbal inside is tonny vilhena via
wat een jankerd
10 goed alle franse ploegen fout. hahah
russen bombarderen per ongeluk vscoalitie in syrië
tweet gewoon uitslag staat online.
zo een vette foto.
ik speel kamergotchi en ik moet voor tunahun zorgen. kamergotchi.nl
super voorstelling gezien van sleurt je van de 1 naar de andere emotie. 👌🏼
resident evil extinction 2007 lekker ontspannen filmpje gekeken.
voor mij me eerste mooie feyenoord dag.
ik had een score van 128 in de categorie assistenttrainers
slechte verliezer die holm
nee denk het niet.
resident evil apocalypse 2004 lekker filmpje kijken
mijn speler van de week bij voetbal inside is elvis manu via
uitleveren elisabeth overakker in breda
doelman vermeer houdt de nul bij rentree.
mijn speler van de week bij voetbal inside is nicolai jørgensen via
lekker buiten parking arembergstraat
zondag ochtend in
zou zeker goed zijn.
lees dit artikel uit voetbal international ‘laat mensen maar denken dat ik dom ben’
en de kleine is weer op school. nbs de hoogakker locatie blokmoeren
zintouch devices uitleveren. namens de amarant groep elisabeth overakker in breda
lekker aan het werk. innovatiecentrum imagine in breda
en weer lekker buiten.
hij was gewoon nice
lekker wat gewandeld.
lunch samen met vriendin van school was weer gezellig.
goeie tweet.
ja ook hier hebben we
lekker fietsen met de kleine man.
laat maar zitten.
toch gestemd op
ik ga zeker weer luisteren. greets joost
rechtsonder miss niks
heel veel succes. bagger hoor.
wow vet man. het is je zo gegund.
zo sinds lange tijd weer een combo gemaakt. fra en dui op winst. lijkt goed te komen.
komt de app weer in het nederlands?
ik ben voor feyenoord tegen roda jc kerkrade.
foto van rottergram gaaf.
deze moeten die stakkers lezen. als ze dat kunnen.
aanklager onderzoekt incidenten bij ajaxfeyenoord
naar woezel en pip.
verdachte kenneth vermeerpop weer vrij via mag hopen op grotere straf dan alleen stadion verbod.
jens toornstra ik ben niet iemand die onrust stookt en dat geloof ik. go jens
sukkels
jij snapt het dit zijn inderdaad geen supporters.
dat zijn geen supporters.
alkmaar blij dat ik hier niet voor thuis ben gebleven.
lekker ff kijken.
ik ben voor.
komt artikel nr 69857764 nog terug in de webshop?
het had ook slechter kunnen zijn.
grote amerikaanse moslimorganisatie ontvangt poederbrieven via haat met haat bestrijden.
doet me aan een mooi dak denken in
gedaan
minuut stilte parijs verstoord op nederlandse scholen
lekker gefietst vanmiddag.
back to the future zat er vaak naast, maar voorspelde ook veel goed
de ongelijkheid is weer wat groter
waarom zijn er zoveel strips uit de app verdwenen?
tof verhaal wat je wegzette erg inspirerend.
gezien. check
dan blijf ik lekker via internet en twitter lezen.
bekertreffen met ajax op de tocht voor kramer. zou zo niet terecht zijn.
126 opgepakte ajaxsupporters vrijgelaten /via mmm fans. jaja
waarom kan ik jullie app niet meer vinden.
pcies
peter via
sagan wil wereld inspireren met wkgoud in richmond. top gast toch die
meer dan gegund.
bizar dat ze die tweet net nu eruit gooien. 😉
toppie.
bol heeft het er gelijk moeilijk mee, ga hem aanschaffen valt bol weg hahah
tom dumoulin een wereldster in wording /via
komt er ook een ebook. of heb ik die gemist?
komt het boek de snor van józsef kiprich ook als
zou ze graag in 1 app houden. kan ik ze niet overzetten naar yieha
komt die niet meer in amoras app ipad. daar heb ik de eerste 4 wel.
vader geeft pedofiel pak slaag ik hoop dat elke ouder zo zou handelen ..... helemaal goed. trots op jason
wanneer is deel 5 te downloaden op de ipad app?
dorp betaalt begrafenis van superaardige asielzoeker
al gebeurd. bij me zoontje van 1.
om die reden ben ik na aflevering 1 gestopt.
nog ff rustig tour kijken op voor de latedienst.
chileense commentator gaat uit zijn dak na winst copa.....
zo triest. kleuters zijn het.
houd maar vast tot dan. 😉
prima lijkt me.
helaas bij mij niks binnen gekomen.
hij is nu nog beter.
mooi leuk stukkie
waarom al bedrag noemen feyenoord. laat lekker op bieden.
gaaf
niet normaal.
ik ben alweer lekker aan het kijken.
dat is mooi nieuws.
topsalarissen in de zorg opnieuw gestegen .... belachelijk
mitchell van der gaag nieuwe trainer fc eindhoven ... gun ik hem. mooi interview laatst in
netjes hoor
leuk om te lezen.
vader slaat gewapende inbreker knockout ..,,,
iig is de ruimte en tijd niet voor genomen. belang niet tijdig ingezien.
ja hoor en bedankt voor de goede snelle hulp
“@fkrotterdam 20 achter. geen bezieling, wel onterecht rood. schandalige vertoning, al weken. schaam je diep.
vraagt die om silverlicght op de macbook
ik kan niet inloggen op de pc???
tis wat met die maffe russen.
dappere treinreiziger gezocht die leven van vrouw redde in trein den boschutrecht
met je bek.
zo weer vroeg eruit met de kleine. maar zo lekker naar kantoor. voor de eerste keer in me nieuwe werkplek.
tweetbot aanschaffen en het is opgelost. beste twitter app.
nee niet blij met roze denk. hahah
niet gezien hoor. dus roep maar iets.
of blij met ???
niet extra’s maar korting.
prijs , info op site. en betrouwbaarheid aanbieder.
wakker en nu rustig die achterlijke pot van gister verder verwerken.
zo ie zo beste twitter app
kak toko tot de nok vol. toch op de woning eten.
die van mij uit eten. goed begin van de middag. 😉
hij is nice.
mooi met overwinning afgesloten.
lekker spelletje doen met de kleine.
dieven stelen caravan met slapende man ....
super gister besteld en vandaag binnen
helaas aan het werk
missie geslaagd.
hij is goed. aanrader.
. zo maar eens een tof shirt besteld. leuk leuk leuk
dat is wel zuur hoor.
man ik zit alweer een uur beneden met deze draak.
dat is beter dan.
zeker haalbaar.
vandaag doe ik de volgende combo.
doe je netjes. mij al ff niet gelukt.
gefeliciteerd
“@jdecologne voor patrick ” …
“@iculture nieuwe tip rechthoekige foto’s op instagram plaatsen met instasize ” …
achabar gewoon. prima.
lees dit artikel uit helden we zijn een goed team alle succes toegewenst.
het is vandaag weer deel 1e of 2e pagina van je idevice en volg de hashtag!
die ga ik gelijk ff aanschaffen en lezen.
zo vandaag lekker een dagje voor de latedienst begint.
ted 2012 zo toch ook maar eens kijken dan.
ja ie moet er wel ff inkomen.
ik vond wel heel tof.
ik vond beter. maar hij wel leuk. en kort. dus weer snel klaar.
ik heb hem in mijn lijst staan. eerst afkijken.
blij dat ik moet werken. bespaar ik me mijn oranje papa rol.
rusland stuurt twerkende vrouwen naar de gevangenis... is gek
pffff waarom zijn die kinderen altijd zo vroeg wakker. 😖
was niet om aan te zien dus nu maar kijken op
iig niet
bijzonder.
vandaag lekker met de mannen op stap. en de vrouwen thuis bij de kinderen. 🎉
episode s04e10 of game of thrones gezien. op naar seizoen 5. via
eerst moet ik 4 nog afkijken.
ik ook zo.
echtgenoot ronald 94 sterft 48 uur na miriam 95 .... nou nou wat een nieuws. had ik de krant ook wel kunnen halen
pijnlijke paspoortfoto actie voor gehandicapte wendy...... goede actie
isvideo toont volledig verwoeste stad nimrud.... man dat is nog geen dorp.
en weer aan het werk. maar wel client met gelukkig “@fkrotterdam matchdaaaaaaaaaayyyyy!!!!!! ”
heerlijk voetbal en kijken.
na een ochtend klussen n en rondom huis nu kijken.
“@keesjansmanl velen doen sceptisch over terugkeer valt best te begrijpen, maar kuyt zal als altijd slagen
heeeeeeel mooi man. zeker met deze betekenis erbij. ik heb hem ook voor me kindjes. want zeg nooit nooit.
hopelijk op je arm. net als ikzelf.
heerlijk lekker in de tuin. dit mag wel zo blijven van mij.
nieuwsgierig… wel goede shop
“@iculture tmobile verhoogt bestaande databundels door ” nice
ik kan er ook wel van genieten hoor. mooi puur mens die
“@fnetwerk kazim neemt het in kleedkamer az op voor luckassen groot man die kazim 👍👍👍
“@mikosgouka de laatste zeven treffers van exclusief eigen doelpunten staan op naam van anass achahbar 4 en elvis manu 3.”
“@foxsportsnl goal rasmus lindgren scoort van dichtbij de 10 voor groningen bij vitesse.
.@jvv2 is zojuist een level omhoog gegaan naar lv. 64 in trivia crack!
taken 3 2014 lekker filmpje kijken
videograp van wiskundeprof gaat wereld over
anass wil in de kuip blijven, maar alleen bij duidelijk plan... bijtekenen man.
ruim 3,5 miljoen tvkijkers voor the passion... ik heb er van genoten. en maria was idd lastig te verstaan.
vandaag weer vroeg dag dankzij de lieve kindjes. en dat op je vrije dag. haha
zo ff lekker kijken.
1 april wie verzint er zoiets achterlijks.
nee want deze komen uit adam
fifa kiest voor hawkeye bij wk vrouwen in canada.... nou nou doe maar hoor
eens “@jdecologne stelling kopschoppers moeten gevierendeeld worden.”
kopschopvideo groep belaagt leeftijdsgenoot
lekker s03e01 kijken. thanx voor de tip
komende dagen kans op hagel en natte sneeuw nee daar hebben we zin in. 😡
ja hoor. vanavond weer verder kijken.
bedankt.
wie zend het uit mocht het doorgaan.
“@frmartijn kostas is een feijenoorder! ”
die heb ik al. staat die daar op dan. ga zo eerst eens kijken.
zo net ff fietsen gepoetst en wat telefoontjes gedaan dus nu kijken s02e13
“@studiosporf ‘dus.. ons stadion zit nauwelijks vol. ons voetbal is niet om aan te gluren. laten we de prijzen omhoog gooien!’
hij moet niet willen spelen. straks loopt die nog een blessure op.
gefeliciteerd
gefeliciteerd
“@tikkieterug ”
.@jvv2 heeft zojuist een spel gewonnen van martijn van gool in trivia crack!
laten we trivia crack spelen. mijn gebruikersnaam is jvv2.
zo die vermaken zich wel ff. kan ik genieten van me koffie.
“@jdecologne kunnen we even optyfen met die reclames aangaande affaires beginnen? dank u.”
ken het. zelfs hier op vakantie moet ik er aan geloven.
kapot gespannen voor
sterkte
laten we trivia crack spelen. mijn gebruikersnaam is jvv2.
of in te spuiten.
nou rome gaat vanavond pas echt kapot denk. haha.
krijgen we een leuke club terug.
dus morgen de tuin bij schoonouders doen. en dinsdag me eigen tuin.
. die van mij is ook net begonnen.
wat is het weer minimaal.
van geel scoort punten bij mij vanochtend. al vond ik hem al niet slecht.
het stadiondossier zit vol met manipulatie en intrige ad.nl
zo weer hard gewerkt. en nu lekker het slaap gedeelte van de slaapdienst. morgen nog door tot 1200.
“@markla94 ajaxjeugd timmert aan de weg” haha scherp hoor.
agente mishandeld door drie jongens in amsterdam via ws 020 bij ons hadden ze het zeker wel vernoemd hoor.
. ziet er goed uit dat
kijk dat is een antwoord op mijn vraag. thnx
ik kan geen apps downloaden. kan geen verbinding met itunes. liggen ze er ff uit. of doe ik iets fout.
ook breda wil verstoppertje spelen in ikea 1600 aanmeldingen op facebook doe normaal
kazim bezoekt wonderdokter voor interland tegen oranje via
vroeg eruit weer. maar vanavond naar american sniper 2014
mooi leeg vol stadion inderdaad.
aanstaand feyenoorder kuyt held in turkse topper we zullen zien.
vandaag lekker een dagje
twente trots op schulden ‘nu horen we bij de europese top’
schade door feyenoordbezoek ruim vijf miljoen via italianen
zo lekker koken. dan heb ik straks alle tijd voor visite en de kindjes.
zo die is lelijk hoor.
guidetti staat open voor rentree in de kuip met en en dan 442. 4 man voor twee plekken.
“@archiefhees ze tikkenin eindhoven tijdens rellen een ventje van 6 het ziekenhuis in, geen woord in de media het is te bizar voor woorden”
echt rot gewoon maar voor de wedstrijd op. rare keuzes weer.
ik heb een geweldige nieuwe baan. maar werken onder wedstrijden van blijft een groot minpunt. 🔴⚪
moet je die hebben voor assistent
of mathijsen als assistent van van gastel. coaching mathijsen viel me tegen roma al op.
zo een bizarre uitvaart gehad. en nu weer gewoon aan het werk.
nee laat maar was niks bijzonders.
juichen binnen de lijnen. scheids zeker de 11 en 21 ogen dicht gehad.
ben er weg van.
stond op het veld te juichen.
ik ga slapen. hoop ik. morgen belangrijkere dingen. van een oom.
“@rvm1908 waarom heeft de deze wedstrijd nog laten spelen? vul dan gelijk de uitslag in! bizar hoe dik dit er bovenop lag”
ach ja ik ben nu ziek van da scheids en niet van de griep. 🔴⚪feyenoord 🔴 ⚪
“@pierrevh17 is de rekening nu verheffend uefa ? mr turpin, you were a disgrace!
“@vinl het even bizarre als turbulente duel tussen feyenoord en as roma in beeld ”
te pijnlijk dit. verliezen maar niet van je tegenstander maar de k scheids. 🔴⚪feyenoord 🔴 ⚪ for ever
helemaal eens. waarom kijk ik eigenlijk. “@mariekeverhulst jeetje, wat een ontzettend waardeloos commentaar bij
man ziek op de bank. stijf van de zenuwen. kom op 🔴⚪feyenoord 🔴 ⚪
fucking kippenvel moment. nu weer.
man ik ben gewoon strond zenuwachtig wakker geworden.
en succes met de zieke boeg
o nee nog lang niet binnen. maar wat zou het gaaf zijn.
had ze niet eens moeten willen hebben natuurlijk.
denk dat hij ze niet eens mee wil. haha
teken ik voor
mmm wel bijzonder inderdaad. gewoon rechtsback
nee zeg dat wel. maar ja risico van het vak hé. 😝 vaderschap vak dan .
zo thuis van de nachtdienst. en ja hoor we gaan weer verder met kots ruimen. vrouw en kids ziek.
ziekenboeg rens krabbeld langzaam weer op. dus zo toch een slaapdienst draaien.
wat een kut pot is dit zeg.
nooit zijn sterkste punt geweest. scoren tegen 020. bedankt armenteros.
op de bank met ziek zoontje. inclusief snee in ze voorhoofd. wachten aftrap
beterschap
uefa geen maatregelen tegen feyenoord en terecht. mensen in stadion top gedaan.
appen over bijzonder project we ruilen door tot een miljoen
feyenoord gaat rutten ultimatum stellen via rot gewoon
de clubvoetballers, waar o waar zijn ze toch gebleven? via
en? wie vinden ze. ik denk mmm mmm type stevens
vandaag graag die punten mee naar en dat moet ook gewoon kunnen.
schutter north carolina had een arsenaal in huis /via trieste kerel ben je dan hoor.
bah ben ik tegelijk jarig met deze kwal. “@vinl ook jarig vandaag memphisdepay. van harte! ”
ik vrees dat je gelijk hebt rob.
“@wzfeijenoord nu op wzf milan afschaffen van achterlijk hoge prijzen |
net nog verlengd bij zwolle
duitsers filmden verwoesting rotterdam /via
3 punten voor maar ik heb er niks aan gemist begrijp ik uit mijn tl. 🔴⚪
dan blijft er niet veel meer over.
. ha het werkt wel iig nu nog kijken of er tijd voor is.
zit hier met 7 nieuwe cliënten dus ga wel iets proberen. maar vrees dat er geen tijd is. fijne dag met drie belangrijke punten
ik werk in de zorg en net een nieuwe baan dus ik vrees beide geen optie. dan maar telefoon supp. vandaag. 😥