uhh nee , ziet er nou ook niet echt lekker uit
tsja als je ze zelf niet maakt🙄
amrabat weer met een assist op de tegenstander
ja joh, gooi gvd bijlow maar is voor de leeuwen! jones keept al weken kut
pfff mogen blij zijn als we int linker rijtje eindigen, wat een dramatische instelling zeg
diks.... stuur m aub gelijk weg! wat een mislukkeling
waar is de strijd gebleven.. ze lopen allemaal of dat ze liever in dr bed hadden willen liggen🙄
ik word echt moe van dit feyenoord😑
nu krijg ik al voor de 5e keer post in de brievenbus die voor de buren bestemd is🙄 staat met koeienletters op 18 en geen 22 😑
diks centraal, ik hou mn hart vast🙄
nou geef maar eens een beetje gas bij feyenoord
gaat wel lekker zo, jorgensen, botteghin, vd heijden en kramer geblesseerd.. zondag maar vente in de spits
jaa gewoon amateuristisch! laat zn man altijd lopen, staat t liefst rechtsbuiten..
alvast stel je m geblesseerd op, dan doet ie ut vast nog beter dan diks, hoe kan hij ooit prof geworden zijn?
hopelijk raakt diks geblesseerd, wat een amateur
sta je daar in de cl, met fucking tapia op cv .. 🙄
wat een afgang
schaam je dood joh
ga gewoon 442 spelen, bilal eraf larsson erbij en vente naast kramer voor vilhena!
leer die bilal eens voorzetten oefenen, kramer staat gewoon voor jan lul in de spits
jezus feyenoord, ga eens gewoon voetballen ipv tikjes terug
diks weet niet eens wat verdedigen is🙄
tsjonge jonge zeg, diks nelom wat een prutsers
dus ik denk dat er 2 dingen door elkaar zijn gehaald .. kan dit opgelost worden?
het pasje is naar mijn ouders gestuurd ander adres en in de mail die ik kreeg, staat ook nog het email adres van mn ma
pas geleden een lidmaatschap aangevraagd, maar het is helemaal verkeerd opgestuurd! het enige wat klopt is mn bankrekening
ja zeker! hebben ze goed en snel afgehandeld
credits naar ! klacht ingedient, en de volgende dag al uitgevoerd 👍🏻 dankjewel
bedankt, heb het net ingevuld! hopelijk word er iets mee gedaan 🙏🏻
ja nogal, bedoel in zn eigen tuin dat boeit me niet, maar tis gewoon een vuilen donder! oerwoud 2.0,…
zo, net online een klacht ingedient tegen mn buurman die nooit thuis is hopelijk doen ze er iets aan!
goeie vooruitzichten toch😜
hoe kan ik een klacht indienen over over de stoep hangende bossen van de buurman?
en over 168 dagen zit je een week in de vossemeren😂😂
ik weet niet wat ik heb vandaag, maar ik zie alles positief in! zelfs met t onzekere in t achterhoofd! 👊🏼
was niks van te zien dat feyenoord, woensdag nog had gespeeld, fysiek zit t wel in orde
gio, stel kramer aub nooit meer op! toch raar dat je met 10 beter bent dan met 11
als je zo speelt, en zo blij bent tegen 10 man! zegt genoeg
knap hoor psv, 50 min met 12 tegen 10 en een aanvallend feyenoord!
kuipers de slechtste scheids uit nl🖕🏻
kuipers, wel heel makkelijk he, maar aan 1 club kaarten trekken! thuisfluiter
lekker adoooo
haha 😜 gebruik maken van de situatie heet dat 😜
kortsmit 👌🏻 2 pingels stoppen in 2 min tijd
hoe kan ik een klacht indienen tegen mijn buurman ivm dat zijn planten helemaal over de stoep groeien?
weer op de grevelingen, de laatste keer dat ik er was, ging ik met de ambulance weg😂 dus nu hopen op een betere dag 😜
ja idd, voelde me ook niet zo super dus dacht ga voor de verandering maar eens op tijd naar mn nest😜
lekker van 21.30 wat dus vroeg is tot 6 geslapen, en zo nog een dagje vissen en dan ist alweer weekend👌🏻
idd koen, zonder geld had city nooit cl gespeeld, 0 europese titels 😉 tegenover 3 van ons
hoe kevin de bruyne al die ballen neerlegt.. ook daar kan je van genieten, wat een speler zeg
dat houd je toch, is andersom ook zo 😉 maar geld maakt wel degelijk uit in het tegenwoordige voetbal
kansloos.. maarja geld maakt dus wel duidelijk een verschil😉
ik teken voor een 21 winst😏 als dat zo is dan kan ik dubbel genieten 💰💰
wel makkelijk dat de clubkaart naar mijn ouders is gestuurd dan naar mij ander adres 🙄
ook dat nog! heb tot nu toe nog geen slechte ervaring gehad, dat was bij de delta wel anders
lekker naar kpn gaan, ideaal.. opnemen, terugkijken en netflix via de afstandsbediening 👍🏻
moeilijker dan gedacht
keuzes maken is soms best moeilijk, deze niet! maar ergens doet t wel pijn😶
al 2 pingels moeten hebben
19 graden in huis... dat word dus ff de kachel aanzetten
vanaf zondag 6 wedstrijden in 17 dagen 😏 mooi maandje 👌🏻
even 2 pintjes er aan vast plakken? 😜
is die 020 killer niks voor ? 😏
40 min op t bankje.. wil t liefst blijven zitten 😅
eerste 3 punten in de pocket! verder mag t in vele opzichten wel vele beter
zometeen de auto starten en richting rotterdam👌🏻
oohja dat was ook nog een optie, vragen aan de journalist van yese😜 ik had het vermoedden al maar bedankt mitta👍🏻
als het na 90 minuten nog gelijk is, krijgen we gewoon verlenging of direct penalties?
word er bij een gelijkspel gewoon verlengd of komt er direct een strafschoppenserie?
wanneer gaan we jou zien op de world matchplay? 🎯
wat een sprint 💪🏼
jajaaa lekker groenewegen 👌🏻
heb hem gereset, nu werkt het allemaal weer! 👍🏻
is er een storing in yerseke? zeeland geen internet en geen tv op dit moment
gatverdamme wat een vies kutweer zeg.. niks doen en je kapot zweten🙄
aah oke.. ja weet niet of dat ook daarvoor goed werkt.. tussen tegels/stenen werkt iig prima
uhh lijkt me sterk.. staan gewoon in de advertentiekrant, ooh en tis behoorlijk prijzig, maar ik vind t goed spul
ik heb zon 6 liter pomp spuit, scheutje roundup en rest vullen met water
hier bij vd boomgaard, misschien bij agri ?
roundup , eerst je onkruid weghalen, dan round up en dan na 2/3 weken nog een keer met roundup doen
jup, moet er vanmiddag naar toe! echt heel irritant, hoor nu maar met 1 oor😅
straks weer fatsoenlijk kunnen horen.. al paar weken elke keer mn oor dicht na t slapen🙄 fucking irritant!
gaan jullie me nog helpen of moet ik andere stappen ondernemen?
krijg ik nog antwoord? anders ben ik zo klaar met jullie!
hoppaaa froome uit het geel 😏
pff sterkte nouri! wat een klap moet dit zijn😔 dit gun je niemand
gaan we er nog iets aan doen? ik betaal schijnbaar al maanden 2x per maand , en er word niks aan gedaan
pfff lekker, zit je linker oor gewoon dicht😑
wat een motor is de halve nederlander 😉 gefeliciteerd
nu al moe ! en de shirts worden er ook niet mooier op🙄
goh dat uitshirt was al maanden bekend! weer 10 minuten van mn leven verspeeld door zon kut filmpje te kijken
schijnt al vanaf het begin zo te zijn 😤 is toch een hoop geld zo
waarom word er kom ik nu pas achter 2 keer per maand geld afgeschreven? daar ben ik dus niet echt blij mee😡
dit gun je niemand, ook je vijanden niet!! hoop dat het goed afloopt.. sterkte
pffff... wat te doen, verveel me kapot! zou blij zijn als ik weer echt helemaal de oude ben
bedankt voor alles en veel succes in monaco 🔴⚪️
moeeeee! niet kunnen slapen omdat je overdag niks uit kan/mag voeren... 🙄
wat een verrassing😂 mn spellingscontrole staat uit 😜 je behriep wak bedoele di hit om😜
das altijd zo, follow for follow enz.. kreeg gister ook een dm, wil je mn laatste fotos liken 😂😂😂😂
wauw wat een verassing zeg dat thuis shirt 🤔
das mooi, rijd maar naar yerseke! zit toch in de ziektewet, dus dat kan je wel lettetlijk nemen 😉🔴⚪️
toch blijft het een laag bedrag! als je ziet dat die neus voor 27 weg ging🙄
heel veel succes bij roma, bedankt voor alles🥇🏆 hoop dat je ooit nog terugkomt! 🔴⚪️
succes bij roma rick , hoop je ooit nog terug te zien!
videoref.. wat een aanfluiting, hoe moeilijk moet het zijn😅
wat een ongelukkige val wel niet kan doen😤
5 dagen op de bank slapen, nog niet zonder krukken kunnen lopen, niet trap lopen, niet kunnen douchen... en zo fucking warm
iemand nog interesse in een nieuwe collega? heb er 1 in de aanbieding. is altijd moe, grote mond en kijkt het liefst hoe anderen werken!
beste internet?? haha, beste internet die de helft vd tijd niet werkt ja! ik ben niet voor niks overgestapt✅
vijver? mie van die hroate vissen?😜
dat er iets fout is gegaan bij de post? 2/2
ik heb de 22e 2 shirts besteld bij jullie, 23e mailtje dat het verzonden was, maar nu nog steeds niks ontvangen? kan het zijn 1/2
ja is goed, mogen we komen eten ook dan😜
zal ze zelf wel gebruiken denk ik😉 daar ist ook altijd warm binnen
haha idd! maar moet nog steeds wachten op geld van belasting! en vd week word het wel wat minder
ja dat wel maar ook zo ontiegelijk warm 😑
waarom ben ik nou altijd zo vroeg wakker🙄
welke staatsmongool steekt er nu vuurwerk af joh
oke😜
alles heeft te maken met geloof..
in welke wereld leven wij.. 😑
zo weer paar nieuwe shirtjes besteld bij 👌🏻👌🏻
een legende stopt ermee! op zn hoogtepunt met een hattrick en een schaal! jammer maar logisch ❤️❤️
rotterdam is vol... maandag ochtend, wat een club is dit zeg😄 geweldig!!!
rellen e.d komen vaak in t nieuws! maar dit is zeker wat feyenoord zo mooi maakt, ongekend prachtig! 🙏🏻
mja we zijn fcking kampioen!!!
pffff werken.... had liever naar rotterdam gegaan, mja kon geen vrij krijgen😭😭
wat een helden 😊
ik besef het nog steeds niet
haha nja hebben ze iig wat geleerd😉
spanning stijgt 🙏🏻 doe het boys doe het maak ons trots
ja mja beetje bewegen is niet erg! godver in die rij kon ik nie eens mn peuken uit mn broek halen
ooh oke.. ja vorige week was gekkenwerk 😂 godver 1.5 uur in die rij staan
nja beetje.. vorige week zag ik niks op die schermen 😑 achteraf niet erg maar toch
komen we glad nie door joh
wij nu😂
wij net bij philip plein shop
vooraan ?
waar zijn je
ja wie weet😜 zal wel druk zijn iig
ja , we hebben hotelletje 20 min lopen van shp! nu in de trein
lekker vroeg op de zondag, weinig geslapen.. spanning is voelbaar!
spanning! ... vandaag is de dag dat t moet gebeuren! 🔴⚪️
top, ga gelijk bestellen! dan heb ik weer een gaaf truitje erbij voor zondag👌🏻
als ik nu een nieuwe trui bestel, zal ik hem voor het weekend binnen hebben?
en dan een kramer, vejinovic , nelom enz verkopen.. paar jonge spelers verhuren..
eerlijk is eerlijk, van geel doet aardig zn werk! als je het team zo goed als kan behouden , met misschien nog wat echte versterkingen
vilhena die gaat bijtekenen, en volgens ad ook toornstra.. goed nieuws dus terwijl voetbalprimeur zegt dat toornstra weg zou willen😂
ik wil zondag van kruiningenyerseke naar rotterdam, rijden er geen treinen?
instagram heeft ook weer lekker zn kuren laatste dagen
mooi item van op rijnmond!
nu hopen dat ze vilhena langer kunnen vastleggen, en straks een paar goede versterkingen erbij.
kongolo tekent bij, goed nieuws! maar nog beter nieuws zou zijn als nelom zn contract laat ontbinden..! ik ben een beetje nelom moe 😉
sommige mensen snappen niet dat het morgen koningsdag is, en er geen vuilnisbakken worden opgehaald, en wat staat er voor de deur......
nou doe maar niet, komt voetballend te kort!
is het al 7 mei 🤔
heerlijk gevoel zo 😋
met een glimlach mn nest in😜
ja 20 min lopen van coolsingel! 79 mei, dus mochten we winnen, dan is maandag de huldiging.. ben ik iig vlakbij😜
hotel geboekt in rotterdam
komt er een officieel frfc kampioensshirt? 😏
haha of een treincoupe 😜
en dan zeggen halve kopstoot van locadia.. en niet laten zien dat kluivert ff een tik gaf
dat word een paar dagen vrij vragen over 2 weken😊
op weg naar weer een cup 🔴⚪️ ❤️
dat het nog maar 02 staat
ff serieus.. hoe fucking veel penalties krijgen die neuzen dit seizoen zeg🙄
kut heerenveen
3 punten gegarandeerd😉 met nelom speelt de tegenstander met 12 tegen 10 van ons
ooh ja ik weet niet.. zullen zien, heb ook geen kar vol nodig. maar heb niks geen drinken in huis
aah oke, ja wel relaxed mocht je wat nodig hebben! en aangezien morgen hier ook alles dicht is
aah oke, ja geen idee, kom er verder ook niet zovaak!
jup, iemand stuurde het net. en dat op zondag op pasen..
ah oke, dankjewel voor je reactie
weet iemand of er vandaag supermarkten open zijn in aangezien t pasen is
heb een mail gestuurd👍🏻
kan het kloppen dat mijn adres niet goed is ingevuld? hih is aangekomen op verkeerd adres
en maar wachten... 😖
klappen voor 020😲 dat mag alleen als ze verliezen😜
bedankt voor de reactie👍🏻
is de stort morgen open of niet? ivm goede vrijdag? alvast bedankt
gister bij dortmund, ontploffing bij spelersbus! bvb ballspiel verrein borussia 😜
wtf gebeurd er allemaal bij bvb
de tyfus
p16 naar p3 klasbak
ja dat geloof ik! maar ik zie het positief tegemoet! als je ziet hoe ze na zondag reageerden. en ik denk…
ja dat zoiezo, excelsior uit is ook gewoon een thuis wedstrijd .. we gaan t gewoon flikken😉 heb wel zin in een feestje 😏
zondag gewoon winnen daar en dan ben je echt een eind! uitgaand dat we de thuiswedstrijden gewoon gaan winnen😉en 020 nog naar psv
hehe, begint aardig te kriebelen hè
voortaan altijd maar door blijven drukken nadat je zelf scoort! in plaats van naar achter te lopen!
lekker eerste helftje zeg! nu tweede helft gewoon volgas doorgaan! hoop dat ze dat ook beseffen
ja kut! heel kut! maar we staan nog bovenaan, 3 punten en 10 doelpunten voor in ons voordeel! met psv020 nog op t programma..
samen met gae uit de slechtste wedstrijd van t seizoen, totaal nul inzet
willen ze wel kampioen worden... pff zo spelen ze totaal niet! kom op nou joh!!! speel nou eens met passie en strijd! onherkenbaar feyenoord
kom op feyenoord, strijd godverdomme
kuipers de 12e man van 020🖕🏻
gespannen, maar toch heb ik een goed gevoel.. maarja nelom in de basis🤔
tja, beter dan een goeie comedy😂
haha ja idd, ongeloofwaardig zooitje daar in zeist!
wat een heerlijke dag ☀️
de ziet eindelijk weer wat licht, na een poos te zijn geweest!
matthijs
zag het bij mij eerst niet staan, maar het is gelukt. bestelling geplaatst👌🏻 dank en een heel fijn weekend 🔴⚪️
ja ik zie het nergens mobiel geen kruisje of iets om te annuleren , vandaar de vraag 😉
nee dat niet. nu zitten er een l en xl in mn tassie😉 wil alleen die l eruit hebben, maar zie nergens waar ik m eruit kan halen
ja das ook weer zo, 1 open vlakte natuurlijk
goedemiddag, nu wil ik net een shirtje bestellen bij jullie, klikte alleen op een l ipv xl.. hoe maak ik…
jup en zowat aan de oosterschelde liggend 😉
ooh een echte labrador😂
leer bentley t aan, zoals bud de deur open deed 😅
aaaah echt een lekker weekend 😎
wat een heerlijk weekend 👌🏻
elke 020er gaat liggen bij een genomen corner... mietjes
geef een nieuw contract aub!! wat een super keeper , was weer zeer belangrijk vandaag
dit was niet goed voor de rikketik😅 maar de 3 punten zijn binnen 😁 🔴⚪️
wat een kutwedstrijd zeg... waar is die mentaliteit en vechtlust gebleven.. en wissel die nelom ook maar gewoon
waarom heeft nelom zoveel krediet? wat een aanfluiting
ik wil volgend jaar ook naar ahoy!! als ik aan kaarten kan komen😬😬
barney army!! wat staat hij te gooien zeg🎯🎯
ook voor t eerst dat ik gewoon een keer door kon rijden op de zeelandbrug 😅
tis anders niet te zien.
tja niet iedereen heeft zoveel te makken als jullie natuurlijk 😉
nou t zit meer in de rekeningen die betaald moeten worden en al betaald zijn.. &gt salaris &gt 2 dagen later.. doei 900 euro 🖕🏻
geen geld 🖕🏻
veel te mooi weer om te werken😂 t is dat ik geen tuinstoel hier heb...
dan ben je bijna in de buurt😜 momenteel op de grevelingen brouwershaven
geen woorden maar daden 😉
ga ik zeker doen😉👍🏻 goede sfeer is goed voor de club, en het ziet er altijd goed uit💪🏼 goed bezig mannen👌🏻
straks mezelf ff lid maken van 👍🏻 steun de sfeeracties💪🏼🔴⚪️
pas maar op, straks krijg je de gouden vuist van erwin beltman 😉😜
gewoon een ander bedrijf zoeken die wel klantvriendelijk is😉 heb je meer aan dan bij dat logus.. logisch 😜
haha, lekker klantvriendelijk!! gewoon negatief twitteren ed😜
haha ja, en dan zeuren dat de klanten onvriendelijk zijn..
hahah😂😂 bij de volgende eigenaar
hahaha nee .. mja ik ben geen betaler he😋 kom je waarschijnlijk achteraan t lijstje
en dan moeten ze nog mn muur naast mn dakraam straks zetten.. ben benieuwd wanneer dat gaat gebeuren
ja duurt allemaal zo lang he.. ze komen vandaag eindelijk laminaat leggen boven .. na fucking 5 maanden ofzo😒
en dan bezorgen ze tegels, midden op de stoep en hoepelen gelijk op 😐
jup, plus dat ik direct werd doorverwezen naar vlissingen 😅
leuke korte vakantie gehad!! volgend jaar gewoon weer met zn zessen + 2 🐶 😁
respect ray! en kop op, je speelt gewoon prima😉 jij kan nog steeds voor de prijzen spelen! keep your head up
wat een mooi persoon is peter wright! het is je gegund 👍🏻
weer lekker aan t vissen op zout water.. nja zoet en vissen ook geen probleem trouwens😂
wat speelde een geweldige wedstrijd! 💪🏼 word elke week beter!! make us proud 🔴⚪️
mn hart moet nog steeds zn normale ritme vinden! wat een spannende en heerlijke middag 🔴⚪️
dat je bij whatsapp nu ineens een story modus hebt 🙄 volgens mij heeft iedereen instagram of snapchat
heb ik al gedaan , hij zei dat sabewa dat doet
hoe zit het met de wozwaarde van mijn woning? krijg ik daar een brief van ? heb t namelijk nodig
nah oma zei toch, zet m maar in de schuur, kan die morgen mee helpen schilderen😂😂😂
stonden aan de deur, toen ze t woord jehova gebruikte heb ik m dicht gegooid😜
jan schaarie hakkie 👍🏻
haha, ja daar leer je t meest van! volgende keer laat je m maar naar centerparcs rijden😉 dan heb je t maar gehad
ja dat is zo! laat m maar beetje bob spelen 😉
ja maar das ook een oud beestje😜 ik heb natuurlijk een sport uitvoering en dan is je koppeling best strak 😜
ah oke,ja en iedere auto rijd en schakelt anders! weet zeker dat je in de mijne amper wegkomt😜
mwah dat viel wel mee, t enige is dat een diesel soepeler schakeld
lekker veel vertrouwen zeg 😂😂😂
als die ajagun nou gewoon een paar rechte poten had ipv kromme😅
20 👍🏻 goed spelend feyenoord! 2e helft doordrukken en nog paar goaltjes prikken
haha heel toevallig, links achter die boot dat is de loods van mijn baas
jup.. lijkt me wel handig dat er iemand naar kijkt die er verstand van heeft
nee maar toch is t vervelend😉
herkenbaar, had t paar dagen terug ook telkens😤
weet er iemand een goede betrouwbare/betaalbare in de buurt van ? let me know😁
het schijnt dat mijn adres/postcode niet zou kloppen post vanuit china en kan de code niet traceren.
kun je me toevoegen dan dm ik je, als je nog meer vragen hebt zie ik dat wel verschijnen
ja dat zou evt kunnen, ligt eraan hoe en wat😉
eindelijk weer feyenoord😁
ach😜 des te meer tijd voor de kleine boef😜
anderson vd pas.. wat een niveau zeg👌🏻🎯
jan schaarie
echt he... uefa maffia!! thuis in je uitshirt spelen, hoe amateuristisch
dat word vd week ff langs de action😜
blijft geweldig dit
standbeeld voor
schaam je dood
wat een wanvertoning zeg! sinds go ahead is het spel erg verslechterd
wissel die elia aub... wat een fouten maakt die kerel , aanvallend zie je m ook niey
black friday.. vind het toch wel racistisch
lekker richting op competitie!! europees kan je toch niet opboksen tegen t geld
nooit door t midden uitverdedigen dat leer je in de fjes
beetje jammer dat je via een overtreding + net aan buitenspel achter komt.. verder houden we aardig stand
is het gek als ik zeg, ga 541 spelen donderdag! gewoon lekker op de counter...
geen strijd, geen mentaliteit .. op 20% spelen... en amper kansen creeeren.. komt die interland periode nu wel op een goed moment
dat nooit meer opgesteld word!! wat een vreselijke trage speler zonder overtuiging
haha en dan die sanchez de hemel in prijzen.. wat een fouten maakt die gozer
kijk dit dan, das toch gewoon rood?
haha idd.. 15 sec en dan ben ik weer boven water😂 maar idd autofotografie trekt mij wel
haha, lijkt me wel gaaf trouwens📸
ik zie nog niet zo in de kofferbak liggen😂
idd .. gewoon met een brok in mn keel zitten kijken
gaat ie lekker ... betaalzender en al 5 min moet ik geduld hebben 😬😴😴😴
al vanaf 6 uur uit bed, denk je om 6.45 naar je werk te gaan, moet je om 8.00 pas beginnen😅 ook goeiemorgen
heb er ook last van, op fox 2 niks aan de hand😑
iemand mooie lokaties in voor evt met graffiti ,oude fabrieken, mooie gebouwen etc.
als jullie me ff volgen , kan ik jullie dm sturen met de track en trace code en mn bestelling
vorige week 2 verschillende producten besteld, 1 binnen gehad, de ander nog steeds niet t&ampt bij postnl zegt nog niet ontvangen
hoe kan het dat er binnen 3 dagen 2x een bedrag van €11.99 is afgeschreven? 1 maal lijkt mij toch wel genoeg 🙄
grrr... dat schiet niet op dan 😉
het is gelukt 👍🏻 was m vergeten te activeren😂 fijn weekend