ze moeten die ballonnen knippen jan!
heb je ze zien spelen? daar kan geen enkele trainer iets van maken. eigen jongens waarvan sommige aardig wat overgewicht.
net zoals bij de opvolger van frank de boer wint de opvolger van ronald koeman ook niet.
duidelijk en volledig mee eens!
eens wilco. afgelopen zondag door verschillende groepjes fietsers/autos bijna 3x van de fiets gedrukt.
in november nieuwe serie, op ben benieuwd!
best wel wat huurhuizen in veenendaal, helaas voor mij onbetaalbaar maar voor jullie prima plekje.
laat me raden... de rijnpost?
eerste aflevering terug gezien, begint gelijk weer goed!
mooi pand op de achtegrond. gaat daar in de toekomst nog wat mee gebeuren?
fijn dat je er weer bent jan! het stadspark is blij met een buurtwacht..
roep dat morgen maar niet..
zijn dezelfde.
hoe staat met magbreb 90 vs. de belastingdienst?
schiet je voor komend seizoen nog niks mee op!
188 neem ik aan?
arme jij. wel het perfecte vaderfiguur dus.
wat is het verschil?
en wie schiet hem er in? juist! onze topscorer.. 💪
en onze topscorer staat er nog in..
gelukkig is de topscorer van dovo er wel. joshua patrick met 16 doelpunten.
uiteraard! eerder gaat die het doosje niet uit.
hij is inderdaad binnen maar tot mijn verbazing heb ik een hoesje voor een s8 besteld in plaats van s8…
ik neem aan dat er nu duidelijkheid is en dat hij vandaag binnen komt?
bij buren is uitgesloten en brievenbus is leeg. het kan natuurlijk zijn dat die over het weekend heen gegaan is en morgen komt?
waar wordt er op gereageerd dan? heb nog niks ontvangen van jullie
klopt het dat pakketjes/artikelen die je op 5 mei besteld, niet op 5 mei verstuurd zijn?
gaat de pakketbezorging op 5 mei gewoon door?
kom 3 juni naar so soest en zie daar meer dan 300 gvoetballers op het bram bartels toernooi!
ook naar aanleiding van de reacties vanuit de club en hemzelf?
en wat is nu het antwoord op de vraag?
de feiten uit het verleden zeggen wel iets anders.
fijn altijd die bevooroordeelde journalisten..
zoals het er staat nee.
met wie kan ik in gesprek of het rendabel is?
altijd al afgevraagd waarom dat er nog niet zit..
welke wedstrijd is dit? of hebben we een nieuw tenue bij
welkom bij de clubs met het geld..
heb het en maak het van dichtbij mee.. vaak onderschat ook, maar ook door verschillende factoren niet te voorkomen.
zie het als een indirect compliment voor de gehele selectie.
😂
wacht nu ook totdat de kantine juffrouw een aanbieding krijgt om naar te verkassen?
dat lijkt mij wel ja.
gebeurt alleen als afzender niet bekend is. mocht afzender wel bekend zijn dan moet die voor de kosten opdraaien.
slechts maar 1 club bestraft uit de toch géén ruggengraat?
is ook alweer terecht
vermissing 12 jarige jongen in veenendaal wijk engelenburg. dons zwarte jas, regenbroek of licht blauwe jeans. blond kort haar
leuke app man.. gewoon soort facetime alleen dan met meerder mensen.
dat ziet er goed uit!
hele weekend al
geweldig slot van de wedstrijd van
welke gaat nu vragen aan met wie belden je en wat waren de eerste woorden?
10 km zwemmen.. binnen twee uur.. op de olympische spelen. wat een prestatie.
zijn broertjes inderdaad
en meneer kouterik gaat aan de gang. hoe gaat deze soap in verder?
gaat prima. dit jaar even een tussenjaar, even alleen voetbal kijken en genieten.
gefeliciteerd corian, veel succes dit seizoen!
beetje research levert al op dat en aanwezig zijn.
vrijwilligers hebben een heel seizoen keihard gewerkt en hebben even een maandje rust, succes en veel plezier bij excelsior!
genoeg son gehoord.. de enige son die ik wil zien is de zon.
ben benieuwd of dit ook was gebeurt als het ging om een club uit het rood/blauwe vissersdorp.
en wij kunnen helaas inrukken en afwachten..
dat maakt jou een echte man van de club ben!
ja erg vervelend.. zitten hier met een hele hoop te wachten om te kijken is er niks..
stream doet het niet?
haha geen kraker nummer 7?
een speler/jongen zoals omar is het voetbal nog niet verleerd.
aardig wat jonge mensen gesproken en die zeiden inderdaad dat de sfeer minder was vanwege geen dancesquare.
ik zeg niks haha.. 😂
jij legt het bijltje er niet zo maar bij neer he..
haha helemaal gelijk ja..
waar het moet vallen.. in doetinchem!
wat was het beleid ook alweer omtrent bij &amp ?
de scheidsrechter die dovo niet liet winnen in de halve finale p/d voor de topklasse. een 200% pingel werd niet gegeven.
zojuist een dm gestuurd met de mobiele nummers.
ja dit kon iedereen waarderen en zelfs de passagiers die aan het bellen waren konden het waarderen.
een buschauffeur die op komische wijze de passagiers erop attendeert dat je niet mag bellen in de bus. geweldig
dat kan alleen als jullie mij terugvolgen.
hallo, ik heb afgelopen vrijdag kpn compleet aangevraagd voor pc 3906 wk nr. 9 maar nog niks gehoord. wanneer hoor ik dit?
hoewel die wel spits is maar pas volgend seizoen in dienst van vrc is neem ik aan dat het om zijn broer roy gaat?
wachten wordt beloond...
zolang je niks hoeft te betalen is het leuk.. 😅
dit is echt genieten...
hahaha die komt duidelijk uit een paasei....
helaas werken. bedankt voor de felicitatie. als ik toch nog iets mag zeggen help de zelfstandige met ondernemen.
benieuwd of er ook echt iets gaat gebeuren.. succes!
de trainer ja?
de ene lichting spelers is heel goed maar een jaar later kan het zo maar 2 klassen minder zijn.
lang leve de lichtingen
de heer co adriaanse is de nieuwe van in het speciaal feliciteer ik met het binnenhalen!
straks was het hun eerste haha... nee geintje! super leuk en keep going!
uiteraard op de sbr.
done! veel succes met binnenhalen van de stemmen.
een weekje vakantie..
in schijnt op dit moment de zon... 😀
vanavond de bekerwedstrijd tussen en c1 op sportpark spitsbergen aanvang 1830 uur.
dat klopten inderdaad. stroomadapter eruit gehaald en er weer ingedaan en hij doet het weer. bedankt voor de moeite!
ze zijn verbonden met stroomadapters. heb het kastje ook al een aantal keer uit en aan gezet.
beste, ik heb haperend beeld via interactieve tv van jullie. opmerkelijk is dat er op het andere kastje geen storing is. oplossing?
die gaan het halen. parzyszek gaat ze redden.
morgen speelt o14 in utrecht tegen kampong o14. aftrap is om 1000 uur. a.s. woensdag wacht vrc c1 in de beker
dovo o14 ontvangt vvij o14. aftrap om 1030 uur.
wel de enige die stagiaire die de 32 maakt in de 88e minuut..
heeft een spelletje gespeeld met
en het bleef nog lang onrustig in noordwijkerhout...
maakt het ook nog uit wat speler zelf wil?
waar denk je dan aan? achabar in de basis?
er zal vandaag gewonnen moeten worden!
en toch zijn er een hele hoop aanwezig!
moeder krijgt voor alcohol schenken aan minderjarige 100eu boete.. bij een is het minstens 1360 euro boete.
niet alleen daar.. helaas ook bij
binnenkort hangen er in de la place ook borden met
morgen helaas de wedstrijd tegen o14 afgelast.
dit is toch ongelofelijk...
haha als je een doelpunt maakt dan denk je.. ga zitten!
het was ook te mooi om waar te zijn mocht dat niet zo zijn!
voeg toe op en je bent de hele dag zoet!
viel inderdaad reuze mee..
ga ik me nog meer verbazen ja? straks niet meer.. wellicht morgenochtend!
het klinkt vreemd uit mijn mond maar hier is dus echt een stukje ofwel gevoerd
jammer dat je er zelf een schrijft anders zou je er zelf mee kunnen beginnen.
de voetbalclub uit hoeft zich over de financiën voorlopig geen zorgen te maken.
ik schat in als het de blijft dat er vanavond het meest gesmst wordt van dit jaar!
dit zijn de mooiste op als je speelt.
heeft me vorig jaar een boete gekost van 240eu.. rijden door rood licht.. p tevens kan ik helaas dit jaar niet!
gaan jullie nog?
fijn dat de man die al zijn passie en liefde in het voetbal en de club steekt vanaf volgend seizoen weer op de bank zit!
inderdaad! gaan gewoon weer verder tot de orde van de dag.
inderdaad.. dit is net iets anders als foei! niet meer doen.
dat klopt! ik ken een paar trainers die het behoorlijk zat zijn of waren met een of meerdere journalisten bij de vk
vanochtend gelezen. een inspirerend verhaal oscar!
zeg het maar was het hands of niet? pingel en welke kleur kaart?
gefeliciteerd! heel veel succes met je nieuwe carrière!
een overtreding is het zeker maar zorgt er nadrukkelijk voor dat nl de overtreding alweer 200x gezien heeft.
ze staan zeker nog!
haha ja bedankt! ondanks dat ik het niet verdient had ging odin59 eraan.
gelukkig maar!
tegenwoordig worden alle berichten waar ook maar wordt ingenoemd rt...
volgensmij nr. 4. johan de man legde afgelopen zaterdag ook zelf zijn functie neer.
zijn dit de acteurs voor de film ?
wie hebben ze op de korrel?
de vis wordt weer duur verkocht..
een geweldige finale met een fenomeen als winnaar. peter wright michael van gerwen 1011
een goede 2e helft heeft o141 de 31 overwinning opgeleverd tegen 71 c1!
zeg ik toch ook niet.. maar dit is ook knap.
leuk nieuws over voormalig jeugdspeler van zit namelijk in de voorselectie oranje o15.
maar ook hij snapt toch wel dat je zonder geld niet kan voetballen?
maar gaat hij er niet iets te positief mee om? tussen de regels door lees ik dat hij de spelers dwingt om te spelen.
maar nieuwe garde gaat er wel mee akkoord?
haha ze hebben volgens de man afgesproken door te gaan en de spelers weten van niks..
dit kon je zien aan komen inderdaad.. dovo had daar paar jaar geleden ook last van. nu zit het een keer mee.
wil de buschauffeur van 1722 bovenbuurtweg naar veenendaal een bonus geven!
inderdaad.
kuyt stond geen buitenspel. vindt ook
snotneuzen sturen een trainer weg en een week later verlies je van de nummer laatst!
wat is het toch heerlijk om naar bayern münchen te kijken zeg. wat een klasse.
dat is waar... ook vreemd.
goed nieuws! ben altijd dan benieuwd wat er in die tussentijd allemaal gebeurt is.. meestal hoor je daar niks meer van.
erger is met de
met de foto bij het verslag nemen jullie het opnieuw weer niet zo nauw met de regeltjes..
3 keer met minimaal verschil verloren.. er zijn weleens betere sportweekenden geweest.
ik wacht af...
hmmm sport of algemeen?
gooit het er maar uit?
ik mis crisis assink?
de shop is dicht vandaag i.v.m. herfstvakantie.
daar ging de mond van open staan..
de koffie bij de albertheijn.
dan weten we dat ook weer voor de volgende keer!
o141 wint met 07 ! van o141!
op naar voor o14 o14.
de spelers van kunnen geen kaartspelletje meer spelen in de bus john de wolf is de nieuwe trainer vanaf nu.
komt er dan toch nog een ?
in de reclame van is oranje te zien. mooi voorbeeld!
ja maar om over de rug van vluchtelingen je naamsbekendheid groter te maken vindt ik een beetje naïef.
haha.. ja het is ook nog eens cool om donor te zijn. 😛
hij zal wel gezegd hebben geen haarlok op me hoofd..
helaas.. hij heeft geen interesse..
dat betekent geen
gert kruys! altijd positief over ze en vrij...
goed bezig mannen!
zijn er nog mensen die ontslagen kunnen worden of is iedereen al weg haha?
bam! city laatste minuut een pingel en gooaaal!
die mensen willen meestal dat het goed gaat met de mensen die het land sterker en beter hebben gemaakt. niet met de gelukzoekers.
niets doen is inderdaad geen optie. maar er zijn meer manieren..
dus jij geeft hem geen gelijk?
opent nu ogen of gaat hij te ver? zeg het maar..
klopt helemaal.
bedoel de aanleiding van de reacties. verder 3 dagen valt mee maar of de locatie nou echt goed is betwijfel ik.
probleem zit het hem in dat het vlak naast een school is,het vlakbij de ellekoot/centrum is plus het onrustige azc in overberg.
prima dagje op de lekker weer en aardig druk. vanavond jong jong gvvv!
|live now|
heb al jaren samsung nog nooit problemen mee gehad inderdaad.. weet niet wat jij er allemaal mee doet. p
hahaha.. hoe is het mogelijk. gefeliciteerd man!
dovo o141 speelt haar eerste thuiswedstrijd tegen o14. aftrap om 1030 uur.
nou barca heeft heet ook zwaar..
engeland en italië zitten ook wel leuke tussen.
die winnen wel..
haha hoe bedoel je ? gewoon geen geld hahaha!
ik heb er 3 onder andere heracles, arsenal en augsburg.
de rijtjes zijn weer gezet voor vanavond
haha mooi hé.. op instagram net zo.
helaas niet. ook geen tijd om naar de kiosk te gaan. jammer dat artikelen niet online gepubliceerd worden bij
is dit te lezen via de app
ben benieuwd.. gevaarlijke stoffen. zou niet weten wat er daar zit wat met gevaarlijke stoffen te maken heeft.
komt hier net overvliegen.
helaas.. blijft het gezellig in de jumbo amerongen.
alleen achter de computer en een aanval krijgen? het kan! mede door dit filmpje van
morgen ook de dag weer van de hoedjes.. ben benieuwd welk hoedje nu weer op heeft.
we lezen het wel weer..
nee ik heb een condoleance. was er anders ook niet geweest. is er wat te doen dan?
eerste aflevering van gezien. beloofd weer een spannend seizoen te worden.
qua voetbal was het dit weekend voor beide ploegen om snel te vergeten.
resultaat telt, 3 punten zijn binnen. ik zie wel mogelijkheden voor de 22e..
en dat is altijd terecht. gefeliciteerd jim!
hier heb je een beginnenetje van celebs
voeg maar toe juleskingma. het is zoals sanne erg leuk maar begin moet je even wennen. veel posten!
een scenario voor een simpele misdaadserie haha..
als je in een tijdrit gemiddeld 50 km per uur rijdt.. dan verdien je gewoon de winst!
namens de gehele selectie bedankt voor het medeleven. tot snel.
aankomende zaterdag zal de wedstrijd tussen o141 en o14 niet doorgaan i.v.m. overlijden van een vader van speler dovo.
gefeliciteerd kerel!
hoe noemen ze dat ook al weer? iets met koekje en eigen deeg toch? geniaal!
kan gewoon al zien hoor.
als je pupil van de week al naast schiet dan kun je er al bijna vanuit gaan dat het moeilijke middag gaat worden..
opnieuw weer een erg spannende en goede serie op rtl4.
helaas is dovo o141 door een 52 nederlaag uitgeschakeld in het bekertoernooi. volgende week begint de competitie!
dovo o141 speelt haar 2e bekerwedstrijd in en tegen sv lopik c1. aanvang 1020 uur.
gisteren ook naar gekeken haha..
klinkt goed.. geniet ervan!
haha wist niet tegen wie jullie moesten.. maar gefeliciteerd hehe!
ik hoop niet verloren...
niet meer nodig. alles doet! bedankt.
ja naar aanleiding van een soort klantentevredenheidsonderzoek. maar had eerst fox sports eredivisie maar dit doet het nu ook niet.
vanmiddag via de telefoon een upgrade gedaan van fox eredivisie naar fox combipakket. maar ontvang nu geen van beiden meer.
o141 wint met 62 van c1. c1 wint met 82 van c1. dovo en vva gaan aan kop.
gisteren zijn de eetkamerstoelen opgehaald. na nog geen 48 uur! mede dankzij
vandaag weer om de knikkers. eerste bekerwedstrijd op het programma. o141 neemt het thuis op tegen c1. aftrap 1200 uur.
daar zal het aangezien gvvv niet speeld tegen een bvo ook niet aan gaan liggen.
nee maar belachelijk vindt ik niet..
dit zijn voor iedere amateurclub de kersen in de taart.
bij vroegen ze voorverkoop 12 en dag zelf 15 voorgaande jaren.
vier gratis af te halen! perfect voor in of o wie?
geen naar veenendaal.. maar wel !
de jongens die ik de afgelopen twee jaar heb mogen begeleiden starten goed! 2 bekerwedstrijden, 2x winst. ga zo door mannen
gelukkig wel de goede blauwe! een gezellige vereniging!
zozo..
komt er net als voorgaande jaren ook een exceldocument met het conceptjaarprogramma?
vandaag is de jaarlijkse open dag bij de grootste voetbalvereniging van ! vanaf 9 uur van alles te doen! kom langs!
komt er net als voorgaande jaren ook een exceldocument met het conceptjaarprogramma?
dat doen ze snel haha..
gewoon de clubs van vorig seizoen..
straks richting naarden voor de eerste oefenwedstrijd met o141. tegenstander is c2, aftrap om 1930 uur.
om 1115 uur kids met een broodje hamburger zien lopen. dat betekent dat het weer is begonnen!
ziet er goed uit jimbo! wellicht dat daar na vanmiddag 5 uur nog een prijs op kan.. succes!
ligt niet aan ze kwaliteiten maar aan zijn eigen. vond werken belangrijk etc. wou daarom laag voetballen.
als renaldo v/d brink nog steeds een neusje voor de goal heeft..
dat is maar een klein klasse verschil..
pfff wat is slecht zeg.. wordt dit het nieuwe rkc waalwijk?
staat hij er niet in haha..
ik gok op een droger/wasmachine
dit kan ik prima een weekje volhouden
en jij gaat het tij keren?
en wat was er dan zo vies?
ik denk dat ik ook nog een weekje wacht..
vanavond de eerste van het seizoen
dat klopt inderdaad! gaat goed komen, tot dan.
wij hadden dinsdagavond 25 augustus om 1900 uur bij jullie op de ebbenhorst afgesproken. ik ben van dovo o141.
op zoek naar oefentegenstander voor dovo o14 voor zat 298 ivm vrije bekerronde
het is weer begonnen...
zullen er gisteren wel 1 op hebben...
geland op een mooie week gehad met nobleval
nog 1 dagje en dan zondag op naar viva la france!
jij gaat door voor de wasmachine!
met onderweg naar voor een
niks voor mij dus.
kijk dat is fijn!
mooi affice jim. hopelijk pp een andere dag als de rooien kun je mooi kijken mocht het zover komen.
vanavond loting 1e ronde ook zit in één van de balletjes. vanaf 1900 uur live te volgen via
daarnaast is het natuurlijk een goede beslissing. verwachtingspatroon is 40 graden en daarnaast op kunstgras. is geen pretje.
er had zich al één ploeg afgemeld wegens de verwachte weersomstandigheden.verwachting was dat meerdere dat zouden doen
helaas geen jan ditewig toernooi a.s. zaterdag bij
kon het niet laten haha..
een aanrader is de app cleanmaster downloaden. die laat precies zien wat er verwijderd moet worden etc.
wat is het probleem?
dit was te verwachten natuurlijk.
de week leuk beginnen is als je wordt gevolgd door je 83jarige opa op blijft zich verjongen!
goed werk van ondere andere facebook keihard aangepakt wegens het niet achterhalen persoon wraakpornofilmpje.
ben jij diegene die voor mij de sleutel heeft naar een baan in de facilitaire en/of evenementenwereld? laat het mij dan weten!
rt voor o14 i ben ik nog op zoek naar een oefentegenstander voor woe. 26 augustus.
dat kun je wel zeggen ja.. geen woorden voor. in 1 woord held!
een afgelegen plek voor een wie o wie?
dovo c3 sluit seizoen in stijl en gezelligheid af! v.v. dovo
haha kon het niet laten! misschien moet je in de leer bij ?
zelfde als jij binnenkort meneer zo opvolgen..
straks richting voor een boottocht met en van aangeboden door
voor hem een mooie en bijzondere transfer. en psv zijn haast onafscheidelijk.
zou ik niet doen.. er lopen heel veel piloten thuis.