yo kev... kom je weleens in ny?
zo iemand heet een scharrel 🤣
godver samant... jij denkt er gelijk weer heel anders over. gedraag je nou eens!
recenties over een toiletrolhouder.... waarom?!
dacht 600/700 gram...
dan zou ik voor die xxl gaan... wij hebben de xl en 1 zak friet deed ie binnen 12 minuten. en lekker! mi gado!
airfryer gekocht en gebruikt. waar ik eerst heel sceptisch was, ben ik nu verkocht. wat. een. ding. 👌👌
hoi... gisteravond geboekt en betaald, maar nog geen bevestiging ontvangen...
vijf!! o
pfff... grijs gedraaid die plaat &lt3
leg anders nog even 20 filters over je hoofd.
momentje om bij stil te staan. ik heb nog nooit op 31102017 getweet. dit was de eerste keer.
trouwens, verstappen rijdt eerste. dit puur ter info.
ok. bedankt voor je bijdrage. je mag nu weer in de kring gaan zitten.
ik ben voor wie ben jij aanstaande zondag?
bep, hou je kunstgebit op elkaar.
je krijgt wat je verdient.
broodje truffelsalami. het lekkerste wat ik het afgelopen uur heb gegeten.
column de angst voor max verstappen leuk stukje tekst.
er werken gelukkig niets anders dan feyenoorders op kantoor hier... dat maakt het iets draaglijker, als ik mn tl zo lees.
wat doet ze voor de kost😣
en de hiphopwereld is overwegend donker.
pint atten zelden een filmpje zo vaak opnieuw gekeken
hoi bax! hebben jullie een stofkap voor de xdjrx2? en is het plateau van de innox iva mon02 groot genoeg voor de sdj80x?
59jarige chimp weigert dood te gaan zit je dan, te janken op je stoel...
ik geef een verhuizing door, dan krijgt men blijkbaar een nieuw modem... moet je die natuurlijk niet naar het oude adres sturen 😂
dat dacht ik al ja... zie 25281406😅
maar ik kom allicht nog terug voor een mooie gamelaptop...
niet dat ik weet... heb ze vrijdag gekocht.
mn maag is serieus overstuur ofzo 🤣
haha nee sorry... jullie verkopen geen teufel, dus dat heb ik rechtstreeks bij hun besteld. 🤣
ha! heb er ook nog maar een magnetron bij gedaan 🤣
zei de boer nou wij hebben vilhena.....?
het is nooit een goed idee geweest... ook vooraf niet 🤣
misselijk als een malle... misschien waren die 4 roze koeken toch niet zon goed idee.
ok ok ok, gears3 besteld, tezamen met een koelkast, gasfornuis en vaatwasser. omdat mijn liefde voor j…
ik ook, daarom kom ik héél graag bij jullie. jur hartje coolblue, maar dit is wel een heul groot gat.
hoi. ik wil graag de s3 frontier bestellen, maar ik vind dit verschil toch wel erg groot...
hoi! ik probeer mijn adres te wijzigen via mijnkpn, maar zie nergens een optie hiertoe.
da ting go d.o.m. remix is de pokoe waar we niet op zaten te wachten ik vond m wel tof haha.
je vergeet je zin af te sluiten met een punt. interpunctie blijft een lastig iets.
ik las chlamydia... maar dat komt vast door iemand anders.
wat zou youtube zijn zonder russische dashcam filmpjes.
vliegen.
haha niet gezien joh 😂
😅
leuke daagjes voor de boeg!
maar dan wel een mail sturen dat ik me in moet schrijven omdat ik anders van alles mis. das niet de afspraak hè? 2/2
maar je hebt ooit eens aangegeven, bewust of niet, géén promotionele emails van air miles te willen ontvangen. 1/2
deze man is zó vreselijk vermoeiend.
willen jullie niet wie wil er dan wel verkering…
naaawww, je noemt me jurtje 💖 ik voel nu al een speciale band tussen ons!
jesse mateman uit doetinchem, ik vind iets van jou.
hi ^spa, ik krijg de melding nog steeds.
fijn wil me graag inschrijven bij jullie.
om uw gegevens tegen diefstal te beschermen, heeft firefox geen verbinding met deze website gemaakt. 2/2
de eigenaar van heeft zijn of haar website niet juist geconfigureerd. 1/2
hoi. ik verhuis per 14 oktober... willen jullie mee?
ik zou nu best een kapsalon lusten. en een turkse pizza. en 2 quarterpounders. en een big king xxl. en nog 1.
gelukkig kan ik heel goed zoeken.
mijn speler van de week bij voetbal inside is karim el ahmadi via
prima weekend dit.
telt de droger ook?
heel kut, deze 🤣
chris is liev. als ie mn servies heel houdt.
je hebt dm 😘
not cool... heb niets geweigerd...
een poppetje uit de jeugd zal niet slechter zijn....
nou.... wie staat er op het veld? 🤣
nieuwe tv is scherper dan ooit dom kutbeest xd
of placemats. ook zon hel.
geeft niet uit. is feyenoorder, dan is het al goed.
laten we connected blijven tijdens een set op slamfm, dacht 🤣
prima aftermovietje van intents 🤗
hoe smaakt zon nintendo switch?
katten voor het episch gewin.
deze man is zó ongelooflijk terminaal ziek in zijn hoofd...
no worries, ik ben zelf ook wel een beetje onderlegd in de meteo 😚
een wut...?
hoi mn, graag even een volgje terug d
hoi! is het mogelijk om een incassodatum voor een autoverzekering te vervroegen in de maand?
mijn speler van de week bij voetbal inside is steven berghuis via
dat fc twente zo hulpeloos bungelend onderaan. ik vind daar wat van.
geen ervaring mee... als ik nog iets afval, is er geen jur meer 🤣
slapen werkt het best tegen roken. toch ruim 2 uur niet gerookt vanavond.
hahaha hou ik je aan!
ballenbakselfie.
kom kom... ik heb nog wel een fles 43. gaan we ons verdriet wegdrinken.
heb er zojuist één gekwoot.
ah, ze bestaan toch...
of dit land is toch zó naar de klote dat er zoveel mensen zijn die haar serieus nemen. leg…
of de echte volgers zijn in de veronderstelling dat ze een parodieaccount volgen.
ik heb deze man altijd al gemogen.
je kan volgers kopen hè...
jij ook al...
selfie als je erin ligt!
al in de ballenbak gespeeld...?
oei. horror. sterkte 🤣
direct geblockt door die madam met dr frituurhaar. gelukkig hebben we nog een screenshot.
wil je een glas bij je azijn, of drink je het liever direct uit de fles?
kom maar door. sterkte met je penishoofdkat.
flink aan de alcoholols. helpt.
ik snap dat, werd er zelf ook op gewezen enige tijd terug. duurt ongeveer een week of 7.
baal je nu dat je die foto gepost heb? ja hè?
je zal je kat nooit meer zien zonder een penis op zn kop. ik met die van mij ook niet 🤣
ik doe nooit stoer tegen jou.
je doet stoer in het openbaar gül. niet doen. siert je niet.
nero heeft ook een penisface.
verdumme, wanneer komt watch your back van malice nou eens uit....
ook leuk speelgoed, moet je eens kopen.
zou je eens moeten proberen, iets van de wereld zien.
ooit geweest manon?
blij dat ik niet op cuba zit...
stel je niet aan. ze omnomnommen muggen.
hij vergeet voor het gemak even dat ze daar in manchester ook niet zo heel erg veel met die club hebben.
zij ook. want zon shirtje kost nog geen euro...
en weer in deventer. is en blijft een kolereend.
rick voor president!
tag iemand die mensen blockt wanneer hij of zij getagd wordt in een tag iemand post.
naja, laten we het erop houden dat je geen smaak hebt waar kan de rekening van een nieuw toetsenbord en monitor naartoe?
een mening is een mening natuurlijk, maar onderbouw m dan als je deze ventileert op een medium als twitter.
gelukkig hebben we nog een screenshot. bakkie koffie volgens mij was je nog niet helegaar wakker toe…
hahaha gaat gelijk op slot.
koffie op mn toetsenbord, koffie op mn monitor, koffie uit mn oren en als klap op de vuurpijl, koffie uit mn ne…
hi. ik hang net een hele tijd in de wacht, werd de verbinding verbroken. niet chill bcc
chill! 18 beesten die muggen eten...
mijn speler van de week bij voetbal inside is kevin diks via
gewoon keurig tweede.
kan jou alles wijsmaken. je weet het toch niet meer.
nee. nee. nee!!!! niet op mijn toilet!
ajax versoepelt opkomstplicht fside na wanprestatie één wedstrijd is genoeg via
aaah je maakt een moederskindje van m...
ik ga wel even naast m zitten dan
hoi eliza, ben je in slaap gevallen?
dm verstuurd
lukt me niet om je een dm te sturen, eliza...
mogguh bcc! afgelopen zondag een tv gekocht, wordt vandaag bezorgd. enig idee van het tijdstip? meer info evt. via dm.
is wel weer de bedoeling ja
hoe gaat het met kan iemand dat aan dr vragen?
reed er zojuist langs. 2 van de 3 banen afgesloten.
ik reed er net langs. 2 van de 3 banen zijn afgesloten. ben maar binnendoor gegaan.
daarnaast, slapen kan als ik dood ben. ik vind het nu zonde van mn tijd.
ik zoek een wasmachine en droger!
en. werd je er gelukkig van?
oh get a room....
ik heb m gister bij de kuip gezien.
en dat na elkaar al zo lang te kennen 😂😙
ik heb nu diverse demos gehad van die 600... ben serieus verliefd.
mijn ogen plakken op deze, maar ook de lifestyle 600 van bose. scheelt alleen ff € 2.500,....
iemand ervaring met de producten van teufel?
check.
helemaal zelf verzonnen?
beste bianca, zet je internet uit. waarvoor dank, het internet.
ik ging stuk om deze 😂
ik heb nog nooit een hond met zon rare naam zien twitteren. 😮
herkenbaar. ik haat het.
richard, kom op hey...
paar plakken kipfilet 🤘 mager, weinig kcal en toch een stapeltje eiwitjes.
en de mist nog zo dicht was dat je je fiets er tegenaan kon zetten.
zullen we dat niet doen...
ik moest hier in het eggie om lachen. sorry.
aardappels!
naja jammer dan. zet ik meiden van holland wel weer aan. her loss.
zou niet durven. ook niet van mezelf.
godver!
ja hallo! ik ben de vrijgezel hier hè!
verkoopt 😭😂
maar voorlopig sta ík op de foto met arnie hardcore!
god, ik meng me weer in een draadje hoor.
het geeft niet. ik zie liever mensen achterstevoren vertrekken dan aankomen.
ja ik ook niet.
ooooh nee niets bijzonders. een half uur etensresten tussen mn vill…
ja manon! een fckn half uur!
hahaha... maar denk even aan dat half uur de dag erop.
gek zeg.
leuk dat je aan mij denkt man. echt tof. na al die mixjes die ik voor je heb gemaakt.
geloof me maar op mn letters.
deze maandag!
ja dat moet. ik weet.
heb te doen met al die rokers die dat buiten doen. aaaawh jur... 😔
ik had dat streven ook, maar mn bed won.
och...
niet als je je faith in humanity wil verliezen 😂
het moment wanneer je beseft dat je zó dyslectisch bent, dat zelfs autocorrect 9 van de 10 keer geen suggestie heef…
never. always right.
je hebt bewezen er vaker naast te zitten 😉
jouw mening...
blij dat je er weer bent willuuum 😙
ach, ik bekijk het van de zonnige kant. ik hoef tenminste de plantjes geen water te geven.
er schijnt een twitterdingetje te zijn over katten. ik vind daar iets van.
kga naar bed. joe.
jezus wat was dat slecht.
service weer! ❤ ik hobbel straks wel even langs jullie winkel in zoetermeer. dank voor de snelle reply, fijne dag vandaag!
hois! ik heb een nieuw toestel voor mijn zoon, alleen moet daar een nano in en heb ik de micro geknipt alleen opgefokt. help! 🤣
jeetje zeg, je kan ook op elke slak zout leggen. zijn ook mensen, kunnen iets verkeerd lezen slash opvatten.
ik ben zó blij dat ik èn een kind bij me heb morgen, èn moet rijden....
of je checkt gewoon in.
they see us trollin... inhaken maar! 😂
goddomme... is ie toch weer terug.
had jij die niet meegenomen een week of wat terug?
waarom heb ik altijd honger.... altijd.
awh puppy...
tby ti sento... ik ga zo met al mn ramen open rijden en iedereen mee laten genieten 🤣
hahah ik hoor m gelijk in mn hoofd. wat een plaat!
heerlijk joh, die zomerse opzwepende melodietjes, toffe vocals erbij, zon op je taas en 2 biertjes in je handen. deleef.
doe mn best. nadruk ligt wel op euforisch, is mijn ding. 💖
suggesties welkom natuurlijk.
regelen we!
godver... gelijk zin om een early set te maken haha.
mooie tijden... in de periode 00/01 mn hart verloren vanaf uk hardhouse. ging wel een stuk langzamer toen.
het wordt ook alleen maar populairder, wereldwijd. ook door de diverse stromingen natuurlijk. euforisch, raw, nextgen.
er is genoeg moois gemaakt over de jaren ❤
veel plezier ermee. ik ga even een kasteel van duplo maken.
zonder foto heb ik geen reedt aan deze tweet tolga!
dus ik ga wel kijken vandaag joh...
alles.
godver, mn ex heeft alles meegenomen.
haha ja kom op, dat zie jij toch ook wel liek 😂
soms zie ik van die dingen, dan ben ik bang dat er een toestel van klm op landt..
maar die van jou zijn beschaafd...
succes in de gym, work on those abs!
ik wilde ook gaan, maar daar ben ik nu te laat voor... straks kuip 😄
broodjes smeren, fristi staat klaar, koekjes net zo. straks lekker naar de open dag van met mn ventje ❤
guttegut, gesolliciteerd bij de grammarpolice? worden we collegas. ik geef 43 de schuld.
bezaak je met je eigen moeien, haagsman!
nee. maar even, zo onder ons. bloedserieus. wat de fook doen sommige vrouwen toch met hun wenkbrouwen?
vreselijk nieuws over ik duim voor het beste herstel, zo ver als mogelijk. familie, vrienden, sterkte.
mayweather vs. mcgregor... overhyped en staged. toch kan ik niet wachten.
is het al 26 augustus?
en dan hebben mannen de slechte naam... maar ondertussen, hè!
ik zeg er alleen niet bij dat ik dat een beetje stiekem heb afgekeken van je bio...
dat kan niet als ik zo lig....
dat is het eerste wat ik straks doe als ik thuiskom
pruik opzet
hier, vang!
ik had die van mij afgelopen weekend, vroeg wat ie wilde doen. ik wil naar de coolsingel joeeee! 💙
haha jezus, wat voor kermislettertype heb jij 😂
yoooo.
zo rollen wij.
je staat er alleen voor
zojuist de meest smerige panna in mn leven gekregen. door mn zoon. van 3.
jaar dus
hi nuon, ik krijg constant mail van jullie alsof ik klant ben, terwijl ik al 57383 bij zit.
oooh nais! nu ff doorbijten!
ik ben teleurgesteld.
witte sportsokken bij wet verbieden.
doet ie nooit meer.
in dit soort draadjes zijn andere mannen ongewenst.
je bent zelf een gata.
ik maakte geen grapje 😂
hier zijn de bonen ook gemalen inmiddels...
welja. donut erbij?
koffie, iemand? 😂
de kleine bij zn moeder. 0400 gaan slapen, 0730 wakker. uitslapen lijkt niet geïnstalleerd bij ons. 😂😂
hahaha mogguh! we zijn doomed met zn 3en.
ik lig er nooit helemaal onder. ja, zo begin ik, maar als ik wakker word, liggen de dekens meestal half van het bed af 😂
en dan met zo min mogelijk / niets aan, op je deken liggen. 😂
is zo! in de winter ook altijd raam open ❤
hij staat zelfs uit 😂
en toen je raam open was, vlogen er weer 3 naar binnen 😂😂😂
ik vind t sneu voor je. oprecht.
hahah kutleef. deet doet wonderen.
jezus, wat een nacht... die vorige dan. ❤
ja haaalloooooooo
volgers! linsey kan wat met asperges! ik weet niet wat, maar interessant is het wel.
goffur! ik heb ook gervoeluns!
vertel.
ik wil ook een bad... 😔
oké, wtf... ik hoop dat dit niet echt is 🤣
ga je?! met dat enge accent! 😘
te koop bord aan je huis... buurvrouw ga je verhuizen? nee, ik trek bij de nieuwe eigenaar in...
hoe durf je, edwin... poing af zetten...
tuurlijk jur, ram jij nog ff een pak nippon naar binnen om 0100 uur. helemaal goud joh.
nieuwe spulletjes uitzoeken na een scheiding is een lichtpuntje. 😂😂 komt goed, thanks!
het is niet anders... het toch alles nodig. kan het wel in 1 x besteld worden of moet dat via elke store afzonderlijk?
hoe is het met ursula? nog in de ziektewet?
die vond ik alleen met een wasmachine en droger van samsung... 😅
moh! als ik in al jullie webshops in 1 x 14 apparaten bestel, van tv tot citruspers, droger tot strijkijzer... korting? d
ronaldo gespot op rotterdam zuid.
moet een hel geweest zijn..
jij blijft zitten 😂😂
stay tuned, nieuw project wordt aan gewerkt.
uh... sinds jaar en dag?
nee hoor. jij had een date.
ik ben de pan.
hoezo, die 50/50 rum cola ging er anders prima in. zet je nog even een ander liedje op? en…
niet miepen.
gisteravond zei je nog dat je m zou doen.
ik ken dat! 😂
ze voorspellen niet, ze verwachten.
waardeloze nachten zijn waardeloos.
blabla is gaan deelnemen aan een gesprek thefuq dont!
niet!
niet!
luierdt!!!