je stuur zelf maar een appie
ik heb geen mail gehad voor kaart verkoop zo kan ik er wel 1 kopen als legioen lod?
sinds de laatste update van mn sony bravia tv helaas geen wifi meer te vinden... wat te doen?
heel stuk van alblasserdam dag er uit maar was van korte duur
stroomstoring alblasserdam?
in jullie inbox!
2 weken voor de wedstrijd feyenoord excelsior op schermen in de kuip! zelfde als legioenpas heb ik ook nog niet gehad.
goedemorgen, ik ben afgelopen seizoen lid geworden van het legioen alleen heb ik nog nog steeds geen welkomstpakket gehad...
in jullie inbox
ik ben nu al even legioen lid maar kan nog steeds geen kaarten kopen voor johsn cruijf schaal hoe kan dat?
en als je verzekering heb ook niet?
heb ik met een red essential ook vervangend telefoon als ik hem opstuur voor verzekeringswerk?
top! wanneer zou ik die mail kunnen verwachten en word mn account gelijk gekoppeld aan account wat…
ik heb me afgelopen dinsdag aangemeld als legioenlid maar pas gisteren bevestiging kan ik wel een kaart kopen straks?
ik hebt opgevraagd morgen denk antwoord!
wel jammer dat de postbode voor de 4e keer op rij het moeilijk vind iets helemaal door de brievenbus te doen
ga ik op vragen hoe groot moet die zijn?
kan ik voor je bestellen hoor!
geen idee wat je bedoelt peter
brandweer voorbij op oost kinderdijk
ideaal tv aan geluid uit en radio aan voor beter geluid!
is het mogelijk om verder te spoelen met vodafone thuis? want het knopje op mijn afstandsbediening werkt niet
ik wacht de fotos af! 😉
betaald en dan pleuren ze je eruit ik heb hoop...
verkeerde plaatje?😉
aah ik sta e net niet op joh 😜
haha goedzo hoe zit met de foto die je maakte van de file voor de pont😁
zo te zien heb je de controle gevonden 😉
inderdaad voor ons de ruilverkaveling p
controle op de ruilverkaveling bij nieuw lekkerland eerste boederij als je dorp uit rijd!
beste feyenoord vrinden gisteren portemonnee verloren/gerold iemand wat gevonden? rijbewijs/idkaart rt graag!
gisteren helaas portemonnee verloren na feygra misschien dat iemand gevonden heb? vak h
gisteren helaas portemonnee verloren na feygra misschien dat iemand gevonden heb? vak h
gisteren helaas portemonnee verloren na feygra misschien dat iemand gevonden heb? vak h
gisteren helaas portemonnee verloren na feygra misschien dat iemand gevonden heb? vak h
gisteren helaas portemonnee verloren na feygra misschien dat iemand gevonden heb? vak h
gisteren helaas portemonnee verloren na feygra misschien dat iemand gevonden heb? vak h
gisteren helaas portemonnee verloren na feygra misschien dat iemand gevonden heb? vak h
vast niks aan de hand
ja bij ons heel veel vlaggen en bij jullie rondom spandoek te veel vlaggen volgende x vlaggen z3
door alle vlaggen
niet te zien vanuit t
waarom loopt bilal mee warm?
lekker drama geen kongolo geen van der heijden en botthigin de vraag
rijd door de hoogaarslaan
meestal begin december
werd tijd met brekelmans
voor de rest snap je het wel?
gestaakt?
gaat moeilijk zonder supporters?
gisteren nieuwe telefoon gehaald inclusief sim alleen geeft die elke x aan sim bevat geen mm
ik weet niet zeker 😉
lijkt er wel op durf niet zeker te zeggen hoor
volgens mij speenkruid
flugel was zeker gewaagt!
nee hoor peter
ik zal is kijken schroom niet om het nog een x t zeggen iver 2 weken hoor!
peter 80 cm lang of breed en anders hoe breed en lang? ik ben as 2 weken vrij dus daarna ff kijken!
19 alblasserdammers schaatsen alternatieve elfstedentocht in oostenrijk via
haha bedankt hoor! ja ik weet het! we zien wel waar tschip strand!
zonde ik heb ppt gekocht!
we zijn weer van de partij
haha slecht voor het onkyrid zal je bedoelen
groot gelijk
tunnel dicht bij alblasserdam
hoelaat??
vraagje, na de update kan ik geen filmpjes meer afspelen en zie alleen maar zwart beeld wat kan ik doen?
dat was een lekker prakkie
dat noem je cookies dus weet niet wat jij zoekt,
geen enkel filmpje meer kunnen kijken op je telefoon dankzei een update?
wat een drama de nieuwe update van alles is mega traag!
nu in lekkerland
best hoor bietje flitserig!
ik zeg weltruste!
haha zeurpiet bij mij werkt het altijd
neus dichtknijpen en door je neus proberen te blazen anders op zn zei.hangen
heb je alleen een social media leven pa
ik niet ik zit in limboland
op de quad wil ik eventueel ook wel helpen... eventueel van een desbetreffende ijsclub
de speaker waar ik gesprek mee hoor van.me telefoon is kapot valt dat onder garantie?
is het nou brug open of dicht?
ik zeg lekker bezig essie!
moge pa! hoe gaat daar? vrijdag thuis?
waat? kent niet zien beschermde tweets
mag geen naam hebben peter!
haha ja marit zegt net dat ze jou ook pas op eind zat haha
haha nou ik was er rond uur of half 12 en heb me neefje weg gebracht omdat die niet meer goed kon lopen zeg maar
ik heb je niet gezien
helaas! volgende x beter! toch nog gescoord dus wel een klein lichtpuntje!
haha maar nep expeditie nu met widm
wie is de mol of expeditie robinson?
zozo ron het kanon red ons weer
wat een dramatisch beeld.
als je een sony experia. z heb maak dat niet uit
ambu schokkenstraat
indd
tot nu toe geen last vanaf uur of 7 pas downloaden
meer mensen last van geen werkende whatsapp
die zal je helaas ook niet zien ferry... niet gekwalificeerd
terug spoelen dan peter!
daar heb jij wel oog voor he
dan verweij maar!
slechte zaak
pec uit altijd lastig!
hehe eindelijk armenteros
anders word heel je timeline gespamd met dan doen we ook maar mee!
nog steeds flits bus op de dijk! vanuit nieuwlekkerland richting kinderdijk
haha wat moet je dan sjouwen daarzo
vraag maar aan
gaat zn tuin op knappen
zo best wel romantisch he soep aan de keukentafel!
wat een starter
inderdaad jammer dat de rest wel kijkt
verschrikkelijk all you ned is love
niet zo boos kijken he henk
je link werkt niet
gecondoleerd.
beetje doorrijden he
dat kan wel eens een optie zijn ja xd
meen je niet hopen dat jason statham um wat aan doet
toch niet die van baby he?
flitser dijk nieuwlekkerland
haha inderdaad
hoeveel fluit concerten zullen we nog krijgen
nieuwe twitter drama
haha daarom raakt die als nog meer als jou
ik zie het jou nog niet doen
hmm ken gekker spanje chili australië
lekker he zon kontje
haha oké ja mirjam. en erin hadden hem al door de bus gehad
nog niks gehad
weet ik niet ik stapte in auto en toen liet die marit ook nog x schrikken de grote
nu net hij stond opeens achter me te blaffen schrok me kapot
volgens mij liep jou hond los.
voor de rest wel een supporter hoor die
indd raar
zo heel verdediging geel nou kunnen ze helemaal geen sliding meer in zetten
haha grapjas
was terecht
wat nou geen negerzoenen!
hahaha dan opeens zn beste vriend
geen cadeaus dan he kut ben je toch een sukkel
wat mis ik? verjaardag
ken je al een beetje typen haha slijmbal
wat zei ik te lui
maar ik wil je ook wel vertellen dat paulien er uit is hoor ghehe
ja al kijk je dan op de site dan schijnt het daar te zien maar daar ben je te lui voor
kijk op internet op dan staat het er
rtl gemist is gratis hoor gisteren namelijk gekeken
uur of 6 volgens mij ff p de site kijken staat rechts bovenin wanneer herhaald wordt volgens mij
ik ben immers nu tevrede dankzij.
haha het leek een grotere hoop
hahahaha deze is groter bas dus je bent geslaagd xd
verhuurd
haha jup nu maar ghosts aant spelen
en zn neef wat brengen
hmm ik weet het niet
best ik hoor het wel
maat heb jij nog blue rays liggen of iets aangezien ik heel de week thuis zit
daar zijn we wel te vrede over zeg maar!
bedankt peter!
graag gedaan bas!
meer schoon maken bas
haha school jongen jij helemaal geen dagen xd
haha voor volgende x beter
haha nou ik stond te wachten op carpool en ik ging voor jou de snelweg weer op
volgende x bij rotonde rechtdoor alst druk is dat is sneller maat! reed namelijk achter je!
nee lekker dan!
hej niet tekenen dan ist voor mij weer lastiger met werk!
zo moet dat!!! bam
lekker bezig
zo snel ik hoor hem al nu
geweldig e foto
haha nee af en toe heb je wel is leuke dingen
die bas, ken ook alleen maar blablablablabla sturen heb je niks interessants?
haha geweldig
je hebt van die mensen die denken dat ze alles kunnen maar als het er op aan komt schijten ze in der broek! jantje
moet je nagaan die 020ers maken dit dus elk weekend mee dan leef je ook niet lang
makkelijke overwinning joh haha
zo dats indd wel rotterdam
zonde peter
pelleeeeer
vanavond mogen we eindelijk! met en
nop maar ik weet dat uitverkocht is
uitverkocht
nice met die boxjes aan de voorkant
wat voor
nieuwe telefoon?
ghehe
toen zat ze jankend in alblasserdam op de grond op een rotonde xd
die ik ben jorin was gisteren een beetje dronken na alblaspop
boetiusssssssss
het zit ook niet mee
en dan sta je op alblasserdamsnieuws.nl dankzij
haha alles slaat in he naar spa sliedrecht
en dan zie je dronken.
vind ik leuk!
wat een schot van bruma ach ja oud feyenoorder
file a27
dat ik dat van jou moet horen peter!
bedankt hoor!!
bedankt he!
bedankt!!
dankjewel lieverd. maritvdvoorden
inderdaad komt goed met ?
we gaan het zien
assaidi of guidetti maakt weinig ut denk ik heb vvf g gesponsord hoor
uhm wat denk je van guidetti
zozo peter goed bezig
nieuwe geworden peter!
haha hij is koning he
helaas mega vissen rivermonster
haha zal wel weer ja
froome rijd weg bij iedereen nu froome op seconde of 50 op contador
ik hoopt wel peter
motte gij een klappie op bekkie?
wat een leppie foto joh!
ben je kwijt per maand dan?
wat voor heb je?
voor mij nu ook weekend!
slaap lekker peter! ik zeg goeiemorgen
opzich ken het wel! je moet alleen geen koukleum zijn!
gefeliciteerd nichtje
en wat ist geworden?
bedoel je niet pikkie?
1 en 2 waren leuker!
slaaplekker!&lt3!
haha dat zeg jij!
ik zeg +1
mooi voorzetje schaken!
ik hou van je&lt3!!!
gijsbert?
hahaha lekker bezig sjaan
is zn telefoon vergeten wat een rust
bedankt peter!
jazekr! vanavond de nieuwe fast jonge!
maalwel!
buch in de bajes!
gefeliciteerd he!
haha oke dan! vanavond niet?
maat! sorry ik zat in belgie! maar denk dat je het inmiddels wel weet!
je kan ook overdrijven he! haha suc6!
raaar! ben benieuwt!
flitser ter hoogte van nmc nieuwlekkerland lekdijk
al weer slaapfeest
uhh bas meer hoor uitdoelpunten tellen voor 2 als de stand gelijk zou zijn!
uhhh 6 doelpunten voor doorgaan hmmm
ik zeg alvast dagdag barca
brandweer lekkerland?
gezellig dat je klipper komt!
die sjappie van scheveningen!
hoe zit het met koe schijten
bekkie he vlerk
wat denk je zelf schobbejak
nee ze zegt het voor de grap sjappie!
hahah foto van de aubade van lekkerland bij de
oow wij dort
tot zo dan!
dat denk jij jan!
whahah die pasveer zat wel lekker in de wedstrijd!
mooi jantje voor rust! of niet jantje
dat zal best
liggie bij jp op de bank p
dat is een feit!
gerechtigheid
wat een doelpunt!
wat een poeier he van die immers!
dan kijk je vast het mooie feyenoord!
peter als je niet volgt kan je de foto niet zien dus plaats de foto even zonder zijn vermelding
lekker aant toeren gozer!
het is naast
ik zie het al
weet je het huisnummert? of
haha joeri uit nieuwlekkerland wint kaarten voor beyonce
super
ervaring rijker bas?
haha feit!
voor het eerst fifa met 20 winst op pec zwolle!
ik zeg een best programma
ik kwam hem ook tegen op de a15 terhoogte van leerdam
lekker beziggg
haha goed hoor! bijna klaar he p
het ken beter
prachtig balletje!
zo dat was het eerste daagje limburg
was een gezellig weekend met mn scht! nu opmaken voor een weekje limburg
uit eten met &lt3!
haha harrie had beetje sappie te veel op? p
maar vind ik ook hoor
al die leppies van de basketbal zijn ech partypoepers volgens
wisten jullie dat alle laatste slokjes bier drinkt?
geen live verslag feyenoord?
jantje voor rust tegen inclusief rode kaart! eind resultaat
hahaha feit van
dat lust jij niet jelle is advocaat p
geld teveel?
zegt weer een ex feyenoorder die scoort!
hij rijd nu bij oud alblas
haha nou ik heb mn ps3 dus vandaar
heb je geen blueray speler? p