tja, feyenoord speelt slecht en veel last van blessures. pec…
wat een niveau. om te lachen ja.
was slecht zeg! hoor nu dat ajax beter was. nou minder slecht. waar moet dat heen in…
gelukkig niet!
heb je het nou over die fles wijn!
hoop dat ajax degradeert!
gefeliciteerd met dat cluppie van je. zou er geen fan van willen zijn.
scheidsrechter wisselen. makkelie naar amsterdam.
wat een poeha!
het komt in maart verwacht ik.
ik heb er alle vertrouwen in.
tuurlijk, maar 10 jaar geleden waren we failliet en nu spelen we weer cl. leuk toch. zonda…
begonnen heel nerveus en gespannen. spelers hebben vreemde acties. 03 is een buitenspeldoelpunt e…
dat meen ik johan. ik had dit verwacht. scheelt 800 miljoen in selectiewaarde. 50 liverpool aan d…
ik heb een leuke avond.
hoeveel staat het bij 020.
beginnersgeluk van mc
vanaf minuut 1 al. overigens is ajax niet in staat om een leuke pot op de mat te brengen. staat spanning op.
tja het gezegde helemaal niets in amsterdam, zal in eindhovense cafes door de microfoons schallen.
dat is nieuws!
nu staan ze vooraan. juist door deze houding hebben we weinig punten in europa behaal…
ik niet, prima als ze winnen. nog maar een paar seizoenen geleden was de houding nega…
staan ze achter, oh vandaar die reactie!
het lukt die blauwe wel om naar een speler met een blauw shirt te spelen. voor de neutrale kijker is het nog niet leuk.
verwacht ik wel.
gaan we gelijk weer arrogant doen. ik ben weg.
tweede helft is niet best. of wel!
waarom niet verdedigen? zinloos aanvallen. snap weinig van de spelopvatting van ajax. vrouw en kinderen eerst!
op basis van de tweede helft is ajax een drama.
veltman krijgt nog rood!
nooit iets van gemerkt. overigens geen calimero gedrag. wij kijken al jaren niet meer dan ajax.
ik ben in de ogen van de rotterdammer alsnog partijdig.
als neutrale toeschouwer was het een penalty. overigens hadden er wel een aantal l…
overigens mooi klassiek lied van kroatië.
dag johan, ik refereer aan een uitspraak van breukelen in de jaren 90. dat moet toch kunnen. over…
het begint net leuk te worden in frankrijk.
kleuterklasje gaat het niet houden.
mijn zoon mag niet kijken. alleen naar echt voetbal uit rotterdam.😜
kom eens met een nieuwe grap!
meen je toch niet peter?
veel plezier op canaria. shoppen in de yumbo en even in de duinen trainen. fiets mee!
het is bijna zover. op 7 mei richting 010. even vieren en de wedstrijd kijken.
het is nog niet gedaan!
nu lekker psvajax kijken.
na jaren is er eindelijk een eerste stap voor de fietsdoorsteek klagerstuin/ oostergouw. dank voor politieke steun
ajax heeft toch echt hulp van de knvb nodig
ach, had in deze droevige tijden verwacht dat matthijs ollie zou redden en hem via jc arena naar 010 zou sturen
altijd makkelijk. niet leuk. blijft de mooiste club van nederland.
ach, het is niet makkelijk. kan er zelf weinig aan doen. voetbal is belangrijkste bijzaak.
kijk er nog maar goed naar.
laat het onze 020 ers maar veel plezier opleveren!
ajax neemt op sympathieke manier afscheid van oudspeler.
020 geen kans gehad. armoede! feyenoord speelt niet slim. 020 kan niet beter.
volgens commentator is het al 31.
als ik lid was van de gemeenteraad van 020 dan zou ik een motie indienen mbt de kwaliteit van het veld. bij boer geert is het beter
mooie eerste helft. hoop dat klaassen niet snel in een buitenlandse competitie speelt. wat een gezeur bij kleine duwtjes.
das duidelijke taal. zelf ben ik daar niet zo van.
lange armen.
allemaal zeuren over hard spel feyenoord. beste mensen, dit is europese standaard. hou op met 010 zwart maken!
mede door jullie opvattingen stellen we internationaal niet veel meer voor. geen sprake van opzet.
vertel eens waarom? omdat zijn arm zwaait? heracles had al eeder rood moeten hebben. nijhuis fluit prima.
het is een por in de zij.
heeft in ieder geval in de rust voldoende gedaan om dit in de picture te zetten.
dat kan je toch geen huldiging noemen. op dat parkeerplaatsje naast die graftombe.
dit seizoen niet kunnen winnen van feyenoord....... its all in the game.
beetje fysiek. klaasen rood. ach. we staan in mei toch op de coolsingel.
was niet hard. arbitrale trio floot niet voor de thuis club. balletje was over de lijn. nooit meer klagen in 020
heb je het gezien.
020 met geluk 11 gespeeld. doelpunt ging vooraf aan arbitrale blunder. feyenoord sterker.
gelijk voor een onbeperkte periode?
na drie keer aanklager inschakelen heeft knvb met blom eindelijk troefkaart.
het is lang geleden frank. maar het is zeker mooie fiets. trek altijd goed. fiets zelf op een cube
juist de scheidsrechter heeft jullie geen rood gegeven bij de swalbe van younes dus dat valt niet zo heel veel over te klagen
nog een keer voor al mijn ajax vrienden!
het waren de mannen tegen de jongens. ik vond het heel leuk om de tweedehelft te bekijken. weer een echt feyenoord
dank voor de felicitatie. niet huilen.
dank voor jullie felicitatie.
dank voor de felicitaties.
de vertegenwoordigers van de knvb helpen ajax een handje. je voetbalt altijd tegen 12 man. was een tweede gele kaart.
maar dirk kuijt mist niet.
tweede helft toch meer voor feyenoord gelukkig. nu nog even een strafschop.#feyaja
het is wel een foutenfestival hoor!#feyaya
kunnen we de commentator ook wisselen?
ik hoop dat feyenoord met minder angst gaat voetballen in de tweede helft.
grensrechter vindt vlaggen wel heel leuk.
spel is niet gemeen. kaartjes lekker lang op zak houden.
beetje laten uitrazen.
haha, dan hadden ze 4 wedstrijden gekregen.
juist de eerste 10 beloven veel goeds.
fopduik, knvb, scheidsrechters en alles tegen, maar niets stopt ons
coolsingel...........
daar weten we alles van. nog niet zo lang geleden waren wij het lachertje van de eredivisie.
dat was ook niet de bedoeling. de as kampioen maakt al slachtoffers.
ja hadden extra kijkcijfers nodig.
ik dacht eerder de schuld van de pvda.
en weer speler die zich straks landskampioen 2015/2016 mag noemen.
we zullen het wel zien.
met tien man winnen van utrecht met twaalf man en dan nog zonder elia, kramer,immers en bothegien. 010 op coolsingel.
020 met 30 voor. zal wel 33 worden.
succes met deze sympathieke spits. dat hij 32 wedstrijden mag scoren
zeker mooie helm. vooral voor de zichtbaarheid in het donker. die paar ledjes zorgen niet voor voldoende zicht voor racer.
haha, in europese wedstrijden ben ik voor een nl club. voor de competitie gaat het zeker op.
ik kom er maar even in. jammer van 020. feyenoord wordt kampioen. wat een slechte verdediging.
ik ben erbij! leuk.
nee, zou een schande zijn als dat de straf is. eerst weer een nieuwe trainer.
morgen naar de opening nk sprint junioren en 3 en 5 km. weer een mooi sportevenement in hoorn. kom ook kijken, ijsbaan de westfries.
haha, dan is het geen museum meer. prima club dat az. maakt het ons knap lastig om plek 2.
klein museumpje zeker. p
haha, dat had ik niet via twitter de wereld in geslingerd.
je hebt toch wel eens contact met de buurtjes william?
ik lust geen poffertjes. vandaar geen extra lasten voor jouw gezin met uitbreiding op komst. p
je zal mij de komende tijd nog genoeg horen. maak je geen zorgen.
een acteur erbij..... rutger hauwer!
blonde haha
gewoon smit, maas na al die jaren en die blinde van wnl
haha, ik hok dat je zweden ook leuk vindt.
je lijkt jan smit wel. hij vindt ook alles leuk.
leuk gezongen. aparte verschijning, maar is conchita is gehypte middelmaat.
dat ze in polen nog steeds op een wasbordje de was doen?
helemaal mee eens robert.
noorwegen wil vast niet winnen.
zie ik nu vier keer op tv bij
hou je daar maar aan vast, jos. jullie worden weggespeeld, maar hebben het mooiste doelpunt gescoord. de andere 5 waren top.
hier voetbalt onze landskampioen. dat is toch een vertoning. blamage.
heerlijk 51.
groter kan ik het niet makken, wel leuker
beste ajax vrienden, vinden jullie het nog leuk?
tja dat vuurwerk van pec zwollle bevalt me wel.
31 het wordt steeds mooier
ja, alleen vandaag. hebben overigens een mooi seizoen gehad. gun het ajax niet, maar dat is geen verrassing.
vandaag ik ook voor zwolle.
verdiende 11.
gewoon via bevriende stewards. is nie moeilijk. ws sfeeractie met bengaals vuurwerk en deze bommen mee verpakt.
wedstrijd staken, ajax verliest vanwege wangedrag fans, twee jaar geen beker spelen 5 jaar geen fans. tenminste wanneer dit doet.
overigens leuke gesprekken met collega politici
als het werkijk afgescheurd is. dan is dat vervelend voor hem. nigel de jongh is ook prima.
nee, wel van de familie sinter.
wellicht wordt de soep niet zo heet gegeten en staat hij er in mei gewoon.
op pagina twee van de vkkrant staat onder kopje wanneer stem ongeldig, de term stempas ipv stembiljet. kan verwarrend zijn?
beetje senioriteit kan ik wel gebruiken. echt iedereen helpt mee!
ach kom je pvda stemmers tegen dan is het advies nummer 6.
tja en het is zon sympathieke folder.
ach wim mul, kiezen tussen elsbeth en jeroen, das toch kul. stem je pvda, moet je jeroen doen
natuurlijk als je d66 stemt dan op elsbeth broerse. de feyenoordfan van de d66 lijst.
dag en vergeet niet. stem op jeroen 19 maart in hoorn. lijst 3 nummer 6. fijne avond heren.
alleen die hoogmoedswaanzin van 020. zo misplaatst na de afstraffing tegen een degelijke club als salzburg
gaat goed met mijn hart.
ja
we zullen het in europa ook volgend jaar weer van az moeten hebben.
daarna laat de scheidsrechter lekker lang doospelen bij de anderen zodat ze tegen verliespunten oplopen.
blij dat wij geen kampioen worden van deze competitie. ajax krijgt de punten 4 de eerste drie wedstrijden
was geen elleboog van pelle. dat zie je toch zo!
gefeliciteerd hoor. ik heb een laf ajax gezien en een feyenoord dat niet beter kan. wat een competitie!
ik heb het over de gemeenteraad. dat wat wij doen. onze keuzes en in 2011 lag er bij d66 een ander verhaal dan nu blijkbaar.
met steun van fractie tonnaer is ons amendement aangenomen op dit voor elke wijk te behouden. omdat iedereen telt.
in 2011 was de peuterspeelzaal voor d66 nog een financiële kwestie. juist sluiten in een wijk waar minder dan 15 kinderen zijn. 1/2
ook zon mooie poster? laat het mij weten. ik breng er eentje langs.
snap natuurlijk dat andere supporters liever een andere straf hadden gezien. gelukkig is de aanklager knvb wel onafhankelijk.
straf pelle is in verhouding. hij moet nog wel even tegen mijn zoon zeggen dat hij het niet had moeten doen.
gracht huesmolen nog dit jaar dicht een artikel van noordhollands dagblad
fietsdoorsteek risdamnoord komt er voorlopig niet. dat is jammer voor de wijk. doorsteek zorgt voor verkeersveiligheid.
wel een goed gevulde knip meebrengen.
ajax mist een type pelle. oei wat een slecht spel. waar blijft dat positiespel?
heerlijk weekje vakantie. kleine klusjes doen in huis. kom het weekje wel door.
dank je.
veel uit 020 voelen zich net als 010 in de editie 020010 van dit seizoen. was toen ook geen penalty. vind het oprecht jammer voor 020
ongelooflijk balen voor 020. is niet eerlijk.
schandalige beslissing arbiter. geen penalty. ajax mag niet winnen van uefa en dat van mijn toetsenbord.
dat is jammer, beterschap.
had het over de club uit 010
gaan we in groep h naar 6 verliespartijen van ajax kijken. volgend jaar dan maar de club uit 010 in de cl.
een partij met de naam versterking ondernemersklimaat centrum hoorn moet de sheriff binnenstad in de gelederen hebben
nu bij overleg leefbaarheid risdam noord.
morgen naar het overleg leefbaarheid risdam noord. de cogge 20.00 met de nieuwe voorzitter peter karels.
goede bijeenkomst passend onderwijs in wognum. goede manier om geïnformeerd te worden.
nee, maar kan mij dat overigens wel goed voorstellen.
ja, maar hunnie deden ook niet mee met allemaal verliezen.
wen er maar aan!
drakenboot was erg leuk.
elke week drie plaatsen hoger en mij hoor je niet klagen.
haha, 020 is een traditie. in rotterdam spreken ze vaak over psv, twente en nog zon club
toch twee puntjes ingelopen op 020 en psv. nog 22 wedstrijden en we staan bovenaan.
en zeker niet gestolen. mooie middag
ik haat verrassingen,
klein trainingskamp gehouden voor morgen. de beentjes zijn goed. drakenbootrace kan beginnen. topconditie.
haha, wen er maar aan. volgende klassieker is degradatiewedstrijd.#heeaja
geen twijfel. wvankleef ach als we zondag maar winnen
ja, zeker lekker dan.
overigens goede arbitrsge.
wat een dramatische wedstrijd. 10 verloren en handjes dichtknijpen. 30 had ook zomaar de uitslag kunnen zijn.
vve methoden en toepassing nog niet juist. integreren binnen po, net als kleuterschool? warme overdracht en beter pedagogisch klimaat?
onderzoek naar vve laat zien dat er nog het nodige moet gebeuren. vanaf 2 jaar naar school niet bewezen effectief.
hoop ik ook. zeker dat er in europese wedstrijden gewonnen gaat worden
dat noem ik een duel, helaas bij beide partijen werd dit niet toegestaan.
zeker, alleen is was er geen sprake van frustratie en woede. das niet goed voor me. fietsen wel.
vanmiddag rondje purmerend, edam, hoorn gedaan. met bft5/ 6 en gemiddelde van 27,3. flink beuken op de dijk. totaal 61 km
niet mee eens, ajax schiet er meer in maar dankzij slechte arbitrage.
ik piep niet. geef aan wat er niet goed ging arbitrage was daar een onderdeel van. beter voetballen ook.
probeer dat altijd te zijn.
donderdag zijn we allemaal weer feyenoord. voetbalbelangrijkstebijzaak
dat heb je met gekleurde sportjournalistiek. neem van mij aan dat een gelijkspel recht deed aan de wedstrijd.
nieuwe grappen please.
optimist 30 min goed. ajax zeer onder niveau. feyenoord te slordig.
overigens gefeliciteerd allen die 020 een warm hart toedragen.
helaas, ik dacht tot 12.30 vandaag dat we 11 tegen 11 zouden spelen. helaas, met 14 tegen 11 heeft feyenoord toch een goed resultaat behaald
domoulin heeft zich in het voorjaar en de tour al laten zien. mooie renner, zeker zijn naam onthouden.
bij docenten is de rek er uit. regeldruk kan minder.
regelgeving mbt examinering, volgsystemen, kwaliteitscontrole etc allemaal belangrijk, maar doorgeschoten
voorbeeld horizon college ong 35 cent per euro
regelgeving zorgt er voor om binnen de budgetten maar 50% van de uren aan leerlingen te besteden.
bezuinigen op regelgeving, kan dat ook? in vo en mbo is overhead 30/35 cent op elke euro.
kijk nu al uit naar de overwinning van feyenoord op ajax en natuurlijk nog al die mensen die mij op lappendag hiermee feliciteren.
daar wordt nog over gesproken.
voor ons begint het seizoen pas in september.
heel flauw. geeft niet.
we zijn weer in een periode waarin het niet makkelijk is om feyenoorder te zijn. flauwe 020 humor.
haha, dit beest doet vanavond rondje hoorn enkhuizen. 50 km. wie gast mee?
op skeelers. beetje oefenen en je fiets met gemak 100 km. als 50/60 lukt dan is 100 geen probleem.
prima
dat is uitwerking. zijn verschillende opties mogelijk.
bestuursweekend in leeuwarden met raad en college.
nee, iedereen moet kunnen volgen.
om drie uur even bij het huttendorp hoorn kijken. inzet van betrokken altijd groot en kinderen beleven er veel plezier aan.
yep ook ik ga de boot in.
wilfred, ik niet. bij verlies feyenoord geen studio sport en morgen gaat het sportkatern bij het oud papier.
ik wens alle niet feyenoorders veel plezier met het resultaat van feyenoord tegen zwolle.
een flinke periode van ziek zijn heeft gezorgd voor veel inhaalwerk. overigens is dit geen advies.
wallander nooit gezien. wel de killing. amerikaanse versie is niet slecht. scandinavische wel beter.
scandinavische of amerikaanse versie?
goed bezig mark. heb app ook geload. morgen rondje van ruim 100 km. 5 bft, zal niet meevallen. hoop op gem 25km.
het lijkt of er ongewenste gasten verblijven rond ons huis. een wespennest onder een plank in de schuur. vervelend.
ik ben een optimistische realist.
nu even naar feyenoord tegen getafe kijken. in vergelijking met ajaxaz van gisteren is feyenoord goed bezig, wordt de landstitel voor 010.
das wel lekker wordt dan meegezogen. vaak fiets ik alleen. beetje harden.
laat maar kletsen. na drie weken reed ik 50 km. na mijn herstel reed ik binnen twee maanden 120.
ik fiets 27 in het uur gemiddeld.
gisteren rondje alkmaar, callantsoog, julianadorp, schagen, alkmaar gefietst, kleine 90 km.
mooie sprint van kittel. nu afwachten wat de tijden van de klassementsrenners zijn
het is wel eens verschillend. ligt aan bij welke organisatie je het diploma behaalt en/ of volgens welke methodiek.
diploma a is binnen.
haha, werkt wel. ik zit ook aan deze doping voor morgen
vanavond nog een rondje fietsen. volgende week de 7 dorpentocht. weer 110 km. fietst er iemand mee?
geesink rijdt goed, ronde van fr. voortaan in december
gefeliciteerd!
haha, na mijn te lange periode van ziek zijn. dacht ik dat ook gezien de hartelijke reacties toen
weer een prima een prima service van de zaak in zwaag. slag is weer uit mijn wiel en spaken op spanning
gefeliciteerd jos.
nee deze mensen niet.
doe angelique de groeten van mij. de dame in historische kleding.
loopt een fietspad door de risdammerhout. twee zelfs. daar lopen vaak mensen met een hond.
beste ajax fans, gefeliciteerd met het kampioenschap.
vier je feestje op een parkeerterrein en laat de rest met rust.
waarom moedig je ado aan? toch niet flauw gaan doen.
ajax heeft er weer vele vrienden bij. de krantensupporter staat vooraan.
overigens een verdiende 20 achterstand. spelen dramatisch
lijkt een heel heel vervelend weekeinde te worden.
dag van de adbeid is geen poppenkast.
1 mei, dag van de arbeid. rozen ophalen en uitdelen aan alle leden van 65 jaar en ouder. mooi traditie.
gaat om bouw uit 50er jaren. niet slopen maar inpassen zou mooi zijn.
nee, weinig bouw uit jaren 50 in hoorn. invulling kan ook in bestaand gebouw. zie invullen van andere gebouwen, kerken etc
ook lekker. zat in het zonnetje een goed gesprek te voeren.
haha, ja ik wel. heb jij mij gezien. lag je in het zwembad of hardlopen op de wielerbaan. ah sporten bij het sportcentrum.
gaat over uitzending andere tijden?
haha, soms moet je aspirant fans weigeren.
dat is de eeuwige optimist in mij.
ben jij voor elke club in europa? zo kan ik het ook!
yes gevonden. bewaar hem. dinsdag in de cie.
beste twitteraars, penalty was een redelijke handsbal. in de kuip verdien je zoveel meer. op naar de titel.
zal even kijken.
en pelle
ik verwacht ik
lijkt mij goed dat het koningshuis solidair is met john en zich ook terugtrekt.
goed gedaan. wind was pittig. af en toe in een groepje. dat gaat beter.
veel wind. alkmaar hoorn was pittig. 110 is voor mij genoeg.
snap het niet.
beste leo, ik ben nog een van de weinige 30 ers zonder tatoeage. houden zo.
veel plezier met dat feestje op het parkeerpleintje. gezellige boel.
moet veel ollis voor verkopen“@fr12nl feyenoord vraagt de gemeente 165 miljoen.
dat zijn nog eens bedragen!“@fr12nl feyenoord vraagt de gemeente 165 miljoen euro.
had ongeveer 90 min. tegenwind. stukje enkhuizen hoorn ging hard, maar kracht was op en kon niet vol profiteren. weekend weer.
hè, ik vanuit de breeuwer naar medemblik, enkhuizen en dan weer naar de breeuwer. 70 km.
wil hij vast weer directeur of commissaris worden. want nu deugen ze niet daar in eindhoven.
te vroeg en die vreselijke arrogantie....
haha, jammer dat het er nu steeds meer op gaat lijken dat 020 kampioen gaat worden. maar hveen heeft verdiend gewonnen.
gefeliciteerd met de overwinning op mijn cluppie
oja, dit jaar zal de coolsingel vol stromen om het kampioenschap 2013 van feyenoord in de nl hoogste voetbalcompetitie te vieren.
dat hoeft dat voorheen sympathieke publiek niet te doen. dat staat ze niet
vervelende wedstrijd verloren. gelijk spel was terecht geweest. fries publiek heeft met pasen ook het geloof verloren vervelende spreekkoren
ik voel een motie opkomen.........
weet nog wel een dokter.
ingeschreven voor de ronde van noord holland. wel het jongens rondje van 110 km. de mannen doen de 160 km. had ik in december niet gedacht
olli tijdelijk uitverkocht nieuwe kudde ollis voor volgend weekend verwacht.
12 mei lachen wij.
straks naar oostereland. ik kijk nu al uit naar het welkomstpraatje voor de film.
net bij opening rembrandt in zwartwit geweest. moeite waard!
lol
eerste kampioenstattoo 2013 is gezet, capelle aan de ijsel is pelle aan de ijsel geworden en olli is aangekomen in blijdorp. schaalophalen
haha, olli kan veel kanten op. ik vind vooral de aandacht voor blijdorp goed.
mee eens dennis. soms kan men aan presentatie werken, maar ik vind het vooral sympathiek.
is niet de coolsingel.