1034 vanuit goes
elke dag vertraging op het traject richting vlissingen... misschien tijd voor een oplossing ?
hoe groot zijn de campingplaatsen?
lloret, we komen eraan 😱
in de vakantie reis je met je studenten ov zelf op 40% toch? mogen er ook mensen mee met korting en hoeveel personen?
vv kloetinge holland
vandaag de bekerfinale...
vanavond meteen de toon gezet bij de eerste training van kloetinge 7!!
vandaag halve finale van de beker tegen halsteren...
51 gewonnen bij tholense boys, door naar de halve finale van de beker!!
een pec slaag voor de neuzen 🙊
pec zwolleeeeeee!!!! jalalalalalaaaa
in de uitwedstrijd zwaar op onze kloten gekregen, maar vanavond 31 winst geboekt op zeelandia a2!!
nieuwe werk hilles?
eindelijk werk gevonden
basisplaats clasie!
jezus die janjoost van gangelen heeft echt een ajax hoofd...
stoer ouwe
ook nog een gele kaart gepakt...
nog nooit zon scheids meegemaakt.... dramatische wedstrijd...
ja wtf geen idee waar dat opeens vandaan komt, maar effe applicaties verwijderd en wachtwoord veranderd haha
ajax mag de controller doorgeven
er wordt niet echt veel getwitterd....
precies, én een hoofdklasse waardig sportcomplex
pure jaloezie haha forza kloetingeee!!!
hoppaa weer goud en brons erbij
zoiets ja
pec zwolle zien winnen
en kloetinge uiteraard van koploper arnemuiden winnen en voor het kampioenschap gaan!!
morgen gewoon 30 winnen en opschuiven naar plaats 3!
daar gaan ze weer bij psv hahahahaha
hehe eindelijk weer 3 punten
lekkere slimme actie weer... had al lang beslist moeten zijn
“@koeman1963 dank voor de fantastische periode! nu seizoen waardig afsluiten! niets is sterker dan dat ene woord@feyenoord”
vanavond naar feyenoord vitesse
je hebt zeker net op teletext gekeken?
dan 2 maart gewoon thuis aanpakken die joden
playstation 4 maar geannuleerd, schandalige service bij
de studieboeken even dichtdoen en lekker gaan trainen
vakantie geboekt!! 13 dagen naar lloret de mar 😍
pfffff in de laatste seconde 2 punten weggegeven tegen de koploper... 33 tegen arnemuiden a1...
zijn toch geen tijden dit...
laatste dingetjes voor school afronden en weer paar afleveringen meepakken
prima service bij de intersport, na 2 paar kapotgescheurde adidasschoenen gewoon mn geld teruggekregen.
ik miste nog de
mvg!! wat een baas!
geen last van gehad hahaha de flessen stonden voor het grijpen😂
haha al dat gedoe over nyx in de zeelandhallen... heb er gewoon een geweldige avond gehad!
het feest zelf was gewoon leuk, maar die garderobe zorgde gewoon voor die chaos aan het einde....
oud en nieuw vieren met mn homies!!! iedereen een geweldig 2014 gewenst !
kerstzaalvoetbaltoernooi afgesloten met een prima derde plaats! 👌
zelfs de zaalvoetbalbangas zijn al aanwezig...
belachelijk vroeg opstaan om straks te voetballen...
allebei de zaalvoetbalteams van a2 naar de finale!
jaja die fissa van was echt bruutttt
whee eerste met zaalvoetbal! door naar de finales.
de overige teams zijn blijkbaar niet belangrijk?
neenee zou ik afgelopen jaar eigenlijk ook al niet gaan haha
eindelijk beginnen de plannen voor lloret 14 te komen!!
50 gewonnen van steen a1! samen met en de 0 gehouden!
ajax feyenoord! klassieker in de kwartfinale! feyenoord come on!
tegen feyenoord scoorde hij ook al haha
whiieee 3 puntjes in de kuip!
avondje bij gechilld
“@robinkoens beesten duo in de verdediging met 61 gewonnen”
breskens a1 61 aangepakt! heerlijke teamprestatie
nou bevalt geweldig! jammer dat mijn ps4 die er 2911 zou zijn voorlopig nog niet komt...
hodsternokke das wel snel! ik ga eens kijken!
je zou m dr maar inschieten...
fitland weer eens effe aangepakt 👍
wat een onzin zeg, playstation kan nog steeds niet worden bezorgd... bedankt wehkamp...
ronald graafland ging in de 25e minuut naar de kant wegens heupklachten. maarten de fockert heeft hem vervangen.
studio vitesse kijken....
jaa! heerlijk! 3 punten in heerenveen!
4 minuten extra tijd....
oostburg a1 effe 40 aangepakt! weer 90 min gespeeld als centrale verdediger.
naar kloetinge! vs oostburg a1
loting zal wel weer zwaar zijn...
godverdomme alleen psg nodig voor mn toto van 125 eu, verliezen die de eerste wedstrijd van het seizoen.....
ongemakkelijkkk tududududu
klaar met werken, biertje en nagenieten van feyenoord psv!!
heeeeerlijk!!! kut koopclub ook weer op zn plek gezet! drie punten voor rotterdam!!
dat maher effe gauw de tering krijgt
lekkere service dan.... op tijd bestellen en dan moet ik wachten tot januari, bestel in het vervolg wel ergens anders. jammer dit
en de rest dan?
leuk als je even wordt genaaid door wehkamp... levertijd ps4 ineens niet bekend terwijl hij vandaag bezorgd zou worden...
moet je werken vanavond?
gefeliciteerd ouwe afwasser
zo weer aan de bak
en dan zondag van ado verliezen, zou toch mooi zijn
“@spartardam goal!! donovan slijngaard maakt de 41 met een heerlijke afstandsknaller.
sinds vanavond een nieuwe held donovan slijngard!!
onderweg naar rotterdam!
lekker in de sneeuw getraind
weer een 6,9 erbij
na een zwaar avondje stappen in antwerpen en 2,5 uur geslapen te hebben mn bed induiken om morgenochtend vroeg weer stage te lopen...
lekkerrr tot nu toe 3 van de 4 tentamens gehaald! hopelijk de laatste ook gehaald.
whoppp tweede tentamen uitslag ook voldoende!!
jongen, ze verzinnen altijd wel wat... ik werd ook een keer bijna aangereden was t ook mijn fout...
yesssss tentamen fysiologie gehaald!!!
ongelofelijk.... lex 21!!
te vrede in de basis!
zon goeie fissa al tijdje niet gehad!!!
anatomie ging lekkerrrrrr nu weekend!!
whee fysiologie gekilld!! morgen alleen nog anatomie!
nog 2 te gaan daarna
complimenten voor 020, mag gezegd worden...
aan het leren ipv champions league kijken
best lekker getraind zo tussen het leren door
hopppp tweede tentamen geknald, vandaag afzien voor fysiologie en vrijdag anatomie toets klaren!
wat een heerlijke wedstrijd zeg! fernando llorente! 22
haha dat zeg ik toch niet?
stellen geen zak voor, in de voorbereiding 10 van gewonnen
en we gaan de leermodus maar weer effe aanzetten
gefeliciteerd ! xx
“@jeroendewild gaat wel lekker in hilversum daarom”
aansluiting is een feit!!
slecht voetbal, en volledig tegen de verhoudingen in 01
haha wat speelt feyenoord toch weer dramatisch
iedereen laat punten liggen, dan zal feyenoord t ook wel weer verpesten...
de wedstrijd overigens met negen man geëindigd...
meest bizarre wedstrijd ooit gespeeld... 87 verloren, 3 penaltys en een rode kaart tegen. nog een half uur als cv gespeeld
weer even sportschooltje aangepakt
op naar rotterdam
zeg vriend ik zou mezelf maar een beetje gedragen tegen mn zusje
het liefst zo snel mogelijk, dan kunnen we nog iemand anders regelen evt
een vriend van mij en kaartje kost maar een tientje
half 7 met de trein
heb je zin om mee te gaan? heb een kaart over
wheeee 8.1 gehaald
kloetinge a2 81 gpc vlissingen a1
nog iemand die zin heeft om mee te gaan naar feyenoord hoek aanstaande woensdag? vak t
dat waren we al van plan, toch bedankt voor het inlichten.
“@rbax91 &amp gaan lekker kebab eten!!!!”
drama... vergeten en op naar woensdag!
pelle lekker slim... en dat is dan een aanvoerder....
zou zomaar een hele mooie afsluiting van het weekend kunnen worden
aan de kant met je caravan!! vuile hondenhoerenlul!!
hoek a1 34 kloetinge a2
vandaag de derby tegen hoek a1!!
wheee eerste cijfer is binnen en meteen een 9!!
tijd nuttig besteden in de sportschool
we hebben gisteren weer heerlijk gelachen
had bij rust al 50 moeten staan
hoppaa de kaarten zijn binnen, ik heb er zin in! feyenoord hoek
gpc a1 met 62 afgemaakt. eindelijk weer eens een doelpuntje gemaakt!
zwaar kut bij zon oefenwedstrijdje.... sterkte man
“@michaell deon is de domste idioot op aarde” dat is al langer bekend
frituren na het stappen met
robben!!!! heerlijke goal 81!
van der vaaart 71!
van persie!! 51
is godver al weer 4 dagen geleden
neenee, ik ga latijns leren, dat betekent leren in het latijn
nouja, vakantie.... lekker hele dagen latijns gaan leren
ben je vanavond pub?
welkom bij de cursus deskresearch, vandaag zijn we aanbeland bij week 4
het wilde oosten kijken hahaha geniaal
zelfstudie anatomie
wat een graftraining
met de waggie richting de training
lekker avondje gewerkt, helaas morgen weer een hele lange schooldag
een slotfase als deze kun je maar beter niet op de radio luisteren onderweg naar je werk....
was die privé training van de vrij toch nog ergens goed voor hahahaha
lekker ohh ik ook!!
geen verkeerd feestje gister👍
oei armpje drukken winnen van
zeggen ze eerst 8 uur, is het eigenlijk 9 uur...
naar huis mn bed opzoeken... morgen 8 uur stage
ja het is weer weekend
heerlijke training achter de rug
eerste dag stage zit erop
godver wat een lekkere goal van draxler!!
lekker getraind
de samenvattingen!
janmaat..... stop der maar mee
pelle!! heerlijk balletje van lex!!
onderweg naar huis, was weer een heerlijk feestje!!
wheee renesseee met burak en keeess
jij komt jezelf nog wel eens tegen....
erg jammer, want volendam verdiende het gewoon...
schitterend voetbal in de arena
vanavond hbs er uit knikkeren en zaterdag van winnen en koploper worden dromen zijn bedrog
stageplaats is ook weer geregeld
het is weer maandag, het is weer weekend
slechte wedstrijd maar gelukkig wel 3 punten!
wat een grafscheids zeg... ze hadden nog beter een blinde op t veld kunnen zetten....
stelletje kansloze rukkers zeg dat achilles veen
gelukkig is het weekend het is elke dag weekend...
psv wat een poepclub
het is elke dag weekend
alleen maar foutmeldingen... ios7 is gewoon 1 grote troll van apple
ja man al een tijdje hoor
beter schiet op met die
krijg je misschien 20 cent voor
33... had meer in gezeten.
beetje lucky maar wat geeft het.... bruno!!
godvergodverrrrdommmeeeee
jeeeeeeezus wat een kut doelpunt
bakkal, wat een baasje
blijft toch altijd lastig, zon sollicitatiebrief schrijven...
met dit weer is het toch jammer dat ik geen eigen auto heb...
eerste schooldag 9001745 kom maar op
morgen gaat t nieuwe schooljaar dan toch echt beginnen! best veel zin in
chillen
solootje van janmaat hoorr
prima kamp gehad deze 2 dagen!
weet niet zeker, maar t is wel te verwachten hoorr
helemaal afgebeund bij fitland, en dan vanavond ook nog eens conditietraining. nice 👍
beter is er een of andere downie in turkije die denkt dat cissé een goeie speler is
effe met de waggie naar vlissingen geweest
eerste schooldag was een feit
school bevalt me toch weer een heel stuk beter dan werken....
gefeliciteerd hehh schout
gefeliciteerd! x
40 heel erg lekker
als je een penalty opeist, moet je m ook scoren.
dvo a1 met 74 ingemaakt.
chillen bij de kapper
dé smerigste koopclub van nederland vandaag 100 jaar.
12 verliezen, geen europa en dan uit volle borst
nu moet dat legioen juist 10 keer zo hard tekeer gaan!!
maar goed, 31 mag ook.
ja laat anders godverdomme je man weglopen wat een grafgoal!!!
het blijft toch elke keer weer heerlijk om zon volle kuip te zien
fc barcelona, ac milan, ajax en celtic... ziek hoorr
hahaha t zal weer eens niet dat ajax in een loodzware poule terecht komt...
loting champions league kijken
weer heerlijk getraind! klaar voor zaterdag.
roosendaal is 51 afgeslacht
“@gwavvk kloetinge wint de bekerwedstrijd tegen rkvv roosendaal met 51”
kloetinge roosendaal kijken
leuke introductiedag gehad echt zin om weer te gaan studeren
broek helemaal doorweekt na een gewonnen drakenbootrace
voor t eerst weer op reis naar school 👍
geordie shore kijken omdat er toch niks anders is...
hoppaaaaa eindelijk van de 0 af! hele goeie wedstrijd van feyenoord!!!
schuim op die bekkennn!!!!!
en alles ruikt naar bier, hoe is het ook mogelijk hehh
na het schoonmaken van mijn broek en schoenen, maar eens mn bed opzoeken...
gefeliciteerd man!!
zomercarnaval was ziek!!!
tering fernandez
eerste wedstrijd van t seizoen 41 verloren... slecht gespeeld
hahahahhahaha wat een debiel is vermeer
gaat lekker in heerenveen!
helemaal klaar voor morgen!!
wat een grafwedstrijd... ze moeten flink aan de bak in rotterdam..
wat een gekloot achterin...
heb puur naar de stand gekeken.
the gunners zijn lekker bezig hoorrr
heel lekker getraind
richting kloetinge potje voetballen
training ging weer redelijk
“@fcknudde feyenoord genaaid ”
oprotten!! aldus jan van der plasse...
potje voetballen
wie gaat nog meer hz introkamp?
ok
slaat gewoon nergens op
nogmaals duidelijk te zien dat vormer fischer niet raakt...
zat veel meer in voor feyenoord...
vormer raakt m niet eens..
via een onterechte pingel terug in de wedstrijd en dan krijg je dit...
oh en ineens wordt heel amsterdam wakker
beetje jammer dit, duikpartijtje van fischer
haha lekker vormer...
joey je weet wel dat het net 10 minuten bezig is he
kijken, er valt nog iets recht te zetten! come on feyenoord!!
1 deuremrol alsjeblieft
haha ik ook pas net, toch nog wat voor gevangen?
zo de eerste training van het seizoen
armenteros voor de rest van dit seizoen gehuurd, ben benieuwd..
bij yip?
en alweer een top weekend voor de nederlandse arbitrage...
nou, beter kun je het seizoen toch niet beginnen...
ja kap er maar weer mee, t lijkt echt helemaal nergens op
ja we zijn die hele meneer, je mening kan me niet schelen meneer
“@jeroendewild vanavond stadje ”
geen verkeerd rooster hoorr
jaa app me ff ben je nr kwijt
werkdag zit er weer op! lekker lang weekend nu
definitief geplaatst!!!
kijk hoeveel nieuwe spelers, allemaal van de eindhovense gemeentecentjes
eerste werkdagje zit er alweer op, nog maar 6 daagjes te gaan
volgende week eindelijk weer trainen!
whahaha heb jij nog wel geld over dan
hahaha vet! laat mij daar een keer in scheuren p
ziet er mooi uit man!
helemaal klaar met deze wedstrijd....
en weer thuis na 3 weekjes chillen in spanje!
deze avonden gaan veeeel te ver
de aanwinst van deze avond
wheee 18e verjaardag!!
wheee nog 20 minuutjes en dan fissa
wat een avond gister wow
ik zie je over 3 dagen man p
tour du jour kijken huize wolters