hij is een beest ik heb hem in mijn team.
😂
graag gedaan😂
ik ben blij dat ajax het ook verneukt is feyenoord niet de enige😂
nou psv wordt kampioen dus
hij doet het weer!
doe een keer voor de gein pokemon battle revolution😉
kwartmiljoen klinkt toffer
bedankt, nu heb ik zin in drop fruit duos
maakt me echt geen ster uit, ik vind ze allemaal super lekker.
we moet echt weer meer jeugd laten doorkomen
ja echt he
en de gameplay in squad battles is ook waardeloos😡
ja dat probleem heb ik ook
beter voor ze, gaan ze misschien een keer punten pakken😂
en zeker als je bekijkt dat het een speler uit de derde duitse league is
voor zn rating wel
hij heeft een fucking goed kaartje
ik bedoel het kaartje van die linkerspits
heb jij die stats van die gast gezien haha
oh nee niet diks
ja eigenlijk wel
lijkt me wel, zelfde geld voor nelom, kramer en bilal
die kleur noem je lelijk
oh en dat van jullie was lekker
was nieuwkoop niet fit trouwens?
maar ja wie moet je daar dan neerzetten?
maar slechter dan diks kan bijna niet
en dan mag ie niet in het eerste spelen?
ja en waarin je van swift verloor
jaaaaa
ja dat heb je met ea
in albert heijn staan genoeg dozen😉😂
ik denk dat ajax helaas de klassieker wint.
ik ben feyenoordfan maar ik vrees dat ajax wint
6 en 7
zielig dat je deze tweet plaatst
komt u maar
dat had ik vroeger altijd op school. vet lekker!
dat had ik altijd op de basisschool. vet lekker!
ik vond het een rode kaart. dat is mijn mening.
omdat dit gewoon best een domme actie is als je al geel hebt
ja was rood, trouwens wat heeft ramos hiermee te maken???
bovendien is af en toe een rode kaart niet erg dat is het risico van verdediger zijn maar deze was gewoon dom
overdrijven is ook een vak, neem het niet zo serieus joh
waar kijk je scherm 1 en 2?
barca speelt tegen olympiakos schat😉
wat zegt je vanavond?
denken dat ik me verslapen heb, maar er achter kom dat ik vrij heb😄
ik wil wisselen in de rust in squad battles kan ik niet meer terug😠
terecht
2000 is het engeland
zeer spijtig
misschien komen ze er eindelijk achter dat het was bij
misschien komen ze er eindelijk achter dat het was bij
als ze dit nou ff een paar wedstrijdjes eerder deden😧
rick, ga naar de kapper
bij de kapsalon, wat voor gek kapsel ga je nemen?😉
koeman als bondscoach a.u.b. zal binnenkort wel ontslagen worden bij everton
dit is zo triest, het is gewoon bijna grappig
ja maar het is tenminste een aanvaller soort van
en van dijk en rekik naar voren sturen...
ik zei het al toen ie weg ging bij az, alleen goed genoeg voor eredivisie
er vanuit gaande dat we niet van zweden winnen 90
alleen ziggo sport helaas😧
niet gratis zeker als je geen ziggoklant bent?
veel teamgeest😂
callejon ga ik ook maar eens proberen, ik heb nu felipe anderson.
ik had 1 of 2 wedstrijden schorsing wel op zn plasts gevonden maar 4 of 5 is inderdaad overdreven
wat is er nou gebeurd met robben en dost?
apple. niet te doen
kans dat we het wk halen gaat 5% naar 2%....
moet ik maar eens gaan doen dan....
locadia is beter😂
die klote zij dat het een zware hersenschudding was😂
wel rekik en de ligt, maar geen van dijk😂
die heeft toch ook een hersenschudding?
wat een drama selectie....
dat zijn de kaartjes op fifa 18 ultimate team
ja en roda jc wordt kampioen
check dit
20 euro uitgegeven en ramsey als beste😑
ik ook niet!
en haps
waarom heeft iedereen geluk in het begin?
correct en tevens juist
ja, schorsing telt alleen voor competitie
messi geeft zich zelf te weinig uitdaging in deze schijtcompetitie
zet je psvbril even af
welke club gaat nl top 3 bestormen dit seizoen?@luckygraafnl
als je kan doen wat je zelf leuk vindt
hoe is het verdedigen in fifa 18?
helaas ziyech
74 max
moet je aan doen tijdens je pokemon videos, brengt geluk
wel rustige muziek
sta je nog wel open voor suggesties voor nieuwe series?
ja dat is waar
ik vind die series die ik net noemde vond ik eigenlijk ook vooral leuk omdat ik die games vroeger echt kapot gespeeld heb😂
super smash bros melee vond ik echt een toffe serie maar als andere serpentjes daar anders over denken dan gaat het over...
dat je series afmaakt
janssen voortaan niet meer oproepen a.u.b., liever dost, huntelaar en van wolfswinkel
zijn spelling is gewoon goed hoor
jaaaa
dat zegt ie ook niet
nee gewoon niet
jongens ga maar naar huis en heel hard huilen
pokemon battle revolution
ja gibraltar en frankrijk en nogal een verschil hé
vind je het gek tegen zon wereldelftal als frankrijk
als advocaat strootman er nou af had gehaald ipv sneijder bij de rust was er niks aan de hand geweest maar ja
probleem is alleen dat de jong zelf niet eens goed genoeg is😂😂😂
welke game?
het was de assist van en de goal van
wat heb jij nou weer gesnoven?
jazeker!
moet gewoon rood zijn en 5 wedstrijden schorsing
gelukkig doet luuk de jong dat oh wacht....
little man
jajaja
lieke
beste coach ter wereld is zoiezo
ik had hem wel redelijk dicht bij
welke game?
en via wat kijken jullie premier league dan?
noice!
nee
gefeliciteerd!
gaat goed hé 😂
toch maar jones dan
ja inderdaad😂
code voor fifa 18
het land van?
feyenoordfans zijn overal, ook op ameland
stokbroodje kruidenboter
met
rick kon je het weer niet laten?😂
ek onder 19 gezien toevallig?
colosseum voor de 2e keer!
neeeee dan ga ik op vakantie
plants vs zombies
pokemon colosseum
pls doe winnie de poeh
rudiger is gewoon goed hoor
echt een schande
wat een topvideo weer
vanavond nog live stream?
gefeliciteerd
maar uiteraard sterkte aan nouri, vrienden, familie en
heb het niet gezien
het is gewoon onweer hoor
nee drogba zou geen 99 passing hebben
we houden van je😉
dat is mooi, geef je het de volgende keer aan mij?😜
gvd, ik ben jaloers
dit is veel lekkerder dan die plastic meuk van de mac
nee want duitsland speelt met een bteam
ja echt he ik ook!
naar de mcdonalds gaan
joachim löw ziet de confed cup gewoon als een uitprobeer toernooi, want ook bij duitsland zijn ze toe…
een spel
jongens bel de krant
fc nantes kampioen frankrijk 20172018😂
nieuwe serie
ja ik ga je nieuwe video kijken. o wacht....
en dat poll gebeuren?
pas als jij gaat uploaden mag je je bek opentrekken.😂
joh kom je daar nu pas achter?
ik zou morgen verder gaan, voor mijn gevoel is het zondags minder moeilijk.
kan je dan mn opgevraagde nummer opzetten van een paar streams geleden?
jaaaaa
hij is minder opvallend maar minstens net zo goed
ik heb gehoord dat arias in het bos is gevonden😂
doe dan pokemon colosseum
voor 30
welk seizoen was ie wel goed dan?
tuurlijk
wie wint de premier league volgend jaar denk je?
wat is per positie je favo speler van fifa 17?
sparen voor tots of if bonucci
hoe zijn de stadions en de sfeer enzo?
ja hoor
een paar oude klassiekers reuploaden😉
oh jammer
streampie dan maar om het te vieren?
no shit sherlock
inter shirt met icardi?
nee is smerig
kan je dan nog wel een keer mijn opgevraagde nummer opzetten?
nu is mijn nummer niet geweest😭
kan je dan misschien mijn opgevraagde nummer opzetten van een paar streams geledenwant dat kwam er…
dus je bent zondag in de kuip?😂
wanneer krijgen we die 50k?
dat zeg ik niet
ik ook niet hoor
ja precies maar hij zegt dat de feyenoord spelers als een zak stront spelen
ja komt door zn lelijke ajax bril😂
ja inderdaad😂
ajacied zeker?
die goal kwam anders mede door die heerlijke pass van toornstra
mn nummer is niet opgezet😭
mij ook mn nummer is niet geweest
of sunshine
waarschijnlijk bundesliga
wij hebben tenminste champions league
gefrustreerd?😂
zn broekzakken zitten vol met klaassen schone en ziyech😂
nou voordelig zijn ze niet echt, ze zijn fucking duur😂
die zij niet silver jammer joh
red hot chili peppers
herkenbaar
thuis met mijn broer
.@feyenoord trekt hem vandaag over de streep... 🏆
jup ik heb het ook gedaan😓 het beste wat ik kreeg was trapp😂
ik open 10 packs en krijg trapp als beste
heb geen team
ik zie het
jup speelt bij grasshoppers in zwitserland😂
je vergeet lucas andersen
wat is die verdediging van lyon toch ongelofelijk slecht
hun enige goede speler
zeg dat jullie ajax fans zijn is niet mijn probleem
jup feyenoord fan in hart en nieren
hoe laat ga je live? het is al 11 uur geweest
ik had 2 gewonnen en 1 gelijk
welke game en hoe laat?
wanneer krijgen we die 50k?
ik heb ook het idee dat fifa dit jaar moeilijker is. in fifa 16 haalde ik divisie 2, met fifa 17 kom ik niet verder dan divisie 5
ja want ik heb net mn team verkocht
nee want die andere spelers zijn ook untradeable
ik heb nu geen team meer lol
heb hem toch wel gedaan en dan krijg ik dit😭😭
nee dat is het kutte hij is untradeable
heb gestemd
morata james isco zitten toch op de bank bij real
vanavond weer stream?
dan is het een jas😂
kan je binnenkort nog een keer mario kart double dash streamen? is 1 van mn favo games maar was vannacht in slaap gevallen
en lacazette
legggo
gewoon doen
younes kan niks snap het nou
gio
ja bij mij ook
0x want ze komen niet door de verdediging van juve heen
wat een tegenargument😂😂
ja maar atletico gaat geen 34 goals maken
een schotje😂😂 buitenspelgoal😂😂 ga huilen in een hoek
was gewoon geen buitenspel
nou nou wat een prijs die jcs
dat wordt een sappig oranje kaartje👌👌
ze zijn beter dan de hele arsenal selectie
jaaaaaa
en wanneer ga je het weer in feyenoord 1 laten zien?
lekkah!
ja lijkt me wel zo logisch
ik ben feyenoord fan maar ik denk sinkgraven links en tete rechtsback
oh nee toch niet die is geschorst
jup eindelijk
toch hoop ik dat ze op hun flikker krijgen
oh ik snap er ik niks meer van de een zegt van wel de ander zegt van niet
dus van mij mogen ze op hun flikker krijgen van united of lyon
nee want als ajax europa league wint en 2e wordt speelt feyenoord voorronde champions league ipv direct groepsfase
ja echt he
volgens mij bedoel je dybala
inderdaad
wie wint de cl?
wiee denk je dat er kampioen van nederland wordt?
nee gewoon niet
bierhoff zeker?
hangt van je team af
vd heijden karsdorp el ahmadi…
is 330k waard😂
uit de daily sbc😂😂
wat is die promes slecht zeg
ik vind het eigenlijk best lekker😂
ja graag!
helaas is dat te duur voor mij
mario
ja echt he
precies ik ook
neeee niet hij
goed man 2e van het seizoen😂
heerlijk
mijn career
die neymar en suárez vallen echt bij ieder contact
tuurlijk een engelse club die de cl wint😂
jaaaaa
nee gewoon niet
het zal ook eens niet
welk spel?
geschiedenis
ja echt he
ik ook😙
bovendien gaat het in het voetbal niet of je het verdient of niet