leuk om te horen bjorn, dank je wel!
daar is ie weer. aflevering 57! over raymond verheijen, en jan de jong.
zoals altijd gaan we om 20.00 uur weer live op facebook! vragen? stel ze dan alvast nu. tot vanavond!
nog een half uurtje. deze 11 gaan het veld in. voorspellingen?
nee gio, die kritiek is wél terecht. nieuwe online. over gio, leiders, en meer!
vanavond om 20.00 uur gaan we live op facebook om met jullie te kletsen over ons cluppie. vragen/opmerkingen? drop ze hier 👇👇
zeg maar gerust tik.
geen woorden voor...#rodfey
mag hetzelfde kleur broekje tegenwoordig ook niet meer???
nog 5 minuten, spanning stijgt. voorspellingen??
loting voor knvb beker heraclesthuis. daar hebben we schitterende herinneringen aan!
ah, nee dat was johan niet
we zitten allemaal op qq!
en voor de itunesliefhebbers
goedemorgen kameraden. een nieuwe staat klaar! over leiderschap, en de gifbeker
mee eens ja. bedankt voor het luisteren, wederom. hulde!
aflevering 55 staat online, beste kameraden. hoe nu verder? dat is dé vraag. 👇
vrienden... morgen nemen we tóch weer een nieuwe kg op. ook wij zijn even radeloos, dus alle hulp is welkom hoe komen we hier weer uit?
is het al zondag?
heel zonde, maar dik applaus voor alles aan gedaan tegen een dodelijke tegenstander. met opgeheven hoofd naar zondag!
niels butter valt bij 019 in met rugnummer 12. als iéts een ongeschreven regel is...#feysha
nieuwe aflevering! een cruciale week, maar en slepen ons er doorheen!
je vergeet rob nog
en ineens is het weer een nieuwe voor de nachtploeg staat klaar! ✈️✈️✈️
om acht uur gaan we weer live op facebook. stuur nu je vraag in! dan gaan wij m voor je beantwoorden.
nog 11 dagen tot de in het mooiste stadion ter wereld! beide supp.verenigingen willen weer uitsupporters vanaf 18/19. doen?
geen wél over de huurlingen, en
voor de avondploeg een nieuwe podcast! over tapia, huurlingen en
daar heb je natuurlijk gewoon een punt. een heel goed punt.
om 20.00 uur gaat weer live! heb je vragen? wil je iets kwijt? stel ze alvast, zodat we ze meenemen in de uitzending!
rob en johan hadden al een kaart, maar ook wesley heeft zojuist zn kaart voor binnen! wie zien we in
daar zijn we weer! aflevering 52 is een feestje, want en 04!
nachtdienst, nagenietend in bed van of gewoon nog lang niet moe? nieuwe aflevering!!!
nou we hebben je gemist op zuid. welkom terug!
kameraden! vanavond om 20.00 gaan we live op facebook! stel je vragen vast, zodat we die kunnen beantwoorden!
zou zomaar kunnen ja
na afgelopen weekend weinig reden om depressief achter de microfoons te gaan zitten inderdaad 😜
wat een liefde! dank voor de waardering sander!
nou dat moet dan voor 5.000 man in manchester ook wel lukken.
herkenbaar
morgen feyenoorders. weer verloren, maar met iets meer perspectief. hoe zijn jullie opgestaan?
we doen onszelf met zon tussenstand echt tekort. 30 in plaats van 21. verdomme.
haha, zeker!
je hebt de ene kant van het scorebord al goed!
hahaha. heb je daar al €€€ op ingezet?
nog een kwartiertje! voorspellingen??
online! nieuwe aflevering van over dirk kuyt, blessures, en 👇
voor de avondploeg onze nieuwe podcast staat online! hoe nu verder? over mentaliteit, tactiek en een oude bekende..
niet vergeten over 5 minuten zijn we live via vragen zijn nog steeds welkom!
oei, wat een verschrikkelijk nieuws. dat kon er nog wel bij... sterkte
zit je na dit weekend ook vol vragen? wij zijn om 2000u weer live om ze te beantwoorden stel je vraag nu alvast!
gaan we morgen bespreken in de uitzending, mark!
hij heeft een uitzending schorsing, ja
een kater na heel veel drank voelt een stuk prettiger...😓
herkenbaar 😐
in persco leek gio toch te suggereren dat berghuis 1 op 1 vervangen zou worden voor buitenspeler? bilal/larsson
eeuwige twitterroem! 😜
we zochten natuurlijk naar patrick mtiliga, zoals als eerste raadde!
het is weer woensdag, dus mogen jullie weer op zoek naar de speler die verborgen zit achter deze bio!
koekoek! lig je nog te stuiteren in bed? speciaal voor de nachtbrakers onze vijftigste podcast!
extra inhoudelijk sowieso! 😜. komt nog een leuke actie aan!
hahaha. dat waren geen reguliere uitzendingen, maar scherp
goede vraag 😜.
kleine mijlpaal we nemen zometeen aflevering 50 ! op! ontzettend bedankt voor het luisteren en tot snel!
matchday!! op weg naar eindhoven.
de speler die we zochten was, zoals als eerste raadde, glenn kobussen!
haha, behoorlijk ja! ook in de kuip toevallig, vanavond?
het is weer woensdag, dus we hebben weer een opgave voor jullie! welke speler hoort bij onderstaande spelersbio?…
leuk om te horen, thanks!
veel plezier in rotterdam vandaag
vroege vogels verzamelen! 👇
doodsbang zijn ze!
ja ja, wij zijn helemaal klaar voor de hoe ervaar jij straks die epische hymne? we zijn benieuwd…
daar is ie weer! aflevering 49 van staat klaar! we komen!
de staat voor de deur, en daar hebben we ongelofelijk zin in. nieuwe podcast!!
stemmen! hoe moet gio afwezigheid jørgensen oplossen? vanavond nemen we jullie mening mee! geloel
polletje kapen deel 123! berghuis is genomineerd! 🏆✔
we hebben best zin in de nieuwe uitzending. 😎
johan is onze afgevaardigde in almelo vanavond. check onze instagram story voor verslag vanuit het uitvak!
🎵🎵 opdracht voor het uitvak vanavond een warm welkom voor feyenoorder sam larsson! 🎵🎵
het goede antwoord was natuurlijk de man die hier op zijn gat lag ramon van haaren! hulde voor megasnell…
nieuwe week nieuwe kansen! welke speler zoeken we?
hey dosty, gaaf werk man! zou je ons kunnen volgen zodat we je even een dm kunnen sturen?
eindelijk! kein geloel is vanaf nu ook op instagram. volg voor updates, filmpjes en een kij…
er staat een heerlijke septembermaand op ons te wachten, dus tijd voor een gloednieuwe 👉
hee, psst! onze podcast van deze week staat al online nu ligt er een fundament voor een gouden tijdperk
om 2000 uur zijn we weer live! stel al je prangende vragen en quiz mee met quizmaster johan.
fijne bijkomstigheid op deze feyenoordloze zondag. wát een plaat. ❤️
eva jinek gaat voor een kijkcijferrecord vanavond.
welkom bij de mooiste club ter wereld, jan!
stilste voor de storm, of zijn we gewoon écht klaar nu? drop je mening
denk dat jan de jong dat met zijn ervaring ook wel begrijpt...
vertrouwen in dat dit de beste de jong is die deze zomer is getransfereerd!
is vanuit de jeugd inderdaad naar newcastle gegaan maar heeft alleen schoenen mogen poetsen…
het juiste antwoord was natuurlijk brian pinas! complimenten voor het snelle antwoord!
op deze druilerige woensdag zoeken we naar de speler die past bij deze bio. roept u maar!
we zijn er gisteren op geattendeerd. gaaf, hè? nu maar hopen dat ie massaal wordt ingezet in almelo volgende week!
dank marc! altijd leuk om te horen!
voor de laat een beoordeling achter 😀
uitstekende reden om te luisteren naar de nieuwe 👇#feywil
lekker, feyenoord staat weer bovenaan en dat bespreken we in een nieuwe kein geloel. op facebook gaan we om 20.00…
😎
haha, wanneer kunnen we langskomen ?
iemand enig idee waar het voetballer van het jaar gala 2017 is terug te zien?
wordt voetballer van het jaar 2017 nog herhaald of is het ergens terug te zien?
ja! voor de zekerheid maar iets vastgelegd, inclusief gratis annulering voor het geval we niet mogen
zo, de tripjes zijn geboekt! hoe kijken jullie naar de loting?
oh oh oh. duurt lang! we komen terug halverwege pot 3, als we bijna aan de beurt zijn 👇
17.55 uur is erg optimistisch 😅. uefalotingen kennende gaat het iets langzamer. we houden je op de hoogte!…
we gaan om 17.55 uur live op voor de loting van de kijk je mee? &gt
eerste klap is een daalder waard wij hebben ons eerder geplaatst dan liverpool, sporting en cska!
het goede antwoord was natuurlijk errol refos!
snelle vervanger van viagogo!
woensdagmiddag quiztime! vanaf deze week tonen we elke woensdag een spelersbio met aan jullie de vraag wie o wie…
haha. lijkt ons gezellig!
afgezien van shakhtar een hele mooie loting!
geen makkie, wel paar mooie trippies. en iig geen combi!
3e plek zit er zeker in, ja!
wij kregen as monaco, porto en spurs. jullie?
en vervolgens maakt iemand er een volledige karaokeversie van 😂😂😂
ziet er puik uit!
en de vraag hoe men dat qua rijen voor de tap op gaat lossen
je hebt gelijk jurjen 🙈. gelukkig blijft de handhavingvraag hierover wel relevant.
ook via recensie achterlaten mag 😋
aflevering 46 alweer!! over de sjakie, sam larsson en meer! 👇
voor de mensen die straks geen oog dicht doen de uitzending staat stiekem begin van de nacht al op soundcloud en itunes!
morgenochtend weer een nieuwe aflevering natuurlijk over, larsson, het grote sjaak, varkenoord en
krijgen we er nou ook nog geld bij? 😆
stuur je vragen in! om 2000u zijn we weer live op onze facebook
welkom samba sam! deze zingende luisteraar heeft een welkomstlied voor je! 👇🤩
altijd op dinsdag online! nog een dagje wachten dus...
bij af....
nog een weekje!!!
graag!
helpt zeker niet mee, inderdaad.
dingdong. nieuwe aflevering online! met o.a. &amp soundcloud itunes
kan je niet slapen of ben je nog aan het stuiteren na de overwinning op twente? we hebben een verse kein geloel!…
yo! om 2000u gaan we weer live op facebook. stel ons al je prangende vragen en quiz mee! &gt&gt&gt
bedankt! heerlijke materie voor analyses achteraf!
je was niet de enige kunnen we verklappen 😜
haha, neem het niet persoonlijk op, hè 😏. verschil in applaus was groot, in positieve zin!
heerlijk interview met in dit is waarom ik nog jaren voor wil spelen
ha mannen. hadden jullie onze dm nog gezien?
feest! onze is jarig. hij vindt het leuk als je hem feliciteert. zondagmiddag volgt zn cadeau!
wéér een prijs! onze johan won bij op de quiz en kreeg deze prachtige zaag. die krijgt…
nu dus
werk saai? om 13.30 uur zijn johan en wesley te horen op luisterlinkje
daar is ie weer! de tweede aflevering staat klaar. over diks, voorspellingen en
kan je zo verdomd slecht slapen? niet getreurd! voor de nachtbrakers staat de aflevering al online
tot slot hij staat online 😉. veel plezier, benieuwd wat je ervan vond! welterusten alvast!
graag gedaan! als je nog een kwartiertje geduld hebt, kan je hem via soundcloud al luisteren 👍
en anders zie je hem vanzelf op voorbij komen 😊
he pieter! ergens vannacht staat ie erop. morgenochtend bij het wakker worden staat op !
hallo! om 2000u gaan we live op facebook. stel je vraag voor in de uitzending en doe mee aan ons quizje! 👇👇👇
met die eerst en laatste zit je goed 😋. het ek vrouwen...dat weten wij ook nog niet 😜
wij springen zo de maas in!
en weer een schaal! begint het al te wennen?
origineel! die hebben we nog niet gehad 😀
honger? we hebben taart! stuur je voorspelling en minuut eerste goal +/ 2 minuten en win een
uitstekend! doen we. sein ons even in als ie voorbij komt, hè!
viel ons wel op dat kg nog niet in de vragen is voorgekomen, marc 😉
jahaaa!! daar zijn we weer, de eerste aflevering van seizoen 2 staat voor je klaar! hierrr
vanaf morgen is kein geloel wekelijks terug! vanavond starten we bovendien met iets nieuws. houd onze facebook om 2…
we zijn er weer! ❤️⚪️
ter voorbereiding van ons nieuwe seizoen, belandden we op 14 mei. wát een dag. onvergetelijk.
deze ongelofelijke held viert vandaag zijn verjaardag. proost,
gaaf! als er ooit een vertaling nodig is, weten we je te vinden
nog eventjes geduld. even onze kelen sparen om het weer een lang en succesvol seizoen vol te houden 😜
gefeliciteerd mannen! en nu alles geven in dat prachtige shirt!
zoveel liefde heeft feyenoord nog niet voor ons, helaas. maar wie weet volgend seizoen!
geweldig! etappezege voor feyenoorder bauke mollema!
misschien moeten zijn medespelers wel een verbod krijgen om hem over de grond aan te spelen 😜
sprakeloos...alle sterkte voor hem en zijn familie.
terechte vragen. nemen we mee ter overweging voor onze eerste uitzending van het nieuwe seizoen! bedankt!
met johan eens? of vind jij het nieuwe van feyenoord wél mooi?
eindelijk, de lang verwachte presentatie van michel breuer.
na vertrek van dammers en blessure van van beek, zitten we dun in de centrale verdedigers. welke speler moeten we halen voor die positie?
wat ontzettend heftig. heel veel sterkte, nouri.
we zien je luisterbeurt g…
dank dennis! en daar zullen we eens naar kijken!
in een verse podcast komen de transferperikelen aan bod. zou haps een versterking zijn?
ja! daar zijn we weer! een kersverse podcast om die zomerse stilte te doorbreken! …
stelling 2 het is goed dat van geel nu naar haps informeert.
stelling 1 15 miljoen is een prima bedrag voor terence kongolo.
ondertussen in de podcaststudio...
bedankt ricky! voor die mooie jaren bij feyenoord, met een beker en een kampioenschap. en die redding tegen psv als…
we zijn druk bezig met de voorbereidingen. gaat niet heel lang meer duren .
fijn om te horen!
we zijn druk bezig met de laatste voorbereidingen op volgend seizoen, dus het strand heeft ons nog n…
kicken! voor werk?
fraai!
op 10.500 km afstand van woont onze verste luisteraar singapore! op hoeveel km van de kuip luister jij
97% van de is volgens onze enquete van het mannelijk geslacht. vrouwen, verenigt u!
oeh ah elia! bedankt voor 2 prachtige jaren, je was on fire in het roodwit🔥🔥🔥
grote, grote klasse, mag ook gezegd worden. onze freek mag ook nog naar de welk shirt trek je aan?…
nieuws van de knvb! goed om te weten dat het slechts om een paar overijverige stewards gaat....
dat dan weer wel ja.
beste jullie zijn wel te gast in de kuip, hè? van onze freek blijf je af!
start met meisjesvoetbal en zet 1e stap richting eredivisie vrouwen. dat werd hoog tijd, zei wesley al e…
ja, natuurlijk!
ze zijn mn stoeltje nog aan het dweilen!
zeker, we zijn echt blij met de feedback. op naar 200
haha, ja. dank. dit ziet er leuk uit, maar is hopeloos
kameraden nieuwe link naar de enquête, als je hem nog niet hebt ingevuld invullen is te gek, bedankt!
morgenochtend een nieuwe link, mocht je de enquete niet meer in kunnen vullen. hij kan er slechts 100 aan 😅.
rt zou gers zijn
de speler van het jaar volgens rob? en hij legt uit waarom. ben je het met hem eens?
mee eens . dan maar opnieuw beginnen 😉
de laatste van dit seizoen staat voor je klaar! we kunnen gaan nagenieten!
dat doen we in deze uitzending, geen zorgen . en in de zomer ben je nog niet helemaal van ons af!
vanavond nemen we de allerlaatste van dit schitterende seizoen op!
omdat iemand die vaas erop zette 😂?
mooi zo! we volgen je even, zodat je even in een dm je adres kan doorgeven .
haha, top zeg!
mooi geknutseld, femke! 🔴⚪️ we hebben nog wel een kartonnen kampioensschaal over als aandenken, als je wil?
rekenen we goed!
in de categorie nagenieten. waar heb jij jouw schaal staan? tweet met
we mochten eens bij collegapodcastmakers aanschuiven. bedankt heren!
kuyt kwam terug op zuid en maakte ons dol, dol, dolgelukkig. bedankt voor alles, held!
cantona heeft gelijk, hahaha. warme gevoelens dan?
🎼 jij krijgt dieeeee lách niet van mijn geziiiiicht!!! 🎼
lieve simon. na al die bezoeken aan rotterdam ben je niet een klein beetje verliefd op geworden?
ongelofelijk bedankt voor de mooie reacties op de laatste podcast! wij dromen nog even verder!
die hadden we niet gepland, maar nu je het zegt is dat een tof idee. komen we op terug
dan zak je een paar plaatsen na een week op 1, en dan sta je op.... 12!! bijna net zo mooi
kampioenen! we zijn sprakeloos, bijna letterlijk zelfs 😅. een extra lange wat is dit mooi!
reken op het laatste, dan kan het altijd meevallen 😅
uiteraard!
dit smaakt naar meer! wij gaan, net als feyenoord, mega hard door!
wij zitten al ready! topsfeer!
en toch is het zo.
daarom ook goed dat voor zondagen kaarten gekocht moeten worden voor centrum!
blijft een lastige kwestie. inslaan op ogenschijnlijk onschuldige mensen lijkt ons in ieder geval niet de oplossing.
.@vieirankosi sowieso altijd fijn om in een lijstje boven amsterdam te staan 😃👌
missie geslaagd! vandaag op 1 !!! binnen in de viral charts. op naar de
helemaal mee eens, maar aan die kernwaarde twijfelen we behoorlijk.
je hebt het mooiste stadion ter wereld. dat moet je behouden, aldus freek. praat mee
echt hè? bizar wat 1 zon miskleun bij de buren met ons supporters doet...
we volgen je
uiteraard!
mooi! welk programma?
waar gaat de reis heen?
kameraden! een kersverse, opbeurende podcast. zonder lijden geen verlossen
we zijn best vrolijk
zo is het, marc!
ja! 😉 we gaan niet de depressief doen hoor
we hebben ons even moeten opladen, maar natuurlijk nemen we vanavond een gloednieuwe op!
we gaan in de uitzending van deze week proberen positief te zijn! komt goed jan!
hoi luuk, we deden dit puur voor de lol hoor. verdienen er geen stuiver mee 😉.
uiteraard jaap!
nog geen update over de streamingcijfers van spotify. nog even afwachten, dus. en dat doen wij zo lekker op varkenoord!
.@vieirankosi oh en trouwens...... matchdaaaaaayyyyyydkekwoqjnakwlepeppqplsssff!!!!
bedankt voor het streamen iedereen! hier nog een boodschap van the man himself tot op de.... 😉
je kan nog 45 minuten helemaal los gaan 😜
dat weten we morgenochtend pas met zekerheid te zeggen...
nog 1 uur!
nog 1 dag...#feyenoord
normaal gesproken weten we morgen pas hoe vaak hij gestreamd is. niet zo vaak dus
nog ff een dingetje voor de laatste 3u op nr14 van de viral charts staat nu een vitesselied. dat kunnen wij beter!
streams worden niet realtime geüpdatet, dit zijn dus hoogstwaarschijnlijk nog de resultaten van gisteren
ondertussen vertelt de spotifypagina van in 3 songtitels het verhaal van dit seizoen. 😆
ai, jammer. dan luisteren we m zelf nog een paar keer extra namens jou
hoi jim! hij zou volgens de licentie in principe wereldwijd te luisteren moeten zijn, in ieder geval…
.@spotify het is overigens goed mogelijk dat dit nog een update van de streams van gisteren is en we hier nog dik o…
koekoek! update we staan momenteel op bijna 14.000 streams!! nog 3k en we komen de charts binnen.…
geweldig! op naar de 😉
we kunnen het helaas niet realtime volgen, maar de vele enthousiaste reacties werken voor ons al als doping!
het schijnt dat en m al uit volle borst mee kunnen zingen...
we zitten middenin het welke kameraad heeft nog niet genoeg gestreamd? vermeld ze! 🔴⚪🎶👇
hoe vaak heeft ie bij jou al op repeat gestaan? deel m ook met je kameraden!
of gewoon kampioenen! veel krachtiger dan welke afkorting ooit toch?
max 10 keer inderdaad. maar, dat nummer kunnen we toch heel de dag horen?!
kameraden! zaterdag is streamdag! doel? het kampioenslied van in de charts! steamen!
haha, ja uiteraard!
uiteraard! drinken we samen een biertje op de coolsingel! 😃
wauw arjan, prachtig compliment! dank!
ons kampioensanthem is vandaag uitgekomen! heb jij m al gehoord? 🔴⚪🎶👇
wat een prachtig compliment, rolf! we geven het bij dezen door aan
bij ons merken we geen problemen. lukt het nog steeds niet?
ja, vooral morgen die van vandaag tellen niet mee voor zaterdagcharts, maar streamen is altijd goed!
streamen is altijd goed, alleen telt niet mee voor de charts van zaterdag
online! rapper vieira met de kein geloel kampioensamthem coolsingel. streamen maar!
en weer een polletje succesvol gekaapt! 💪💪 is dit de volgende? &gt&gt&gt
nog 4 dagen...#feyenoord
nee, vrijdag online. maar bij hadden ze de primeur. bij deel 2 kan kan je hem luisteren
tof, dank! hier de link naar het event zou dit in jullie artikel geplaatst kunnen worden?
meedoen? zet jezelf op aanwezig in ons event
podcasttijd! de laatste voor het kampioensweekend. en de die zal op woudestein te horen zijn! …
die volgt als we die schaal echt binnen hebben!
nog enkele minuten wachten, en hij staat weer online!
gouden veters hebben we al genoeg, tijd voor de allergrootste ooit! de top 40! join ons
uiteraard wouter!
zo, wij zijn er klaar voor!
😎
is goed, laat maar weten!
overigens mag je iemand meenemen!
als je het tof vindt om te komen, stuur dan even een mailtje naar keingeloelpodcast@gmail.com, dan sturen we je het adres!
stuur een mailtje naar keingeloelpodcast@gmail.com, sturen wij je de uitnodiging!
haha, daar is verreweg de meeste ruimte voor een bbq 😉