hi, ik wilde aanstaande vrijdag in rotterdam naar thor maar ik zag geen voorstellingen. hij gaat er nog niet uit toch?
de ontwikkelingen met ziggo enzo zullen ook meespelen denk ik? die heeft gewoon een gratis kanaal voor cl voetbal.
dit is het allerallerallerbeste wat twitter te bieden heeft.
done! veel succes!
het is denk niet meer dan redelijk tov de rest als ook ziggo klanten moeten betalen voor e…
todoist en google keep zijn mijn brein. zonder functioneer ik niet😂
nelom heeft beleefd bedankt voor de prijs. nu dus de vraag wie hem wint in plaats van nelom.
juist nu wordt er toch gewoon meer verwacht? dit kan niet meer. dit was een niveau waar we sinds koeman al niet meer op zaten.
goh, wat zullen ze bang zijn.
namens vlaardingen wijs ik dit plan beleefd naar de prullenbak.
ik hoop dan op geertruida. lekker de jeugd een kans geven in dit soort wedstrijden.
mikos, wat doet feyenoord qua training anders? echt stevige blessures achterin. kan bijna geen toeval zijn toch?
en nu kruipend terug. lachen dit.
het moment dat je er achter komt dat het leven zoveel mooier is met het kleinste lettertype op ios.
jep, wonderen bestaan nog. dat mag je niet iedere keer verwachten.
zonde, want normaal gesproken hebben teams altijd zo’n moeite met luxemburg.
helaas. ben nu wel benieuwd.😂
graag gedaan.😜
eens dat de wissels vandaag anders konden, want diks&gtvente kantelde de wedstrijd in negatief opzicht.…
zoals afgelopen woensdag door bilal in te brengen? een plan b is gewoon onzin. plan a is prima, en je…
op het moment dat mensen niks weten te zeggen over een team of wedstrijd, ontbreekt er opeens een plan b.
vooral dit. de doelpunten van kramer waren essentieel.
kunnen ze mooi de tv gelden hiervan eerlijk onderling verdelen.
paars. allemaal de schuld van paars.
al moet ik wel zeggen dat het ook smaak is. ik zou zelf bijvoorbe…
nou, turkije moge duidelijk zijn met alles wat er gebeurd. voor d…
voorbij de oostgrens dan idd. spanje en portugal is prima. ben toen ook naar rome…
ah! ik heb met mn maten afgesproken om niet voorbij duitsland te gaan. dus die pa…
dan kunnen wij ze helemaal niet loten toch? dan zitten ze met ons in pot 4.
wat een goed plan! laten we dat maar doen, want dan heeft nederland gelijk een plekje in de groepsronde van de cl v…
hoi! kan ik in kroatië game of thrones kijken via de ziggo app?
yes! gelijk besteld! order bevestiging komt later?
dat is de werkweek van paul van liempt blijkbaar!
thanks voor de service weer👍🏻dus als ik niet te veel wil betalen zeg ik op eind juli? dan zou het aug…
als je dat zou willen doen, top👍🏻 ik kan het dan na game of thrones gewoon weer stopzetten toch? in p…
ik zou graag dat zenderpakket willen voor game of thrones. is de eerste maand nog steeds gratis? ik kreeg daar een mail over.
mijn favoriete ajax speler verlengt! gefeliciteerd!
hahaha😂 wel een pracht bedrag voor kongolo. speelt al twee jaar halve seizoenen.
jep. trump wordt met de dag raarder. niemand die hem tegenhoudt.
gaaf. hoe een boekenwinkel hip kan zijn.
hoi, kan ik dit maandelijks stopzetten?
ja zijn mooie films😂
oké zodra ik thuis ben ga ik hem bestellen. fucking tof.
ajax speelt donderdag el, en die zondag erna de klassieker. handig na die ophef vorig seizoen👍🏻
blijf zitten tot het einde! doe het!
zoiets, dan weet je wat je kan verwachten.
hallo hans, sorry dat we zo enthousiast zijn over videoland. ben je geen serie fan da…
nu nelom, een paar jaar terug bahia. wat een enorme culthelden.
gek genoeg lijkt sierd de vos op zijn beelden wel iets te hebben gezien.
wat een kansloze regie. wat gebeurde er nou net met cuadrado en ramos?
dit moet in finales. lekker zeg! mandzukic is echt een enorme cultheld en doet gewoon dit. 🔥🔥🔥
ik ben nog niet eens klaar met house of cards! wanneer moet ik slapen?😂
ja dacht het wel te horen. wordt nu op fox uitgezonden.
zit een mooie fout in trouwens. in het begin toen feyenoord won van utrecht op de dag d…
wedstrijd niet gezien, maar ik vind de videoref een epische toevoeging. samen met hawkeye. hihi
ik hoop, samen met de cl loting, zo snel mogelijk! het was me een seizoentje wel voor de meeste volksclubs!
tsja, wat moeten ervan vinden? ik denk dat ik blij ben dat nec eruit ligt.
dit was mijn favoriete bond. wat een baas.
kan ik die feyenoord vi bestellen ergens? was maandag iets te blauw.. uhhh.. blij om een vi te kopen.
jij ook al?😜
komt er een kampioenshirt? meer football culture ga je niet krijgen man!
je zonnebril maar weer opzoeken voor morgen he?
eens😂 ik vind het wel spannend voor. moet je nagaan dat er een heel nieuw episch stadion langs die maas staat.
ja, we moeten het gewoon op ons af laten komen joh. nu gaan alle balletjes echt rollen.
wacht, heb je tech besteld? wat was je bestelling?
gaaf. mooiste route die je gaat rijden.
vet man! ik heb hem vorig jaar gedaan. van la naar sa via de kust?
prima. als je dit vanaf het begin van het seizoen regelt, is dat uitstekend. beter voor de prestaties van el/cl clu…
jep, ik had kaarten voor die wedstrijd tegen psv en die tegen groningen toen. dit is lekker man. we verdienen het.
lekker studio sport kijken vanavond feyenoorders?
help deze jongen.
ja toch. wat een bullshit weer zeg. echt schandalige stemmingsmakerij dit.
geldt ook voor frfc natuurlijk.
gelijk even gevolgd. bedankt voor dit gespr…
en voor ons hart is het nog belangrijker😅
ik denk aan twee punten 1 gudde ziet o…
dat is inderdaad iets wat ik me altijd a…
dat is dus het punt. als buitenstaander waar ik mezelf wel toe schaar h…
dat was het. succes ermee.
dat is stap 1 want ontkennen dat het andere kamp bestaat heeft echt ieman…
we hebben hetzelfde belang namelijk onze club. het zou goed zijn om eens…
daarom snap ik als jullie zeggen dat je weinig voorstanders kent, maar mo…
jullie volgers, maar ook jullie manier van praten over bestuur zijn ander…
want er zijn echt veel voor maar net zoveel tegenstanders van het nieuwb…
ik ga me er niet echt mee bemoeien hoor, maar het zou echt goed zijn als…
ik zag dat interview van pierce morgan met hem. kan toch bijna niet anders?
maar hoe hoog was de opkomst in nl? oekraïne referendum was imo ook niet representatief ondanks duidelijke 65%.
ik kan trouwens bevestigen dat dit een probleem is voor de npo. had het zelf met een seri…
waarom gebeurt dit? totale frankrijk n00b die dit vraagt trouwens.
mag ik ^tb terug? jou mag ik geloof ik niet zo.😂😜
nou, ik blijf voorzichtig😅 ik leef van wedstrijd tot wedstrijd. meer dan een wedstrijd per keer…
ga er vanuit dat we in de kuip gewoon de punten pakken💪🏻
nee dankjewel. het valt me alleen op dat het zoveel onhandige reparaties zijn dit seizoen. is a…
geweldig gepland weer door geen treinen naar de kuip te laten rijden👌🏻
opslag!
jij ook al? mensen in mijn vak ook man! wat een toeval he, al die mensen die ons dit gunnen.
hoe lang kan zon man nog onze toekomstplannen verpesten?
maar de vraag is of zij het niveau feyenoord zijn. woudenberg beter dan nel…
achter de feiten aanlopen noemen ze dat. schiet ook eens op met jong feyenoord in de piramide.
al is het bij feyenoord nu geen gebrek aan doelpunten wat zorgt voor puntverlies eerder die tegendoelpunten!
geruchten gingen al dat het ongeveer gelijk was aan opel.
nou, eindelijk een nieuwe hoofdsponsor. nog best wel sympathiek ook. lekker groen💪🏻
wanneer was eigenlijk de laatste keer dat feyenoord met acht doelpunten verschil won?
lekker potje man. kan me echt niet herinneren wanneer dit voor het laatst was.
nu nog zorgen dat ze iets anders dan een reclame kunnen horen👌🏻
misschien omdat ze kwalitatief als beste tds worden gezien? vindt het ook twijfelachtig, maar dat is het…
er stonden nog twee mensen voor, maar wist het niet zeker of je het nou was😅
goed dat ik het weet, ik zeg de volgende keer wel even gedag dan. wel zo netjes😜
zag ik je nou staan wachten bij die kapotte poortjes?
ben benieuwd of het ad nog van die praatjes heeft!
op basis van de hoge ranking van el ahmadi ga ik voor 4.
die had je kunnen zien aankomen😜
move to ios schijnt ook een uitstekende app te zijn.
zag hem niet staan bij mijn bestelling namelijk.
hallo! hoe zit het met een seizoenkaart+uitkaart? heb nu een silvercard, maar niet gebruikt. heb ik hem volgend seizoen wel?
wauw. waarom was dit er niet mijn hele leven?
als ik dan ook filmpjes kan downloaden en offline kan kijken zou dat helemaal top zijn.
opgelost dan. want dit doe ik ook voor netflix en spotify. helemaal prima
wil best een kaartje betalen voor youtube, of in ieder geval voor de youtubers die ik graag volg. me…
vind youtube een stuk fijner met adblock😅
ach, onze eigen iwan heeft ook bij vlagen wat partijdige trekjes. leuk toch! zie ik veel liever dan die…
dit dus. wat een enorme afgang. voor dit soort dingen schaam ik me echt.
hahaha ja! kuyt kan echt wel nuttig zijn hoor, maar niet op linksbuiten. beetje een foutje van gio ook denk ik.
als feyenoorder heb ik moeite met die situatie. je gunt kuyt veel, maar hij heeft echt geen niveau…
buitenlandse bondscoach betekent niet dat we onze speelstijl verloochenen. sommige buitenlandse trainers dragen hem juist beter uit.
al is ajakkes ook wel een dingetje.
lager. veeeeeeeeeeel lager. echt veeeeeeeeeeeeeeeeeeeel lager.
hint vlaardingen
hoi! ik wil mijn dal voordeel opzeggen, maar ik heb geen zin om te bellen. ik hoop dat jullie deze luie twitteraar kunnen helpen?
nou, hoe lang houden jullie het nog geheim?
dit moet het beste nieuwsbericht van de dag zijn?
doen! designated survivor is tof, maar kan je niet bingen😜
ja man, inderdaad.
ik zie dit veel te laat, maar dit is de beste gif ooit gemaakt. ik ga ook nooit meer iets beters zien op internet.
lekker man.
helaas nep
mooi man! lekker bezig idd!
trots dat ik op heb. weer mijn stem, mooie uitslag. gefeliciteerd!👍🏻
trouwens echt tof dat er tot nu toe blijkt dat heel erg veel mensen zijn gaan stemmen.
max en ik vroegen ons af wanneer we een voorkeursstem op jou kunnen uitbrengen?
eerst werken, daarna stemmen op en
ik ben altijd zo gefascineerd door dit soort dingen. hoe kan dit gebeuren?😂
tuurlijk. lekker man. we moeten van die angst af joh.
woordenwisseling in de trein terug. sommige fans vinden dat je moet uitspreken dat je kampioen wordt, andere niet.
wolla ik zweer je
top stuk in catenaccio man! fijne ontwikkeling dat we steeds meer mensen zien op de tribune die dit ook vinden.
ja toen wij er achterkwamen dat hij dit zelf deed, waren we echt stom verbaasd😂
ongelofelijk. dit soort dingen gebeuren dan ook gewoon.
alles voor de overwinning. dirk hoeft niets meer te bewijzen. heeft zijn plekje tussen de helden al.
ophangen in de kleedkamer
die jesse klaver maakt het me wel makkelijk. ik twijfelde een beetje, maar zulke stomme dingen zeggen helpt enorm!
the expanse ga ik op mn lijstje zetten!
ik zag op je tv showtime profiel trouwens dat je dexter nog niet afgekeken hebt. ga dat eens gauw doen!
ik vond travelers wel tof. hou je een beetje van scifi?
gewoon doen. is een sowieso een goed idee, hoe goed het ook mag gaan.
beetje saai joh. iedereen weet ondertussen wel dat we onze wedstrijden gewoon winnen.
mooi, en van de zomer verkopen. doei!
vraag me af waar kramer is. aangezien hij zich zo drukt maakt om kuyt.
wat een helden zijn wilders en rutte. wegrennen van het dialoog puur en alleen omdat er een extra kandidaat bij is.
ik heb even navraag gedaan bij andere inshared leden, maar die hebben niet zon groot verschil of gaan zelfs minder betalen.
ik ben voor mijn factuur deze maand aanzienlijk meer gaan betalen 12 euro meer tov de vorige maand. weten jullie waarom? 1
zou dan een geheim agent van onze stiekeme heerser wimlex zijn?
stukje clubmarketing joh. spel enorm populair en we hebben veel fans die het spel spelen. ben blij dat ze meedoen.
maar wij zijn de doelgroep ook niet😅
dit is letterlijk een competitie voor het populairste spel van allemaal. het is zeker iets. zelf ook niks mee 1/2
ik ben voor!
oke, black mirror is tof. het rare en confronterende tof, maar tof.
gelukkig komt de huidige regering op voor de vergeten mens die het zat is om tegen gelogen te worden door de regeri…
i know, maar dat is al wat langer aan de gang hoor haha
komt goed. zondag rug rechten en weer doorgaan alsof er niks gebeurd is
voetbal in 2017. historisch momentje hoor.
dit dus. dat a4tje wat aanbied geeft ook geen context, maar door die 171 paginas kom ik ook niet heen.
laten wij nou maar zorgen dat onze blonde leugenaar niet aan de macht komt😅
heerlijk, dat cynisme van a series of unfortunate events!
ik krijg op mijn adres steeds post van de oude bewoner van mijn huis. kunnen jullie dat stoppen?
ik krijg op mijn adres steeds post van de oude bewoner van mijn huis. kunnen jullie dat stoppen?
die heb ik gelukkig niet gezien😂
absoluut, want assassins creed heb ik veel gespeeld en is echt tof qua verhaal. had echt een goede film uit kunnen komen.
het goede acteerwerk maakt goed, maar ze hebben niet veel om mee te werken. is vermakelijk, maar de zoveelste game/film flop.
flinterdunne en saaie karakters. net als warcraft te weinig verhaal voor de gewone kijker. al hebben we slechtere films gezien
volgens mij die vincent de meest trotse eerste afvaller ooit. wat een baas.
ja ja, is net zo trefzeker als de slimme hrradiatorfolie van tonzon.
laat maar. ik zat te slapen. weet het al😜
ik heb een speciaal aanbod gekregen vanuit mijn werkgever voor ziggo, maar ik ben al een ziggo contract. hoe werkt dit dan?
sibon inderdaad. nam toen afscheid bij feyenoord heerenveen. daarna besloot hij opeens toch door te gaan😂
mensen die arsenal per se wilden zien, ik haat jullie.
heerlijk! vandaag boxing day! bijna alle top teams in de premier league voetballen vandaag!
prioriteit ligt wat mij betreft bij zijn voetbalkennis / visie.
was je me maar voor. ben bang dat mn twitter ontploft zo hahaha
ajax! oh, wacht….
omg, nieuwe emojis! nu kan ik iemand in emoji sturen dat ik twijfel tussen een glas melk en een biertje.…
ik heb ja gestemd.😜
is karsdorp op het middenveld geen optie voor gio? ook meer diepgang op dat middenveld.
het geloof was er niet echt volgens mij.
iedereen moet anders dit even kijken en zich afvragen of de pvv het antwoord is.
dan zit je op mijn vak! lekker man! alleen de trappen zijn jammer, maar het zicht op het veld is top!
waarom hebben wij dit soort awards eigenlijk niet? leuke beloning voor goed presterende trainers.
kan het kloppen dat in de nieuwe abonnementen van kpn spotify gewoon data opmaakt? heb een nieuwe sim only sinds oktober 40euro.
heb het maar weer uitgezet. wat een vreselijke bende daar zeg.
de diepte van deze selectie is ook weer duidelijk.
dit is echt geniaal.😂
dat ligt volledig aan nintendo😜
ben benieuwd. volgende week ook al een nieuw apple event. gaat me weer geld kosten al die berichten😅
bizar hoeveel naakte buitenlandse fotomodellen deze post leuk vinden. zo zie je maar weer hoe internationaal de ere…
of je denkt nu gast duhhh. of je hebt het opgelost. hoop ik, anders garantie? succes
daarna kan het een software fout zijn. opnieuw installeren, daarna backup terug. nog probleem? backup niet terugzetten.
als je batterij vaag doet, kan je nog je accu opnieuw te kalibreren. softreset aan stroom en dan anderhalf uur aan stroom
wellicht wat obvious, maar al geprobeerd te checken na een softreset?
precies! bedankt👍🏻 erg blij met mn nieuwe portemonnee!
niet nodig om hem nog een keer te sturen dus
ik heb zojuist een bestelling netjes op tijd binnengekregen. krijg echter net een mailtje dat hij vertraagd zou zijn en morgen komt.
tuurlijk, wij zijn er altijd!💪🏻
wauw, dat is wel heel optimistisch zeg. is zeven wedstrijden winnen al genoeg tegenwoordig?
ja eens, ik ben ze ook liever kwijt dan rijk daar boven. dit gedrag helpt je zaak niet. mensen zijn nu tegen die groep.
ja man, steward werd van de trap geduwd. en daarna een beetje trots juichen en zingen. rot gewoon op dan.
oh bizar, normaal zie je dat. het is een reactie op dat liedje van clinton. welke idioot heeft de leiding over die campagne.
wat een dwazen.
ding ding ding! jullie hebben de koelkast!
ik zie, ik zie wat jullie niet zien en het is blauw...
lol, dat is wel raar idd. helaas snappen niet alle bedrijven iets van service.
wat is er gebeurd?
er zijn mensen die plezier hebben buiten met vrienden, en er zijn mensen die hier commentaar op hebben.
hi, hebben jullie ook opties voor tweestap verificatie?
twee dagen?
het is 822. m’n medepassagier opent z’n tweede biertje.
dat weet ik, vandaar mijn vraag of ik ziggo sports totaal via twitter kan afsluiten. heb niet zoveel zin in dat bellen
hi! kunnen jullie regelen dat ik de premier league kan kijken komend seizoen? of moet ik daarvoor bij zijn?
en dan die nieuwe harry potter achtige film.
ja idd! was toevallig. echt een leuke tent!
het gaat wel om een mewtwo hè?
zag vanochtend wat statistieken. het is al net zo populair als twitter, en wordt dubbel zoveel gebruikt als tinder.
echt tof. ik ben vanmiddag een rondje gaan lopen. zoveel mensen die hetzelfde doen. echt ongelooflijk.
balen. ik ga morgenavond waarschijnlijk. beetje van hetzelfde wel?
apple maakt namelijk voor ieder email account een aparte agenda. die van outlook staat gesynchroniseerd met een exchange.
staat de afspraak de apple agenda app? zo ja, kan je op de afspraak tikken en de agenda veranderen?
wacht, is idols weer op tv?
ben benieuwd.
ja zag niet wat er gebeurde. leek een reactie op van gerwen.
drama partij man.
neeeeeeeeeeeeeeee. why? why?
graag gedaan!💪🏼
ik haat iedere app die geen vingerafdruk gebruikt. met eenmalig inloggen kan ik nog net leven😜
eigenaardig. vertraging van minimaal 15 minuten en dan nog geld durven vragen. doet de ns gewoon.
ik zag die column meer als paracetamol voor ajacieden. tijdelijk geen hoofdpijn meer😜
met de nieuwe blendleiosapp lees ik quest deze maand gratis. jij mag ook, download ‘m hier!
wow! dit is lang gele... oh wacht.
gelukkig maar. wellicht zijn we er dan wel bij!
tegenwoordig zijn het ook supporters
ja, en dan ook rvc leden die van geel opeens wel goed vinden na het winnen van een beker. zou niet uit moeten maken voor beleid.
ja, een topclub bewaart de rust wel op belangrijke momenten.....
jol werd bij ajax ontslagen na een enorm aantal doelpunten. al acht ik psv een stuk slimmer.
is het niet raar dat er sommige rvc leden dit laten afhangen van een beker?
tranen bij het begin van zn carrière waren gepaster geweest haha!
goed nieuws? rot op, kampioenen huldig je op de coolsingel.
ik niet vanwege feyenoord😭😭😭
ik neem aan dat jullie vanavond gewoon kanaal 14 hebben aanstaan?
ik maakte me al zorgen om je. moest gelijk aan je denken toen ik het nieuws hoorde!
leuk dit soort oefenpotjes. kijken welke talenten feyenoord allemaal heeft. mooi doel ook.
och, wat heb ik vaak in fm geprobeerd deze formatie na te maken.
same goes for totaal voetbal.
daar gaat de finale.😭
net gehoord op de podcast van het internet der dingen. soms is het echt niet erg om gewoon de engelse term te gebruiken.
echt een toevoeging voor dit land. liever 100.000 vluchtelingen dan dit soort lui.
een echte finale heeft verlenging en penalty’s. tof! wel liverpool nog even winnen aub.
wat is wembley toch een briljant stadion. sommige shots zijn echt zo vreselijk episch.
wij zijn feyenoord, wij zijn de beste? dat lees ik elders heel vaak.
scheidsrechter, fluit af. ik ga dood van de spanning hier. wat een bizarre wedstrijd.
nice, lekker begin zo. 3 minuten de nul houden moet een nieuw record zijn?
utrecht uit. er waren momenten in het verleden dat je zekerder van een overwinning was.
je maakt een geintje nu toch? even voor de goede orde zeg maar.
nou, stabiel zijn we wel!
er gingen ook wel eens de verhalen de ronde dat gio contact met koeman en rutte genoeg vond.
mocht feyenoord ooit betrapt worden op dit soort ongein, dan ben ik benieuwd hoeveel pleuris er uit breekt haha!
persoonlijk ga ik voor eens, maar over het algemeen denk ik dat hij nog zat krediet heeft.
goed stuk! ik hoop dat er een oplossing voor het stadion komt. dan kan een stap de goede richting in zijn.
tot nu toe laat feyenoord vermeer echt compleet in de steek. het had al makkelijk 30 kunnen staan.
met een andere opstelling spelen, alleen welke is de vraag?
ik vermaak me prima met dit gewoon jaarlijks blijven doen dit.
no shit! dat is even schrikken zeg. nooit verwacht!
toevallig he, dat bijna alle duurdere aankopen op de bank of tribune zitten?
van eijden staat er nog in? wanneer gaat hij er uit?
ik ga de rest van de avond in mijn kussen huilen. daar gaat de leukste kandidaat sinds… ooit?
en ik maar denken dat feyenoord verloren heeft. we hadden gewoon het meeste balbezit.
nou, volgens mij is de fundering gelegd😜
dat sowieso. jammer van zon idee.
idee blijft leuk. beetje hypen zo’n spel.
en ik maar denken dat de eerste alinea voldoende was xd
lol, heb je dit gelezen tinybuild brengt punch club pas uit als twitchchat het uitspeelt tweakers
terecht hoor. dit soort toffe shit moeten ze gewoon goed launchen.
is ook een idee, alleen is het daar al druk genoeg zo lijkt het.😂
dat is een idee! we gaan een eigen journaal maken!
kick he! zat het net ook te kijken, maar bizar hoe snel alles gaat.
albufeira is een geweldige omgeving. in de zomer tenminste.😂
bam! wie is de mol is weer begonnen! heerlijk!
mijn complimenten aan was nog niet eerder in nijmegen geweest, maar gelukkig worden we nog ergens gastvrij behandeld.
wat is het saai. zend het niet uit als je niet de intentie hebt om het publiek te vermaken. groot verschil met de televizier.
een ding. moet talent van het jaar winnen.
feyenoord is tot nu toe zo slecht dat je verrast bent dat ze de verwachtingen zo letterlijk waarmaken.
helaas kennen we ons feyenoord inderdaad net iets te goed.
ik wreef net in mijn ogen uit verveling. er was ook een kort moment van spijt dat ik ogen had.