ik denk dat feyenoord de klassieker wint.
sure, zijn nu 1.1k per stuk, alles ingekocht voor 400500 coins 🤔
ajax &amp feyenoord spelers nu verkopen of wachten ? 🤔
volgende week spurs man united in mmu denk je ? 🤔
nergens last van
waar ?
ik vondt dat ik voor de huidige prijzen al genoeg betaalde 🤔, snap de prijsverh…
bedoelde niet op mij, maar op die tweet van 🤔
vanwaar de agressie? 😂
zeker waar haha, ook wel leuk hem te packen aangezien het de hoogste rated speler is die je kan krijgen 🤔
is ook wel te verwachten met silver 1 😅
netjes, 91 alli een beetje goed? 🤔
natuurlijk is dat een voordeel. maar om nou te zeggen dat de knvb feyenoord probeert te bevo…
wanneer ajax volgebd jaar kampioen word, is het daan ook bevooroordelen wanneer ze in de arena spelen?
feyenoord bevooroordelen? dat slaat natuurlijk nergens op, ze laten de kampioen thuis spelen…
zal niet verkeerd zijn 👐
op donderdagavond? lijkt me onwaarschijnlijk 🤔
matchday!
2 games, 2x van de servers gekickt, heerlijk
hahahaha lekker utrecht
hoe is dit mogelijk...
dit is heel ernstig hahahs
letsgo psv! winnen goed voor het nederlandse voetbal👌🏼
prima overwinning feyenoord!
matchdayyyy!
pijnlijk..
man man man, wat een drama
nelom, je bent dramaaaaa
heerlijke redding vermeerrr
karsdorp is zo kapot goed
lekker hoor southampton hahaha
half uurtje tegaan!
bo3, heerlijke game!
achja, dan volgende week zondag maar even de koppositie pakken.
keelontsteking, altijd fijn!
voor het eerst gaan we vanavond gustafson in actie zien! voorspellingen? 21.
wat een top keeper.
nu drukken ajax..
aii, helaas groningen..
zou wel mooi zijn voor het nederlandse voetbal als ajax, groningen en az even winnen vanavond.
florenzi, how is het mogelijk geak?!
elia, wat een held!
van der wiel is gewoon een matige speler op het moment.
man man man, wat een drama dit
hmmm ja, nederland moet winnen, maar gaan zonder spits spelen..
jeffrey bruma, even huilen.
kuyt op de plek van immers, elia op links.
bo3 is zo tering vet!
kazim, stop met voetballen, nu..
na een hele week werken heerlijk 2 dagen vrij ☆
jordy clasie naar southampton, t gaat je goed!
vandaag verlaat de tour nederland, vanmiddag etappe 3! ♥
favoriete team in head 2 head?
stress stres stres, vanmiddag examenuitslag l
wat is vakantie toch heerlijk!
voetbal international, geweldig progamma xd
aightt, hoop dat in win d
mark, ik heb net dat bpl toernooi gewonnen, maar ik heb me free 50k pack niet.. is dit een bugg? ,
teveel luck..
eindelijk iets nice uit me supply drop ❤️ schattig
volg even terug voor dm p
wil 1 van jullie scrimmen vnv? p
man van de wedstrijd..
thuis na een heerlijke middag in de kuip, genoten van feyenoord, wat minder van kevin blom, &lt3
de gameboy natuurlijk haha!
veel plezier maat! doe jan de groeten xd eric, bruh xd
zo naar kappertje, dan van 1300 tot 1930 werken &amp morgen naar feyenoord heerenveen.
kaartjes binnen voor feyenoord sc heerenveen, zo kapot veel zin in!
kiest dijks voor feyenoord of ajax?
die teamates zijn gewoon goed hoor.
wat is vakantie toch heerlijk, ofniet? en ^^
ik ben er ook bij!
nu nog even flink door leren voor morgen
zondag naar feyenoord heerenveen &lt3
nog ff doorbijten en dan donderdag laatste examen, economie..
heel terleurstellend van feyenoord, nu via de play offs een el ticket pakken. &lt3
godverdomme feyenoord, echt ga is voetballen man.
ik schaam me nu best als feyenoord supporter, hoe kun je t nou zo verneuken, wow...
feyenoord is de lul... hoe kun je het nou zo verneuken, gvd.
weer thuis na een dagje werken in slagharen..
lekker laten gaan joh, was allang duidelijk
vanmiddag me eerste examen, nederlands!
wat draait toch lekker le muziek!
ik heb eenn nieuwe email gestuurd, montagaming is ready
fish, ik heb me vanochtend aangemeld met een aantal gamertags, maar ik heb het team vanmiddag aangepast, is dit een probleem?
ik heb clantags gestuurd, maar niet de roepnamen, mijn team heet montagaming
moet je echt van alle teamleden zijn email hebbeb, of alleen van de leader?
hihi jij bent schattig man.
ik heb heists net gedownload!
eerste 2 uur al in de aula omdat er geen leraren komen opdagen, top!
laat de nutteloze schooldag beginnen, heuj...
volg me terug, dan dm ik je wel
kijk deze badboy
morgen is het weer zover!
rooney, lloris, ashley young als vleugel verdedige geinig totw young met zijn 36 verdedigen.
onderweg naar huis na heerlijk ochtendje trainen.
het scoort er gemiddeld 5 per match tot nu toe, en ik krijg er amper goals mee tegen dat is wel nice haha
tegen dit team van mij wil je gewoon echt niet spelen hahaha geen geweldig team?
en koeman is gewoon een top coach
vrij weekend zonder fifa15 he?
tijd voor opnames! ik krijg m morgen pas binnen, bol naait weer eens
vermeer held hahaha
nog maar is de samenvatting van feyenoord, toch wel leuk om ajax weggespeelt zien worden..
feyenoord speelde beter dan ajax maar gelukkig toch de 3 punten mee naar amsterdam puur pech
jasper is een held olé olé zonder cillesen wad t 110 geweest
puur geluk
2e helft moet het dan maar gebeuren.
3x lat is gewoon pech, dat kun je geen schande noemen.
ajax word weggetikt..
teveel geluk dit godverdommr
hoop
ik hoop op een sportieve wedstrijd, maar natuurlijk op ik ook dat feyenoord de 3 punten pakt
matchday!
heerlijk uitgespeeld.
gecondoleerd remco.
beschamend dit..
immers speelt als een natte krant.
oke heerlijke goal, nog 1 aub..
geef t maar op feyenoord..
nee ze tweette datie vandaag kwam, was echt een hoopvolle tweet, ik las het eerst ook fout.oh sorry man hhh
nee manwtf dat tweette ea
demo is online voor ps4
hij is alleen uit in noord amerika voor ps3
janmaat is nog langer niet wies..
en het is weer dinsdag.. 1\8 l
immers eruit a.u.b..
dat commetaar van sierd slaat ook weer 10x nergens op.. shapsv
robben sws beste voetballer van het jaar..
wat nieuwe spits? gewoon te vrede!
minimaal +5 min...
weer zon beroerde seizoenstart, jammer dit..
alweer een dagje thuis na 2 heerlijke weken kroatië
al een weekje in croatia, matig weer hier, helaas,
amateuristich gebeuren dit.
duitsland mist een verdediger als ron beton
anti voetbal van argentinië, zo onterecht dat hun hier staan, en niet oranje..
zaterdag maar voor die 3e plek, t zal toch ook wel heerlijk zijn als we die brazilianen voetbal les geven..
gefeliciteerd!
was chill bij nelson vandaag! morgen examen van trainer!
nu op 433.nl &amp app wie is dé beste controleur van het seizoen, wereldwijd? yaya touré
wat bestaat er toch vreselijke muziek.
heerlijk die vakantie!
beetje judo kijken
3e geworden met fifa toernooi, 7 euro prijzengeld, no problemo 💪 slechtt hh
hahaha, al 1 vak leeg! heeeerluk
ajax vak zou al wel leeg zijn.
wel weer belachelijk dat wolfsbos anderhalve week vakantie heeft, en niet gewoon 2, gieren.
tusseuur is doodelijk
vandaag tot 4, dan een heerlijk lang weekend!
hij is er!! sick
lekker hoor twente hahaha
ik ziekenhuis bij ma!
maar geen wedstrijd vandaag..
14 vandaag.
en weer kapot last van me schouder
maybe sleutelbeen gebroken..
heerlijk dage vrij!
heerlijke goal
matchday ! groningenfeyenoord! jullie voorspelling? 13
teveeeel geluk ditbjezus
geef is geel
ajax moet t weer eens van t geluk hebben.
wauw scheids
facking verkouden ..
feyenoord word ook altijd genaaid in laatste 10min..
kinderlijk weer..
frank de boer wij willen de europa league winnen. die kan zoveel willen..
ajax torenhoog favoriet is te zien.
gvd eerste 3uur vrij
flappy bird gaat, clumsy bird komt..
kapot last van me nek
hoppaa, weer 1,2,3.
aight nog maar 5 punten verschil! spanning is terug
het is matchday! feyenoord nec vangt vanavond om 2045 aan. wat gaan we doen vandaag? 41
ik ben der
ben je er nog ? p
youto p
ik wagger wel 10 k ? p
ik haal tom erbij
zo effe naar winkel
moiemgodverdomme
tusseuur, zo bio. dan vrij!
wat is je psn?
wanneer nieuwe pinkslip ? ^^
kelvin leerdam feyenoord speelt alleen maar counter, zelfs in eigen huis. wij zijn voetballend veel beter. hahaha droom verder.
goed verdedigd weer .
maatschepij naast
bij ma in t ziekenhuis
nec moet even winnen van vitesse, en go ahead van ajax, dan heeft feyenoord geen schade opgelopen
hoere
kunnen ze geen eigen doelpunt nummer verzinnen? kleuters
oja en de enige echt gek moet scoren .
15
tussenuurtje.
clasie je kunt niet zeggen dat ajax veel verder is dan wij.’ anp precies die
ik geniet wel van die boze fans in mn timeline. zegt die niet bij een 01 achterstand x
ajax haalt de finale niet.
traditie ik heb ze in de kuip de afgelopen paar jaar niet zien winnen ?
verassend, nog een deen extra in t veld
gooi bakkal er voor clasie in ofzo
wat een.geluk .
wtf is dat voor een geluk .
janmaat baas haha
stil in de arena, hahaha
koppijn
eindelijk
poep ruiter
die commetator, vreselijk irritand
23 de vrij!
let is een keer op .
trainingskamp heeft niet geholpen.voor immers
doe is even normaal feyenoord..
degradatie voot ado, hahaha
kijkende
eco binkie
echt he
en dat is vierrrr
go van gerwennnn.
wat bestaan er eig veel kerstnummers… teveel..
bij opa &amp oma.
morgen kerst vieren bij opa &amp oma! jij ook al? ja, bijzonder toch? o.o
morgen kerst vieren bij opa &amp oma!
ik hoorde t wel dat je gebanned bentn hahaha, godverdomme dat was geheim.
gta v gekregen voor kerst!
kijkende
en weer een tussenuur...
zometeen nederlands..
oud en nieuw word mooi!
toe aan vakantie..
6,5 engelsss nerd
tussenuurtje
18, maar wel 40min rooster
als ijselmeervogels morgen even wint vindt ik het helemaal mooi!
mis een keer joh
gourmetten met.klas
30
vrij
heb t gevoel dat het pas 6uur is.
tussenuurtje
doet
twitter doe weer gay
lekerrrrrr
eerste 3uur vrij
zo maar even gaan ontbijten.
wakker, dagje vrij vandaag.
heerlijke goal
at hoogezand
gta praat hiero, haha.
zo maar is uit bed gaan.
ben je vandaag ook echt jarig? gefeliciteeeeerd !haha ja, dankjewel!
wakker, verjaardag vieren vandaag
slapen, morgen verjaardag vieren.
“@koenhogervorst ” gefeliciteerd ! x ty!
morgeh jarig
naast dikke
wel fack erge koppijn .
laatste 3uur uitval.. 1uur vrij dus
verslag je maken voor d&ampc, altijd leuk!
vrij
nog 2 uurtjes..
lekker weertie niet?
windstoten van 100km per uur, wtf lol
gebeurt niet, hahaha
onterechte rode kaart .
nice man suc6 ik doe zelf niet.mee hoor, haha p
ach zit niet zo te liegen!
je ownt in nolifen
ach hou op man, jij bent nolifer
over 2uurties vrij..
komt door t gamen
pass je ps3 naam.
eerste 4 uur beetie vervelen &amp niks doen..
anderhalfuur eerder vrij
haha,okeuj
bijna verslag af verslag? waarvan ? p
dm je nummer maar p
wacht
ga naar transfers &gt transferkandidaten
er was gisteravond zon bugg, als et goed is kun je em nu toevoegen..
donderdag fifa14
om 2uur vrij
4uurtjes d&ampc..
20minuten dan vrij
eco naast
die update op twitter is gewoon hinderlijk .
praktijk
3/5 vandaag
morn 1e 3uur vrij
wakker, vandaag familiedag.
last van me voet .
weer slecht uitgespeelt
ballo moet even score
ik wil gewoon niet naar de stand van de eredivisie kijken..
ga nederlandse spelers gebruiken ofzo
zo doorgaan
ik had meer verwacht van je kuipers..
geef hem 2e geel
das kut voor je xd