een verhaal over vriendjes op het veld en een vivakol en wat er mis is met het huidige
kans missen? beetje verkrampt kijken want ze weten dat de camera alles registree…
hij heeft geen ongelijk. toornstra staat in de rust gewoon te dollen met die gast die de 11 maakt. ongehoord vind ik
op voorsprong gekomen tegen roda, shakhtar 2x, ado en iedere x weggegeven.
aardig duo
we gaan het er morgen maar eens over hebben tijdens wat hardlopen
ja, maar gio ziet het niet. vilhelna blijven opstellen. zucht
dit gaat ook niet veel beter worden hoor dit seizoen
drie vrije schietkansen 😞
teveel spelers die echt heel matig spelen
wat een klotewedstrijd tot nu toe.
ja, gladbach heeft een zwart randje door het geweld tegen normale fans van bmg
maar aan het einde van de rit ligt er iemand anders in jouw bed en slaap jij op de bank
zo’n slaapfeestje met 8 kinderen is net als een huwelijk. het begint allemaal feestelijk enzo.
23 jaar geleden in bremen.
die beweringen worden meestal door toetsenridders gedaan die nog geen cavia kunnen onderhoud…
nee, maar ook toen sloeg argument nergens op. plek zat op ot. en in de tram ernaar toe en te…
zal je zien dat net zoals bij utduit aziaten, belgen, duitsers en scandinaviërs gewoon op wedstrijddag een kaart kunnen kopen.
maar 1 like....ook dit gaat mis
ultra’s zijn sowieso vervelende mannetjes. youtubefans.
bijna een week niets op facebook gepost en nog steeds geen zoekactie opgestart. ik word niet echt gemist op social media volgens mij
maar ja, realisme is ver te zoeken bij de nl sportpers. al maakte je gisteren wel weer domme fouten. we hebben niks in de cl te zoeken.
als zelfs napoli, door velen bewierookt, slechts 3 punten heeft nu kunnen we concluderen dat het niet eens zo slecht doet.
wel een mooie awayday in ieder geval. en voer voor woordgrappen leetowers.
schreef laatst mooi stuk over ronaldo. ook ik vind bijna alles eng aan hem. maar het is ee…
lijkt meer op een handpop uit sesamstraat.
heb ik laatst nog over geschreven. nauwelijks bussen voor de deur en ieder team val…
praag was toen gewoon een topclub. russische teams winnen nlclubs sowieso nooit va…
er is ook serieus niks aan. thuis tegen city was gewoon uitzitten. net als bezoek…
precies. iedereen denkt shaktar, die kennen we niet dus is te doen. realiteit is…
met 3 exeredivisie spelers die dus gewoon tekort komen in de premier league. wat een verrassing.
niet echt een schande in deze poule. een volledig fit feyenoord had nog wel kunnen…
ik droomde serieus en ik droom zelden over voetbal een 13. voor 6000 man in een ijskoud stadion.
staanplaatsen in de ik ben voor
af en toe een piek en heel veel dalen
ga weg man. van 1988 tot nu scc gehad. geluid van tribunes hangt a…
alsof het legioen wedstrijden wint
ik zie het niet gebeuren hoor. vanavond bloedeloze 00 op zijn best. gio heeft geen plan b
er dicht tegenaan? hij ziet toch ook wel dat boetius echt helemaal niks raakt. en met jorgensen voorin…
we worden ouder papa.
zaterdag bedoel ik natuurlijk.
zondag dus als mijn geheugen mij niet in de steek laat was ik in het seizoen 9293 voor het eerst op…
wedstrijd eens een keer van een andere kant bekeken gisteren. zelfde vak als mijn allereerste wedstrijd ooit in 198…
ja, dat is bijna een compleet jaar stilstaan. ik was altijd wel gecharmeerd van ricky.
wat heeft me een pech zeg echt klote voor hem.
vs fotos!
wat een ei die kramer. shirt niet waard. echt niet
10
ja, die was ook mooi. met 05 beginnen en met 05 eindigen 🔴⚪️
vond het wel een toffe aflevering weer
ja, en een paar geweldige potten. psv thuis en mvv uit. en overal massaal het legioen. a…
ja, omdat ie zo onverwacht was.
dit is echt een vreselijk slecht artikel. de stijl, de inhoud. werkelijk alles.
een van de mooiere stadions uit de championship trouwens.
een foto met 10 lichtmasten erop. die maakte ik 3 jaar geleden in nottingham.
toch maar een fotoverslag online gezet. een wedstrijd als een wortelkanaalbehandeling. zonder verdoving.
nee, maar als je niet in vorm bent moet je niet in de basis staan.krediet is niet voor eeuwig…
dat bedoel ik dus. oliedom. maar boetius staat steevast in basis. weet jij waarom?
ik vrees een tussenjaar met veel gekrenkte ego’s
heeft ieder team wel last van. nu toevallig beide cv maar van der heijden kwam ook pas in bee…
larsson ipv vilhelna in de basis? bilal brengen ipv boetius na 45 minuten. diks er niet afhalen tegen deze voorhoede.
dus is gio wel de man? ze kunnen het namelijk wel. ik vind hem tactisch erg zwak. blessures z…
klopt ja. nog geen fatsoenlijke wedstrijd gespeeld zowat. heracles geef je nog…
het was ook om je voor te schamen. de krediet van het vorige seizoen eindigt bij de eerste sp…
wat denk je zelf als je naar profiel kijkt?
wat een dramatische pot voetbal was dat vanmiddag zeg
er komt serieus geen fatsoenlijke bal aan
als rechtsback leek hij vaak alleen jones of botteghin als oplossing te zien. nu kan hij centraal proberen op te bouwen.
nieuwkoop centraal zou ik niet doen.
ik geef diks voordeel van twijfel. tegen statische spits kan het wel vermoed ik.
mijn allereerste op vreemde bodem
is dat een hybride auto? niet gewoon poging tot diefstal van accu?
weet ik, maar ik wil aangeven dat er van dat gefakkel weer een halszaak gemaakt werd
ik lees mensen over vermoorden van clubcultuur. dan ben je of niet wijs of 15
ja, en dat liep telkens goed af ook. 😞
dat zeg ik toch niet? ik heb het over de training hè. een training.
welke motivatie? de wedstrijd als kip zonder kop beginnen en volledig weggecountert worden zoals de laatste 15 keer.
vergeet het maar
niet normaal dit.
redding hoor!
jeugdspelert erin en gaan!
precies dat ja. er lag dinsdag best veel ruimte achter hun rechtsback. gá dan een kee…
daar heb je een punt. maar hij valt mij behoorlijk tegen iig
dan is het toch een vormding.
boetius haalt moeiteloos het niveau waarom hij destijds weg moest.
ja, alleen dat is echt gio zijn oogappel. die staat als eerste op de overheadsheet met de opstelling volgens mij.
geen toornstra en boetius. dat is echt de sterkste opstelling nu. boetius is weggezakt en toornstra bre…
wat een betutteling zeg. je mag echt niks meer!!!1111!!!!
23 jaar geleden vandaag. vs in een wedstrijd die vooral vanwege de return le…
deze week veertien jaar geleden.
zondag is er weer de hier een verslag van die van oktober 2016
cool, heb jij wedstrijd foto’s? die zou ik graag een x inscannen
luzern inderdaad.
deze week 25 jaar geleden, mijn allereerste europese uitwedstrijd. kwamen we de wolf tegen bij het spelershotel…
misschien kan ie ook een leuk supportershome in elkaar timmeren?
ook, maar grootste kans was voor larsson die treuzelde in de 45e minuut.
was zaterdagavond ook al zo hé. geen geel voor dat tijdrekken v…
ja, puntje had gekund en was verdiend geweest. scheidsrechter h…
ik wilde een grap maken met wij zijn feyenoord, wij zijn.... maar dat doe ik niet.
dit was gewoon een goede ploeg. het is nogal nederlands te denken dat wij bete…
wat een geweldige foto.
blijven staan is ook niet echt een optie. hoogstens naar de zijkant dwingen en de hoek…
een opstelling met nieuwkoop, van beek, larsson en amrabat en dus zonder vilhelna of toornstra en boetius m.i. aanstaande zondag.
de accountant van de uefa zag dat het goed was.
higler zaterdagavond ook ja. ik denk dat boer zo 5 minuten heeft ‘gestolen’, slim maar…
twijfelen ze niet aan hoor. stond net iets lager in pikorde dan boetius. maar zondag in de basis. mark my words.
misschien wel de lastigste poule van allemaal. mijn feyenoord deed het vrij goed vandaag. maar teg…
spelen goed hoor
die berg vond ik wel een aardige spits altijd. die toivonen een typische psver.
hiermee vergeleken is die magicroundabout in swindon een eitje
achteraf gezien zijn de beelden op woudenstein nog het mooist en zijn hattrick.…
in de rust van feyenoord vs city zei ik al dat het voelde als een wortelkanaalbehandeling. j…
ze deden het voorkomen alsof het journaal was. enfin, de voetbalstukken vond ik…
ik vraag me ook af wanneer dát dan was. tijdens een interlandweekend speelt liv…
ik was de ochtend na de titel tot weinig in staat. heb me naar de coolsingel ge…
ik kijk alleen maar netflix en nauwelijks voetbal an sich.
daarom. als feyenoord in eindhoven had gewonnen had je nu titelfavoriet geweest. en nu kunne…
ik kijk geen enkel programma. al dat gelul terwijl voetbal vaak ook gewoon geluk is. balletj…
en dat golfen en gesprek met rob janssen was ook behoorlijk geacteerd vond ik.
voorbereiding voor de al in volle gang
gelukkig blijven de optredens van coentje rondom de kuip beperkt en komt hij nooit voor de wedstrijd op het veld.
bij outdoor valley, iets verder dan de skiberg.
het is op de recent geplaatste uitkijktoren. walhalla voor sporters daar.
op/langs/over de skiberg en de
dat dan weer wel.
dat zal een volle bak trekken zeg. alleen een niet geplaatst land wil tegen ons oefenen.....
als onderzoeksjournalist met wat vragen over de brexit vermoed ik ook niet. dan vinden ze st…
wauzers, wat een tent. als je daar levend uit kwam was je een held.
ik vind het een beetje op die playskoolgarage lijken. met dat liftje erin en al die parkeerplaatsen.
vond ik eigenlijk ook wel. een dochter genaamd patty had ik ook wel wat gevonden
nogal, ik had gezegd dat ik mijn zoon zo vernoemen naar de eerste feyenoord…
een schitterend mooie column met een in en intrieste aanleiding
wat cool zeg! gewoon in de oor!
en lex immers. anders hadden we toen al kampioen geworden.
witschge en molenaar. mijn eerste klassieker was dit.
maar jij bent nog jong.
blijft echt een verontrustend beeld. al die onderzoekers op 1 plek
in de guardian een verhaal over de ramp met het kleurrijke elftal.
het was afgelopen weekend alweer de 13e het begon allemaal hier. alle fotos staan hiero…
nee nog niet. zal eens kijken
stukje van mijn hand.
nog 11 minuten per goal
fc keulen
dit was door prince. feyenoord 20 voor maar uiteindelijk 22
goede tip, staat nog op de lijst
kom maar naar rotterdam, wij zijn niet zo bekrompen lekker gassen over de coolsingel en het weena.
jullie gaan een mooie trip maken ook
afrikacup inderdaad, want daar plaatst nederland zich echt bijna nooit voor. 😜
laat mij met rust ja
een van de laatste echte britse subculturen. miskend en onbegrepen.
al vrij vroeg hoorde ik hem vliegen. op zoek naar plantages oid?
tis een schitterend land hoor,heb alleen nooit wat met italiaans voetbal gehad. matig gevulde stadion…
dank je wel. het is supporterstechnisch niet mijn land. aanstellers ook nog eens. me die kutscooters van ze
het is mijn alterego hé. al zie ik dat mijn echte naam er ook bij staat. help, de groupiessssss....
inclusief column van ondergetekende.
tsja, wie weet is ie wel gewoon een centrale verdediger alleen wist niemand dat nog. op…
net eerste paar songs beluisterd op weg naar werk. valt me niet tegen tot nu toe. niet echt spetterend maar redelijk.
wat een klootzakken. daarom nooit lid worden van wat voor club ooit. behalve de bibliotheek.
kikke foto zeg.
de oktobertrip in 2016 ging vorig jaar naar
een elftal van is zo gemaakt toch? de wolf, vos, de haan, bot, buffel, kermit erasmus.....
daar was ik ook bij. eenmaal thuis werd studio sport onderbroken voor de bijlmerramp.
nog best lang volgehouden.
zo, ingeschrijving voor de is ook gedaan. dat wordt weer een voorjaar lopen te trainen langs de rotte.
gisteren deed ik mee aan de
tis gewoon een gek wijf maar wel multitalent en op zich redelijk bescheiden.
gisteren gekeken. goede docu
mooi interview met bbc net. heb je north ferriby al eerder bezocht?nee, die werd afgelast en toen zijn we maar naar hull vs liverpool gegaan
ik ga op de weg naar huis ratm maar weer luisteren. wat ik van por hoor was 20 jaar geleden misschien ond…
niet heel steil hoor s
wow, dit is wel heel bizar
precies. houten vliegtuigen enzo!
fraai, maar zodra tribune 2 er ook aangaat is het helaas een stadion zoals alle anderen…
dit mogen ze in onze hoofdstad ook even lezen
niks haags aan dat vliegveld. iedereen noemt het gewoon zestienhoven.
een verhaal over goudvissen en &gt
nieuwe dag, nieuw verhaal. over hoe ik trek in bier kreeg na het flitsen op school
dat zou kunnen. maar vergeet niet dat van der heijden ook pas in beeld kwam na blessures kongolo en van beek.
geen jorgensen, botteghin, van der heijden. dat worden lange weken zo.
het is niet zo dat dit geen geld kost voor de fans.
barton en moz. twee aardige karakters.....
zo, de inschrijving voor de is weer open. dat wordt weer trainen
romeinenplaatjes een verhaal over verzamelen van plaatjes.
feyenoord vs nac breda, een heel klein verslag
ongeschreven regels.....moehahaha.
iets zegt me dat ik een foutje heb gemaakt bij het inschrijven voor volgende week
zoveel power op het middenveld. valt niet mee om daar tegen te spelen.
kat op de doet ze anders nooit.
en zo is het
je moet er een gaatje voor overhouden. ikzelf heb een toetjesbuik
toffe band vroeger
hopelijk schop ik je niet voor je voeten maar ik vind deze beter
dat dacht ik nou ook. je moet nu van de hype profiteren. en voor die vrouwen lijkt het me ook te gek. spelen in de kuip.
ik ga er zelf niet heen maar het is wel een mooie derby die weer op het programma staat in een fantastisch stadion.
jullie vergeten de steel city derby op zondag toch niet? wednesday vs united op hillsborough.....
toch wel een schitterende loting voor een amateurclub.gewoon in de kuip mogen voetballen.als kaarten goedkoop maakt nog druk ook
echt ongelijk had ie niet natuurlijk. we zijn niet bepaald de padvinders qua aanhang.
die kerel zei letterlijk. tsja, we kennen jullie niet zo goed dus daarom schenken we maar geen bier…
dit is zo gers!
ja. ze schonken toen geen bier in het uitvak omdat ze ons feyenoord niet konden schitterend.
veendamuit. daar was ik nog bij. in het schitterende uitvak. zonde dat die club niet meer bestaat.
voetbal anno 2017, spelers die teleurgesteld zijn dat ze in fifa18 niet lijken.
persoon linksonder had al wel een mobiele telefoon. of is het een transistorradio? of een dictafoon? vragen. vrage…
en laten wij die precies geloot hebben in de champions league.
zondag de lopen te lopen. beetje last van mijn voet maar we gaan weer lekker rennen door de hofstad.
ik zal niet heel snel spelers afzeiken. maar diks als rechtsback kan echt niet vind ik. jongen doet zijn best maar jezum....
feyenoord vs ado voor de bekert.
de ligt er niet uit. die ligt gewoon hier
we zijn er weer. hup
geinig, wat is er aan de hand op schouwburgplein?
nou, dat scheelde een millimeter. alleen het ventiel van de bal was nog op de lijn volgens mij.
hij verdient meer krediet dan ie nu krijgt. en thuis tegen ado en nac kun je hem goed gebruiken.…
ja, na zijn barcelonatijd hadden ze wel een poging mogen wagen. maar dat zat er nooit in natuurlijk.
nee, al werd ie natuurlijk pas echt een spits in de mickey mouse competitie die schotland is/was. bij f…
wat een wedstrijd was dat. zonde dat ie zo moest vertrekken eigenlijk.
henke larsson is vandaag 46 geworden. het eerste wat in mijn hoofd opkomt is lalalaaa
beetje jammer als het echt zo zou zijn.
ik schreef ook wat over ben niet zijn grootste fan maar credits verdient ie wel.
ik leen ook vaak 85.000 euro aan mijn familie
in de 32 jaar dat ik naar voetbalwedstrijden ga heb ik wel ergere dingen gehoord. liedje van lukaku verbieden, wat een nonsens.
is michiel van instagram af? ik volgde hem maar het lijkt erop dat ie sinds een paar dagen alles weggehaald heeft/
ik zie bijna bij iedereen startvak b. is er wel naar tijd gekeken bij de inschrijving. of is vak a voor de toppers?
ik stopte net iets in de oven waarvoor ik bij de doodstraf zou krijgen. het is al mislukt voordat ik de taart ga bakken 😁
die kan ook zo mee op de peenvogeltrip
gewoon vente in de spits
nooit meer die kramer opstellen aub
boel bombarie maar is dat bijna zonder uitzondering een gezapige pot voetbal? tegen ons lijken ze altijd meer te geven
wat een tijd man 👍😁
wat moet jij lopen om mee te mogen doen?
middelbare mannen en kinderen op de tribune. gezinnetjes.
het moet niet geregisseerd worden zoals je nu soms ziet.vaak is de sfeer reactief, dat vind ik wel ok.z…
dit artikel. als engeland de oversteek maakt is het ellende. nu gebeurt het andersom en weten ze niet w…
dat europese fans ooit opkeken naar terraceculture in engeland.maar dat is lang geleden. het is nu eerd…
bescheiden koekje van eigen deeg. als engeland met 20.000 man naar ek in europa komt is het een grote t…
een van de meest overschatte nederlandse spelers die strootman. wat een trage gast is dat.
vaak zijn wedstrijden tegen topploegen teleurstellend qua spelers.alsof je date hebt met doutzen en je zit uiteindelijk met neelie kroes
fotoverslag van
en toch ga ik erheen. feyenoorder voor het leven
deze wedstrijd is als een wortelkanaalbehanding. je weet dat het moet en hoopt dat het snel voorbij is. 🔴⚪️
mijn eerste europese wedstrijd van zag ik 31 jaar geleden. ik schreef er ooit dit over.
yep. te beginnen vanavond
nee, die heb ik gek genoeg nooit gezien nog. wat er vanavond in de kuip staat is een franchise. alleen…
dit dus. ooit een sympathieke club. nu gewoon een geldmonster.
leeds vs united en leeds vs liverpool zijn niet te versmaden dan. ik hoop ook echt dat ze promoveren.
logische opstelling jones amrabat, st. juste, botteghin, van der heijden, nelom el ahmadi, vilhena berghuis, kramer en boëtius.
vanavond hebben we in rotterdam wel wat beters te doen
de laatste x was ik ook bij. in 2003 in aarhus. lazovic scoorde toen voor ons.…
waar is in je opstelling?
en de bal is rond. dat ook. manchester city heeft nog nooit van heracles gewonnen trouwens.
alle basisspelers van het team dat liverpool oprolde zitten erbij. dat wordt een lastige kluif hoor morgen.
cheers!
voor de onder ons. wat is eigenlijk het beste voor een overweeg om al mijn verhaaltjes te gaan bundelen.
ook geweest. met de bus vanuit rotterdam
de laatste keer dat city en tegen elkaar speelden was ik er ook bij. in denemarken. lees verder....…
logisch. 60 miljoen op zijn minst
kramerinho kopt gewoon ff de winnende binnen in de 89e minuut 👍
en in dezelfde 4 wedstrijden haalde vorig seizoen 9 punten en had het een doelsaldo van +1. nu 12 punten en beter doelsaldo 🔴⚪️
goede eerste helft, dramatische tweede. tweede van de zeven gevaarlijke kunstgraswedstrijden die gewonnen is. 🔴⚪️
hoezo? heeft die gast geen ambities?
ok. dat is klote ja. daarom bemoei ik me ook nergens mee
en daarbuiten ook. in engeland, duitsland en belgie overal idioterie langs het veld. domme disco en ellende.
we hebben nog steeds geen mascotte op het veld of spelletjes in de rust. dat is 95% van de clubs wel zo…
vind je dat echt? vroeger kon je ook speld horen vallen. vergelijk dat eens met utrecht thuis dit jaar…
dat het in de kuip al zo is. wie missen we dan? wie zijn er afgehaakt?
daar ben ik het mee oneens. hoe bedoel je dat? dat er meer gezinnen komen? dat is toch juist goed?
zeg dat wel.
wat een geniale review bij een ogenschijnlijk onschuldig product.
een op een tostie. als je dacht dat je alles gezien had in engeland.
foto van de afvaart van afgelopen donderdag. de ene boot passeert de andere.
zo, ik was weer eens een weekendje op het eiland. met en foute spelletjes. zie mersea island 2017
ieder land krijgt de supporters die zij verdienen......
een oud verhaal over een op
nou ja, precies mijn punt. iedereen denkt dat je dat ff doet zon club.maar je hebt met zoveel parti…
de meeste die dat zeggen kunnen nog geen vissenkom managen, laat staan een voetbalclub.
zingen over de jordaan. en over trapgevelssssss
of toch niet
ouwe, valt me mee dat ie niet over de westertoren of pikketanussies begint.
geweldig geschreven
wat een club, wat een club.
stuur de volgende keer het eerste! feyenoord vs willem ii
tsja, je had dus toch gelijk.
had een makkelijke middag.
aha, ik vroeg me inderdaad al af hoe je er aan kwam. want die heb ik echt nog nergens in nl gezien.
zo, daar heb ik er een boel van op vorige maand. prima biertje.
aha, te vroeg geantwoord. van mijn kant. maar standaard is het eerste weekend van oktober…
dat kunnen maar weinig ajacieden. de meeste blijven hangen in die onbegrijpelijke toetsenbordbrei wscafgahsjadjza of zoiets.
interlandweekend mannetje. dus je hebt pech.
dinsdag 21 november, 1600 uurman. city o19 feyenoord o19 academy stadium, manchester. als we er dan toch zijn...
nee, en ze krijgen alleen maar onbegrijpelijke kreten uit hun toetsenbord wdfshehekaazaza ofzoiets.
het is nu echt heerlijk als je een paar van die amsterdammers in je tijdlijn hebt. schitterend leesvoer…
paar zomerconcertjes doet de grasmat niet goed.
die had net de overstap gemaakt ja. in mijn herinnering was hij er nog niet bij toen.
stellen we toch gewoon tapia op in de champions league....#sparen
manchester united feyenoord en het verslag van de laatste keer in met ook dat was leuk.
in 2003 werd die wedstrijd ook gespeeld. in denemarken en ik was erbij.
ja, heb al ticket naar manchester geboekt
3e is mogelijk. speelschema is bepalend
city komt met b elftal. rest is niet overdreven geweldig.
schitterend man dit. al wordt uit moeilijk qua kaarten. iedereen wil