stellendam en herkingen delen de punten. 22 is de eindstand geworden. het was een leuke derby.
22. 86e min. maik molenaar kopt een voorzet van michel melissant achter de verbouwereerde keeper van helden.
stellendam krijgt kansen maar scoort niet en zo houdt herkingen hoop op de gelijkmaker. nog 6 min officieel.
stellendam krijgt kansen op de 31 maar ze missen. vd laan herkrijgt geel na charge op scaba barta. er gebeurt veel op molengors.
60e min. afstandschot met stuit verrast keeper van helden bijna. michel melissant her heeft pech. stand blijft 21.
54e min. grobecker worstelt zich in de 16 van herkingen vlak voor keeper verboven die redt met de benen de inzet. stand blijft 21
52e min. blessure keeper van helden. stellendamse verzorgster komt met de wonderspons. keeper kan verder.
2e helft begonnen, geen wissels bij beide teams. stand nog steeds 21.
leuk als niet kloppen. pepijn qualm is ingevallen met rugnummer 3 en op wedstrijdformulier staat lars markus met nr3. 😖#steher
ruststand stellendam herkingen 21.
vlak voor rust bijna 31. keeper verboven ver uit de 16, breederveld kapt hem uit. schiet op goal maar met sliding redt lars markus.
41e min. kansje herkingen. kopbal maik molenaar gaat naast het stellendamse doel. stand blijft 21.
patrick vd ochtend dacht de 22 te scoren voor herkingen maar stond buitenspel.
30e min. redding keeper verboven op schot van mettrop. corner leverde afstandschot op wat over ging.
twee goals binnen 2 minuten. eerst 11 maikel vd ochtend 21 min en 23e min 21 peter jan kooijman. heerlijk begin!
meer tegenslag herkingen. vanwege blessure marco v/d velde na 14 min al 1e wissel. lars markus komt er in.
bijna de 20 maar goal heerschap na pass buitenkant voet breederveld wordt afgekeurd. herkingen komt goed weg.
st’dam begint goed aan de wedstrijd, krijgt veel kansen in de eerste 10 minuten. brederveld schoot maar net naast bij een counter.
5e min. 10. mooie aanval opgezet door grobecker en mettrop wordt beloond met een goal. grobecker prikt de bal in de verre hoek.
opkomst van en scheidsrechter ed den turk heeft de leiding bij deze hopelijk mooie
onvoorstelbaar
er komt geen winnaar bij dbgc ssv’65 want scheidsrechter schot fluit na 6 min blessuretijd af en er is niet meer gescoord. 22.
22. laatste 5 min. komt er nog een winnaar? beide teams gaan voor de overwinning.
32e min 2e helft. het leek er op dat dbgc de bovenhand kreeg maar na scrimmage scoort rene zwamborn de 22.
65e min 21 dbgc. yannick lugthart rondt een aanval uit het boekje geweldig mooi af.
binnen 1 min. 2 kansen netjes verdeeld. schot bek namens ssv’65 op vuisten nieuwland. sep op vuisten keeper ssv. stand blijft 11
ruststand bij dbgc ssv’65 11. hopelijk start dbgc de 2e helft feller dan de 1e.
44emin. 11 komt uit de lucht. thijs tromp kopt een voorzet van mike jacobs binnen. ging langzaam over de lijn.
slordigheidjes stapelen zich de laatste 15 min. op in achterhoede dbgc. nu afstandschot na balverlies pulleman. bek schiet naast.
penallty gescoord door perry bek. ssv’65 komt op 01. bas mackloet duwt tegenstander in de 16. ook een gele kaart.
15 min. gespeeld bij dbgc ssv’65 stand nog 00. 1 actie van jeroen sep op snelheid maar boogbal verrast de keeper niet.
waar je mee om gaat raak je door besmet
wat een lamlendige wedstrijd.
dat doe ik niet. ik plaatste deze tweet in de rust.
speelt klote maar het kan nog slechter.
koffie, in een beker zonder logo, staat klaar. de lampen branden. wat mij betreft kan het beginnen. come on…
terecht dat jullie razend zijn maar ga gelijk ook hier mee aan de slag
na een eigen goal van sjoer robijn wordt de eindstand 32 in het voordeel van flakkee. verdiende overwinning.
31 86 e min. mels de blok kan alleen door op keeper de jongh, omspeelt hem en tikt simpel binnen.
grote kans voor flakkee. mels de blok op snelheid richting doel. legt de bal breed voor ruben fernandez. zijn schot gaat ver naast.
flinke overtreding van melissant speler dijkgraaf op ruben fernandez. hij krijgt geel waar wellicht rood ook mogelijk was geweest.
afstandschot van christian nagtegaal verrast bijna keeper vinke van flakkee. het blijft 21 voor de thuisclub.
flakkee voetbalt de 2e helft met wind tegen, doen dat beter dan melissant in 1e helft. levert kansen op maar nog geen goals. 21
21 vlak voor rust. jarno osseweijer zet sjoerd robijn aan het werk en die scoort met een laag schot. flakkee leidt weer.
40e min. 11 uit het niets scoort melissant. marc vroegindeweij schiet de gelijkmaker binnen.
flakkee heeft na 30 minuten spelen weinig te vrezen van melissant. zelf hebben ze kansen en de gasten bitter weinig. 10
in de 13e min. zet menno frank flakkee op een 10 voorsprong. speelt zich knap vrij en schiet vanaf de 16 de bal in de kruising
opkomst van en hopelijk een heerlijke
graag de cameraman volgende keer ergens anders plaatsen. is niet zoals bij het net doorheen te kijken.…
goed begin van feyenoord maar daarna toch weer te veel achter uit lopen. durf!!
een net voor je muil is één maar een staande cameraman is vervelender.
het zou mooi zijn als vanavond, a la eens deed in de champions league, er twee in schiet!…
ik kan de tekst niet lezen maar hij volgde de feyenoord keepers net.
met foto’s van spelers verwachten ze soms iets? beter die camera op richten! ome on…
ik wil het van terug op de koffiebeker!
de laat het daar maar gebeuren voor vanavond!
de lampen branden. ik heb mijn koffie maar de beker mist het ik ben er klaar voor.
na 3 min blessuretijd maakt scheidsrechter maaijenburg een eind aan de wedstrijd sns fios. 31 voor de thuisclub.
86e min. 31 wedstrijd beslist door robbin arensman maakt goed gebruik van zijn lichaam en knalt de bal laag binnen.
81e min.puntertje fabianson wiel is geen probleem voor sns keeper en aan andere kant redt keeper fios op inzet via sliding arensman.
77e min. robin arensman knalt cadeautje van fios verdediger onbesuisd naast. stand blijft 21.
75e min. voorzet brent melaard wordt door compleet vrijstaande vd graaff met buitenkant voet naast getikt. moeilijker dan scoren.
70e min. afgekeurde goal van sns vd graaff stond buitenspel. welmooie pass van jaimy van rumpt. stand blijft 21.
redding van fios keeper op schot van brent melaard. beide teams blijven aanvallen. stand nog steeds 21.
snelle aanval over rechts van fios schot van wouter bakelaar. via keeper van asperen wordt het een corner. die levert niks op.
60e min. 2e wissel fios jordy nijland er af &amp roy stoutjesdijk er in.
vrije kans voor robbin arensman maar zijn geplaatste bal is niet goed, gaat ruim naast het doel. keeper stond ruim voor z’n doel.
51e min. kopbal sander verweij gaat over &amp naast het doel van keeper van asperen. fios probeert het wel maar het lukt nog niet.
geen wissels tijdens de rust, tweede helft gestart bij sns fios 21 de voorsprong voor de thuisploeg.
aardig begin van mitchel wijnbeek 2 acties en 2 vrije trappen tegen.
40e min. 1e wissel fios jonathan volk eruit en mitchel wijnbeek er in. stand nog steeds 21.
30e min. hard schot wouter bakelaar in gezicht arjan van gurp die op doellijn stond. bijna de gelijkmaker.
24min. 21 kopbal van robbin arensman na een van richting veranderd schot van jaimy van rumpt. keeper brandwijk kansloos.
in min. 9 komt fios op 11. fabianson wiel tikt van dichtbij een voorzet van rechts van wouter bakelaar binnen via de paal.
start geweldig tegen want na 38 seconden scoort vincent vd graaff nadat de fios keeper van een schot niet klem had.
omdat er toch geen voorzet op bas dost komt
komt er eindelijk wat felheid van is het bij een opstootje. wruned
wfb wint bij ntvv met 15. geholpen door een vroege goal en een vroege rode kaart voor ntvv maar wel 100% verdiend.
mooie pass van huib van heest op rowan breen. die probeert laag in de verre hoek te schieten maar het schot gaat ruim naast.
80e min. 2e wissel wfb niels breen vervangt joey van assen.
redding keeper schellevis na vrije trap van huib van heest. stand blijft 15.
75e min. 2e wissel ntvv youri kievit eruit en neal kuiper er in. denk vanwege gevaar 2e gele kaart voor kievit.
1e wissel wfb rietdijk eruit en rowan breen er in. eerste balcontact scoort rowan breen de 15. lugtenburg zet sliding te slap in.
14 na 59 minuten. martijn van wijk scoort met laag hard schot. hij werd aangespeeld door joey van assen. wfb dendert door.
54e min. 13 youri rietdijk nadat keeper schellevis de bal niet klem heeft. simpel binnentikkertje. wfb op rozen.
2e helft begonnen bij ntvv wfb 12 rectificatie gele kaart ntvv was niet voor royers maar voor youri kievit.
diverse kansen over &amp weer. bal gaat er nog niet in &amp 2 gele kaarten martijn van wijk wfb en erik royers ntvv stand 12 bij rust
geert tanis zet wfb in minuut 25 op 12 voorsprong. bekeken schot in de verre hoek, keeper schellevis kansloos.
11 jasper v/d welle schiet een corner van hem bij de eerste paal het doel in gaan. 1e goal van ntvv van de competitie.
joey van assen tikte de 01 binnen voor wfb en emiel buijs kreeg rood na neerduwen doorgebroken speler van wfb.
sommige wedstrijden hebben wat tijd nodig om op gang te komen maar ntvvwfb niet. 01 na 1 min en een rode kaart na 3 minuten.
warming up van voorafgaand aan de eilandelijke tegen olv 22 jarige scheidsrechter robbie hernes…
afsluitend etentje in voor team uit scheveningen.
teamdag een stukje varen door den haag.
met mijn collega’s van de even lunchen bij aan de bierkade in
was dat een hele oude chauffeur met een zwn uniform?
speelt een geweldige partij. dat doen er tegen az wel meer maar dit moet toch even speciaal vermeld worden.
mooi voor
hoewel feyenoord niet goed speelt word ik meer moe van dan van het spel van ipv verslag.
okay, we beschouwen dan maar als een leerjaar. volgend jaar doet om het mee in de
schijterig tegen city, klote 1e helft tegen psv, slecht tegen ado en nu dramatisch tegen nac. conclusie zit in
ze moeten zich dood schamen. voetballen als dikke stront.
lekker bakkie koffie, de lichtmasten branden. ik ben er klaar voor.
na 9 minuten blessuretijd fluit scheidsrechter geerlings af bij herkingen flakkee. het eindigt in 11.
maik molenaar mist de kans op de 21. hij krijgt de bal niet onder controle vrij voor doel van keeper vinke.
kopbal michel melissant gaat vlak langs de flakkeese paal.
de 40 jarige eelko vd linde valt bij flakkee in voor glenn schoovers. wat kan de brengen?
nog 10 minuten op de klok en nog steeds 11 bij herkingen flakkee. wie scoort er nog of worden de punten gedeeld?
68e min. eerste wissel vd wedstrijd flakkee wisselt bram witvliet er uit stefan verschuren er in. stand nog steeds 11.
botsing tussen keeper verboven en van woerden levert blessure op voor de herkingen keeper. duurde even maar hij kan verder.
begin 2e helft geel voor bram witvlietflakkee na vasthouden van brandon masseurs randje 16. vrije trap levert niks op.
rust in herkingen. 11 na 45 minuten en een drietal minuten extra. flakkee in 1e helft ongelukkig met bal op de paal.
eerste gele kaart valt na 42 minuten en is voor cor huizer van herkingen. stand is nog steeds 11.
24e min. 11, doelpunt arjan zondervan. keeper vinke kan de bal niet vasthouden en zondervan tikt langs de keeper simpel binnen.
17e min. 01 kopbal jasper westhoeve uit een corner van gianluca bosman.
nieuw voetbalseizoen gaat beginnen! opkomst van en gelijk een derby verslaan voor
valt heel goed in vandaag.
maar het valt wel heel erg tegen feyenoord vanavond. dat kan toch niet in je eigen kuip
ze voetballen zo onvoorstelbaar slecht. doet gewoon pijn aan je ogen.
krijgen de spelers van betaald per foute pass? je zou het toch echt gaan denken.
onvoorstelbaar slecht hoe speelt de eerste helft.
wat een onvoorstelbaar stel bange zijn die 11 spelers van tegen die 10 van en is een 💩#psvfey
overdreven? kan onmogelijk geel krijgen na wat hem overkomt.
gaat met een winkelkarretje vol artikelen naar zijn woonplaats. heeft m in psv modus staan.
van harte gefeliciteerd! succes verder dit seizoen.
grote jongens tegen kleine ventjes.
en ergens denk ik dat ze uit wel gaat verslaan.
de sfeer is goed. even opwarmen met zingen.
na 15 jaar weer voetbal voor daar moet je toch bij zijn. ondanks regen &amp hangt er een…
rekentechnisch kan het nog maar denken ze echt dat ze nog 3 x gaan winnen?
zouden al die blije mensen ook weten dat zondag de volgende tegenstander is? wie heeft er
omdat je hem, net als ik, telkens vervloekt.
het is bijna aandoenlijk om te horen of te lezen dat we hoop kunnen putten uit het feit dat bulgarije weer op voorsprong staat.
tweede helft viel tegen.
de 50 van boëtius. feywil
hopelijk nog wat doelpunten vlakvoor mij.
10, 10, 10 roepen ze hier in de als toornstra de 30 binnenkopt.
het begon heel slapjes maar toch 20 na 16 minuten
laat de wedstrijd maar beginnen!
nog meer gestuntel. onvoorstelbaar slechte tweede helft van
dat de ondergrond niet naar je zin is oké maar om dan zo onvoorstelbaar slecht en inspiratieloos te voetballen.
geweldig mooie actie van bij de goal van
staat dat regendruppeltje dat links te zien is symbolisch voor een afscheidstraan?
het leven gaat niet alleen over
353353 km stand behaald vandaag met mijn
werk aan de winkel voor feyenoord wint dan wel maar goed was het niet.
mooie kopbal maar het spel is nog steeds niet goed.
haha, van jouw kant gezien wellicht wel maar ik word nog niet vrolijk.
een slechte eerste helft.
tot aan de goal van was het slecht voetbal wat liet zien. hopelijk is dit aanzet tot beter.
maakt niet uit wat ik in mijn vrije tijd doe. een ieder zag zijn medespeler totaal vri…
het is geen oefenpotje meer, het gaat om het echie en hij heeft allereerst zichzelf er mee en ook…
hoe lomp ben je als je zo jezelf blesseert? gewoon afspelen aan je vrijstaande medespeler en er is niks aan de hand.
geweldig! super gedaan
ja, dat geloof ik graag.
leuk maar het voetballen moet veel beter worden.
na de 10 was het al afgelopen met het voetballen door feyenoord.
ze dachten na de snelle 10 dat doen we wel even not!
vertoning schaam je rot.
binnen 1 minuut haps klote pass en diks met lompe actie. zo ga je dit niet winnen!
wanneer gaat eens voetballen?
1 leuke actie met mooie goal. voor de rest een klote wedstrijd tot nu toe.
na de snelle voorsprong voetbalt op arrogante wijze. heel gauw mee stoppen.
beetje leedvermaak hoewel uitschakeling niet goed voor het nederlands voetbal is maar haalt philip de start van het seizoen?
en wat te denken van de
je had de maar de mag er ook zijn om je tegenstander kwijt te raken.
follow the money. ik krijg steeds meer het vermoeden dat hier en bij andere transfers geld wordt wit gewassen.
het kan zeker niet slechter dan nu.
gebruik jij deze ballen in s gravenzande?
magneten in haar handschoenen. ik dacht dat die bal er in ging.
de aanvallers geven niet thuis gelukkig de verdediging wel en met een sari die er met kop en schouders bovenuit steekt.
hoe groot wordt het
het gaat niet zo makkelijk, ben benieuwd of ze het volhouden. aanvallend is het niet veel meer.
er zijn dus ook in het actief.
ik hoop dat ik het mis heb maar en gaan niet samen. ontspan en niet te geforceerd zoeken naar een goal.
mooie
hoe je binnen 1 minuut overschakelt naar een ander tv kanaal vanwege een presentatrice.
ik ben bang dat een gaat krijgen. zoveel kansen, geen goal.
geen kopbal dit keer.
tegentreffer is vervelend maar blessure van is vervelender.
mooie voorzet en mooi binnen gekopt
mooie voorzet mooie kopbal
mooi gedaan van en kramer knikt netjes binnen.
tikkie en binnen.
ook al is het maar tegen een zwak sdc putten die bevalt mij wel.
boem en hangen!
zo leg je de bal in de kruising
goede voorzet en daarna mooie kopbal,
ik hoop dat hij de medische wereld net als hij met voetballers ook deed, versteld kan laten staan door toch te herstellen.
kom op hou vol!
voor het volgende toernooi maar een aanstellen voor de videoreferee?
mogen vanaf nu niet meer huilen over de gegeven aan robben.
nu de rest van nog even in de spiegel kijken en ook miv 0108 weggaan.
wat een geweldig potje voetbal!
zoals ik op persconferentie hoor praten over dan krijg ik het gevoel dat een pak geld betaald heeft.
dbgc verliest met 20 van nw lekkerland en blijft daardoor 2e klasser. toch een mooi seizoen geweest voor team van richard elzinga.
20 munoz met een hard schot in de kruising.
71e min. mooie redding van nieuwland op schot van regga regales. stand blijft 10.
dbgc krijgt kansen maar keeper de groot redt alles wat binnen zijn doelpalen komt.
10 nielsbrekelmans met een puntertje verrast keeper nieuwland.
ruststand bij nw lekkerland dbgc is 00. weinig kansen voor beide teams. klein wonder kan het team van richard elzinga redden.
10 min voor rust, verwarring wie er geel moet krijgen na overtreding op pulleman. andy van vugt krijgt hem. 00 nog steeds.
opstootje en scheidsrechter geeft daarna geel aan vd kooij d en hartman nl 1e kans dbgc sep schiet op keeper de groot.
de wedstrijd nw lekkerland dbgc is begonnen. dbgc moet een 14 achterstand goedmaken om te promoveren naar de 1e klasse.
na 3 min blessuretijd fluit schridsrechter vink voor het einde van de wedstrijd. dbgc verliest met 14 van nw lekkerland.
fout keeper nieuwland betekent de 04 gescoord door wolf. iets later eigen goal hartman betekent 14.
20 min tweede helft 1e wissel dbgc noordermeer er uit, vd kooij er in.
gele kaart voor dbgcer robert koster. vrije trap net buiten de 16. brekelmans schiet in de muur. lugthart bal in maag.
tweede helft begonnen, geen wissels bij beide teams na drie minuten scoort nw lekkerland via een dbgc verdediger een lucky goal. 03
rustbij dbgc nieuw lekkerland 02. fel begin dbgc maar later trokken de gasten het spel naar zich toe. hartman en wolf scoorden.
39e min. dbgc wordt op snelheid afgetroefd door jeroen wolf en die schiet de 02 binnen.
37e min. corner van nw lekkerland wordt bijna binnen gekopt door ard hartman maar kopbal gaat rakelings naast. blijft 01
25e min. nieuw lekkerland wordt sterker en krijgt een penalty na overtreding in de 16 meter. hartman schiet de bal perfect binnen.
dbgc begint sterk aan de wedstrijd. goede vrije trap wilko pulleman welke de keeper tot redding dwingt. en jeroen sep schiet naast.
zoals gebruikelijk het voor de wedstrijd.
voor de warming up gaan de spelers en staf van dbgc op de foto.
ga zo namens naar te gaan voor de heenwedstrijd tegen gaat dbgc wellicht naar de 1e klasse?
zoek een fontein op!
onvoorstelbaar precies de speler die ik het meest uitkots scoort nog de gelijkmaker ook.
terechte tweede geel voor stervende zwaan
mag het niet zeggen maar die van mag wat mij betreft flink geblesseerd raken. wat een verschrikkelijke klojo
geef die david luiz gelijk geel!! lekker begin met die goal van sánchez trouwens.
ga zo dadelijk de kijken.
na 7 minuten blessuretijd maakt de scheidsrechter er een eind aan. door het 11 gelijke spel speelt dbgc nu tegen nw lekkerland.
twee schoten van dbgc gaan naast. abresch en tromp hadden het vizier niet scherp.
sep wordt vastgehouden door van dalen. rood voor de verdediger en de vrije trap levert niks op.
goal, jeroen sep scoort in de verre hoek na lange pass van yannick lugthart. 11
01 na 24 min. invaller van eenbergen verlengt een vrije trap van scholten en verrast iedereen van dbgc.
na 24 min besluit de scheidsrechter wederom tot een drinkpauze.
1e gele kaart is voor jeroen sep. te fel inkomen op zijn tegenstander. goede beslissing van de uitstekend leidende scheidsrechter.
roda boys krijgt twee kansen maar redding nieuwland en schot voorlangs van maas.
roda boys wisselt een spits voor een spits. van eembergen er in, vd laar eruit. dbgc wisselt ook vd kooij er in, huizer er uit.
2e helft zonder wijzigingen begonnen. 1e kans roda boys onschadelijk gemaakt door keeper nieuwland. 00.
na 2 minuten blessuretijd fluit de scheidsrechter voor de rust. stand is 00 en dat is gunstig voor dbgc.
2 mogelijkheden voor dbgc robert koster brengt een bal in de 16 en die verrast bijna eenieder. sep schiet voorlangs het doel.
30e min goede redding van keeper nieuwland op een laag schit van sjors maas. stand blijft 00.
deze kleine man heeft de touwtjes goed in handen vandaag. scheidsrechter elissen uit udenhout.
bijna 20 minuten gespeeld 00 de stand. weinig kansen voor beide teams in deze hitte.#dbgrbo
bezig met de warming up. het zal een hete middag worden op de wedstrijd nacompetitie voor promotie n…
ik vind ze arrogant overkomen zoals ze voetballen na de 10.
wellicht uit voor de slachtoffers?
het is een begrijpelijke beslissing van
ik zal toch niet de enige zijn met in rug vanwege een paar uur wachten op de huldiging van op de
komt ook even de bekijken. 15052017
de enige die in de gehele fluit.
de vandaag moet het gebeuren! de kuip moet beloond worden met het
dan zijn het nog steeds klootzakkdn
bedankt voor een geweldige klote schaam je dood stelletje
mooi uitzicht in de
op weg naar de het is een goede dag om iets te gaan vieren!
ntvv redt het niet tegen oud beijerland. ze lopen tegen een 23 nederlaag op. periodetitel kan theoretisch nog wel.
er is nog hoop voor ntvv. frommelgoal van hans knops betekent nog 12 spannende minuten.
marius hotting brengt robin nooteboom in voor het slotoffensief en hans knops scoort de 2/3.
13 op de kopernis, alex munvaneza schiet hard binnen nadat rens burgwal eerst tegen keeper van alphen schoot.
ntvv heeft pech bij 2 kansen 1x via verdediger over en andere inzet beland op de lat. ze geven het nog niet op. 12.
55e min. grote fout patrick sep leidt een doelpunt van oud beijerland. david pieters kan in het 16 metergebied vrij inschieten. 12.
41e min. marko karsbergen met de 11. uit de draai schiet hij de bal in de hoek. dit is tevens de ruststand.
20e min. penalty benut door oud beijerland speler rory goudswater zorgt voor een domper voor ntvv. 01
opkomst van beide teams, en belangrijke wedstrijd voor ntvv ivm de periodetitel.
in 2003 ging het over toe laten vlaggen. nu zingt een ajax speler ook nog bedenkelijke lie…
en? zijn jullie al in gesprek met over zangtalent matthijs de ligt?
benieuwd of hier blij mee is. ronnie naftaniël heeft vroeger wel eens gezegd dat ze dit niet willen. …
mooie stand v/h nederlandse voetbal in de maar waarom iemand een geven die als een halve gare te keer gaat?
in de kuip op vak w4.
die tweede goal mag er zijn van ricky van wolfswinkel.
zeer tegen de verhouding in scoort vitesse. was dit maar eerder gebeurt dan had het een leuke finale kunnen worden.
meer dan een uur gespeeld en het is een klote tot nu toe.
onvoorstelbaar, wat is dat slecht. hopelijk gaan ze wat beter spelen want er is als neutraal toeschouwer geen reet aan.
wint met 10 van oostkapelle. jeroen sep is de matchwinner. dimri vogelaar gaf de assist.
vlak daarna scoort sep wel een goal maar de grensrechter vlagt. na overleg met de scheidsrechter wordt de goal gegeven. 10 dbgc
mooie pass van tromp waarbij sep wordt weggestuurd richting de 16 van oostkapelle. sep heeft ruzie met de bal.
nog 15 minuten te spelen op de koepel en gaat er nog een doelpunt vallen of blijft doelpuntloos?
oostkapelle schreeuwt om een maar de scheidsrechter oordeelt anders. geen overtreding van noordermeer.
18 min. weer redding van roy nieuwland op een schot van sjoerd verhulst. dbgc komt goed weg het blijft 00.
57e min. 1e wissel dbgc yannick lugthart er in niels vd kooij gaat er af.
schot van verhulst redding keeper dbgc en 2 kansen thijs tromp van dbgc 1x op paal en 1x voorlangs het doel.
2e helft begonnen bij dbgc oostkapelle. 00 maar al twee kansen voor sjoerd verhulst om de gasten op 01 te zetten.
ruststand in oudetonge is 00. beide teams gaan voor de winst maar weten nog niet te scoren.
drie reddingen van keeper nieuwland van dbgc in korte tijd. initiatief nu bij oostkapelle. dbgc weinig aanvallend op het moment.
dbgc zet wat meer druk op het doel van oostkapelle maar de schoten van tromp &amp sep gaan er niet in. oostkapelle komt goed weg.
voorzet van sep wordt door de laatste man van oostkapelle bijna in de korte hoek getikt maar de keeper redt. 00 na 14 min.
opkomst van de technische staf van voorafgaand aan de wedstrijd dbgc oostkapelle.
op in
daar schijnt te staan.
stop met vergelijken. heeft 500x meer goals gescoord voor dan c. wie is er dan de beste? 😉#kijkenwiegaathappen
de keepers van ntvv en dvv09 waren de beste op het veld. ze houden beiden de 0 in een meer spannende dan goede wedstrijd.
beide teams kregen wat kansen maar beide keepers blinken uit. 5 minuten nog op de kopernis het staat nog steeds 00 bij ntvv dvv.
gevaarlijke counter dvv maar jongejan doet niks met de pass van springvloed dubbeld. raakt de bal bij aanname niet goed.
bijna gevaar voor ntvv doel maar het schot van glenn melissant draait weg van het doel.
2e wissel ntvv senny wagemaker vervangt mark tuns na 10 minuten in de 2e helft. stand nog steeds 00.
youri kievit ntvv is gewisseld in de rust bij ntvv. marko karsbergen is zijn vervanger.
rust op sportpark de kopernis, ntvv en dvv09 hebben nog niet gescoord. grootste kansen zijn voor dvv09 geweest. 00.
31e min. bijna de 01 maar de inzet van glenn melissant komt via de onderkant lat terug in het veld. geluk voor ntvv.
25e min. gele kaart voor dvv speler glenn melissant. overtreding op mitchel tdlohreg. stand nog steeds 00.
sfeeractie van de ntvv fans voorafgaand aan de tegen dvv09.
warming up van straks de tussen dvv09 olv scheidsrechter johan de vos.
hopelijk houdt jones de nul vandaag.
g waardse boys verlaat sportpark molengors met 3 verdiende punten.zij winnen met 02 van stellendam. goals van bisdom &amp bestebreur.
90e min. 02 johan bestebreur scoort vanaf de 16 met een laag schot in de hoek. wedstrijd gespeeld.
nog twee officiële minuten te spelen, komt stellendam nog tot scoren? veel spelers speelden onder hun kunnen vandaag. o