dus iphone 7 128 gb was vorige week nog 768€ icm een red abonnement, nu €792. toch weer een euro per m…
jullie geven bij nieuwe abbo+toestel 2€ factuurkorting zie site. alleen is de bijbehorende toestelpri…
hoi . waarom verhogen jullie snel de toestelprijs als jullie een factuurkorting van 2€ per maand beloven? slim marketingtrucje?
oké! maar het is dus zeker niet uitgesloten als het super druk wordt? aangezien iedereen donderdag vrij is...
heei, t schijnt komende week erg mooi weer te worden. passen jullie de sluitingstijd hier mogelijk op aan, of is dit uitgesloten?
jacco verhaegen ja? ik deeeenk verhaeren
barcode is trouwens 3siyhm700066793. kunnen jullie zien of het nog lang gaat duren?
waarom zetten jullie een bezorgdtijd op jullie app als jullie je er toch niet aan houden?
hallo, wanneer gaan kaarten voor jingleball in de verkoop? groetjes
bestel je een jas van €130, krijg je alsnog een jas met een gat erin toegestuurd, bedankt.
het is gij niet gy leer nederlands😴 gij is ook geen nederlands wel hoor remco
tijne, gorredijk, tjallebert, zo heten de dorpen in friesland waar ik nu ben. de enige vraag die ik mezelf stel waar ben ik beland?
wat moest je toch zonder mijn talenkennis
jij bent echt een dom persoon. ja jij
weer gebroken
geld
gekke bedoelingen. ik trap er niet meer in denk ik. vandaag dan
ik ben verdrietig en jij
vertel mij wat. hard gebroken
tonny vilhena staat open voor een vertrek uit de kuip en oh ja vergeet je bril niet
tonny vilhena staat open voor een vertrek uit de kuip ajuus
170 finish geen probleem
t wil nog niet echt vlotten hè?
3762sn. niks werkt helaas.
waarom heb ik geen bereik???
tyfus sneeuw
en dat is?
ja is nou eenmaal zo. hartenbrekers. noem geen namen
hahahaha precies. jij snapt het. tegen het feminisme en jij???
sommigen zijn niet barkie
shit ik space, ik bedoel een whisky met ijs
barman doe mij een fristi met rijst
veel plezieah
waarom zeggen jullie al een week de laatste tickets?
hihi tot vanavond love jullie groetjes en mij
hallo is er iemand van aanwezig????
dan gaan we toch voor de tweede plek alsof het allemaal niet zoveel uitmaakt
bye kampioenschap
zijn er vrijdag confetti knallers toegestaan ? hallo mogen wij antwoord
en niet een chagrijnige vent die bijdehand doet tegen mensen die weinig met de trein reizen. wees bij daar ze via jullie reizen.
op utrecht cs is er een chaos omdat niemand weet wat wel en niet rijdt. dan verwacht je vriendelijk/hulpzaam personeel 1/2
en wat doen aan die idiote vent zonder opleiding op utr cs die tegen een vrouw van 80 zegt dat ze maar beter moet kijken bijv 2/2
meer dan 1 trein per half uur naar amsterdam en omstreken laten rijden, ook al is er een aanrijding, 1 trein is te weinig 1/2
al de hele dag tyfus slecht geregeld. en dan willen dat 80% jullie een 7 of hoger geeft. totale waanzin!
feyenoordlegioen trekt in februari massaal naar rome
retweeten mag best
7 kerstmutsen binnen hoooa
oh moker rustig. loze beloftes weer, kun jij niks aan doen, weet ik. fijne dag.
3stbkh000822593 zou die vandaag niet bezorgd kunnen worden?
gisteren stond er dat mijn pakket vandaag aan zou komen tussen 11.30 &amp 15.30 &amp nu staat er morgen tussen 8.30 &amp 20.30. lekker man!
woow wat is het vroeg
even tweeten dat het vroeg is.
en dit land wilt een wk organiseren hahahaha
altijd die eeuwige vertragingen
wat ben ik gek op dat clubje. overwinteren. te gek!
emile schelvis de nederlandse voetbalcultuur is gevestigd in rotterdam.
wat is dit heerlijk. geweldig
jaaaaa lekker hoor, wat een fucking lekkere overwinnig!
of je op iemand wil stemmen die op een of ander ball met kerst meedoet. onzin dus
naar jingleball neem ik een hele tas vol met attributen mee, slingers kerstmutsen stiften noem maar op rt rt rt rt
boilesen aanvoerder. schiet mij maar lek
ook al is het koud op de straat het weerhoudt me niet vaak
zodra de kou me omhelst is de winter gekomen
zeg maar
donderdag kleintje tappen
doe ik. bedankt pikkie♡
nou wat je gisteren zei, klopt wel zeg maar
niet zo bescheiden, floor
altijd de wijze raad van opvolgen. deze man heeft verstand van het leven.
lik me dinges groetjes
mensen veranderen niet nee je leert ze kennen
vannacht telefoon weer eens goed laten kletteren. scherm zowaar nog heel. zijn jullie nu bij voor me?
waar
dit was echt een zieke week jaahaa
draaiden ze nou kerst muziek?
mensen die tegen zwarte piet zijn discrimineren zichzelf door zichzelf zo te vertonen. denk daar maar over na. groetjes
nee natuurlijk niet
net ff astro tv gebeld het heeft me echt geholpen. hartelijk dank
rotterdam uitgeroepen tot beste stad europa goh..
moeite doen voor niks is altijd leuk.
de tijd vliegt man. huh, was jij niet ook zaterdag jarig toevallig?
het is al lang verleden tijd
als je zaterdag wel weer tegen me gaat praten zeg ik ook gewoon lik me banketstaaf maar hahahha hij zet gewoon
vanavond met mn lampion langs de huizen om snoep te schooien echt super veel zin in!
zooo kjoet
dat zie ik, maar hoor daar wat negatieve verhalen over. hoop dat de mate 7 nog komt bij jullie dan. bedankt in ieder geval. gr
hoi waarom hebben jullie geen abonnementen met de huawei ascend mate 7?
niet iedereen is zon hooli als jij hè...
niet meer denk, ben succes supporter. misschien als we doorgaan in europa...
19 december wordt dat leuk?
hahahahaha. ik ga zo zoeken beter zoek je ook
jaahaa, beter 30 graden en zon stellen
het weerhoud me niet vaak weerhoudt
ik zou die cillessen maar eens wisselen de boer
gefeliciteerd!
okee dat wordt een grote afgang morgen
yes vanaf maandag weer club van sinterklaas bij telekids. ik ga zeker kijken jippie jeej
iets met obsessie voor bomen
doelpuntloze tussenstand ondanks kansen vilhena en toornstra. lukoki verdient een corrigerende schop. maar dat terzijde.
020 speelt weer 12 tegen 11 buitenspel doelpuntje.
eetsmakelijk he
mensen die al eng van zichzelf zijn en dan toch nog moeite doen om er extra eng uit te zien voor halloween, pfff...
oh, heeft elk abonnement tegenwoordig 4g ondersteuning? dacht dat dat alleen red was eerst, mijn excuses...
bedoelde meer een overzicht van de verschillen tussen smart/red/red essential en red super. wat houdt welk abonnement in?
hoi ik zie geen verschil meer tussen de abonnementen die jullie aanbieden. bestaat er een handig overzichtje ofzo? gr
ik wil alleen het looprad eigenlijk.. mogelijk?
dan houdt het op. heb alleen 80..
ik hoor binnenkort weer doordeweekse hele, halve doen we het niet voor!
hahahaha gek hoor! goeien dag was dat
gewoon leren op de vroege ochtend hoa
oh heel erg bedankt. fijne dag nog.
en oh ja, ben weer onderweg hoor, alleen half uurtje te laat. maar dat interesseert jullie helaas niets.
mooi dat je je dat kunt voorstellen. als er ook eens wat aan gedaan zou worden ipv begrip tonen krijgen jullie meer fans. gegroet
utrecht centraal, omdat er eerst een lege trein is die ons in moet halen. een lege trein heeft dus hogere prioriteit. belachelijk
eerst een bus van soestzuid naar den dolder, kan gebeuren. dan 10 minuten vertraging van een trein naar den dolder naar... 1/2
ik word niet goed van jullie gezeik op de vroege ochtend, regel eens wat goed man sjonge jonge
moet je solliciteren bij ns klantenservice
nou al meer dan zat. gadverdamme
jo kan je klacht niet lezen als je een slotje op je account hebt
als heel nl je haat is daar vast een rede voor. huntelaar prikt tenminste goals na 5 minuten.
ja dat was terecht, een ieder die in teambelang speelt had die bal afgegeven...
hij doet te stoer tegen huntelaar
albert heijn doet toch zwarte piet in de ban dag nederland
doe ff appen, want ik snap je niet....
niet sinds kort. waar merk je dat aan? ^lb volgens mij moet deze naar
haha, begin van de 29e minuut geloof ik.
haha ja zeker. je lachte in ieder geval
oh wacht beter niks overnemen. wanker
mja wiedemeijer is wel een pittige neus
slechter zijn en 30 voorstaan. ongelooflijk
haha oke. wat een drama weer man
het geduld is op
vooral rutten. weg met die kut vent
passieloos, strijdloos, het is helemaal niks. 100% tegenovergestelde van zondag.
ben je het met me oneens dan?
beste spelers van jullie verdienen het niet om in dat mooie shirt te spelen. groetjes
hihi het begint al donker te worden echt raar
heee spoorloos is bij het zwembad in soest
mijn verstand zegt, niet op ingaan.
ongelooflijk ja. echt moker droevig. maar ja, was te verwachten
godver zoooo onterecht he
ja te ziek, en dan nog mensen die vermeer de schuld geven. manman idioten
echt he, wat een clown eerste klas
ga fietsen joh, 2 fouten van wilkshire
hahaha klagen over scheids en dan scoren uit een vrije trap waar niks aan de hand was. mja dan hoor je ze niet
geblesseerde immers mist sevilla en zeer waarschijnlijk ook ajaxthuis // goede zaak!
soms probeer je te helpen, maar dan wordt dat niet gewaardeerd. tja, dan niet, ook niet janken dan.
in de ferrari?
vaak wel ja, ik heb echt kut tijden namelijk. ik stuur je wel ff een pm met mn nummer, moet je me ff appen
dolle pret. als we n keer tegelijk uit zijn kan je wel meerijden, ben je ruim een half uur eerder thuis haha
ja, dus jij zit in het gebouw naast mij?
jep. welk gebouw?
zit je op de hu?
ik word moe van 104969294 eerstejaars studenten
ik dacht dat het muggenseizoen over was maaaar helaas
hahahahaha wat een held
sta je dan, met je goeie gedrag
morgen eerste creedje van het jaar, lekker hoa.
als je zelf al aangeeft dat je waarschijnlijk spijt gaat krijgen, waarom zou je dat dan toch doen? dan heb je het iq van een ezel.
ken je de rotterdamse tiny en lau nog? zie hier hoe het met ze gaat
over een tijdje heb je spijt, maar ja, dan is het al te laat.
was gekke fissa met lars maar nu moeten we echt stoppen groetjes joris
eentje drinken toch groetjes joris
kennneeth is een feyenoorder
nog geen 48 uur thuis, nu alweer naar school. word een mens niet vrolijk van
slaaplekker
koekoek! haal die plaat eens voor je harses vandaan.
mensen veranderen niet, nee je leert ze kennen
skypen met liefjeee
kenneth vermeer zo goed als zeker naar feyenoord. lache
wel geland overigens
krijg lekker t rambam
wakker geworden met schatje ber, nu wachten op de bus naar het vliegveld, kan niet beter dit.
wat ben ik blij met deze ervaring
eerst aanvaller eruit voor verdediger, grootste fout die je kan maken.
godverdomme feyenoord. ik word moe van je
chillun aan zee
zag het al aankomen. nja dan maar open kaart spelen. dikke anjer
van geel stoort zich aan studio sport en zwijgt voorlopig // maar toch ontkent van geel dit...
blij dat ik daar van af ben.
je ziet dat de club onnodig dure punten verspeeld aan het begin van het seizoen, maar snel een spits halen homaar. dat is feyenoord.
wij zijn bijzonder en jij bent waard, dus ik vecht tot de lucht is geklaard.
lloret is echt 1516 jarige tienersnollen
hoe onterecht wil je het hebben. nja eigen schuld.
manmanman wat een droevig gebeuren. 45000 man voor jan lul naar t stadion
als je deze wedstrijd niet wint, zo je eigen schuld dan. wat een kansen..
lekker in blanes hoor, uitzicht liegt er ook niet om, genieten. groetjes
oh nooit geweten haha
kwam er net langs en het is gewoon €1.628 hoor per liter
hahaha kan ik me voorstellen, zelfs ik dacht hmmm bekend gezicht, haha
haha dat zou heel goed kunnen ja! een en al zwemmen die jongen... weet je toch?
je bent de zwakste schakel.
ik heb jullie een dm gestuurd
pff denk je nog ff nieuwe schoenen te bestellen voor je vakantie, staat je bestelling al 3 dagen op in behandeling. bedankt
niks aan de hans
deel spelersgroep twijfelt over reis naar oekraine // gevalletje werkweigering
hoi jij hebt een laag iq groetjes
laat de nieuwe ikea catalogus tot leven komen op je smartphone of tablet. download hem nu! bezorg ik ze voor jan doedel??
was een prima avond en nacht, goeiedag schotel
eerst dvh. tot straks
als eerste in de efteling
zijn er morgen mensen in de efteling? c // jaaa
lekky gaan slapen, morgen dagje efteling met familie
ik ga lekker ook morgen naar de eftelinnggggg
dat jij dat woord in je mond durft te nemen. je hebt het zon beetje zelf uitgevonden.
treintje richting roosendaal
makkelie je bent een clown. misschien moet de hem een heeeele lange vakantie geven.
je bent gewoon slechter dan 10 middelmatige voetballertjes van ado. manmanman
passie en strijd, feyenoord. is het nou echt zo moeilijk?
ik heb 1 miljoen
haha, ik ken het.. die wifi zal ook echt niet top zijn vrees ik.. veel plezier morgen!
haha volgens mij heb je de facebook app niet nodig. maar je hebt toch geen wifi nodig als je gaat feesten?!
inloggen met je facebook account geloof ik
mathijsen die immers de schuld geeft. ja man, 3 vd 5 goals waren jouw fout, kluns.
kan wel zien dat een kongolo het elftal op sleeptouw moet nemen met zn wk.
nelom beter ga je naar excelsior. dwaas
als je zo traag bent in balbezit weet je dat ze dat af zullen straffen vroeg of laat
lekker feyenoord, eigen schuld.
had ik nou maar nee gezegd
waarom verbaast me dat niet...?
iets met ongelooflijk lang hoofd
eigenlijk echt geen ene reet zin in jouw gezeik aan me pan
minimaal 154 nederlanders. heel bizar. vreselijk.
maar toch grappig om te zien dat je er nog steeds zo mee bezig bent...
jij bent net iets te voorspelbaar
éven niet dat rio live op snapchat ✋
ik hoorde dat er gisteren een vechtpartij was in de efteling, manmanman waar gaat het heen
ja &amp die 100 dat vlaar messi afstopte hoor ik je niet over. cillessen beoordeel je over 120 min, vlaar alleen zn penal. jammer
wat bedoel je met goede momenten dan?
wie had er een paar goede momenten uitgehouden? vlaar was voor de rest man of de match dus je spreekt jezelf tegen...
misschien dat je zelf ook nog eens iets kan verzinnen ipv alles over te nemen. zak patat.
mooi dat gezeik over feyenoorders..
wie keepte er als een natte dweil bij die penalties dan?
echt he wat een drama manmanman
ik wil nu al naar spanje, helaas nog ruim een maand wachten
oh ik dacht dat je het gezellig met me vond...
alle flitspalen in soest zijn weg??
je kan net zo goed niet spelen, de scheids weet de uitslag al.
je hebt klunzen en klunzen, maar jij bent een echte kluns.
lekker pikkie gefeliciteerd!
hoi 4g waarom eet je mijn bundel op? mvg
louis je had nog beter schaken op kunnen roepen en op kunnen stellen dan lens. wat een drama.
holi festival was wel lachen gieren brullen, alleen jammer dat die poeder nog steeds overal zit. ik kan balen.
hahahahhahaha hoe diep kan een mens zinken
heel naar ongeluk op koningsweg
ik mis de vuvuzelas
rio, wij gaan winnen, rio. met van gaal, de admiraal. aldus gerard joling, dan moet het haast wel waar zijn...
oh ik heb je niet gezien... was toen ook badmeester. you saw me?
laat maar weten dan haha
wanneer kom jij hier dan? p
lekker aan het werk
uitstappen in amersfoort man
1 ding is zeker, vanavond vroeg naar bedje. morgen vroeg naar amsterdam.
utrecht centraal, intercity richting leeuwarden, 15.20. rijden nu net weg. aansluiting kan ik vergeten helaas.
we vertrekken niet. het was tijd en het was ook veilig, maar er is iets aan de hand en we weten niet wat. manmanman
sta sterk, wees voorbereid. en vecht, voor rechtvaardigheid.
voor t eerst dit schooljaar ov controle in bus. ze zijn wel yolo ineens
nee ik had wel record met een d geschreven aapje
huh ik was het niet? o
volgens mij staat er dan altijd nog 1 deur open, maargoed, half uurtje wachten ook fijn. thanks guys
nee niet heel fijn nee. op utrecht centraal. spoor 1 richting baarn.
trein rijdt ruim een minuut te vroeg weg, waardoor ik hem mis. bedankt he
beter onweer
is geen fout hoor. blijkbaar ken jij dr, aangezien je haar leeftijd weet.. en, stuur me dan ook geen verzoeken, dikke galbak
pas maar op dat ze je c1 niet op de rollerbank zetten nu! s/o naar jouw fiets man. lol
beter drie uutt op staan. dan toernooi met en meer slaap zacht
ik moet volgende maand met de grootste directioner die ik ken naar een one direction concert help
nog 35 dagen tot het one direction concert!!! 💜
3/4 gehad. vanmiddag een weekendje naar ierland 🍀 zondag one direction concert 💕 en maandag weer naar huis
egt sin in 1d met vip kaartjes kan niet w8en hlemaal vooraan stn met energy !!!!! // word egt super koel!!
je zou maar een bromvlieg zijn en de hele dag verplicht moeten brommen.
in de volleybar los
ik ben zoo lekker
aangenomen lekker joh
daarom . succes komende weken pikkie.
eerste vrolijke nummer, haha.
maaaaybbeeeee, moet je gewoon ff je bakkes houden, je ken niet zingen.
kan iemand deze kabouter van t podium af trekken? bvd
was dat tegen roda jc?
bijna tuis
helemaal losgaan met triple en
check deze 1246 gaan wij vrij los bij
… check deze 1246 gaan wij vrij los bij ja
nou gewoon kortingskaarten en dergelijke?
wat ik zoal verkoop morgen troep, troep en nog meer troep. dus mensen die van troep houden, schaam je niet en koop deze mooie troep!
hoezo? ik verkoop hele leuke spulletjes, stukje reizen kan geen kwaad toch hihi
morgen ff lekker troep verkopen op de rommelmarkt komen jullie allemaal gezellig kijken?
het gaat helemaal los. ik herhaal, het gaat helemaal los.
vroom vroom vroom, get gasoline
judas, dat komt wel overeen, ja.!
the passion, wat een sensatie
er zijn speelse honden, saaie honden, lelijke en fraaie honden, maar de allerliefste hond is samson.
wat een wereldgoal. heeeeeerlijk
waar is die lul met zn trommel
morgen dus 1 gekke reünie op t baarnsch. dolle pret.
laatste tenti
wat houdt je bezig? tenti over tien minuten waar ik geen bal van snap dus eigenlijk zinloze operatie.
ik mag deze regen wel. hoop dat je doorwerkt.
wat een weer he
luchtalarm wat een chaos op de straten