toch ben ik blij dat ik naar qlimax ga ipv vvv thuis
de kerstmarkt in manchester is wel leuk
en periodekampioen! dus geplaatst voor beker
hij hangt nog steeds !
en nog 2.50 vragen voor amstel slootwater
manmanman wedstrijd in 020, krijg spontaan jeuk
wel gelachen hoor !
vandaag wel maar normaal niet
el amhadi probeert het en ook goed maar de rest...
het is ongelooflijk dat toornstra vorig jaar zo goed was en nu zo slecht
katwijk was gewoon slecht eerlijk toegegeven
das wel een voordeel
coalitie is cda , cu en sgp, ze zeiken zelfs over het nieuwjaarsfeest
hier in katwijk controleren ze nooit op zondag 😂
ik haat hardstyle, jij?
ben je voor feyenoord?
ga jij je maar lekker zorgen maken over je eigen clubbie 🙋‍♂️
niemand bij ons lachte om lisse, doe ff je huiswerk beter tut
sssshhh
sgp maakt zichzelf belachelijk, niks nieuws dus
en dan heb je ook nog last van je poten....
gunz for hire gunz for hire armed &amp dangerous official videoclip en dan zit je in de g4h clip haha
al die fakkels in de fontein anders
helemaal niemand
ff mn moeder vragen anders bijpakken
9.30 verkoop terwijl ik op ben tot 5 , janken
mijn speler van de week bij voetbal inside is steven berghuis via
nu voortaan nog meer racisme in de reacties onder het nieuws
scheids is ook lekker ruk weer
diks achterlaten in italië
die speech van hun klonk als een fragment van 80 jaar geleden
hou op anders kan ik me al helemaal niet meer op mijn werk vertonen
deel 1 van de zaterdag was prima
dan maar katwijk
nu niet te hopen dat kw en feyenoord niet op de zelfde dag spelen
die hendrix heeft echt een bloedkop , de tering
wss krijg je de korte zijde
utrecht uit
was wel beter voor mn hart geweest 😂
deee keeper van den haag van den haag van den haag die heeft een dildo in zijn aars!
moest je maar komen gezellig op varkie
ic ook daarom juist top 👍
zeg kunnen jullie voortaan niet alle ics naar dordt bij de kuip laten stoppen ? super handig!
feyenoord zit al bij sk
godver vanavond alleen naar feyenoord 😭
.@totonl, ik voorspel dat wint. natuurlijk!
.@totonl, ik ga de wedstrijd voorspellen in de lijkt mij duidelijk!
woensdag en zaterdag naar de kuip ,zin in !
kuijpers krijgt extra commissie per gegeven kaart volgens mij
dan die pastavreters ook de kuip niet in
alleen lozano niet dacht ik
stonden net ook een paar te zuipen op varkenoord
altijd geleerd bedreigen doe je anoniem ,koos heeft dat niet geleerd
dat zijn op zn minst 1 krat bier pj dat geld kan je beter besteden
5 3 2 zie ik meer heil in vooral zonder jorgensen
pleinzicht niks meer niks minder
ja oostenrijk en engeland/schotland en nog wat italianen en duitsers
alleen oostenrijk zelf heeft toen apart vrede gemaakt
wij stonden aan de zijde van hun tijdens de spaanse successieoorlog en met het verdrag hebb…
nee ik niet misschien weet het 😉
oja die zat toen bij ons in de kwibus 😂
zaterdag lisse uit ! ook niet onbelangrijk
mijn speler van de week bij voetbal inside is steven berghuis via
hop hop
op 9292 zie ik niet dat er treinen gaan, lekker geregeld weer
teken ook voor privacy op
nice eerst ff wat eten
ik heb weer psn , ik had je volgens mij al
fkot , zeg maar gedag tegen je enkels
morgen meedoen met 7 tegen 7, iets zegt mij dat ik daar spijt van zal krijgen
kijk dat is fijn thuiskomen met een pakketje van op de mat
ik zie wel waar we beginnen
snap dat ze er geen rekening meehouden maar toch vind ik het jammer
we nemen nog wel een keteltje
pfff en op dezelfde avond in de
insidegamer is heel scherp vandaag
dan krijgen hun ook geen kaarten voor de return
zonde!
wij staan bovenaan!
is te doen
van het hotel naar stadion binnen 40 minuten, beter kan niet !
diamond lodge , paar honderd meter van het stadion af en naast een bushalte
kan iemand dit bevestigen ?
dat was wel 1 van de leukste reizen van afgelopen jaar
dag begint goed met de grootste krent ter wereld als buschauffeur
bas heeft de escort al geboekt, je weet maar nooit!
aardige collegas heb ik 😂😂😂
dat betekent dat je je uitkering stop zet denk ik
zonder dat er maar 1 tegenstander bekend is al een half uitverkocht stadion!
alleen qbase is nog niet 100 % 🙊
zelfde agenda als mij 😂
geen echt bier , dan maar naar varkenoord!
oja die 😂😂
rtl nieuws wat nou weer😂
waar blijven jullie dan?
kom je wel pleinzicht morgen?
van geel op het moment
lord nelom heeft natuurlijk meer kwaliteit in zich
inb4 nog een keer bitte warte sie
kut daar gaat mn bankrekening
barry feyenoord komt ook uit barendrecht zeker?
😂😂
er wordt gezongen barca barca nelom komt eraan 😂😂😂
is morgen wel de tram gratis of niet?
als dit feyenoord was geweest was de hele regio rijnmond en omstreken hierheen gegaan voor vakantie
of er is te veel champagne doorheen gegaan op 14 mei waardoor het geld op is
leuk wordt dus weer een pleuris eind lopen
😂
liverpool uit met maarten en dan goed door engeland touren of porto uit lekker bakken
waar kan ik tekenen?
quick boys katwijk 2014 van oijen en feyenoord zorya 2014 manu
2000 toen ik een oud shirt van mijn broer kreeg met cruz achterop 2003 pas voor het eerst in de kuip
al vanaf de ochtend de kroeg in!
kaart voor de fruitschaal bestellen.... bitte warten sie komt nog net niet in beeld
en bewaakte fietsenstallingen zijn niet nodig?
sorry hij wil die echt niet kwijt, veel succes met zoeken verder!
oh shit die rechts onder heeft mijn broer…
narren tegen de vogels 😉
allemaal even op de katwijkse derby stemmen!
wel een prima uit shirt, dat broekje is helemaal tof!
ikin het echte leven
nou ja bar er is bier
jou kennende hang je de hele dag aan de bar
kamperen is dus ook niet mijn hobby 😓
ik op dit moment
5 augustus weer en een lange ook nog
mooi zijn we ook gelijk van zijn bloedkop af
jij mag daar toch al niet meer komen 😉
wanbeleid
feyenoordvvv tijdens qlimax, janken.
ja we hebben er 1 voor jullie
lekker kledingmerk hebben wij zeg
. jaja hij is binnen!
ja echt na de knokpartij tegen spakenburg mochten er meerdere niet meer op het complex komen
noodverordening, stadionverboden, voorwaardelijke straffen wij waren eerder!
ah mooi op tijd voor in mijn vakantie !
oh ik dacht dat al je geslachtziektes die al hadden opgegeten, maar gezien je tweets hebben ze ook je hersenen opgegeten
ik heb al mn tanden nog heb jij je eierstokken nog over?
centrum veilig?! laatste keer dat ik daar was werd ik overlopen door junks en drugstoeristen
bedoel je niet paramaribo aan het ij ?
ik dacht dat amsterdam de gaystad was?
ik hoop dat het de arena is
hoe gaat het met knakenburg?
op emporium wordt gejuicht door mij door de 01 van de uien
gefeliciteerd !
als ik straks op het werk binnenkomt
tijdens de pmds in schiedam!
rotterdam cs staat helemaal vol met neuzen en als je er met een glimlach voorbij loopt kijken ze kwaad naar je 😂
nieuwe outfit gevonden voor in de gaybar?
oja en heb je nooit normaal taalgebruik geleerd ? je gebruikt wel heel veel kk
ik lul niet, ik zag echt net 2 ajacieden lopen op leiden cs
ik zag net de eerste al op leiden cs net 😂😂
het is ook een ramp dat er zoveel ajacieden zijn in nederland
mag nog voller en dan een hek eromheen
optyfen gauw
het begin is er!
nou ja dat niet want jij liep er niet tussen !
eigenlijk wel maar toch het blijft belachelijk, ben zelf blij dat ik niet ben gegaan
groep katwijkers is ook net staande gehouden toen ze erheen gingen, amateur voetbal anno 2017
polletje kapen!
maar nog steeds teveel gezien met zon vlag in de stad
ik zag na de wedstrijd een steward die die vlaggen afpakte en ik heb zelf ook meerdere gevraagd of…
rbbknakenburg in de fonale zelfs !
kut 21 bij
precies die maandag heb ik geen vakantie
zelf aardig gek gejuicht bij 2 en 3 maar bij 4 was het echt erg
ik besef me pas net dat ik bij dirks eerste feyenoord wedstrijd was en bij zn laatste
jammer genoeg geen t , maar eigen stoel moet je ook niet echt letterlijk nemen op die vakken 😂
welke vakken zijn dat btw?
voor de eerste keer dit weekend weer nuchter mn nest in
kwart voor 9 in de avond en ik hoor dat hand in hand gezongen wordt in katwijk
0900 bus naar leiden zit vol feyenoorders
en dan moet ik straks nog door ook
gaat door bij pleinzicht in schiedam
ach ach doe maar huillie huillie dan hebben jullie niks meer over over 2 weken
oh ja dat is nog mooier , kunnen we ze weer de bus in jagen 😂😂
als ze erin blijven gewoon verbieden dat ze komen
ik dacht dat er algeheel verbod was, stelletje flikkers
volgend jaar naar hardenberg en maar 1x naar knakenburg , super!
en dan hebben ze nog geen drank op ook 😂
ik voel me zeer niet op mijn gemak hier
aanwezig daar 😉
ajax dacht dat ze al door zijn zoiets dachten we zondag ook
zie het nog gebeuren dat het beeld van coen wordt omgesmolten en dan komt bij feyenoord city een standbeeld komt van gudde van dat koper
de grote blonde leider
nieuwe verhuisdozen actie dus
bloed in zijn alcohol ik wist niet dat hij ook een vampier is?
voor mij is deze ochtend niet zo lekker
wordt er ook iets gedaan tegen jullie collegas die mensen die al op grond lagen klappen gaven ??
dumpert doet weer joods na vandaag zal eens niet
matchday!! om half 5 lig ik te janken kan ik nu al zeggen
jazeker
op rtv rijnmond nu de herhaling van de huldiging in 1999!
maandag 8 uur eruit, voor de eventuele huldiging dan hé
stadhuisplein heeft het ook en als het te druk een andere kroeg ook
jij weer met je pleinzicht
ik op maandag
kaart voor de kuip gekocht, wel voor een maat van me dat wel
dat zeker
maar we hebben er zin in !
hotel boeken wordt toch een beetje duur nu, dan maar vroeg weg met de trein
geweldige middag met dank aan de gasten van !
ik zit hier prima
bus vol met katwijkers juicht bij de 12 bij
d…
o…
precies k…
weer helemaal actueel
gewoon de stad maar in 😂
stadhuisplein denk ik eerder
als het mogelijk is dat ik pas bij de uitreiking naar binnen kan doe ik dat anders mis ik zuiptijd
feyenoorders die uit woudenstein komen krijgen een gratis kaart
ik hoop dat er echt bier is in de kuip anders pas 5 minuten van te voren de kuip in
de mensen staan weer in de rij !
seizoenskaart en defqon ticket in 1 maand tikken ook lekker aan 😂
vergeten jullie niet tussen al het gefeest rond het kampioenschap dat dit ook precies 1 jaar terug was
mijn speler van de week bij voetbal inside is nicolai jørgensen via
straks weer een nieuwe!
in 1999 was ik te jong, en dan nu gaat het gebeuren
ik trek het niet meer, fluit af blom!!
respectloze kut hoer
fluit maar af
en ook iedereen zingt mee prachtig!
feyenoord wij houden van die club !!
het gaat helemaal los in arnhem prachtig
ik deze middag
kelderklasse bij heerlijk
precies 1ste prioriteit zelf winnen en hopen op een goed resultaat in eindhoven
nouja ze zijn teminste moe, wel moeten we zelf ook winnen!
hoor ik daar nou een neus janken?
verlengen en schalke scoort in de 120ste minuut 😂 ideaal
ik mis wel een tekening van 1 van die kids met erop
mijn speler van de week bij voetbal inside is terence kongolo via
hoelaat de trein morgen?
en niet naar pleinzicht
niet om hem te verdedigen maar hitler gebruikte geen gas aan het front ik hoop dat hij dat bedoelt
nieuw club lied van fc twente
prachtige tifo gisteren!
en toen hield je het doek vast
we eten dus bij de has?
tuurlijk dat is zelfs verplicht om mn kleding minimaal 1 x per week te wassen
nog steeds hetzelfde, gewoon om ze dwars te zitten
het was maarten
op wie zou je anders moeten stemmen
kampioen van de armoede
ik denk dat de wint. wat denk jij?
ik heb verlengd! jij ook?
tot zo maat!
straks zelf rijden naar groesbeek , mijn lever doet nu al pijn
ik wil echt niet doof worden
maatje is ziek en gaat niet meer naar feyenoord vanavond dus nu zit ik zelf nog te twijfelen om te gaan
zou wel beter zijn
afgaande op de beker huldiging
kut mocht feyenoord kampioen worden is wss de huldiging op een dag wanneer ik geen vrij kan krijgen, de tyfus dus als dat gebeurt
ze zijn verdacht stil
speciaal voor de neuzen op werk mijn shirt aan
dan moet je mij eens zien zaalvoetballen dan smeek je on belom
mijn speler van de week bij voetbal inside is tonny vilhena via
die nelom heeft echt het iq van een pinda
dat moment wanneer vilhena een betere linksback is dan neelom
idd zeg beetje vinkjes zetten en koffie drinken ideaal
op
hij liep best snel kort zwart haar onverzorgde baard meer zag ik niet
arabisch uiterlijk 1235 ongeveer vertrokken
zakdoekjes legger in de intercity naar vlissingen rijdt net weg bij delft
als ze morgen zo doorgaan kan het nog leuk worden
300 man met verhuisdozen zijn gevaarlijker dan 500 ? gekke turken ?
rot club dat sparta ff ons spandoek kapot maken
ondertussen bij sparta
mijn speler van de week bij voetbal inside is karim el ahmadi via
zeg komt je niet bekend voor?
ook in de trein
!!
vallen er nog treinen uit of valt het nog mee?
ondertussen in het supportershome van twente
om maar toch maar 1 seconde politiek te gaan
of nog beter wilders mag 020 hebben en zich dan afscheiden, sturen we alle is gekken daarheen
al klinkt het leuk om 020 eruit te hebben maar om dan de rest van ons de tyfus in te helpen
van iedereen op de belt wordt een foto van hun id genomen maakt niet uit of ze strafbare feiten plegen , waar gaat het over ??
dumpert de band tussen gb en usa
het was ook gewoon slecht, plus ik kan dit ook gebruiken tegen mijn collegas die mij uitlachen
ben al lang al blij dat we verder zijn gekomen dan 020 en psv
maar ja als minimum loon verdiened is het ook lastig 😅
bij mij ook , maar eerst iets haalbarder 3 weken in seattle bij een maat van me volgend jaar ofzo
neuh waarschijnlijk feestje in eindhoven dus ff geen drank
code red!!!
meer overlast op straat dus
mijn speler van de week bij voetbal inside is steven berghuis via
we zagen er zelfs 1 lopen met een baard en op slippers , die noemden we jezus
moet je hier eens op prspct xl kijken daar lopen echt vage figuren rond 😂
katwijk heeft een hekel aan noordwijk dus helaas ✋✋
je kan niet tegen je verlies 😂😂 ✋✋