vanochtend gewerkt en nu live tot 17.00
goedemorgen op het werk tot 12.30! nicovij in deventer, ov
vandaag gewerkt en nu live tot 22.00
goedemorgen een nieuwe werkweek vandaag tot 17.00! nicovij in deventer, ov
leuke weekend gehad! nu sleeptime...
leuke dagje en verjaardag gevierd! nu sleeptime..
en sc telstar wint met 31 van go ahead eagles en fc volendam wint met 10 van jong psv
fc eindhoven wint met 21 van jong fc utrecht, mvv speel gelijk tegen rkc waalwijk 00,nec wint met 31 van sc cambuur leeuwarden
en fortuna sittard wint met 40 van fc oss, helmond sport wint met 31 van fc emmen, de graafschap wint met 50 van jong ajax en
sparta rotterdam speel gelijk tegen sc heerenveen 00, almere city fc wint met 32 van jong az, fc den bosch wint met 30 van fc dordrecht
fc den bosch maakt 30 tegen fc dordrecht
nec nijmegen maakt 31 tegen sc cambuur leeuwarden en fortuna sittard maakt 40 tegen fc oss
fortuna sittard maakt 30 tegen fc oos
fortuna sittard maakt 20 tegen fc oss en sc telstar maakt 31 tegen go ahead eagles
almere city fc maakt 21 tegen jong az en go ahead eagles mamakt 12 tegen sc telstar
nec nijmegen maakt 21 tegen sc cambuur leeuwarden
helmond sport maakt 31 tegen fc emmen
de graafschap maakt 30 tegen jong ajax
nec nijmegen maakt 11 tegen sc cambuur leeuwarden en helmond sport maakt 21 tegen fc emmen
fc volendam maakt 10 tegen jong psv
nec nijmegen sc cambuur leeuwarden 00, sc telstar go ahead eagles 20 en fc volendam jong psv 00
helmond sport fc emmen 11, jong ajax de graafschap 01, jong fc utrecht fc eindhoven 10 en mvv maastricht rkc waalwijk 00 en
tweede helft sparta rotterdam sc heerenveen 00,almere city fc jong az 11,fc dordrecht fc den bosch 01,fortuna sittard fc oss 00
nec nijmegen sc cambuur leeuwarden 00, sc telstar go ahead eagles 20 en fc volendam jong psv 00
helmond sport fc emmen 11, jong ajax de graafschap 01, jong fc utrecht fc eindhoven 10 en mvv maastricht rkc waalwijk 00 en
fc den bosch maakt 10 tegen fc dordrecht
helmond sport maakt 11 tegen fc emmen
sc telstar maakt 20 tegen go ahead eagles
de graafschap maakt 10 tegen jong ajax
mvv rkc waalwijk 00, nec sc cambuur leeuwarden 00, sc telstar go ahead eagles 10 en fc volendam jong psv 00
tussenstanden sparta rotterdam sc heerenveen 00, almere city fc jong az 11, fc dordrecht fc den bosch 00 en
werkweek zit erop! nu live tot 22.00
goedemorgen laatste werkdag van deze week tot 17.00! nicovij in deventer, ov
zultewaregem 10 maakt tegen vitesse
vanochtend gewerkt, vanmiddag relax aan gedaan en nu live tot 22.00
goedemorgen op het werk tot 12.30! nicovij in deventer, ov
goedemorgen op het werk tot 17.00! nicovij in deventer, ov
vanmiddag uitzending gedaan en vanavond me vriend verjaardag gevierd 🎉! nu sleeptime..
vanochtend gewerkt en nu live tot 17.00
goedemorgen op het werk tot 12.30! nicovij in deventer, ov
vandaag gewerkt en nu live tot 22.00
goedemorgen een nieuwe werkweek en vandaag tot 17.00! nicovij in deventer, ov
rustig weekend gehouden! nu sleeptime...
werkweek zit erop! rustig weekend in gegaan...
goedemorgen laatste werkdag van deze week tot 17.00! nicovij in deventer, ov
az maakt 10 tegen almere city fc
psv wint met 20 van fc volendam en bekert veder!
psv maakt 10 tegen fc volendam en almere city fc tegen az begonnen
verlenging fc volendam psv 00
vanochtend gewerkt, vanmiddag rustig aan gedaan en nu live tot 22.00
goedemorgen op het werk tot 12.30! nicovij in deventer, ov
gewerkt en rustig avond gehad gekeken! nu sleeptime...
goedemorgen op het werk tot 17.00! nicovij in deventer, ov
vvsb wint met 21 van katwijk, rkc waalwijk wint met 70 van de treffers en verlenging pec de treffers 22
sc cambuur leeuwarden wint met 20 van fc den bosch, fortuna sittard wint met 30 van go ahead eagles, gvvv wint met 10 van hfc en
rust fc twente fc eindhoven 10 en rkc waalwijk maakt 70 tegen de treffers
rkc waalwijk maakt 60 tegen de treffers
de treffers maakt 22 tegen pec
sc cambuur leeuwarden maakt 20 tegen fc den bosch en rkc waalwijk maakt 50 tegen de treffers
rkc waalwijk maakt 40 tegen de treffers
sc cambuur leeuwarden maakt 10 tegen fc den bosch en fortuna sittard maakt 30 tegen go ahead eagles
pec maakt 21 tegen kozakken boys
katwijk maakt 12 tegen vvsb
fortuna sittard maakt 20 tegen go ahead eagles...
vvsb maakt 20 tegen katwijk
kozakken boys maakt 11 tegen pec
gvvv maakt 10 tegen hfc
rkc waalwijk de treffers 30 en pec kozakkenboys 10
tweede helft fc den bosch sc cambuur leeuwarden 00, fortuna sittard go ahead eagles 10, gvvv hfc 00, katwijk vvsb 00 en
rkc waalwijk de treffers 30 en pec kozakkenboys 10
ruststanden fc den bosch sc cambuur leeuwarden 00, fortuna sittard go ahead eagles 10, gvvv hfc 00, katwijk vvsb 00 en
rkc waalwijk maakt 30 tegen de treffers
rkc waalwijk maakt 20 tegen de treffers
nec wint met 30 van achilles’29 gaat door in de beker!
en rkc waalwijk de treffers 10 en pec 0 kozakken boys 10
tussenstanden knvb beker fc den bosch sc cambuur leeuwarden 00, fortuna sittard go ahead eagles 10, gvvv hfc 00,katwijk vvsb 00
vanochtend gewerkt en nu live tot 17.00
goedemorgen op het werk tot 12.30! nicovij in deventer, ov
fc oss wint met 21 van jong az
vandaag gewerkt en nu live tot 22.00
goedemorgen een nieuwe werkweek en vandaag tot 17.00! nicovij in deventer, ov
rustig weekend en lekker bijgekomen! nu sleeptime...
ik denk dat feyenoord de klassieker wint.
werkweek zit erop en rustig weekend begonnen! nu sleeptime..
goedemorgen laatste werkdag van deze week tot 17.00! nicovij in deventer, ov
zultewaregem speel gelijk tegen vitesse 11
vanochtend gewerkt, vanmiddag relax aan gedaan en nu live tot 22.00
goedemorgen op het werk tot 12.30! nicovij in deventer, ov
vandaag gewerkt en nu live tot 22.00
goedemorgen op het werk tot 17.00! nicovij in deventer, ov
uitzending kon beter en gezien had meer ingezeten nu sleeptime...
vanochtend gewerkt en nu live tot 17.00
goedemorgen op het werk tot 12.30! nicovij in deventer, ov
jong ajax wint met 30 van almere city fc en helmond sport wint met 31 van jong az
helmond sport maakt 21 tegen jong az
jong ajax maakt 30 tegen almere city fc en jong az msskt 11 tegen helmond sport
vandaag gewerkt en nu live tot 22.00
goedemorgen nieuwe werkweek en vandaag tot 17.00! nicovij in deventer, ov
rustig weekend zit erop! nu sleeptime...
rustig dagje nu sleeptime...
sc telstar wint met 30 van fc dordrecht
fc emmen wint met 31 van jong psv, fortuna sittard wint met 21 van mvv, nec nijmegen wint met 20 van rkc waalwijk en
fc oss wint van sc cambuur leeuwarden 31, fc den bosch wint met 10 van jong fc utrecht, fc eindhoven wint met 10 van fc volendam en
fc oss maakt 31 tegen sc cambuur leeuwarden
sc telstar maakt 30 tegen fc dordrecht
fc emmen maakt 31 tegen jong psv
sc telstar maakt 20 tegen fc dordrecht
fortuna sittard maakt 21 tegen mvv maastricht
sc cambuur leeuwarden maakt 12 tegen fc oss
en mvv maastricht fortuna sittard, nec nijmegen rkc waalwijk 20 en sc telstar fc dordrecht 10
en mvv maastricht fortuna sittard, nec nijmegen rkc waalwijk 20 en sc telstar fc dordrecht 10
nec maakt 10 tegen rkc waalwijk en sc telstar maakt 10 tegen fc dordrecht
fc emmen jong psv 11, mvv fortuna sittard 10, nec nijmegen rkc waalwijk 00 en sc telstar fc dordrecht 00
werkweek zit erop! nu live tot 22.00
goedemorgen laatste werkdag van deze week tot 17.00! nicovij in deventer, ov
vanochtend gewerkt, vanmiddag van alles nog wat en nu live tot 22.00
rip veel sterkte aan nabestaanden!
goedemorgen op het werk tot 12.30! nicovij in deventer, ov
gewerkt, relax avondje en nu sleeptime!
goedemorgen op het werk tot 17.00! nicovij in deventer, ov
nederland maakt 20 tegen zweden
nederland maakt 10 tegen zweden
nederland tegen zweden begonnen!
tweede uitzening tot 22.00
vanochtend gewerkt! nu live tot 17.00
goedemorgen op het werk tot 12.30! nicovij in deventer, ov
uitzending was redelijke goede! nu sleeptime!
vandaag gewerkt en nu live tot 22.00
goedemorgen een nieuwe werkweek en vandaag tot 17.00! nicovij in deventer, ov
geweldig weekend nu sleeptime!
geweldig concert gehad! nu sleeptime!
op naar arnhem! station deventer in deventer, overijssel
werkweek zit erop! nu sleeptime
goedemorgen laatst werkdag van deze week tot 17.00! nicovij in deventer, ov
vanochtend gewerkt, vanmiddag relax aan gedaan en nu live tot 22.00
goedemorgen op het werk tot 12.30! nicovij in deventer, ov
vanochtend gewerkt en vanmiddag getrokken en vanavond relax gedaan en nu sleeptime!
even naar tandarts verstandkies moet eruit 😷 tandarts hoge hond in deventer, overijssel
goedemorgen op het werk tot 12.00! nicovij in deventer, ov
vanochtend gewerkt en nu live tot 17.00
goedemorgen op het werk tot 12.30! nicovij in deventer, ov
dagje werk werken, tandarts fotos maken woensdag echt uit oprotten en vanavond beurs geweest van werk! nu sleeptime!
spoed behandeling pijn me mond hopelijk verstandkies trekken 😗 tandarts hoge hond in deventer, overijssel
weekend beter begonnen!
goedemorgen laatste werkdag van deze week tot 17.00 nicovij in deventer, ov
nice wint met 30 van vitesse
vanochtend gewerkt, vanmiddag 2 keer dezelfde dag tandarts geweest en nu live tot 22.00
vandaag gewerkt en nu live tot 22.00
goedemorgen op het werk tot 17.00! nicovij in deventer, ov
vanochtend gewerkt, vanmiddag probleem studio verholpen en vanavond gekeken! nu sleeptime..,
goedemorgen op het werk tot 12.30! deventer in overijssel
jong ajax speel gelijk tegen sc telstar 11 en jong psv speel gelijk tegen nec nijmgen 33
jong ajax maakt 11 tegen sc telstar
jong psv maakt 33 tegen nec nijmegen
jong psv maakt 23 tegen nec nijmegen
nec nijmegen maakt 31 tegen jong psv
vandaag gewerkt en nu live tot 22.00
goedemorgen een nieuwe werkweek en vandaag tot 17.00! nicovij in deventer, ov
weekend zit erop! nu sleeptime...
rkc waawlijk speel gelijk tegen jong fc utrecht 22 en fc volendam speel gelijk tegen de graafschap 00
fortuna sittard wint met 51 van jong az, fc dordrecht wint met 21 van helmond sport, mvv speel gelijk tegen sc cambuur leeuwarden 11 en
almere city fc speel gelijk tegen fc oss 22, fc den bosch wint met 10 van fc einhdoven, fc emmen speel gelijk tegen go ahead eagles 00 en
almere city fc maakt 22 tegen fc oss
jong fc utrecht maakt 22 tegen rkc waalwijk
fortuna sittard maakt 51 tegen jong az
sc cambuur leeuwarden maakt 11 tegen mvv
fc dordrecht maakt 21 tegen helond sport
almere city fc maakt 12 tegen fc oss
fc dordrecht maakt 11 tegen helmond sport
lmond sport fc dordrecht 10, mvv sc cambuur leeuwarden 10, rkc waalwijk jong fc utrecht 21 en fc volendam de graafschap 00
helmond sport fc dordrecht 10, mvv sc cambuur leeuwarden 10, rkc waalwijk jong fc utrecht 21 en fc volendam de graafschap 00
fortuna sittard maakt 41 tegen jong az
fc oss maakt 20 tegen almere city fc
jong fc utrecht maakt 11 tegen rkc waalwijk
helmond sport maakt 10 tegen fc dordrecht
fc oss maakt 10 tegen almere city fc
mvv maakt 10 tegen sc cambuur leeuwarden
fortuna sittard maakt 31 tegen jong az en fc den bosch maakt 10 tegen fc eindhoven
en helmond sport fc dordrecht 00, mvv sc cambuur leeuwarden 00, rkc waalwijk jong fc utrecht 10 en fc volendam de graafschap 00
werkweek zit erop! nu live tot 22.00
goedemorgen laatste werkdag van deze week tot 17.00! nicovij in deventer, ov
tweede helft sdc putten psv 01
vvv venlo wint met 30 van blauw/ geel
tweede helft blauw/geel vvv venlo 03
rust blauw/geel vvv venlo 03
fc groningen wint met 42 van usv hercules en bekert veder
vanochtend gewerkt, vanmiddag van alles nog wat gedaan en nu live tot 22.00
goedemorgen op het werk tot 12.30! nicovij in deventer, ov
gewerkt en rustig avondje gekeken nu sleeptime...
goedemorgen op het werk 17.00! nicovij in deventer, ov
en fc eindhoven wint met 10 van sparta nijkerk
almere city fc wint met 20 van fc oss, fc volendam wint met 31 van quick boys, heracles almelo wint met 20 van rijnsburgse boys en
gvvv wint met 10 van fc dordrecht, sc cambuur leeuwarden wint met 51 van helmond sport, fortuna sittard wint met 10 van noordwijk en
go ahead eagles wint met 31 van barendrecht, nec wint met 31 van fc emmen, de treffers wint met 31 van genemuiden en
rust mvv az 12
sc cambuur leeuwarden maakt 51 tegen helmond sport
de treffers maakt 31 tegen genemuiden
mvv maakt 11 tegen azm sc cambuur leeuwarden maakt 41 tegen helmond sport
go ahead eagles maakt 21 tegen barendrecht en fc eindhoven maakt 10 tegen sparta nijkerk en heracles maakt 10 tegen rijnsburgse boys
gvvv maakt 10 tegen fc dordrecht
helmond sport maakt 12 sc camnuur leeuwarden
almere city fc maakt 20 tegen fc oss
nec maakt 31 tegen fc emmen en fc volendam maakt 21 tegen quick boys
sc caambuur leeuwarden maakt 20 tegen helmond sport
nec maakt 21 tegen fc emmen, az maakt 10 tegen mvv
quick boys fc volendam 11, rijnsburgs boys heracles 00 en sparta nijkerk fc eindhoven 00
helmond sport sc cambuur leeuwarden 01, kozakken boys de graafschap 10, noordwijk fortuna sittard 00,fc oss almere city fc 01 en
tweede helft barendrecht go ahead eagles 11, fc emmen nec 11, genemuiden de treffers 11, gvvv fc dordrecht 00 en
mvv tegen az begonnen knvbbeker
quick boys fc volendam 11, rijnsburgs boys heracles 00 en sparta nijkerk fc eindhoven 00
helmond spor sc cambuur leeuwarden 01, kozakken boys de graafschap 10, noordwijk fortuna sittard 00, fc oss almere city fc 01 en
rustanden knvb beker barendrecht go ahead eagles 11, fc emmen nec 11, genemuiden de treffers 11, gvvv fc dordrecht 00 en
rkc waalwijk wint met 10 van sparta rotterdam en bekert door!
tweede uitzending tot 22.00
vanochtend gewerkt en nu live tot 17.00
goedemorgen op het werk tot 12.30! nicovij in deventer, ov
uitzending kon beter door vast loperrr! nu sleeptime...
vandaag gewerkt en nu live tot 22.00
goedemorgen nieuwe werkweek en vandaag tot 17.00! nicovij in deventer, ov
rustig weekend gehad! nu sleeptime...
weekend kon beter mee beginnen ! nu sleeptime...
13.... stadion de adelaarshorst for go ahead eagles vs cambuur leeuwarden in deventer, overijssel
12.... stadion de adelaarshorst in deventer, overijssel
11 beltrame gae stadion de adelaarshorst for go ahead eagles vs cambuur leeuwarden
01.... stadion de adelaarshorst for go ahead eagles vs cambuur leeuwarden in deventer, overijssel
go ahead eagles tegen sc cambuur begonnen! stadion de adelaarshorst in deventer, overijssel
goedemorgen laatste werkdag van deze week tot 17.00! deventer in overijssel
vitesse maakt 10 tegen lazio
vanochtend gewerkt, vanmiddag relax aan gedaan en nu live tot 22.00
goedemorgen op het werk tot 12.30! nicovij in deventer, ov
gewerkt en vanavond gezien afgang helaas! nu sleeptime!
goedemorgen op het werk tot 17.00! nicovij in deventer, ov
tweede uitzending tot 22.00
vanochtend gewerkt en nu live tot 17.00
goedemorgen op het werk tot 12.30! nicovij in deventer, ov
rkc waalwijk maakt 11 tegen jong ajax
tweede helft jong ajax rkc waalwijk 10
rust jong ajax rkc waalwijk 10
jong ajax rkc waalwijk 00
vandaag gewerkt en nu live tot 22.00
goedemorgen een nieuwe werkweek tot 17.00! nicovij in deventer, ov
weekend zit erop! nu sleeptime...
leuke dagje gewonnen!
was zeker onnodig maar belangerijkste punten 😀
weekend begon slechte wedstrijd! nu sleeptime!
11 ten den stadion de adelaarshorst for go ahead eagles vs fc volendam in deventer, overijssel
tweede helft go ahead eagles tegen fc volendam 10 stadion de adelaarshorst in deventer, overijssel
10 gae beltrame stadion de adelaarshorst for go ahead eagles vs fc volendam in deventer, overijssel
go ahead eagles tegen fc volendam begonnen! stadion de adelaarshorst in deventer, overijssel
goedemorgen laatste werkdag van deze week tot 17.00 nicovij in deventer, ov
vanochtend gewerkt, vanmiddag relax aan gedaan en nu live tot 22.00
goedemorgen op het werk tot 12.30! nicovij in deventer, ov
gewerkt en rustig avondje! nu sleeptime!
goedemorgen op het werk tot 17.00! nicovij in deventer, ov
tweede uitzending tot 22.00
vanochtend gewerkt en nu live tot 17.00
goedemorgen op het werk tot 12.30! nicovij in deventer, ov
vandaag gewerkt en nu live tot 22.00
goedemorgen een nieuwe werkweek en vandaag tot 17.00! nicovij in deventer, ov
leuke weekend gehad nog cadeau gekregen verjaardag al op 29ste augustus jarig was 😀! nu sleeptime...
mvv wint met 30 van fc den bosch, nec wint met 21 van fc eindhoven en sc telstar speel gelijk tegen fc oss
helmond sport speel gelijk tegen go ahead eagles 11, jong ajax wint met 30 van jong psv, jong fc utrecht wint met 10 van jong az en
fc dordrecht speel gelijk tegen fc emmen 22, fortuna sittard wint met 21 van almere city fc en
jong fc utrecht maakt 10 tegen jong az
sc telstar maakt 32 tegen fc oss
sc telstar maakt 22 tegen fc oss
jong ajax maakt 30 tegen jong psv
sc telstar maakt 12 tegen fc oss
fc dordrecht maakt 11 en 21 tegen fc emmen
fortuna sittard maakt 20 tegen almere city fc en jong ajax maakt 20 tegen jong psv
fc oss maakt 20 tegen sc telstar
fc emmen maakt 10 tegen fc dordrecht
go ahead eagles maakt 10 tegen helmond sport
werkweek zit erop! nu live tot 22.00
goedemorgen laatste werkdag van deze week tot 17.00! nicovij in deventer, ov
rust frankrijk nederland 10
frankrijk maakt 10 tegen nederland
frankrijk tegen nederland begonnen!
vanochtend gewerkt, vanmiddag rustig aan gedaan en nu live tot 22.00
goedemorgen op het werk tot 12.30! nicovij in deventer, ov
gewerkt en rustig avond gehad! nu sleeptime..,
goedemorgen op het werk tot 17.00! nicovij in deventer, ov
geweldig gehad en mooi cadeaus! nu sleeptime...
uitzending goeden en verjaardag goed begonnen! nu sleeptime
🎂
vandaag gewerkt en nu live tot 22.00
goedemorgen een nieuwe werkweek en vandaag tot 17.00! nicovij in deventer, ov
leuk weekend gehad! nu sleeptime
leuk dagje en nu sleeptime!
naar apeldoorn! station deventer in deventer, overijssel
01..... stadion de adelaarshorst for go ahead eagles vs nec nijmegen in deventer, overijssel
go ahead eagles nec begonnen! stadion de adelaarshorst for go ahead eagles vs nec nijmegen
goedemorgen laatste werkdag van deze week tot 17.00! nicovij in deventer, ov
zenit sint petersburg wint met 20 en fc utrecht ligt erui! rust rosenborg bk ajax 10
rosenborg bk maakt 10 tegen ajax, zenit sint petersburg maakt 20 tegen fc utrecht
vanochtend gewerkt, vanmiddag rustig aan gedaan en nu live tot 22.00
goedemorgen op het werk tot 12.30! nicovij in deventer, ov
gewerkt en rustig avondje! nu sleeptime!
goedemorgen op het werk tot 17.00! nicovij in deventer, ov
vanochtend gewerkt en nu live tot 17.00