kruisbandje is geen 4 maanden. mag van geluk spreken als hij over 912 maanden weer speelt !
bedankt voor het delen, helaas niemand gevonden. wel eindelijk naar huis.
hoi. iemand die vanuit rotterdam nu naar hoorn gaat ?? net de laatste trein gemist.
had een ontzettend ondankbare taak woensdag. let op hij prikt er 2 in zondag!
prima strand/conditietraining voor jo151!
na paintballen en bbqen gaat jo131 nog eventjes door!
de mannen van jo131 winnaar van de cpoule op het weekendtournooi bij leovardia!
we worden kampioen !
cambuur helmond sport 30. heerlijke 2e helft prima sfeertje
zeerobben voetbalkamp 2017
cambuurvvv
hoi, onze tv geeft uit het niets storing aan? wat kunnen we hier aan doen ?
lesje voorbereiden.
bam jo 131 verslaat koploper franeker jo 131 met 10 en is terug in de race!!
inmiddels aangekomen bedankt voor je reactie.
beste waar blijft de trein van 1921 leeuwarden &gt harlingen ??
gisteren matige wedstrijd, wel weer 3 punten! 15 uit 5 voor jo131.
op de wc
wanneer kunnen nieuwe leden hun pak halen. in mijn team wachten hier een aantal op
eerste competitiewedstrijd winnend afgesloten met 41. trots op de boys van jo131.
spannende wedstrijd o131 tegen o131 eindigt in 12. gelijkspel was verdiend geweest.
ook jo131 d1 vandaag begonnen met de voorbereiding!
ik doe mee
ik doe ook wel mee!!
ik wil samen met een vriend over een maandje of 2 die kant op. als het zover is neem ik even contact met je op, bedankt!!
jij bent vast bij een wedstrijd van borrusia dortmund geweest. hoe ben je aan kaarten gekomen ?
zeerobben b2 pakt zijn eerste punt !! gevochten naar een 33 eindstand uit bij berlikum b1.
hoelaat gaat er weer een trein vanaf harlingen haven ?
zei t toch bro haal kaartje voor jezelf
bro 2de wedstrijd cambuur gaan we heen ?
kijk dit filmpje!
van geel is weer aan het slapen
deze gast mag wegblijven veel te arrogant
foeilelijk broers
y1 zelfde verhaal! eerste helft bijna niks kunnen zien.
ojaa, rode kaart voor erwin milder de reservekeeper was zeeer terecht... uefa maffia
feyenoord wil door met colin kazimrichards
hoi hoe is het mogelijk dat de trein van 635 vanaf harlingen niet rijdt? er zijn op dit tijdstip toch genoeg andere toestellen?
al halfuur discussie over wie is de mol. ze zitten er allemaal naast carolina is de mol!
weeeeekend
dit is nu al de beste vine van 2015
grote kans!! gratiss und voor niks
niet de beste voetballer, maar bedankt voor je geweldige inzet de afgelopen 4,5 jaar!!
iedereen op tijd aan het ontbijt. 09.00 uur eerste training. huh zelfs ??
.@colinkazim08 in laatste 7 duels voor betrokken bij zes goals 1 treffer, 5 assists.
bij winst vanavond, kunnen we volgende ronde celtic of liverpool loten!
fredje rutten! wat een geweldig mens!!
sneltrein leeuwardengroningen doet het vandaag weer lekker rus an!
moooi! clasie erin.
matchday !!! vandaag belangrijke pot richting overwinteren!!
hahah, gekke elvis manu!
haha wat een held !
trots op ! vanavond zijn basisdebuut bij italië.
sneltrein leeuwarden groningen.. maar ondertussen dit uitzicht al een halfuur..
ik hou van holland !!!!
veel dingen meegemaakt laatste half jaar maar ten huwelijk gevraagd worden in de supermarkt wint! hahahah
trots op mijn feyenoord!! ❤❤
ja !!! beter gaan we !!h
hahaha dat sws!! europa league is voor ons !
haha prwchtig dit! eindelijk europa in!! jaa alweer man.. niet best!
echt ongelofelijk man dit....
inderdaad goed gezien!
jezus daar gingen 3levens. grensrechter je bent een held !!
vandaag me laatste volle werkweekje bij de lidl
na 9dagen mag ik nu eindelijk zeggen het is weeeeeekkkeeenddddddd !!!!!!!
e tuurlijk niet!
nee, kan alleen maar tegenvallen.
nou dit ia de kans dacht ik.ja !
vandaag alweer een jaar geleden. we missen je lieve mette.
weeeeeeekeeeendddd !!!!!!
matchday. potverredomme zenuwachtig!!
nog tot vanacht 0.00uur, anders beginnen we de cl voor ronde met mitchell te vrede in de spits. doe er wat aan van geel !!
stefan de vrij, bijgetekend toen we 10de stonden. voor mij een echt feyenoorder!! succes bij lazio roma!
6.00 15.30.
vfb stuttgart we zijn bezig met terence kongolo afblijven !!!!
respect voor mark rutte trouwens. die man nog nooit zo gezien! ga zo door!!
en de volgende... bruno martins indi jij ook bedankt en succes bij porto fc.
ook janmaat, bedankt voor de goeie jaren en succes bij newcastle united!!
zo.. deze zagen we niet aankomen! welkom en succes !
messi dit messi dat messi zus, man man man er zijn meer spelerts hoor!
clasie richt zich alweer op feyenoord weet hoe belangrijk vcl voor feyenoord is zo mag ik het horen!!
dan nog vergeten we niet wat pelle heeft gedaan voor ons .
eerste keer dat ik m zag spelen was tegen roda. schoot ie binnen 40 seconden vanaf 20 meter de bal met links vol in de kruising.
moet het alleen nog ff verwerken..
bedankt voor alles graziano pelle. succes bij southampton.
beesten. en
na nog minder als 3uurtjes slaap, zometeen werken tot half 4.
3 mooie gekke avonden gehad! nu herstellende fase..
ha, daar is ie weer.
alweer 24 uur wakker. slaapzacht nederland xxx
8 miljoen voor graziano pelle? belachelijk voor een spits die in 57 wedstrijden 50 goals maakt, en nog 2 jaar een contract heeft.
jaaa! hup usa!! wat een wedstrijd!
goeiemorgen nl! zo de trein in richting rotterdam! 1ste training van feyenoord bijwonen
ongelofelijk..
eindelijk komt de wedstrijd los. heerlijke dit haha
beste keeper die srna
clint dempsey wat een heerlijke speler !
jaa heb ik ook.al gedaan inderdaad!
godsamme die sleeuwe is er weer..
uitstekende reden om vanavond af te haken voor honduras ecuador.
hahah gekke kuipers! 25
en dit zonder paul pogba!
ge wel dig!! respect voor costa rica !
hahaha mooie gekke wedstrijd dit man.
griekenland a.k.a team baard.
hahaha maxi pereira, wat een ongelovelijke held!!
rooney kopt van een halve meter op de lat. commentator je kan rooney hierbij niks verwijten..
klopt klopt, heeerlijk team dat kroatie!
ivan rakitic en luca modric, heeerlijk om die 2 te zien voetballen daar op t middenveld!
1 van de leukste wedstrijden tot nu toe! en dat met een 00! brazilie mexico.
helemaal klaar voor deze wedstrijd! duitsland portugal
kogel eindelijk door de kerk. tekend bij southamton! heel veel succes bij deze club!!
michael schumacher ontwaakt uit zijn coma!
altijd goed, laurens doet de tv uit saaie wedstrijd hup 15 min later staat t 21 ..
balen van deze wedstrijd, had er veel meer van verwacht!
tuurlijk bro
je bedoelt is een trendsetter!
hahaha ja man, was toch duidelijk in beeld!
arno vermeulen domme koe, blinde kip.
vandaag geen volksliederen ?
brazilie kan de druk niet aan en nl is kwalitatief te min denk ik. maargoed hopelijk heb jij gelijk !
ja man! geweldig elftal, ondanks dat hij er niet. let vooral op paul pogba!
vanavond mijn 2 finalisten in actie !! argentinie en frankrijk.
haha, geweldig! fabian bartez rijd gewoon de 24uur van le mans.
heeeerlijke pot voetbal gezien, hopelijk komen deze landen nog ver in dit toernooi ! ook keurig gefloten trouwen door kuipers.
stefan de vrij!
kroatie verdiende meer! 2 grote foute beslissingen van de scheidsrechter. achja, wel de toto goed !
mag de scheids altijd videosxheidsrechter aanvragen. deze heeft daarna hoe dan ook gelijk.
klopt, elk tean mag 1x videoscheidsrechter aanvragen, mochten ze gelijkhebben blijven ze die mogelijkheid houde. bij twijvel ...
zoals bij ht hockey? een videoscheidsrechter die de beslissingen neemt?
schandalig dit.. never nooit een strafschop.
joeeeppieee de ppoeeeppiieeee! gefeliciteerd
iedereen die de elfstedentoch heeft gefietst, proficiat! volgend jaar ga ik hopelijk aan jullie zijde mee.
spooktocht op ouwe stage plek in workum!
nusje laat.
hatseeeee, volgende week dinsdag al onder het mes!
wat een geweldige seizoensfinale van arrow ! kan niet wachten op seizoen 3.
nee klopt had m vandaag nodig. toch bedankt haha
zometeen treintje richting het zuiden des lands! dan eindelijk sinds 2jaar weer eens doen wat echt leuk is
jaa klopt, hema is alleen vandaag dicht..
iemand misschien een treinkaartje van de blokker of de hema te koop??
na een kleine 2weken in franeker te hebben gewerkt met 2 uitstapjes naar harlingen en vandaag in grou, mag ik nu lekker zeggen weeekeendd !
iemand morgen misschien een auto voor moi te leen?
ja man.. bin weer blied dak thuus bin
even 2daagjes bij de buren werken.
zeer leuke avond gisteren gehad in hilversum bij vi. nu alweer vroeg uit de veren om zo te gaan werken..
aangekomen in hilversum voor ons live tv debuut.
nee man, is weer mis gegaan met revalidatie.. dus maar weer afwachten
mri scan ook weer gehad! nu weekje wachten op de uitslag..
maatjes, het is weeeeeeeekkeeeenddddddddd !!
nusje kapot maargoed laatste dagje van de week! 717
iedereen succes met de examens!
zo richting de vv arum voor de laatste competitiewedstrijd dit seizoen. voor vanmiddag heel veel succes!
jaajaa, toch blijft feyenoord t allermooist.
wanneer hebben jullie in europa wat voor het laatst gewonnen ?
vandaag alweer 12 jaar geleden.
misschien voor moi? om friesland vol te plakken ?
eindelijk in grun. nog 1 avondje gasgeven daarna is het wel weer mooi geweest.
waar zijn we belandt..
eehhm.. beste louis v gaal waar de fuck is lex?
vandaag laatste keer ronald. bedankt
ciaooooo roda jc
de 12de man van vv arum!
succes vanmiddag
nieuwe snapchat is gek! voeg toe ljb93 voor de gekste selfies
achja bayern munchen had wel meer balbezit..
hahahaha ja ik moet je gelijk geven!
jaa precies en ook niet vanuit een 20 voor real!
aan 4 genoeg toch ?
lekker ouwe
lekker zon temperamentvolle wedstrijd! in nl waren nu al 2 of 3 gele kaarten uitgedeeld.
echt geweldig weekend gehad! 2 topavonden in 020, daarna genoten van onze mooie kuip feyenoord cambuur. nu stukken en kapot.
zometeen richting 020, daar koningsnacht en dag vieren! dan zondag lekker naar onze mooie kuip voor het afscheid van ronald koeman
komende drie jaar geen uitsupporters ajax in de kuip goeie zaak, die lui nooit meer toelaten bij ons!
deze zomer roadtripje maken, studeren en seizoenskaartje feyenoord halen!
verdiende kampioen helaas.. hahah te triest voor woorden, op alle.fronten helemaal afgetroefd..
we zullen zien. klopt alvast gefeliciteerd ermee!
haha leuke bedoeling. bang voor de wedstrijd om de jc schaal? beetje jammer dat jou avond vandaag daarvoor verpest is.
ja precies dan komen de arrogante neusjes weer uit hun holletje haha. alvast gefeliciteerd
heerlijk. al die arrogante snaveltjes voor even dicht.
juichende fase. volhouden dit.
vak laten ontruimen oprotten met die lui.
haha, ja eerste helft bij robur. ja beetje wel ja haha
lekker zon zondagje in de zon. robur langweer.
onderweg naar hilversum
iedereen een goeie vrijdag toegewenst.
weekend !
laatste daggie van de week alweer. 75
haha ook al zoveel tegenstand
haha kampioenswedstrijd jong feyenoord tegen rkc. gewoon even 90 winst.
haha, gefeliciteerd met het officieuze kampioenschap.
nog 20 minuten volhouden ! kom op boys!!!!
steven gerrard wat een held! nu snel naar main event van de dag psv feyenoord! en ook nog schuin oog richting niki terpstra.
top werkochtend gehad. nog nooit zoveel klanten lachend de winkel uit gegaan. de assertieve jonge vrouw, en de veelzijdige man.
geef ze eens ongelijk, waarom 2de helft op de aanval spelen als je tegen barca 10 voorsprong heb?
anti voetbal? heb je de eerste helft gezien? verdiende overwinning dit.
ging wel lekker, alleen vandaag op de loopband weer verstapt..
3punten in de tas!
ik word oud.
haha klopt! vind het alleen machtig hoe die dat zo zegt!
henk de jonge! machtig zon man, zegt lekker wat ie vind. kan de rest een voorbeeld aan nemen. en t mooiste is nog hij heeft helemaal gelijk
redelijke zaken vandaag gedaan dacht ik zo! 4puntjes los!
mooie middag gehad in de kuip. lekker in t zonnetje, mooie 50 overwinning. 2de helft keurig sfeertje in
goeiemorgen nederland! zometeen lekker in t autotje richting rotterdam.
hahaha ja ik kwam m laatst ook tegen!
is er iemand die komende zondag richting rotterdam gaat? friesland rotterdam
ben toch benieuwd wat marco v basten van deze rode kaart vind..
en die van dan ?
niks aan zon zondag zonder voetbal!
ludo sanders.
pfhoe die verdedeging van manu staat als een huis..
mijn plicht als burger ook weer gedaan!
weer optimaal genoten van het unieke sfeertje in de kuip! topmiddagje, en het belangrijkste 3punten in de tas!
jaaaaaaaa, vandaag eindelijk weer eens naar de mooiste voetbaltempel van nederland!
vandaag eerste stappen gezet om bodybuilder te worden!
weer ingeschreven voor sgm volgend jaar. kan niet wachten om weer te beginnen !
haha dan zou ik persoonlijk toch voor gaan $.
paar maanden geleden nog scorend op het oostersportpark in harlingen, vandaag in de arena in amsterdam. martijn barto!
armenteros en te vrede zo maar wisselen dacht ik..
vanochtend fysio geweest, daarna tot uurtje of half 10 gewerkt. eindelijk weer een beetje normaal leven!
sinds moment 1 mijn mol. jammer maar helaas..
we zitten er weerr klaar voor ! hoofdverdachte ondanks vorige week nogsteeds janwillem, of is het toch susan..
misschien kun je meenemen ?
zullen we anders uitnodigen voor een bittergarnituur ?
tsja, 3x gewoon de mindere.
dat mag!
terechte overwinning 020. mooi wedstrijdbeeld van het hele seizoen gezien.. alle neusjes kom maar uit jullie holletje. gefeliciteerd alvast.
jaaa daarom haha
jaa klopt 40. maar toch gezonde wedstrijdspanning
potverdorie! wat zie jij er leuk uit vandaag!
haha zullen zien zondag !
mag ik nog een keer lachen ?
vandaag weer even bij de oude liefde op de robbenplaat kijken zeerobben lwd zwaluwen.
boetius ik heb de knieen van iemand van vijftig welkom bij de club!
iets daarvoor kab je op de beelden zien dat mulder castaignos een stuk.wegduwd.
even dagelijkse rondje lopen!
achtelijke achtelijke achtelijke idioten !!!!!! bedankt voor het verneuken van me weekend!
was dat geen pingel en rood ?
mag ik even lachen…? of gaan dan de tweets komen van waar speelden jullie vanavond etc?
arno vermeulen bedankt voor dit avondje prachtige commentaar!
lekker hoor!
domdomdom dit, kansen af moeten maken.. achja dit is weer keurig in de trend van de afgelopen jaren..
neee! machtig mooi, vol spanning, emotie, passie en liefde voor de sport!
als je met karten naar links stuurd, ga je dan naar rechts ?
rust zacht.
lekker hoor!
hahaha ^^
haha ja heb je gelijk in! ben benieuwd wat ze straks weer pakken met mulder en smeekens
neeu let maar op die pakt straks een medaille
had toch geen kans, deed dit als trainingsritje voor de 1000
ja
erben wennemars is lekker op dreef!
ik heb het leukste zusjeeeee van de heleeee wereldddddddd
jazeker alles zat erin! alleen 24 voorsprong weggegeven in laatste 10 minuten.
amateurvoetbal ten top vandaag. fc wolvega vv arum 44.
wel een beetje jammer dat t halve stadion leeg is ..
nog 10min billenknijpen!
wacht last knie leuke.muziek wanken achter boom foto broodzakje viswinkeltje. slaapzacht xx
hshahaha ik ga stuk hier. wat een bitch! hou je bek dicht! lekker poepen in een mac vok marrokanen
zaad efteling!
+ ontzettend fel, lekker agressief en 100% inzet!
feyenoord selectie hebben we vandaag gekeken? dit was strijd, passie en emotie. dit is voetbal. kunnen we nog voorbeeld aan nemen!
ja het is echt ongelofelijk! vooral de manier waarop!
praatjes praatjes en praatjes.. in 4dagen wereld van verschil .. dag kampioenschap!
ja klopt daar zat ik inderdaad aan te denken! bedankt in ieder geval!
ik ben opzoek naar iets groter toestel, toch bedankt!
ja is dat een goeie? zat daar namelijk al aan te twijvelen!
ja zit al bij ben zegmaar met los abbo. alleen me iphone is 80jaar oud en supersloom.
iemand misschien suggesties voor een niet al te duren smartphone?
dat nummer is echt magnifiek !! ook een geweldige kerel trouwens
welkom bij de club radamel falcao! sterkte dr met.
godverredomme! wat een zaadpot.
10 minuutjes nog! nerveus als wat, alles geven!!!
shoppen in de rolstoel.
jaa heerlijk!
jaaa! winst voor stanislas wawrinka! altijd leuk als de underdog wint.
wat een heerlijke partij om naar te kijken! stanislas wawrinka novak djokovic.
oke geen probleem.
waardat?
toch blijf ik bij jan willem haha
ja! mocht rond 4uur weer naar huis
dankjewel !!
operatie geslaagd !!
dankjewel! gaat goedkomen! xx
dankjewel! jaa dat hoop ii ook!
mooi vroeg. maar zo in de auto naar amsterdam, dan is vandaag eindelijk de dag dat ik word geopereerd!
yeah, mijn mol is nog in de game!
mijn zusje is een idioot !!
nou inderdaad! kan niet beter!
whuuut! 30, gewonnen!
laatste maaltijd heerlijke lasagna á la papá.
dankjewel! jullie ook een gezond en fijn 2014 !!
hahahah wat een held ook!!
hahahahh ik lachte nu serieus hardop!
weet iemand waar adrian lewis?
zelf ook even goed bezig.
zeker weten! heeeerlijk haha