op de een of andere manier heb ik het gevoel dat deze moeder deze luuks te age appropiate voor zichzelf vindt.🤣
deze jongen heeft duidelijk een roze bril op. wat zielig... het afpoeierpraatje ademt je bent als een broertje voor me.
of ben ik nu een hopeloze romanticus?😉
beetje wel. hij laat haar opa en moeder de show stelen boven hemzelf omdat hij van haar houdt. dat is toch een tranentrekker?😍
ik vind dit echt geweldig. een kopje thee drinken met zo lief.
volgens mij kan minimaal één column vullen met commentaar op deze vacature van 😃
ik vind dit niet kunnen. het zou sieren als zij afstand zouden nemen van dit verhaal van één van hun hoogleraren.
waarvoor dank. gelukkig wordt de woede vooral verbaal geuit richting ons tvscherm. kan ik mee omgaan. 😉
nou ja zeg. afgekeurd. dat slaat helemaal nergens op! manlief naast mij op de bank vitessefan is woest. terecht. prutsscheids.
de alpacas op onze kinderboerderij kauwen charmanter dan henk fräser zijn kauwgom kauwt tijdens de wedstrijd. bah.
geen fijne scheids voor vitesse.
oude wijsheden zijn vaak niet voor niets ontstaan...
ik heb inmiddels een hotline met de klantenservice. er is vaak wat mis. daarom deze week ff pauze. smakelijk!😚
dan zie ik vast weer meer blauwe vrachtwagens.😉
ja. zie de opmerking bij het sterretje onder de tekst. ik vrees dat vrouwen mèt snor te veel op henri lijken. 😉
dat vraag ik me af.
oh oh oh begrijpen ze dan niet dat dit verregaande, niet al te positieve, consequenties kan hebben?
wat een krachtige vrouw. alle respect voor de manier waarop ze hier haar verhaal vertelt.
de eerste keer dat geen mooie outfit aan heeft, dus dat valt op. bruin pak is duidelijk niet zijn ding.
tip voor de trotse papa deel even de directe link. dat maakt het klikklikklik laagdrempeliger.😉
jagen, rennen, knallen, vechten er bovenop!! die drie punten moeten hier blijven
je zou toch zeggen dat het nog moet kunnen....
een voorrecht om hier te mogen zijn. sfeertje hoor, in de kuip!
jaaaaa! hier op de bank klonken er ook meteen opmerkingen over rode lievelingslaarsjes. 😃
ach dat ventje huilend bij zijn mama op de schouder. ik wil naar de tv roepen komt goed hoor jochie, volgende week kampioen! 😍
youll never walk alone bij een enkel traantje op de bank hier.
dat gemopper en gegil van heerrrlijk! stand by your man. prachtig.
dank voor je antwoord! leuk om te weten.😃
geldt de rotonde tussen de a9 en de a200 niet als snelwegrotonde dan?
die keeper vraagt om vijftig tinten geel voor tijdrekken. en dat al sinds het eerste kwartier. man man man.
even vóórdat hij een grote fout maakt in ons nadeel en ik beticht word van onterechte emotie wat een baggerscheids!
de lange reis serieus? dat had ik nog niet zo lang geleden als dagelijks woonwerkverkeer. en dan gewoon in de spits.
en nummer 3 is ook binnen. gefeliciteerd! toch niet gek, zon stemhattrick.😃
had ook eva even moeten feliciteren in zijn teaser. was sportief en collegiaal geweest.
ik tel de prijzen mee als ze gaan naar diegene op wie ik heb gestemd. ik kijk dus ni…
de 2e binnen. uiteraard stemde ik op in deze categorie. mooie, krachtige speech. avond vol powervrouwen!
wat een geweldige grap van ten koste van kleine polkadot van me. geef die vrouw een das.😂
de eerste is binnen.😃 uiteraard was mijn stem in deze categorie voor eva
eén frank snoeks, maakt nog geen wkzomer.
manlief wordt boos en dat is zeldzaam. wissel die vent!
onze dreumes papa controller, mama manager in bouwsector roept ak! spreekt uit aaka. papa algemene kosten of aandelenkapitaal? 😂
herkenbaar. ik zal je onze top 5 van kwetsende reacties besparen. fijn dat jij helpt het taboe te doorbreken! en sterkte.
we wilden strijd zien. de wil om te winnen. als je dat niet snapt, wilt snappen of veinst dat je het niet snapt. tsja.
ze zoeken nog een nieuwe paul de octopus voor het bert for octopus! dan is er nog een nederlands tintje.
ik zet frank weer aan. de gifbeker moet nu helemaal leeg. overigens begint het nu ook te regenen hier.
hé gaston! daar komt je kans. laat die keeper nog eens vissen! 😍
oranje verdedigt als zon amateurclub die meedoet aan de alleen maken die wel kans om door te gaan.
ik hoop alleen dat dick ons niet hetzelfde heeft beloofd. 😃
ik heb er maar eens een fles goede witte wijn bij gepakt. en frank snoeks op mute gezet. alles om dit draaglijk te maken.
ze spelen het wat sneller zodat er meer tijd over blijft om doelpunten te maken. hup holland!
die man heeft een vast contract. dan zetten ze hem wel weer ergens anders op. geen ontsnappen aan. 😉
jij krijgt een lintje voor optimisme.👍
en al eens uitgeprobeerd?
fout gezegt is fout gezegd😉
dat je voor de eerste verjaardag van je zoon een taart besteld voor een vermogen! en dat er dan allemaal vlekjes en zo op zitten.
de laatste momenten van onze als topvrouw van het afgelopen jaar. goed gedaan!
ps. deze topvrouwen zijn daarnaast ook gewoon powervrouwen! daar ben ik van overtuigd. 😉
de krijgt een dilemma voorgelegd of eensgezind prachtig dat deze vrouwen zo kleur bekennen.
ik prijs me gelukkig dat ik aanwezig mag zijn bij het inspirerende dames de pijplijn is goed gevuld!
eretreffer. ze hoeven dus in ieder geval geen rondje om het veld te kruipen.
wel wéér diks. ze spelen over het algemeen niet heel slecht. maar... het is gewoon veruit niet genoeg. en we missen er zo veel.
mooi ook dat ze zes jaar kamerlid is geweest en dan nu voor het eerst bij zit
olivier naar het om te trakteren voor zijn eerste verjaardag. een heel leuk moment. hoera! roept hij steeds.
hier nog één. verschrikkelijk.
persoonlijk kreeg ik ook wel een erg schandpaalgevoel bij dat artikel.
zoiets. het hangt alleen nog wel soort bij soort en de stigmatiserende teksten op de babykleren zijn er ook nog.
hulde voor deze column van 😅
het heerlijke aan vakantie is dat je je zoon kunt zien, je man spreekt, een boek kunt lezen, in bad kunt liggen en dan nog tijd over hebt.😃
dat wordt geen roman dan.. meer een stripverhaal
wat ontzettend fijn dat ze u hebben kunnen helpen. ik hoop dat het nu goed met u gaat.
morgen een bijzondere dag. onze zoon wordt 1... 😃 en aan het einde van de dag maakt mijn cluppie haar rentree in de
ik ook. lokte me weer even terug naar een oude gewoonte.
ik heb me aangemeld als bij tip kan je reanimeren, meld je aan. je weet nooit of je nog eens kunt helpen.
heb jij het haar van mathijs niet gezien? dan heb je het grootste nieuws van gisteren gemist.😂
matthijs, wat ben je aan het doen? je valt die man in de rede, hij mag niet uitpraten, je legt hem woorden in de mond. hoezo?!
ik trek mijn vorige tweet in. man man man wat een ellende.
ja, u lacht erom. maar daardoor is het nu wel mooi 20. kinderlijk simpel. 😂
de kleinste bondscoach van brabbelt nog wat instructies langs de lijn.
dankjewel, we kijken ernaar uit!
mijn zoon is op 02/08 door mijn moeder opgegeven voor de kameraadjes. we hebben na de eerste bevestiging niets meer gehoord.
jazeker. met twee computers. we hebben twee kaarten, hetzelfde vak. ik ben helemaal blij.😃
ik ben erbij! vak uu.😃
we zitten klaar! duimen dat er nog twee passepartouts zijn.
het gelul dat gezin heet martin bril
dank voor je reactie ik tip mijn vriendin dan toch even.
de vacature staat open tot 29 augustus...
gefeliciteerd, wat leuk! voor welke afdeling ga je werken?
daar ben ik het helemaal mee eens.
overigens zijn mijn uitspraken niet te wijten aan de titel. sinds 1985 heb ik regelmatig stevig commentaar geleverd.😉
beter goed gejat dan slecht verzonnen, zullen we maar zeggen.
duidelijk. gesnopen.
ik vind je wel erg begripvol vandaag. 😉 ik kan me trouwens voorstellen dat zon kunstveld ook ruk is als het vriest.
dat begrijp ik wel. maar lijken me geen titelkandidaat.😉 ik hoor verder weinig over voordeel vvv, wel veel over nadeel ajax.
heb je kunstgras? 😜
maar ff hè... we moeten toch allemaal één keer uit tegen vvv dit seizoen? dat gezeur... kein geloel, fussbal spielen.
13 september mancity thuis. op de verjaardag van onze lucky olivier. zou het?!
solliciteer jij met deze tweet naar perschef 020? 😜
domme kan je op dat podium kussen, kus je dat lelijke beeldje.
die is zo slecht dat het briljant is.😃
de kracht zit hem dan in de herhaling. dat snap je. bovendien kan je dan met je 500 beste vrienden als vak. 😀
jammer dat ze boven de rivieren geen doen, anders zeker een prima outfit.
leo driessen begrijpt mijn opvoedperikelen het is moeilijk om consequent te zijn.
tukkers zijn nederlanders, maar niet alle nederlanders zijn tukkers. toch? maar goed het is maar een spelletje.😉
vandaag leren reanimeren. ik was verbaasd hoe stevig je de compressie moet toepassen. veel geleerd en blij dat ik het heb gedaan!
tip zet de gratis van het op je mobiel. superhandig met gesproken instructies en aedlocaties.
is een jurysport. altijd frustrerend. 😄
minister in het ik moest echt even schakelen. lang geleden dat hij op de voorgrond was.
thanks! leuk om te weten.
dankjewel! weer wat geleerd vanavond..
russisch is toch iets anders dan slavisch? of heb ik dat altijd fout gedacht?
dank voor de tip. maar we krijgen de mails ook.
niet zo duurzaam twee brieven op hetzelfde moment in de bus in twee verschillende enveloppen.
ik verdenk deze politiek verslaggever ervan dat in alle gouden enveloppen een briefje met zat.
oei. dat zijn van die levensvragen waar ik me niet dagelijks mee bezig houd.😜
vraag maar dat zijn toch grote dingen meneer wolfs? antw klein lachje maar dat kan je dan ook s avonds vertellen.
weer een brand in een zou dat nou echt toeval zijn?
een goed begin is het halve werk. het seizoen is nog lang. er kan nog van alles gebeuren. maarrrr 3 punten in de kuip!
ik had die dame van eerst helemaal niet herkent met lange mouwen en neutrale makeup.
er moet meer nederlandstalige muziek gedraaid worden. ter promotie treden ze op in instrumentale intro begint. zanger here we go😅
en vooral het gortdroge commentaar van is echt geweldig om naar te kijken.
militair mijn zoon trekt wel meer naar zijn moeder toe. ik denk wel dat dat ermee te maken heeft. pfff dat is heftig.
prachtig gesprek met de militairen over het achterlaten van partner en kinderen als je op uitzending gaat. ontroerend.
het woord van de dag wijwaterpissers.
manlief becommentarieert de beelden ze zijn echt keihard bier aan het zuipen. goed voor de emancipatie en voor
geweldige beelden. zoveel mensen op de been. dit is fantastisch voor alle meisjes en vrouwen met een droom.
🎤 het volk wil een rondvaart door de grachten. ✔ gelukt! geweldig wat deze oranjevrouwen gepresteerd hebben. ❤
en ook bij de vrouwen die onzin dat de scheidsrechter een medaille krijgt. ik blijf dat heel raar vinden.
maar even he. de bal was over de achterlijn. dus een hoekschop. dan was die pingel ook niet gegeven. grrrrrrr. gelukkig nog tijd.
meningen verschillen he, en dat mag gelukkig. zeker als de nederlander niet bestaat.
hoeveel melk en eieren moeten er bij de pannenkoekenmix die als cadeau in de box zat?
heel goed ad visser. die opmerking van thijs römer over en de kon inderdaad echt niet.
thanks voor d uitleg. dan snap ik dat vitesse niet maalt om een gele kaart meer of minder.
tellen gele kaarten uit de wedstrijd om de gewoon mee in de competitie?
heerlijk voetbalweekend met de en de twee avonden met het bord op schoot.
meen van niet. ben net bij de kapper geweest, dus dan had het vast in zon blaadje gestaan. 😅
geen getut, zondag gaat gewoon de vlag uit en hangen we de oranje vlaggetjes in de tuin. even het stof eraf blazen en gaan.
dit wordt je best gelezen tweet. 😉
heeft iemand al gezegd ze groeien in het toernooi?
goed vlees deze week! &gt mrijtartaar. smaakt prima bij 😃 als het goed is, mag het ook gezegd worden!
soms heb je van die dagen dat je op weg bent naar zoon, man en ouders en tegelijk beseft dat je een enorme bofkont bent.
dank je wel! ik kijk al uit naar de scrum master advanced training in september.
zojuist het assessment bij voltooid en ik ben nu professional scrum master i. ☑ ⁉😃
die broer van shanice van de sanden. 😅 wat een held.
de eerste keer dat ik een vol stadion zo enthousiast we gaan naar hoor scanderen. 😃 gefeliciteerd dames! goed gedaan!
volgens mij moet je zon wijziging gewoon doorvoeren en het perscommuniqué plus motivering schrappen. dat geeft gedonder.
maar... als je telkens kunt wijzigen zoals deze hen zegt dan is gender toch iets heel anders dan geslacht?
ik vroeg me ook af als hen nu genderneutraal is, moeten we dan een ander woord hebben voor een vrouwtjeskip? ingewikkeld allemaal
ontslagen worden door de president via twitter... dat lijkt me een bizarre gewaarwording.
voor iemand die predikt dat je mensen moet raken in hun gebruikt hij wel veel feitjes en statistieken.
de advocaat en verstoten vader is te emotioneel betrokken om hier objectief en rustig een discussie over te voeren. begrijpelijk.
nee, hij heeft bruine ogen.😅
mijn pakket met tracknr tn2b3x zou vrijdag bij de buren zijn afgeleverd. geen briefje, buren weten van niets. kunt u mij helpen?
jammer dat er niet voor koos om een andere gedragswetenschapper met de in debat te laten gaan.
kijkend naar de rondkruipende dreumes 10 maanden oud in mijn huiskamer denk ik wie ben jij en wat heb je met mijn baby gedaan?
plus 1 mooie pass op maat, goed gezien!
get it together dames! sportief vechten voor wat je waard bent,
volgens mij mag dat alleen als je ook golft. 😇
we weten het pas zeker als ze straks wat een slechte vraag zegt tegen
eens.
het feit dat je twee personen vergelijkt wil natuurlijk niet zeggen dat je overeenkomsten zult vinden. 😉
goed gezongen. goed begin, is het halve werk.
😂 rt ik ben klaar met judith hertzberg en zap uit vrije wil is voor mij voltooid
jazeker. en ik ben wars van structuur. 😃
natuurlijk. dat is toch gewoon een nederlandse uitdrukking? moet kunnen, wat mij betreft.
vaderzoonmomentje. samen kijken naar de van de
uitnodiging ontvangen voor het diner op 28 september.
dat oranje haarbandje verraadt waarom die deense de kans mist.
deze wedstrijd is in ieder geval 100 keer attractiever dan de heren#bekerfinale de leeuwinnen willen duidelijk winnen!
frustrerend, van die onmogelijke opdrachten.
wat ziet thomas dekker er gek uit. ik had hem helemaal niet herkend.
hoi cato, weet je de datum al? groet madelon.
hoe noem je een vrouw die een man dekt? een vrouwdekker. juustem. tijd om te gaan slapen.
ik heb het hier even voor u nagevraagd. helaas is er meer nodig dan een gevorderde leeftijd om een ouwe knorrepot te worden 😃
manlief over de tafel bij de ouweknorrepottenparade. 😅
om 17.38 reed een bus onze straat in pleintje veel te hard en er spelen kinderen. pakket voor fazantenkamp 326 maarssen, 6vgh72
de box van zaterdag bevatte deze verpakking kip. geen houdbaarheidssticker. is dat de bedoeling?
helder. altijd goed om ook te weten wat je niet wilt. 😉
ik heb je linkedinbeschrijving gelezen, maar ben nog niet veel wijzer. wat zoek je? dan denk ik even met je mee.
je hebt nu veel exposure vanwege je tweet. pas dus nu direct je omschrijving even aan wat wil je, kun je etc.. succes!
leuk hè? in de kuip heet ik blijkbaar elleke. 😃
hoe heten babyratjes? dat mag de moeder zelf kiezen. hahahahaha😂 philippe geubels in een voorstukje van zijn net mensen.
grutjes, die is wel een feestnummer zeg. een rijstwafel is nog smeuïger dan dit optreden bij jammer van zon jonge vent
koud krijg ik het, van de berichtgeving over ergens in amsterdam is een familie ondergedompeld in verdriet. verschrikkelijk.
vandaag te gast bij op het van de focus op en benieuwd naar verschil 20142017.
niettemin ben ik het met u eens dat het niet van deze tijd is om geen rekening te houden met dit soort privéomstandigheden.
er zijn wel meer zaken die wat mij betreft een zaak zijn tussen werknemer en werkgever waar de overheid regelgeving voor maakt.
dat is een aanname. bij ons was dat helaas niet zo.
dit is een hele rare foto bij het onderwerp. overigens begrijp ik van dat uitstel geen sikkepit.
bijeenkomst van met en martin van der gaag over tht en tgt
restaurant dat alleen een verschoningsplek voor babys heeft in het damestoilet. vaders en babys mogen dus niet samen lunchen. 😆😅
bij deze vraag van moest ik toch even langer nadenken dan normaal. 😂
sommige bedrijven hebben nog een zetje nodig...
mijlpaal de eerste grote bult en blauwe plek. vrees dat er nog vele zullen volgen bij onze doerak. eerst maar ff pitten.
en dat ik na het intikken van het woord bargoens dit heerlijke stukje tekst met oude woorden aantrof.
dan is het antwoord ja. wel mooi dat ik daardoor nu een nieuwe betekenis van het woord afleggen heb geleerd.
als in voorbereid op mijn begrafenis? dat niet. alive and kicking. 😃 verklaar je nader...
leuk! ik wilde net vanavond dat boekje bestellen. is een aanrader dus?
zojuist thuischeck door vermoedelijke inbrekers gemeld bij zeer snel een vriendelijke agent aan de deur. prima service!
donderdag 29 juni is het nationale gelukkig neemt ons dit feest uitermate serieus.
mooi artikel uit
heerlijke zomeravond met huisgemaakte en verrassingsmenu. mmm.
in het leven heb je twee zekerheden en de dood. allebei kun je ze niet ontwijken. ingestudeerd. kan niet anders. 😃
die mensen vinden echt wel een andere baan. dat lijkt me een niet onderbouwd statement van sander schimmelpennick.
en twitter is dus ook minder geschikt voor een vlammend betoog dat langer is dan 140 tekens. 😉 niettemin deel ik je mening.
mannen zijn fantastisch. vooral oermannelijke mannen zoals gelukkig weet ik dat nu.😅
manlief het is een soort jongere versie van rené froger. en dat vind ik ook niks.
heeft nou serieus dat bord boven de skybox gesponsord zodat de kids van hem daarmee kunnen feliciteren?
de lieve marianne van vandaag door gevolgd door daughters van john mayer. om stil van te worden.
of een gemeente. overgereguleerd, doel uit het oog verloren, slecht gecommuniceerd en belachelijk hoge sancties.
ja, dat was ook mijn gedachte. gezond eten is een goed idee. dit vonden wij bijzonder betuttelend.
25 paginas traktatiebeleid en suggesties van ons volgens mij moeten ze even terug naar de basis. doe maar gewoon...
mijn huidige bank stopt met het ondersteunen van de app op wat zijn jullie plannen? ik overweeg een overstap.
oh hier dachten we een geit. 😅
je bent absoluut geen lee. maar voor dit doel hebben we je graag ons nummer geleend, ruben. schitterend.
manlief lijkt wel een geit in dit nummer. 😅
😃 zeker.
een flesje wijn om te bedanken lijkt me het maximum.
denkt drie seconden na ik vind het nog steeds niks 😇
ik ga er nog een keer over zeuren. hoezo krijgt de arbitrage een medaille voor het fluiten van een finale? zo raar.
mijn hart huilt voor die man verdient een standbeeld en de eer van de overwinning.
het commentaar is echt bar slecht.
ik gun hem jullie zo.
sharon dijksma noemt the donald. tsja.
manlief dat de arbitrage ook een medaille krijgt, geeft een beetje een avondvierdaagsegevoel. en zo is het. 😃
die lijkt wel 16. ik word echt oud.#ajaman
misschien wordt het ook wel 014. 😉
ik vind zon lopende formatie met radiostilte en een demissionair kabinet wel lekker rustig. mocht van mij nog wel ff duren.
een paar feyenoorders in tha house en matthijs is compleet de regie kwijt haha. die baardmeneer met zijn tattoo...😅
madelon, de schaal is weer thuis. heerlijke mail van
hij moet een beetje geholpen worden, maar langzaam komt de burgemeester los en toont de schaal aan het legioen. prachtig moment.
prachtige woorden van dat je juist een echte vent bent als je je emoties durft te tonen in het openbaar. hulde.
in 1999 maakte oma ans tomatensoep met witbrood en aardbeien met suiker. daarna de
gio bij feyenoord is emotie. en zo is het.
deze opmerking is bijzonder ongepast. en zeker op 14 mei.
compilatie van beelden van vandaag op springende gio. kan er geen genoeg van krijgen.
heel veel plezier! vier lekker feest. doen wij hier ook!
tranen bij lieve, ouwe, bloedirritante mopperkont. maar wel onze mopperkont. dat hij er maar lang bij mag zijn.
🎇...with hope in your heart.... ❤ no matter what. vandaag ben je feyenoorder toch echt voor je lol. hoe mooi is dat.
ik ga even de vlag uithangen mensen. het dak op. wat is dit mooi.
tranen in broertje in vietnam wordt via de sms minuut voor minuut op de hoogte gehouden. wij vieren feest!
puur geluk. samen met je zoon naar de kampioenswedstrijd kijken. lucky olivier! in ieder geval voorlopig...
zou wel een briljante actie zijn. hier heerst we gaan maar even een stuk wandelen om de tijd te doden.
77 jaar geleden waren mijn grootouders ongetwijfeld bang. intens dankbaar dat ik vandaag alleen voetbalangsten heb.
gefeliciteerd met het jubileum van je club. blijf er vooral over schrijven, net als over arnhem en je gezin. ik geniet ervan.
grmbl.
wat voor vak beoefenen die juryleden? geopolitiek en burenliefde?
in kan dat ook. dat heet de toppers. 😉
ik had die haren best aangepakt willen zien met een flinke fles zwitsal babyshampoo. dat dan weer wel.
ik houd wel van kleine liedjes. maar dus niet van dit kleine liedje.
zingt. ik roep verschrikkelijk! manlief nee, authentiek. en dat is hip. aha.
niks wat mij betreft. er mist een g voor een.
waarom zit die politieman in zijn jas aan tafel? had de niet nog ergens een leuke blauwe polo liggen?
het wordt een bijzonder weekend. ik ga er vast van dromen. truste!
we konden in een goede plek vinden....😆 daar staat toch ook gewoon een
mooi hoe op de leiderschapsdag via het verhaal van weer op mijn pad komt. denk ik weer even aan arend...
van op de van benieuwd hoe zij de beste werkgever werden.
zijn kunstgebit past niet.
gistermiddag bij van was te gast om ons de fijne kneepjes van het bij te brengen. topmiddag!
vanmorgen aanrijding met blikschade op de a2 gemeld bij iedere keer weer verrast door de vriendelijke medewerkers.
misschien moeten ze bij de een oudvoetballer/coach uitnodigen die voor te veel geld een teambuildingssessie gaat begeleiden.
misschien nog een beetje oefenen... u dan he, niet de dames. 😉
gelukkig gaat het dankzij de mannen de laatste jaren enorm goed bij de en 😅
humberto. bridget heeft een punt. de keuze is gemaakt. houd op met dat geklets. ga de zooi bij opruimen. voetballen. hoppa.
dat is een hele goede vraag, waar ik niet in 140 tekens een zinnig antwoord op heb.
ik vind het mooi dat jij dit kijkt. had ik niet verwacht!😃
rellen is zinloos, steunen is top dat zoveel supporters bij de kuip staan om toe te zingen. youll never walk alone! 🌟
nee hoor. juist een goed moment om achter mijn club te gaan staan!
ze spelen echt als geslagen hondjes. bang, zwak en lijdzaam.
als we dit seizoen de titel niet halen, heb ik minstens twee weken vakantie nodig om mijn verdriet te verwerken.
ik heb geen nagels meer over.
eens! mensen die denken dat het nu volle bak is omdat het lekker dichtbij is, begrijpen de clubliefde niet.
waarom heeft die dame van zo weinig kleren aan? het is koud, overdag en die kerels hebben ook gewoon lange mouwen.
op de basisschool plaagden ze mij met het rijmpje peter bosz die is de klos. laten we hopen dat dit vanmiddag klopt.
dat interview met willem verloopt behoorlijk stroef. zelfs een rijstwafel is smeuïger.
maar het lijkt me wel heel leuk👍😃
en ja, ik weet dat dat een heel slecht idee is... 😃
ik zit ernstig over na te denken om maandag in mijn naar mijn werk te gaan.
ik hoop het zo...
klopt. al doe ik daar niks meer mee. ik ga als toeschouwer, maar in een volle kuip het veld oplopen, lijkt me onbetaalbaar.
zeker! ik kan me er weken van tevoren op verheugen en eenmaal daar....
ik zou graag daar willen staan met een volle, zinderende kuip. en zo goed zijn mijn voetbalkunsten niet....
mooie rapportage over dit seizoen. beeld van de spelerstunnel van binnen uit. wat zou ik daar graag eens staan.
wat is dàt voor boek? en hoe komen jullie eraan? 😅😂😂
de gezichtsuitdrukkingen van twan tijdens het bespreken van dit onderwerp zijn entertainment op zichzelf. 😂
goedenavond, ik ben een klant van u. doet u mee met deze beweging? met vr. gr.
olivier ligt veilig te slapen in zijn bedje. als hij oud genoeg is zullen we hem vertellen over en de opa waar hij naar is vernoemd.
de nieuwe manager heeft soft skills😅, servicemanager, accountmanager, developmentmanager, projectmanager, officemanager,
😰👍 dat lijkt me wel heel leuk!
in de file staan is daar ook heel gewoon. geloof me, ik sta er elke dag in 😃
noem mij een pessimist, maar de gemiddelde buurman die naast mij in zit, gaat niet op de fiets naar
eens. de architect bracht het alleen als dè oplossing. dat vond ik een beetje overdreven. ze zullen ook iets met ov extra moeten
even serieus... wat heb je aan 3000 parkeerplaatsen als je stadion meer dan 60.000 plaatsen heeft?
o jongens, voorzichtig met dit soort uitspraken. het is pas zo ver als lee towers zingt op de huldiging.
dat is ook wel een serieuze neus om te ontwijken.
dat gezicht van dan toen die voguingdanser opkwam. priceless. 😅
het is een verschrikkelijke jeukterm. toch spreken wij hier ook gewoon over mamadag. 😃 in het kader van de gelijkwaardigheid. 😜
beetje abrupt einde. wel echt goed dat onze koning dit aan ons wilde laten zien. hulde en gefeliciteerd!
als een moeder haar kind verliest, verliest ze een stuk van zichzelf. prachtige en verdrietige observatie.
tijd voor dresscodeles voor de mannen! 😃
wat was het antwoord?