werken is leuk en ik blijf optimist, maar hoop echt niet te werken tot in de kist
we hebben in het eerste nog een penalty nemer nodig!
klopt van geen kant, maar volgens mij worden er niet alleen buitenlanders uitgebuit !
ouderen krijgen boete als ze te vaak vallen aasgieren, om onze ouderen uit te knijpen. dege…
of we daar blij mee moeten zijn, ze knijpen ons helemaal uit die parasieten uit den haag. het wordt gewoon werken t…
vilhena is hopeloos uit vorm en dan in de selectie?
medewerker kinderopvang in de bilt vervolgd voor ontucht met zes kinderen via die s…
zorgpremie kan volgens berekening cpb oplopen naar 1.600 euro in 2021 via dus eigen…
mooi als dit lukt........maar ik denk dat het niet in mijn budget past.....wel jammer natuurlijk
aantal vakbondsleden blijft dalen via dat werknemers geen lid worden, z…
aboutaleb wil weer uitpubliek gaan toelaten bij feyenoordajax via niet goed!
daar zijn we het niet allemaal mee eens!!!en ik ben daar één van.
werknemer moet in hele eu zelfde salaris krijgen als collega via wat zijn we eerli…
werkgevers worstelen met oudere werknemers
aan het eind van het jaar worden de prijzen pas uitgereikt....niet nu!
mitsubishi wil 40 procent meer autos verkopen via ruim 25 jaar mitsubishi rijder e…
we gaan voor de winst......alles uit de kast
iemand bedreigen daar wordt niemand beter van. dat is in en in triest. de echte verantwoordelijken voor dit alles m…
blok geen tbs voor weigeraar onderzoek onwenselijk via hoor het heeft een paar lev…
bejaarde man opgepakt voor jarenlang kindermisbruik via in een lekke boot op de…
hoger btw op groente en fruit bevordert ongezonde leefstijl via dank aan rutte en kornuiten
geef de jeugd maar een kans. en stop er eens mee om alleen spelers van grote ploegen te selecteren
eerst straf uit zitten en dan het land uit!
fabrikant ontkent akkoord over duur medicijn taaislijmziekte via een zieke wereld,…
zo zie je maar...gestoorden heb je overal ter wereld
deze hr van der ent heeft helemaal gelijk!
nou ehh ik denk met 130 winnen tegen zweden. eerlijk is eerlijk 11 tegen witrusland is nog niemand gelukt,zelfs…
overzicht het regeerakkoord komt eraan, deze plannen lekten al uit via loon doorbetal…
rijd al 30 jaar probleemloos mitsubishi, en...dat blijf ik doen.hoop deze ooit te rijden!
ggzklinieken dreigen met patiëntenstop via kinderbijslag max op 3 kinderen en de rest van het geld naar zorg
tbs’er op verlof belaagt vrouw in park via nooit meer los dat soort gestoorden
pensioenfondsen boos over kosten digidgebruik via pensioenfondsen gaan dit niet betalen ...!ja van ons geld
oppositie probeert hogere zorgpremie te voorkomen via weinig kans hoor bij die geldwolven uit den haag
ga je schamen ns velen konden vannacht niet naar huis door uitvallen treinen.mijn dochter naar huis en geen alternatief geregeld door ns bah
schijt ov duur en geen reet te bieden, in de spits niet of niet op tijd rijden en in de nacht helemaal niet
wat mij bezig houd is een 24 uurs economie waar snachts nog niet eens ov is. geen bussen, geen treinen, alleen misschien een dure taxi
vanuit amsterdam kun je gewoon in het weekend na 12 uur niet meer naar gouda. wel utrecht met een abonnement, maar ook daar niet naar gouda
lekker ns bedankt dat alle laatste lijnen voor de zoveelste keer uitgevallen zijn.... en totaal geen alternarief...leve het waardeloze ov
mooi van de jong, daar kunnen er veel wat van leren. iedereen kon zien dat berghuis het verschrikkelijk vond en vel…
dat hebben die slavendrijvers uit den haag er nog even snel in gefietst. vanuit je werk gelijk het bejaardentehuis…
ondanks strafblad verklaring omtrent gedrag voor eurlings je een kwartje bent wordt je in ned nooit een dubbeltje
het klootjesvolk wordt zoals altijd gewoon weer genaaid... zorgpremie omhoog, eigen risico omhoog .....daaaaag loon…
alleen de unie denkt er als enige anders over. vandaar dat hun ledental zo terug loopt. tijd om de fnv abvakabo te…
vaker burnout of overspannen door werk via er is dus werk aan de winkel
nou nou 0,8 % voor de werkenden is echt heel veel..........voor hoge salarissen. er is alleen maar uitloop van hoge…
ha ha en dat kunnen ze over amsterdam niet zeggen!!!
goed als je een slecht imago hebt zoals de horeca
ik hoop dat nederland nu eens wakker wordt en die rutte op laat zouten.hij plukt zelfs nog een kale kip en brengt z…
crimineel den haag, eerst zeggen hoe schandalig het is en nu gewoon invoeren.de burger een maandsalaris inleveren,…
neymar onthult hij is heel erg verdrietig is heeeeeel verdrietig........behalve van het saldo op zijn bankrekening!
oranjespeler weer dramatisch hij is een schande, al jaren! kunnen hem beter schrootman noemen ipv strootman!
ha ha die pieter, wist niet dat jij ook van deze sound hield, maar hij blijft leuk groet, marcel
het is steeds weer wachten op het volgende ongeval verschrikkelijk dit, heb medelijden met deze familie....sterkte
‘acties tegen overlast van coffeeshops onvoldoende’ sluiten die tent en keihard aanpakken
demissionair kabinet stelt 270 miljoen beschikbaar voor lerarensalarissen via
moeilijk maar niet onmogelijk!
die komen we zeker niet tegen......geen 020 in de koker
autobestuurder mishandelt agenten bij aanhouding gewoon keihard afstraffen dit gedrag.
gewoon een normaal salaris, ik houd niet van cateraars die hun personeel onder betalen en zelf de hoofdprijs pakken
risico van het beroep dief. triest, denk dat niemand iemand heeft willen doden. vermoedelijk heeft de dader ook fli…
reden genoeg om dat meer te doen indien bewijs van jihadisme bewezen is. gewoon weg wezen met die zieke geesten
moet hij een straatje vegen of afwassen in een restaurant omdat hij terwijl hij al geld zat heeft de boel moest fle…
ahhhh rutte eindelijk die forse loonsverhoging voor het klootjesvolk. ziektekostenpremie naar draagkracht en betaal…
moet je maar niet stelen, soms straft god onmiddellijk. ik hoop dat hij genoeg ellende ervaart dat hij het nooit me…
hoop dat ze bij hun arrestatie verschrikkelijk op hun sodemieter hebben gekregen. gewoon kreupel slaan dat straattu…
hogere zorgpremie vanwege onverwachte tegenvaller via bij rijken, niet bij gewone burgers
vermogenden drukken belasting via gezamenlijk fonds via en wij maar vette zorgkosten betalen
aantal openstaande vacatures in de ggz neemt toe via
tilburger rijdt 96 km per uur te hard via levenslang geen rijbewijs meer geven
hogere zorgpremie vanwege onverwachte tegenvaller via voor de rijken om meer te betalen
ha ha terecht dat ze het niet geworden zijn die blaaskaken uit amsterdam
very nice ha ha laat de euros maar binnen stromen
werkgevers uiten kritiek op flexibele aowleeftijd. regelingen zijn alleen haalbaar voor de beter betaalden
niemand zou klagen als er alleen maar echte vluchtelingen zouden zitten. jammer genoeg zit er ook gespuis tussen.
gevaarlijk mannetje die erdogan
loonkloof tussen top en werknemer blijft groeien via ziek is dit, en alleen omdat je slimmer geboren bent
politie meldt eerste aanhouding door nieuwe speekseltest via worden deze idioten aangepakt!
gewoon alles goed in de hand houden
opsluiten en voorlopig even brommen.....liefst heeeeeeel lang.het blijkt je hebt niet alleen geesteszieke jongens m…
nou toch maar even dan, mevr. witteman weet niet wat ze mist! vind het heerlijk dat geschommel daar!
ha ha geweldig dit, vind het wel iets om op te reageren.............maar dat ga ik niet doen hoor!
kamer stemt niet in met steviger vastleggen bonusplafond via ook forse salariseisen voor degewone burgers!
gewoon uitleveren die crimineel en een strik erom, stuur de rest die crimineel zijn maar mee. de goede mensen uit m…
dan komen ze in elk geval niet naar nederland, echte vluchtelingen zijn welkom ........maar deze duivels niet
duizenden nederlanders op zwarte lijst banken via zelf! ik zeg maar liever niet wat ik hier van denk
hoogopgeleiden eerder met pensioen dan laagopgeleiden is dit wel rechtvaardig? via schijtregering
vakbond fnv wil geen verdere versoepeling ontslagrecht via arbeidersrechten zijn toch al om zeep geholpen
nederlander in cambodja opgepakt voor misbruik zesjarige via hoop dat ze hem ophangen die smeerlap bah!
gewoon een ouderwets pak slaag zodat ze een week niet op hun kont kunnen zitten doet wonderen. gewoon even corriger…
jammer dat ze die idioot alleen maar neer geschoten hebben. gestoorde sukkel
eric heeft het prima gedaan....hulde, we zijn toch maar even kampioen geworden
heeft niets met training te maken. de politie wordt anders aangeklaagd wegens mishandeling!gewoon even helemaal klo…
tiener verwondt drie agenten bij aanhouding in hillegom via gek voor woorden,gewoon een stevig pak rammel!
filetaks in europa voor alle voertuigen via hebben weer een melkkoe gevonden
politie wil volkswagen inruilen voor mercedesbenz via kunnen ze eindelijk de criminelen bij houden
veltman weet zeker dat ajax volgend seizoen wel prijzen gaat pakken via lag gistern gewoon aan het veld man
explosie manchester was zelfmoordaanslag, dodental stijgt naar 22 via
om eist jeugddetentie tegen drie jongens na verkrachting schiedam via dat alles?5 jaar en een pak rammel!bah
heb zelf diverse herders gehad en nooit problemen, veel hangt van het baasje af. ken zelf ook lieve rottweilers en herders.
heb ik dat gezegt dat een rottweiler en een duitse herder een vechthond zijn? ik doel op een ander…
ik heb gezegd zouden niet gefokt mogen worden! ze zijn er nu eenmaal, en dan vind ik dat je ze moet muilkorven.
ik heb altijd honden gehad, maar zou zelf nooit een risicohond nemen!het worden niet voor niets vechthonden genoemd…
deze honden zouden niet gefokt mogen worden! dan heb je ook geen problemen met eigenaren en opvoedcursussen. indien…
ha ha hij dacht dat hij dirk kuyt was......maar voor hem ....helaas
echt geweldig, ondanks dat ik in denemarken ben.......alles gevolgt. in één woord...geweldig
wat jammer, volgende week nog alle kansen en dan doen die kansarme raddraaiers dit, neem gewoon als een volwassen k…
ben benieuwd, maar het moet eerdt nog wel gebeuren!
hij staat in ieder geval op scherp
publieke verontwaardiging over stenigen eendjes &ltbr /&gt een flink pak op zijn broek ipv hulpverlening helpt het beste
schöne denkt dat locadia nog spijt krijgt van snotaap fcupdate.nl via arrogant 020
hij mag van mij nog veel verder weg raken, na de grote mond van zijech, shöne en klaasen.....heerlijk genoten vanda…
t heerlijk weekendje is gekomen t weekendje van feyenoord!
40 jaar gewerkt hebben, 3 jaar ww! later met pensioen, je krijgt minder vakantiedagen, en meer werkdruk en dan pra…
zeker gisteren, wordt weer leuk in de bus naar het umc utrecht. ga mijn utrecht vrienden weer even op de kast helpe…
al boete bij 1 km te hard rijden via het echte tuig laten ze rijden, te ziek voor woorden
zelfs te duur om er een kogel aan te besteden, milieu vriendelijk van deze aardbol verwijderen
mishandeling met betonschaar in arnhem we liepen een keer hand in hand schandalig dit en nergens nodig voor bah!
everse kuipers floot klassieker als een drol vrije trap was geen vrije trap en een onterechte goal voor 020 dus
wat een barre fout zeg, dood zonde
ik had het niet mooier kunnen zeggen!
klopt, blind is ontslagen!en dat is het enige........goede voetbalnieuws van deze week
zo dan kunnen we toch nog naar de toekomst kijken!
een man met een ajax hart. volgens mij dacht hij hetzelfde bij de laatste wedstrijd van het seizoen.....de graafsch…
ajax begaat tegen excelsior dure misstap in strijd om landstitel via
inderdaad, die jan klaassen zou ook de klassieker moeten missen, ze herhaalden ook de overtreding niet?
studenten betalen miljoenen aan ovbedrijven om te laat stopzetten reisproduct via dit!
turkse krant plaatst angela merkel met hitlersnor op voorpagina via belachelijk dit kan toch niet!
verdorie het lijkt wel of ze met hun broek vol lopen te voetballen, dit mag toch niet gebeuren. de tweede helft dan…
je hebt altijd wel azijnpissers.... jammer maar waar!
ha ha een echte rotterdamse grap!
wat een schitterende overwinning, trots op mijn feyenoord. feyenoorder ben je niet voor even maar voor heel je leve…
en dit is niet gelogen hoor!
als jou partij meer ballen zou hebben zouden ze gewoon bij rtl in het debat staan om hun standpunten te verdedigen.slap excuus
dijksma wil dat winst ovchipkaart naar reizigers gaat via nee niet wil maar moet terug naar de reizigers
verkiezingsdebat rtl gaat toch door zonder vvd en pvv via zwak van de partijen pvv en vvd.geen ballen!
ajaxicoon piet keizer 73 overleden via dat iedere feyenoorder respect voor piet keizer kan opbrengen
echt niet!!!
en nog steeds......bovenaan!
ik vraag het mij af jan scharie.maar volgens mij had je hem klemvast net als brad jones.gewoon vast houden en nooit…
ja onze jan arie van der heyden is zeker niet bescheiden. voor de ogen van velen pakte hij een twentenaar bij zijn.…
botteghin onze bottebijl van rotterdamzuid
jongens opgepakt voor ernstig misbruik schiedam zeer zwaar straffen dit schorem mag hier niet gemakkelijk afkomen
ja het lijkt mij wel wat hoor,ziet er goed uit
politie achtervolgt op hoge snelheid spookrijder op a16 via pakken zon gestoorde idioot!
liefde voor mensen en genoegen nemen met een flutsalaris.gedreven mensen uitgewoond en uitgebuit.liefde wordt niet…
ik weet nog wat vorig jaar de laatste wedstrijd van ajax was vorig seizoen.........dat was ook wel lachen hoor ...t…
ja mensen wie durft bij zon mooi team te gaan werken!
waard om even te plaatsen!
overheid heeft moeite met afpakken crimineel vermogen via is makkelijk, opsluiten tot ze betalen.
en milieu vriendelijk
ik blijf optimist maar zal werken voor de regering tot in de kist. gewoon weg stemmen de politici die hier verantwo…
voor al mijn vrienden op twitter een goed 2017
moordenaar meisje van nulde op onbegeleid verlof sorry maar zo iemand mag toch nooit meer los
achtergrond worden de pensioenen eerlijk verdeeld?
wij jou ook en natuurlijk alle echte feyenoord supporters
voor iedereen die ik ken op twitter, fijne dagen
inkomensnorm publieke sector zeventien keer overtreden duurt wel lang,bij gewone werknemers is dit zo rond of niet?
politieke consensus over lagere werkgeverslastenja hoor, eerder met pensioen, maar alleen voor groot verdieners
huishoudens in 2017 bijna zes tientjes meer kwijt aan energiezo er is weer een melkkoe gevonden!
pensioenfondsen moeten duidelijker informeren over kans op kortingenkrijgen we ook een minimum pensioen?
zeker negen doden door aanslag op kerstmarkt in berlijn wat een trieste wereld,als kerstmarkt al niet meer veilig is
zo dit is in ieder geval een feit!
als feyenoorder ga ik het op de voet volgen.hoop dat luuk de jong op dreef is net als vorig jaar in de laatste weds…
bij feyenoord waren ze ook al niet blij met hem!
dus...... gouda bij kaarslicht, met kaarsjes van bolsius als sponsor!
was prachtig, kaarsjesavond in mijn geboortestad. ook de plaats waar anja en ik getrouwd zijn, blijft iets unieks
eén ding weet ik zeker......bij 020 dit jaar geenbeker! en dit kwam uit de koker van de knvb
dat is soms waar maar zeker niet altijd!
ajax in blessuretijd verrassend onderuit tegen fc twente nou zo verrassend is het niet hoor, maar el leuk
ouderwets genieten inrotterdam!
verhoeven en hari willen nieuw gevechtja is lastiger dan een onschuldige feestbezoeker in elkaar rammen!
kabinet wil hoge bonussen voor bestuurders bij overnames aanpakkengeloof er niets van,dit gaat gewoon verder hoor!
feyenoord fenerbahce 01 jammer maar terecht verloren, op naar zondag!
nog 2 uur en 22 minuten en dan hoop ik dat het gaa.....gebeuren!
morgen moet het gebeuren!!! ik zit er al klaar voor!
kabinet wil financiële steun religieuze organisaties aan banden en terecht
vanavond mag het wel hoor!
soms hoef je niet 90 minuten goed te spelen......soms is 10 minuten genoeg! en dat deed hij met twee bepalende acti…
weinig acties, maar prima rendement!!!zeggen ze eindelijk eens iets goeds over een feyenoord speler en dan zeuren w…
ziekte van parkinson ontstaat mogelijk in de darm
fondsen verwachten snel een plan voor nieuw pensioenstelsel grote pensioenen leveren minder in dan kleine, op zeker!
nederlands bedrijf produceert eerste lichtgevende zebrapad invoeren, prachtig idee!
zorgverzekeraars vinden dat consumentenbond angst zaaitdegene die angst zaait is de zorgverzekeraar met die premies
dit is de droom van veel mannen via al 30 jaar mitsubishi en tot volle tevredenheid zelfs meer dan dat
ingezonden brief we gaan er fors op áchteruit, ipv vooruit via
korten pensioenen van 2,1 miljoen mensen dreigt
zorgverzekeraars rijk maken ten koste van verzekeringnemers.of er niet genoeg betaald wordt door de gewone burger.e…
eerste ovchipkaarten voor minderjarige mboers via een einde aan jaren lange discriminatie van mbo ers
hersenimplantaat voor verlamde alspatiënt via dit,super specialisme!
minder kosten voor bedrijf bij ontslag zieke werknemeren de zieken zijn aan de goden overgeleverd, dank politiek!
inderdaad wat een halve zool
vakbond cnv wil wachtdagen bij ziekte uit cao schrappenzeker, helemaal eens, ziek is ziek!
cz verhoogt zorgpremie met 7,5 procent sociaal dat grootverdieners dezelfde premie betalen als de gewone burger?
jongeren met beperking krijgen niet de zorg die ze nodig hebbennog zon groep die niet serieus genomen wordt!
schoonmakers willen betere naleving cao terecht,een hongerloon en vaak worden ze onterecht met de nek aangekeken
waarom verdienen parkeerbedrijven aan zieke mensen | metronieuws.nl
gewoon een nare opmerking,ajax gaat dolberg deze winterstop nog kwijt raken aan de hoogste bieder.een typische twee…
mantelzorger dementerende zegt het zwaarder te hebbenwaarheid als een koe!
aantal banen in zorg groeit voor het eerst sinds jaren volgens mij hebben we deze medewerkers altijd al nodig gehad!
arme frank krijgt stank voor dank!!!
gaan wij hier op stemmen......ik denk weet zeker van niet!!!
aowleeftijd omhoog door hogere levensverwachting ben optimist, maar mensen met zware arbeid werken tot in de kist!
aantal ouderen dat overlijdt door val stijgt fors
arts wil stap terug kunnen doen na maken medische fout
belgië stuurt radicale imam mogelijk terug naar nederland gewoon naar marokko terug en nooit meer terug naar de eu
ik bedoel natuurlijk.....tegen ipv regen sjakie
neeeee daar moet kozakken boys regen sjakie! wel opletten
bewoner geeft verpleeghuis in nederland gemiddeld een 7,8 ik geloof hier helemaal niets van, en ik zie ook genoeg!
nederlandse bedrijven betrokken bij grootschalige btwfraude
absoluut eens
trimbos waarschuwt voor gevaarlijke xtcpillen gewoon weg met die rotzooi en super zware straffen voor drugshandel
en van.........de graafschap...iets om nooit meer te vergeten!!!
zou te gek voor woorden zijn als ze de scheidsrechters in nederland mee hebben en ook nog in het internationale voe…
volgens mij is dat ook bij ajax zo
hetzelfde wat ajax altijd aan de scheidsrechters geeft om een wedstrijd te winnen
echt een bikkel, die karsdorp,het juweeltje uit de feyenoordschool. als hij er maar bij is tegen die gasten uit ams…
yolanthe sneijdercabau legt schuld ruzie zus niet bij zichzelf via geld en dan ruzie over de erfenis?
sp bepleit 10 procent salarisverhoging lage inkomens roemer heeft een punt,geld weg halen waar teveel zit!
helft minder omega3 in kweekzalm dan vijf jaar geleden
zoetermeerse bejaarden boos geen warm eten meer in het weekend den haag dit kan toch niet,jullie moeten ingrijpen!!
verzekeraars kunnen zorgpremie volgens schippers lager houdenkunnen houdt eigenlijk in, we gaan het niet doen
staat keerde tonnen uit na claims automobilisten met alcoholslot leg dit maar eens uit aan brave niet drinkers
financiële kloof tussen ziekenhuizen groeit via
veel kinderen met speciale onderwijsbehoefte zitten onnodig thuisdit is pas schandalig in ons rijke nederland!
wel humor pieter, ik denk dat ik het nooit gevonden zou hebben.
koploper feyenoord wint bij willem ii voor achtste keer op rij via
geen idee pieter, ik stuur hem maar door!
eens waarom moet je van een toch al uitgekleed pensioen ook nog tientallen euros inleveren,zeker productiearbeider…
pieter derks verwerkt september ontgroening is gewoon traditie!volgens mij spoort deze man gewoon helemaal niet!
twitter begrijpt blind niet waarom zit híj bij oranje? als hij dat elkeweek doet heeft men recht van spreken!
vijf tips voor werkgevers om pesten op het werk te voorkomen
ook andere zorgpremies harder omhoog via eigen risico, eigen bijdrage etc gepakt worden we toch
onze vriend blind houdt niet van feyenoorders, hij zet er liever één van de reserves van 020 in.snel een nieuwe bon…
politie zoekt getuigen van brandstichtingen via /
jammer,zon mooie reeks en dan nog over het bestuur zeiken,ga eerst vieren ipv kritiek geven. geniet in onze kuip v…
bestuursvoorzitter menzis wil zorgtoeslag afschaffen
zeker feyenoord ajax van vorig jaar vergeten!
speler van de week die eric, wat een ijzersterke verdediger is dat
geen woorden maar daden!
ook dijsselbloem ziet ruimte voor loonsverhoging zeker behoefte aan stemmen!!!
21.000 extra meldingen uitkeringsfraude voor uwven...er zijn er nog veel meer, die gewoon een bedrijf thuis hebben
zaandamse vlogger vrijgelaten met gebiedsverbodja de politiek laat dat schorem gewoon lopen,slapjanussen in den haag
forza feyenoord, we gaan er tegen aan!!! en hopen op de winst.david won ook van goliath, dus er is hoop
ja en dan straffen als het weer mis gaat met dat gajes
dit hele kabinet is slappe hap,op zijn rotterdams geen daden maar woorden en loze beloftes in verkiezingstijd
dit is nou patiëntvriendelijk, compliment aan degene die dit bedacht heeft!
drie arrestanten in zaandamse wijk poelenburg weer vrijgelaten al weer vrij,waardeloos systeem hier in nederland
meer toezicht in zaandamse wijk poelenburg vanwege overlastgewoon de me eens los laten gaan dan is het snel over
buffer wordt in stand gehouden door burgers die het niet kunnen betalen.inkomensafhankelijke premie zou eerlijk zijn
prachtig om te zien!!!
kabinet kondigt extra geld voor veiligheid en arme kinderen aaneerst bestelen en dan geven
geschorste platini mag speechen voordat zijn opvolger wordt gekozenhoe rotter je bent hoe beter je af bent !
drie jaar cel voor veroorzaker dodelijk ongeval a2ongelofelijk deze uitspraak,gewoon 8 jaar cel voor deze idioot
eigen risico voor zorg blijft gelijk op 385 euromeeste burgers vakantiegeld kwijt aan eigen risico en bijdrage
klijnsma wil meer mensen helpen met aowgatvolgens mij zijn deze mensen bekend, zou gewoon automatisch moeten gaan
teleurstellend oranje onderuit in oefeninterland tegen griekenlandja bij de knvb is men blind voor de waarheid!
onderzoek naar invloed zorgverzekeraar via contractziekenfonds terug ipv over lijken gaande zorgverzekeraars
ze kunnen al deze onzin uitgaven beter bij de pensioenpot storten ipv mensen tekorten op hun pensioen
samsom verwaarloosde pvdafractieerger is dat hij is gaan regeren met een liegende premier,echt triest!
rutte heeft spijt van breken verkiezingsbelofteswat een slapjanus, hij liegt alles aan elkaar met zijn gladde snuit!
kuyt baalt van opmerkelijke blind vier oranjewaardige feyenoorders dat oranje verliest en blind het licht ziet
geweldige artiest, dat zal hij altijd blijven!
beste sjaak, ik ben feyenoord supporter maar ben vereerd dat u mij volgt.heb het ajax waarin u speelde altijd bewonderd!
mijn moeder is nu 92 en voor mij nog een prachtig kado dat ze bij mij is
amerikaans bedrijf wil alzheimerpatiënten helpen met breinchip
d66 wil dat iedereen weer een vaste baan kan krijgen via als je van oud of duur personeel af wilt
roken in het openbaar steeds minder geaccepteerdprima als men rookt, maar wat mij betreft alleen in je eigen huis
kabinet bijeen voor overleg over begroting volgend jaar
met dank aan onze heerlijke regering!!!
speciaal voor mijn twitter maatjes!
acht op de tien ouderen hebben geldzorgen
van helden status naar criminelen status, geen vog meer voor lucius
opnieuw vervuilende stoffen aangetroffen in voedsel supermarkten via
om wil utrechtse serieaanrander twee jaar in jeugdgevangenis2 jaar !!! wat een belachelijke straf zeg!
echt gestoorde mensen die achter een poppetje aanlopen, net apen, veel gekker moet het niet worden
zo zie je maar, wij kunnen echt iets leren van onze honden!!!
ik doe het voor de helft,daarvan de helft en daarvan één honderdste.die voetbal salarissen zijn te ziek voor woorden
niet alleen china, denk aan salarissen van messi,rooney,ronaldo ook spelers in ned die meer dan een miljoen cashen!
klopt , maar karsdorp, kuyt en ahmadi zijn toch jongens met een super mentaliteit,maar bij een aantal ontbreekt dit!
vind hem stront arrogant, maar voetballen kan die vogel.voor fr zijn dit soort spelers niet te houden of te kopen!
staat betaalt 40 miljard mee aan overgang pensioenstelsel denk dat we gewoon weer bedonderd worden door vriend rutte
ja je kan er om natuurlijk om lachen..............
ministers pleiten voor meer bewindspersonen door te hoge werkdrukbelachelijk,en de werkdruk in de zorg dan?
daar is een woord voor.........het is een vorm van slavernij ofwel misbruik maken van mensen
welke verpleeghuizen in nederland schieten tekort? via eén woord is genoeg walgelijk
zo daar zijn ze snel achter, eerst de boel kapot bezuinigen en dan zeggen hoe kapot je bent van de slechte zorg
groot aantal verpleeghuizen kan zorg voor ouderen niet aankapot bezuinigen en dan zeggen dat je verrast bent bah
groot aantal verpleeghuizen kan zorg voor ouderen niet
bij buma is het ook niets geworden,in dienst hoorde ik alleen maar verhalen over hangen en zuipen.
kamer stemt in met internationale regels voor pensioenen.moet ik hier blij mee zijn of worden we weer beet genomen?
lastig, zowel bij 020 als bij 010 niet bepaald geliefd! ja van feyenoord begrijp ik het wel
dit is zo erg,je beste maatje vastbinden en aan zijn lot over laten ze moeten degene vastbinden die dit gedaan heeft
wennen doe ik hier nooit aan. krijg alleen maar het gevoel van wraak en walging bij deze terroristische acties!
het begin is er!!!na vele jaren kindermisbruik beseffen ze dat homo zijn helemaal geen zonde is
ik vind het al heel wat dat de kerk dit eindelijk begrijpt,die vorige knakkers met een jurk aan snapten er niets van
bah dat lijkt mij echt smerig, bier in combi met escargots.......moet even slikken!
overheidsschuld en overheidstekort nemen verder af via kunnen ze nu de greep uit de pensioenkas repareren
brandstofprijzen in nederland relatief hoog via mede daarom ben ik het kwartje van kok nog niet vergeten
blok ziet voldoende investeringsruimte bij woningcorporatiesde corruptie heffing die door de verkeerde betaald wordt
netbeheerders willen uitzondering op wet topinkomens via zijn mensen die 1790 € krijgen, die zeuren niet