.. wees een vent abou en neem een beslissing maar leg niet laf de bal bij anderen neer die helemaal geen partij ku…
beetje laf om nu opeens de bal bij de supporters vereniging te leggen, alsof die controle hebben over de eencellige…
fsv de feijenoorder aanwezig in turkije
ff heerlijk potje sm
staat heel duidelijk onderaan jullie mail.
beetje goedkoop om de naam van de supportersvereniging te gebruiken hiervoor ...
polletje kapen ... mijn speler van de week bij voetbal inside is kevin diks.
polletje kapen ... mijn speler van de week bij voetbal inside is kevin diks via
jantje boskamp zit er ook weer 😀
een goede voorbereiding is het halve werk
weg met dat plastic...
1 prijs is binnen nog 3 te gaan 👍jc schaal 👉beker 👉cl 👉landskampioen
met dank aan voor een van de vele geweldige sfeeracties waar zo graag gebruik van gemaakt wordt doo…
spelers psv willen graag genderneutraal aangesproken worden. dus geen verwijzing meer naar hun vrouwzijn pls!
ach hebben ze in 020 ook een prijs. voor ons is gio de onbetwiste nummer één.
krijg weer kippenvel bij het zien van deze beelden
prachtig. wat mij betreft een van de mooiste plaatjes van de huldiging
wow ben ik ff blij dat ik lid ben van 😎
onvergetelijk moment, mede mogelijk gemaakt door
hier zijn geen woorden voor. tot zo op de#coolsingel
wat een droeftoeter 😂
voor de echte supportert
wederom een super actie van
wederom met een geweldige bijdrage van de helden van het sfeer team van…
super actie weer van de helden van het sfeer team van
prachtig plaatje mede mogelijk gemaakt dankzij en met dank aan het sfeer team van…
mogelijk gemaakt door ism de helden van het sfeerteam. genoeg reden om lid te worden dus.
precies. en de ratten van de pers, de televaag voorop, duiken natuurlijk op die 100 idio…
voortaan deze bakker maar overslaan. verkoopt oudbakken brood en gebruikt grondstoffen die over de datum zijn.
ook dit kan alleen maar in 010. bij de vrienden in diemen oost was de spelersbus afgebrand.
een slechte generale repetitie dus op naar een succesrijke première volgende week.
50.000 man in een vol stadion kijken naar een tv schermpje. dat kan alleen maar in 010!
de mannen van het sfeer team fsv de feijenoorder zijn wat mij betreft de echte helden tot nu toe. nu is het aan de…
en zo is het maar net.
zo deze marteling zit er ook weer op. bijna net zo erg als kijken naar een herhaling van ajaks tv.
wat een triest fouten festival zeg.
best wel een goede vraag eigenlijk...
prachtig...
waar blijft de aanklager nou? met2maten
scouts van feyenoord ff opletten...
mooi plaatje. wel graag pas maandag beginnen pls.
ik ben er wel bang voor ja.
dat klopt. we gaan ons ook wel amuseren. maar het is wel een belangrijk onderdeel voor de kinderen.
dat is dan een kwestie van perceptie management. communiceer dan wat duidelijker dat de kans groot is dat ze dicht zijn.
terwijl er best wel een grote kans is dat het koud is in de winter. en wel het volle pond rekenen
ik snap best wel waarom ze niet open zijn. veiligheid boven alles is prima. maar waarom dan wel deze attracties aanbieden.
maar betekent dat dan dat morgen de achtbanen weer dicht zullen zijn?
je mag toch verw88 dat attracties winter proof zijn in een winter efteling?
geldt dat ook als je een arrangement hebt geboekt. en volle pond betaald voor attracties die niet open zijn.
waarom zijn bijna alle buiten achtbanen dicht vandaag. het is toch winter efteling, mensen betalen veel geld voor een kaartje...
beste wij komen morgen en zaterdag langs. wat zijn die weersomstandigheden dan precies? bij ons schijnt de zon en is het boven 0.
ik ben geen fan van youp maar dit keer heeft hij een punt.
en is er al een android running app compatible met de s#. runtastic pro is dat niet en zal dat ook niet worden volgens hen
is het mogelijk om de standaard antwoorden lijst van whatsapp aan te passen
ik heb zaterdag mijn gear s3 en ben daar erg blij mee. wel heb ik twee vragen.
gelukkig hebben ook wij onze politieke idioten hopelijk niet met hetzelfde resultaat overigens.
zelfs mijn horloge is er klaar voor!
zo en nu op naar de klassiekert
010 staat weer 110% achter 070
ajaks verleden schijnt te helpen ...
erg mooi zal hij vast wel super blij mee zijn...
peter bosz in betere tijden.
1e dag abo fox en gelijk al een leuke wedstrijd
nu alleen nog maar ff vasthouden 😊
compleet gestoorde actie van een hele kleine zure klagende werkloze minderheid.
geweldige 1 april grap van sjaak swart ow w8 ff, het is geen 1 april, hij meent het echt ...
zelfs mijn horloge is er klaar voor
morgen zijn ze in de uitverkoop 😊
ongelofelijk wie haalt het in zijn hoofd om nu de brienenoord brug open te doen
dat kan alleen maar in 010 ...
en zo hoort het ...
zouden ze in heumensoord al een beetje nederlands kunnen lezen?
zelfs mijn horloge is er klaar voor
een quote we werden geconfronteerd met een respectloosheid die ik in mijn 29 jaar bij de politie nog nooit heb ervaren.
goh hoe verrassend. je verwacht het niet...
helemaal gestoord ...
hoe verrassend ...
en zo hoort het...
net ff hardgelopen in korte broek en shirt
internet weer kapot in 020?
gehoord in de kuip scheidsrechter bas nijhuis had een zachte fluit. je moet het maar zien...
weer heel veel supporters die zich als stoeltje verkleed hebben in de arena. gek volk daar in 020
ik ben geen fan van hem maar hij heeft wel een punt ...
je verwacht het niet ...
hopelijk zijn dit de laatste stuiptrekkingen van een totaal mislukte bondscoach
speciaal voor de 020 supporters indien niet reeds weg gekropen onder een steen
onze held je hebt feyenoord gereanimeerd, dirk, en dat is knap. wat zeg ik je hebt de hele eredivisie gereanimeerd
tegeltje voor aan de wand
spelersbus 020 klaar voor vertrek
gerechtigheid!
ik heb er nooit veel moeite mee als 020 verliest
wat heeft blind nu weer gedaan??? vertrouwen oranje ernstig geschaad
blind hartstikke objectief alle spelers met witroodwit shirt met 3 sterren ongeacht club komen in aanmerking.
hij doet zijn naam eer aan. 020 is idd de enige club die zowel nationaal als internationaal indruk maakt
huh sinds wanneer speelt elia voor 020?
idd misselijk makend
tjongejonge die veltman had er allang met rood af gemoeten.
zo kan het dus ook
a2 vlak voor de tunnel bij utrecht
welkom bij
...mijn krant. ...
welkom bij de mooiste club van nederland
vakkie k staat 110% achter je vanavond en komende zondag gio...
ron jans koning is voor 020 en maxima voor feyenoord. is hij nou zo dom of zij nou zo slim.
in de arena hebben weer veel supporters zich verkleed als stoeltje. gekke gewoontes hebben ze toch in 020 ...
komen wij uit rotterdam ...
en natuurlijk geen clasie en geen vermeer
lol sta al minuten vast op een roltrap
auto 2 is onderweg naar de sneeuw.
gefeliciteerd met jullie gezinsuitbreiding
geen woorden maar daden
tja ... bij ajax heerste vooral opluchting dat er niet verloren was. dat zegt iets over ons, concludeerde feyenoorder jens toornstra.
heb van de zenuwen hele bak chips leeg gegeten
op de bank voor zou het dan toch eindelijk gaan gebeuren?
samen kijken naar de
geen woorden maar daden ...
voor de buis voor gelijkspel moet mogelijk zijn, winst zou helemaal mooi zijn. 02, net als vorig jaar.
ook dit is#feyenoord zomaar even twee jonkies laten debuteren in een europese wedstrijd beste jeugdopleiding
wat een lelijk knollenveld past mooi bij dat lelijke shirt. speelt weer een prima wedstrijd.
wtf speelt feyenoord tegen 020 vanavond? wat een fout shirt zeg ...
010 staat morgen 110% achter 070
en dan nog eentje, omdat het zo leuk is
het verhaal achter het mooiste spandoek dat ik ooit heb mogen zien in een voetbalstadion
nog steeds aan het nagenieten ...
ge..wel..dig sfeeractie
fred rutten haalt beslist de kerst
niets is sterker dan dat ene woord ...
leuke berichten, alleen doet helaas jullie widget het nog steeds niet op android. doet het gelukkig wel!
zo bam, statement van ... het wordt een ouderwets feest zoals dat al 100 jaar wordt gevierd ... bam
wat een ontzettend goede film is dit zeg.
gezellig romantisch avondje in de hma
een keer raden wanneer ik vakantie had ... in nederland ... 😑
hallo albert hein hoezo witte pieten? het zijn toch geen bloemkolen?
fijn vandaag laatste dag en gelijk een fikse vertraging. juist op een moment dat ik vroeg op kantoor moet zijn 😑
zojuist gedaan. ziet er heftig uit.
... en weer eensupporter voor het leven. feyenoord 4 ever!
we krijgen weer gezinsuitbreiding ☺
gisteren een uur file gemist dankzij 😀
help mijn e book is leeg 😕
.... 25 minuten later op kantoor. had vandaag liever in de auto gezeten 😑
hmm sprinter naar uitgeest gaat niet verder dan gouda. reden onbekend. beste reiziger zoekt u het maar uit ...
dank je wel sprinter naar uitgeest gaat niet verder dan gouda. reden onbekend. beste reiziger zoekt u het maar uit.
2e week tussenstand 1 boek uit en 0 keer vertraging. valt tot nu toe niet tegen, maar 1e klas is wel erg luxe.
in optima forma ...
vandaag is extra handig. auto moet onverwachts naar de garage
vandaag is#lowcardiet extra handig. auto moet onverwachts naar de garage
het mooiste aan 020 ... is de trein terug naar rotterdam ☺
tweede dag en we zitten weer redelijk comfortabel in het sprintertje naar 020.
dat weet ik maar ik rij grootste deel door het groene hart met bitter weinig bereik. resultaat wegvallende citrix verb.
en grootste afknapper is geen wifi in de sprinter. had gehoopt in de trein te kunnen werken maar dat gaat niet 😐
eerste dag grootste voordeel heel relaxed reizen, grootste nadeel 10 minuten langer onderweg.
internet ligt er voor de zoveelste keer weer uit. lekker bezig!
volgens internet is de storing bij mij verholpen maar mijn mediabox blijft hangen op init nadat ik hem 1 minuut van stroom af heb
hallo krijgen we nog tv vanavond?
pvda blijft bij uitspraak, dat het lopen met de nederlandse vlag een provocatie is.
hoe mooi kan zijn ...
is er vanavond nog wat bijzonders op tv?
... je zoekt een plaatsje in de zon . ...
maria heeft wat uit te leggen ...
welkom terug vrienden van
ik ben voor polen
zou jan smit trouwens een goede brand verzekering hebben? wie gaat anders al die schroeiplekken op dat mooie kunstgras repareren?
jan smit nodigt de neuzen uit om in almelo feest te komen vieren. waarom zegt hij niet dat dat geen zin heeft omdat heracles gaat winnen?
verzonden via whatsapp
dan is het ws goed volk
ik sta ook in seizoen 20142015 weer achter feyenoord
heb hem al uit
ty
zelfs mijn horloge is er klaar voor
ik wil naar binnen ... wij vermaken ons nog wel even voor de toegangspoorten opengaan
ziet er lekker uit.
we gaan zo goed spelen vandaag dat zelfs het uitvak gaat juichen
ik begin de eerste kriebels al te voelen ...
on..ge..lo..fe..lijk
... dan is de stap naar dokter angelino niet zo groot
dat is nog eens ouderwetse old school leesvoer
.. of bedoel je verrassen?
zo weer een jaar voorbij.
wij hebben wel een witte kerst
ik heb er nog wel een paar voor de vn zwartrijden, zwarte zaterdag, zwart gat, zwartkijker, zwartwerken ... allemaal verbieden!
deze moet iedereen ff invullen
on..ge..lo..fe..lijk plasterk is voorstander van metamorfose zwarte piet
wat zal de vn hier wel niet van vinden de eerste blauwhelmen zijn naar verluid al onderweg...
on..ge..lo..fe..lijk kunnen we de vn niet afschaffen?
on..ge..lo..fe..lijk 2 verenigde naties onderzoeken zwarte piet via
on..ge..lo..fe..lijk via sinterklaas is een kinderfeest heeft niets met racisme te maken.
lekker dan
jip en janneke, hoelang nog?
morgen naar#vitfey
en als het regent?
ben op zoek naar een 2ehands imac. iemand?
+1 is er al een actiegroep tegen die sofie steen opgericht?
prima snelheid! nu langzaam je afstand omhoog brengen
zo laat de competitie nu naar beginnen 31
... je zoekt een plaatsje in de zon ... waar je zo gezellig ligt ...
jij mag het shirt hebben, dan neem ik de inhoud wel
morganavond gaat cdt management en business analyse lekker varen op de nieuwkoopse plassen met . hopelijk blijft het onweer weg.
keihard straffen, geef ze een seizoenskaart van 020
onze kat speelt verstoppertje
zo doen wij dat in rotterdam tweede maasvlakte 150 miljoen euro goedkoper
op schiphol voor weer een weekje hard werken in hamurg.
tja dan ga ik ook niet hoor ... ajaxfans boycotten mogelijke huldiging
dagje met de meiden naar de geweest
ik schiet helemaal vol .... not!
winterjas meenemen was foute keuze
... controle wordt pas achteraf gedaan ... ongelofelijk ... bulgaren frauderen met nederlandse toeslagen
je verwacht het niet he ... bulgaren frauderen met nederlandse toeslagen
straks naar de voor een belangrijke wedstrijd houden we de punten weer in rotterdam ?
lekker met de meiden in hoek van holland
ik ben normaal gesproken allergisch voor alle linkse rakkers, maar dit keer hebben ze helemaal gelijk
wat denk jij zelf
dat is ongeveer 10 graden te warm voor de lopers. suc6 aan alle marathon helden morgen.
ook wij hebben eindelijk een ollie, helemaal in stijl
was die foto voor of nadat je hem verteld had dat je een hardcore feyenoord supporter bent?
vanmorgen hardgelopen met gevoelstemperatuur van ongeveer50.
zo de winter is vroeg begonnen dit jaar. zometeen de kerstspullen van zolder halen.
zometeen nieuwe profielfoto?
en natuurlijk hopen op een leuk resultaat in alkmaar. dat de neuzen maar het deksel op de neus mogen krijgen
op weg naar de voor op weg naar het kampioenschap? vandaag eerst maar weer de 3 punten in rotterdam houden.
zojuist weer voor een jaartje bijgetekend bij
volgend jaar doen we het gewoon nog een keer toch ?
op weg naar huis. geweldig weekje skieen gehad met met veel zon veel sport en veel lol in het altijd bruisende stumm.
auto 3 is bij munchen
en auto 3 heeft de eerste file al te pakken
op weg naar vleuten voor een heerlijk weekje skieen met
dit jaar wordt zelfs nog beter, dan ben ik er nl weer bij
slaat je lens
op weg naar schiphol voor weer een weekje hamburg.
had die lens niet gewoon als fatsoenlijke psver een leuk ruitje in kunnen slaan?
en jij een prima invalbeurt!
is mclaren al ontslagen?
vandaag komt pisvlek naar de hoop op 100 maar ben ook al blij met 21
gaan we voor 02? dan doen wij 21 in de
tjongejonge slecht voor je hart zon wedstrijd 2e helft aub beter beginnen.
wachten op kunnen we de 3 punten meenemen uit zwolle?
op weg naar de voor hopelijk blijven de 3 punten weer eens in 010
pippa middleton hard op zoek naar man ik zeg zoek niet verder stuur mij maar een dm.
lekker... ff opbakken, teentje knoflook erbij en smullen maar
ns rijdt met aangepaste dienstregeling ze zetten extra fyra treinen in
tja... ik kan nou wel iets tweeten, maar het maakt toch geen verschil...
ik zit er klaar voor
in hamburg slechts 0,5 cm sneeuw
onderweg naar schiphol voor weer een weekje hamburg
pellè tekent vierjarig contract bij feyenoord
ik was erbij als 12e man tijdens de klassieker! vind mij in de 360graden feyenoord fancam!
hij houdt vast zijn shirt aan vanavond, niet interessant dus
genieten van vind het zelfs leuk om naar ronaldo te kijken
lol misschien kan psv nu spelers gaan sparen voor de knvbbeker.
gisteren een geweldig sinterklaasfeest gehad met glunderende kinderen in de auto terug naar huis
zit weer eens op het vliegveld voor alweer een weekje hamburg.
dat was vast een uitje in 020
vandaag matchday. duitse club op bezoek in de voor
gisteravond gezien. wat een hilariche film. pure rotterdamse poezie. a must see film voor iedereen met een 010 hart.
zo laatste dagje hamburg. het was een nuttig weekje, veel kunnen doen. en ze zijn hier zo tevreden dat ik de komende weken terug mag komen..
dag 2 in hamburg. gisteren voorbereidingen gedaan, vandaag een begin maken met de uat.
zo hotel 24ste verdieping hartje centrum. zonde om te gaan slapen.
op schiphol bij starbucks. wachten op vertrek van mijn vlucht naar hamburg voor een druk maar hopelijk wel enerverend weekje voor de baas.
lekker uurtje hardgelopen. zometeen kijken en daarna naar schiphol voor een weekje werken in hamburg
rotterdam wenst de supporters van vitesse vanavond een fijne avond!
heb ik er zo hard voor getraind, gaat hij niet door ...
rotterdam groet de vrienden van manchester city
erg mooi man!
caitlin kan bijna niet wachten ... welk weekeinde wordt het?
... en dat is 2 ...
... en dat is 1 ....
ik wist niet dat jij balorig zo leuk vond
hierbij een nederlandse vertaling van de slcid truc. na enkele slimme vragen van mijn kant hingen ze snel op
ben zojuist gebeld door een alleraardigste indiase dame. een waarschuwing voor de iets minder technische gebruiker
suc6
nog een actie foto
zometeen ff rustig uitlopen om de stijfheid uit de spieren te krijgen en dan op naar de volgende uitdaging
terug van een uitermate gezellig en sportief mont ventoux uitstapje met een prestatie neergezet en veel geld opgehaald voor
ik ben boven in 2.59.52 helemaal kapot. had eigenlijk binnen 2.30 willen lopen maar het was te warm.
groep 1 gaat op pad
jij ook suc6 dit weekeinde bij de ride for the roses.
arjen, gisbert, rodney en gaan nu al weg, de rest wacht nog een uurtje
vandaag is het zo ver. de beklimming van de met . 2 lopers, 2 cingle gangers en 8 normale fietsers
excursie bij de wijnboer met
het nieuwe werken in optima forma
afzien in de provence met
vindt vind
ik weet nog niet of ik dit nou goed of slecht nieuws vindt feyenoord krijgt nieuw stadion op varkenoord gelezen.
auto 5 is gearriveerd het bewijs is bijgevoegd
auto 5 van heeft lyon in het zicht. komt steeds dichterbij
lijsttrekkersdebat, afterparty, late nieuws, en toen was het opeens 12 uur
auto 5 heeft opgeteld 7 uur slaap gehad. 3,5 uur p.p. straks lekker slapen aan het zwembad eta is 1500.
auto 5 met is onderweg naar mazan voor
veel plezier vanavond. ik zal het vanavond moeten doen met radio rijnmond
laatste interval gedaan voor . minder warm dan afgelopen zondagmorgen maar wel vochtiger
28 graden is voor een geoefende loper de limiet. daarboven is het te gevaarlijk ivm uitdroging, warmtestuwing, zonnesteek etc.
zojuist 23km gelopen voor . 0745 gestart met 23 graden, 1015 weer thuis met 27 graden.
morgenochtend moet ik nog een lange duurloop doen voor zal morgen wel ff de wekker zetten.
vanavond zallik een vest meenemen?
dat is nog eens een fijne manier om af te vallen
suc6
zo, laatste extra lange duurloop 30km gedaan voor komende weken afbouwen. ik ben klaar voor de
ik zou dat zielige bosje ook hebben laten vallen hoor
dan maar herhaling vrouwen hockey kijken. meer ned doelpunten en meer borsten