hi plien, heb het al gevonden, ik was weer ongeduldig en moest even wachten op de update van de app. thankns voor antwoorden!
ik kan de integraties functie niet vinden in de tradfri app van 😢
is het dan geen
done!
dat wil ik wel doen, alleen ik kan geen dm sturen 😉
wat is precies de reden dat 1 rit 2 keer in mijn overzicht staat? alvast bedankt voor de reactie!
als we de wedstrijd op papier hadden afgedaan was het ook de huidige stand geweest, had een hoop ellende bespaard.
😂 wat een briljante film weer en wederom heerlijk flauw 👌🏻
man man man wat is die hilarisch 😂😂😂
beste willen jullie mijn klacht oplossen? bedankt!
of als je wat geld over heb een bmw 5serie touring
peugeot 3008
thanks voor de info en ik ga me er even verder in verdiepen goed weekend!
bedankt voor snelle reactie! ik snap dan alleen het verschil qua aansluiten dan niet helemaal. wat is precies het verschil?
goedemorgen klopt het dat de tado slimme thermostaat niet los te gebruiken is en de extention kit altijd nodig is?
ik zag net een reclame van jullie en daarin zag ik een slimme thermostaat, maar ik kan niks vinden op jullie website hiervoor.
bedankt voor de snelle en goede service! 😁 moet ook gemeld worden als iets netjes is opgelost, niet alleen maar klagen 👍🏻
ohw nou ik ben benieuwd zojuist via prive het bestelnummer gestuurd
vandaag dit flesje ontvangen met nog 2 producten maar flesje is kapot of lekt in ieder geval. gewoon retou…
hi jordy, ik heb zojuist de factuur gekregen en toch is er een euro extra gefactureerd. hoe kan di…
oké thanks voor de hulp tot op heden 😁 fijne avond alvast!
ja zeker dat was 1100997818
het hendeltje aan de zijkant werkt niet meer juist. met zagen schiet die los waardoor je scheef gaat…
hi jordy, dank je wel voor de update! ik zal het tzt laten weten! groeten mark
het was toch per 1 juli verboden om geld te rekenen voor een klantenservice?
ohwja dat is misschien wel een goede inderdaad, weet niet of het nut heeft maar kan het proberen 😁
ja dat is waar, alleen dan moet ik hem weer helemaal uit elkaar halen haha, is er geen andere oplossing 😉
ik heb de rest al binnen al nog niet in elkaar gezet en die andere staat nu al helemaal in elkaar du…
nee inderdaad, de tweede was wel goed. de derde en vierde zullen we morgen checken als het beter wee…
net de nieuwe terrasstoelen binnen gehad en ik zie nu dat we 1 al niet meer heel is 😢
op de a12 zie je dit ook echt heel vaak super irritant!
oké thanks! ik houdt het in de gaten. en antwoord op de vraag over het aantal lampen op 1 hub? 😁
al het geld is nu terug. bedankt voor de hulp! het vertrouwen is weer terug dus weer wat besteld 😁
ja die stond er wel op, maar is nu opgelost met harde reset. in ieder geval bedankt weer voor de reactie 👌🏻
is het al mogelijk om de trådfri verlichting te koppelen aan een apple homekit? hoeveel lampen kunnen er op 1 verbindingshub?
weten jullie hoe het kan dat “profiel” niet zichtbaar is onder vpn op de ipad? bij iphone zie ik hem wel…
ik heb zojuist weer een bedrag terug gehad, nu alleen de decoupeerzaag dan zijn we weer rond
klopt inderdaad! jullie ook bedankt hiervoor en ik zie het geld graag tegemoet.
mail zeker niet gelezen?! het gaat om meer geld dan die 20,98
nog steeds niks gehoord tot op heden... begint nu toch wel beetje irritant te worden.
het zal mij benieuwen... wacht al bijna een week op een reactie op een mailtje, echt belachelijk!
ook op twitter reageren jullie niet zo snel meer als er geld overgemaakt moet worden... zo moeilijk…
jullie reageren op twitter sneller als op de mail... heb nu bijna een week geleden gemaild maar nog…
goedemorgen, ik heb zojuist een mail gestuurd. hopelijk ontvang ik daarop ook zo snel reactie groeten, mark
goedemiddag, het lijkt echt helemaal mis te gaan, zou ik een pm kunnen sturen met de bedragen en zo er in? alvast bedankt.
goedemiddag, helaas heb ik tot op heden nog steeds de terugbetaling niet ontvangen. kunnen jullie ch…
voor als die ooit verfilmd wordt hebben en alvast de soundtrack gemaakt...…
ik zal vanavond ff kijken of ik op de tv tvos11 kan zetten en nog een keer testen, dan laat ik het wel ff weten
ik heb ios 11, en de tv is nog gewoon de “oude” misschien dat het daaraan ligt. in oeder geval bedankt voor de reactie 😄👍🏻
weten jullie toevallig of de apple tv 4 wifi ook werkt op persoonlijke hotspot van iphone 7? lukt mij niet namelijk.
ohw vandaar, ik heb die 2,49 al gehad inderdaad en ik zie de rest dan wel tegemoet. wederom bedankt voor de snelle reactie
terug betaald ipv alle 4 de artikelen die had geretourneerd. zouden jullie dit willen checken? alvas…
goedemiddag, voor bestelling 1100997818 gaat het denk ook niet helemaal goed. ik heb net € 2,49 geha…
geen probleem! ik zie de juiste mail graag tegemoet en bedankt voor het oplossen in ieder geval
ik heb een email gehad dat er een retour goed is ontvangen maar er staat ook bij dat ik 0,00 eur terug krijg 1100996781 ?
weten jullie dat de niet klopt ? deze loopt 1 dag achter. hij geeft bij ritten van gister 21 juni 20 juni aan 🤔
thanks! ik heb zojuist de nieuwe bestelling ontvangen. nogmaals dank voor het snelle handelen 😄
het bestelnummer is 1101016029. dank alvast!
heb de t&ampt gecheckt, maar er staat nog steeds niks in de planning bij zouden jullie dit willen checken thanks! 2/2
ik heb vant weekend wat besteld en zou gisteravond tussen 1821 bezorgd worden, maar ik heb niet gezien. 1/2
wanneer komt uit samen met 😎🔊
ik heb een schuurmachine besteld afgelopen weekend met aflevering vanavond tussen 1800 2100 maar geen gezien 😔
super bedankt voor de compensatie in de vorm van een tegoedbon zo kan het dus ook
wat een waardeloze organisatie dat ! pakketje afgeven bij de buren maar geen briefje in de brievenbus doen. waar is het pakketje nu?
is het mogelijk om een resterend openstaand saldo van een toestel in 1 keer af te lossen? alvast bedankt.
kunnen jullie wel regelen dat het dus absoluut niet bij buren afgegeven mag worden omdat die het and…
ja alleen daar heb ik niks aan aangezien ik verhuist ben. heb het wel doorgegeven aan de huidige bewoner. 1/2
wat raar dat niet eens een order van de webshop kan annuleren die gisteravond besteld is 😔
heeft dickie nou ze sjaaltje niet om 😱
dank voor het antwoord, het is inmiddels al geregeld met de opzeglijn en ik hoef niet mijn contract uit te zitten 🙂
ik ben dus al overgestapt naar jullie alleen dat contract gaat pas 4 augustus in, ik zal even info…
ik stap juist over van jullie naar 😉 dus willen jullie checken wanneer ik kan opzeggen? alvast bedankt!
ik las dit stukje betekend dit dat ik ipv 4 aug eerder naar jullie kan overstappen van
yes dat was de tip om het werkend te krijgen in opera lukte het! thanks en ook bedankt voor de hulp!
geprobeerd maar dat lukt ook niet, wederom die betaalfunnel.
ik heb al een account bij rtlxl en log in via facebook en als ik dat dus nu ook vij videoland doe…
hi ls, ja dat heb ik ook geprobeerd maar dan kom ik meteen in de betaalfunnel terecht, dus ik moet…
leuk dat maandje maar het scherm komt niet verder dan dit scherm... hoe kan ik di…
vandaag alweer kaartjes besteld voor en in
gisteren vertelde je dat je geen bananen at in het openbaar, en we zitten nu dvd van carribean combo t…
bedankt voor de snelle reactie en ik ga dit regelen, fijne avond! groeten, mark
klopt het dat je een spijkerbroek van c&ampa maar 4 keer kan dragen en dat die dan al kapot is...
klopt maar als je doorklikt niet meer
hahahaha wat een goede tip, dan kom je op een niet werkende pagina!
dat is allemaal leuk en aardig maar daar kan je nog steeds geen normale skype naam aanmaken / toevoegen...
en het klopt dan ook dat je 1 of andere vage live7373737733 skype naam krikgt? ziet er leuk uit op een visitekaartje...
waarom kan je tegenwoordig niet eens meer je eigen naam aanmaken bij het is er niet op vooruit gegaan sinds het van is!
gaan jullie nog antwoorden op mijn vraag via whatsapp!? duurt wel lang allemaal zeg... probleem ik kan niet meer inloggen!
denk je ff wat terug brengen bij in utrecht is de wachttijd meer dan een half uur bij de klantenservice
mijn speler van de week bij voetbal inside is tonny vilhena via
wat laat hier precies aan zien... 🙃@slechtegrappen
waarom moet je eerst je postcode invullen op jullie website ? vind het een beetje omslachtig om snel iets te checken...
ik ben geen naaper, jij bent gewoon mijn grote voorbeeld 😎
mijn speler van de week bij voetbal inside is via
hahaha en hoe!
een nieuwe beker gekocht bij en die is nu met geen enkele mogelijkheid meer open te krijgen na 1 x gebruiken
weet iemand of het mogelijk is om van ook in nederland te kijken?
haha nou ik vind het een faal als je met een nieuwe app komt en de andere providers kunnen het wel wel mooie app overigens
heeft eindelijk een nieuwe app zodat je ook buitenshuis kan kijken, maar dan weer geen airplay / chromecast stream functie
ik doe mee met de voor de allernieuwste apple tv 32gb /via
denk dat het op de vliestroom was 😉
wat je voor oude spullen allemaal niet tegenkomt met verhuizen cassettebandje van 😎🤘🏻
sint had het ook eerder kunnen bestellen ipv wachten tot laatste moment dan hadden de kindjes het op tijd gehad
het zou je sieren als je naast het negatieve van ook het positieve laat zien zoals de topsfeer in het stadion!
wat een van adverteren met snel besteld, snel in huis en dan mailen dat de bezorg en ophaaltijden snel vol raken 😂
de nationale en dan vragen stellen over o.a. japan en zweden. niet heel nationaal lijkt mij
ik heb net mail gehad, zal vertraging in hebben gezeten
dat heb ik ook, staat in besteloverzicht en is afgeschreven alleen nog geen mail
dit is echt een aanrader! vandaag gehaald bij en smaakt uitmuntend 😎
dat we terug niet naast elkaar zaten maar dit heeft het personeel netjes opgelost. waarvoor dank!
naar geweest met goed geregeld behalve vliegen vanaf brussel wonen in alph…
jullie lezen ook anders? aangezien je al 2 keer mijn naam verkeerd schrijft... fijn wknd knul!
klopt! het is overigens jouw clubje, maar snap dat friezen niet goed zijn in nederlands...
kan je van cambuur en stiens niet zeggen hahaha
hahahahaha stakker
oordeel dan niet over andere als je zelf vanuit huis stoer zit te doen, ouwe toetsenbord hooligan
er waar kom jij dan vandaan...
ohw top! gelijk ff aanmelden dan daar straks, altijd handig 👍🏻
yes ga ik als ik thuis ben vanavond ff doorlezen. thanks weer! 😄
dank voor de snelle reactie. andere app. werken wel gewoon op dezelfde wifi. herstarten had geen invloed en andere wifi ook niet.
mijn macbook air heeft wel de volle wifi verbinding maar internet werkt niet, weten jullie wat het kan zijn? groeten mark
kan ik ergens de afleveringen terug zien van of zijn er herhalingen vanaf episode 1? groeten mark
ongelofelijk dat dat weer opent met dat 020 terwijl bovenaan staat. er zijn meer clubs in nl dan alleen dat 020!
verdikkie wat een snel antwoord weer en het probleem is opgelost thanks!
weten jullie toevallig wat dat uitroepteken is bij berichten? heb het pas sinds vandaag op mijn iphone 7…
toch gek als merel westrik zegt bij dat er een hoge merel sterfte is...
net iphone7 besteld bij apple zelf en die geven 23 weken verzendklaar aan. weten jullie of dit nog korter wordt? groeten
ik heb zojuist meegedaan met de rad van fortuin game en scoorde 155977 punten! verbeter mijn score!
dat maar is natuurlijk ook helemaal kut... het is hun paupersysteem
bedankt he ! geen kaarten door dit incapabele kutsysteem van dat pauper
dat mag ik niet hopen... dat zij zon incapabel systeem hebben mogen wij niet onder lijden!
of jullie schaffen een keer een capabel ticktetsysteem aan! dit is al de zoveelste keer!
wat een slecht ticketsysteem krijg de melding van max. aantal tickets. onzin! ik heb 0 tickets!
weer met die algemene voorwaarden komen... stakkers... ik blijf erbij dat ik het misleiding vind...
heeft ook niet eens een goed argument ervoor staat in onze alg.voorw. als dat het enige is wat je kan zeggen... 2/2
yeah right. nou ik vind het pure misleiding om daarna nog eens 36€ per ticket extra te vragen! degene die daarvoor belt 1/2
wat een misleidende site dat zeg! boeken en daarna bellen dat het duurder is geworden! hier boek ik dus nooit meer!
oké thanks! dan maar weer op mijn lijstje zetten jullie brengen goeie boeken uit 👍🏻
kan zijn legendarische uitspraak nu wel wijzigen naar heey rooostoooov 😂
beetje overbodige vraag... ggh geelgroenhart mag jij raden voor welke club die is...
ach gossie beetje je gepikeerd jochie 😂
als je nog steeds kijkt moet je ook zeker ff checken is meesterlijke serie!
heeft vast een goede tip 😄
zegt die andere weer ik zoek mot
volgens mij woont al een poosje in
misschien wel zo netjes om ook de reclame te blurren als je ook het kenteken blurt...
ja zeker! sta al ik de wachtrij 😁 thanks!
dan maar hopen dat ik op tijd ben als ik meteen om 1000 uur bestel 😁
best gezellig maar nu ff beuken dat laatste half uur
die hooligans willen wel hoor, alleen die laffe is stakkers blazen zichzelf al op voordat ze in de buurt zijn...
dat python ding is super chill 😄 krijg je tenminste geen kink in de kabel 😁👌🏻
is een veel betere website 👌🏻
toch gek dat je als in dezelfde categorie staat als fritzel en hiroshima op 😂
wat voor puppies zijn het bij weet iemand dat?
gevonden thanks!
per ongeluk heb ik mijn synology nas verwijderd uit het lijstje bij reservekopieschijf in time machine, kan ik dat terug krijgen?
ik denk dat 1 van mijn decoders stuk is. hoe kan ik een nieuwe / andere krijgen? alvast bedankt!
ik heb een mail gehad over het doorgeven van mijn meterstanden en ik moet opnamekenmerk opgeven maar deze staat helemaal niet mail..
hoezo met het getal 2? ze hadden dit jaar toch 3 x niks... 😜
hoppa, zojuist kaarten besteld voor maar dan zonder kemper hehe en in
ik heb deze ook al een tijdje en is ideaal 👍🏻
nergens mee, geef je gewoon een compliment.
ik zie in ieder geval dat je goed met paint overweg kan aan je profielfoto te zien... 😂😂😂
haha wat een dom excuus, dan hoef je toch nog steeds geen 5€ te rekenen voor verlenging. belachelijk hoge kosten!
vandaag zeer leerzame mobile training gehad bij en ook nog geslaagd! op naar de volgende!
misschien kan je er ook 1 maken van de jupiler veste ipv grolsch veste 😁
onzin! je kan die kaart ook langer geldig maken! je betaalt ook al 90 cent bij aanschaf. ik koop dat pauper ding nooit meer!
hey paul hoe laat sta je vanavond in
check wat een vette poster ik heb van jouw idool en de man die jij goed kan nazingen 🎶😁
hoezo kan ik geen nieuwe apps installeren terwijl er nog zoveel gb vrij is
voor een onafhankelijke en makkelijke overstap check dan
het werkt prima 👍🏻
hebben jullie ervaring met een ipad als 2de scherm en zo ja wat zijn dan de beste programmas / apps hiervoor? bedankt! grtn mark
hi coen zou dit echt zijn of ook 1 april?
wat een kut programma is dat zeg! met de dag meer problemen, hopelijk komt er snel een goed alternatief
bedankt voor de snelle reactie. dan bestel ik hem morgen wel bij apple zelf, moet ik alleen een dagje langer wachten. grtn mark
goedenavond, apple heeft zojuist de prijzen van de ipad air 2 verlaagd. gaan deze bij jullie ook naar beneden? mvg mark
want? volgens mij wordt alles een keer goedkoper... dat weer je weer met elektronica
wij zijn in haarlem geweest, is zeker de moeite waard om er heen te gaan was hilarisch
er komt toch een jointventure en geen fusie?
ja heb ik gedaan, krijg constant dat niemand beschikbaar is. com. ga ik niet helemaal doorlezen, heb wel wat beters te doen
dat is inderdaad een lekkere duidelijk website waar het antwoord niet te vinden is. naar
niet bij jullie... die is koud als het bezorgd wordt, jullie vergeten de saus en reageren niet op een klacht...
gaan jullie nog een fix doen aan dat wat een shit programma de laatste tijd! loopt constant vast.
okay, thanks voor jullie snelle reactie in ieder geval.
weten jullie misschien uit het verleden of de ipad air 2 voordeliger wordt als de ipad air 3 er is? 😄
want? ondanks dat ze niet kunnen spellen doen ze verder niks tegen de regels!
toch jammer dat ze hier niet eens op reageren...
net eten bezorgd door is het al niet heel warm meer zijn ze ook de saus nog vergeten 😔
waarom was er zoveel politie zojuist bij het azc in alphen aan den rijn? kwamen op de a12 al politie tegen die er heen gingen...
neem aan dat ze ook nog wel uitnodigen aangezien die 50 wordt dit jaar
hahaha wat een top tips 😂 vertel dan over dubbel tikken op home knop dat weet niet iedereen...
als het dus straks in nl ook mag dan wel en levert dat extra belastinggeld op. voor beide is wat zeggen 2/2
ik denk dat mensen die willen gokken dit nu al in het buitenland doen en dat levert de nl overheid niks op 1/2
en jij denkt dat die nu al niet online gokken via buitenlandse websites...
en ook over de ruk app van
hopelijk volgend jaar weer gewoon op daar werkte de app tenminste nu maar wat anders kijken dan de
bedankt nu heb ik eerste 6 vragen gemist van en de app is ook ruk die valt telkens uit! bij was btr
er staat nu een nog vettere serie over pablo escobar op netflix! deze was laatst ook op rtl crime.
de link is een 404 😂
goedemorgen, ik heb al een hele lang tijd geen internet meer op mijn ps4. wat kan het probleem zijn? mvg mark
was het toevallig een witte vw polo? dan zijn misschien niet alleen de platen gestolen maar is het mijn auto haha...
het is dus geworden 😂
jullie zouden dit soort wanpraktijken op facebook eens moeten onderzoeken...
dit soort troep wat je na het klikken op de klikken ook nog eens heel veel geld kan kosten!
en wat maakt jou slimmer als hun?
de is ook verlopen na een jaar en de klantenservice reageert ook niet!
top! ik zie wel een verband, althans het valt op dat het heel erg vaak van maandag op dinsdagnacht gebeurt. ook pas fiets gestln
kunnen jullie s nachts wat vaker langs vliestroom rijden? wordt laatste tijd enorm veel gejat fietsen, auto, koplampen enz. bvd!
hahaha blurt wel de bedrijfsnaam van de fietsenwinkel maar niet het kvk nummer... nu kan je nog zo nakijken om wie het gaat 😂
naar aanleiding van van afgelopen zaterdag over de
wat een fcking heerlijke set van en 2015 😍😍
kansloze organisatie joh dat niet roken op je balkon, dat maak ik toch wel lekker zelf uit!
er zijn weinig films / series waarin die niet doodgaat 😂
denk dat het moet zijn 😉
excuus! ik had per abuis jullie getagged terwijl ik moest hebben. mijn oprechte excuus. wel bedankt voor snelle reactie
wat een slechte klantenservice heeft dat 2 maanden geleden klacht ingediend, nog steeds niks gehoord!
wat een lekker biertje is dat meer van halen 😄
dat zou kunnen, maar ga ik niet doen, koop wel een nieuwe maar geen philips in ieder geval aangezien er 0,0 coulance is!
het motortje doet het niet meer waardoor we hem niet meer kunnen gebruiken.
de navigatie app is prima dus denk niet dat ze veel meer kunnen doen...
misschien moet je eerst je zaken op orde hebben voordat je andere gaat corrigeren. bel hem dus maar!
wat niet het geval is wat ook in jullie systeem staat en het is al 1000 keer uitgelegd maar niemand bij jullie doet er iets mee!
ik heb gelukkig geen nummer bij jullie! maar jullie gaan dreigen met incasso naar me pa die volgens jullie systeem een abo heeft
zijn jullie nog op zoek naar een want ik heb er nog wel 1 van dat hele systeem daar klopt niet!
wat een debielen kt organisatie is dat echt niemand heeft daar volgens mij een hoger iq dan 65!
dat doen ze beter als die doen helemaal niks als je blender stuk gaat vlak na de 2 jaar garantie!
als niet op me mobiel kijk had ik ook dit niet kunnen lezen op twitter 😜
komt een keer in alphen kan ik er weer niet bij zijn...
doen jullie tegenwoordig haren verwerken in activia fruits? zo niet dan is het wel vreemd dat ik er 1 had..
en dat
daar zou je van balen als je daardoor verliest maar het was gewoon k#t en dat lag aan de eigen spelers en de coach...
goed nieuws!? je moet gewoon zelf winnen en niet afhankelijk zijn van andere uitslagen!
plata o plomo vette naam ook voor een nieuwe plaat 😂
ja moet je zeker doen, duurt alleen wel 86 afleveringen iets van 45 minuten haha
deze serie is echt vet, maar had laatst ‘pablo escobar, the drug lord’ die is ook geniaal!
wat een geniale serie is dat op pas bij de eerste aflevering maar hoop al op seizoen 2 😂
zojuist was mijn broertje op de radio over de mencave is het mogelijk om dit fragment toegestuurd te krijgen? mvg mark
je kan sowieso maandelijks veel geld door over te stappen via
potverdikkie! de op wanneer is het er weer? heb dorst namelijk 😜
lekker zo onder het werk en live
op zoek naar een leuk appartementje in vlakbij winkelcentrum check dan
de 31 van
wat blijft het toch een heerlijke cd tijdens het auto rijden 🔊
potverdeejuh wat een dikke plaat weer! mijn complimenten 🔊👌🔊😎🔊
neem aan dat wel wat kamers beschikbaar kan stellen voor mensen die niet bij familie terecht kunnen...
wat een ongepaste kut suggestie!
inloggen op het apparaat die je op afstand wil bedienen zonder iedere keer de codes te hoeven invoeren 😄 succes in ieder geval
graag gedaan je kan ook een account aanmaken daar en dan kan je meerdere macs/pcs toevoegen en kan je heel makkelijk 1/2
teamviewer werkt ook prima om je mac en/of windows te bedienen tip zet hem wel op privé gebruik
hebben jullie ook de laagste prijs garantie in de winkels? ik zie namelijk dat de huawei ascend g6 elders 129€ kost
waarom wel over de nieuwe pakken van maar niet van 😤
en het glas en glas dan 🍻😉
ik heb tot op heden nog helemaal niks vernomen, 2 slechte 🍕 in korte tijd én geen reactie vh filiaal over de 2de 🍕
dit is wel wat voor jouw ✌🏻️😎💪🏻
dat groene/gele uitshirt van de hoofdstedelingen is volgens mij ook een idee van een stel wegwerkers
wat een rete vette set van en
allememagies wat een geniaal nummer weer! weer paul 👍🏻🔝🔊
verkopen jullie ook meloenlepeltjes? 😄
je zou denken, dat gaat maar 1 keer fout, maar nee hoor, wederom meer vocht als pizza
ja daar kan ik ook nog kijken maar heb liever een nieuwe en geen 2de hands 😉 maar bedankt voor de tip
das jammer, volgende keer eerder kopen 😄 dank voor de snelle reactie!
zoek me suf naar dit shirt in de maat l. weten jullie waar die nog online te verkrijgen is?
ik ben er zeer content mee en zo leer ik ook steeds meer over , had gewoon veel eerder deze producten moeten gaan gebruiken hehe
wel chill dat jullie altijd zo snel reageren als iemand een vraag heeft 😄
alweer opgelost na een herstart hahaha
ik heb dit net gedaan nu kan ik niet meer op internet
hoe kan ik jullie selecteren? en voor welke tijd moet de bestelling van de volgende dag binnen zijn?
alleen niet op de maandag en je moet 2 dagen van te voren bestellen 😆
aan een nieuw boek begonnen 😄 ben benieuwd naar dit boek over de crime top 100 van
zojuist ff een kratje gehaald bij gedaan zo en leuke en lekkere inhoud 🍻✌🏻️😁
wordt een mooie nieuwe winkel! hopelijk gaan jullie ook verkopen. lekkerste speciaalbiertje die er is 🍻✌🏻️
aan de hand daarvan had ik het ook aangepast hahaha, laat het wel, lost zichzelf wel op in de loop van de tijd 😁
heb idd nieuwe lettertype erop gezet van el capitan, dat zal het wel zijn, ff niet aan gedacht 😂 dank voor de snelle reactie👌👍
weet iemand hoe dit kan en hoe ik het weer normaal krijg? ☺️
wat een goed boek is het nogmaals dank voor het signeren 👍🏻
modem gereset geprobeerd en hij doet het alweer maar is wel echt heel lang geweest dat het niet werkte, wat er vervelend is!
klopt het dat er een storing is? op postcode 2401vl hebben we geen tv en geen internet! zeer vervelend dit!
ze hebben gereageerd met een prima oplossing dank voor de service en het reageren!
ik heb niet echt het idee dat het filiaal haast heeft met contact opnemen want tot op heden heb ik nog niks gehoord...
dank voor jullie reactie! ik heb zojuist een dm gestuurd!
ik zou ook wel graag , en willen zien
lekker in de zon een drankje doen
geen reactie 😄
hahaha zal ik doen als ik wist waar het was of zeggen ze vast wel tijdens de rondvaart 😁
zo een rondje varen door het schitterende thuisbasis van oa
de fotograaf is gearriveerd hoor 😄
kan niet misgaan volgend seizoen want ik heb weer een voor
ezelsbrug voor verkeersborden streep eindigt op p van parkeren en kruis eindigt op s van stop
komen jullie ook nog naar alphen aan den rijn?
nog 2 maandjes dan komt die weer in de bios 😁👍🏻✌🏻️
dank jullie wel voor het toch goed oplossen hiervan! met vriendelijke groet, mark!
heeft er niet zoveel problemen mee dat er oplichting in hun app staat...
heeft er niet zoveel problemen mee met die oplichting...
zojuist verstuurd via een dm
ik heb nu sim only en wil graag een iphone6 dus dacht dan verhoog ik me abo dat zal wel geen probleem zijn...
toch vreemd dat je nu al 2 jr langer wil blijven en dan moet betalen. einde contr. is 17 november
ohw dat ga ik dan zeker doen 😎 thanks!
website van cabaretweekend en van liggen eruit / lopen vast
ook niet slim van wil ik nu al 2 jaar verlengen moet je kosten betalen omdat je te vroeg wil verlengen