hopelijk de laatste keer? wat een ellende man!
eindelijk is die dag er, fantastisch om feyenoorder te zijn!! ♥️
.@feyenoord trekt hem vandaag over de streep... 🏆
hoe zou het over 24 uur zijn?
het kan gewoon niet meer misgaan, nog 1!
haha arno vermeulen, ga toch weg met je complottheorie 😂
avondje genoten in de kuip!
dag van de waarheid!
mijn stem gaat naar ! een eerlijk politici, met het hart op de juiste plaats!
wat een heerlijk 😍
wat waren de odds?
trump die even de media kleineert
verkering sinds hun 13e, lijkt me niet voor de monni 😉
het enige wat nog ontbreekt is een 9darter
haha ajax eruit, heerlijk!
ouderwets genieten
wat. een. goal!
heerlijk hahaha
op naar de 50
danny blind, de koek is op!
tyfuszooi wat een kut pot
05 kom maar door
even nagenieten van de man die in zijn eentje heel ajax gek maakt
guidetti, in mijn ogen voor eens en altijd een held
feyenoord wint nog wel
janarie heerlijk hahah
laat dat nieuwe seizoen van de walking dead maar komen
feyenoord doet zichzelf te kort, maar verliest gelukkig niet 🤔
tuurlijk
3 punten zijn 3 punten 😍
hahaha heeeeelijk
treinen rijden niet verder dan akkrum, koffie is gratis 👍 het eerste biertje ook?🤔
luxemburg komt met 10 man terug tot 11 en mn bet is weer fucked🖕
die zegt ja tegen elke ajacied 😴
liefde kan blind maken 😂 maar zo blind? 😳
dat ga je mij nooit zien doen 😌
pfoe gelukkig 😜
ik ben het helemaal met je eens p
en dat is
pijnlijk slechte wedstrijd, ongelofelijk 😳
achterstaan, hoe voelde dat ook alweer?
mee eens 👌
wat heerlijk om feyenoorder te zijn 😂💪
vilhena heerlijk😍
20 hoe snel kan het gaan 💪😄
ongelofelijk
leef met je mee, komt goed
de hele wereld is naar de tyfus
ze staat niet voor niets in de halve finale 🙄
waar de ene nederlander valt, staat de ander weer op!
wat een held max verstappen!
hahahahah dit gun je echt alleen ajax
lekker wedstrijdje 😅
eindelijk weer eens 3 punten
daar gaan we weer
hoelaat is loting?
feyenoord is er nog lang niet!
eindelijk weer eens winst 😅
ff huilen hoor
wat een goal 😍
deze
geslaagd voor autorijexamen 😊 rijschoolkornelismeesters bedankt voor de gezellige en leerzame…
paar x goed wassen met dreft zegt mijn kapper altijd
psv kun je dit toch nog wel een x gunnen?
en dat je nog een x volwassen mag worden 😎 😎
mooie uitslag dacht ik zo 50 👌
onderweg met
dat ze willem ll in de beker absoluut niet moeten onderschatten na de winst tegen 020 😁
willem ll moet te doen zijn toch 💪
gister gezellig dagje gehad 😄#rustaaghh
omdat we een topjaartje gehad hebben 😊 💃🏻
een mooie 3e plek gehaald op de 500meter op het nk weg in ommen
wat een race van daphne schippers
als de winnende scoort zondag, krijg ik zijn wedstrijdshirt?😏
22 en 13
leuke vakantie gehad 😊
mooi en gezellig maar ook zeker zwaar en leerzaam trainingsweekje gehad in oostende. 😄
met mn beste vriend enzo 😏
de vloek van de gele trui!
😂😂 haters makes you famous
dat zal echt mijn perfecte verjaardagscadeau zijn😍😍
de achterste heeft zn broekje verkeerd om aan 😉 stuur mij dan ook maar zon shirt😏
geslaaaagddd voor 5 jaar havoo 😄 😏
mijn koffer staat klaar voor seaside hotel op gran canaria!. ga je mee op met
netjes kruiswijk
hey martijn, wil je vlak voor mijn laatste examen ook het liedje let i go draaien ☺ ff als laatste motivatie 😉 gr marthijn
gefeliciteerd hermandemmers 😉 en dat je je ook maar naar je leeftijd mag gedragen ☺
klasse vermeer!
ey suuss, ik lachte om al zn kut ajax tweets en niet om jou hoor😂😂
chillen in met mn bitch😄
haha maakt niet uit
martijn korenberg? de voornaam en achternaam fout😉
&amp ontzettend veel succes volgend seizoen!
geen dank hoorrr 🙈🙉🙊
geniet ervan hihi😂😝
ze zeggen niet voor niets het verstand komt met de jaren
bedankt ik heb een foto van gisteravond gevonden die jullie getweet hebben!👍 topp bedankt👌👍
kan ik ergens een goede foto vinden van het juichen na de 11? deze kan ik niet scherp krijgen 😉
nieuwe schoentjes
prison break
🎉
hahaha kom zelf uit de kast
de europese overwintering!
hete satę van de primark!
kom maar binnen met die videoscheidsrechter!
kom op feyenoord hou dit vast de 2e helft!
stel je aan man
vorig jaar kon je je nog afvragen waarom geen sportman van het jaar was. maar dit jaar is het een zeer vreemde keuze
had liever geen roma gezien... maar gaat ze pakkenn
dit moet echt wel spurs celtic of liverpool worden...
schitterende goal weer van robben!
hahah wat een bazen actie van neuer weer
heerlijk uitgespeeld!
wat een dramatisch leeg thuis vak in luik😂
wat ga je stoer doen vent, ga een leven zoeken man
ik wil wel je vriend worden pedo ^^
halve finale feyliv en dan finale tegen celtic ☺
lekker gerrarddd, come on you redsss
ik zie geen lampard hoor
wat denken jij?
doe normaal
heeeey
stiekem hopen op een andere spaanse tegenstander, omdat dan dat schitterende doek van de weer tevoorschijn komt
de wedstrijd moet voor morgenmiddag half 5 gespeeld worden volgens de regels van de knjb
jaaa, feyenoord overwintert, fantastisch
ik zit er klaar voor. come on feyenoord
omdat het op en dicht bij de evenaar ligt p
de enigste die gaat pakken is kenneth vermeer haha
mooi doelpuntje schakenn
ik zit er klaar voor
vandaag maatschappelijk stage afgerond
lekkerrt haha dat is mooi meegenomen p
wanneer gaat het legioen dan de naam van scanderen?
het 1e meetpunt is de eerste sporthaltrainingp
ik noem ze raemon sluiter, veel irritanter...
wat heeft feyenoord toch een heerlijk middenveld
boetiusssssss
ja van beeekkkkk
wat een sfeer. kom op feyenoordd
moet je na zon teringwedstrijd ook nog een toets leren pff
pff weer zon avond met totaal geen afronding en weer eens een foute beslissing door de scheids, jawel typerend
hopppss morgen laatste 3
die gaat mooi worden
precies, niks aan de hand. donderdag komt het echte werk haha
nou en, fuck 020 haha
laat 020 alsjeblieft niet op 22 komen, dat scheelt weer een hoop arrogante mensen op school. danku
haha school met &amp
racistisch hoor, een zwarte blessure
heerlijke redding!
jaaa manu de held van feyenoord
twerken
ja dat is de fout van hiddink, dat zie je nu wel
haha doei hiddink, in
was een super gave week met iedereen!
was een super gave week met iedereen!
deze komt heel onverwachts
hahahaha wat een ingooi hahah
rutten out, van marwijk ino
kazim speelt ook niet echt best, maakt geen fanatieke indruk eerlijk gezegd
masseren haha
hou je stil jeanet en ga je ding doenp
ja manutelli bewijs je waarde weer in de 2e helft!
dat word morgen dus sws geen hoogeveenbusp
feyenoord ga alsjeblieft een goede 2e helft spelen en win, anders heb ik morgen weer een kut dag op school o
2e helft ook niet gezien?
heb jij wel gekeken?
als feyenoord elke wedstrijd zoals vandaag zou spelen, zie ik het nog wel goed komen eigenlijk
zoveel kansen en dan onterecht verloren. jammer jammer. feyenoord till i die !!
rutten als je zondag niet wint, mag je van mij eigenlijk ook wel inpakkeno
dick ik ken je niet, maar je lult nog meer dan wie dan ook, en je word flink gedist o
nu zie je echt hoe bmi, de vrij en janmaat gemist worden.
allemachtig feyenoord
dat gevoel heb ik jap
holy shit wat vloog dat vliegtuig laag
zaterdag zilver op nk weg puntenkoers met barthoolwerf &amp
118, maar dat is nog veel
jepp, dat beleid van ajax whaha
ja beter verkoopt ajax schone aan milan, dan doen ze alle 2wat
ik kan niet meer blij zijn als jij niet de groepsbeheerder bent, en over offtopic gesproken,dat is die groep niet
ja dino, de echten bleven. maar meneertje leavedo
ik draag het zilver op aan het !
wooww zilver op het nk weg puntenkoers, dankzij super teamwork
wat een top dagje
nu slapen, na nog ff hillies met wat een avond
eindelijk naar jaren europa weer in! we love you feyenoord we do!!
dat doe ik zeker
nog nooit zo blij geweest feyenoord feyenoord wat doe je ons aan. de mooiste club die er is jaaaaaaaaaa
misschien een x hahn in het doel zetten om mulder scherper te krijgen?
dit gaat niet zon avond worden toch? kom op feyenoordd
mn voorspelling 51 gaat uitkomen
schakennnn
dat was wel ongelooflijk slecht verdedigd van beek
nou en?lekker voor ze
mijn categorie is natuurlijk veel mee concurrentie
heb je op 8wielen wel talent dan? xp
hahah, mooie foto nog van vakantie met
gefeliciteeeerdd poelloeee!
op de bodem van de noordzee
weten jullie uitslag bs?
djensen bij de baan met en oo
alsof ze europa niet in willen. wat een kansen
wat is dit man
hoe kan hij mis zijn?oo
pff lekker clasie en mulder
denk hetp bij mij doettie prima
twente weer eens op zn duits
hahaha vanaf eigen helft
dit is echt zeeer jammer
ze moesten er toch al 2scoren dus als ze er nu maar geen tegendoelpunt bij krijgen.
van beek wat een fout
besfey kijken met
woops sorry verkeerde hahap
wie zich op basis van deze wedstrijd zorgen maakt over volgende week besiktasmainz staat op dit moment 01@fr1908remco ^^p
lekker te vrede
feyenoord kijken
avondje gekart in duiven
tja lang verhaal
damn wat een fout xx
hugg$
mooi!!$$
hoiiii $$
het is al goed naomi d
éh niet te bijdehand èhp
omg jij ook al?o
dankjeo
heeey romy o
officieel wedstrijd definitief afgelopen!
als er dan mensen zijn die de foto mooi vinden, dat jij dan de foto met alleen een klein watermerk stuur privé. 2/2
het is echt kansloos wat die mensen doen. het lijkt mij wel wat om een watermerk door de hele foto te doen. 1/2
wow kittel wat een sprint!
neuer blijf eens in je doel haha
als ik niet geblesseerd was joh p
huntelaar erin dan kom op
nou nederland ga maar weer eens gek doen#ned
jarig eindelijk 16
met mariahmeuleman
jajaja van persie
goaaaaaal robbenn
eerste helft kijken en dan volgas naar heerde en dan daar afkijken en dan wedstrijdje rijden
dat gaat snel.. 30
danku
ff helft duitsland portugal kijken en dan trainen
van 10 verliezen naar 15winnen maar dan super voordelig
een avond om niet meer te vergeten
wat een avond....
pff spannend... zo rii koekange en dan hopelijk gezellig avondje krijgen bij
swoel kijken met p
swoel kijken met p
en dan begint eindelijk het wk worden sws mooie wedstrijden
nog ff 4toetsjes en een voordracht leren en dan kan ik ook gaan slapen
klaar voor een dagje school
een mooie zilveren medaille gehaald op het nk baan aflossing
mooi een poos achter de auto aan geweest
gefeliciteerd
ik zit klaar voor feyenoordecuador
pff wat slecht gereden in haulerwijk
slapen morgen
welke club zie je feyenoord het liefst tegen spelen in cl voorronde?
mooie sprint van kittel!
barneymvg kijken en dan slapen
lekker.. 1e vrij dan maar bed weer ff in o
in bed beland na een zware maar mooie wedstrijd in steenwijk
wat is dit liverpool o
het moment dat je de 1e 3 wedstrijden verliest en dan terugkomt in de titelstrijd
dit zegt wel heel veel, wat slecht. dit zullen feyenoorders nooit doen. dit verkaart een heleboel ofniet
jammer barney, had moeten winnen
taylorbarney kijken
ik probeer het lieve schat
beter trekt de scheids ook een wit pak aan
een 9 voor de salto
bedankt voor de stickers!
1e marathon gehad in oldebroek mooi uitgereden mede dankzij die mijn been vanmorgen heeft behandeld, wat een stuk beter was
ja klopt, en het gaat om het idee hè
eindelijk weer eens lekker uitslapen
lekker zon dagje vrij nu mooi werken
hahah anders red je het niet op koningsdag denk ik xp
in de bus slapen?p
morgen dagje vrij van school, dus vakantie
dan was je nog in de buurt gekomen o
ik hoorde net van niet, maar dat kan ook alleen voor de jeugd zijn
lekker gefietst met
met
slapen, morgen wedstrijd njjeveen
slapen, morgen lekker uitslapen en smiddags werken
raar of naar?
maar hij klopt wel hè, wat erg te betreuren is
wie heeft aids gekregen door stiekeme intieme verichtingen? ik dacht gelijk aan jou fransien o
eem lekker 1.5 uurtje gefietst met
en dat vind ik nou zo schattig
als je eerst uitlegt wat er aan de hand is
ksnap jullie niet?o
hoe bedoel je trouwens?
autsj scherm met barsten o
slapen met gemengde gevoelens
pff wat heftig dit
ik bedoel het schema