ik had de trein van 8.41
al twee dagen op rij veel te korte treinen tussen utrecht en amsterdam zuid. wat is er aan de hand?
volgens kosten de afleveringen van het achtste seizoen van $15 miljoen per stuk!
👍 enig idee hoe het me dat idee staat om dit schip als museumstuk terug naar nl te halen?
deze gezien? voormalige de ruyter c801 uit dienst gesteld in peru
wat vinden jullie van ios 11?
whoohoo!🎉 we zijn met onze case 3x genomineerd voor de stemmen kan hier
heb je boek met veel plezier gelezen!👌
frikadeltaart is top, tijdje geleden nog gegeten😋
wil je een beetje posts maken die viral gaan en daar geld mee wil verdienen moet je echt ff verder lezen
vergeet de vette soundtrack niet
koenders wil diplomatieke oplossing voor geweld aldus 😂
fotos van de seizoensfinale
pijnlijk ook
gelukkig duurt de aflevering wel wat langer dan normaal 79 minuten en 43 seconden
yes, dit seizoen helaas maar 7 afleveringen... maandag is het alweer zo ver
mooie beelden!
wordt de aflevering van morgen net zo episch als the spoils of war?
wat een grapjassen... maar idd het proberen waard. meeste mensen lezen immers niet
thanks! prachtig plekje idd
en toen stond onze post voor op 9gag
foto van de britse carrier en de us carrier bij schotland
nieuwe officiële fotos van seizoen 7, aflevering 4
dat zou goed kunnen!
deze is al eerder gepubliceerd hoor maar nog steeds vette image!
afleveringen van 120 minuten worden niet uitgesloten in seizoen 8!
zo lang was het nu ook weer niet
dacht dat je voor vertraging bij de ns moest zijn, maar british airways kan er ook wat van…
nieuwe fotos van aflevering 3 waar jon en daenerys elkaar eindelijk gaan ontmoeten😱
ik wacht al een tijdje op een reactie van jullie om mijn laatst verstuurde dm.
jij neemt hem mee dus?
ik krijg bij eurosport en rtl8 al een hele tijd ‘geen signaal’, hebben jullie iets aangepast?
hahahaha leer hoogvalyrisch met
hahahaha, ik denk het ook. waarom niet eigenlijk?
ik ben benieuwd, geen slechte gok denk ik
heeft je geheugen een opfrisser nodig van wat er de afgelopen seizoenen is gebeurd? check
bellen is het makkelijkst, volg me even dan dm ik je mijn nummer
yes dat kan!
nice, dat is zeker mooi nieuws!
heb jullie een dm gestuurd, met welk nummer kan ik het beste even bellen?
de nieuwe trailer is awesome!😱
afgelopen 6 jaar nooit last van gehad. is sinds een maand of 2. 2/2
ik heb de laatste tijd vaak last van storend beeld, zie foto. enig idee hoe dit kan? komt op willekeu…
hoe krijgen ze dit in godsnaam voor elkaar op open zee?
leuk stuk!
dat had ik kunnen weten… thanks
iemand enig idee wat die helikoper boven doet? vliegt hier nu al een tijdje…
ik ben ook wel benieuwd ja
wij zoeken een junior account manager
ipods, ik wist niet dat die nog bestonden
kom jij ons salesteam versterken?
hbo werkt aan 4 game of thrones spinoffs!
bloomberg start 24uurs nieuwzender via twitter
check dit bericht, staat een fout in de nieuwe vliegdekschepen v/d vs zijn van de ford ipv nimitzklasse
stories heeft meer gebruikers dan
bij zijn we opzoek naar sea consultant, seo consultant, analytics consultant, .net developer en meer. interesse? let me know!
er valt vaak niet met millennials te werken aldus
de eerste seizoen 7 teaser poster staat online
ziet er goed uit deze nieuwe serie van regisseur david fincher fight club en se7en
had niet anders verwacht
ik vind een van leuk het mark rutte interview kiezen met vice
best leuke serie dat van alleen jammer dat het streamen nog niet helemaal soepel gaat
zeker! alleen jammer dat ik alsnog op ok klikte en dus ondanks deze reminder vergat een bijlage mee te sturen...
probeer brussel te kijken maar hapert als een gek. hoe los ik dit op? internet is met 120mbit snel zat en netflix werkt perfect
mooie mini docu over de afrikaanse leeuwen
wij zoeken nieuwe collega’s bij
fijn die hele trein vol met kortpittige kapsels😂
we hebben er een nieuw zusje bij
ik reis al een hele tijd op een business kaart met altijd vrij en gebruik daarom mijn prive kaart niet meer.
ik wil graag het dal korting abonnement opzeggen. kunnen jullie mij helpen?
wij zoeken een account manager!
wat bij uitlegt over de online tactiek van de trump campagne
wij zoeken een account manager! word jij mijn nieuwe collega bij
voor maken we vier weken lang een dagelijks weerbericht op facebook
de eerste aflevering van onze nieuwe chocomel campagne staat online
ken je deze al?
mijn favoriete plekjes in op
ik vind een van leuk alien covenant | official trailer hd | 20th century
zeker mooie foto!
vechter misschien in
ben trouwens wel benieuwd waar ze dit vandaan hebben los v/d fouten, heb op de grote fansites niks langs zien komen
ik geloof je hoor
ja want alles wat daar staat is waar
je oude collega’s snappen er niks van…
wtf dit is idd wel een heel erge van de
wat is er mis met 4g vanochtend? alleen maar 3g in de trein van utrecht naar amsterdam zuid…
de eerste beelden van seizoen 7😱
interessant leesvoer over hoe de campagne facebook ads heeft ingezet
werken voor klanten als tomtom en rituals? dan zijn wij op zoek naar jou!
1 kaartje voor m83 op 29 november 2016 te koop
yes, afgelopen zaterdagavond teruggekomen. was top!😎🇱🇦
hoogste tijd dus dat we instaat zijn om zelf onze grenzen te bewaken als eu om niet afhankelijk te zijn van de grillen van turkije
het gaat niet helemaal goed met de uss zumwalt… cc
amerikaan deelt luidruchtig zijn passie voor organic food…
de regisseurs van seizoen 7
gelukkig nergens last van gehad
verwachten jullie ook hinder vanavond op de lijn amsterdam zuid &gt utrecht?
het valt gelukkig allemaal mee met die verplichte betaalkastjes voor webshops
waar gaat het over?
van de straat in lombok utrecht is een aanrader!👌😋
nice! zo is rotterdam de afgelopen decennia veranderd
hoe wij workplace by facebook gebruiken bij
het is weer feest op het spoor
als batman een schip had, zou het er zo uit zien. aldus admiraal harry harris van de
nice! gefeliciteerd
geen gratis bier?
hahaha ok top
doen ze goed bij
zit de stagiair van vandaag aan de knoppen?
wtf is er met jullie internet aan de hand op postcode 3532? vliegt er steeds uit…
vreemd die iphone batterij. melding van minder dan 20%, 2sec later melding minder dan 10%, stekker er in binnen 20sec staat hij weer op 22%
komen jullie ook?
hij staat er nog steeds hoor
lekker weertje voor de 😩
just completed a 6.08 km run geen voor mij vandaag. hardloop conditie moet nog een stuk ...
bleekemolens race planet
thanks!
houdt ook warm, meestal surinaamse of basmati rijst. maar alle soorten rijst kunnen. ook koken in kokosmelk kan
minimaal 2x per week
volgens mij moeten jullie deze verwijderen. staat hier al weken zonder kenteken op westplein
nog meer nieuwe collegas
just completed a 5.09 km run alcohol van alle terrasjes, feestjes en festivals van de afgelopen vi ...
tickets voor m83 in de pocket👌
als ik naar antwerpen wil met de ic direct vanuit rotterdam is inchecken dan voldoende of heb ik ook belgisch kaartje nodig?
ga het proberen. thanks
hbo go kan je toch niet gebruiken met play abo of wel?
waarom staat hij er nog niet op? altijd op maandag…
waarom staat ray donovan s04e09 nog niet op hbo on demand?
wanneer gaan jullie ook surround ondersteunen? heb dit wel bij netflix…
op een of andere manier loopt zo’n stilstaande trap ook ongelofelijk kut. omdat je verwacht dat hij beweegt of zo denk ik
ja idd, dat ding is gewoon om de haverklap stuk…
wat is er toch met die roltrap naar beneden op jaarbeursplein utrecht. staat alweer stil. vorige week ook al…
iemand dit ooit gezien op z’n
zo zijn de special effects in seizoen 6 gemaakt
ok, thanks. we rijden inmiddels weer
hi waarom staat de trein van utrecht naar amsterdam 8.40 al dik 10min stil bij breukelen?
you’re welcome. lijkt mij ook een gave bestemming!
wellicht heb je hier wat aan. heb ik v/d week opgeslagen
lekkere eerste helft!
bios. vermakelijk, maar kon beter
nieuwe jason bourne ook weer gezien. was nice!
ben erg benieuwd naar
serie kijktip
waar zit jij dan weer?
ja dat vond ik vooral bij the event.
idd, hopelijk snel woudenberg in de basis en berghuis erbij
vind ik niet, maar ja… is maar een mening he😉
vooral eerste helft was een drama
hahaha wist ik niet. thanks voor de tip
fijn stream doet het niet meer… stopt na wissel kramer
go feyenoord!!
lege tribunes bij de
er is weer ‘groot’ nieuws dus de hangt weer aan de lijn
en ik zijn het eens. tijd om af te sluiten
dat was het zeker!
just completed a 10.08 km run slechte tijd maar wel lekker 10km💪
is niks nieuws, deden ze in 2009 ook al. sites als youtube en twitter worden daar regelmatig geblokkeerd...
het is officieel. is afgelopen na het achtste seizoen
feyenoord alsnog dicht bij akkoord met berghuis. zou mooi zijn!
just completed a 6.93 km run spierpijn van bootcamp er uitlopen😅💪
opzoek naar een leuke job? kom bij werken als jr. social advertising manager
hahaha
het is ook een gedrocht die wet…
jullie hebben dm
dan moeten jullie mij wel even terug volgen, anders kan ik geen dm sturen...
ik krijg steeds post van jullie op mijn adres gericht aan iemand die hier niet woont. kunnen jullie dit oplossen?
mooie campagne voor
wat een grapjas
wat is er nieuw/anders aan deze goalkeeper?
ben ik het mee oneens. een onderzeeboot is een stuk lastiger op te sporen en vernietigen dan een vliegdekschip
slechts zeven afleveringen en wachten tot zomer 2017
het had zo anders kunnen lopen…
zullen we die onderhandelingen over toetreding tot de eu ook maar definitief stoppen?
en nog lid van de navo ook…
ook gister weer stuk en afgelopen week ook al 2x... jaarbeurszijde utrecht cs
dagje auto’s kijken bij de
ken je ray donovan? ook een fijne serie, nieuwe seizoen is net begonnen
staat ook hoog op mijn watch list. ben benieuwd!
sunny lombok😎 molen de ster
nog langer wachten...😱😭
aan alle fans check deze prachtige fan made video tribute van de nieuwe king in the north
jaarbeurszijde
ook vandaag weer stuk… utrecht cs
dat laatste
die van/naar de stationshal
wat is het nut van die roltrap op het jaarbeursplein als hij bijna altijd uit staat/stuk is?
de like button heeft een redesign gekregen
gaat algoritme verder aanpassen en geeft posts van vrienden prominentere plek in news feed
gefeliciteerd!
hele dag social links laten liggen. best lastig als je bij een social media bureau werkt gelukkig wel helemaal spoilervrij gebleven voor got
heb ik blijkbaar gemist. thanks
oud treintje hier op amsterdam cs. iemand enig idee waarom?
na de ontdekking van davos zou dat idd zomaar kunnen
wat een regen zeg bij de
wie gaat de seizoensfinale van niet overleven denken jullie?
al gaat het gerucht wel dat de acteur die de jonge ned stark speelt in de aflevering te zien zal zijn
wel benieuwd of we morgen eindelijk te zien krijgen of r+lj waar is… zit niks in de previews van de seizoensfinale
morgen alweer de laatste aflevering van dit seizoen
jij zit gewoon op de tribune daar? nice, have fun! en natuurlijk go rossi!!
helaas toch geen tweede seizoen voor hbo’s
live heeft een flinke update gekregen
assassin’s creed unity dead kings ook eindelijk uitgespeeld
het is mooi weer, je heb een cabrio maar rijdt met dicht dak… ik snap dat dus niet
hahaha geniaal en evil dit
sterren krijgen vette opslag
check hier hoe de is gemaakt
you’re welcome. transavia had laatst retourtje in okt. voor 200€
sliep in hayarkon 48 hostel, op kruipafstand van het strand en op loopafstand van uitgaansgebied en oude jaffa 2/2
ben er in okt. 2013 geweest. had een ticket via el al, maar je kan nu met transavia veel goedkoper vliegen. 1/2
tel aviv is top. aanrader!
true, misschien komende aflevering? ik verwacht dat tommen en wellicht nog een van de frey’s eraan gaat
ik kon me niet voorstellen dat jon nadat hij tot leven was gewekt nu alweer zou sterven. zelfs niet in got
hahaha ja hoor. verliep redelijk zoals ik verwacht had
wat was er mis met je oude account?
thanks voor de tip
duurt lang
vilhena blijft toch bij feyenoord!
zal wel karma zijn dan
net voordat je got gaat kijken toch nog een spoiler tegenkomen…
tijd voor de
wachten tot het ophoud met regenen...
eindelijk! chromecast ondersteuning in vlc lijkt er nu toch echt aan te komen
sterkte
frisjes op de motor
eerste werkweek zit er weer op. weekend!!
versterkt zich met aanvaller jørgensen
mooie actie van
in cijfers. indrukwekkend!
jullie zijn wel helemaal fan van hoedjes sinds lfe of niet?
advertenties targets op basis van gebruik. het kan nu bij
zijn de fransen de nieuwe duitsers? 10 in de 89e minuut
m’n chauffeur had z’n eerste werkdag en kende rotterdam nog niet echt…
misschien moeten jullie mij uit de retargeting voor marrakech halen ik ben namelijk alweer terug…
fijn zo’n roltrap als hij niet aan staat…
wat een kans!
wtf, microsoft koopt voor 23 miljard euro
eerste werkdag bij 🎉
wat wil je er voor hebben?
haha, is ook niet 1e keer dat ze fout zitten met russisch spul. stond een keer een mig29 op voorpagina wat nato toestel moest zijn
vandaag 72 jaar geleden
heerlijk die memes!
super vet die onboard beelden bij de
pfff bijna de hele achterkant van m’n motor uit elkaar moeten halen om een korte kentekenplaathouder te monteren
maandag keert de blackfish eindelijk weer terug in
just completed a 10.20 km run eindelijk weer 10k gelopen💪👌
jammer… was een spannende tiebreak
150 miljoen dagelijks actieve gebruikers voor 10 miljoen meer dan
een heuse snapchatfilm, daar had ik nog niet van gehoord
ook het tweede seizoen van is weer vet!
wat komt hij doen in a’dam?
waar moet ik hierbij aan denken? opleiding, schepen delen, be mariniers?
sterkte😉
hahaha herkenbaar, ik ben m’n zusje ook wel eens tegengekomen
wft iemand heeft gewoon m’n beschermhoes van mijn motor gejat… wat heb je daar nu aan? is nog geen €25, waard cc
de nieuwe business tools
ster norman reedus komt met motorprogramma bij amc
hahaha gelukkig maar
interessant artikel over wat de vs en haar bondgenoten waaronder nl met de f35 kunnen doen
even rustig terugkijken wat bran allemaal zag in zijn visioen vandaag
george r.r. martin heeft een interessant stukje achtergrond over brienne bekendgemaakt
student regelt stage via sollicitatie via
een klein voorproefje van wat te verwachten van de aflevering morgen
hier heb je alvast een preview
hij is nog niet uitgelekt denk dat je tot morgen moet wachten of 3 uur vannacht op hbo
wat is die pepe een verschrikkelijke toneelspeler zeg
mogen ze nu de winnende in blessuretijd maken😉
just completed a 7.32 km run intervaltraining na een avondje bier drinken doodgaan😅
hij staat weer online heren
overstappen naar utrecht
het moet niet gekker worden.... de intro nagespeeld door schimmels
thanks! ik vroeg me al af waar dat ding ineens vandaan kwam...
nice! krijgt een vierde en vijfde seizoen van de bbc
stopt met advertentiemarktplaats fbx
helaas is nu echt afgelopen
goed nieuws!
hahaha, juist goed een beetje ambitieuze doelen stellen! succes met trainen
nice! een marathon waag ik me niet aan. ben niet zo’n duurloper...
hahahaha, ja waarom dat ooit mode was heb ik me ook wel eens afgevraagd
ik train meestal 710km en probeer rond de 4.30min/km te lopen. doe sowieso mee aan damtotdam en singelloop in utrecht. jij?
nice! ben benieuwd wat jullie met snapchat gaan doen
hahahaha, gaat ze er niet op zitten?
meer weten over de aflevering van deze week? check dan alle inside the episode videos in dit blog
too soon?
of deze
😂😂😂
dat vind ik nog best knap, moet maandag altijd m’n best doen om geen got spoilers tegen te komen…
de eerste jsf/f35 staat aan de grond in leeuwarden. welkom!
klopt, daar zit een grote fabriek waar geloof ik een groot deel van de in de eu aangeschafte jsf’s worden geassembleerd...
enjoy! vond het erg mooi bij de dode zee
pittig ook lijkt me. doet hij netjes!
gaan jullie de concurrentie aan met m’n blogs?
hoe laat gaat de stream ongeveer live?
verrassend😉. ik hou nog maar ff m’n mond over de inhoud van de aflevering op twt. hodor!
zo maken de 2 nl f35s hun overtocht vanuit de vs naar de luchtmachtbasis in leeuwarden
of iemand daar heeft de lolbroek aan, of ze zijn gehacked en iemand zit stiekem mee te tweeten
interessante, maar eigenlijke ook wel logische stap van
de aflevering van vandaag is echt geweldig!
je kan altijd nog eten bestellen😉
de vijfde aflevering van seizoen 6 schijnt uitgelekt te zijn…
de verschillen zijn klein in de