’vrouwen aan de ketting bij brandweer emmeloord’ niet te geloven 😩😩😩
tis en blijft een idioot bah wou dat ik hem eens tegen kwam 🤔
ik haha nouja heb opstalverzekering mocht me laptop foon of wat dan ook buiten kapot gaan ben ik verzekert
nou ik hoef dat foon dus niet mag je eerst wel goed laten verzekeren 😱
klere wat is het koud 😱
ja dikzak kom eens 9 december neem wel een schone onderbroek mee
haha hoor die vetklep nu eens dat ie nog op de aarde is me nog een raadsel 😩😩😩
ja zonde joh zo’n dure toestel zou toch tegen een stootje kunnen
dat is altijd een goed teken maar wanneer hou je feesie 🎉🎉🎉🎉🎉😂
dat geloof ik graag goede start 2018
zo mooi als de sterren ben jij 🌟⭐️💫
haha dat blijkt 💪🏻
hahaha kijk dat wou ik net niet zeggen 😂😂😂😂😂
oja bass en dino zijn net zelfde tess niet zo die heeft der eigen plek
nouja hij ligt wel lekker warm tegen je aan die knuffelbeertje 😏
nice dacht eerst dat een herder was haha
hier liggen ze overal haha
cute wat is voor ras
ja die regio groningen drenthe friesland en twente
we zijn er ook mee opgegroeid trouwens hierbij noorden sws jeugd nu nog
jaaaa ben muziek aan het draaien
wat ben ik aan het doen 🤔😏
staken 💪🏻
ze zeggen wel eens voor de koffie niet zeuren maar klopt ook nog
ja als ik geen ☕️☕️☕️dan word ik me een potje sjaggie 😂
schokkende video zo mishandelt rotterdamse imam kinderen 😩😩😩
zag eerste hier al strooien
ja egt vreselijk die gast 😂😂😂
je zou haast de andere tanden ook uit zijn muil slaan griezel 😩
zo is het bro 💪🏻
azim a. opgepakt voor ’willekeurig’ beschieten student
effe een vraag wacht nu al bijna 4 weken op een update van mijntele2 app die werkt niet op iphone 6 plus wanneer komt het nu
goedenmorgen ☕️☕️ nog maar 48 dagen tot aan 🎄🎅🏻 mijn oma zei wel eens niemand kan zijn vaderland liefhebben met een lege maag😁
naam elizabeth duikt op in paradise papers en zanger bono van u2 wordt in verband gebracht met
8 redenen waarom masturberen goed is voor je gezondheid 😁
😂😂😂
helpt tegen stress 😁
thnx daar ook 😏
😂😂😂😂nou ik lig al een half uur vanuit bed tv te kijken gaat hier net zo hoor
ben ik benieuwd hoe die smaken laat me dat effe weten ben ik erg benieuwd
wel vanuit bed doe ik ook 😂
het laatste maar 😏
hey dit is wel wat voor jou 😋
scooter was niks meer van over hahaha
😂😂😂jammer dat ze promille niet erbij zeiden was ik toch effe benieuwd naar
’27 doden bij schietpartij in kerk texas’ wilde westen dus
nouja hij kan nu niet meer zeggen heb 10 vingers 🙈
mijn oma zei altijd wees vriendelijk tegen uw kinderen, zij kiezen later uw tehuis 😁
brandweerman amsterdam geschorst om racisme 🤔
ja mooie pot deze weer
mokerslag voor ajax
afgewezen asielzoekers kraken pand amsterdam 🤔
zal eerst paar lijntjes hebben gesnoven
klm rekent 22 euro extra voor ticket via vergelijkingssite firma list en bedrog 😩
vreselijk he die gast 🤮
zo effe heerlijk kipkerrie maken 😋👌🏻
nouja als schoonmaak werkt het prima 😁
😏
21 wat een blunder keeper weer 😱🙈
nee hier schijnt de zon kom net rondje vijver met de boys best wel lekker weertje
thnx daar ook 😏
half en ik kijk met 1 oog drank werkt hier ook 😂😂😂😂 welterusten
komt goed haha eindelijk eens een zaterdag vrij sinds 3 jr bijna samen dan
zo voor eerst sinds bijna een jaar eens een keer met mijn tweelingbroer aan het borrelen. 🍺🍺🍺🍺👌🏻
ook wel keer lekker koen geen alcohol 😏
~%~ hallo boppers ~%~ hier is ie weer ~%~ de knapste man van drenthe ~%~
nou hier krijgen ze af en toe pens rest is brokken met oud brood
knijper op de neus
was voor hun een kerst maaltijd 👌🏻😂😂
gebruik handschoenen en deze pens was goed verpakt viel mee maar stinkt zo bah
goed voor teken vlooien en darmen vacht
heb de boys gedaan jezus wat stinkt dat 🤪🤪😷
gelukkig wel vierkant was echt klote geweest 🤪
geld moet rollen
en pappa weer een duit armer 😂
ja ik ook
ik mezelf ook laat de mechelaars werk wel doen 💪🏻
man verkracht puppy, krijgt alleen voorwaardelijk … ziek ziek 😩🤮 mijn dogs wil hem zijn bal…
’prins bernhard heeft 102 huizen in amsterdam’ 😩
🤔 als ie slim is neem ie allebij de dozen 😂🎉
die kan zo met gordon trouwen 👌🏻 milan
goedenmorgen☕️ en zo is het alweer bijna weekend. nog maar 51 dagen tot aan 🎄 mijn oma zei wel eens samen eten is olie voor de vriendschap
blehhhh waar ik een hekel aan heb dan die gast wel wou dat ik hem eens tegen kwam 😩
nouja leek me eerder boer harms zo kwam ie over 😂 🚜
haha hedde gij effe mazzel 4 dagen doorbetaald heerlijk 🎉🎉🎉
en jaarwisseling op zondag en maandag korte week dus
3 dagen zondag dus
zei net tegen een collega om mij mag het 3 jan wezen pfff december sla ik liever over voor een keer
haha over 4 maanden gaan we de zomertijd weer in 😏 effe op de tandjes bijten
🤔....
ja ben een hippie 🕺
was op het nieuws vorst aan de grond ja tijd van jaar weer he bah
de eerste nachtvorst is komende nacht een feit
cameraploegen hardhandig blerick uitgejaagd 💪🏻
18jarige hagenaar vast na verdwijning emily 12
zeg dat met flink wat uitjes erop heerlijk
zauw tijd voor een broodje haring 👌🏻😋
goedenmorgen ☕️☕️☕️ deze morgen een nieuwe dag nog maar 52 dagen tot aan 🎄 mijn oma zei altijd eerst komt het eten dan de moraal
werk ze wout
lettelijk jah 😩
hou het voor gezien 21 😩😩
nou heb ik 11 gemist
opsluiten voor een jaar weten ze wat dat een keer is
nou we zijn beniewd trouwens kijken die andere 40 supporters mee vanuit een cel 🤔
dode 22 bij schietpartij blerick complete chaos bij flat
maar smaakt heerlijk 👌🏻 eet ze straks latersssss 😏
eet normaal ook later maar heb klote diensten moet zo werken 18/2 vandaar ik nu vast warm eet.
thnx komt goed daar ook een fijne dag 😏
ga jullie verlaten op wens iedereen een fijne dag verders
knokpartij in oekraïne veertig feyenoordfans aangehouden laten ze die gasten daar maar een tijdje opsluiten 😩
hehe wat dacht jij dan
zoals ik het zeg
ben jij creatief bezig geweest
nee idd nou ik zie niet aan me loonstrook dat ik vooruit ga
kan het op zijn kop houden nu 🤪
mijn portemonnee is ook verkracht,door 😭 er komt nog zelden geld in en ik was niet gedrogeerd 😡
geen idee 🤔 maar veels te jong was ie
ja mede oprichter van mooi wark toch
wat een poppenkast 🤪
hier prima 😏👌🏻arm mager en gezond
goedenmorgen. en zo is het alweer woensdag. nog maar 53 dagen tot aan 🎄 mijn oma zei wel eens alles komt op tijd voor hij die wachten kan
dag oktober en welkom november
😂😂😂😂 welterusten 😘
burendag zullen ze nooit krijgen 😂🤣
en dat gaat naar een kerk 🙏🏻
ik ook niet 😂
zoek de verschillen 🎃
werk ze wout
haha klop maar af 😂😂
ja idd dan geeft ie aan tijdelijk opgeschort dan moet ik nr bellen van twitter code intikken kan je zo w…
kortom je heb ook beperkt tweets op een avond/nacht
ja moet je een nr bellen geven ze je een code dan kun je opnieuw inloggen heel krom als me weer overko…
nou zou haast doen op die andere account van me heb ik dat ook moet je bellen dan krijg je een code om o…
kan ik me voorstellen wil wel eens weten wie dat flikt bij twitter ze kunnen geen miljoenen accounts in de gaten houden
ze zijn knettergek bij twitter
als ik vrij heb wel heb me rooster nog niet zal morgen effe vragen laat je het weten denk wel effe bij…
hey bro hedde gij zo’n grote zaal komen wel 15.000 😂😂😂😂👊🏻
ik ga de uitlaten even kijken we de stuipen op lijf kunnen jagen 👻👻👻👻👻 😂😂😂
tis weer 🌨 om in bed te kruipen en kijken 👻👻👻👻
jij vieze vuile smerige tering rat
aangifte doen dus
💪🏻 pak ze maar aan
mijne ligt in de schuur
ja las ik net hardhandig en verkeerde persoon schandalig
nederlander wil kerstboom al vóór 5 december in huis hebben hoho 🎄🎅🏻
laat ze vanavond schrik op lijf jagen 😂😂👻
’verdachte nummer 1’ blij met onthulling gijs van dam 🤔
vliegtuig feyenoordfans botst op vrachtauto 🙈
nou effe droog worden buiten
natuurlijk bekeuring vrij 😂😂😂🙈
gefeliciteerd hopelijk veilige km 😏
nouja denk ze hier ook wel van schrikken als ie de tanden blootlegt 😂😂😂😂😂
😂😂😂 moet er wel wat van maken hahaha
ook is er klaar voor 👻
begint op een soap te lijken 😝
ja idd maar dat is altijd achteraf spijt heb ik ook wel eens gehad werd wakker keek naast me en dacht jezus 😩😱🙈 drank he 😂😂😂
tis net een soap echt ze waren gewoon dronken en geil en ze hebben sex gehad klaar
kortom bij het binnendringen van de andere persoon zowel tongzoen oraal cq om netjes te houden geslachtsdeel 😂
achja als je dronken bent doe je gekke dingen 😇
😂😂 ja dat gek zijn zit in de fam 😇😏
verkrachter jelle brandt corstius is tvproducent gijs van dam
heeft tijd nodig soms valt het ook niet mee 🙁
gaat het een beetje wout
leuke doc petje af voor al die vrijwilligers daar 👌🏻
haha top ja die maakt me elke ochtend wel wakker rond 6 uur 😂😂😂 met zijn wijze oma hahaha 😂🤣
’vermoedelijk natuurlijke dood’ joey 🤔
stamppot andijvie met gehaktbal und spekkies een heerlijk maaltijd 😋👌🏻
😂😂 het blijft leuk 😂🤣
😜 altijd wel gezellig die kerstmarkten daar in duitsland
oja geloof ik graag had daar verleden week al een opgetuigde kerstboom gespot
goedenmorgen ☕️ nog 55 dagen tot aan🎄mijn oma zei altijd je krijgt eerder een kip door het ei uit te broeden dan door het kapot te slaan
naam anne frank mogelijk op duitse trein dit is toch niet serieus 🙈😩😩😩😩😩
verstappen oppermachtig in mexico
bekende advocaat overlijdt bij triatlon 🙈
haha gaat er als een haas er vandoor 11 sec voor op p2 👌🏻
zal dit zoete wraak wezen van verleden week 🇾🇪👊🏻 😏
wraak van verleden week
laten we dat hopen 🙏🏻
haha max ligt bijna 8 sec voor op p2 hij had de snelste ronde 🎉🎉🎉🎉🇾🇪
nee helaas die zend het niet uit blijkbaar niet belangrijk genoeg
zend het die ook live uit dan
ja dat is echt bagger rot moffen
ik kijk f1 via duitse rtl nou die weten ook wel wat reclame is bah 😩
ja idd rare koekenbakkers daar
sterkte morgen vriend 👊🏻
je leeft in een soort roes he althans dat had ik toen bij mijn mams tot de dag zelf komt dan komt de klap 😪😪
hoe is ie nu wout gaat het nog een beetje
wanneer hebben we bruiloft heb wel zin in een feesie 🎉🎉🎉🎉😃
je houd het netjes vol pik gaat hard he 7 maanden 😏🎉🎉🎉👍🏻
heb er 2 ledhalsbanden om dat is handig 👌🏻
belaagd door mooi he dat voetbal
oud en nieuw is sws van 187 uur maar kerstdagen weet ik nog niet
ach moet toch werken dat geluk heb ik weer 🎉🎉🎉👌🏻
ben altijd blij dat jaar weer om is en wel 3 jan
ik zei tis niets beter dan thuis vieren
dat was drents 😂😂
tis beters dan thoes
ja maar kids zijn nu groot dus nu kerstmis
is dat zo 😂😂 nouja vind wel wat hebben dit donkere dagen voor kerstmis 🎅🏻
tis nu wel aardig vroeg donker 💡💡
ja bij plus
hele dag helicoptervluchten. hier boven dorp 🚁 ppfff
nouja uur door betaald hahaha 🎉
ja moet toch zo werken hoef ik dat morgen niet te doen trouwens moet uur langer door werken 😖
tis hier al klok uur terug gezet 😁
ze zitten met hun kop al in de wintertijd 🙈
gert timmerman 82 overleden alle duifjes op de dam
hehe die wissel zal eens tijd worden tis weer scheise nah 😖
en dan de nachtrust nog iedere draai in bed verga je van de pijn
brrrr 🙈zeg dat
dat is minder bah wees blij dat niets gebroken is hoewel kneuzing ontzettend pijnlijk is 😩 ben…
was je aan het slaapwandelen of een tree vergeten dan
oeps dat is minder 🙈
toevallig draaide ik dat nr afgelopen dinsdag nog op de radio
nee wel gehoord wel leuk nr
zijn hier wel andere dingen waar we ons druk om moeten maken 😏
eerlijk gezegd volgt het niet eens zou ook niet weten waarover dit allemaal gaat 🙈
nou twente krijgt een pak slaag 13
ben benieuwd hoe dit gaat aflopen
niet te vergeten eu ook
ja maar dat laat spanje never toe
chukkie
ja maar friesland wil nu ook 🙈
😂😂😂😂😂 achter de hema
en die pieten dan 🤔
premier spanje ontbindt regioparlement catalonië als maar komt 😱
0001 vrijdag 27102017
dat kan je rustig zeggen 🙈
oew snel schakelen ben benieuwd
hoe laat is de loting weet jij dat
afgetrokken op omg 🙈 😂😂😂😂
of krijg ik 5 miljoen toe nog niet 😩
ios 11.0.3 dat probleem is al langer bekend
denk dat ze een gek tegenover zich hebben
pffff dat is nog jong 😔veel sterkte
moguhhhhh we zitten nog steeds te wachten op de update van mijn tele2 app op iphone al een week inmiddels 🤔
katten door dierenbeul beschoten met luchtbuks
is te zien
goedenmorgen deze morgen nog maar 59 dagen tot aan 🎄mijn oma zei altijd heb geduld alle dingen zijn moeilijk voordat ze gemakkelijk worden
brrrr best wel koud om deze tijd 😖
haha hangt love in de lucht
thnx lig ook net vanuit bed effe nog tv kijken dan ook maar een poging doen 😴😴
slaap lekker goos 😌
de ronde heb ik al gedaan 😁
dan wens ik je heerlijk dromen 😏😴😴😴😴
haha nu nog niet zit nog voetballen te kijken hoewel de 3 mechelaars hier uitsnurken die zijn moe 😌
sleep wel daar 😴😴
oew jah daar begint je lekker van te zweten 👌🏻 en je slaapt er ook nog lekker erop 😁😴😴😴😴
achzo nouja misschien met andere combineren
oma recept hete melk met 2 eetlepels honing trouwens best wel lekker
moest wasknijper op de neus doen 😂😂😂😂😂
vergeet niet ze zijn wel landskampioen
tóch akkoord medicijn taaislijmziekte zit in basispakket 🎉🎉🎉
dat is waar had ik feite wel gemoeten dat ie bij zichzelf nadenk van nu beter me best doen hij bakt er gewoon er niets van
wel begrijpelijk
wissel kramer wat een waardeloze speler feyenoord 😩😩😩
dat is een feit 😂😂😂💪🏻
zijn ook net kids he 😏
dus met andere woorden slaap jij vannacht maar op de bank 😂😂 hier krijgen ze de kans niet voor 😂😂😂🙈
😏😂
nou ben wel eens wakker geworden van me eigen gesnurk dus was best hard 😂😁
2 hebben hun vaste plek in huis hun eigen manden maar de ouwe zemelaar die slaapt…
ja gelukkig wel hete mok melk met honing en kruidenbitter helpt wel zweten als een gek maar toch opgeknapt
pff zeg nog harder dan ik 😂😂😂😂
ze liggen hier nu allemaal voor pampers kortom rust 😏👌🏻🎉🎉
meestal gaat dat ook wel goed neem aan dat hond niet levensmoe is met 7 katten 🙈😂😂😂😂 hahaha
heb er 3 hondjes 😁 😇
beter is rechtszaak tegenaan spannen
ja zwijnen zijn het maar hoe is dat zo gekomen dan.
hint neem contact op met slachtofferhulp die helpen je verder
of beter is het in een andere plaats aangifte doen
dat kan wel doe maar aangifte in je woonplaats aangifte moeten ze altijd opnemen
aangifte doen tegen die gasten
hun ??? leg eens uit
en de gehele week zo leip als een kanarie 😂😂😂😂
heb ook nog nooit een k9 kat gezien 😂😂😂😂
dat ga ik van uit maar 15 van zulke planten zijn wel erg veel 🙈😂😂😂
haha klopt maar ik werk ermee althans met deze knuppels 💪🏻
ja kon ook wel ver in de middag blijven liggen maar met een aantal mechelaars in huis ze horen en zien al…
idd uitslapen tot de middaguren zal wel weer rondje 12 uur worden
buren hier hebben toch mooie haha tel er 15 stuks 🎄
had ook al een week te pakken had gehoopt voor morgen wat opgeknapt te zijn ga morgen nachtdienst in
’frank masmeijer ontloopt volledige celstraf’ wat een mazzelpik 😩
scheut bitterkruiden en je slaapt er ook lekker op
nou dat heb ik gedaan zweten pffff denk ergste ook wel voorbij is
nou viel wel mee helft had griep ook al 🤒 en gaat nu wel hete melk met honing wil wel eens helpen
was ik maar rijk en niet zo knap 😁
nog maar 60 dagen en dan is het alweer 🎄 mijn oma zei altijd als je je maar lang genoeg niet wast, laten zelfs de vlooien je met rust.🤔😁.
ja ik ook speel drums maar daar zijn de buren niet altijd zo blij mee 😂😂😂
wat een verschil van muziek van toen en nu in 2017 🙈
op youtube is full te zien nog af en toe kijk ik nog wel eens een keer
en berlijn koste niets vol was vol tentje erbij drank drugs sex and rock and roll 😂😂😂
was zo veel artiesten idd paul carrack ook dit was in 1990 pff voel ik me alweer oud 🙈😂😂😂
ja dan kun je ook niet vergelijken zijn nu van die ouwe lullen 😂😂😂 toen waren ze op top in de jaren 70 80
haha en 7 dagen dronken 😂😂😂😂😂
was de tyd van me leven echt 5 dagen geweest incl die concert was cindy laupers joe cocker pff…
ik the wall in berlijn toen muur gevallen was al die bekende artiesten was een concert van me…
live heb ik ze nooit gezien wel pink floyd heb zelf ooit in een coverband gespeeld was toen niets dan eagles 👌🏻😏