we zijn niet de enigen🙄
we gaan nederland veranderen.
wat. een. doelpunt.
ik hou van snapchat
die man op de achtergrond is niet erg onder de indruk...
zouden alle feyenoorders nog guidetti terug willen als nederland niet door gaat?
wat krijg je als je roze en blauw door elkaar mengt? of wordt het dan heel lelijk?
een nieuw jeukwoord prinsjesdag light.
ik vind die net iets minder rijke man echt geweldig. zet nieuwkerk en mulder goed op hun plek 😂
een keertje iets opgezocht over lenzen en mn tijdlijn wordt meteen volgegooid...
is het nu duidelijk of moet ik het nog eens uitleggen? doe het graag.
als je van vorige week terugkijk krijg je wederom een bevestiging dat europa niet altijd de oplossing is.
dit is ook wel een beetje een hoekje waar niemand komt. beter slopen lijkt mij. twee restaurants in twee jaar of zo.
terecht npo moet niet mee doen aan campagne van gl. bnnvara zendt omstreden jesse klaverdocu toch niet uit
wat zijn sommige mensen toch kinderachtig. dit is een liedje die je nu even moet luisteren
omdat er wederom water uit de lucht valt is het donker in het stadhuis.
weet iemand waarom dungelmann op de turfmarkt na een half jaar al weer dicht is?
vind het heerlijk om die mensen zo hard te zien strugglen bij de over kroatië
vaar mee met de boot van op de !
arno kantelberg noemt spijkerbroeken met vooraf aangebrachte scheuren en verfspetters welvaartsabberatie. baas.
heerlijk broodje vergiftigd kippenmenstruatie maken na een stevige fietstocht van 20 km🚴🏻👍🏼💪🏼
wat een mooie man die jones. wat. een. vent.
nee ze heet écht hennie de haan. bound to be pluimveehouder, lijkt me
wat lief! ik krijg gewoon 3 miljoen usd van een onbekende vrouw uit frankrijk die haar regering corrupt vindt. aard…
ook weer mooi de vakbondsvoorzitter van de pluimveesector heet hennie de haan. je kan me opvegen 😂
uw dagelijkse portie absurditeit
lekker op vakantie naar turkije...
zomergasten terugkijken
de wedstrijd is nog jong...
ze speelt haar directe tegenstander wel voorbij alsof het lucht is. nl moet veel meer gebruik maken van die snelheid.
zou het niet goed zijn om het vrouwenvoetbal ook door vrouwen te laten presenteren?
er valt wederom water uit de lucht
er valt water uit de lucht
wilders wil mensen preventief opsluiten want dat spaart levens. er zijn namelijk ziek veel terreurdoden gevallen in nederland...
over twee uurtjes lugdunumado den haag
meld je nu aan voor het wijktraineeprogramma! woon jij in den haag en wil je graag werken in en voor je eigen stad?…
thv rijnsburgerweg 165 is er een ongelukje gebeurd... halen jullie het weg?
wordt de bordesfoto van het komende kabinet eigenlijk bij huis ten bos genomen of ergens anders?
oh god, negen seconden!
de giro wordt gesponsord door de giro...
zo interessant vind ik tijdrijden eigenlijk nooit, maar dit is wel echt heel spannend. pak hem tom!
wat is die tim krul toch een baas
kippenvel. die beelden van de wake in manchester.
wij zijn er klaar voor!
werken op zaterdag. en hoe jongeren aan een baan bij de gemeente helpen bij boost your future!
hehehehe
na een minuut al een kans. dit wordt wat. hup lyon.
liever vandaag dan morgen een vuilniswagen langssturen aub.
en weet je al wat je toekomstplannen gaan zijn?
gelukkig komen er alleen maar slechte artiesten bij dwdd . als het the stones waren had ik het misschien nog wel geloofd...
nee, gister was een bittere avond voor de partij van de arbeid. vandaag gaan we verder. juist nu
een minimusical over het verlies van de pvda. wat een onzin. wrijven in de wonden, en dat soort dingen.
niets beter dan lekker trainen op een donderdag. voor het eerst dit jaar met korte mouwen😎⚽️.
al iets gehoord van de pvv
eén lichtpuntje jan roos heeft geen baan meer!👏🏻
jaaaaaa niet maar zeker weten pvda!
jaaaaaa vandaag is het zover op de dat wisten jullie vast al wel. op om precies te zijn.
asscher ook, gelukkig
waarom zit jesse klaver niet bij het jeugdjournaal? of zit ie in het publiek?
de overheid gebruikt de game of throneslandkaart op het gebied van transformatie van overheidscommunicatie. hahah
ik schaam me overigens diep. mijn opleiding laat zich weer eens van zijn beste kant zien.
een studiegenoot van me heeft zon achterlijk trump petje op, op tv. zou er op het embleempje made in china staan?
hihihi het gaat nog ff verder.
hopelijk lult roos even dat ene vnlzeteltje uit de peilingen weg vanavond.
ze is best gezellig, weet ik uit betrouwbare bronnen
ik word met de minuut verliefder op eva jinek
in 2012 zei iedereen ook dat vier partijen mee zouden doen aan de formatie. hahaha
mijn lieve vriendin is heel zenuwachtig omdat ze straks haar eerste feest organiseert voor studievereniging emile
gedaan. kende het niet. misschien iets meer bekendheid laten genereren? conducteurs zelf klagen ook over overvolle treinen.
de trein den haaggroningen is wederom veel te klein. ik voel me net een plofkip. en het is te warm. doe er wat aan!
opeens een hele zaterdag vrij... sneeuwpop maken☃️☃️☃️☃️
eerste winstpartij van het seizoen was dit weekend een feit. nog steeds in een roes
ja, want lopen met een palestijnse vlag staat gelijk aan hamas... droom verder
is de enige die demonstraties als vanmiddag kan organiseren. wat een prachtkerel ben je, wouter!
de roverheid !!!!1!!1111!!!
ik kom kijken!
twintig minuten lang staan en niks doen met een camera in je hand. niks geen kantoorbaan dat ambtenarenleven
dit is het raarste wat ik ooit gedaan heb. voor promo dh sta ik zonsondergang in het atrium te filmen.
hahahahahahahahahah de aftrap | luckytv
afscheid samsom op het congres. benieuwd. wel via livestream.
aboutaleb ik heb iets te vieren, ik ben 40 jaar geleden naar nederland gekomen, ik ben al 40 jaar gelukszoeker.
en samira !
leve de partijdemocratie👏🏻#pvdacongres
bij de stand kan je met mij kletsen over actief worden bij de pvda. super leuk!
met de naar het in utrecht.👏🏻🍻
hoogmoed komt voor de val...
weet iemand of het al raak is met de treinen?
ook de pvda leiden steunt roelof!
ik waardeer je medelijden!
denk dat geert wel geld heeft hoor
denk dat wilders geen baan zoekt of wilt na zijn politieke carrière. heeft ie niet nodig.
ik wist niet dat de sponsor was van sporting portugal
hihi bvb is altijd een feestje
ik vind voetbal ff wat belangrijker dan mn mening at te moment
ik heb niks gezien haha
ja maar dit gaat mij vooral om persoonlijke voorkeur
van mij mag het altijd linkser
blijkt het de huisraad van een zwerver te zijn. eigenlijk nog leiper.
conducteur we zijn iets later dan dienstregelen vertrokken, maarja ik zie het zo we gaan vooruit en dat is progressie. hehe
verdacht pakketje gevonden naast het ministerie van defensie. leip. politieautos, honden, undercover busjes de hele rataplan.
gelukkig maakte hij zijn nietoverstap naar denk kenbaar
dit is net zo lelijk als het spel van ajax. wat haat ik de arena toch zeg.
tsja. ik zie niet zo veel. dicht dak he.
ik acht de kans groter dat psv door de voorrondes van de cl komt dan ajax. dus als feyenoord geen kampioen wordt dan beter ajax
zon dip als vorig jaar is eerder uitzondering dan regel, lijkt me vooral.
meneer wiegel, wanneer heeft u dit plannetje bedacht? toen ik werd uitgenodigd voor dit programma.
zie het niet gebeuren dat plan wiegel. daar zijn beide coalitiepartijen niet blij mee, lijkt me.
ik kan me de ps verkiezingen nog herinneren van twee jaar geleden waarin d66 opriep tot bezuinigen...
ik zit alleen niet op de basisschool rik
ja dat was fijn hoor
zo druk is het hier dus.
heel den haag ligt op zn kop maar in het stadhuis werken we gewoon door, hoor. en dat op
wat was causes fantastisch goed zeg. tot volgend jaar
yes, twee keer in de rij gestaan zonder binnen te komen bij boris van der ham, over taal en politiek. nu ben ik eindelijk binnen!
en natuurlijk krijg ik hier wel wat karmapuntjes voor
...van zijn leven is. beter blijft ie hier lekker wonen. aan de fles raak je wel gewend uiteindelijk.
altijd leuk om te zien dat zon nieuwe leienaar helemaal niet begrijpt dat je in deze stad tegen alcohol moet kunnen en pas in de bloei...
hij woonde net een week in leiden, begon hier te studeren, en wilde ff een avondje naar de kroeg met zn maatjes
gister een of ander jochie van achttien naar huis gedragen omdat ie niet meer wist of ie zn linker of zn rechterbeen moest verzetten
vandaag is de in transvaal om te praten over verkamering.
welke positie stond je? heb je gescoord?
arjen for president. sowieso beter dan zijn broertje
was een mooie eerste pot van het vijfde van
beviel het über rijden?
banketbakkerskruidnoten zijn eigenlijk altijd mijn favoriet. ook na 5 december
dan mag het hoor
raad ze chimay of orval aan. dan gaan ze pas los
als ik blind was had ik de handdoek allang in de ring gegooid. dit nederland wíl je niet leiden.
hahaha jongens jongens jongens dat wordt geen wk hoor.
vindt groenlinks juist leuk. beetje het imago van jesse is awesome en kek framen
dankzij weet ik dat ik 22 kcal per dag extra verbrand. hulde! 👏🏻😄
vertraging nadat de trein voor je uitvalt.
kleine jongen. je bent op deze wereld dus zal je moeten vechten, net als ik.
nu sta ik voor je. ben weer blijven hangen in de kroeg.
lekker hazes luisteren in de trein.
hahaha dat ik toen in je dove oor gilde van het lachen zo hard dat je me kon horen
gaat om die stemmen trekken. wel gek dat je daar wiljan vloet voor gebruikt...
is het nog erger als ik?
vanaf nu ga ik achter elke tweet zetten
vind twitter rond deze tijd van het jaar eigenlijk best wel schraal. echt iedere tweet iedere tweet die ik voorbij zie komen gaat over
je kan hem ook een andere keer terugkijken. die film is wel op dvd verkrijgbaar en staat op netflix.
ik vind erdbrink erg goed vanavond, trouwens.
tweede keer dat iemand op wilders loopt te haten in eerst aboutaleb, nu vindt geert wel mooi, denk ik.
16 september masterclass en over de huidige situatie in het middenoosten. meer info op website en facebook!
oh, in dat geval boycotten die handel!
morgen eerste werkdag bij gemeente den haag. wel redelijk zenuwachtig hoor.
maar het gaat om het eten rikkert. waar zit je?
is mijn studentenreisproduct nog geldig als ik geen recht meer heb op basisbeurs? ik ben student die nog in de oude situatie zit
20 minuten in de wacht bij omdat de site veel te onduidelijk is.
ik geloof geen reet van rutte die zegt dat ie niks heeft afgestemd met samsom afgelopen weekend. kom op zeg en wees eens eerlijk.
kijk maar naar veronica
wat mij misschien nog het meeste stoort is dat ze vorige week nog allemaal zeiden dat ze het wel zouden redden.
dolberg brengt sws redding en dan ajax gaat alsnog door. eind goed al goed
wat een uilskuikens
hangende koppie in amsterdam. wat een lapzwansen.
doemdenken over de pvv pauw we zien elkaar toch nog wel voor eind dit jaar? dion als we dan nog bestaan...
hup dion! meer golvend haar in de kamer!
zullen we anders met zn allen pauw uitzetten vanavond?
dit is zo nutteloos.
koffiedikkijken wat van rossem nu doet bij de
de award voor origineelste wifinetwerk gaat naar...
wat een tranendal
wanneer stoppen ze met shoot outs? net als voetbal bij vijf?
dat zou veel vetter zijn
wat is dit spannend😭#olympics
vanavond kan er niet normaal naar de eredivisie gekeken worden. naast gewoon random de lucht in te gaan ook nog eens lekker onderbreken.
de bbc kan wel normaal voetbal presenteren zonder continu te onderbreken met de olympische spelen...
ja wat is dit nu hallo ga eens door met voetbal
exactemundo. blijkbaar vinden die programmeurs tv maken ineens heel erg lastig...
ik had vorige zondag precies hetzelfde. ze snappen er helemaal niks van...
voetbal zou om 2330 beginnen,
dus die jongen moet er maar vrede mee hebben dat zijn kans op een medaille ontnomen wordt?
wordt venlo dan de hoofdstad van nederland?
als ik een avondje voor het sporten een biertje deed of misschien iets meer maakte niemand er een probleem van...
toen het nog het alg. handelsblad was
dat ook! ik weet zeker dat zij het brein van louis is. 532 komt sowieso van haar!!
bij vrouwensporten zie je vaak genoeg mannelijke coaches maar bijvoorbeeld bij mannenvoetbal zie je nooit vrouwencoaches. waarom,
oh wat fijn. de trein gaat op het verkeerde moment stilstaan. over tien minuten een sollicitatie in den haag en ik ben pas bij voorschoten.
ik tweet tweets die inhoud over zomergasten bevat. top kek.
ja hallo ik zap op en neer ja wielrennen is afgelopen heb ik gelezen via twitter
het is wel leuk om tweets te lezen over zomergasten. metazomergasten noem ik dat.
shit. ik tweet over zomergasten. misschien doe ik dat wel zonder hashtag want dan heeft niemand het door.
dichte febo.
geen drinkwater, warm water, eigenlijk helemaal geen water. whahahahaha
wat is een verlopen kenteken?
rucola is geen onkruid
zodra de tijd gekomen is
ik heb het idee dat je niet heel erg veel mist...
zowaar ben ik het eens met eens...
super goed ook dat erdogan deze mensen kan eerlijk kan berechten! super goed dat hij stiekem alle touwtjes in handen heeft!
het winnende team +@roelof van de tweede pubquiz van de
wachten tot ik iemand aan de lijn krijg bij de telfort klantenservice. héérlijk wachtdeuntje! gelukkig is de tour bezig.
voor de website van heb ik paul van sasse van ijsselt geïnterviewd. lees het hier terug
niet heel chique om je klasgenoten zo af te branden. ik vind het ook niet heel erg gegrond van je overkomen.
vlakbij lumc/centraal station noordzijde. rond 1530. het was een bus buiten dienst, een rode qliner.
de busschauffeur van begrijpt niet dat je voorrang moet geven als je voor haaientanden staat...
met taco dibbits heeft het rijks een goede nieuwe directeur.
motorola g? cool gappie
huawei of een oud iphone model? mijn telefoon kost rond de 25 euro per maand en ben zeer tevreden daarmee
oeh wat heb ik een heerlijke pyjamadag vandaag
ben ik nog op tijd?
shit, te laat
19e eeuwse taferelen in gaziantep.
bizarre reportage van de volkskrant over kinderarbeid nabij de turkssyrische grens.
dit kan dus zomaar. belachelijk.
gadverdamme. wauw. geen woorden voor. zie ik dit goed? anti homo tekenfilm
dhr. kobben is al 70 jaar lid van de pvda. prachtig.
17 mei is de volgende masterclass van de pvda leiden de methode lutz, met
koch heeft eerder een boek geschreven, onder het synoniem kerstens
leg dat maar eens uit aan de mensen die daar nu nog wonen en nog steeds last hebben van de gevolgen.
het leven is allemaal een stukje fijner wanneer je in gent arriveert. fijn weekend!
het leven is allemaal een stukje fijner wanneer je in gent arriveert. fijn weekend!
vraag me wel af hoe je zoiets in uitvoering wilt brengen
en wat nou als je niet voor journalistieke of jihadistische doeleinden naar syrië wilt?
een nieuwe minister lost de problemen op het ministerie van v&ampj niet op. goed dus.
er kan dan alsnog een volkse campagne gevoerd worden. ik zie daar geen verband tussen.
als een meerderheid van het aantal stemgerechtigden komt opdagen
fijn, sla ik de referendanieuwtjes lekker over
zodat het debat puur en alleen over de inhoud gaat.
vind het pas geslaagd als beide kampen geen campagne moeten voeren om te gaan stemmen
dat is precies mijn standpunt. opkomst van 30% is heel erg laag.
wat als de opkomst laag was en de betrokkenen waren voor? was het voor jou dan ook een feestje?
hier kies je namelijk mensen voor. die mensen noem je volksvertegenwoordigers.
zal je zien nu gaat er heel weinig veranderen. zoiets zag je ook in griekenland vorig jaar en in de eu in 2005. en terecht.
deze hele avond laat zien wat ik tegen referenda heb. en dit zou ik ook zeggen als de meerderheid voor was geweest.
inderdaad. hehehehe.
ziet er druk uit.
en terecht!
yes, corruptie pak je juist aan door verdragen te sluiten. en daarnaast is het goed voor nederlandse handel.
waarom niet een van de redacteuren van of uitnodigen,
wat een vent idd.
en natuurlijk peter r! supermooi. maar wie is die andere man aan tafel
eens. het was alleen wel het parool
ik ben nu wel benieuwd naar jullie antwoord!
hehehehehehe
ik zou ook niet van die man houden als hij socialistisch was, hoor.
diezelfde man vindt alle zwarte franse voetballers kut. waarom? ze zingen het volkslied niet mee. moord! brand!
zojuist op tv gekeken naar een man die moest huilen omdat zijn dochter thuiskwam met iemand van arabische afkomst. wauw.
zeer tevreden met mn nieuwe aankoop. mooie titel ook
vanmiddag is de in de binnenstadnoord. wat kan er beter in uw buurt?
je bent ook meer dan welkom tim
zo vervelend als mensen zon gruwelijke gebeurtenis gebruiken om politiek gewin.
wat was emile roemer vanavond slecht zeg. fact free politics heet dat. gewoon lukraak wat roepen. het erge is nog dat mensen hem geloven.
wat zegt. kijk de aflevering van 3 op reis in syrië terug. bizar.
die reclame van komt echt mn strot uit. hou. er. alsjeblieft. mee. op!!!!!!!!!!!!
het kritisch panel van scholieren heeft net goede vragen gesteld aan minister de avond is goed begonnen!
liever heb ik gewoon zo min mogelijk reclame.
om de vijf minuten reclame. dat is wat er mis is met eurosport.
is een nieuw, goed programma om de situatie in frankrijk beter te leren begrijpen.
hahaha, van klaveren maakt zijn eigen voorstel belachelijk.
soms is het goed om deze wereld door de ogen van jonge kinderen te bekijken, om te zien hoe gestoord deze man wel niet is.
melkert ‘hier hebt een mogelijk antwoord op uw vraag hoe de vluchtelingenstroom kan worden beperkt via
dit is by far één van de grootste ergernissen van dit moment.
hulde voor
samen met een medestudent heb ik herman van der plas geïnterviewd over het middelbaar beroepsonderwijs.
adrian belew in de boerderij was geweldig. wat een gitaarvirtuoos.
belgisch bier is toch veel lekkerder.
amerikanen zijn nog niet toe aan een socialist, helaas. het woord wordt daar nog steeds gezien als scheldwoord.
een van de betere nederlandse programmas nu op npo2
en die acht euro ga je meteen zeker weer besteden aan toto? en dan hopen dat je weer wint...
ik snap niet wat hier nu grappig aan is
21 maart politiek café met jet bussemaker leiden
gefeliciteerd!
de treinreis utrechtleiden daarentegen mag iedereen overslaan.
de treinreis amersfoortutrecht is voor iedereen een aanrader. prachtig stukje nederland.
tijd voor een biertje.
zou ze ook zo over hilary denken als ze net zo rechts zou zijn als trump?😁
wauw.
jan slagter vond de grap van rutte ongepast, gister bij het correspondents dinner. tsja. ga dan niet.
zo weinig? dat kan ik me bijna niet voorstellen.
hi hoeveel kost een enkele reis met 40% korting van utrecht naar leiden c. via amersfoort? het staat niet op de site...
naar links, dan het bordje waar heren staat negeren, gewoon doorlopen, daarachter is de wc!
wat leuk! theater aan huis. komt bij ons thuis om te vertellen over thuiskomen.
alhoewel ik natuurlijk meer voorkeur heb naar het origineel. wat een plaatje
wij zijn op zoek naar jou!
die cees h. zal wel in zn handen wrijven. drie vvders weg dankzij zijn toedoen, moet ie vast leuk vinden.
en dan zorgen dat je meer spreekruimte krijgt voor een miljoentje of vier, handig!
aaaaaah tijdens south park over sponsored content onderbroken worden door reclame. hoe dubbel is dat?
dit ga je mij nooit meer horen zeggen kom op psv!!!!!
wil je mij nu ook psychologische hulp bieden?😔
managers die bellen over floormanagers en andere units en systemen, plannen en cursussenblablablablabla. niet in de trein
wat, was coldplay nu al in de verkoop?
ik had liever gehad dat lilkleine zijn eigen nummer had gekozen😁
moet nu echt stoppen hoor, eerst justin bieber en nu ed sheeran, stop!
sommige mensen zijn echt heel lief...
dit doet me zo denken aan de één na laatste aflevering van wie is de mol. dat zie je volgende week
mij is het na één dag al niet gelukt. shame on me, ik weet het.
de volkskrant. krant waar extreem rechts met racistische trekjes een podium krijgt.
meld je aan voor de masterclass van op 20 november. te gast henri lenferink, burgemeester van leiden.
hoi mag het licht op de rijnsburgerweg aan? dankjewel!
we komen nu aan op schiphol waar u verder kunt reizen naar new york en moskou en zuid afrika. van trains naar planes. hij heeft geoefend
onze collegas van prorail hebben het spoor weer eens niet op orde waardoor er geen treinen naar haarlem rijden. mede namens hun excuses
dames en heren we hebben wat vertraging. er moest nog een trein voor ons en als we op tijd weg waren gereden gaat dat dus niet goed.
flauwe humor in de trein. ik noem een paar quotes van de conducteur
in 92 zouden de denen in eerste instantie niet naar het ek gaan. uiteindelijk werden ze europees kampioen. het kan nog!!!!
ik vind het altijd zo grappig dat bij de werkelijk alle zaken gewoon op straat besproken worden.
de masterclass met cohen is volgeboekt. hou website in de gaten. de volgende masterclass op 13 november!
waarom de onervaren tete voor zon belangrijke wedstrijd in plaats van een ervarener van der wiel of verhaegh?
het kogelgat in het raam van de webster university in is een gat van een bierflesje. moeten jullie even aanpassen!