wanneer dan? zo snel mogelijk liefst. door mij of jou. of we stellen een commandoteam samen. oog om oog t…
misschien niet. als je geen afstand mag doen van je andere paspoort, spreek dan duidelijk uit…
oneens, als politicus dien je één vlag, één natie, één volk. dat wegmetons mentaliteitje. o wat zijn wij tol…
als men deze moslim testikel zou castreren, is de nieuwe naam dan moslim tekkel ? 🐩
is in de handtas niet verboden, je mag m er alleen niet uit te voorschijn halen. maar dan z…
hoeft mossad of shin net niet te doen, liefhebbers zat 😈
zover ik je denk te kennen ben jij allesbehalve een proleet, sorry als ik die indruk wekte 🤔🙄
nee, dat is mogelijk. als je dat zeker weet over mij dan neem ik dat zomaar van jou aan mary. ik zei…
misschien wel of niet. ikea, v d valk en voor weinig ontbijt met champagne in t hilton is voor, i…
maar dat is niet persoonlijk, t is een algemeen denken. iedereen denkt tegenwoordig connaisseur te…
v d valk en wijnproeven is een vlag wijnproeven op een modderschuit vd valk. pretentieus om de…
overigens, waar haal je het vandaan als zou madrid zich schuldig maken aan excessief geweld ? je post…
eenzijdig, ergo ongrondwettelijke declaratie van onafhankelijkheid. catalonië maakt r zelf n puinhoop…
krijg r zelf slaap van, haha wat een te gek mensie 😊 staat nog een groots avontuur te wachten, het l…
je bedoelt een half jaar revalidatiecentrum? maar een halfjaar onderduiken met zwarte…
zo is het 😬 laat die domme man terug glibberen onder de mossige steen waarvandaan hij…
deze linkse tiran ken je. oud eindredacteur van links lobbyclub, bekend als nos journ…
hij is dus ook de oude eind redacteur van nos journaal. zorgde ervoor dat…
waarom zouden ze spijt moeten hebben ?? het is vaker voorgekomen dan nos journaal meldde. google wat fe…
aarde is r nog als mens er niet meer is. zij moet genezen om een nieuwe en betere mensheid te herbergen…
als mensen op deze manier met moeder aarde blijven omgaan, zal ze ons als vijand zien. als een hond die…
in do love gaia to, maar niet het ongedierte dat in haar pels leeft, te weten het mensdom. wij zuigen h…
eneco dreigt verkocht te worden,niemand heeft meerderheid aandelen. als nl niet wil dat t versnipperd raakt, overheid koop die aandelen dan
omdat het onbetrouwbare opportunistische golddiggers zijn. bij holleeder weet je waar je mee te maken hebt. ma…
het zal wel. wat voegt dit feit verder toe aan de hele geschiedenis van ellende dat deze vrouw overkomen is. z…
arme slachtoffers, vieze daders. laten we het een beetje normaal houden. niet elke vrouw is betast en niet elke vent heeft die neiging.#stop
hoe kan t zo zijn,soms hoor je over vieze mannetjes die een vrouw klapje op kont geeft. nu blijken alle vrouwen te zijn, mannen ook
moslims werken ?? 😵 je schertst !!
weg met ons is een pijnlijke aanwezigheid van meer dan jij en ik kunnen bevroeden. dat gezeik over slavern…
nee ebru, kindvrouwtje. blijf zo als g,d je geschapen heeft. vind je t zelf niks, dan is r altijd nog…
lollig? 😭 niet boekenstijn? waar haal of koop je jouw gevoel voor humor? carnavalsshop ? ta…
de man leeft leeg leven via twitter. gebruikt semiintellectueel babbeldebabbel braaksel…
fckng poseur, plaats eens een recente foto van je. hoofd+ meerdere kinnen. spekkie met credos waarva…
pfff a.b heeft je in zn zak, troela vs supernarcist, hij heeft je r letterlijk en figuurlijk ingelegd. was het t waard ??
westen, navo, onze voorsprong op moslimabad nadat zij elkaar voor 50% hebben gedood. koud kunst…
yo, fonkman ! wahabiet, sjiiet, soeniet, alaviet,taliban, en ga zo maar door! t christendom is…
zou ik als mezelf ook doen. om er beslag op te leggen.😇 haar poesje kom ik niet aan, die poet…
zij die ver beneden ons staan, kunnen niet beledigen. dit persoon staat nog op t niveau van de niet spre…
heb joodse roots, maar geuzennaam joden van ajacieden vraagt om tegengeluid. ooit zag ik mocros in kuip…
heb geen neukie met mama gedaan, maar wel geleerd hoe water…
nu niet thuiskomen, lig nog bij je ouders triootje met je mo…
turken komen niet in de eu, maar ze zijn zo trots en laf dat zij niet vrij…
haha 🤡 aangenaam? kennis te maken, hoop ik. maar aan t neerbuigend klinken…
dat zal de meeste van deze twitteraars een hallalworst wezen. mij boeit t niet of je daar…
ach fonkman, al draagt een ugandees een gouden ring het is en blijft een lelijk ding. en haha mugabe gaat zn van post niet krijgen
shit, nu goed! het misbruiken van 2 minderjarigen was voor zn detentie , niet tijdens een verlof. voor mijn p…
zet de keren dat het verlof daar positief verliep tegenover de keren dat het erg fout ging. dan zul je zien dat van de 100 x
natuurlijk niet, waarom? de misschien minder goede hoeven niet onder één kwade te lijden !
delfshaven! marokkaanse tiener, uit kleine groep riephè homo. ik negeer m, hij herhaalde h…
zag je woensdag op tv, je zou je foto moeten updaten.😵
juridische vaststelling + inhoudelijke content gaan samen.
balen 😣 dat die zelflobbyer gewonnen heeft. nooit heb ik zoveel zelfreclame op facebook, twitter, of instagram gezien als van deze narcist!
fonkman. geef mij het adres van die club om te paren aub?🤣. mazzel en geen schaamte voor gevoelens van na…
rabijn vd kamp zegt lidmaat v cda op. vind joodschristelijke cultuur moslims uitsluit. hij vergeet alle moslims sluiten alle joden uit.
de tijd van het luisteren naar de asexuele rutte is over, men weet het zelf nog niet. tijdaangebroken vo…
fonkman, elke 2paspoortige inwoner abnormaal. de wegmetons linkse kak, idem. zij die niet in geweldad…
om de dagnutteloos. drie dagen sport,1 dag rust en weer 3. spierscheurtjes moeten helen en…
ik als feijenoord, na winterstop, bij top 3 zit. vermeer zal denk ik niet meer 1ste keep worden…
btje vrijpostig, maar welke sportenbeoefen jij zoal? badminton is een intensieve sport, sch…
dat, en je blijft langer in good shape. tip niet hardlopen op steen, na jaren krijg je diverse blessur…
zwarte piet misschien ? of bill cosby, silvana simons nee dat is niks. umberto tan, die kan voorbeeld zijn, maar iets te veel oom tom 😁
pfff, ik dacht ff dat ik t verziekt had bij je 😌 maar anyhoe truste mary, mary quite contrary. later ! !
sorry, sugarbabe als dat beter klinkt. het gaat erom dat niemand dan jijzelf uitmaakt onder welk tre…
als je heel erg zoet bent ? waarom niet? sugardadys dus ook sugarmoms 😉
ik vind een leuk hans teeuwen live in london part 5/8
als kind zei men kinderen komen uit de boerenkool, dit lotingspubliek zien en horend, begin ik van hun te denken dat hun thuisbasis is.
zit knvb loting te kijken. nu zie+ hoor ik wat men met randdebielen wil aanduiden, wat een afwijkers.
dit vind ik,met huidige kennis, ongeloofwaardig en aantoonbaar gelogen !!
mijn speler van de week bij voetbal inside is steven berghuis via
arm kind, hoop dat ze t redt. moslim die rekenoefeningen deed ? of misschien niet moslim die boo…
een zonder zuurstof en water. stel je voor dat het zich weet voort te planten ? aah een ruimterut…
do, k ben niet gek op kids. maar die hebben excuus van onwetendheid. volwassenen ,80% is puur sle…
zijn witte huidskleur heeft michael jackson lang over gedaan, dat moet bij de zwarte pieten dus eigenlijk minsten…
ha do. dat is mogelijk, kijk maar naar michael jackson. welke kleur ie nu heeft weet ik niet, maa…
nee, ze hadden in het verleden, na de metroaanslagen zich nooit mogen terugtrekken en nieuwe verki…
zon fiets heet volgens mij dan ook een bahboeh 🤔 of is t bamboem ? ?😵
dacht dat ik naar een foto van edgar allan poe keek ? tesla zeg je ?hij zou een broer van e.a. poe kunnen zijn !
mee eens, maar er is nog geen nieuw kabinet. ook geen vechtkabinet, slechts het armzalige demissionaire zooitje laffe hap.
individuele keus , maar vooral een genetisch gegeven waar je gebruik van maakt en soms niet, tobber !!!!
in de peuterzaal?? wat doe je daar überhaupt? je achterkleinkinderen be . . . .? creap!!
doe nou s niet zo interessant,moraal is een individuele keus. zwangerschap,opvoeding en omgevingvoor…
racistische nazaten v slaven wees blij anders zat je in afrika met vliegen op tranende ogen ipv een goed l…
defecte autowapens, te weinig munitie en slechte radiocommunicatie. denk dat k meer militair…
en zo wordt men geboeid in elkaar geslagen, alleen omdat politie met randfiguren te maken heeft. nu is…
speciale eenheden zal het formaat te log zijn, die zou je kunnen uitrusten met d…
de vs maakten er ca 75,000 voor de 2de irakoorlog, de meeste hebben het klimaat ov…
hecler &amp kochlogische keus i.v.m. uniformiteit. maar waarom niet een eigentijdse c…
beste gertjan, hier een reactie van gerrit jan. we zullen voor hen bidden tot god lijkt me eni…
t is niet mijn idee, die eer komt een israëlische prof toe. hij zegt dood er 100.000 dan is de…
nu blijkt dat arabischisraelische ook aanslagen plegen, israël in arabwereld grote satan is. wees…
dit zijn argumenten, juist de joden zouden beter moeten weten hebben ze dan nog niets geleerd?…
mening geven vanuit nl is je recht, net zo als ander joods geluid dat doet, het synoniem voor …
gielah. een slechte omroep en idem gastheer zegt het eigenlijk al. als oudtegendraads bner halen ze nog ki…
dacht dat ie daar ruimte kreeg om zn korsakof te ventileren en m daarom liet kletsen? je hoort iets milde…
dat is onjuist, een gast was het oneens met pres trump. dit benadrukt nog maar eens dat fox de voor e…
zou hij jou zo belangrijk vinden, en die gladjanussen waarmee je aan de formatie tafel zit? hij za…
als de kkk een vlag claimt die sinds t einde vd amerikaanse burgeroorlog, model staat voor t zuiden v dat l…
helemaal waar, uitgehuwelijkt. al aan elkaar belooft toen ze nog met pampers aan hun kont…
volgens mij is ik een btje sikkes, alles staat door elkaar zo lijkt het. maar dat land w…
dat is waar, de profeet die ook met aisha huwde toen ze net 10 was. ondanks r vaders sme…
ik dacht dat ik een foto van een schooltoneel zag, met een auditie voor de maagd maria…
wat kan het jou nou schelen hoe de mores in moslimlanden is? dat ze vrouwonvriendelijk zi…
volgens mij isnkorearedelijk in staat met conventionele middelen seoel, guam en n paar ho…
ha fonkman, alles 👍? ik denk dat nkorea wel kernkoppen heeft. de knowhow om dat handjevol k…
de context waar jij je post op baseert vind ik nog ,niet. maar het laat niets aan de verbeelding over…
r is toch geen academisch pacifisme dat vrede in stand houdt? als geweld start, staan zij machteloos…
wat ik zeg iemand die serieus een politicus wil doden gaat daar niet over praten. alle politici krijgen…
het is volkert geweest die verantwoordelijk is voor het doden v pf. op vermoorden politici hoort levensla…
ha do, nee dat klopt, maar dat zeg ik niet. hij sloeg alle overheids beveiliging wel af. ook de gratis be…
er is geen nucleaire crisis, als je al van crisis kan spreken. tot nu lijkt alles op ouderwets conventionele…
maar doodsbedreigingen aan t adres van welke politicus, gaat te ver. alsof een potentiële moordenaar dat…
begreep t verkeerd, dacht dat ratte uh rutte werkstraf + psychiatrische behandeling moest ondergaan. dat…
in de tijd die je gebruikt hebt die vraag te stellen, had je zeker met google al antwoord op…
dit zijn géén nazaten van slaven, ze komen vrijwillig. de nazaten die hier decennia leven, zouden niet ku…
ja ebru, ik zit nu aan 6 mobiele nummers en zodra het er 10 zijn over ca 2 mnd ken ik dus 💯 cijfers u…
voor de rest hebben ze het te druk onderling strijd te voeren, zodat niet moslimlanden geen probleem…
alle donkerafrika moslimlanden zijn niet arabisch, pakistan, indonesië, azië,eu landen, iran, afghan…
gedreven? eigen keuze zeg ik en begrijp t ook nog. maar echte vluchteli…
weerzin zou ik t niet noemen, negeren omdat de door u genoemde zaken de nos en tendentieuze politic…
verenigde staten, één natie onder god bestaand uit 52? staten. eu is een vereniging landen die samenw…
helemaal mee eens, wat een ontiegegelijke dweper die wannabe ! en het dan ook nog wereldk…
bo,intelligente wereldwijze geëmancipeerde vrouw. k zie je in gedachte zitten, shiraz nippend, eens zijn m…
nou, als je die nagemaakte nodig hebt als rolmodel, zoek dan iemand uit die t beste met nederland voor he…
emoties zijn niet op zn plaats bij zomergasten. in r.dam heet dat hoerensentiment, nep. ziek of niet, vo…
hoe erg t ook is om ongeneeslijk ziek te zijn, blijf wel realistisch. deze man h…
u laat de emoties de overhand boven intellect krijgen. erg ziek, naar. neemt niet weg dat hij nog steeds…
als kind 20 wordt is papa ver in de 80. waarom moeten die oudjes per se nog een kind verwekk…
met al die toeters en bellen hadden ze haar beter vast kunnen houden.
iedereen kan van alles zeggen in n video stream. hij kan beweren dat ie hetero is. maar hij staat be…
haha, wie zegt dat tegen wie? nou ja,😆 je bent in ieder geval halal ? !
kennen eigen religie niet. liegen t.o.v. ongelovigen mag niet zomaar alleen als hun leven…
brak mn kies af op hap v eierkoek, dat vind ik erger dan debielen die de kat op het spek…
dacht t wel.
ja
duh ? ?
als iedereen zn opvatting over elk onderwerp. goed, beter of minder.
natuurlijk is herzberg op r vakgebied uitmuntend. voor het overige is haar opinie net zoveel of weinig waard e
echt, echt niet 😊 goeie gastvrouw, valt niet te vaak in de rede, gast alleen ter zake ku…
de laatste gast claudia de breij, zal zelfs aan r.h niet kunnen tippen. r.h is interessant op r vakge…
iemand die niet de gast tracht te overvleugelen door steeds in de rede te vallen. ik vind haar een verademin…
waarop baseer je t idee dat ,wie dan ook, problemen met ontwikkelde vrouwen heeft? heb je r…
voor wie dan? ik man heb geen moeite met laag of hoog opgeleide vrouwen. bedoel je dat nietintellig…
juist, journaal meldde een significante afname in vergelijking met vorig jaar ? ! ? ?
toch zag ik op 1907 nos journaal dat dit jaar wereldwijd aanzienlijk minder aanslagen werden geplee…
gebruik bovenstaande links en zie hoe oeu landen accounhouders v twitter met nep tweets naar pornosites lokken.
ik echt niet. zonder h. dorrestijn zou t wellicht nog te pruimen zijn. maar smaken verschillen, ook o…
ben nu in bezit v p9lite, vorig model p8. op beide kon ik ook het 4g netwerk gebruiken en op deze p…
1807. zegttrump woordbreuk pleegt door obamacare blijft. meeste republikeinen zijn t met trump oneens. nee het gaat ze niet ver zat
daar begint het wel enigszins op te lijken. maar het is alt…
maar wees gerust en geduldig. als de oranjevrouwen bij de top drie eindigen wordt het steeds beter.…
oranjekoorts? ik heb nergens versierde straten gezien, ook geen café met groot tv scherm. eerlijk bb…
bedankt, had ik t geweten had ik gestreamed. als je nog s zo n tip weet bij voorbaat dank. ps..ik…
nou niet bij mij dus, t enige op foxsports was terugblik eredivisie, ex heerenveen trainer de jong bij…
daar gaat t om. later gozer rij voorzichtig 😉
daar gaat het uiteindelijk om toch. mazzel gozer
djihadis die voor is gestreden hebben, nl burgerschap afnemen. in vijandig leger gediend,ne…
denk je zelf ook niet dat het nep is? ik zou t niet weten maar denk waar ligt bloed op de weg? zie ledema…
matheus passion v bach prachtig, daar kan jan rot beter afblijven.
fckng poseurs op dit forum. zie en hoor mij s mijn intelligentie ventileren. onze namen zijn . . .njah we kennen ze onderhand wel.kots
he daar. is t free speech for the dumb, free fucking speech! ! zo ja, ga ik een volger worden!🤘
welnee, wat heeft nl te duchten van een zogenaamde beweging in de marge vd islam. een…
n s a de grens, ergens in een geluidsdichte ruimte.
dat is een biologische reactie, lustopwekkend voor lui wiens klok t aangeeft. noemen ze verliefd, is…
elian houdt oogje in t zeil+oor op d…
herdenking van waaat? enige slachtoffer was soldaat wiens veter los ging. in scène gez…
beste, heb reacties ea tweets van je gelezen. heb mij als volger gemeld. ok wat jou betreft? volgen he, niet stalken😉?! doei.
derar 32 heeft nog een dun lijntje met zijn familie in raqqa via dressman? heeft t hier n stuk beter 🏌️he ?
mijn felicitaties aan china voor hun slimheid.laten die blanken zorgen dat zij het intelligentst blijven.
misschien filmde zn maat het gebeuren.er waren méér mannen daar,die hadden kunnen ingri…
1000 x 4 koppige bemanning, het aantal jagers x 2 piloten en dan de reservebemanning voor b…
ik dacht ff dat het syrische drenkelingen waren spartelend in het water. nou ja, dat wil…
dat maakt ze nog niet slecht. meeste v ons zouden hetzelfde doen. bovendien kan ik t eens zijn met de…
kortom,al die pers, lijken ingehuurd om de discussie aan te wakkeren, olie op vuur te gooien en de si…
zijn de winter romans verkochten minder + minder. een bron van inkomsten wordt tweeteren tegen beta…
b.v, sinds l de winter geen pennenvrucht meer heeft geproduceerd, is hij aan t tweeten gegaan. toeval…
jij, leon d winter, syp wynia e.a. zitten in een verdacht spectrum. slechts n aanname mijnerzijds, ma…
datalgemeen bekend, geen nieuwe wetten. alleen afhandeling lopende zaken. zet s wat zoden a/d dijk.…
via buikpijn van t lachen, de belgische befkampioen versla ik,maar ga na een uitdaging de strijd pas aan
herman brusselmans pakt eva jinek aan via k versloeg ooit tafelvoetbalkampioen belgië. nieuwe uitdaging
diteen link naar het ufc kampioenschap en de miljoenen die per adverteerder betaalt moeten worden. onvoorstelbaar?!
beste mary. noten+rusttekens,dan is de maat vol😊gebbetje! zou willen dat ik empathisch numbed was,…
als je meer wilt weten de telegraaf of
sorry voor aap in suske &amp wiske, namens standaard uitgeverij. hier betreft het blote borsten.maaar d zwarte man die kijkt kon niet 🤔
niet alleen zij,ook journalisten en politici. het geldt simpel voor iedereen. deelname iftar zegtik…
nu ruim 1 mnd later, maar waar hing j cruijff toen hij feijenoord coachte, me…
t getal dat je noemt is vrij exact,n.l. 800.000.ik ga een tof feit delen het groscultuurmoslimnep…
geloof me, in de v oosterzeestraat r.dam pakte ik het dienstwapen van een kit af. dat was in een v…
als de kiezer je laat weten ff klaar met je te zijn pvda+vvd, blijf je op je beurt wachten. winn…
ja, t zal wel weer.jammer dat behalve gijp zelf er verder geen normaal persoon dubbel ligt van zijn hogeschoolhumor!!
gvd, pedorasters, normaal!! reageren jullie massaal. vanwaar die valse schaamte? voor straf vroe…
jou kennende, aan de hand van je romans en interviews, ben ik zeker dat opportunisme het won van mora…
sinds jouw muze je niet meer vinden kan ?, pen je 24/7 alhier. doe je dat belangeloos of wordt je bet…
+10.000 volgers, zelf volg je 0 personen. ik vind dat merkwaardig, interesseer jij je niet voor hun r…
groet alle veteranen, respect. met name 2 unifil blauwhelmen uit libanon john w en peter.het ga jullie goed!!
verademing te weten dat r mensen zijn die weet hebben van t protocol. weken met schooltas dag+nacht a…
ha, maar steekhoudend is t niet. darwinismewetenschappelijk onderbouwd. domme mensen, welke re…
geen bewijzen,soort intuïtie. l d winterboekestijnwynia e.a. geven mij t idee dat het betaalde twitters zijn.ik paranoide? wie ook para?
vredelievende islam net zoiets als vliegende kip, bestaat niet. moslims die zeggen …
heb een prima locatie in gedachte.het loch ness, met beetje mazzel huist het monster met familie er dan…
welterusten 😴😴😴 slapen we de slaap der rechtvaardigen. doei en truste
ons 100 gram, maar in deze werd mijn nickname in één adem met de jouwe genoemd. ik nam het…
zou t zelf niet beter kunnen verwoorden!!
ik ben tegen alle vormen van bestialiteiten,pedoseks enz. wat ik schreef is een feit.waarom b…
ook de spreekwoordelijk geworden rubroekstraat, zw…
i.p.v. xtra toezicht als brandpreventie,beter risicovolle natuurgebieden tijdelijk ontoegankelijk maken. ik…
fraai. ruim 1jr terug liet een man zich in zn anus nemen door een hengst in de vs. man inwen…
r.damert.een vastgelopen blok met kapotte distributieriem en lagers er uit. olie, dus s…
waar koopt men die bomgordels? collegas die neerbuigend alcohol in kerstpakket weigeren, zij weten…
zon lekker ding alsmaar vraagt fuck me,fuck met voor t o.m moeilijk te bewijzen…
niks aan de kaak stellen, laf excuus om niet dakloos te zijn! nep moralisten. ik begrijp fonkman wel, maa…
religieonzin.het is de strontkar diet geloof door de stof trekt.ergo,een religie kan men nooit…
naar aandacht? voorzichtig je zit al aardig vol , me dunkt 😚
het zal niemand zijn ontgaan over wie dit gaat? vastgezeten in turkije,paspoort verscheurd? je kan toch niet terug, dramatisch gebaar.doen!!
reactie op komkommerzwets v zelfbenoemd nieuwswaardige quasiintellectueel.probeer bescheidenheid, ga uit deschijnwerper.je oogt needy
kent het nummer van the talking heads nog wel ? dat geldt voor alle islamstroming…
lijst bestaat al sinds aboutaleb, wijlen koning hassan van informatie voorzag over doen + laten van marok…
atilla d hun,nero,napoleon,hitler,mussolini,stalin,frau merkel en macron. feitdat kleine mensen snel…
iem die bang is voor straling v zendmasten? voor de zekerheid zijn vrouwelijke medebewoners een b…
klik bovenstaande link, zie hoe ze in de premleague elkaars coaches recht voor zn raap afbranden. lijk…
dit is geen schuld van een elfje. het is een sociale flat inclusief shopping mall. slecht onderho…
ff zeg je? iemand die marie servaes?? m.a.w.zangeres zonder naamlingerie en andere kleding van r…
verliezer vvd gaat verliezer pvda polsen om coalitie te vormen.pvda mag een kiezersveto niet negeren.dictat…
democratie is dood in nl. liever nodigt men grootste verliezer uitpvdadan grootste winnaarpvv. wie denkt…
ideologie v gl,nee maar klaver heeft ballen ad kont. pvda 10 zetels gaan met rutte in zee. kunnen ze niet verkopen.dan praten met pvv
je weet toch? die strntzkkn komen nooit op straat om afstand te nemen voor n aanslag in…
vs had n excuusneger, bijna een excuustruus.nu een miljardair.nog een homo, biseksueel,tra…
gevestigde politici houden het volk in gijzeling. alle mogelijke coalities blijken onmogelijk, minderheidskabinet ook.opnieuw stemmen dus!
laatste maar meest wenselijk optie nieuwe verkiezingen. ik heb het gevoel dat de gevestigde partije…
gl heeft 2x de handdoek in de ring gegooid. het zou nu over + uit moeten zijn, als gl geen spelletje…
moslims haten ons.ook aboutaleb.voor zn huidige job was ie klikspaan voor wijlen kh hassan,hij vertelde…
één dode palestijnreden om met hamas+is vlaggen wél te demonstreren, de nl vlag kent men niet. tiental…
zolang ik weet zijn na een aanslag nooit 1000 of 100 moslims gezamenlijk de straat opgegaan niet in allahs naam. nooit ! !
ja,mekkaanse, medina,al quod, salafisme,taliban,sjiitisch,soennitisch, wahabieten. +all…
fonk, je kan ook vragen wat de reden is voor t verwijderen. maar hoe dan ook ik blijf je stalken😉eh volgen. stay to…
fonk, gebeurt wat gebeuren kan, ik zou me in jou plaats niet te sappel maken, tenzij het verwijderen van j…
het is volkomen legaal, kost een beetje tijd, maar ik heb niet veel klachten over censuur gehoord. bij jo…
dit had je al overdacht website opzetten waar jij je ongecensureerde mening uit. zorg dat via derden het…
slechte verliezer en tweede plaats irelevant. mourihno wint van bosz manunited wint van…
aad de mos, boos en jan klaassen met zn infantiel twee gelukgoals, wij hadden een slec…
in de cl, de el, de landstitel ! wat een slechte verliezer is klaassen. ik wil zien wie…
klaassen twee gelukjes een slechte verliezer die miesgasser
mourinho en kluivert sluiten deal
wat is dit voor onzin, die waarschuwing. ik zag alsmaar die eiffeltoren voorbij racen in stroboscop…
beste, je hebt meer contacten dan de meeste hier. start een petitie on/ofline. cultureel belang prev…
dat is de reden dat 10 jr terug eritreeërs,ethiopiërs+somaliërs,die hier nl status kregen,rap naar gb ver…
maarten van der weijden loopt record mis via republic
duh? is claimde vanmiddag al verantwoordelijkheid hiervoor. maar die claimen een file op a2 nog op. er bestaat een…
goed dat ik het vroeg dus.overigens ben je geen geregistreerd handelsmerk k had…
ok, melodie neill diamond, een mooi stukje in zijn tekst is/was ook op coolsingel van toepassing.good ti…
of je het niveau op 4 of 5 zet maakt in wezen nauwelijks verschil. 3 is op dit moment, m.i., meest re…
wijnaldum koopt voetbalschoenen voor jonge superfan via republic. down to earth kind a guy. blijf wie je bent
wijnaldum koopt voetbalschoenen voor jonge superfan via republic
nimrod was een koningjager, een man naar gods hart. goud geen…
100% waar. maar vergis je niet in landen als rusland,oekraïne,polen en vele oeuropese landen.dan b…
aan dat land wil nl excuses maken voor kolonisatie! 20 jaar geleden weigerde men dat,bang voor gezichtsverli…
kennis,opgedaan door mij te verdiepen in indië en knil verleden kan ik alleen maar zeggenmen zal oogst…
nooit heb ik trouwere vrienden gehad dan de vele molukkers in mijn leven. maar als belanda moest je eer…
zat met veel molukers nrd en zuid internaat vakenheide. broers johny/jacky matulessy en veel anderen.zi…
beste tahamata, is dat de stand van zaken geworden. gezapig tempo dulu en terang bulang aan de jongeren vert…
door wie of welke organisatie dan.? in gds naam? o, die wellicht.
vluchtelingen zijn ons als opdracht gegeven via
hoe heet het staatshoofd van kanaán wie zijn bondgenoten wat is d…
gelukkig zijn jonge kinderen zeer veerkrachtig! kijk maar naar hen die de 2de wo hebben meegemaakt. nog steeds…
ketamine is een pijnstiller of narcose preparaat voor paarden en koeien. ik bedoel een mens scheelt een paar…
felicitaties spuitgastenrespect voor jullie. ook voor ambulancepe…
trumponomics? wacht wel op de aanvullende editie van het groene boekje en de van dalen of…
mag niet genieten dus snijdt oma,tante of ma de clitoris met een stuk glas er af. beetje pech…
i digg that guy, pres trump. zn eerste buitenlandse bezoeken zijn zo doord…
is dit een denksportpuzzel met 6 sterren? ff denken, galgen, erecties poortjes en een brief…
als ik jouw foto, met bril, overneem voor collectie c.a125st? ga ze uploa…
ja he? zoek op utube onder de naam acda of de munnick, maar k denk de eerste. mooiste nieuwe clublied vo…
feijenoord, feyenoord dr is geen club als feijenoord, ik heb t nooit gehoord. waar ter wereld ik ook kwam…
omdat je feijenoord schrijft met een y fans zijn zeer zelfbewust en kritisch, dus niet feyenoord maar fe…
shit,kan t haast niet geloven hoe klassiek en naar de letter jij feijenoord schrijft, een 10 met een griffe…
je zegt ik ben hebreeuws , dat is de taal uit de tenach/ot. 2de synoniem voo…
dat geeft me peace of mind. weten dat r anderen zijn die mijn gedachtegoed toch enigszins delen. dat…
rgiphartschrijver,kluunnarcistische egotripper die ons nimmer een pennenvrucht de moeite waard dee…
zij trokken mij ook voor en schopten mij na liggend op straat.in het bureau handen op rug geboeid sloegen ze 6…
wat houdt je bezig? twitterok. maar die vraag is voor meeste niet in 140 lettertekens te beantwoorden.toch bedankt twitter&ampaanhang love you
nl heeft vs nodig,wij moeten hen steunen in hun relatie met sa.wanneer laatste druppel olie op is heeft sa w…
weet vrij zeker dat ik niet dyslecties ben maar dacht in een fractie van n seconde te zien staanwa…
kortom jouw woord! snijdt hout. hopende dat je zo scherp als een mes tweezijdig geslepen snijden bl…
beste ldewinter, zonder die onderbouwing weet iedereen met enige interesse + gemiddeld iq, dat nos ma…
ik zie 297 volgend en 1202 volgers. dus ik zie het kennelijk wel. zet je apparaat anders s aan en uit het…
sorry anonieme dame, in de ik vorm is word, als stam, zonder de t geschreven. mijn enthousiasme kent soms foutjes. doei miss x
mevrouw op de foto bent u wellicht ook een bner of iemand die ik verondersteld wordt te kennen? u bent mooi…
welke verzorgingsstaat? ik maakmezorgenstaat. is de status qo op dit moment. die verzorgingsstaat…
denk t ook, zeker wanneer je die foto ziet. ik bedoel niet ziet. wat zijn het überhaupt voor foto…
als je een half miljoen voor dat boek betaald hebt kan er dan niet een iets duidelijker foto s worden weergegeven??
heeft ze een luier om? of wellicht komt het door de lichtval? ze oogt zeer zelfbewust, kijk mij een…
weet t ook nog goed.angst en zelfcensuur zorgden ervoor dat doek nooit opging. aisha en pr…
nl geen islam cultuur. ca 1 miljoen moslims, dus 16 miljn niet. van die kleine groep zijn meeste cu…
doe maar dat hoofddoekje. dan is de tegenstander vijand herkenbaar. kan je tijdens conflict kenbaa…
royal fecaliën likkers, hoe deugdzaam en burgerlijk moet men zijn om jezelf zo te verlagen? zoals een limbodanser zegt how low can you go
wie aanschuift aan het koninklijk buffet is m.i. een needy tobber. hadden jullie je vlaggetjes en toeters bij je?
anita schuift aan bij de koning majesteit zeggen en geen selfies via
t infantieleweg met trump lijkt op een mediagestuurde wereldwijde hetze. het bloedt vanzelf dood.…
geloof niets van nos bron waar t trump in negatief nieuws betreft. men weet waar zij staan. de zgnmde gutmensc…
als gebbetje kneis ik m niet, kneis louw sowieso. priemgetallen on…
ok renata, ik was ff niet zo vlug van snap! het ga je goed meisje. o ja, dat laatste is niet neerbuigend bedoeld hoor. hoi