zo maar eens kijken of ‘t werkt die black mask😳🐼
goed bezig eindelijk punten pakken verstappen mooi weer op podium!💪🏼🏎
top eindelijk weer een mooie overwinning van feyenoord!👌🏼❤️⚽️
ik vind een leuk if you like basketball dont watch this gameplay lol nba 2k18
ik vind een leuk sok is vervelend! enzoknol vlog
ik vind een leuk zwemmen in 10.000 glowsticks
ik vind een leuk gedrogeerd in het ziekenhuis beland concentrate zie ze liegen
ik vind een leuk mag ik uw lijntje doormeten!? concentrate whos hangin
ik vind een leuk heftige dag bij de politie!! enzoknol vlog
ik vind een leuk nederlandse youtubers voor sint maarten geef om jou
ik vind een leuk eerste keer seks en bang voor doorlekken!
ik vind een leuk hoe denken wij over onze exen?! fuck or kill met monica geuze
ik vind een leuk i proposed at walmart hocuspocus
ik vind een leuk op reis met een ander meisje &amp bijna een botsing door een spin?!
ik vind een leuk facetime met juultje &amp dit is de ergste zelfmoordbrug!
ik vind een leuk zou jij vreemdgaan voor 50 euro?! amsterdam afl. 8 | gewoon doen
ik vind een leuk 59 uur zoenen in parijs!? de recordshow
ik vind een leuk wereldrecord zoveel mogelijk strings aantrekken met blonde tigers de
ik vind een leuk wereldrecord hamburgers eten de recordshow
ik vind een leuk wereldrecord frikandellen eten de recordshow
ik vind een leuk 100 chipszakken eten!
ik vind een leuk het hele menu van mac donalds bestellen!
ik vind een leuk kun je al het eten van de bioscoop opeten tijdens de film?
ik vind een leuk grootste nachos ooit!
ik vind een leuk grandpa meets pennywise! lmao
ik vind een leuk dominos pizza vs angry grandpa!!
ik vind een leuk angry grandpa reacts to it trailer!! prank
ik vind een leuk the pervert prank!
ik vind een leuk drive thru skeleton driver prank 3!
ik vind een leuk youll float too!! meet pennywise!
ik vind een leuk alles eten van de burgerking binnen 10 minuten!
ik vind een leuk im live right now!!
ik vind een leuk kijker begluurt mij via ladder in huis! boos!
ik vind een leuk lookin like my mixtape dropped!! cod wwii beta
wat een top gevecht was het, gefeliciteerd floyd met je 50ste…
ik vind een leuk heel groot en belangrijk nieuws!
ik vind een leuk kontje knal met punaise voetbal!
ik vind een leuk i guess you could say i got clowned!? no? okay. it vr experience + annabelle
ik vind een leuk dingen waardoor iedereen wil stoppen met school!
matig maar het zijn weer 3 punten!❤️⚽️👌🏼
weekend top afgesloten met een mooie 1ste overwinning in de…
gezellig met de schoonfamilie op de camping🌴
ik vind een leuk best of drive thru robot prank!!!
ik vind een leuk kaalscheren met een drone 700k special!
ik vind een leuk drive thru five nights at freddys!!
ik vind een leuk drive thru five nights at freddys extras!!
ik vind een leuk alles van de kfc binnen 10 minuten opeten!
ik vind een leuk hoe gaat het met mij.. &amp een verrassing voor jullie!
trots 1ste prijs binnen in het nieuwe seizoen!❤️⚽️💪🏼😇
leuk thuis komen zo krijg zo een nieuw feyenoord uitshirt van m’n…
ik vind een leuk angry grandpas back! freakout
ik vind een leuk ernstige brandwonden door het domste idee ooit!!!
schrijf een onderschrift... m’n lieverd sharon geurtsen vandaag…
ik vind een leuk grootste broodje frikandel ooit! 7,5kg!!!
ik vind een leuk 1000 bean boozled in 1 shake 100% de smerigste shake ooit!
lekker werken op zondag💪🏼☀️😎
ik vind een leuk verjaardagscadeau &amp mooiste zonsondergang ter wereld!
ik vind een leuk rage bandicoot n sane trilogy
ik vind een leuk ik mis je oude stem mijn mega stemverandering
ik vind een leuk pijnlijke stiekjes challenge op gezicht!
ik vind een leuk grootste rookbom ooit
ik vind een leuk drive thru counterfeit money!!
ik vind een leuk grootste pizza ooit!
ik vind een leuk reverse gold digger prank!!
ik vind een leuk bijna verdronken in auto tijdens reddingactie onder water!
ik vind een leuk zuurste shake ooit!
ik vind een leuk wow! magische vloeistof vs. magneet!
ik vind een leuk winkelwagenrace door een school! nijkerk
ik vind een leuk pleun van the voice naakt zal ik nooit doen concentrate zie ze liegen
ik vind een leuk dit moet je nooit doen op de fiets!
ik vind een leuk kunnen wij wel samenwonen?!
mn lieve oma 70 geworden! gefeliciteerd hoop dat u nog jaren bij…
mn lieve oma een 3luik schilderij voor ons appartement gemaakt,…
fijn gebik met schatje🍴💞😍
goeie ouwe tijden op de ps1🎮💪🏼
ik vind een leuk 112 gebeld voor de eerste keer in mijn leven
ik vind een leuk retro jason is here and he brought his mixtape!! friday the 13th the game
ik vind een leuk grootste bak popcorn ooit!!!
ik vind een leuk cola mentos challenge met tank!
ik vind een leuk grootste kfc bucket ooit!!
ik vind een leuk aarthos vecht tegen gekke markie youtube vechten
ik vind een leuk i hacked into ksis laptop
ik vind een leuk voor mijn eerste eigen huis kijken met zwembad!
ik vind een leuk 1000 mcdonalds kipnuggets bestellen! €412,50
ik vind een leuk genevieve ik deed aan webcam sex concentrate zie ze liegen
ik vind een leuk wanneer zoende ik voor t eerst? + habiba challenge vriendin vs beste
ik vind een leuk im in a f#%king race car!!! dopest vr gameplay ever! 4
ik vind een leuk b#tch! this aint dancin wif the stars!! friday the 13th the game
ik vind een leuk tekken 7 in het echt naspelen! wie is de beste vechter??!
ik vind een leuk kaj, bobbie &amp thomas ontkomen niet aan het vragenvuur
ik vind een leuk stiekem stierenballen &amp penis aan mensen voeren!
ik vind een leuk mijn eerste tattoo zetten + reactie van moeder!
ik vind een leuk de nieuwe auto tour! gekregen van gio!
ik vind een leuk nieuwe auto gekocht voor moeder! barst in huilen uit!
ik vind een leuk help, ik moet uit de whatsapp groep!
ik vind een leuk r.i.p. my f#%king heart! outlast 2
ik vind een leuk dont look at my girlfriends ass prank!
ik vind een leuk mom skydiving prank!
ik vind een leuk blauwste water ter wereld &amp gaat dit goed?
ik vind een leuk glijbaan van 50 meter met 600 liter mayo! elke zaterdag om 1730 rtl7
gezellig dagje slagharen geweest met mn lieffies was…
ik vind een leuk my family gets me back
ik vind een leuk dit vind ik sexy bij meisjes!
ik vind een leuk sexy yoga challenge met mijn vriendin!
ik vind een leuk schaamhaar en puistjes! |
ik vind een leuk seriously, i dunno if i can do this sh#t with my aim lmao!! narco road
ik vind een leuk wearing a thong in public!
ik vind een leuk my f#%king heart cant take this!! outlast 2
ik vind een leuk €382,50 kapotslaan op de kermis! concentrate wat te doen met je poen
ik vind een leuk bibi vraagt? nijmegen zoenen met hetzelfde geslacht! vreemdgaan?
ik vind een leuk racen &amp driften met kelvin snoeks op pad met bibi s1
was geweldige wedstrijd 02 overwinning op vitesse, op naar volgende…
ik vind een leuk extreemste energie shake ooit!
ik vind een leuk abusing the tourist prank!!
ik vind een leuk strijd tussen onze fans! concentrate wat te doen met je poen de ontknoping
50ste verjaardag van moeders was super lekker gezellig gegeten met…
ik vind een leuk the easter egg salad disaster!
ik vind een leuk why the f#%k does this game make me jump so much!? bendy and the ink
ik vind een leuk super vet duct tape huis!
ik vind een leuk wow! duct tape boot bouwen!
ik vind een leuk worlds dumbest tweets
ik vind een leuk schelden met homo?!
ik vind een leuk zoek het gouden ei &amp €265 is van jou!! concentrate wat te doen met je
ik vind een leuk update video nieuw logo en mijn meetings!
ik vind een leuk i finally pranked my dad
lieve moeders jij bent nu degene die een mijlpaal heeft bereikt in…
ik vind een leuk weve got good news!
ik vind een leuk drive thru elmo prank!
ik vind een leuk geslachtsverandering en anders op youtube?!
ik vind een leuk the 3 million subscriber wakeup!!
ik vind een leuk i cant believe this happened!
ik vind een leuk grandpas never sorry
ik vind een leuk the clown head taser wake up prank!!
ik vind een leuk the hot plate challenge fail!!!
ik vind een leuk donald trump assassination prank!
ik vind een leuk vrouwen aan het stuur bloed aan de muur?! veed vlog!
ik vind een leuk jayh over drugs, trios en hoeren! concentrate zie ze liegen
ik vind een leuk would you wanna be my neighbor!? loud comp
ik vind een leuk why did we do this!?
ik vind een leuk saying goodbye
ik vind een leuk angry grandpa destroys nintendo switch!
ik vind een leuk durian fruit vs angry grandpa!!
ik vind een leuk angry grandpas sick of cancer!!
ik vind een leuk angry grandpa has surgery
ik vind een leuk hond van beste vriend is dood prank
ik vind een leuk het klokhuis sauzen
ik vind een leuk we shaved bridgettes eyebrows! prank backfire
ik vind een leuk 100 liter stikstof in mega cola zwembad!
ik vind een van leuk walking my invisible dog!
ik vind een van leuk dit spel maakt me gek!
ik vind een van leuk this is very bad
ik vind een van leuk okselhaar, bi zijn en verveling!
ik vind een van leuk gio vs jasper!
ik vind een van leuk reading the dumbest dms
ik vind een leuk dikke fooi geven &amp scheuren in een jaguar!! – concentrate wat te doen met
ik vind een van leuk sexy fotos &amp zus herkent zichzelf niet raad de
ik vind een leuk when i scream this b#tch jumps!? lmao chicken scream
ik vind een leuk kapsalon koken met bibi
ik vind een leuk 100 lagen ducttape op gezicht!
ik vind een van leuk stop dabbing
ik vind een van leuk allereerste babyschoentjes voor mijn nieuwe broertje of
ik vind een van leuk are we really doing this?
ik vind een leuk grote pizza bestelling prank bij mark! 1 april
ik vind een van leuk family try not to laugh challenge
ik vind een leuk belangrijke mededeling over gebroken been
ik vind een van leuk ik krijg een nieuw broertje of zusje groot nieuws!
ik vind een leuk €400, kapot knallen! concentrate wat te doen met je poen?
ik vind een van leuk ik schaam me diep!
ik vind een van leuk klas pest leraar weg
ik vind een leuk heeft miss nederland zoey ivory iets met waylon?! concentrate zie ze liegen
ik vind een leuk angry grandpa reads hate comments 2!!
ik vind een van leuk deze uitvindingen moet je hebben in je leven!
ik vind een leuk drive thru robot driver prank 3
ik vind een leuk 10 kilo snoep op trampoline!
ik vind een leuk walibi holland out of control op pad met bibi s1
ik vind een van leuk hoe smerig is dit?
ik vind een leuk yesr over de breuk met alib! concentrate zie ze liegen
ik vind een van leuk tnt pop its toilet seat april fools prank
ik vind een leuk minste drinken in de wereld! gevaarlijk!
was weer een mega mooi feest gister tinus and friends 2.0 bij tinus…
ik vind een van leuk speciale pizza voor vader van fan!
ik vind een van leuk los angeles vakantie gekregen van gio!
ik vind een leuk pijnlijke piemel paintbal challenge!
ik vind een leuk tinus hoekstra doe het dan official videoclip
we denderen gewoon door, op naar de volgende game!👌🏼⚽️ feyenoord❤…
ik vind een van leuk toy car prank
ik vind een leuk industrie bibi videoshoot
ik vind een van leuk heel heftig verhaal en een irritante vriendin!
ik vind een van leuk leerling ademt niet meer
ik vind een leuk kwaaivines liegt over echtheid videos?! concentrate zie ze liegen
ik vind een van leuk trouwen met je vader of je vriendje? fuck or kill met
ik vind een van leuk wie kies ik naast melanie?
ik vind een van leuk man wordt boos en ik ben exposed?!
gezellig gek doen met me meissie &amp lieve schoonzusje❤😇😂
ik vind een leuk viagra in drinken prank!
ik vind een leuk apple — home app — welcome home
fijn gezellig weekje bij me lieffie in tiel❤😇👌🏼
ik vind een van leuk ik ga dit huis in met andere youtubers!
ik vind een van leuk hoezo krijgt leerling geld?
ik vind een leuk herten kamp met zusje
ik vind een van leuk juultje maakt eerste video en oog in oog met celebrity
ik vind een leuk brij
ik vind een leuk vragen beantwoorden met mijn zusje mandy
ik vind een leuk angry family pictures!
ik vind een van leuk my boyfriend does my makeup | melanie &amp jasper
ik vind een van leuk huis van justin bieber spotten &amp de ijskoude oceaan in!
ik vind een van leuk lamborghini drive thru
ik vind een van leuk uit broek gescheurd en in smoking naar storm!
ik vind een van leuk levensgrote haai valt onze boot aan in amerika?!
ik vind een van leuk giant gummy bears
fijn weer kappertje geweest weer helemaal fresh👌🏼😇
heerlijk thuis genieten op t bankie met mn lieverd sharonteuntje…
grote kampioen van nederland feyenoord!❤⚽️ fijn weekend😘💪🏼
💞 diergaarde blijdorp / rotterdam zoo
ik vind een leuk drive thru teddy bear driver prank 3
ik vind een leuk drive thru teddy bear driver prank 2
ik vind een leuk this could have been bad!!!
ik vind een leuk why does he have this?!
valentijnsdag afgesloten met een heerlijk romantisch etentje die we…
geweldige dag gehad in rotterdam diergaarde blijdorp onze 7 maandjes…
ik vind een leuk we found a dead body!!! prank
ik vind een leuk the giant pancake challenge!!
ik vind een leuk grandpas big surprise!!
ik vind een leuk angry grandpas dream car was stolen!!
ik vind een leuk weve got bad news..
de lucht in doetinchem is matig. benieuwd of jij inademt? check he...
effe gezellig gek doen met me neefje🤣😆😂😊
mn knappe verloofde &amp liefde van me leven❤💍😘💞
ik vind een leuk grandpa doesnt ruin christmas!!
ik vind een leuk a crappy christmas eve!!
ik vind een leuk freestyle rapping with tina
ik vind een leuk angry grandpa hates shannon!!
ik vind een leuk angry grandpas got a gun!!
ik vind een leuk jiami is eerlijk over anorexia concentrate zie ze liegen
50e verjaardag van mn vader was geweldig🎉😊🍺 hou van je pa!❤…
ik vind een leuk pickleboy smells like st!! prank
ik vind een leuk the christmas bash with tina!!
ik vind een leuk i f#%king give up yall!! hello neighbor alpha 3 end?
ik vind een leuk iphone 7 plus – take mine – apple
ik vind een van leuk 600.000 abonnees op de eiffeltoren &amp broek scheurt in
ik vind een leuk diarrhoea in public
ik vind een van leuk 99% of people would punch ksi in the face
ik vind een leuk famke louise gooit seksleven met snapking op tafel! concentrate zie ze
wij wensen iedereen hele fijne feestdagen, een gezellige kerst &amp een…
gezellig wezen schaatsen met mn lieverd voor het eerst, ging best…
ik vind een van leuk crazy christmas shoppers!
ik vind een leuk grandpa visits his father
ik vind een leuk bridgette got arrested!!
ik vind een leuk grandpas christmas surprise!
ik vind een leuk mooi kerstboompje gekapt
ik vind een leuk angry grandpas dream car!
ik vind een leuk pickleboy breaks his neck! prank
ik vind een leuk angry grandpa cant cook!! prank
mooi het jaar 2016 afgesloten met een goeie overwinning 31…
week erop zitten bij me nieuwe werkgever ubbink!☺💪🏼😱 super naar me…
theater a/d rijn beplating helemaal klaar in arnhem mooi…
mooi het jaar 2016 afgesloten met een goeie overwinning 31…
ik vind een leuk grandpa hated this!!!
ik vind een leuk grandpas christmas axe!!
ik vind een leuk charlies birthday prank!!
weer een top avondje beker voetbal!⚽💪🏼 feyenoord 51 ado op naar de…
ik vind een leuk double date with angry grandpa!!
ik vind een leuk grandpas hiding weapons!!
superr gezellig weekend weer gehad met mn lieve schat, gezellig nog…
ik vind een van leuk reacting to the best mannequin challenge!
ik vind een leuk the mannequin challenge prank!!
ik vind een van leuk heb je ooit een one night stand gehad?
ik vind een leuk the blowout with mcjuggernuggets!!
ik vind een van leuk do you like bad boys?!
ik vind een leuk if this f#%king jump scare doesnt get you, you aint human!! re7
ik vind een van leuk wie zouden wij trouwen, neuken en vermoorden? ★ met kaj
ik vind een van leuk telefoon en fietsen stelen in het openbaar!
ik vind een leuk leugentest moet martijn uit gierige gasten?! concentrate zie ze liegen
ik vind een leuk monica vindt het ongemakkelijk concentrate themixup
ik vind een leuk mcjuggernuggets came back!!!
ik vind een leuk leugentest gio latooy en monica fantaseren over elkaar! concentrate zie ze
ik vind een leuk magic photobomb prank!
ik vind een leuk the mcjuggernuggets diss track!!
ik vind een leuk a big surprise for angry grandpa!!
ik vind een leuk charlie escaped from jail!! prank
ik vind een leuk the truth about mcjuggernuggets!
ik vind een leuk hilarious! playing kids thanksgiving games oo
ik vind een leuk first snowfall of the year!
ik vind een leuk angry grandpa ruins thanksgiving!
ik vind een leuk this modaph#%ka going pee pee!! hello, neighbor alpha 2 ending!
ik vind een van leuk in shock en geëmotioneerd door enorme drukte tijdens limo
ik vind een van leuk mijn vader imiteert mij!
ik vind een leuk met maan &amp ruud naar de klote in villa concentrate
ik vind een leuk this b#tch got me f#%ked up!! home sweet home
ik vind een van leuk you have something on your pants!
ik vind een van leuk not funny!
ik vind een van leuk breedbek challenge! familie editie!
ik vind een van leuk falling off roof prank!!
ik vind een leuk the face swap challenge prank!
ik vind een leuk wtf is this!?
ik vind een leuk the mcdonalds hunger champ!
ik vind een leuk leugentest anna nooshin wil sex met katja schuurman! concentrate zie ze
ik vind een van leuk elkaar doen of elkaar vermoorden?! | q&ampa met gio
ik vind een van leuk 7 vs 1 np m8
ik vind een leuk why did mcdonalds send me this?!