en nu verdomme een keer vasthouden!💪⚽ 01
katja is niet zon fan van bhs gok ik?
iets meer body. das knap lullig waylon, aangezien die man probeert af te vallen..
ik wil een fashion statement maken! ik ga een zakdoek om mn armpje doen!
hahahhahahhaah. met je boyband. hoe dan!? je kan niet eens fatsoenlijk zingen
heeft die gozer geen wenkbrauwen ofzo?
ik houd wel van vrouwen. weet je t zeker gozer?
bekend in japan.. lekker daar blijven dan joh. met je zakdoek om je arm
mooi dorp, dat beilen👌
jones wordt zo langzaam maar zeker wel een zekerheidje. voor de tegenstanders.. vorig seizoen nog zo lekker bezig!
jezus wat ook weer slecht uitverdedigd. nooit door het midden.. dat leer je in de jeugd al..
godverdomme man.. gaan we weer lekker mannen??? allejezus wat slecht.
zelfs een niet scorende toornstra is waardevoller als een pingelende tapia
ik had amrabat centraal achterin gezet, toornstra op t middenveld en larsson i.p.v. boëtius.. desalniettemin come on boys💪⚽
dat wisselbeleid van gio... daar snap ik echt de ballen van. grijp eens in, neem eens risico! stel eens jeugd op!
schaam je verdomme kapot man..
het enige leuke aan dit programma alle reacties op twitter.
ik wil iets zeggen over deze vrouw, maar ben bang dat ik het hele kamp achter me aan krijg..
ik wist niet dat wortels konden zingen..
toppertje hoor die vermeer..
dus we moeten eigenlijk al met 20 voorstaan, maar kramertje kan geen amateurkeeper passeren vanaf 11 meter?
diks centraal?? als dat maar goed gaat..
dat domme gelul van de coaches om iemand over te halen.. een beetje kandidaat heeft van te voren allang een beslissing genomen.
ik zit net 5 minuten te kijken en heb nu al te veel tweets er aan besteed.. waarom kijk ik deze meuk eigenlijk steeds weer?
zijn dit ook broeders van andere moeders? met je freaking zonnebrillen..
je bent volwassen. doe die zonnebril af gek.. helemaal als je binnen bent
van beek weer geblesseerd. kut zooi, kon er ook nog wel bij..
die gasten doen niks anders als tijdrekken, maar de scheids fluit netjes af na 93 minuten. manmanman
kippenvel. steeds maar weer. dat moment van rust voor die 10. en dan dat gebrul van het hele stadion!
hoogtepuntje was de invalbeurt van sven van beek. viel sterk in💪
wat is die higler een zak stront zeg. ongelofelijk hoe inconsequent die man fluit..
vanmiddag zelf 30 gewonnen. nu onderweg naar de kuip! hopen dat zon zelfde uitslag neer zet💪⚽
met zn fucking handschoentjes. doe normaal man gek. wat een debiel gedoe weer.
gelukkig is deze celeb crush van mij al heel lang bekend bij mn vriendin👍😂
mn vriendin was niet heel blij met mijn enthousiasme over de dans van 😂😍
janssen én pröpper..😂 ik kan dus met een gerust hart wat anders gaan doen. alweer.
lekker hoor amrabat! speelt weer sterk vandaag💪⚽
fucking tapia.. wat doet die vent nog bij feyenoord?
godsallejezus man. zon bal moet er gewoon in verdomme.
manmanman.. wat ben ik blij dat nieuwkoop weer bijna fit is. wat een drama die diks
goddomme man. daar gaan we weer...
de eerste 3 minuten in ieder geval goed doorgekomen👍#napfey
tapia... godsamme man. hopen dat ie zich positief laat zien vandaag!
ballen tonen vanavond! come on boys💪⚽
diks, nelom, kramer, bilal in de basis. dan gebeuren er rare dingen.. zucht
20, zakelijke overwinning én een ronde verder👍
vitesse. hahah😂
ah. de wedstrijd is voorbij. daar komen de trommeltjes weer. klapvee publiek daar in eindhoven
zeer slap begonnen. toch trots op de tweede helft!
toornstra op rechts, amrabat op t middenveld woensdag. wat speelt die amrabat weer sterk vandaag
kuipers? ja inderdaad. die man weet zelf niet wat ie op dat veld doet volgens mij.
wat had ik nijhuis deze wedstrijd graag zien fluiten. niks geen gemierenneuk en fluit tenminste 2 kanten op.
lekker publiek ook die pisvee fans. na de 10 niet meer gehoord.
haps eraf?? ik had liever diks zien gaan..
en dit is dan onze beste scheids..
kuipers, blinde hond.. haps wordt omver geschoffeld door zon pisvee zak. manmanman
cocu en pisvee weten niet hoe ze met die extra man moeten omgaan.. met 10 man is feyenoord sterker. 11 moet kunnen
dan heb je geluk dat je er nog in staat.. maak je zon domme overtreding. achterlijke actie berghuis
goddomme man. mannetje dekken, hoe moeilijk is het!?
haps terug in de basis! thank god, geen nelom vandaag.
lichtpuntjes vanavond amrabat en boëtius. minpuntjes botteghin, vilhena
ja, lekker met je handje omhoog staan i.p.v. verdedigen.. dat voorkomt tegendoelpunten.
zijn we wakker? godverdomme man..
die de boer.. das er één van tempoteam of niet?
deze vrouw is 44 en maakt haar eigen sieraden. wauw😂😂
zeer goedkope en slechte imitatie van 1 tegen 100. wat een hippies..
een champions league lijn uitbrengen en vervolgens te weinig voorraad hebben...
zonde! dat zwarte sprak me juist meer aan als t groene trainingsshirt, haha.
hoogtepunt 2e helft steen, papier, schaar om te beslissen wie een strafschop mag nemen.
loss of power. flikker er anders wat van die blikjes redbull in.
man, wat een aanfluiting die vent. weet ie wel hoe ie moet keepen?
en deze keeper komt bij schalke weg?😂
steen, papier, schaar om te beslissen wie de strafschop mag nemen. heerlijk, haha.
en dat is 5! lekker hoor
mooi! debuut van touré uit eigen jeugd!
dat wisselen 5 minuten na rust heb ik nooit begrepen. wissel dan gewoon in de rust man.
wat een schot! lekker tonny💪⚽ 40
die zwarte shirts. zijn dat inloopshirts ofzo en dus niet te koop? heb eigenlijk wel belang bij zon shirt!
ik hoor je niet. ik hoor je niet. ik hoor, ik hoor je nieeeeeeetttt.
leuk hoor zon lijn. maar €100, voor een shirtje en broekje, met opgeplakt logo? doe normaal man..
het was niet best, maar 3 punten op dat kut kunstgras is prima.
staat die diks weer niet op te letten.. heeft ie geluk met zn tackle.
en dat had strafschop nummer 2 kunnen zijn..
is gewoon een strafschop hoor kuipers.. en dat is dan de beste scheidsrechter.
hij heeft toch zn kaarten meegenomen! werd ook wel eens tijd..
diks is eigenlijk net overal te laat/te traag.. hopen dat nieuwkoop snel hersteld is.
das gewoon geel hoor scheids.
7 miljoen voor larsson? das veel geld voor een wisselspeler...
larsson naar feyenoord? leuke voetballer hoor, maar of ie nou bij past..? ben benieuwd.
al die dames glibberen op hun stoel als arjan begint te praten over fossielen.. toch een verkeerd beroep gekozen😂
die rutte geniet nu al bij het idee van die huldiging morgen. mag ie toch zomaar weer wat dames zoenen.
zo dan. lekkere aanval wel hoor.
misschien had die keepster even naar held moeten kijken gisteren..
en wat wilde die kashia dan? een robbertje vechten tegen botteghin? wat een kneus die aap
eigenlijk al vrij.. maar als ik nu naar huis ga, mis ik de strafschoppenserie
speelde dat vrouwenteam nou in kroatië of in nederland vanavond?😂
het eredivisie seizoen moet nog beginnen, maar cocu lijkt nu al de eerste te zijn die ontslagen gaat worden😂
dat t verliezende team op t veld blijft staan en nog even gaat nabespreken. waarom!?😂 doe dat in de kleedkamer..
het is stil aan de overkant! ja, dat verstaan die engelsen natuurlijk niet..
in beeld bij laat m lekker oppleuren, ouwe krokettenvanger. bijlow is een prima 2e keeper voor die 23 maandjes.
verdient 5 miljoen.. ik verwacht binnenkort een akkoord met van persie? haha.
lekker hoor jordy, heb ik er nog één voor jou! what do ducks watch on tv? duckumentaries.…
vermeer geblesseerd. ha, dat maakt de keuze voor gio nog makkelijker dan ie al was.
blijft maar strooien met die gratis unlimited data bundels.. so ducking amazing! much love❤…
welkom in 2017.. doe toch allemaal even normaal met dat gedoe.
hey hoe lang duurt de storing op jullie site met ideal nog? ik wil morgen graag iets in huis hebben, maar dat lukt zo niet..
hahah, wat een gek joh die supporter😂
kylian mbappé is pas 18 jaar. das dus 10 miljoen per levensjaar! en hoelang voetbalt ie al? de voetbalwereld is naar de kloten..
180 miljoen. voor iemand die goed tegen een balletje kan trappen.. wat een belachelijk bedrag.
die vrouwelijke analisten zijn zowaar nog erger als de mannelijke analisten.. mijn god, wat tenenkrommend slecht.
well, looks like we wont get shit today..
st. juste en haps.. tja, ik weet t nog niet hoor. gio toch te weinig vertrouwen in woudenberg?
gister jarig, dit is toch wel t beste verjaardagscadeautje. gelukkig weet mn vriendin jullie ook te vinden…
wat een held! 💪
onderweg naar putten! en dat op mn 25e verjaardag. lets go
ik word morgen 25. wat doe je dan? juist, naar een oefenwedstrijdje van in putten⚽❤
opstartproblemen.. we hebben er allemaal mee te maken. fijne dag!
neus of niet. dit gun je niemand.
thanks voor die 48uur unlimited data acties. echt super chill!
top thanks! kan ik binnenkort shinen in mn nieuwe zwembroek 💪
kicken dit mannen! maar hoe vallen die dingen uit? groot of klein? heb niet zon dikke reet namelijk
nee man, houd op. ik vind t een van de lelijkste uitshirts van de afgelopen jaren.
overigens vind ik dit uitshirt echt fucking lelijk. één van de lelijkste in jaren..
met trots presenteren wij iets dat al maanden bekend was. lekker bezig hoor..
godverdomme zeg. het uitshirt wordt gepresenteerd. want die had niemand nog gezien.. wat een aanfluiting weer😂
wat weer een kansloze actie weer. lekker gewerkt daar op die promotie afdeling. manmanman
ooit een knappe japanse vrouw gezien? precies! ik ook niet..
een dag nadat hij wéér over een miljoen is gegaan.. rust zacht kleine grote baas. je bent/was een inspiratie voor ons allemaal
ik weet dat de nederlandse zomers vaak tegenvallen, maar om nu al te waarschuwen voor ijs?😂
leuk hoor zon eerste training, maar daar hoort toch gewoon publiek bij te zijn?
vanuit het reuzenrad gisteravond. lijkt haast wel een ansichtkaart.
groot respect voor alle hulpdiensten, maar in t bijzonder voor deze mensen. uk vond het geweldig!
hee waar blijven die nieuwe uit en thuis shirts? of wachten we lekker tot in de winterstop?
beter hebben jullie mijn verjaardagscadeau al gekocht🤔
omfg dat ballonnetje als er iemand op je tweet reageert
overdreven kind.
dat kindsterretje? wat een buttje zeg, toen en nu ook nog😂
overigens is die maan ook weer eens bloedje irritant. voor de verandering. wat een akelig kind.
nieuw vriendje? gelijk dumpen die lul🖕
ik zit hier te wachten op de livestream van waar blijven ze
haha speelt nu ook seven nation army en het hele veld schreeuwt alle duitsers zijn homo! dat wordt ook we…
hahah, lachen we even mee? sorry hoor, maar dat kan echt niet meer. sorry hoor, maar wat een belachelijke recensi…
nu nog via een livestream, over 15 dagen live zien in de 💪🤘
waar zijn mn fucking credits dan? ik wil erkenning voor dat filmpje🖕😂
eerste keer gisteren. wat een ervaring! en wat een afsluiting van 🤘
is dat mijn filmpje?🤔
komt goed! blijven positief, haha.
we rijden nu weer. weliswaar in duitsland, maar ik vertrouw erop dat de chauffeur de weg weet!
navigatie laat onze buschauffeur in de steek. gelukkig hebben we tegenwoordig allemaal een mobiel bij ons..
dus biebert doet eigenlijk waar ie goed in is, begrijp ik? playbacken in een trainingspakkie? wel sneu voor al die bakvissen
misschien een idee om van die supervette trampolines te plaatsen? niet voor jou natuurlijk, maar voo…
overigens gaan er geruchten dat er binnenkort leeuwen, pinguïns en olifanten te zien zullen zijn in hellendoorn en walibi.
kom op zeg.. een achtbaan in een dierentuin. wat een onzin. whats next? paintballen in musea? squash in een lampenzaak?
wildlands krijgt een achtbaan. naar verluidt kijken alle dieren al uit naar de opening van de achtbaan.
hij heeft helaas zn tweet verwijderd, maar gelukkig hebben we de fotos nog! geen prijs gepakt, maar wel de beste…
spreekt voor zich😁
geeft helemaal niks hoor die frustratie! niet iedereen kan van united winnen..
waar die drie kruizen voor staan? zeg t maar!
over 21 jaar komt er heus wel weer een finale voor jullie! misschien dan wat meer kans.
geen knvbbeker, geen landskampioen, geen europa league. maar nee, jullie zijn echt de beste😂 lazer toch op man.…
niet iedereen kan winnen van united natuurlijk...
dit.
naast nieuwamsterdam hebben we binnenkort ook... 😂
maar we hebben al een nieuwamsterdam😂
hahah, de waarheid doet zeer of niet soms andré?
heerlijk hoe die arrogantie wordt afgestraft, want ze zouden wel even gaan winnen van het zwakke manchester.
niet elk elftal heeft een kuijt😂 01
topkwaliteit van de gasten van
dat gaat zeker goed komen!
thuiskomen en dit zien hangen in de slaapkamer. ik heb een top vriendin!
ik zap net even langs holy fuck man, daar zit minder verstand in dan een baksteen! totaal geen niveau, bij beiden niet.
toch lekker de deur uitgaan op deze manier!
held, bikkel, mooi mens, legende, maar bovenal kampioen! dirk bedankt voor alle mooie momenten 🔴⚪
lee, ouwe gek!
ik had die man het zo gegund om dit kampioenschap met zn pa te vieren! mocht helaas niet zo zijn..
feyenoord zit diep. das voor de meesten niet te begrijpen. feyenoord is een religie. 🔴⚪
zo. dat enthousiasme droop eraf hoor..!
jodelen. das toch alleen voor mensen uit oostenrijk/zwitserland en niet voor gipsys?
die jurk.. zijn daar ook gordijnen van? vraag ik voor een vriend.
die presentators.. tenenkrommend slecht zeg. nog erger als geer en goor
doet u mij nog maar een burgertje.
laten we t er maar op houden dat ze zelf ook, uhhh, uniek is.
ze houdt van afwijkende muziek. ja, dan zit je wel goed bij deze poppenkast.
reclame of wachtmuziekje?
de rode kaart waarvan je wist dat ie zou komen.
ik kan niet de enige zijn die zich stoort aan het feit dat die ene meid met de lange broek niét in het midden staat..
en dan zeggen ze dat homos niet normaal over straat kunnen in oekraïne..
ik blijf erbij dat eens naar die poppenkast gestuurd moet worden. en niet zon belachelijk damestrio
alle idioten die vandaag hebben lopen rellen en morgen al een vrije dag hadden, kunnen mooi helpen opruimen morgen!
wat een held💪⚽
thanks dat wordt knallen dit weekend💪⚽
plek voor 140.000 man bij de huldiging? en die andere 100.00 man dan
treinkaartjes binnen, rotterdam here we come! niet in de kuip helaas zondag maar wel present! 💪⚽
en dan is dit nog een van de goedkope kaartjes.. waarom niet vragen om identificatie bij de kassa!?…
van geel is lekker bezig hoor. mag best gezegd worden!
throwback naar de keer dat mij blokkeerde, omdat ik wat negatiefs over zn dino show zei!😂…
omdat er geen fuck op tv is en dit nog een klein laagje van humor heeft.
wendy behandelt iedereen als een klein kind. maakt geen fuck uit hoe oud je bent.
ik erger mij behoorlijk aan die middelste vrouw. een soort nederlandse amy schumer. ook niét grappig en net zo strontvervelend
hangen met zn broeders van andere moeders. jeweettoch
die brownie en roelvink zijn niet erg slim, of wel? en dan druk ik me nog netjes uit
wil ie zeker ook een fucking buurthuis?
is dat een van die roelvinkjes? wat een droeftoeter..
brownie met zn zonnebril.. dude, je bent binnen. zet m eens af.
gelukkig nog net de 01 kunnen zien, dus helemaal prima👍
lekker vol ook weer daar in arnhem..
thanks voor deze voetbalmiddag! beetje jammer dat ik mijn feyenoord straks moet missen i.v.m. werk🙁
arbitrage laat weer eens flink te wensen over..
zoveel kansen, zo weinig doelpunten.. zucht
je vlogt en je weet amper ergens wat vanaf? gefeliciteerd, je mag op tv komen.. wat een onnozel gedoe
die reactie van buffon. prachtig!
is ed! kun je vast wel waarderen dacht ik😂
feyenoord uit, of feyenoord thuis. blijkt maar weer dat daar een wereld van verschil in zit..
nelom, tapia. met zulke figuren word je toch nooit kampioen!?
fucking nelom. trap die vent alsjeblieft uit de basis!
die mag er in hoor jens..
tuurlijk, wat jij wil joh.
die nelom speelt elke week weer een waardeloze wedstrijd. dat moet gio toch ook zien?
dit was gewoon een strafschop hoor.. manmanman
godsamme gio! je ziet toch zelf ook dat zwolle een snelle voorhoede heeft? en dan deze verdediging opstellen..
in tegenstelling tot de kaartverkoop van metallica was ik er nu wel snel doorheen! ik ga naar en 😁🤘
twente fans op dit moment
bizar! dit kon niet wachten tot de 90e minuut ofzo? verplicht het stadion voortijdig verlaten, maar betaald voor een hele wedstrijd..#twepsv
haha, sorry rik! geen idee waarom.. ik gok dat het iets te maken heeft met die 8 doelpunten? dat ze daar…
viergever krijgt ook een schorsing aan zn broek neem ik aan dit was net zo zeer een slaande beweging als die van vilhena
tom egbers doopt eigenhandig die betonnen bak tot johan cruijff stadion?
die mentale tik hebben ze echt wel ff last van gehad.. zon 9 minuten ongeveer.
aan het doelsaldo zal het in ieder geval niet liggen. nu verdomme eens de lijn doorzetten de komende wedstrijden!
ssst, die maffe neusjes hebben niks door
zie hier. tyfus en niet tyfes👍
en wat doe jij dan op dit moment?😅 iets met een pot en een ketel..
ik zie verschillende neusjes janken over competitievervalsing😂😂. waar is jullie hosanna stemming gebleven jongens?
hahah ja hoorrr! de verdedigers gaan zelfs scoren nu! 60💪⚽
hahah. 50 ruststand! lekker mannen. veerkracht!💪⚽
zomaar even een artiest op een andere dag zetten. niet cool
fucking hell! ga je naar de zondag op voor en zetten ze sum41 ineens op de maandag.. mooi kt!
dat je verliest, prima. maar die eerste helft.. kom op zeg. geen greintje bezieling te vinden in t spel van feyenoord
krammeeerttjeeee! hoe dan!?
je staat 02 achter, wilt graag kampioen worden en wisselt een verdediger voor een verdediger.. laf gedoe
arie geel met dank aan nelom. wat een idioot.
de beste scheidsrechter van nederland. yeah, sure. grootste inconsequente mafklapper
hee kuipers, zakkenwasser. geef die klaassen ook geel dan, laffe tak!
ze spelen ook gewoon dramatisch. overal te laat en geen wil om te winnen
tapia!? man, en het liep al zo lekker op t middenveld..
willen ze wel kampioen worden? wat een ongeïnspireerde bagger de eerste helft man!
totaal geen inzet. overal te laat, kort dekken doen ze niet meer aan. waardeloze pot zover
goddomme man. ooit van verdedigen gehoord mannen!?
kuipers, wat ben jij een ongelooflijke hondenlul. pedant eikeltje. waarschuwing volstond hier
doe ons allemaal een lol en schiet er 2 in vandaag kramer
nou, dit kunnen we vergeten dus..
nooit je klauwen terugtrekken jones!
heeft iemand het adres van t ziekenhuis waar pogba ligt? wil m even een bloemetje sturen na die poging tot doodslag van
hahah. wat een belachelijke uitspraak zeg. hoe gaat t trouwens met pogba? is ie al uit zn coma ontwaakt?
iemand straffen om het straffen.. goed bezig hoor. wat een stel debielen daar in zeist.
we waren op de goede weg. bulgarije uit was een incident. die man is compleet van t padje af.
bulgarije was een incident. ja hoor, net als al die andere nederlagen zeker?
hehe. eindelijk eens goed nieuws omtrent
luuk de jong.. als je depay op de bank hebt zitten..
lekker bezig blind. wisselen.. had al niet eens moeten starten, of bij oranje gehaald moeten worden
tja.. hoedt had natuurlijk al in de basis moeten beginnen! nu maakt blind de ligt helemaal kapot door m te wissele…
nee, die de ligt moet echt in de basis staan!
de ligt ipv hoedt. een eredivisie verdedigertje boven een seriea verdediger.. klinkt volkomen logisch hoor🖕😂
hahahhahahaha. de ligt in de basis😂😂 wat een idioot gedoe! blind is niet goed wijs.
kom nu maar door met een 3e concert dan..
een uur naar een fucking cirkel gekeken. ben ik eindelijk door die wachtrij, zijn alle kaarten weg
dit is wel heel lekker hoor. bedankt
3 keer doodgegaan, maar de 3 punten zijn binnen! lekker boys💪⚽
dus. mulder mag van higlertje wel tijdrekken, maar jones niet?
tududududuu michiel kramer! trap er eens één in vandaag gozer💪
mooi om te zien hoe kuyt intens mee leeft vanaf de bank! passie.
wat zat er in die thee? feyenoord geen vlaag van de ploeg in de eerste helft. gelukkig maar💪⚽
lekker hoor tonny!!
werkelijk waar. iedereen ziet dat die nelom het niet kan brengen, behalve gio. tegenstanders maken er gretig gebruik van.
buitenspel vanuit een doeltrap.. kijken we even mee kan toch nooit man.
ik zie vooral potentie voor hem ergens op de bank. bij hem thuis. wat een waardeloze voetballer
fucking nelom! haal die zak er alsjeblieft uit en stel m nooit meer op.
zijn we goddomme wakker? stelletje luie honden
de ligt. viergever, tete, janssen😂😂 net als je denkt dat niet lager kan zakken.. wat een droeftoeter!
die vent die zat te dabben. kan die het land uitgezet worden? dank u! met je kuthype.
nee, die dolberg is de beste deen in de eredivisie, overduidelijk 🖕#feyaz
op werk luisterend naar genieten
dat wordt dus nelom achterin.. 😑
enige logische actie die je als club kunt doen
wat een fucking bullshit
training klaar. nu naar kijken!💪⚽
vincent janssen wel, maar van persie niet? hahah. wat weer een lachertje deze voorselectie. stap nou op man
pisvee is de lachende derde dit weekend.. 1 punt inleveren op die neuzen, handjes dichtknijpen en bek op t stuur!
bedankt!
als je dan zo in komt, zorg dan ook dat die vent niet meer kan opstaan..
nu maar hopen dat groningen in goede doen is vandaag..
die vent pakt nooit een bal en keept uitgerekend vandaag de wedstrijd van zn leven..
100.000 300.000 eu per club dacht ik. en anders moet de knvb zelf maar meebetalen.
kijken we even mee kleine moeite om in elk stadion doellijntechnologie toe te passen!
en daarom doellijntechnologie..
bilal, donder lekker op man. doorbijten laffe tak!
zoveel corners en er geen fuck mee doen..
goddomme man.. wat een klote pot
dirk is een held, das zeker. alleen toornstra verkeert in een betere vorm. logische keuze dus. 3 punten mee naar de kuip mannen!
het blijven amsterdammers.. apart volk