volgens mij nog een zeeuwse club met 2 teams aanwezig in kluntert
bevelanders jo91 heeft genoten van weer een top toernooi met mooi wedstrijden in poule 2 💪⚽️
waar wordt bekerfinale mo15 en jo11 9x9 gehouden?
gefeliciteerd jo131🎉. waar kan je vinden dat finales in klundert zijn?
was mooie belefenis voor de kids zeker voor herhaling vatbaar en nogmaals groot compliment aan organisatie
mooie middag, goed georganiseerd 👍
vanmiddag naar met de boys ⚽
niet fit😖 hopelijk morgen weer beter
straks richting met jo91 voor toch lekker een wedstrijdje voetballen. ⚽👍
kloetinge jo112 staat er 2x tussen 😉
schandalig, met kunstgras straks geen last meer van 😉
bij bevelanders kalken we zelf de lijnen!
je dag beginnen bij de tandarts 😖
bevelandersjo91 winnaar van anwbspelersbus! zaterdag worden ze met supporters,leiders naar gebracht…
kunnen wij als bevelanders ook bekijken want kunnen ze niet vinden hebben tegrn jo9 gespeeld?
wanneer word de beker indeling van jo9 tot jo11 bekend gemaakt?
jo9 zijn fjes en jo7 zijn minis volgens de begrippen van de knvb volgens mij kloppen de lijstjes bij jullie niet?
ik kan jullie geen dm sturen omdat jullie mij niet volgen
naar wesley gekeken die hoofdklasse bekerfinale speelde met kloetingee1, verslaan de grote jongens van tgg met 80 neefje scoorde hartick⚽️
gefeliciteerd met je sweet 16🎉
straks een ochtend op toernooi bij vvnieuwland met de toppers van bevelanders f2 ⚽️
898 doelpunten bevelanders f2
suc6 neefje ⚽️ laat de grote mannen maar eens zien hoe goed je bent
wanneer zijn de bekerindelingen voor de jeugd bekend?
wie moet er nog stikkers voor in het freek vonk boek? hier heel veel dubbele
zorgcentrum sandenburgh
bevelanders wint topper tegen jong ambon
rustig dagje morgen, de minis vrij en zelf niet kunnen voetballen wegens blessure
onderweg naar de kuip met william, melvin, martin, richard, jolanda en mama
waar kan je die indeling vinden?
wel een schitterende vrije trap maar als je zoveel geholpen word door het arbitrale trio word nog een benadrukt
hee gaan je pa en ma naar de bruiloft? vraagt richard
heerlijke goal
bevelanders f2 wint finale met 21 van cluzona f2
pff en dan word je gewoon weer met je neus op de feiten gedrukt
bij wie moet je voetballen? dauwendaele toevallig?
voormalig barcelonatrainer tito vilanova heeft na twee jaar de strijd tegen kanker verloren. hij is 45 jaar geworden
jullie kunnen zaterdag al kampioen worden want wik heeft verloren. als je gelijkspeelt of wint zijn jullie kampioen
wat ga je doen ?
axelse zaterdag voetbal vereniging
komt goed nog veel plezier in spanje
en als je het een keer terug wil luisteren kan ik de dienst wel op cd zetten
het was een mooie dienst
wel winnen he dan staan jullie 3 punten los van de nummer 2
gefeliciteerd met uw verjaardag
had het sven wel echt gegund
rt nieuwe in
gefeliciteerd met je verjaardag en een leuke dag gewenst
als ik ook een keer niet verkouden zou zijn pfff
veel succes vandaag
onderweg naar de kuip met rich, marinka, mama, melvin, wesley en onze kline hooligan william
word mooi dagje morgen william voor het eerst naar de kuip
hoe begin je 2014 met een afspraak bij de doktor
gewoon klaar wakker en niet meer kunnen slapen
moet je morgen fluiten in de zaal?
deed die het niet zag je zolang staan bij dat apparaat
dat is begrijpelijk. doe ook de groetjes aan tante marry en hopelijk zien we elkaar snel weer gr ook van papa en mama
dankjewel ja de tijd staat niet stil. hoe is het bij jullie mooi gebaar van doskampen voor jou inzet en voor heel je gezin
hoeveel hebben jullie opgehaald voor maaike
uitslapen kent mn lichaam niet meer volgensmy me2
armenteros op de eerste vlucht richting brussel. hopeloos.
die femke moeten ze echt uit gtst gooien en snel
ook nacjeugd waait uit in zeeland kamperland is voor het eerste van nac al een favori...
die schoenen heb ik ook dan alleen in het grijs
volgens mij niet zaterdag reden bussen gewoon door veerweg
wat hebben wolfaartsdijk mini kapelle mini gedaan afgelopen zaterdag?
wil je wel scalda goes blijven?
moest of eigen keuze kan ik je miss helpen met andere opleiding?
gestopt met opleiding?
ruststanden 4de klasse a?
waarom stop jullie trainer ? je pa ?
wij komen gewoon in korte broek en tshirt naar nederland en dan hopen op een zonnetje
is het zo erg koud in nederland ? in greece is het gewoon 30 graden gaat dan morgen tegenvallen als we terug komen
dankjewel gaat goed komen hoe is het met ezra?
laatste dagje thuis vannacht op vakantie
kijk even dm
waar loop je stage ? in wsk bij zonnekind wervelwind?
heb je wel netjes gemaakt die arm bandjes
ahh beterschap dan en hopelijk is het niks ergs. moet je blijven? xx
dat is niet best hopelijk niet voor je zelf
rt als ik zo eens naar buiten kijk wordt het de perfecte dag om om 13 uur de rommelmarkt in te bezoeken.
volgens mij is het gaos bij roompot de banjaard
heel veel sterkte en we leven met jullie mee gr van ome rini en tante joke
okee gelukkig is weer een meevaller. maar veel plezier op vakantie voor jullie allemaal
heb je al aquarium ? ik heb er nog wel 1 in de schuur staan
gefeliciteerd met je verjaardag en sterkte voor jullie allemaal
daar passen de meest lijken wel in p
ook dacht al anders zou ik vanavond voor niks naar de voetbal gaan maar suc6 den en jullie kunnen het vanavond
ik word steek meer zenuwachtiger voor morgen kampioens wedstrijd!!!!!!!!!!!!!! vanavond toch??
lekker geregeld allemaal dan dat je voor niks er was
hopelijk gaat het volgend jaar beter en suc6 met je gezondheid
ah klote maat je gezondheid gaat voor alles maar moet je nu ook je schooljaar overnieuw doen of dat nie
jammer dat je weg gaat moest je stoppe
morgen nog een avond stage en dan lekker 2 dagen vrij
heerlijke overwinning van feyenoord op heracles
geweldig me neefje zegt ze gaan scoren en pelle scoort nog ook
weer door me knie gegaan morgen en zondag een avond dienst op stage
ja reed langs in de auto je stond daar bij clau haar opa
stond jij nou vanmorgen in de veerweg ?
hoe stom kan je zijn? heel stom dat zijn acties van het scalda haha
godverdomme klote wedstrijd
schaken moet nu heel de wedstrijd vanpeppen opzoeken die kan toch niks meer doen
heerlijk roda maakt gelijk in blessure tijd tegen vitesse
jarig gefeliciteerd!
wat is de stand
rt dit valt zooooo zwaaaar..
klaar met stage. nu me bedje in. wat kan je er aan veranderen? niet in het water rijden
haha ja hoor heb er geen last van ze zijn rustiger dan jou ...
omdat ze schuin naast me zitten
en je pa en ma zijn ook uiteten volgens mij haha
goed gedaan tegen wie moest je?
suc6 en winnen he
toch is het een andere pasen maar gelukkig wel gezellig gehad en in gedachten bij me tante die in tervalcke is
hoe stom kan je zijn je helpt de tegenstander even met de 20
ik ben wakker maar daar heb je het ook mee gehad
komt allemaal goed xx
met een wagen volgeladen omw to goes
hee neefje gefeliciteerd xx
rt 3 punten voor feyenoord
op verjaardag bij en
jaja lekker bezig heerenveen 10
weet niet er zijn er geschorst dus miss wel speel minuten
je heb vanmiddag nog een kans bij het 1ste
er zijn al veel wedstrijden afgelast
wedstrijden die afgelast zijn bevelanders f1, e2, e1meiden, d1, d1 meiden
poging 1546749...... om te slapen
ik ga toch maar proberen te slapen zo lang het nog kan
nee liever niet maar toch een extra weekje vakantie had lekker geweest
haha ja alleen beetje jammer dat we morgen gewoon om half 9 op school moeten zijn
ik lig wakker in me bed, hoofd vol met gedachtes, de tijd tikt langzaam door .. jup ik heb slapeloze nachten rt
rt 69. gooooooaaaaaaal!! grazianoooo pellè!!!! hij laat de kuip ontploffen! 21!
je was zo sterk maar dit was een ongelijke strijd! rust zacht leon
was emotioneel maar het afscheid was mooi &lt3
rijbewijs gehaald
sterkte de komende tijd
hee wil je praten?
zag je berichtje nu pas maar het is zeker heftig allemaal
sterkte naomi ben er voor je als er iets is kan je altijd komen xx
rt ik word heel heel langzaam gek
binnen een paar seconden staat het leven op zijn kop! met zo een hechte familie
de 13 staat voor ongeluk maar 2013 is echt een kut jaar tot nu toe
waarom is het leven zo oneerlijk $
ik weet ook verder nog niks van me stage krijg je meestal 1 of 2 weken voor je moet beginnen pas bericht voor kennismaking
zag je naam staan tussen het rooster maar wist je nog nie waar je stage moet lopen
bekijk ik net het rooster voor me stage zie ik dat ook stage gaat lopen bij
heerlijk feyenoord gewonnen en ajax gelijk nu moet twente nog verliezen
rt 25. goal feyenoord! prachtig schot van boëtius verdwijnt na mooie aanval in de verre hoek 10 voor feyenoord!
sneeuwt het in colijn?
gefeliciteerd!
seizoen 11/12 thuis tegen sc heerenveen het werd 34
en weer gaan werken van 8 tot 2
morgen weer vroeg werken
zeker en vooral deze persoon of personen mag je afkraken is goed voor hun
is in de mensen afkraak fase maar wel terecht
hopelijk heeft mertens zo goed geraakt dat die uitgevoetbalt is dit seizoen
blijft leuk die reclame van diergaarde blijdorp rt
fc emmen speelt met dierenpark emmen op het shirt
rt wie kanker heeft, heeft maar 1 wens, genezen
innovatieprijs biologische landbouw voor boerderij de korenschoof kamperland
ze zijn allemaal optijd vertrokken uit kland
sommige mensen gaan tweeten ajax is me club maar ze kijken alleen samenvattingen
wat wil je voor opleiding gaan doen?
heb je al nieuwe stage
10 uur en dan 12 uur
heb je 5 over 10 uit? want hoe het er nu uit ziet rijd de bus van 11 uur van goes naar klant niet
dan zit ik gelukkig nog op school nee heb vertrouwen in jou
hoelaat?
afgelopen 10 verloren
nog steeds 10 achter en het is zo afgelopen
10 achter was het net
het gevoel als of ik vannacht gewoon niet geslapen heb. jij ook al
dan ook voor alle stoelen betalen he
het loopt weer lekker uit bij de tandarts
voorspelling 2 kloetinge eindigt boven eens boven hoek
beterschap hoe is het gekomen?
dankjewel! jullie ook veel liefde en gezondheid gewenst
ben het nieuwe jaar wel eens leuker ingegaan pff ziek op bed
sterkte
ooh gelukkig hopelijk valt het mee
toch niet met vuurwerk gestunt?
super pot darts van gerwen naar halve finale
ik kom kijjen hoe jij iedereen dolt
moest je tegen bart voetballen
nee wij doen niet mee
dat is ook weerzo
pelle is de man in rotterdam
ik kan gewoon niet meer uitslapen
naar de kerstmarkt ? wij gaan vanmiddag rond half 4
jazeker
ga je gelijk om 5
hoe kom je kerstborrel? bus of fiets
zeker gezellig alleen met die handigheid van jou vandaag weet ik nie of het goed komt
ja wss wel
ga jij en kyl naar de kerstborrel
ben jij al school ? wij zijn namelijk kwart voor school
wie gaat er eigenlijk sinterklaas vieren op 6 december! juist wij ja met de klas en dat op het mbo
gefeliciteerd met de overwinning op steenbergen
we appen zaterdag wel
hoelaat ben jij haven zaterdag? het begint half 1
rt@levijvoz ben er voor ookal zal hij dit niet lezen respect
ajax begint al lekker ook al is het me club niet hoop ik toch dat ze winnen
beterschap! moet je lang in ziekenhuis blijven?
hoelaat heb jij morgen bus?
ja maar ben vandaag nie thuis moet je trainen vanavond?
wat heb je gedaan?
yeah weer op voor sprong
heerlijk goal van pelle
ik kom morgen dat papier brengen want dat moest door iemand getekend worden en die was met vakantie
heerlijk keer op tijd in me bed! goodnight everyone morgen geen wekker hoeven zetten heb een levende wekker bij anne en william
bevelanders 3 en bevelanders md1 zijn afgelast
fitland in de fik
file op de deltaweg richting goes
mooie goal van ajax
mooie aanval bekroond met een doelpunt iniesta 11 barcel
jammer hoor dat alles weer het zelfde gaat al de afgelopen 2 jaren
echt slecht geslapen heb het 3 uur zien worden en nu al weer wakker
bij de voetbal is voor de jeugd kunnen ze punten mee verdienen voor maatschappelijke stage terrein schoonmaken tribune enzo
waar halen kleine kinderen die energie vandaan zo vroeg
bruno maakt de 20
mooie redding van stekeltje
lekker bezig nederland doelpunt van jermain lens
moet je nog werken deze week?
weer aan het werk van half 8 tot 2 uur
het regent/hagelt zo hard kan niet eens horen wat ze op tv zeggen
denk jij dat het gaat lukken dan $
ja snapje volgens mij iedereen wel maar er moet wel iets veranderen want zo red ik het geen heel jaar laat staan 3 jaar s
lekker bezig nederland doelpunt
heey danielle heerlijk eh weekje geen gezeik
batterij leeg en geen oplader
yeah de eerste studiepunten zijn binnen
waar en waneer? ben me geduld aardig aan het verliezen op school
kan je die cursus ook aan mij geven
veel plezier in barcalona
alle wedstrijden op sportpark campen zijn afgelast alleen bevelandersvlissingen gaat nog door
ga je stoppen bij rijckholt?
dan is het alleen jammer dat zo een wedstrijd anderhalf uur duurt en shirtje wissellen nog niet eens 5 min
daarvoor kijk jij alleeb maar voetbal voor het shirtje wisselen
ben je morgen heel de dag vrij moet je als nog om 8 uur uit me bed beetje jammer zegma
ja dacht wel dat jullir het waren maar waarom mocht je nie voetballen
zo naar de voetbal kijken bij en of ze gaan winnen
zo nog dagje school van half 11 tot half 4 en dan eindelijk weekend
okee ik heb wel eens in die barakken les bij hoofdgebouw omdat er te weinig lokalen zijn op roc maar daar stinkt het wel in
haha okee beter roep je volgende keer gewoon zit je in zuid?
waar zag je me maandag nou weer ?
zeker kut misschien dat ik vraag of ze wil ruilen want in valkier is het zwaarder dan in landhuis en heb nóg last van me knie
nee jammer genoeg niet sta in valkier en jij in het landhuis met je beste vriendin haha ga geen namen noemen
nee jammer genoeg niet sta in valkier en jij in het landhuis met je beste vriendin haha ga geen namen noemen
ja zat achter op de scooter maar je zag het nie
ja zag het we haalden jullie in op de brug
was lekker aan het fietsen rond kwart over 2
waarom heeft iedereen het over regen! in kamperland schijnt het zonnetje lekker
rt al dat geslijm op twitter word er niet goed van! doe het in privé berichten.
anders is het is even warm in de bus
het is veelste vroeg
zo naar de voetbal beter wint bevelanders de derby tegen colijn
fijn steeds meer last van me knie krijgen
wat hebben ze nu weer fout gedaan
het stink hard naar wiet in de bus
goed bezig
ooh das niet fijn beterschap ja met mij gaat het goed
wat heb je gedaan omdat je nie mag voetballen
en alweer lekker thuis
bevelandersb1 staat 1ste na 140 overwinning op mzc11.
spullen pakken en zoal naar de voetbal eerst nog even helpen in de kantine en dan zelf voetballen
suc6 en wel winnen he
effe snel douche en dan weer gtst kijken
celine gaat ook bij goes voetballen
omkleden en richting training
wat was er eigenlijk gebeurt dan
in diit geval was de fiets sneller
mag je een uur eerder van school sta je. als nog stil omdat er een autobrand is gebeurt
was lekker aan het fietsen
goodnight peeps morgen weer school van half 9 tot 5 uur
zo en we hebben weekend
gelukkig lekker weer naar huis
gezellig
zo lekker ik bus van half 8 al en die van half 5 terug
hoelaat moet jje morgen beginnen?
rt@sdbvvkloetinge nee wissel cisse maar zeker tijd voor achabar
zo lekker gevoetbalt
zo voetballen jongambonbevelanders
happy! gewoon bij blijven voetballen
met de bjongens
wel lekker getraind!
richting de voetbal
vanavond gaan trainen
kloetinge wint dik verdient met 31 van topklasser evv volgende ronde kloetingetelstar
zo lekker gegeten zo richting kloetje voor vvkloetingeevv
iedereen weet zijn rooster al ik wil me rooster ook weten
zo wat ligt mijn bedje lekker na een avond knallen met
en wat hebben jullie gedaan?
suc6 met voetballen tege jvoz
voetbal kleren
rt@michellex3 heb je dan eindelijk weekend, moet je er vroeg uit voor de voetbal..
bijna klaar met oppassen dan naar huis en lekker me bed in alvast
dat mensen het zo verlaten komen
rt stopt de muziek! deze tweet zo snel mogelijk! de 250 snelsten gaan door naar de finale
nu al je boeken nog gaan kaften
moet er echt rt voor de tweet. komen te staan of is retweeten zonder dee rt oookk voldoende voor de volgende ronde?
ja zeker en ik heb doe koptelefoon gegrepen. d