en alle supporters gefeliciteerd met de mooie overwinning op de neuzen👌 dadelijk krijgen ze nog een complex van jullie
twijfel of ik de laatste wedstrijd van de zal gaan kijken🤔 wordt dan wel erg laat
waarom kijkt jones niet naar de bal🤔
bij de fjes leer je niet door het midden uit te verdedigen, wat doet amrabat 🤔😓 2de keer
zei het gisteren toch, je gaat winnen, gefeliciteerd , als een kampioen gereden
wat fluit die slecht🤔
k.t, schijt duitser 🤔 maar top gereden en hoop op karma voor vettel
en dan ook nog eens achter de man 🤔
helaas, anti voetbal wint van attractief voetbal mourinho heeft de bus van chelsea overgekocht🤔
sterkte man, ook hier kom jij sterker uit!
knieperd 😉😂😂
ze motten zich kapot schamen! 😡 ga gvd eens normaal voetballen
ze selectie en staf mogen van de week beginnen met het vertrouwen terug te winnen!
laten zie die van bronckhorst eens leren hoe je tactisch speelt!! flapdrol met zijn diks en boetius 😡
we spelen slecht, maar die jezus wat is die bedroefend 😩
hoop dat dit goed gaat🤔 centraal maar no matter what
gun alles, maar momenteel is los zand, geen systeem te bekennen
ze zit niet maar staat op de trappers😉
beide personen hadden met rood van het veld gemoeten echter scoren beiden
inderdaad, een fantastische serie😃
trots op mijn club gestreden tot het einde!!
terechte penalty voor scheids had wel rood mogen geven
volgens mij is de scheids een beetje op de hand van chelsea 🤔 fluit twijfelachtig
in voor en tegenspoed blijven we achter onze cluppie staan
verdiend verloren, bilal en van de heijden het slechts! streep onder en volgende week weer 100% inzet
trots op mijn voor de tweede helft!
je boort ons gewoon 2 penalties door de neus😡 meten met 2 maten waardeloze scheids!!
zijn we toch al jaren van hem gewend🤔
gewoon achterlijk stom
wat een achterlijke verslaggever bij
inderdaad, en dan doet niet mee tegen mci🤔 hopelijk dan geen kramer!!
serieus kramer, slecht spelen kan, maar toon dan op ze minst inzet en loop niet als een zoutzak op het veld😠
en wanneer gaan jullie de echte problemen aanpakken?
waarom wordt geen coach? irritante verslaggever, meent het altijd het beter te weten
fantastisch van maar is buitengewoon!! wat een kwalificatie
en bij xs4all.nl??
oranje speelt als een amateurclub in de 5e klasse🤔
bestaat die 6 seconden regel eigenlijk nooit wel??
zou zeggen erin😂😂😂
zijn er problemen? kan niets afspelen?? 🤔
hij is zo goed die 😃😃 ken al zijn albums bijna uit mijn hoofd
groot respect voor !! maar terechte winnaar die
mis de power bij die hij normaal wel laat zien🤔
zie dadelijk nog met zijn knieën naar voren vliegen
in oranje? willen we ons dan echt niet kwalificeren voor het wk?
gefeliciteerd met de meer dan verdiende prijs
en dan in mei 2018 naar kiev 😃
weer een feestje bouwen in manchester 😃 regel jij 😉
mijn held in het buitenland!!
zie ik het verkeerd of fluit van boekel alle duels van nac af en laat hij psv ongestraft??
hoe slecht is groningen? en bij zon achterstand nog gewoon met 10 man op eigen helft🤔😕
slechte wedstrijd, maar 3 punten zijn weer binnen, snel vergeten en op naar volgende week
mo131 voor het eerst op een groot veld en gelijk een beker. 3e plaats bij het . 3 x gel…
vond amrabat goed invallen, toornstra inderdaad minder vandaag
mee eens! nederland stak toch echt boven de andere landen uit. niet altijd goed, maar wel de wil om te voetballen.
inderdaad erg hypocriet met clubs die meer dan 500 miljoen schuld hebben
waarom rijdt mollema nou dat gat dicht naar dumoulin😏
wederom een prachtige finale kom op
respect is goed, maar je kunt ook te ver gaan😏
klopt het dat die nog niet op de webshop staan? bedoel strandlaken
inderdaad, zou denken dat we als kampioen toch een goed scouting apparaat zouden hebben,…
inderdaad, zeg ik ook, die back is goed, beter dan die overgewaardeerde haps😏
echt een fenomeen
had toen je mond los gedaan, dan had je respect verdiend, nu😏 echt huichelachtig
in mijn herstelmodus in de tuin😃😎
lekker verwend door de kids
niet gepland, hopelijk ook niet te lang, nu allerlei onderzoeken, zit wel vooruitgang in
het boek is binnen
wel apart, geen feyenoorders op onze eigen grasmat
wilde net hup luxemburg zeggen, scoort die halve duitser😂😂
toekomstige mo13 van trots om daar trainer van te mogen zijn
wat een idioot 😨
jammer voor juve, waren niet op hun best, maar wat een matennaaiers die van real madrid! scheidsrechter ook een drama, pro madrid 😏#juvrma
scheidsrechter laat over zich heen lopen, had al minimaal 2 x geel moeten geven aan real
nu een laatste dagje genieten in le bourg doisans. morgenvroeg weer heerlijk naar mijn geweldige vrouw en kids!
gedaan!!! was zwaar maar weer mooi
we zijn er maar voor, alpedhzus!
ook op de berg is aanwezig
vandaag de col de ornon opgewandeld. goed heet maar goed te doen. klaar voor woensdag
wanneer komt eigenlijk het nieuwe shirt van tevoorschijn?? jullie weten veel😉
bedankt voor alles. mede dankzij jou hebben we weer prijzen binnen gesleept. jij bent 1 vd iconen van
met het geweldige doek op de achtergrond, maar ik feite altijd op de voorgrond staat!
heb het nummer niet gehoord van portugal, maar die gozer is wel f.cking irritant
mooiste van de hele avond, de streaker bij
the day after, alles gaat gewoon weer zon gangetje in rotterdam. volgende week nieuwe poging
onderweg naar de mooiste rotstad
fantastisch gedaan kameraden, als dit de selectie geen steun in de rug geeft😉
ondanks verscheidene pogingen voor contact, nog steeds geen mail voor kaarten kuip😏 en nu??
heb er ook eentje, ga met mijn zoon naar annabel 😉
gun het fraser en van wolfswinkel wel ooit bij feyenoord??
wat een slecht potje voetbal 😏
de fotografen zijn druk in de weer tijdens de kickoff in papendal
maar wat maakt hij, messi, het geweldig goed! fantastisch binnen geschoten
krijg je als je niet meeverdedigd hierdoor kroos vrij, begin aanval
gvd alleen aan de gedachte al dat we over 2 weken kampioen kunnen worden krijg ik al tranen in mijn ogen
wordt mijn 5de deelname, maar iedere keer blijft het een unieke ervaring elke euro telt!!
lid geworden jongens maken elke keer weer een fantastische sfeer!! kunnen alle steun gebruiken
woudenberg behouden, nelom en tapia snel weg, indien nodig gratis!
gaaf, mooi lied!! het feyenoord gevoel zit overal heel diep, kan geen andere club aan tippen, maakt niet uit waar je woont 😃
waarschijnlijk heeft zijn vader daar op gegokt 😉
waarschijnlijk heeft papa kluivert gegokt dat zijn zoon speler van de wedstrijd zou worden 😂
wat kost dat vergaderen wel niet🙄 investeer dat in de huidige voor modernisering!
ook niet bij hun eigen club😉
hoor het al 020 publiek in dat foeilelijke stadion ben benieuwd met welke minuut ze het stadion verlaten😂😂
goed bezig 🙄 welke eikel stelt een 17 jarige nu op met nauwelijks eredivisie ervaring??
vond het hem lekker fanatiek invallen
ben benieuwd of de knjb nu ook een straf uitdeeld
ibrahimovic deelde bewust uit, krijgt 3 wedstrijden, de knjb wil volgens mij het liefste jongetje van de klas zijn bij de uefa
die roemer is er echt eentje van spitting image 😂
in de 89ste minuut, de kuip ontploft 😃 zou het mooiste scenario zijn
een jonesachtige redding van cabellero
wat een wedstrijd 😃
wat is de laatste tijd toch aan de hand met de scheidsrechters?? hoop dat zondag geen blunders maakt
maar hé vitesse zal gewoon meer gas moeten geven om punten te pakken, zoals nu voetballen gaat het niet worden 😑
tegen de superboeren kan niemand op😉 vraag maar aan sjaak swart 😂😂
alle beslissingen die blom neemt zijn in het voordeel van de neuzen maar ja ondertussen duidelijk dat de knjb maar 1 kampioen wil
en weer helpt de knjb de neuzen😠
die turkse scheids was vanavond ook weer waardeloos, heerenveen had minimaal 1 punt verdiend, onterechte penalty
och, wat verrassend 😂
gerechtigheid 😃 ondanks de slechte scheids klasse overwinning
niet alleen in nederland scheidsrechterlijke dwalingen🙄
was niet makkelijk, maar de 3 punten zijn weer binnen maar wat een but scheids 😠
gisteravond een geweldige show meegemaakt van in het hoop dat hij jaren dat laatste liedje mag zingen!!
lekker laten denken, wij staan bovenaan! en blijven daar!!!!
met een lange stoet vanaf de kuip na de wedstrijd tegen nac 😃 weet het nog als de dag van gisteren😉
gewoon altijd blijven werken 😉 staan we in mei op de coolsingel
prachtige overwinning , man of the match echter scheids weer errug slecht
toornstra was ook erg sterk!! botteghin stond ook weer zijn mannetje, verdedigend ijzersterk
vond hem ook niet goed, weet niet waar ze dat vandaan hebben😏 el amahdi voor mij man of the match
wat een belachelijke vertoning van gewoon schandalig om zo je verlies goed te maken 🙄
hé turk, ga eens normaal fluiten 😠
inderdaad, wat een waardeloze scheids 😏🤔
gisteren in een pub in liverpool, achter mij staat de blinde bondscoach danny. mooi weekend in engeland gehad
nou dat wordt afzien morgen, denk dat ik me maar ziek meld morgen😭😢 wat een drama
serieus, die is nog steeds zo irritant en arrogant als in zijn neuzen tijd
gecondoleerd en heel veel sterkte de komende tijd!! 😢
heeft sam zijn cadeau mooi op tijd binnen!
leuk toernooi gehad bij met jo123 meisjes. complimenten voor toernooi organisatie
trots op mijn neefje rick, vandaag de rode baret behaald na een zware week met zware beproevingen
zekers 😃
kunnen we geen doen bij de 🙄
eerste gedeelte van mijn nieuwe tattoo is gezet, over 2 maanden mooi ontwerp erbij
mooie en goede pot van maar die bilal heeft zijn krediet nu wel gehad 🙄 3 punten in de pocket
wie kent een goede provider voor tv en internet? geen aub!!
is er destijds echter niet bij verteld !! maar wel voor betalen !! maar eens op zoek naar andere mogelijkheden qua provider
destijds extra optie genomen met monteur, bij problemen binnen 4 uur komen. echter blijkt nu anders, moeten gvd tot maandag wachten
maar niet nakomen, oplichters zijn jullie 2/2
wat beste provider😠 waardeloos zijn ze, nee het is weekend dus kunnen we niemand langs sturen, wel iets verkopen 1/2
uhhhhh en nu? mollema in het geel ??
geweldige actie van 😃
serieus, wat een klote verslaggevers hebben wij in nl 🙄
en vergeet niet wilmots, die kerel niet 2 gewoon een bh aan !!
wij zijn klaar voor het nieuwe seizoen 😀
youri mulder begint steeds meer op zijn vader te lijken, wat een azijnpisser !! eerst dat twente geouwehoer nu als commentator
blijft mijn club maar is groot onrecht aangedaan. hopelijk stappen ze naar de rechter
misschien tijd voor een nieuwe alternatieve bond !! die wel voetbal op nummer 1 heeft staan ipv vriendjespolitiek
weten jullie nog wel wat jullie doen? eerst onderstaande daarna de soap met twente?? jullie zijn een schande
gedeeltelijk met je eens, maar als je hiermee een resultaat haalt ... zouden de nederlandse clubs ook eens meer moeten doen !
groot respect voor.@skruijswijk, ondanks de val en gevolgen daarvan gevochten als een leeuw, hopelijk morgen in staat om terug te vechten
nibali kan kon alleen winnen doordat gevallen is. niet door zijn klasse !!
kom op je bent al een held voor ons nederlanders !!
is het geen ongeschreven wet dat als de leider valt of lek rijdt de rest wacht?
holy shit, zou toch niet 😢
zou mooi zijn voor jullie, maar zoals ze de laatste wedstrijden spelen 🙄
jammer mooi seizoen gespeeld in de eredivisie, volgend jaar in de jupiler league, hadden jullie meer gegund
sorry nijhuis, strafschop ok, maar rood nee !!
serieus ze zullen toch echt beter moeten inspelen anders ga je het niet redden. geen fatsoenlijke bal komt bij de eigen speler
inderdaad, gewoon blauw/wit!!
prachtige uitzending van
volgend jaar gewoon het volgende nummer insturen helemaal niets in amsterdam !!
top prestatie bij kwalificatie 4de plaats, wat zal het worden morgen bij de race ??!!
wanneer komt de knjb in actie 😆
inderdaad absoluut geen strafschop 😠
knvb wil echt graag dat 020 kampioen wordt 😠 absoluut geen penalty
unbelievable 😀 echt fantastisch heeft liverpool dit niet eens eerder geflikt tegen ac milan 😉
wat een wedstrijd geweldige supporters van beide kanten, maakt mij niet uit wie wint, de neutrale supporter wint !!
matchfixing bij ??? neuer zit wel heel erg mis voor zon topkeeper 😏
zou wel eens een training willen zien van die simone, hoe zou hij tekeer gaan 🙄
prachtige koers gezien, had gehoopt op of nu mooiste club van nl kijken
zat cillessen daar ff mis was zijn hoek die hij moest afdekken
kuipers al behoorlijk wat foute beslissingen genomen 😕#psvaja
tweet van vanmiddag klopt niet, cilissen meest irritante speler
meest irritante voetballer meent dat ie messi is 😬 helaas wel een goede
tweede helft hebben jullie weinig in te brengen 😉
de punten moeten jullie toch halen tegen cambuur 😉 en als je voetbalt zoals in de eerste helft komt het goed 😃
helaas maar 1 kaartje voor feyenoordutrecht, zal het echter nooit verkopen,
complimenten voor psv
tuurlijk de knjb weer. was dit in rotterdam gebeurd dan waren ze als de kippen erbij
kijken of de knjb vd hoorn wel vervolgd ivm elleboog van de week
nou en 😉 zou jij ook niet erg vinden !!
kuipers van blijf je af !!
supporters blijven duidelijk
ook in arnhem steunen we onze jongens
sterk gevochten terechte wereldkampioen
sorry was in de war 😢 maar alsnog een mooie overwinning
succes !! pak de 3 punten 😃
zondag naar vitesse tegen mijn clubbie feyenoord 😃 vip kaarten gewonnen van de rotra. hopen op een mooi resultaat
gezellig weekendje weg met mijn schoonheid prachtig weer en flink shoppen
wat een gelul ! hebben jullie bewijzen ? zal eerder het tegenovergestelde zijn
jammer voor hadden meer verdiend wel weer aan klantenbinding gedaan 😉
vooral maar de nadruk leggen op financiële zaken, ook al zegt ie van niet
en zo staat ie op de service wagen, klapband met schade aan de voorspoiler 😢
daarom haten wij dat volk in 020 !!
geeft je geen recht om zon schandalige overtreding te maken is donkerrood
inderdaad zekers 10 kg te zwaar ziet eruit als holle bolle gijs 😆😃
kijken of iedereen ook kritiek heeft op willems op hoe hij uitgekapt werd zoals van beek werd aangepakt
zwaar rood die charge van van ginkel, als het iemand van was geweest hadden jullie gelijk rood gegeven
toch weet gio momenteel niet de juiste speelwijze bij zijn spelers over te brengen 😕 geen bewegende spelers
kun je je voorstellen hoe we ons in het stadion voelen 😣😢
ik twijfel ook nog 😕 morgen tot 21 uur werken en zaterdag vergadering om 9 uur, savonds weer feest
terechte overwinning van met leuk voetbal, kunnen vele clubs een voorbeeld aan nemen waaronder mijn club 😉
terechte gelijkmaker voor overwinning kan ook nog
diemers goede aanwinst voor hopen dat ze nog kunnen scoren de laatste 25 min
serieus die kuipers fluit ook waanzinnig slecht
lijkt wel of 020 541 speelt 😕 waar is de visie van cruyff ??
bijgekomen van het verlies, pisvee speelde op zijn europees, wij hebben geen voetballende spits, nu uithuilen, op naar volgende wedstrijd
met een behoorlijk luchtje buitenspel ?? snap niet dat zulke assistent scheidsrechters hiervoor betaald worden 😕
grensrechter omgekocht ? duidelijk buitenspel
zullen ze in twente al een bus besteld hebben voor een rondrit 😂 en nogmaals die tapia mogen ze houden
kom niet met die wat een achterlijke aansteller en echt geen aanwinst
die qiang is helaas wel de nr 1 van de plaatsing lijst 😕 kom op
zo, mag gelukkig weer naar huis, minder dat ik 4 weken niet mag sporten 😑 nu eerst goed herstellen
hier ook, is reeds 19 graden 😃
na een mooie pot 30 verloren van cullera, tweede helft speelde de vermoeidheid op van het trainingskamp
10 voor cullera, oefenpot voor de geïnteresseerden cullera speelt naar nederlandse maatstaven 1e klasse
oefenpot tegen cullera in het warme spanje 😃
oefenpot staat op punt van beginnen cullera tegen vv terborg 😃
hoest het weer daar in turkije ?
dadelijk weer ff met de gewichten stoeien 😃
heeft hiddink een andere band opgelegd op de bus van ? wat een drama, hoop dat united toch nog wint
sterkte de komende tijd, hopelijk zien we je volgend jaar weer fris en fruitig op de podiums
yes, 30, prachtig ingekopt, goed voor
forza utrecht 😃😆
was onnodig met iets slimmer voetbal had je 3 punten kunnen halen bij de tukkers 😕
wat een nepperd die ziyech door op het logo te kloppen terwijl je gewoon weg wil, geld graaier 😤
doe wat aan jullie scheidsrechters echt drama die janssen
scheids niet echt op de hand van de graafschap 😕 zuiver doelpunt
mooie prestatie van pisvee, goed voor het nederlands voetbal
typisch 020, halfvol stadion, dikke voorsprong en toch fluiten de teletekst supporters 😂
sinterklaas is ook bij ons geweest 😃 en wat krijg je ? het boek onder weg met roadie van me happy.
de beste stadion speaker peter houtman bij
wat dacht in het stadion 😉
dadelijk de 10 km rennen voor beetje mistig maar mag de pret niet drukken
onderweg naar het ziekenhuis, hopen dat alles goed gaat komen met moeders
dat wordt zappen vooral die laatste gasten zijn helden
herhalen jullie nu de klap van bazoer ook verschillende keren ? klasse justitie
die neuzen in de verdediging van 020 zijn geselecteerd maar waarop gebaseerd ??
onverdiend maar de 3 punten zijn binnen, complimenten voor de graafschap
hoop het voor jullie, niet voor ons 😉 veel plezier nog
nee hij was terecht afgekeurd, vd pavert ging niet voor de bal maar puur tegen vermeer, maar jullie verdienen de voorsprong
maar makkelie is echt een drama
wat een kut wedstrijd van feyenoord, complimenten voor de graafschap, hopelijk kunnen we het tij nog keren
je mag wel duiken cillessen 😂 hij wordt met de week slechter
wauw wereldkampioen, een waardige! ! 👍
meld mij ook aan 😉
vond toornstra echt slecht, volgende keer gewoon beginnen met vilhena
wel jammer voor advocaat 😣
wat een loser die die verdiend gewoon een gele kaart voor maatennaaierij
denk dat de finish niet zie ivm kramp run 😦 maar hoop zo dat hij stand houdt !!
en volgens mij heeft aru ook nog 10 seconden straf gekregen ivm stayeren na zijn val 😉
gaat het gewoon doen !! eerste nederlandse winnaar na zoetemelk ??
genoeg uitdagingen voor een getrainde sportman zoals jij 😉
blind, kijk ff naar duitsland polen, kun je zien hoe echt voetbal gespeeld wordt !!
op basis eerste helft terechte overwinning voor de lampjes maar wat is die kuipers slecht maar nog steeds een punt meer
tribunes weer lekker vol trouwens bij fietstas
ook de trainingspakken van centric zijn geweldig 😃 mede mogelijk gemaakt door thnx
vanmorgen eerste wedstrijd gewonnen mede mogelijk gemaakt door met 34 tegen e5
fingers crossed 😔 hopen op goed bericht !!
had hem nog wel gezien als de revalatie van het seizoen 😕 vond hem op de trainingen een goede indruk achterlaten
zeg dat al jaren maar ja dat komt misschien omdat wij feyenoorders altijd optimistisch blijven ondanks de malaise afgelopen jaren
was weer een ouderwets avondje kuip. zwaar bevochten overwinning, over 2 weken weer dan tegen fietstas
en nou weer goed, ben benieuwd of ze nu 020 ook niet meer als kampioens kandidaat zien 😉😆
gewoon voor je plek knokken je hebt de kwaliteiten 👍
was weer een prachtige etappe, terechte tour winnaar over 3 weken de beste, volgend jaar ?
hopen op nederlands succes weer is in ieder geval goed
dadelijk de laatste mooie etappe brengt mooie herinneringen boven
ondanks de nederlaag heb ik vertrouwen in het komende seizoen, veijnovic gaan we veel plezier aan beleven, kazim niet meer
kids blij met hun nieuwe tenue 😃
ff snel weer op zetten want die is weer eens stom aan het lullen, gooi die vent van de zender
dagje met de kids naar
vak h, samen met mijn zoon
ze zijn binnen 😃 hopen op een mooi seizoen
groot respect voor deze top sporters !!
serieuze zware valpartij mindere kant van de mooie wielersport beterschap
jazeker 😃 hij doet het perfect !!
en bedankt 😣 ben altijd een voorbeeldig leerling geweest 😉
in de zak 😃 bedankt voor de zeer interessante cursus !!
eerste dag training fysieke voetbal conditie trainer zit erop, morgen dag 2. duidelijke uitleg van interessante materie
zo beginnen met de cursus fysieke voetbal trainer met
sterkte !!
wanneer zoekt die blinde nou eens de diepgang 😕 jammer dat er niet bij is
ben benieuwd of nu ook een penalty krijgt !!
2 geweldige grootheden met veel respect voor elkaar !!
wens alle deelnemers aan veel succes en vooral geniet ervan !! we kijken en luisteren mee
haal mijn dossier er ff uit 😉 veel plezier
die labyad us gewoon en idioot en zelf huilen als ie een tikje krijgt
ben blij dat de play offs gewonnen hebben en niet die laffe ploeg van heerenveen
gefeliciteerd met jullie promotie naar de eredivisie !! paar versterkingen erin en dan knallen, zie jullie in rotterdam
was mooi maar ook zwaar, toch best wel trots op mijn tijd van onder de 1.02 😃 smaakt naar meer
zo nu onderweg naar de mijn eerste trail loop, lekker achteraan starten en genieten 😃