ach ach feyenoord wat zet je jezelf toch weer voor lul..
was niet te zien op het veld.. vonden het allemaal wel best joh..
man man man wat een debiel..
net docu gezien. kippenvel. wat een mooie vent en voor altijd een held!
zoals peter houtman zou zeggen doei doei!
die commentator moet voortaan ook even van de wodka afblijven..
wanneer komen er nieuwe afleveringen van scorpion?
op tv de melding dat app nog niet is geladen. na enkele minuten nogmaals proberen. modem ook al 2x opni…
netflix storing bij jullie??
heel gaaf gedaan!
toch geinig dat er een pak jodenkoeken staat in een feyenoordkamer😜
nope, daarom snap ik ook indd niet de huur van diks. we moeten het er maar mee doen haha.
de huur van diks is net zo hoog als de transfersom die heerenveen heeft betaald voor dumfries.
makkelie he..
zweren zijn vies
denk eerder dat het een zuurstoffles is voor die dikke die ernaast zit..
ach met het niveau van oranje de laatste jaren zal de ste…
wat kan je jezelf als persoon toch zwaar voor lul zetten 😂😂🖕🏻
van die mensen die een meningstukje gaan schrijven over iets waar ze totaal geen weet van hebben.. zucht
zelfs bij amateurclubs zijn er prachtige echte grasvelden te vinden en een profclub lukt het niet.. kansloos.
we zijn al aardig die kant op aan het gaan met het niveau.. kunstgras is gewoon kut
erg merkwaardig als dit waar is..
volgens mij staat die klok al ff op 0?
dit is me een partijtje gaaf👇🏻
hé wanneer kan ik mijn seizoenkaart verwachten? iedereen ik mijn groep heeft hem al behalve ik..
ja. az kan hoog zitten met hun vraagprijs, dat betekent nog niet dat ze het waard zijn. vooral…
dat zou een hele slechte deal zijn. veel te veel voor die 2.
martins definitie van de hoofdprijs. mag toch echt hopen dat het niet waar is en het minimaal boven de 20m is.
ehm help! net uit werk, mega honger en een app die niet werkt!😥
grootscholten eruit en brard weer hoofd jeugdopleiding aub.
mocht brard terug komen dan zou dat denk alleen als hoofd jeugdopleiding zijn. iets wa…
lekker vervangen joh dat stadion.. maar intussen speelt iedereen er het liefst.
aub niet zeg.. dan gaat gelijk het te koop bord erop.
dat je lid bent voor de sfeeracties en al het andere wat
feyenoord wat ben je toch een prachtige club! wat heb ik van je genoten dit seizoen.
muil houden, optyften en voorlopig in je hol blijven!
helaas ook een paar op vak x.. er iets van zeggen en te horen krijgen dat je je kankermuil moet houden.
formatiepoging vvd, cda, d66 en groenlinks geklapt via
oude haven ook alleen maar gezelligheid!
dirk held! hoogst persoonlijk vandaag de titel binnen gesleept en ook volgend seizoen hebben we je…
genieten weer vanmiddag. ondanks de uitslag, puur genieten vandaag met de boys! dikke pmds op varkie!
zwarte dag voor de club!
doodsteek voor de club.. schande!
ardje kwam per ongeluk een spiegel tegen?
ik was degene die fout was en uiteindelijk uit het station gezet door ns personeel en politie op aanwijz…
drukte op de trappenen medewerkers die langs liepen. weinig aan de hand maar zei er wel@wat van. op zijn…
in de hal van rotterdam cs. normaal het gesprek aan geen was helaas niet mogelijk en ben uiteindelijk hi…
excuses. im was op rdam ca en wordt door een medewerkerns zowat omver gelopen. ik zeg er wat van en kri…
normalen gesprek aan willen gaan maar door 7 man het station uitgewerkt worden. lekker gewerkt hoor. lek…
krijgt lekker de tyfus met jullie pauper personeel! wordt omvergelopen maar een normaal gesprek is er niet te voeren🖕🏻🖕🏻🖕🏻
man man😂
kippenvelletje hoor! heel dat stadion vol met feyenoorders schitterend!
💪🏻
en lijkt het er ook steeds meer op dat mensen eindelijk de tekst kennen! dat is weleens anders geweest
falende jeugdscouting? grootscholten die niet functioneert?
inderdaad gio, door nelom telkens weer op te stellen!
zon nelom kost je dalijk ook gewoon nog de titel met dat achterlijke gekloot van hem..
kom op godverredomme feyenoord! 22 voor rust!
en zo zie je dat het doelpuntenvoordeel ook geen klote voorstelt en zo weg kan zijn
lekker rustig rond tikken alsof je 50 voor staat..
zon nelom blijft toch ook een verschrikking
feyenoord weer hard onderweg het weekend te verneuken..
godsamme ben jij ff tam in je muil dan zeg.. zo kan je in alles wat zien.
mocht je kampioen worden mag je iemand op je blote knietjes bedankem
nelom fans😂 als die bestaan ben je helemaal tam in je muil
gelukkig is de commentator ook niet partijdig.. kk zender sterf af man
kuyt naar 10 en toornstra op links of elia erin
werkelijk alles tegen.. laat godverredomme zien dat je kampioen wordt stelletje paupers!
kampioenschap verkocht
lekker schriftelijk afdoen die kk pot en verder naar de volgende.. wat een kk ellende schaam je kapot
sterf maar af kk neuzen
schaam jullie dood joh.. wat een smerig kut cluppie zijn jullie!
hmmm herkenbaar!
knettergek die lui
gaat geertruida binnenkort ook zijn contract tekenen bij feyenoord?
dat ze bij de niet veel kunnen wisten we al, maar een uitspraak niet eens op tijd naar buiten brengen is toch wel erg slecht..#vilhena
helaas waar, maar hier een straf aan verbinden is zelfs voor de knvb te tricky.. die wachten wel een makkelijkere zaak af.
dan heb je van benthem niet in actie gezien net.
als die makkelie nou eens een vent was zou die toegeven dat hij het heeft gezien...
overigens verwacht ik dat tonny gewoon vrijgesproken gaat worden.
daar komen de nieuwe hossam ghalys en sherif ekramys
mocht je de actie op kunnen zetten stort ik direct €25👍🏻
zoals zou zeggen.. i rest my case
tegenstribbelend toch maar de elleboog en karateactie laten zien bij
benoem jij straks bij studio voetbal nog ff de elleboog van klaassen en karateactie van kluivert? is het spontaan vergeten
en maar verbaasd dat het nederlandse voetbal een vrije val maakt..
wat een kansloze debiel is die nelom zeg.. stel die gozer aub nooit meer op!
iedereen was van een echt biertje op varkenoord aan het genieten😎🍻
dat is pas een grasmat!
niet serieus te nemen die aanklager..
hoofdsponsor worden van je favo cluppie past precies in die groei 😜
thuis vanuit manchester en ik zit gewoon nog steeds te genieten! wat een fantastische trip was dit! jammer van uitslag, verder 1 groot feest
wat een debiel zeg die vejinovic..
mijn speler van de week bij voetbal inside is erwin mulder via
ik heb momenteel een 1 jarig contract, maar wil graag de toon gaan gebruiken icm een 4 jarig contract. is dit mogelijk?
wist niet dat wolter kroes tegenwoordig voor foxsports werkt😂
mijn speler van de week bij voetbal inside is jens toornstra via
2 kaarten voor vak r kunnen bestellen. de rest van de groep nog steeds niks en afgebroken bestellingen..
wat een stelletje tiefus amateurs zijn jullie toch ook.. man man pleurt toch een eind op joh paupers
ombudsman rechten feyenoordfans geschonden
dit zal wel een 51 worden gok ik zo
hoe zeg je koekoek in het ijslands
pelle flikt het gewoon! blijft een baas 😎#itaesp
hej! kunnen jullie mij vertellen hoe lang de levertijd is van artikel 390.612.95 ? thanks!
weer een traditie om zeep geholpen
bert van marwijk als hoofd jeugdopleiding bij feyenoord.. dat had wat mij betreft een prima keuze geweest
topuitspraak van van gelder! weg met alle kunstgrasvelden
da mazzel en nooit meer komen ook
kenteken is dd gk 6044
al 6 weken staat er een auto met duits kenteken onbeheerd langs de vliet ter hoogte van oude calvé terrein
heeft die uefa geen regel dat je in europa op echt gras moet spelen? scheelt weer een kunstgrasveldje in de eredivisie
het hand in hand op een 020 zender.. hahaha
lekker naar het fust op stadhuisplein met de selectie maat! jullie zijn helden
wat een heerlijke avond!!!!! genieten dit..
behoorlijk vol hoorndol stadhuisplein
.@knvb ik denk dat de wint. wat denk jij?
hoppa.. kleine bijdrage voor de oudjes in ons land
dit is.. geer &ampgoor zoeken een hobby! boem reclameblok..
dit dus.. je ziet het gewoon aankomen
wat heeft die makkelie ook gewoon een verschrikkelijke pleuris muil..
heerlijk weertje, bod geaccepteerd op waarschijnlijk ons nieuwe huis.. een overwinning vanavond maakt deze dag perfect😎
die vent is echt helemaal gestoord.. zon snipperdag moet je ook maar krijgen klootviool!
bah bah bah wat worden die snavels weer gigantisch geholpen zeg..
volgens mij staat die vent nou nog breuer!!! te schreeuwen op het kasteel
waarschijnlijk was de fles champagne die die vent net in zijn nek heeft gegooid duurder dan het bedrag wat hij net krijgt
hahahaha we zijn een beetje dronken zegt ze! dan valt de schade nog mee
als er dan 40.000 in zijn koffer blijkt te zitten kan mijn avond niet meer stuk!
typisch 020 volk! hij mag het lekker zelf uitzoeken!
het kan toch niet mooier dit?
kan niet wachten om het smoelwerk van de thuiswinnaar te zien straks!
dit is toch genieten mensen
hoppa! helemaal niets in amsterdam!
genieten hoor! met je muil..
daar gaan je miljoenen😂
wat is het toch een drama scheids
kom op feyenoord nog ff die 02 erin en het is klaar
aha de trommeljostis vol in beeld.. sta je voor lul dan!
die moet gewoon een weddenschap hebben verloren.. kan niet anders!
wanneer komt er weer een pinautomaat op delft station?
het lijkt wel een comedyshow.. leuk ook dat ik direct geblokkeerd ben door hem😂
en dit geloof je zelf?😂 man man man
normaal kocht ik het blad, maar nu toch maar lid geworden van de fsv!
volgens mij is die grensrechter een beetje onder de indruk van de kuip
volgens commentator fox iemand buiten het stadion gereanimeerd met aed.. hetgeen waar de clubs vanavond voor spelen
en ja hoor.. daar is tie dan.. de wave! dan weet je dat het toeristendag is😂
het is in ieder geval duidelijk dat er weinig seizoenkaarthouders aanwezig zijn in de kuip vanavond
aan het speciaal bier bij mijn broer.. heerlijk begin van het weekend!
van die mensen die een kaart voor de finale op marktplaats zetten om er zo veel mogelijk aan te verdienen..
ik zelf met 4 anderen vak x
allemaal leuk dat stadion bas, maar waar blijft die mail nou!
godsamme feyenoord.. het zal eens op tijd zijn
toch om helemaal gek van te worden die zenuwen voor een loting.. man man feyenoord schiet op!
normaal lees ik nooit de reacties op fr12.nl.. net wel weer eens gedaan en weet weer precies waarom ik daarmee gestopt was
bedankt voor het verlengen! bedankt voor het verlengen! feyenoord
thanks! ik ga het morgen gelijk even doornemen.
nog een goede overstap deal beschikbaar?
dat ze bij balen dat 020 niet heeft gewonnen oké, maar om nou alle zenders op zwart te gooien is wat overdreven
alle zenders op zwart.. weer eens een storing bij ? toch maar eens overstappen naar
man man man wat is het weer een zooitje.. verliezen veel te makkelijk de bal
vermeer heeft aardig wat last van de zon lijkt het..
ben erg benieuwd hoe jij het zou neerzetten?
lossen de files al een beetje op?
mijn speler van de week bij voetbal inside is jens toornstra via
hahaha inderdaad. vreemde sfeer ook vandaag.. maarja paste een beetje bij deze dag zullen we maar zeggen😜 fijne avond nog!
nee serieus ook in het midden kon je gewoon het vak op. zelf via ingang x3 ook even het vak op geweest en vrijwillig weer eraf
inderdaad grappig. ik sta zelf namelijk op x en daar kon iedereen vrij het vak op.
en welke vakken dan precies? heb er aan de gele zijde persoonlijk niks van gemerkt namelijk.
op die fantastische duik van hem na dan😜
waar werden supporters tegen gehouden dan?
vrijwillig het vak af blijven is geheel eigen keuze maar meedoen is zeer gewenst!
feyenoord feyenoord.. waarom helpen jullie jezelf toch zo naar de klote.. het kan allemaal zo mooi zijn
herkenbaar😂
wat een achterlijke hoeveelheid me weer bij
niet dat gertjan dat erg zou vinden overigens
ik hoop wel dat john een kingsize bed heeft geregeld anders moet die arme gertjan nog die caravan in..
daar heb je wel 3 vrachtwagenladingen beton voor nodig dan😂
man man man.. zon wijf zou je toch met caravan en al de afgrond inrijden..
als je via dit scherm mee gaat spelen, is het dan nog mogelijk aan te geven welke club je steunt?
schaam jullie kapot!
politie rotterdam schaam jullie dood.. ludiek protest verstoren door direct met de lange lat te gaan meppen..
elia mag even naar die marengo van ado kijken hoe je een mannetje passeert en een pas geeft
maar eens mijn nest in.. weer met een klote gevoel de nieuwe week in..
nog zon verlosser!
dat elia al niet eens marcellis voorbij komt zegt toch alles
ergens de hoop hebben dat we verliezen zodat de druk op die mongolen in het dwaasgebouw steeds groter wordt om auf zou machen
gudde, van geel, bestuur enz.. van mij mogen ze allemaal optyfen en gauw een beetje
zijn de hekken bij het dwaasgebouw al dicht?
voor je het weet breekt de pleuris uit.. wat mij betreft zo snel mogelijk.
de club is ziek.. doodziek.
je zou bijna gaan roepen om baco arie
en wederom weer een prachtige blunder!
in een aanval zijn en dan helemaal terug naar vermeer..
is gudde al zijn kantoor aan het leegruimen?
mazzeltje.. kijken hoe lang het duurt voor we weer achter staan..
het hele teringzooitje in het dwaasgebouw kan zijn spullen pakken na vandaag..
ben ik de enige die het opvalt dat de uittrappen van vermeer dramatisch zijn?
wie moet dit zooitje ongeregeld weer aan het voetballen krijgen vraag ik mij alleen af..
man man man.. wat staan ze toch een partij ge kloten in die verdediging ook elke keer weer.. wat mis ik toch!
hoe lang mag het nog door gaan voordat de pleuris uitbreekt..
hoe hoog gio ook bij me staat als voetballer en feyenoorder.. als we vandaag niet winnen is het wat mij betreft klaar.
en we gaan weer vrolijk verder met waar we gebleven waren..
fantastisch om met zoveel plezier en enthousiasme zo bezig te zien met zijn illusies!
inderdaad wezz hahaha ik kwam niet veel verder met mijn 6.6
karsdorp mag van mij momenteel ook even zijn plekke afstaan aan nieuwkoop..
is ?
dit dus.. gaat de ze nou nog eens een keer aanpakken of wat?
het is ook weer niet te filmen..
bij 020 schakelen ze zelfs al de ns in om met excuus lage opkomst te verklaren..
schaam jullie kapot. traditie na traditie naar de klote. bewust slopen van de gigantische potentie van ons cluppie!
vvsb.. het mooie aan bekervoetbal
feyenoordfans hebben het helemaal gehad met gudde
namen als fer en van ginkel voorbij zien komen.. man wat zou ik die graag bij feyenoord zien.. helaas onhaalbaar.
die gudde is aardig om zich heen aan het slaan.. zijn laatste stuiptrekkingen?
eenhoorn en brands
ah dat had ik even gemist!
die willems.. ziet eruit ook zo met die bril
misschien toch maar gewoon weer een studio sport kijken.. sinds laatste keer dat ik gekeken heb heeft feyenoord alleen nog maar verloren.
martin van geel kan wat mij betreft ook direct zijn koffers pakken.. hopen dat hij gudde er ook gelijk in stopt. wat een ellende weer.
klopt er dat er een storing voor interactieve tv is? postcode 2289bl
heeft zojuist online eten besteld bij troy via
van gaal heeft ook zijn tijd gehad bij united.
tsja bertje.. dat is het verschil tussen clubliefde en alles maar aannemen om zoveel mogelijk geld binnen te harken.
man man man.. lekker gek laten maken door verdachte pakketjes.. de angst regeert.
😂
en nog aan het rollen?
dit dus!
mijn speler van de week bij voetbal inside is kenneth vermeer via
is die meneer de ruiter nou ook een soort tafelheer die voor dit optreden met een verhaaltje over duwen even €2000 vangt?
aha dus ook het is weer bezig met een antifeyenoord campagne.. paupers
dat maakt zich zo wel weer belachelijk met die
mijn speler van de week bij voetbal inside is simon gustafson via
ziet er naar uit dat het team eindelijk eens goed op elkaar is ingespeeld!
met risico dat hij in de competitie er ook niet tegen kan spelen?
man man man wat een staatsmongolen daar bij die zeg..
jullie hoeven niet tot 10 uur te wachten hoor.. spreek kramertje maar gewoon vrij!
makkelie heeft toch aangegeven gefloten te hebben voor duwen?
zou het van benthem lukken een hattrick te scoren vandaag?
dus van 4 wedstrijden waarvan 1 voorwaardelijk naar 4 wedstrijden onvoorwaardelijk..
volgens mij heeft die aanklager zelf een klap voor zijn muil gekregen..
nou.. joris kan weer aan de slag.
nou.. kijken of de net zo naaiend gaat zijn als en
wat een droevenis weer..
doet iemand ff een foto maken van die zogenaamde bloedmaan? kan ik mooi me nest in.
en het is pas net begonnen.. de tering gaat hier uitbreken. mark my words.
gaat gewoon geschorst worden.. al is het maar omdat de niet wederom voor lul wilt staan.
seponeren lijkt mij nu het meest logische.. alleen al het niet vermeldden van de kaart op formulier is voldoende lijkt mij.
lacht zich de ballen uit zijn broek.
kuyt naar 10, elia op links, bilal op rechts en kramer in de spits
gewoon schandalig dit
ja maar het is de vakantie periode! oh wacht...
is kuyt niet de oudste?
ome gerard meijer vandaag 80 jaar! van harte en nog veel gezonde jaren!
het irritante is wel altijd dat die messi nooit aangeraakt mag worden zonder dat het een vrije trap is..
wat een wedstrijd!
aha daar was toch weer even het muldertje!
hahaha wat een goal van de keeper van nu al goal van het jaar!?
wat een debielen daar bij die zeg.. seponeren die kaart zou logischer zijn.
als kramer echt voor 1,5 miljoen is gehaald dan is het gewoon keurig gedaan door van geel.
welkom bij de familie!
volgend seizoen pas? dacht dat het dit seizoen al vervangen zou worden?
heeft eigenlijk al weer een normaal grasveld?
waar gaat hij naartoe dan?
mag toch hopen dat van geel niet verder gaat dan 2 miljoen. en dat is eigenlijk al teveel.
1 uur is ook een soort van vroeg. tis maar net hoe je het bekijkt😜
laat maar lekker naar rangers vertrekken.. 3 miljoen voor kramer is gewoon belachelijk.
toen nog zelfs 2 velden voor het stadion! nu helaas geen 1 meer..
sfeertje hoor bij 020.. dankzij de rapid supporters
heeft zojuist online eten besteld bij de bezorgbeer via
ga je doodschamen pislul.. ipv met je gemaakte smoel in de politiek te zitten had je zelf eens op missie moeten gaan
heerlijk ingeschoten door pelle!
dat az heeft met die johansson en janssen toch 2 prima spitsen in huis voor komend seizoen.
wat een triest en kortzichtig volk heb je toch op dat
kondig je ook gelijk even het vertrek van botteghin aan op de persco?
wil niet lullig doen, maar dat softijsje staat ook niet gelijk op beide plaatjes?😉
foto van
wat de bovenstaande heren al vroegen zou ik ook graag van je willen weten?
toch terug naar feyenoord?
mag hopen dat het meer dan 12 miljoen is.. belachelijk als het niet zo is
van geel dus ook totaal ongeloofwaardig.. beweerde zelf dat er niemand meer in de beloftepool zat en geen clausules meer waren
sorry maar als dat is afgesproken dan ben je al td van feyenoord wel heel dom bezig
dat is inderdaad fors! goed nieuws en mooi dat het al vrijwel uitverkocht is.
iets voor jou?
kleine moeite! hopen dat het beesie snel weer terecht is.
staat daar nou rechtsboven van gudde opzouten? hahaha
bedankt! het jaarboek plus extraatjes is binnen!
haha kan ik me voorstellen! ga ik nog ff ongeduldig op het jaarboek wachten
vraagje wat is de levertijd van een bestelling bij jullie?
van die mensen die ergens wat van gaan vinden, maar zelf de feiten niet kennen..
heeft zojuist online eten besteld bij pizza pizza via
clasie heeft er geen zin meer in en gaat lekker op vakantie.
ben benieuwd hahaha
hahaha misschien komt mevrouw gudde ook gelijk een drankje bietsen
vergeet van geel niet
dus die van geel is gewoon een ouderwetse schnabbelaar ipv volledig met de club bezig te zijn?
hahahahahaha sorry maar ik kan hier alleen maar om lachen
wat hebben sommige mensen toch een gigantische plaat voor hun muil..
lijkt me een mooie uitdaging heren? of bespeur ik wat angst..
mooi dat en zich beschikbaar stellen! zou onvergetelijk zijn voor hem.
las vanmiddag 13.000 kaarten verkocht.. ongeveer de helft dus