tram 1 broekpolder richting delft van 13.07u was te vroeg.
uiteindelijk 20 minuten moeten wachten nog. maar toen kwam hij
vandaag precies hetzelfde. bezorger is al een paar uur onderweg en hij komt nog altijd tussen 8.30 en 21.30
feestje weer bij de tram spontaan 5min te vroeg. ziet me rennen. rijdt gewoon weg. over 15m de volgende. kut service.
komt een beetje over als hendrik haan uit koog aan de zaan
dus... geef dan gewoon géén indicatie.. service is ver te zoeken op deze manier
begint elke week te laat. en nu dus zo vroeg dat kijk vanaf het begin niet eens aan het begin begint....
ik heb te doen met awa. wat een zoutzak sleept ze mee. dat kind lijkt niks te doen
margeaux, groei een paar ballen en koop een bh! en die pliesie dames, zulke debielen wil je toch niet in je auto/huis?!
the queen gaat een wetswijziging invoeren waardoor charles geen kroonprins meer is maar dat william dat is.
ze konden best in de kuip spelen. alle supporters van verkopen hun seizoenskaart, zo lijkt. nu al baas op
een tent in de trein? lijkt me wel zo fijn als ze die afbreken. staat zo in de weg!
de storing is over de wereld. alleen in nederland gebruiken we t meer, klagen we graag en vaak! over…
altijd leuk om samen met belgië uit te zenden. maar dan kun je niet meepraten op twitter want die kijken een dag eerder
is het n idee om op dezelfde dag uit te zenden als in belgië? wilde meepraten op twitter en nu weet ik al wie weg zijn!
dit is echt een goeie wedstrijd wie is het irritantste koppel? kleffe august&ampawa of de zeikende zeurende politieagentes?
gaat nog leuk worden in 90 minuten lang dezelfde liedjes in t frans en nederlands.
gelukkig is t nu 1 dag. bij sommige programmas die ze samen uitzenden lopen wij 1,5 week achter!
moet ik die reep aan haar geven dan? nee slim ben je zeker niet...
18 jaar geleden gevlucht uit afghanistan.. jack van gelder is grappig nou die wil zeker niet af gaan
mijn !!
soms vraag ik me af waarom ik nog kijk naar deze ranzige serie
august en awa. de meest irritante personen op tv.
tis stil aan de overkant!
soms zou je willen dat het gisteren was, omdat vandaag alles anders is..
nee 😣 ik moet hem opnemen.. ga m straks kijken, kan niet wachten!
laatste aflevering en ik kan m niet eens meteen zien. drama!
waar wil je naartoe? naar de mcdonalds!!!! kookt moeders echt zo slecht?
na vandaag nog maar 1x mag ik even huilen
noway!!! wanneer komen er meer afleveringen
is echt zon serie waarbij je voor elke nieuwe aflevering eerst de laatste 15 minuten van de vorige moet kijken
mogen jullie niet 3 afleveringen vooruit kijken? wilde bijna gaan solliciteren
omdat het kan!
syd hield toch niet van kersen?
wat niet eerlijk zou zijn is om heel hard 25, 33, 106, 12, 28, etc te roepen terwijl je de kamer met stemmentellers in gaat!
who cares.. in tijden niet zon goede serie op tv geweest!
wacht! ik snap het al. vorige aflevering waren ze ineens weer terug in het tehuis
lenny als dokter? ik zal het straks wel snappen
eindelijk!!!!
is dat eigenlijk niet gewoon manipuleren van de verkiezingen? niet genoeg stembiljetten hebben?
wat een gedoe. stembehang op in den haag, papier te groot om te vouwen. ze maken het ons wel erg moeilijk dit jaar
aflevering vast vooruit gekeken. dit jaar zijn de matches veel beter gelukt dan vorig jaar! genieten!
ik vind steeds erger worden. ik snap de steeds beter. lekker met je pattas op de grond.
de me voert charges uit? speelt morgen toch pas?
die had hij niet. de slechtste mol allertijden, hoogste pot ooit
een goeie mol hoor. maar wel de hoogte pot ooit omdat hij niet kan puzzelen.
nummer 1 in alle poules. het begint een beetje saai te worden elk jaar alles winnen
mensen, hoe ver kun je nog zoeken.
nog een uur, dan heb ik eindelijk weer een rustige zaterdag
kunnen jullie niet 5 afleveringen achter elkaar uitzenden? een week wachten is zo lang!
weekendboodschappen.. ik haat het zo
niet gezien. hoe heet het? voetbal op tv is belangrijker😂
winnen op 2 dubieuze penaltys. dat kan alleen barca...
serieus.. waarom geloven mensen nog? het is net een chihuahua. blaffen bijten en voor niks op je rug liggen
het eerste huwelijk is volgens mij nu al niet meer stuk te krijgen. wat een leuk stel!
ik zat diederikjochemthomas. maar nu denk ik thomas. hoewel ik jochem ook erg verdacht blijf vinden. of hij is gewoon raar
vincent was dat bij mij. eerste aflevering kun je ook echt nog niks zeggen.
was het ook zeker! lijkt ook best goed op het plaatje, al zeg ik het zelf.
ik heb meer punten dan jij hè! ik had het maar 1x fout, aflevering 1.
mijn eerste maaltijd van zelfs met koorts was mijn bordje zo leeg!
hoewel strontvervelend, ze lijken als gezin oprechter van elkaar te houden dan de andere gezinnen.
dat badje is toch ideaal voor de kinderen 😂
helemaal mee eens. ze beslissen misschien iets te snel maar ze maken daarmee ook veel beter contact met de lokale bevolking.
ik ben altijd voor piemels!
blijft dit programma nu eigenlijk ook een heel jaar elke week doorgaan? wel zo leuk!
als je teveel aan dat horloge gewend raakt dan gaat je beoordelingsvermogen achteruit. we worden te afhankelijk van technologie
het zijn maar junkies uit spangen!
in belgië lieten ze het wel gewoon zien😥
wat een waanzinnige serie is dat! veel te spannend en luguber. helaas weer een week wachten op de volgende.....
dat is de cliffhanger voor volgende week. ging hij erin of niet.....
van dit soort tv verlies ik mijn vertrouwen in de mensheid. maar ik voel me er wel heel slim door.
de zijn wel erg ondernemend. hard bezig hun bestaan op te bouwen terwijl de rest op lange vakantie lijkt te zijn
ohnee hè! is dit een competitie wie kan t hardst over niks zeuren? ik zie het dak van de buren.. neeeeeeeee
je mag best een bakkie komen doen hoor!
ze zijn in de pelgrimshoeve joh!
sanne zei het echt! ik ben de mol 😂😂
vlaams alfabet thomas is vlaams?. raam taal laat maar.. jochem zegt laat maar, sanne doet het andersom. en diederik dan?
dat kind nog wel. die hond die alles uit zijn handjes heeft opgevreten.... 😂 ik vrees voor zijn leven
batsen met ken. de ideale manier van wraak nemen als je vriendje drooggeneukt wordt, toch?
deze heeft ze pas online gezet. ze moeten haar meer stimuleren.
of dit.... zij kan zo prachtig zingen....
dit oo bijvoorbeeld met het prachtige duet ergens halverwege
dankjewel... inmiddels dag 13 en nog koorts. maar met dit weer niet naar buiten hoeven😎😎
ja. die had een bitchtfight met de nummer 2 omdat ze stiek niet wilde winnen.
mijn hond blaft naar het haar van eva. hij denkt dat het een dier is.
11 dagen koorts. fuckdieshit! ik wil niet meer 😢
heel herkenbaar. mannen laten alles in hun zakken zitten en de vrouw krijgt de schuld als t in de wasmachine verdwijnt
wat een programma. annemar heeft dit echt goed gedaan! jammer dat het maar 5 afleveringen zijn
bij jou? nou ten eerste dat je het een smaak noemt. het is een geboorterecht.
jij begon met schelden!
yesss de app deed het! zowaar 😂 nu heb ik geen excuus meer waarom ik zo dom ben.
hmm.. oké! de linker dan wel😎😉
meespelen met ging goed. blijkt dat de app het niet goed doet!
maar het is zo leuk als hij moet huilen😂😂
en toch gaat er niks boven een huilende ronaldo. maar... barcakut
1 hand? dat lijkt me niet erg handig😎
eng hè? als iets niet in je bedachte hokjes past?
zullen we van handen ruilen? ik hou namelijk heel erg veel van mijn vriendje😂
nou... zal mijn vent leuk vinden.. dat mijn handen niet op mannen vallen.
om deze mensen wil ik nooit mijn rijbewijs halen. stel je voor dat je ze tegen komt
een koffer vol met onmisbare spullen. ah! mijn ledwijnkoeler!!! ..............
geraldine en jan. net een getrouwd stel
met flinke koorts op de bank. wat is er dan beter om dan gezellig met en samen te zijn.
ja piep piep piep. je bent een muis. ik heb het geraden. doe nu maar weer alsof je een hond bent.
ik snap best dat iemand van 25 op madonna kan vallen. maar james.. kon je haar je niet gewoon laten adopteren?
is jochem de mol of net zo scheel als chris met zijn envelop?
of is jochem net zo scheel als chris toen hij zo langs de envelop liep?
ik zag de poster echt niet! tuuuurlijk jochem!
meeste mensen laten hun haar doen overdag 😂
er is een reden waarom orkanen een vrouwennaam krijgen. jup. omdat ze vorig jaar de mannennamen hadden
parastoo, werkzoekend? ik beloof je na deze aflevering dat je dat nog wel even vol kunt houden
ik denk dat pommelien een meisje is net inhoud jup, 400cc!
mezelf verliezen in een andere wereld. het beste medicijn.
jezelf zo erg in de weg zitten na een moeilijke dag dat je een boek koopt.. en vervolgens is het 3 uur later
was bij jullie al bekend dat de zwerver terug is op vlaardingen oost? zon 3 weken staat hij de hele dag te bedelen weer
waarom zijn mensen nou altijd nog niet klaar om te gaan? je bent de zwakste schakel, kut! tot ziens!
ik krijg al hooikoorts van het kijken naar deze aflevering
zon dag die even niet gaat zoals het moet.. en toch moet je er doorheen.
vanaf een bedrag van 2,50. dat red ik dus niet
dat gaat niet met minder dan een uur vertraging en een voordeeluren kaart.
ben al thuis. weliswaar 45 minuten later dan gewenst maar wel erg lekker warm!
rotterdam hoek van holland
wat zijn ze toch snel bij de 30 minuten stil gestaan net buiten t station. seinstoring. volgens de app is er niks aan de hand!
ik snap t nog altijd niet. waarom drukken mensen op t stopknopje als ze in de randstadrail zitten in zoetermeer. bang dat ze niet stoppen?
maar zeker de moeite waard om te kijken!
rot op met je religie! maar je moet n lange lont hebben om de vegan en de imam te kunnen doorstaan zonder je muren te vernielen
eentje maar?
hmm. dit is een discussie die ik op een ander tijdstip wel van je ga winnen. niet als ik bijna slaap
zou je denken. maar deze serie heeft een geschifte vegan atheïst die 0 kennis heeft en vooral schopt en een kortzichtige imam.
dan ruikt het dus naar verschraald bier. niet naar bier
en toch blijf ik denken. een concert weigeren is kortzichtig maar een besnijdenis weigeren maakt je idealist?
mannen die zijn erg vervelend. honden die snurken dan weer buitengewoon schattig
bier stinkt niet
ik kan alleen maar lachen om deze mensen. n vegan atheïst en n imam doen n wedstrijd wie heeft de meest bekrompen geest
religiestress? ik heb eerder last van florisnijd!
want als er dan zi lullig gezegd wordt ja laat je chocola maar liggen hoor alsof hij het slachtoffer is. vond ik er naar
dat sowieso. maar als je zon plaat gewapend beton voor je kop hebt, mag er wel eens naar gekeken worden.
wat zijn sommige mensen toch volwassen 😂😂
diederik wist allang dat hij door was. toepasselijk groen shirt
de manier waarop hij werd toegesproken.. deze man heeft een psychisch probleem.
echt weer wat voor om een programma zo neer te zetten dat ik medelijden krijg met een psychisch niet in orde stalker
het sneeuwt! en hoe! maar t is wel al gesmolten voor t naar beneden komt.
of ik mijn mening wil geven via het vandaag niet! vandaag ben ik
gekut bij gelukkig is de vrijgegeven en mag iedereen gratis naar den haag. hoera! 2x veevervoer!
is eigenlijk alleen leuk als geoffrey erin zit... 😍
dit is zo vergezocht dat t ook weer knap is dat mensen zo ver denken
doe mij maar vincent als mol en diederik als winnaar
wie is de mol? geen idee. ik ken m sowieso niet
kom maar op!
nope.. gewoon teleurgesteld
nou geweldig
krijg ik nou een 2e hands tweet? tsssk
😂😂 wel een beetje een ouwe lullen bedtijd hoor
😍😍 ja hè. mijn gedeelde eerste plaats grote liefde.
waaaaaaat! geef je op? je bent er bijna! de laatste loodjes
wat een prachtig kindje heb ik toch
dit is toch een prachtig alternatief voor shownieuws 😍😍😍
we doen nog even een fotoshoot met mijn knappe kindje
harry zijn bezemkast is en riante villa in vergelijking
zo klein dat de koelkast in de bijkamer moet.
als dat ook nog erbij moet in de keuken kan ik niet meer koken in mijn poppenhuis
dus totdat deze door de woningbouw wordt vervangen staat de mayonaise elke dag op tafel 😂
uhm... nou dat is het gebrek aan opbergruimte omdat de keuken half is ingestort na lekkage.
😂 maar we gaan wel. richting lantarenpaal. verbrande hondjes is geen nieuws voor mij
en zoals je al kon zien op de foto. hondekindje heeft er echt nog geen zin in!
manlief neemt deze tijd om te doen wat deze tv echt goed voor is. en half uur op de wc zitten!
wel even allemaal zappen! geen extra kijkcijfers voor deze zooi
zelfs de hond is t er niet mee eens.. verplicht de kou in, allemaal de schuld van sbs
tijd voor en douchen en een wasje draaien en... en... tijd zat!
gvd. goede timing weer. kut kut kut geef me harry potter!!!!
ook erg lekker voor vrijdagavond
uitzending gemist en thuisbezorgd? zo moeilijk is t niet!
die kapitein lijkt verdacht veel op die zoon. weet je zeker dat dit je eerste keer is?
veeg mij maar op. feesten met je moeder en de inheemse bevolking van curaçao ontmoeten.
eerst een goede bodem. broodjes falafel en kijken ik ben in opperbeste stemming
en ik maar denken dat het een soort terug op tv was. niet een realityshow met
voor 1 dagje nog!
ik heb een pauze knop op de tv. was de reclame beu. 😂
dankjewel. en ik kan je vertellen. het is hier best koud!
rennen? 2 stappen naar de dichtstbijzijnde lantarenpaal en op bar de warme choco!
het is 4 ik jank zeker straks! weet niet wat erger is, 30 minuten in de vrieskou of 30 minuten naar wannebe jan smit kijken
nog een half uurtje dan mogen we weer. de hond uitlaten.
ook leuk. beetje jammer dat ze nooit reageren
nog een half uur en dan kan ik de hond weer blij maken! hij heeft t er maar zwaar mee elke dag
kappen nou! ik snap waarom dit tussendoor moet. dit wil je net vrijwillig zien. wat een onzin
maar dan kijkt er helemaal niemand! nu is het een perfect moment voor de avondwandeling met de hond!
gelukkig heb ik dit keer met opnemen gedacht aan het deel na ik heb al genoeg films zonder einde gezien
70 jaar wat prachtig! wat ik hoor wonen al 4 jaar niet bij elkaar perfect geregeld dus.
de hond heeft de bon inmiddels al opgegeten. maar zou leuk zijn als ik er gebruik van kon maken😂
neehoor. ik blijf ver van vuurwerk vandaan. maar wat was de reden van 1 bak open 1 bak dicht in de wijk?
geloof dat je t niet helemaal door hebt. op de 31e ligt er een bon in de bus geldig tot.... de 31e!
niet zo moelijk. als ze overal maar 1 van de 2 bakken afsluiten!
lachen met en in de hele wijk 1 van de 2 bakken afgesloten ivm brandgevaar. de andere mag…
geweldige actie van en vandaag in de post!
ik ben zo goed voor mijn hondje. lang slapen doen we niet aan. gewoon op tijd op voor een vuurwerkarme wandeling.
over 27 uur tellen we weer af naar een nieuw jaar. en dat gaat weer een spannend jaar worden. heb er nu al zin in 😂
topverhaal dit. iets met een hond en een kruik. en nu dus een nat bed en een verbrand been..
hier ook. 1 bak dicht 1 al 2 weken op slot. heb om 2u gebeld, niemand komt. afval ligt ernaast hortensiastr.
en als t nou de eerste keer was.. vorige keer kwamen ze na 4 dagen bellen. zou nu niet goed uitkomen
pleur je zooi maar naast de bak hoor. komt toch niet als je belt.
jij liever dan ik! gefeliciteerd!
dat janken komt morgen wel 😂 de big 30... maar goed vooruitzicht over een half jaar ben je er ook niet aan gewend.
eerste kerstdag. check! flink verwend met eten en cadeautjes 😄
dan snap ik niet dat je niet eens zelf mag bepalen wat er aan gaat 😂😂
😂😂😂😂 kijk jij nou vrijwillig? ik stuur mijn man gewoon ge huis uit. ga maar een avondje de kroeg in!
huilen, huilen, huilen. elk jaar weer. geen kerst zonder
1 zakdoekje pas? ik ben al aan mijn 2e doos kleenex bezig!
is het beste van alle edities wat een kind!
migraine is echt een ziekte. geen slap excuus om de dag voor kerst op de van te liggen en het huishouden te laten voor wat het is.
wat is erger naar het glazen huis gaan om ieh camera je hand voor je hoofd te doen of gaan voor je mini playbackshowflashback
zo ik ben klaar voor kerst. het belangrijkste is geregeld. ik heb de tv op kerstavond!
trouwens, is het niet tijd voor een nieuwe serie op rtl? 2 weken met meelopen.
een betere winnaar hebben ze al die jaren niet gehad.
wat dacht je van irene en rudolph vieren maandag. irene en rudolph vieren dinsdag... etc.
kunnen we t nu gewoon weer noemen?
gelukkig is baldr huisbaas! nu volhouden
ik ben stiekem best wel een beetje verliefd op rudolph!
ik hoop wel dat baldr nu gaat winnen. anders is hij de volgende!
deze mensen zijn gek.
ik mag eigenlijk geen kerstboom van meneer. dus dan moet hij wel lelijk zijn!
van geweldig! nu wel heel veel zin om naar het klassiek ballet te gaan
heb je een budget van $ 15.000 voor je bruiloft en je doet je eigen catering.. hoe duur is je jurk dan wel niet geweest?
uiteraard!
is het nou ook nog van ? ben ik even hip!
zo. sinterklaas is nu lang genoeg weg. ik zeg tijd voor de !
ik hoor dio denken had ik maar een tijdmachine!
bertie!!!!!! en nu de finale winnen. de enige echte robinson sinds robinson crusoe!
kut thomas! ga naar huis! eikela
thomas mag nu ook wel oprotten. kunnen ze niet een wildcard doen met jayjay?
zo geweldig hoe liefdevol bertie over jayjay praat.
hoe moeilijk is dat nou. gps aan en gaan!
zit er ook een uitknop op maarten? vind het wel een beetje zielig zo. voor allebei!
juist oma! phil mag best een paar meppen krijgen! maar niet op zijn haar!
op de valreep zomaar het beste tvmomet van 2016. suzan visser die in dr broek schijt
ik wil ook een knuffelgeit!
hond ligt al flink te snurken. ik moet van mezelf wakker blijven. rijden er nog treinen dan, meneer aart?
kom maar op met de laatste drama.
wat een bende. het is wel weer leuk om te kijken. maar wat zijn ze toch sneu.#gtfoomh
thomas is ook echt een schoft ik zit hier ook al zoveel dagen. ja, lul, met je vriendjes en je complotjes.
kunnen de belgen weer terug? ben helemaal klaar met dit domme achterbakse gezeik
eigenlijk is meneer aart het enige goede aan de hele serie
ze wilde dio er ook uit werken. en dan janken als een kleuter als t niet op haar manier gaat. heel volwassen....
principes, anna? een ander kamp tegen opstoken, waar viel dat dan onder?
suzanne wil een feestje vieren maar anna pakt haar moment af
jemig.. laat die thomas lekker lullen. hij zou ook zijn eigen hachje redden ten koste van iedereen.
dit kan anna toch nooit winnen met die korte armpjes van dr?
dat ging duidelijk om de wenkbrauwen van phil.
maar ze hebben het perfect gedaan! aldus phil
het is maar goed dat mel en phil deze serie winnen. de prijs? chemische castratie!
phil praat alles goed wat mel zegt. maar hoe zou die moeder nou toch bij wenkbrauwen komen? die van phil zijn perfect!
ik heb van die muizen de kopprn afgehakt. het bloed spoot overal ... ik dood geen dieren! juist...
wat een contrast. van naar heftig...
best knap eigenlijk. dat je sympathiek kunt laten lijken. doet het gewoon!
hahahaha.. mel is nog altijd leuker dan zoë. vraag niet hoe, maar mel heeft een gunfactor.
ja de buren gaan echt wel oppassen! kind, ga jij lekker op alle kinderen passen zodat iedereen uit kan.
ik snap wel waarom die vent van je af wilde.
nu heb ik ook trek in stevige groentensoep. helaas dacht ik gisteren met boodschappen doen dat het weer voor stamppot werd.
mijn boterham is gevallen.. ze eet met dr mond open. misschien het brood in normale stukken snijden?
zeg schat, heb je t leuk gehad? neeeeeee je bent te laat en je hebt gezopen t zou je wijf maar zijn
nooooooo straks krijg je aids! en dan mag je chips jatten? zielig
gejat van . maar zijn microfoon blijft wel werken!
zet superstrak optreden neer. publiek op de kan het niet waarderen.
denkt dat hij stoer is wij komen uit rotterdam, ken je dat niet horen dan beetje jammer
ben benieuwd straks
de ondertiteling van is al 2 dagen de weg kwijt. zet m dan gewoon uit!
houtstrips steenstrips kurk lelijk
ohnee. dit is echt niet biologisch. er zit kip in!
ja, voor een aai in zn gezicht moet je al weg. dan wel wat tanden eruit aub!
boy, wat een leugenaar. hypocriet. misselijkmakend pisjong.
zoveel te doen. nee, wacht, marathon. morgen weer een dag!
omdat figuren als boy alles maar krijgen en de minder populaire niks.
daar ging boy de fout in en omdat er toen niet is ingegrepen is john nu weg. boy alsnog naar huis!
heb een dm verstuurd!
3 dagen geleden vond ik boy nog de winnaar. nu hoop ik dat hij een pootje krijgt en flink wat breekt. zonder handen mag toch?
dat pisjong komt ook overal mee weg. zelf pootje haken, grote bek. wat een onzin
zeker weten doe ik t nooit maar de wedstrijd was gisteren en de brievenbus nu nog leeg
de keuze is reuze. doen we een eigen doelpunt of hands?
vanaf een afstandje lijkt dat logo net barbapapa met een voetbal in zijn handen.
pakketje wel. kaartjes voor feyenoord nooit aangekomen, evenals de brief over de cvketel.
ja ik kan je helemaal niet dmn johhh
het pakje is binnen. de hond moest toch echt poepen! gelukkig kwam precies de bezorger aan toen ik naar buiten liep!
wachten op mijn pakje. gelukkig regent het en heb ik mijn boodschappen al in huis.
gelukkig hoefde ik niet zo ver. maar even een berichtje omroepen in de trein zou fijn zijn volgende keer a
de bezorger is al sinds 1 uur onderweg. mijn hond wil graag uitgelaten worden. pakje neem ik liever zelf aan.
mijn track&amptrace geeft al de hele tijd aan dat er geen bezorgtijd bekend is. zit al de hele dag te wachten! is er meer bekend?
helemaal niks. rotterdam hoek van 15.37 vanaf schiedam. inmiddels 10min vertraging en geen omroep in de trein
kom op meneer of roep eens om waarom we al 10 minuten of
dit is geen meer maar expeditie anna
hou toch op waarom bepaalt anna elke keer wie eruit moet? zelfs bij het andere team?
maar waar ken ik haar nou toch van?
waar ken ik die monique toch van?
1000 schaapjes verder en ik heb me toch trek in kebab! met
dus, niet meer op tv bij andy en melisa dan maar gewoon in ?
dat is ook geen vloggen dat is porno
de snoeppot gaat rond bij maar die modellen kijken ernaar alsof ze stront moeten eten.
stankoverlast van de buren trekt mijn woning in. woningbouw lijkt niks te doen. ?
hoe lang nog voor eindelijk weer verder gaat?
sterkte ermee.. hoop dat t voor jou net zo goed werkt! ik kan niet meer zonder.
sudocrem.. voorkomt en geneest!
is het al winter?