deze kleine dame is alweer 14 jaar geworden vandaag
logisch
namens bijna geheel logistiek nederland zeg ik aub terug op radio 2
doe niet zo vaag ina
de tilburgse kermis 2017 is voor de groenteman ook weer veilig dankzij mijn eigen vertrouwde beveiligers
ook in heerjansdam hangt de feyenoord vlag
bij ons is er ook vertraging carola,wij hebben wel een mail gehad dat wegens de drukte de kleren later worden geleverd
bedankt namens geert
ik heb gestemd,hij is voor jullie natuurlijk
2 periodes voor heerjansdam,klasse
lekker lossen in jouw kruikenstad
ook tijdens carnaval 👺 wordt er gewoon gelost in tilburg
een korte file dus
dank u voor de info en tot straks op de molenwei
gaat het eerste door vanmiddag?
jullie ook ouwe postnler
genieten,forza heerjansdam
gezellig met mijn vader top 2000 aan het luisteren. groetjes van fabienne uit heerjansdam
het is pas december,
op een televisie
jou staat ook werkelijk alles
goed bekend maken via sociale media,dan moet het lukken wilma
als er een bus gaat ben ik van de partij
ken je hem nog?,this is nog à overontwikkelde van p.i.l
heb jij een doelpunt gezien die ik heb gemist?
gefeliciteerd
speelt het eerste morgen nog een potje?
altijd leuk,waardering van de klant
dat was een gezellig feestje bij cees en nel
lekker visje voor in je aquarium
het is toch zeker een top programma,mooie landen hebben ze uitgezocht
ik heb aan de andere kant van het dorp voor de verandering geen storing bij ziggo
stoere dames
dat meen je niet,de hele dag?
laten we hopen dat ze alle idioten met drank op achter het stuur van de weg halen
wij hebben al een paar dagen geen nederland 1,2 en 3 in heerjansdam is er storing
bah wat ben jij een zielige stumperd zeg
neem zelf een paar asielzoekers in huis,
suc6,laat ze een poepie ruiken die ajvb
een vuilnisbakkie😁
het is en blijft een drama,hier in de straat ook grote problemen met ziggo
jazeker,vanmiddag nog munten in de heerjansdam pijp gegooid
net contact gehad met jullie klantenservice,10/9 pas monteur,9 dagen geen internet,kpn here we come,2995td3
storing?,hier in heerjansdam al 36 uur geen internet en telefoon
wij hebben nu al bijna 36 uur geen internet en telefoon 2995td huisnummer 3,waardeloze ziggo
daar gaat tie weer,vanmiddag gezelligheid op de molenwei🍻🍻🍻⚽️
en dat na zon zware avond 😓
knappe prestatie
hebben jullie genoeg bier in huis?,wij komen met de harde kern van heerjansdam en zijn erg dorstig 🍺
geschiedenis van de vv heerjansdam
tot morgenavond
drink je weer marco?
allemaal naar het waal en weidebad in heerjansdam
opgelost,alles werkt weer naar behoren!!!
kunt u mij vertellen of de storing van de mediabox in de regio 2995 al voorbij is?
redelijk druk bij de eerste thuis wedstrijd
groen/zwart en wit/oranje blijvejn allebei mijn favoriete clubs👍
welkom op de molenwei foppe
leroy fer weer belangrijk voor winnend qpr
gefeliciteerd vincent,en de groeten van je oud collega
ik kreeg ook een email van upc vandaag
ik denk een iets koelere zomer 🎇 deze winter
kunnen wij vanavond nog foxsportgo kijken?
mooie bril alex
gaat de bal nog rollen op de molenwei vanmiddag?
ik stuur alle windmolens naar valencia henny
thx,ik zal eens rondvragen voor de familie
is er een email adres waar je deze fotos kunt posten?
ingecheckt bij waterbus
ingecheckt bij de whits
en ik maar wachten,niemand te zien
veel suc6 ronald
mooi gezegd paul,je woont in 020 maar je blijft toch rotterdammert
janus van peenen per direct opgestapt als voorzitter van heerjansdam
jaar en diagnose pddnos,wat nu?
suc6 vanuit heerjansdam,hou die 3 punten op de schans vanmiddag!!!
helaas,net niet genoeg stemmen gekregen,iedereen die op mij heeft gestemd bedankt en tot over 4 jaar!!!
succes morgen met de gemeenteraad verkiezingen!!
succes bij de dorpsraad verkiezingen!!
succes morgen arnold,stem ook op arnold,#dorpsraad heerjansdam
morgen 19 maart kunt u gaan stemmen op de dorpsraad van heerjansdam,breng uw stem uit,stem op marcel de poorter
leuke actie dit weekend bij larocar heerjansdam,15 eurocent korting op 1 liter brandstof,dat scheelt best wel!!!
oude liefde roest niet foppe
vanmiddag op sportpark souburch alb.hjd,mooi weer dus lekker op het fietsje
van harte puck,op naar de volgende 61!!
jahoor,ze zijn er weer!!!!
is het veld bij jullie goedgekeurd voor het 1e?
vanavond openbare vergadering van de dorpsraad,20.00 uur!!!,ik ben erbij
hjd spij 11
en al contacten alex?
storm in een glas water,er veranderd niets bij w.a
voorlopig nog geen veranderingen bij wattsapp,maar heel veel mensen gaan telegram gebruiken,vandaar
iemand ervaring met de telegram app?
vanavond toch maar weer is akelig duidelijk geworden hoe slecht het niveau van onze nl clubs is,jammer
hier ook,alleen door de buikgriep helaas,groetjes aan giel
welkom op het mooie sportpark de molenwei
ingecheckt bij de kuip
gisteravond ff de sfeer gaan proeven bij ,was zeer aangenaam verrast door de passie en kennis!!
niet alleen je auto arnold,eergisteren kwam ik er langs met de fiets,de fiets en ik bruin van de modder
zeker,tot snel
weet je wie ik ben?
mooie woorden,ik denk dat wij elkaar binnenkort gaan spreken arnold
dat moet nog blijken,ik heb een groot hart voor ons dorp
ik heb haar een mailtje gestuurd dan kan zij telefonisch contact met mij opnemen
waar kan ik te weten komen over wat het precies inhoud arnold?
ik ben wel heerjansdammer en voel wel iets om in de dorpsraad plaats te nemen
upc is een groot drama,in heerjansdam heel veel storingen en dito klachten,lekker bezig 😞
ik krijg nu al een droge keel
de heren zijn weer goed bezig bij vi
nokia heb ik opgestuurd,nieuwe xenos lens erin en binnen 1 week weer terug,hij werkt nu uitstekend,topservice van nokia
ook nick en remco speelklaar wim?
oke,thx voor respons
is mijn lumia kapot?
een heel kort flitsje
exact dezelfde instellingen als de 1e foto
heel geschikt idd,was weer top georganiseerd,alle lof voor de dames!!
dat ziet er fraai uit!!
2e foto,dezelfde locatie
ik zal er vanavond een nemen en delen
de ene foto helder en 3 fotos daarna dof
al gedaan,hij flitst soms wel en soms niet
heb sinds kort een prachtige witte nokia 1020,alleen de camera werkt slecht in het donker,de ene keer is de flits slecht dan oke
ik heb sinds kort een prachtige witte nokia 1020,alleen de camera werkt slecht in het donker,de ene keer is de flits slecht dan oke
hier in de moerbeidreef branden de lantaarns gewoon
ff de derby checken 😃 ingecheckt bij vv nieuwlekkerland
thx en suc6 aan je zoon😃
nee joh,jong en in de bloei van je leven
jaja,kleintjes worden groot hé
lekkel wokken ingecheckt bij de gouden wok rotterdam
hou je ons op de hoogte karin?,thx alvast en suc6
gezellig eten met hans van toledo ingecheckt bij el gaucho
je kan ook met je bedje op het hoofdveld op de molenwei gaan liggen willem,dan ben je morgenochtend de eerste!!!
idd,goed bezig willem
goed nieuws willem 🌅👍
is ook mooi,als je vragen hebt over de windowsphone hoor ik het wel marco!!
hèhè eindelijk verstandig,welke wordt het marco,de 920?
lol,ga je op vakantie marco?
waar naar tie,op vakantie?
?
idd,druk op de ketel
rode paaltjes
paaltjes die er staan,vandaag wer een vrouw een gat in haar hoofd.kan jij iets betekenen in deze? 2/2
hoi willem,er gebeuren de laatste tijd ongelukken oop het fietspad op de molen weg,dit komt door die lompe rode 1/2
gebeurd met een fietser en afgelopen week 2 keer een kind!!,gaarne actie!! 2/2
kunnen jullie misschien iets doen aan die rode paaltjes die in het fietspad molenweg staan?,vandaag weer een ongeluk 1/2
zeikerd
wanneer maken ze het af marco?,
waar en wanneer gaat dat gebouwd worden willem?
volgende week maandag vergadering met de rayonhoofden,#elfstedentocht 2013#
komt goed
veel plezier en gedraag je een beetje ,vriend!!!
die pleuris hongaren bestelen en skimmen ons alleen maar,het zijn net joden
je weet waar ik woon aard?,gewoon door de brievenbus schuiven
woorden schieten te kort!!!
waarom geen honkpop aardappel?
gebleekt of ongebleekt. nou die drie sterren zijn echt aan jullie toebedeeld, een trio is veel leuker dan met zun twee zoals in 21/22
zo lekker samen douchen, vergeet je niet. ik begrijp nu waarom al die supporters het altijd maar hebben over hun sterren.. 20/22
elke wedstrijd, weer anaal soms doet het zeer, soms ook weer niet. je kunt winnen en verliezen, met een eikel achter je kiezen maar 19/22
ben alvast zo vrij geweest om een tekst te bedenken voor het clublied van jiskefed dit is mijn club, mijn ideaal. hier gaan we 18/22
van de amsterdam arena en ze niet meer 1 keer per jaar met een plak snor door de amsterdamse grachten hoeven te varen. oww ja, ik 17/22
de mandekking workshops en de gemeente amsterdam is erg verheugd dat de gaypride nu elke twee weken kan worden georganiseerd op p1 16/22
ik keer de jongens zeker mijn rug wel toe, maar niet allemaal tegelijk graag. gerard joling is aan de trainersstaf toegevoegd voor 15/22
zakken op een parkeerplaats langs de snelweg. op de vraag of johan cruijff de club zijn rug toe zal keren antwoorde hij lachend, 14/22
terug naar de club omdat volendam nou eenmaal binnen een kwartiertje te doen is, en je in turkije beter niet je broek kan laten 13/22
parkeerdek van de arena. ook wesley snijder die nogmaals toe gaf, dat hij liever jan smit had gehad in plaats van yolante, keert 12/22
ronaldo zal vermoedelijk een contract voor 8 jaar gaan tekenen in ruil voor een met schermen afgesloten parkeerplaats op het 11/22
het clubblad van de club in een nieuw jasje steken. op de transfermarkt is het nieuws ook niet onberoerd gebleven en christiano 10/22
side. andrelon dag perfecte krullen en vaseline hebben zich ook spontaan aangemeld als nieuwe hoofdsponsor en de gaykrant gaat 9/22
er volgend jaar bij alle uitwedstrijden ook liedjes van “the village people”worden gedraaid en de f side wordt omgedoopt tot ymca 8/22
hebben, maar nu met de mooie roze streepjes op het shirt heeft de club duidelijkheid geschapen. om de club respect te tonen zullen 7/22
hun fans en ook in de rest van het land waren er donkerbruine met de nadruk op bruin vermoedens dat ze het niet zo op vrouwen 6/22
massaal eindelijk uit de kast is gekomen, natuurlijk wist iedereen in amsterdam al wel alles over de geaardheid van de spelers en 5/22
club helemaal bijgesteld. die mooie roze strepen op het shirt. ik vind het werkelijk bewonderenswaardig en moedig dat de club 4/22
dat uitermate irritant vonden maar sinds het verschijnen van het nieuwe shirt voor de uitwedstrijden heb ik mijn mening over de 3/22
het verleden ooit over de club heb geschreven, ik weet dat ik mij nooit positief over de club heb uitgelaten en dat veel echte fans 2/22
nieuws over onze vrienden uit amsterdam hulde aan ajax ik wil iedere ajax fan mijn oprechte excuses maken voor alles dat ik in 1/22
het wordt tijd voor een oh oh aardappel in de hdo schuur!!!
lekker biertje drinken bij piet op het terras
thx,we houden ogen en oren open
hier in de moerbeidreef zijn die gasten vanmiddag al geweest
koperen bruiloft van and en hans veldhuizen!!! ingecheckt bij stationsweg agnes en schier toernooi
suc6 en meenemen die punten willem
de derby kijken met henk rodermond ingecheckt bij sportpark de westmaat vv ijsselmeervogels
idd
heeeeeeeeeeeeeeeeeeeeeerlijke uitslagen deze speelronde
en dan nu tegen exelcior maassluis!!!
ijzel in heerjansdam
ik denk dat veel mensen daar blij mee zijn
ff een paar kilometer verder ligt een echte ijsbaan namelijk in heerjansdam,veel groter,veel gezelliger
er staat helemaal niets op deze kalender!!
familie preesman op 22
in de wiekslag 22 is iets gebeurt
mazzelaar
vond on hoops
inpakken en wegwezen
is onze grote vriend janus dan nooit tevreden,het elftal waar jij het mee moet doen heeft hij zelf samengesteld
een andere provider misschien?,ik ben blij dat ik nog geen horizon heb genomen,ik was het wel van plan!!!
jaja dat zeggen ze allemaal
te laat met betalen?,ik zit 50 m.bij rico vandaan
bij ons doet alles het karin!!
heeft ekdom hem gewonnen!!!!!
familiemiddag ingecheckt bij dorpshuis
complimenten van de supporters philip,jij moet het met een elftal doen die de td zelf heeft samengesteld
laten we hopen op een goeie thuis overwinning trainer!!!
ingecheckt bij efteling
ik moet zeggen het is alles behalve een bassie en adriaan caravan en het park is ook leuk
ingecheckt bij 130 militaire opleidingen squadron k.m.s.l
met danny dekker ingecheckt bij schiphol airport
gefeliciteerd met de eerste punten vanaf de molenwei te heerjansdam
ik hou je vanmiddag scherp in de gaten voor de tussenstand wouter,ik ben er helaas niet bij
een likkepot
hij gaat morgen wederom 4maal scoren op onze mooie molenwei
en jahoor hij staat weer eens open!!!! ingecheckt bij brug kanaal van gent naar terneuzen sluiskil
maak ze gek daar in zwijndrecht willem en dan smiddags 3punten op de molenwei
with danny dekker ingecheckt bij marine haven den helder
ingecheckt bij ouwehands dierenpark rhenen
lekker bier ingecheckt bij alfa bierbrouwerij
wat gaan we doen vandaag? ingecheckt bij altena
met danny dekker ingecheckt bij bavaria
arcen ingecheckt bij hertog jan
ingecheckt bij dommelsche bierbrouwerij
proost ingecheckt bij heineken nederland
ingecheckt bij wijk aan zee.
ik dacht dat de onderkant kaal was?
aanrijding met zwaar letsel alex
met zwaar letsel alex
en dan nu ff lekker buiten in de regen zitten,heerlijk
ingecheckt bij waal en weide bad heerjansdam
dan gaan we vandaag maar is verkoeling zoeken in het waal en weidebad,lijkt me een goed plan
barbecue bij tjasker 1,gezellig
ingecheckt bij vv heerjansdam
ingecheckt bij university of applied sciences utrecht
ff lekker naar mariejean kijken
ingecheckt bij groene hart ziekenhuis
ingecheckt bij nieuwegein antonius ziekenhuis
ingecheckt bij botanische tuinen utrecht
ingecheckt bij hogeschool utrecht faculteit communicatie &amp journalistiek
zo dat is weer lekker vroeg zeg!!!!
is dat harry,op naar het kampioenschap
heeft een link gedeeld
een en al vakwerk!!!!
in heerjansdam zh
ff een biertje drinken aan de bar ingecheckt bij side star park hotel
graag gedaan
bij de kijkshop verkopen ze goedkope cdspelers
hoe is het daar in zeeland natas?,ik hoop dat je het een beetje droog houdt
laat geworden?
mooi gezegd rogier
gefeliciteerd met een prachtige rotonde rogier,vakwerk en een puik stukje reclame
goed werk van de mannen van van arkel
gefeliciteerd ron,je hebt het verdiend
het dondert hier in heerjansdam
proficiat geert
ik zeg een paar stickers van postnl als sponsoring en de deal is rond
dat wordt toch ook wel eens een keer tijd zeg
hebben hier in postcode 2995 last van geen/traag internet,kunt u hier iets aan doen?
hebben hier in postcode 2995 erg veel last van traag,cq geen internet,kunt u mij vertellen of er iets aan gedaan wordt?
klaar voor een nieuwe nederlaag of gaan we het seizoen positief afsluiten? ingecheckt bij vv heerjansdam
met of zonder boerka?
vandaag 1 mei dag van de arbeid,vandaag 1 mei de 1e dag arbeiden voor postnl
oke willem we zullen het wel zien vlg.seizoen,prettig weekend
grote schoonmaak bij de club of blijft iedereen willem?
vanmiddag voor het eerst in 6 maanden weer eens een paar biertjes drinken
nee alec ik ben tegenwoordig een teletekst supporter
vanmiddag en vanavond gaan we maar is ff in de feesttent op het dorp kijken,ik heb er zin an
ff lekker bijkomen van wederom een week waarin weer een hoop gebeurd is
lekker zon finale zonder spaanse clubs
welke topper?
weet jij al wat meer van de overname alex,voor mij is het een groot zwart gat
weet jij al wat meer van de overname alex,voor ons blijft het een groot zwartgallig!@alexridderkerk
hoe komt het dat alle abonnees met digitale tv in heerjansdam 2995 storing hebben?
hoe is het met je enkel?
kut neuzen kampioen,maar wij 2e?
vanavond
en zo is het kulllekke
ook in heerjansdam hangt er een vieze stank
lekker de hele dag in je mandje blijven liggen
prettig weekend
straks naar de dokter
aan het genieten van de heerlijke muziek op radio veronica de top 880 van de jaren 80
nieuwe trainer hjdam ook al bekend,hans kraaij jr.
dan ga je henk de kul toch ff helpen
jammer dat tie weggaat,alleen weinig clubliefde te vinden
terecht
hoelang gaat dit nog duren dan,wij hebben echt slecht beeld
marcel@upc is er storing op pc 2995,ik heb smiddags geen internet en telefoon meer
problemen met internetverbinding en telefoonverbinding,modem meerdere malen gereset en klantendienst gebeld,wat nu
best lekker weer in tilburg op de eerste woensdag van de week
alleen jammer dat nieuwlekkerland gisteravond gewonnen heeft
jammer dat nl heeft gewonnen gisteravond
vandaag exact een jaar geleden heb ik mijn moeder dood aangetroffen in haar huisje
lekker aan het zwembad in hjdam,straks biertje drinken op de voetbal