nooit genoeg parijs is mijn persoonlijke mening dus waarom niet
binnenkort weer naar lievelingsparijs. laatste keer dat ik daar in winter was 2010? ontdekte ik de voervogeltjes…
gewoon doen en niet verontschuldigen joh. dat zenuwachtige gedoe
die staat zeker naast dooierattengeur en de kattenbakgeurkaars
gaaf een opleiding voor free running in amsterdam
de leukste, grappigste en meest uit het leven gegrepen cabaretier die we hebben. bindende luistertip
nog niet. wordt nog doorgezocht
ga met m ergens heen en neem mij dan mee
harrie jekkers die tot vorig jaar geen idee had van het bestaan van coldplay had. die vent heeft nog een beter leven dan ik al dacht
vroeger paar maanden terug kon je daar afbakvariant van halen bij de jumbo. ik mis die tijd
er was vanmiddag wel een ander hondje dat de dag van zn leven had
het wordt helaas voor mij wel te donker om de zoektocht te volgen. dus einde verslag. hele dag geen spoor van geweest
ja! staatsbosbeheer iig wel en volgens de dierenambulance hadden ze ook de jagers zelf ingelicht
de invallende duisternis bemoeilijkt de zoektocht. maar met warmtecamera kan er hele nacht door worden gezocht
kruising arnhemse karweg/oude prinsenweg
missen jullie niet iets? ja? hier
maar speurhond pedro geeft de moed niet op 🐶#binky
de hele dag is nog niet gehoord. wat het zoekgebied oneindig groot maakt. ‘het is nu wachten op de gouden ti…
ai, de drone is neergestort. er wordt niet alleen gezocht naar een hond maar ook naar een drone nu
zo kan men van de grond meekijken met de drone. of nou ja..
‘ik moet even naar de lucht blijven kijken’, verontschuldigt alfred zich aan een man die wil weten wat er aan de ha…
met een drone wordt er gezocht naar de vermiste hond
er wordt een drone geprepareerd om over het gebied mee te vliegen
de dierenambulance nijkerk heeft twee auto’s tot z’n beschikking. eentje met vierwielaandrijving links voor in de…
groot risico voor binky de wilde zwijnen die het hondje levensgevaarlijk kunnen verwonden..
onderwerp van de zoektocht is binky. de 14jarige yorkshire terriër die gisteren kwijt raakte. het hondje is blind..
ik ben in de bossen bij putten. een stuk of tien vrijwilligers zijn bezig met een minutieuze zoekactie, die de hele…
ben er best fan van om een kwaliteitsfilter in te stellen
stuur kaas naar want vandaag is het meisje dat mijn leven mooier maakt een jaar dichter bij haar geesteli…
dit is nog subtiel ipv ‘ola dit is mijn jas’
wat een dom programma zeg
hoe ik op maandag naar m’n werk rijd met het besef dat het de dag ervoor zondag zonder lubach was
beste zondagen
mooooi!
vind dit altijd het walgzaamst van twitter
waaro??
de hond laat zich echt te veel inspireren door de kat en ligt heel zondags te chillen met ingeklapte pootjes
spook is nog steeds niet terecht..
en naar het huis van politici gaan!
ik heb zelf liever gewoon een huis maar hey wie ben ik
zin in jupiler league
dat beest hep al een plaat voor de kop
k wou net zeggen. mogen we nu wel klagen?
geen probleem! maar altijd hondenliefde in de buurt als je het nodig hebt. normaal gesproken dan. zijn…
zo blij zijn we om dat te horen. zin om maandag/dinsdag op te passen? voel je niet verplicht, alleen als…
de hond zit tegen het plafond. ik ga naar schipluiden verhuizen
hahahaha dit was hilarisch. hond in dr eentje naar boven gestuurd en wij lachen in de hal. blaft…
woon op acht hoog. elke keer doodsbang
dat, samen met onoplettend de straat oprennen en iets met een lift waar ik niet eens aan wil denken om het te beschrijven
in is er een lieve hond vermist. helpen jullie zoeken?
sorry hè. maar stap effe in heb honger
ik dacht knol maar het bleekselderij
zo raar. snap dat niet. gelukkig weet k zeker dat jij wel echt bent
oh die heb ik nooit gezien. hoe fake? en mensen gingen vriendschappelijk met haar om?
ik heb iets gemist geloof ik. praat me bij!
pizza is een amerikaanse eskimohond! maar wordt niet als zodanig erkend
geen foodie?? nog nooit zo beledigd
waar op deze foto staat maxim dan
zo gek op jullie fanheid♥️ toppers
stel hè nec wint de en promoveert direct. gaat de periodetitelplayoffplek van periode 1 dan naar fortuna sittard?
nog een mooiere versie ook
een cohenesk mooi lied over een verboden liefde in de mooiste stad van de wereld
alles van dit maar vooral ‘we kissed like we invented it’
echt he.
likkie jus erover om de droogheid te maskeren. perfecte lunch hoor. trek in, zelfs
op dit moment nog onduidelijk. daar laat ik de andere afdelingen even een plasje over doen en dan koppel ik het weer terug, check?
ja tuurlijk. lekker toch
heb dus nieuwe schoenen en nu klinken mijn voetstappen als die van een vrouw die dingen zegt als ‘we moeten de bull…
m’n allerallerbeste vriend is een meisje, vind dat echt top. verder niet zo veel geloof ik
sprak gisteren een man die álles weet van egypte en daar dan ook zijn woonplaats op uit zocht
hey mike wat heb je te doen morgen. en overmorgen en daarna en daarna en daarna en daarna en daa…
deze kast dan
gave verjaardag vandaag rutgers ziet abraham 👴🏻
zich beter voelen dan de rest, zeiken, kutprojecten maken, zakkenrollen. heb je even?
er is in nederland dus echt een vereniging nederlandse kerstboomkwekers
rosenborg uit, ook altijd lastig of nie
ola! ik zoek iemand die spaans kan spreken, verstaan en lezen. si!
van plek 16 naar 32. achter rwanda en bolivia. lekker gewerkt, nederland 👏
leven met dit soort dingen vinden door heel het huis en met heel het huis bedoel ik in bed.
eindelijk een product naar mij vernoemd 🚮
ik vind het eng
ik denk dat ik zelf maar alvast ga, namens haar
als je zo moe bent van spelen met je nieuwe beenhamknuffel dat je de mensen in zoetermeer nog wakker snurkt 😴
weet ik veel. mag ik hierui
lekker zellef weten toch. we hoeven hier gelukkig niets te vinden van andermans seksleven. lekker doen
ik wil alleen maar lief doen
zoals elke week de leesportefeuille op volgorde moeten leggen en zoals elke week de helft vandie schijtboekjes kwij…
haagsche bos? dat is indebuurt! zin om op te passen vandeweek? 😏
zo irritant als de hond beter op toeristenkiekjes staat dan jijzelf 😒
als je een mooie nieuwe journalistenjas koopt maar even vergeet dat je een dierenjournalist met een witte hond bent…
voor gezonde dosis voetbalhumor 👇
de vaste verzorgster van marria over de ontmoeting
directer david van gennep van aap over marria, sony en de toekomst van de geredde aap
de volgende stap voor marria? dat is moeilijk te zeggen. kan maanden duren tot volgende stap. voorlopig heeft ze no…
chimpansee marria heeft dertien jaar alleen gezeten en ontmoet voor het eerst een soortgenoot
knuffelen, stoeien, lachen. prachtig. dit is precies wat er moest gebeuren. ‘moet je zo’n aap dit na 13 jaar alleen…
als je me kwijt bent, ben ik verdronken in tranen. prachtige ontmoeting tussen marria en sony
verzorgen van marria ‘huilen alsof je vooraan staat bij een concert van acdc, zo mooi.’ iedereen z’n smaak
‘dit is wat we wilden zien’. de twee chimpansees zitten elkaar door het luik te vlooien. heel normaal apengedrag, n…
met tuiten
chimpansee sony heeft een erectie. dat is heel normaal, als een mannetjesaap een vrouwtjesaap ontmoet. 🍆🐒
traantjes in de zaal. het eerste contact is positief. ‘goed chimpanseegeluid’. het luik staat nog op een kiertje.
we zitten gekluisterd aan het scherm. inclusief de groep internationale verzorgers van marria
de luiken gaan zo op een kiertje. aan de hand van de eerste reactie gaan we kijken of sony en marria elkaar verder…
om marria en sony niet te storen, volgen we de ontmoeting op afstand. livebeelden in de ‘situation room’
achter de schermen is keihard gewerkt om marria weer aap te maken. en vandaag gaat marria haar soortgenoot sony ontmoeten. spannend!
chimpansee marria, die dertien jaar opgroeide in een gezin in portugal en at met mes en vork ontmoet vandaag voor…
ik ben vanochtend bij stichtig aap. hier geen koekjes bij de koffie maar... apenkoppen!!!
die plant mag je overigens hebben hoor
deze is van mij.
zoek iemand die naar je kijkt zoals liv kijkt naar haar nieuwe stippenbegonia ?
die van mi... oh wacht
ik heb geen eigen wil meer ik moest dit doorsturen van liv
waarom zijn mensen zo dom
eindelijk een album gevonden waar ik wel geld zou voor willen betalen
wanneer was laatste keer dat jij eind oktober dacht ‘shit waarom kan ik niet in mn bikini naar buiten?’ laat reacties achter in de comments
heb hem gezien en mag ik anderhalf uur van mn leven terug. sloeg echt als een tang op een varken
al 7 jaar uitverkocht. even gerekend dat betekent 2.757.500 mensen. hoe kan het dan dat ik niemand ken die soldaat…
ja! echt te gek was die
bedankt voor deze tip van onschatbare waarde 🙏
keken gister prisoners en bleef zo achter. wil nog een film kijken waar ik zo achter blijf. wie heeft er tips voor…
kennen jullie jantje beton nog? hij woont tegenwoordig in frankrijk en is daar redelijk succesvol met exclusieve sa…
als ik in winterslaap lig en iemand zegt ‘hey ik heb hier verse cheeseburgers’
deze keer wel. een jaar later gooiden we kiezelstenen in elkaars gezicht en toen was ik m echt kwijt
allemaal. een keer of twintig. mag dat ook?
zo ben ik ongeveer ooit een voortand verloren
is goed maar niet morgen want dan komt de huishoudhulp
ben opeens een man van vijfenvijftig want heb ineens een caravan gekocht?
toe effe. geef ze dan aan mij
schaamteloos deze hond liggen lopen te filmen maar dit is een god in een hondenlichaam
buitenaards mooi 🙏😻
toen ik vier jaar terug nog dacht dat ik een stoere jongen kon zijn
wie wil met mij hierheen? 🔥
‘waarom ik een aanwinst voor uw bedrijf zou zijn? nou, allereerst heb ik een onovertroffen affiniteit met adobe’
nee regenboog in tanthof, en daarna stanislas! sorry zie het nu pas hahaha
gaaf. een tijdschrift over nudisme dat bloot! heet en dat er dan eigenlijk echt precies niks bloots in is
vet!!!
catalonië roept onafhankelijkheid uit
serieus fietsrouteplanner.nl was mijn grootste vriend
doe dat gewoon vanaf mn balkon met mn afstands
nee hoor vriend het gaat juist net weer een beetje
ik had een kutavond en toen had iemand in de trein het over een ‘argentinische middenvelder’ en toen ging het wel w…
was gewoon naar binnen gegaan als ik jou was. je schijnt daar best goed te kunnen leren enzo
luister naar wat die zeer capabele vrouw te zeggen heeft en stop met jezelf zo extreem grappig vinden en dit
neem dan nog effe wat smaakvolle fipronil alsjeblieft
ik ben bijna niemand die harder knokt voor haar idealen dan hennie de haan. en het enige dat men kan doen is hahahahakippennaamhahaha stop
echt, stop. zo teringflauw dit.
dit. precies dit. nu voor eens en altijd stoppen met die kutgrapjes over de naam van hennie de haan en kippenvel
heb precies hetzelfde
vandaag is vriend woody precies een jaar in ons midden 😻
ik heb bedankt voor de eer dus zijn ze weer teruggevallen op het ouwe soepie
ugh ik ben niet geblokkeerd wat waardeloos
lijkt me om meerdere redenen wel een goed idee
ga toch weg. nietkampeerders zijn verdorven mensen
ja zo kun je dat achteraf over alles wel zeggen. beter op voorhand nadenken onnie
nieuws over de rat in de krant van vandaag 🐀
bedankt vriend het was prachtig 🙏😭
duizend uur nadenken
lieve help. volgende week achttien redenen waarom zoetermeer het new york van holland is. ‘hier is ook een park’
kan hier dagen naar kijken
fucking vet onnie
geloof me aangifte doen is dan juist niet heel makkelijk
gaaf.
maar dit is écht een bot die raadt wat er op de foto staat??
gisteren nog mijn avondeten kunnen betalen met een seizoenskaart en professionele begeleiding
zullen we een platform oprichten en door heel nederland checken waar ze wel en niet mogen en daar betaald voor krijgen?
willem 2 heeft een manier om zowel het clubblaadje vrijwillig als het stadion oh nee seizoenskaart! vol te krij…
het verschilt dus wel per restaurant.. heb er al drie gezien waar het mag en eentje waar piz buiten moest blijven
hahahaha wat?
lekker blokkeren joh
ja bout, ugh, stom, dat soort dingen
hij had er 46 maar eentje kreeg een tijdstraf door inhalen dus toen had ie er ineens een minder
lifehack er is een relatief onbekende franchise in hamburgers en frietjes in nederland, en daar mag de hond mee na…
hahaha meen je?! wel fijn dat ie dan meer op een labrador lijkt dan op een dalmatiër want die zijn echt knaak
hahahaha zo sierlijk &lt3
wat gebeurt er eerder
blij dat er op de communicatieafdeling wel kwaliteit zit
bij mij verzinnen ze altijd smoesjes
keer of vijf. ze verzinnen altijd smoesjes
zekerheden in het leven belasting betalen je gaat ooit dood als je vierde in de rij bent bij de jumbo krijg je nooit gratis boodschappen
ik morgen, als ik benieuwd ben of ik me als feyenoorder al buiten de deur kan begeven
doorrijde dan
piz wil er ook eentje maar het is geen tomhond natuurlijk
hopen dat ze bij de finale van hhb niet geïnspireerd raken door het niveau van de klassieker anders gaan ze met dit…
ik na eerste helft van de klassieker
zou jij niet thuis blijven als diks centraal zou spelen
net als iedereen die ajax invult. niet erg hoor.
klassieker
ik doe dat als ik in de kroeg ben
waarom zou ik een geit offeren aan de goden en leren bu…
en mij laten vreemdgaan met de werkster 😤😤
ik doe wel overnachten. gewoon in mn huis boven de hoven!!
er is hier een brave hond terug naar de studio jasper shit rectificatie het is een heel…
zelfs door een kapotte iphone en geen gevoel voor hoe je foto’s bouw is het hier nog best aan te gluren hoor
letterlijk niemand die deze verslaggever nog gelooft 🕺
het is weer de tijd van het jaar dat heel delft vol hangt met gouden snaaien
altijd als ik ook maar een centimeter binnen de ‘stads’grenzen van de haag kom
hahahahahahahaha maar het is wel accuraat ugh
hahaha. als nul een baksteen is en 200 een suikerspinwolk komt ze op 430 ongeveer
de pot met goud staat dus toch in delft
nou ja niet altijd mag de hond mee ✋️
het leukste maar écht het állerleukste aan een hond is dat ze mee mag op avontuur en daar dan mooie fot…
hm toch maar effe kijken. wedoenhet?
fuck t is al uitverkocht hè?
lieve sam van harte!!
heb mn tarrels graag in perfecte krul
waarom zit er in shampoo en luchtverfrissers eigenlijk ‘aqua’ en niet gewoon water? ja ik ben inderdaad m’n telefoon vergeten naar de wc.
ja dat doet ie inderdaad??
kom hem brengen dan pakken we gelijk bier
word zo blij van deze
delft? gezellig!!
hahaha dit zou er nog best mee doorkunnen toch? beter dan ‘den haag’ in hitmans bodyguard
dit is inderdaad nederlands, netflix. een hardnekkig dialect dat alleen nog wordt gesproken in regio’s waar ze nog…
ja ok is misschien ook wel zo
doe anders een poll of achttien per dag over of het met curry of ketchup moet de wereld heeft dat nodig
stella roemer. zo heette ze. had daar echt tot gisteren een screenshot van op mn telefoon
zat voor het eerst in jaren in een trein en had daar kans om na te denken over dat iemand in ons land de tijd had o…
ik vind dit echt het minst grappige dat ik ooit heb gezien
ja lees dat echt nét! dus die wordt het 🔥
worstel hier al heel de week mee ugh. ga denk ik voor boere
of een hersendode geit centraal achterin. beste optie.
amrabat als back ben k toch ook niet echt fan van gebleken. was dirrekie er nog maar
anders speel ik wel joh. volgens mij de laatste optie
waarom overkomt mij dit nooit en heb ik alleen onverstaanbare chauffeurs zonder hond 😤
moet je wel een abonnement hebben vriend. en anders mazzel hebben dat je t oud papier nog niet hebt weggebracht
ik heb gewonnen met de kras 🔥
als jullie me kwijt zijn, ben ik een keer of achtendertigduizend dit filmpje aan het kijken
zulte waregem. dat klinkt als een authentiek noordhollands gerecht op basis van zeewater en doodgereden eekhoorntjes.
same. letterlijk.
gaaf! kan me wel heel erg ergeren aan dat dat rood nét niet precies halverwege die n in r…
ik heb een mac help
vervang het ene woord door het andere woord en de hele zin heeft een andere betekenis
waar kan ik dit kopen ik heb er een nier voor over??
dat fenomeen is dan weer een griekse tragedie en das dan weer best ironisch
als ik nog 1 x ‘heb lief’ lees ga ik mezelf mutileren met een theelepeltje
heb alles wat met pindakaas te maken heeft op mute gezet en nu bestaat mijn timeline uit mezelf en iemand die steed…
aaaaaa sikonjaaaaaa baabaanietsiwawa sittiehoe binjaawaa en iedereen die het anders zingt, heeft het fout.
hahahaha leuk is dit. dit is typisch zoiets van ‘iedereen die het anders doet doet het fout’
heeft ie je er toen gelijk op gewezen dat het menselijk is om een paar minuten te wachten tot je een twee…
er moest ingegrepen worden. anders vindt je vader je over een week of twee middenin de nacht naakt huilen…
dan sta ik echt niet voor mezelf in
ben echt 1 kuttweet over die hoerenpindas verwijderd van alles wat met die bende te maken heeft muten, ac…
als ik 1 minuut in slaap val en blijkt dat ik de slaapkamerdeur ben vergeten dicht te doen
wilde hond worden en ben nu hondenjournalist dus ja hm
trouwens jij hep helemaal geen harige polsen
zeg klopt t eigenlijk dat parkeren gratis is als er een kind in de auto zit of wilde mama vroeger g…
ja precies. jij bent het ook weer ergens mee oneens. en lekker moreel omhooggevallen net zo goed…
snap überhaupt die panische kramp om maar columns te bouwen als je ergens iets van vindt niet, inderdaad.…
wat een gore auto
‘hey wat ga jij dit jaar eigenlijk doen met oud en n...’
vind het een beetje tegengeluid om het tegengeluid. omdat je er ook altijd tegen moet zijn. maar goed, dat mag natuurlijk
jullie zouden ook een leuk setje zijn denk ik
niemand hep haar aan de binnenkant van de onderarm, geit
lekker gewerkt, 🙏
er zijn grenzen
wil je me dood hebben
gast karrewiel! meest sfeerloze kuthok dat er overeind staat maar je kan…
maar wil ook die in dellef want daar is in de buurt
staat er eigenlijk in het regeerakkoord dat eierballen ook buiten groningen moeten worden verkocht?
ola! zie dit nu pas was effe werken. heb mn nummer gestuurd
hardop
was welgeteld 1 minuut in groningen en heb blijkbaar een memo gemist dat kleren hier zijn afgeschaft in het park?
maar dit is echt. hij doet het echt. deze wereld is af.
als je kon sms’en met je hond
waarom zijn verdronken epileptische jongetjes aanbevolen aan jou?
delftutrecht. een uurtje rijden. ook voor de zon, die in utrecht blijkbaar een uur later onder gaat?
en mijn enige andere verjaardagsfeitje de oostenrijkse vlag🇦🇹. zo, nu hoeven jullie me nooit meer op een feestje u…
met dit verhaal doe ik het al jaren goed op verjaardagen maar niemand gelooft mij. hier, nu staat het in de krant.…
kan iemand dit bevestigen? mijn tante wil het op haar muur schilderen. zou tof zijn als het klopt de quote op koff…
een rare, maar oprechte vraag welke tekst staat er ook alweer op de koffiebekers van
zijn altijd zo saai. beetje praten over wedstrijden. kijk liever naar sport zelf. maar deze was echt gaaf
teeeeering wat een reacties. maar echt altijd op álles wat zij doet. lieve hemel, als ik haar…
maar echt. tranen met tuiten nondeju
sportdocu’s zijn zo’n beetje het meest bedroevende wat de mens heeft bedacht, maar die ene over die nu op tv is. janken zo mooi 🙏
ze wilden het lichaam van de ‘waarschijnlijk verbrande’ hond weghalen. maar dan dit. ik huil niet. jij huilt.
wel een lekkere luier om leeg te vrete
hahahaha is t r zo een ja? drama. pizza vreet alle servetten van straat.
lieve mensheid waarom zijn jullie zo? 😤
ik ben over een paar dagen terug. blijf lief voor elkaar
deze plek. deze stilte en tegelijkertijd deze herrie van wind en golven ♥️🐶
dank voor lieve berichten. het zijn er zo veel
er is dus geen lichaam gevonden.
politie doet hier onderzoek omdat er vermoeden is dat het lichaam van hier verborgen is.
politie komt zo met ‘een mededeling’. nog onduidelijk wat er gaat worden gezegd.
ook een speurhond. zou er een doorbraak zijn? het valt eigenlijk alleen maar te hopen.
een man in wit pak van het nfi.
er staat hier een commandowagen en voertuigen van het nfi. er wordt sporenonderzoek gedaan dus. de politie komt zo met ‘nadere mededeling’
de zoektocht concentreert zich nu op een gebied ten oosten van de spiekweg. hier wordt nu heel gericht gezocht.
een groot gedeelte van het gebied waar gisteren werd gezocht, is vrijgegeven. zo ziet dat terrein er uit. er rijden…
en de vrachtwagens vertrekken vervolgens ook weer. al meerdere keren gebeurd.
aan de oostkant van de spiekweg wordt er dus ook in grote getale gezocht. meerdere groepjes agenten lopen hierachter
in de holsterwold, waar gisteren ook uitgebreid gezocht werd, zijn al meerdere van dit door vrachtwagens aangekomen
ook een stuk ten oosten van de n705, rond het nulderpad, is nu afgezet in verband met de zoektocht.
hier wordt gezocht omdat politie een ‘concrete aanwijzing’ heeft over de vermissing van onduidelijk is wat dat precies is.
er wordt alleen hier gezocht vandaag. rondom den dolder is praktisch alles doorzocht en niets gevonden. daar zijn geen zoekacties meer.
in zeewolde wordt vandaag verder gezocht naar zal de zoektocht weer volgen. net als iedereen hoop ik dat het nu snel voorbij is.
dat snap ik. geweun doorsteumâh, we kommen vanzellef bij de have!
jeukt als de taffes en werkt voor geen fluit. gewoon niet meer roken. als je écht wil heel makkelijk
bedankt voor het volgen en fijne avond en nacht