tuurlijk gio dan haal je lekker jorgensen eruit, de enige die nog wel eens scoort...
net 5 skipt soap de spa,. per wanneer want dan moet de video ingesteld gaan worden want ik vind het wel super.
kan er nou echt niemand een penalty inschieten bij onze club..... 😕😕
echt die wimpers van mevrouw 😳😳😳
frank wordt steeds beter klaassen is nog moe van het warmlopen na pass richting niemand 😃#blrned
in dit tempo met gele kaarten eindigen we de wedstrijd met een mannetje of 8. misschien moet bronkie even ingrijpen
heerlijk vanavond een dubbeltje op zijn kant met afrojack 😃😃
vanavond opening seizoen zin in!! prison break was ook top, dus dat moet dit ook worden!
doe die schermen aan we zien niks
bij gebrek aan de fontein springen ze hier van vreugde in de vijver 😃
welke club staat bovenaan.....
zo nog even een potje memory, boekje lezen van shirtje ligt klaar! wij zijn er klaar voor! zet hem op…
zo de 3 punten gaan weer mee, ik zeg hup psv 😊
man man man wat een spanning zo na de paasbrunch kom op feyenoord
eindelijk zie ik weer een feyenoord wat kampioen wil worden come on
bestelling gehaald in charlois maar de menus smaken toch lekkerder met patat. . hoe gaan we dit oplossen? 🍟🍟
fantastisch programma meer angst volgens mij bij de grotten dan bij de kameel 💪💪
en we zijn er weer bij 🎾🎾
hartelijk dank voor de uitnodiging. we gaan ervan genieten 🎾🎾
nou we zitten er klaar voor. zet hem op roger! 🎾🎾🎾.
wow na djoki nu murray. ik zeg come on je kans wordt steeds groter 🎾🎾
wakker worden en nog net je held kunnen zien knokken come on
das lekker wakker worden zeg. wat een partij 🎾🎾🎾#australianopen
dit moet toch gaan lukken..... 52 hij is niet te stoppen
nou effe op stoom komen nu en dan anderson breken en pakken come in
8 maart 2017 als het goed is 👍
lastig omdat je het hem gunt of omdat hij het verdient....
eindelijk die emotie nou doorzetten en volhouden
zelfd gedachte hoor na goede nu de focus op 🎯🎯🎯 lekker pijltjes gooien 🎯🎯
volhouden nou slopen die ik wil naar bed 💤💤💤
goed gedaan ouwe. nu even rust en dan weer knallen 🎯🎯.
kom op nog 3 sets te gaan 🎯🎯. je bent een toppert!
juist nog 1 set te gaan voor de winst
heerlijk weer top partijen. lekker vakantie morgen ochtend even naar kerstcircus en dan snel weer voor de buis 😃😂😃
ik zou zeggen nu lekker je bedje in. jullie waren weer geweldig vanavond
en dan heb je ook nog die bakalikoekoe aldus adri van tiggelen 😃😃
nou daar gaan we dan oh come on
lekker hoor het wk darts is weer begonnen en dan verliest ajax ook nog 😂
wij zullen dit echt niet meer winnen, maar die scheids is echt zo gek als een deur ⚽️😡
lastig lastig of de comeback van of de pfffff
het was bij mij een pidget kostte me 9 balletjes maar hij is in the pocket
top weekend afgesloten met het kijken maar de nu nog even kijken of ook nog even wint
wat een top serie. in minder dan een week alle afleveringen gezien nu wachten op seizoen 3 in 2017 😎😎😎
hoi ontvang net dit pakket van jullie en het is open en kapot. glitters zijn verdwenen. graag oplossing vo…
het begon best aardig, maar vreemd einde met als anticlimax kevin met de sleutels 😎. slecht einde van deze serie helaas.
wat nu? , wordt maar schakelprogrammatje denk ik 🙂🙃🙂
kan ik alvast reserveren voor over 5 jaar in je restaurant? 😉
je hele hoofd liegt wat lult dat mens raar maar toch verslavend praat
wauw wat een show vanavond! het was in 1 woord geweldig
helaas kan ik nog steeds niets bestellen online. ik stop nu maar met proberen
pfff slecht en een beetje langdradig aan het worden nu
ik durf het bijna niet te zeggen maar ben verslaafd.... 😳😳😉😀
even wat afleveringen van inhalen blijft toch een prachtig programma 😂😂
dit was toch wel de slechtste aflevering tot op heden. hopen dat het volgende week beter wordt.....
zou super leuk zijn voor onze kleine feyenoord fan 😄 👍👍
gaaf man! knap gedaan feyenoord echt helemaal top
huppie huppie huppie come on gewoon lekker ⚽️ ballen!
geweldige film. wat hebben wij gelachen
oase bar, wat een feest en wat een aanrader. top avond gehad in
dat mens is echt straal lazerus....
wow. kom je net zelf van de baan zijn ze nog bezig
maar goed we hadden ook met 51 kunnen winnen als we iets beter met de kansen om waren gegaan
jammer hoor echt een terechte goal afgekeurd....
pfffff hoeveel kansen heeft klaassen nodig?
ouderwets geweldig goed 😂😂😂😂😂.... ik loop op mijn eigen feest....😂😂😂😂😂
en dan kan je weer niet pitten
was slecht he!
val normaal binnen de minuut in slaap bij maar zelfs dat lukt niet. geeuw ik wil slapen pfff
tsja na alle tv over toch een beetje met mn ziel onder mijn arm maar gelukkig hebben we het nog 😃😃
haha waar zullen we heen gaan 😂😂
ik ga voor winkelen in wereldsteden is altijd een goed idee! bekijk hier
dan ben je zo veel beter en heb je slechts zilver pfffff jammer maar alsnog gefeliciteerd!
veel plezier!
na de winst van en even wat anders. whitness it is!
ik heb niet heel de wedstrijd gezien, maar terecht gewonnen toch 😃😃
zilver voor met een gouden randje hoor
inderdaad onwaarschijnlijk en wat nu???
scheidsrechterlijke dwaling hoor zwak zwak zwak kom op
ik mis de overtuiging om te winnen bij het mannen kom op nou
wow wow met een ace derde set eruit slepen come on
dit wordt goud 🎖🎖🎖 kan toch niet anders ?
en weltrusten hoor pffff erg jammer probleem
wij ook wakker nu. precies op tijd voor daphne schippers. kom op meid.
sensatie is het zeker. wat een race! geweldig we hebben weer 🏅🎖🏅🎖 goud.
coen veel plezier geniet ervan. grz. noeska uniglobe merk travel
vanavond kijken we de favoriete film van manlief
doe toch normaal taylor come on nog een paar legs
grrrrr kan ik eindelijk spelen
verrassende uitslag na 90 minuten.....
zo! lekker vrij vandaag. kunnen we ons weer ouderwets opladen van nog een paar uur wachten en dan weer 🎾🎾
en duitsland huilt.... nou ik huil al maanden danny blind 😂.
allez les blues klein beter peper in het k..... van giroud..... 😂😂
pfff billenknijpertje hoor voor en voor mij. zelfs als je het niet live kon zien bleef het spannend. chapeau
nou frits ik huil gewoon lekker mee. pracht programma 😊
wie laat er in godsnaam dan ook pelle een penalty nemen??? 😢🙃😳
wat een beleving bij die italianen ⚽️
wat is dit onverdiend zeg pffff
het spijt me hoor maar rene dit kan echt niet. ik ben rene froger......
wat heeft belgie trouwens lelijke shirts belangrijk....
ben niet zon williams fan, maar ze blijft wel knokken. gave finale.
van mij hoeft het niet spannend te worden hoor. pakken die hap go 🎯🎯🎯
murray murray wat sta jij waanzinnig goed spelen. nu breken die hap.
dit kan echt niet mensen pfffff kom op met die punten wil echt naar bed toe 😊🙃🙃🙃
en we hebben een winnaar.... justin 😋😋😋
wow wat super gaaf. volgend jaar weer proberen een kaartje te bemachtigen, dit jaar niet gelukt helaas 🎯🎯🎯🎯
jammer he. ik volg allleen de tweets meer niet
helemaal niets helemaal niets......😃😃😃. je lacht toch je ... uit je broek 😃😃
zullen we schorsen op basis van de beelden voor de finale 😂😂😂
wat is die vent toch irritant kan iemand die man vertellen dat het echt een clown is pffff
potje hoor, maar dit was geen strafschop. goed gepakt door de keep!!
wat een top programma, echt weer iets voor mij 😃😉😃😉
zuid afrika!!!!
heerlijk gegeten bij restaurant in rdam echt een aanrader 😃
wat kan die toch lekker juichen ☺️🙃. gozert bedankt voor de 21 😉
onze dirk kan alles zelfs housen we want more 🙃😉🙃
drijfnat van het zweet maar zo blij .....#feyaz blij blij
zullen we weer gaan voetballen aub feyenoord pfffff
nou.... wat een rare commentator die
zo de punten zijn eindelijk binnen kramer mijn man vd wedstrijd 😃
effe de opgenomen uitzending kijken van 😃😃 wat een kenau zeg 🤓🚜🆘🆘
en dan te bedenken dat zwolle 9 spelers mist.....#zwofey pffff
helaas toch verloren maar wel een ander feyenoord zien staan. nu elia en bilal nog en dan komt het wel goed 🙃🙃
gisteren aanwezig mogen zijn bij wat een musical, echt gaaf. en wat ben jij goed. fantastisch 😃
heerlijk de premier league darts weer begonnen. come on even de focus op de dubbels!!
nog 12 minuten volhouden jongens
lieve het wordt echt tijd om in te grijpen.... lees wisselen 🙃🙃
come on feyenoord! we zijn echt beter
neeeeeeee. speciaal kaartje gekocht voor in ahoy bij en nu is hij geblesseerd! get wel soon
het wordt steeds treuriger, hij mag er volgens mij ook echt niet in
wat is dit slecht zeg. het is zelfs terecht dat het 12 is. wat een drama. eerst en nu dit weer pffffff
tsja geen extra aanvaller erin. ze hebben er veel vertrouwen in de schoten van el amhadi. wat een drama godzijdank wel door
je kan niet beter wakker worden op vrijdag dan met federer vs dimitrov
nee.... eigenlijk niet 😊😊. voor de rest een super leuk blad 😃👍
hardlopen gaat even niet i.v.m. knieen dus doen we nu maar doorlopen
wat een partij weer zeg! schitterend zeg.
zou echt super zijn.
top vakantie gehad landal nieuwvliet bad echt een aanrader!
is het crepe papier ?? 😃😃
gelukkig heeft ook de scheids een buikje 😃😃 wel done
het is breken en houwe 😃😃☺️
het is nog wat vroeg, maar wat mij betreft kunnen we beginnen come on en 🎯🎯
effe afkicken vandaag, geen darts 😃. gelukkig gaan we morgen weer verder
😢😢😢😢 maar wat hebben we van je genoten. chapeau 💐👊👊
vechten tegen de slaap, maar wat een pot!!!
we zitten er weer klaar voor hollandse avond in
blijft toch een heerlijke film en straks weer verder kijken naar
best spannend 😳😳 zit nu weer wat rustiger nu lekker slapen 😊😊
top goed gedaan!!
pffff wat een pot! come on op je stoel zitten
waarom pas op zondag middag en niet op vrijdag of zaterdagavond en het dak eraf 😢😢😢
thuis heerlijk op de bank met een kop soep en hopen dat de drie punten in blijven!! go en de rest 😉😃😃😤😤
je zag al dat het mis zou gaan bij het volkslied lekker niet meezingen wat een ramp
tsja verwarming doet het niet, wasmachine kapot laat dan in godsnaam ijsland en nederland winnen pffff 😉😉😉
ik ben fan geworden. wat een passie, wat een strijd!! go
come on de kansen zijn er echt
wat een fantastische pot tennis van morgen om 1900 uur zitten we klaar voor de finale tegen wow
eindelijk het laatste plaatje van ah actie, boek is vol. super goede actie weer volgend jaar weer? 😄
super leuk park onze dochter isa is bijna jarig en groot fan dus de kaarten zouden meer dan welkom zijn
wij kijken de tour kunnen jullie de lens even schoonmaken 😃😃
wat een prachtige partij tennis als ik nadal was zou ik helemaal gek worden van brown
wij zijn niet bang want bruma was erbij pffff wat een drama verdediging...
pfff verlies deze week van van en van en nu ook van snel vergeten en weer doorgaan 😳😃😳😃
vanavond voor de buis voor alweer een aflevering van en zeker niet de laatste 😜😉☺️
sorry dacht het op internet te hebben gelezen 😃
matchday!!!! come on come on en ook nog de laatste aflevering van wat een weekend. wij zitten klaar 🎾⚽️🎾⚽️
zou wel weten dat we plaats 3 veilig kunnen spelen vanavond? heeft een bril nodig?
is eindelijk wakker nu voetballen en mag wel iets beter opletten..... come on
tsja je kan maar gehecht aan een plastic zak zijn
wat is hier aan de hand? 62 schwartzman???? come on!!!
phil taylor op waarde geklopt door michael van gerwen! nu barney op naar de volgende punten come on
hij is los! het groene monster boem boem boem 53
we zitten er weer klaar voor come on barney en come on groene kale sloopkogel 😜😃😜😃
ik weist nicht waar die ist lig nu al in een deuk en morgen weer 😃😃
gezellige ochtend gehad in heinenoord met weer een topshow!!
net iemand super blij gemaakt met twee tassen kleding van ! met een goed gevoel het weekend in 😃
ons is zo goed als af. nu alleen nog de slaapkamer verbouwen met inloopkast
top weekend gehad. award gewonnen bij conventie en kwart marathon uitgelopen bij 👍👍
heerlijke lunch achteraf nu door naar de teambuilding
net ingecheckt in voor conventie!!
dit weekend conventie in noordwijk
en wanneer het moet doet ie het ook 66 congrats!!!
waarom kunnen wij wel voetballen als er niks op het spel staat?
even 5km tussendoor gerend nu stort regent het weer een kwart hoor 😃😃
wat een race!! dat ik nog fan word van ga zo door
is je dochter eindelijk oud genoeg voor stoppen ze ermee 😢😢😢
fantastisch programma geweldig
een elleboogstoot ziet ie over het hoofd maar een opblaasbanaan....
waarom een herhaling??
hardlopen!!! geef die gozer een schop onder zn reet pfff
wat een idioot die dave roelvink hij heeft een schop onder zijn ....nodig.... pfffff
fredje ga eens wisselen
net uitzending mindfck gezien. wow volgende week weer kijken. bizar!!!!
toch maar begonnen in 50 tinten grijs...... en kan niet stoppen met lezen 😜
wow dit is knap dit is super knap van je nu dan maar het toernooi winnen !!!!! come on
en onze kale sloopkogel doet het weer 41
natuurlijk maar het moet nu wel beter come on
wat is hier aan de hand come on mvg pfffff dan maar 41 come on
net film gekocht via tegoedbon. beeld is heel slecht en niet te lezen. pffff
we zitten er weer klaar voor joehoe go
kuipers kuipers je mag ook wel eens fluiten als psv een overtreding maakt come on feyenoord
mogen wij de wedstrijd uitstellen? het komt even niet zo goed uit.... iets te veel geblesseerden....
mogen wij volgende keer misschien een keer bij leo is zo negatief en sloom......
veel en tot snel weer xxx
ohhhhhh wat jammer rogerfederer geblesseerd afgemeld atpworldtourfinals. manlief blij kan hij toch de tweede helft van nl zien 😢😢😢😢
6 x won hij het roger federer volgens mij
heerlijk vakantie en zelfs dubbelspel 🎾 op tv en goede internetverbinding
pffff feyenoord ga weer eens voetballen en maak die 30
9 darter van gerwen!! come on
wow 2 games onderweg! ik ga er maar eens goed voor zitten
jajajajajajajajjajajajajaja eindelijk manu manu
het is niet de wedstrijd van kazim kazim kazim
volgens mij stond hij toch al buitenspel voordat van beek de ⚽️ raakt...
wat een flut goal zeg maar hij zit er wel in. en nu doorzetten come on!!
super genoten van met@jansmit super uitzending met als afsluiter optreden met 👍👍
niet mee eens pj. hier kan hij echt niet zo veel aan doen.....#gaefey
het is geen pretje om feyenoord supporter te zijn op dit moment
het wordt gewoon zielig 1 vrije trap 1 goal wordt een lange avond.....
oh die nagels en die nep borsten mens wat doe je jezelf aan en een iq pffff
dit kan toch niet ruststand 02 pfffff
bizarre avond eerst en dan nog een stukje janmaat .......pffff
aftellen naar
“@fkrotterdam rutten rept niet meer over een nieuwe spits we hebben scorend vermogen genoeg. nou dat hebben we vandaag gezien
nou een doelpunt erbij en ik zit weer wat rustiger
eens!! alles goed??
druk dagje gehad ?? 😃
nou lieve mensen op deze manier heb je europees niks te zoeken....#bjkfyn
adrian lewis
zo mensen 5 minuten extra tijd dan scoren we toch nog een goal haha
op onze jongens, wat jammer zeg!! nu de focus op
messi messie komt eraan clasie komt eraan.....
net droomde ik nog van een 5e set dreams can come true come on
aftellen naar de finale. zet hem op
tsja.... dan breng je gewoon even in en die stopt er gewoon 2 ik denk dat de gouden ...... van louis weer door het land gaat hahaha
rabbit rabbit rabbit....doe jij het dan please please
pfffff van persie let eens op
schiet dan gelijk.......en zit er eens bovenop
bizar slechte cliffhanger dit was niet eens een
wereldpartij 🎾 tussen en alleen jammer dat ik op mijn nieuwe kastje slecht beeld heb op 👎👎👎
hij mag er gewoon niet in
ik zie toch liever voor de rest vind ik het nog niet veel en jullie?
zelfs nu geen jordy clasie.......neem hem dan niet mee
jajajajajajjajjajajajajajajaja het dak gaat dicht
grrrr.... zit ik lekker te kijken regent het weer op nu maar wachten.....misschien dakje dicht 😜
even de herhaling van zitten kijken! ik zeg meedoen om de prijzen
rode kaart makkelijk gegeven aan italie, suarez had er met donkerrood afgemoeten hij bijt gewoon weer
ik wilde zeggen 1 kans 1 goal maar het is al 11. wel blijven opletten jongens
let eens op! het was een zuivere goal volgens doellijn technologie 😃😃😃
wat een waanzinnig goed arbitraal trio 😜😜😜😜#spaned
zo de vrij weer een miljoentje meer waard 👍👍😜
schitterende goal van arjen robben wow
wat een wereldgoal van die van persie
wat een schandalig arbitraal trio zeg pfffff
dit is echt geen penalty mensen
sneijdertje sneijdertje......oh
heerlijk ge🎾t zelfs een potje gewonnen! nu lekker#detectivenacht kijken hoe lang we het volhouden 👍👍
64 hij houdt de break come on barney army
we zitten er weer klaar voor oh michael van gerwen!!!! champion of the world
vorige door vakantie gemist en nu zou ik willen dat ik het niet was gaan kijken barslecht.....
het is knap hoor tweede bij maar waylon doe die hoed af......
en ik vind het niet eens een goed nummer
man of vrouw met baard wat een vreemd mens en waylon gefeliciteerd met de tweede plek!!!
pfff mijn dochter kijkt ook altijd naar de teletubbies dan hoef ik dat toch s avonds ook niet te kijken....#songfestival
dat is toch een zuivere rode kaart scheids
geen commentaar vanavond bij
die danny froger kan net zo goed niet meedoen
we missen je ratatatatata commentaar!!
ik denk ook dat er nu veel feyenoord supporters onderweg zijn...
te gek toch??
kan ajax niet meer voetballen?? haha go zwolle 👍👍👍.
pffff blijf je thuis voor stoppen ze met de op en word ik verplicht te gaan kijken op mijn tablet.....
gefeliciteerd een top tijd!!!
vamos barca!! we gaan beginnen..... ole ole ole
en nu.... alle afleveringen van seizoen 6 achter elkaar gekeken. iemand enig idee wat ik nu kan gaan kijken help help
zitten er weer klaar voor. kom op nederlanse leeuwen!
waarom nou altijd 1 kans goal tegen feyenoord pfffff 11 rust.
dit is wel heel erg... er is niks op de buis dus kijken we naar herhaling van in 2008 op pfffff
scheidsrechter zijn bij ijshockey is wel met gevaar voor eigen leven
1.2.3......de zijn begonnen. chapeau!!
wanneer krijgen we het zesde seizoen van gossip girl?
ondanks de blessure van moet je het toch maar doen !!! 🎾🎾🎾🎾
come on feyenoord en blijf van het haar van pelle af 😃😜😃
hoe krijg je hem er niet in
2+2+2+3 maakt vierde plaats margot boer
whaaaaa te laat wakker en wat een verrassing nu verder schaatsen kijken 🎾👍
geen wekker gezet, toch wakker! dan maar meepakken
zo lekker vi van gisteravond kijken en ons dan maar eens opmaken voor michael van gerwen oh mvg
1 jaar geleden haha
die wright een kameleon of is hij ontsnapt uit avatar
kijk samen met mijn vriend. daarnaast kijken zelfs mijn ouders sinds gisteren en voorzien wij ze van commentaar over spelregels😃
rtl7darts veel plezier mighty mike fans jullie ook allemaal!!!! oh michael van gerwen 🐸🐸🐸
gezellig in thialf met mijn allerliefste broertje
natuurlijk
word je weer wakker na een slaapje staan we 30 voor 😃💤😃
pffff ik ga naar bed wat slecht
wat nu moeilijk kiezen of
rtl7darts hoppa door de vele missers een spannend potje lloydanderson
jep nog steeds nog niet klaar met gossip girl nu tot 1 januari 😜😜😃
het wordt een moeilijke maar zwaar verdiende overwinning voor
dan maar via de computer.....