absoluut! goede aanvulling proeven 😉
haha, dank je wel. en het gaat goed! leuk dat je een doosje heeft meegegeven. voelt goed…
eindelijk rotterdam heeft een eigen snoepje via
vanavond te gast met prachtige locatie en super interessant onderwerp
lukt helaas nog niet.
ok. volgens mij moeten jullie mij dan eerst volgen?
ik betaal nog water op mijn oude woonadres, zouden jullie willen checken hoe dat kan aub?
herkenbaar 👍
benieuwd wat je voor leuks aan t doen bent?
ha frank, ik hoorde van een vriendin dat je de rotterdamse snoepjes hebt ontvangen vanmiddag. wat vond je er van? fotos?
ik neem aan dat dit een bug is die eur 0,00?
ik heb een vraag over mijn premie. heb zojuist 45 min in de wacht gestaan. kunnen jullie mij helpen? liefst via pm
ik zou 6 maanden lang 18,50 moeten betalen voor mijn 3p abonnement. het lijkt er op alsof jullie dit niet hebben doorgevoerd?
begrijp ik dat je opzoek bent naar lokale snoepjes? vorige week lanceerde ik een rotterdams snoepje l
mooie recensie van de havenloods voor het nieuwe rotterdamse snoepje
dank voor het leuke filmpje, marc!
erg leuk! ik ga je mailen rachelle.
vandaag mocht ik de bouwstenen ook bij de gemeente rotterdam aanbieden!
eet smakelijk dennis
eet smakelijk!
dank je wel
leuk! op welk telefoonnummer mag ik je zo bellen?
nogmaals dank en voor jullie gastvrijheid gisteren. en rik, geniet van je vakantie
zit je weer te zeiken, lubbers 😂
fantastisch verhaal van de commandant van de koninklijke marechaussee egon hoppe over hostmanship als leider van me…
prachtig verhaal over klantgericht leiderschap van commandant koninklijke marechaussee egon hope
weer een mooie start van de met allereerst en nu
teleurstellend hans, maar je hebt een hele legitieme reden! we zien je graag volgend jaar weer terug
dank voor de positiviteit! ☺️
nog een paar plekken beschikbaar!
klantgericht leiderschap de lessen uit exotische omgevingen
absoluut, gaat gebeuren!
begin augustus zal de waarde verviervoudigd moeten zijn. dan ben ik blij! 😉👍
vorige huurder van onze woning heeft blijkbaar nog een bedrag openstaan bij jullie maar is met noorderzon ve…
mooi vernieuwend verzekeringsproduct van startup nn, gappie moeiteloos autos lenen van ouders en bekenden en zelf…
energiebedrijf nle boekt recordwinst van 12 miljoen euro via
ik vermoed dat iedereen aandachtig aan het luisteren was maarten
op een aantal lege stoeltjes na door drukte op de weg wederom volle zaal
leuk!
goedemorgen ook deze is gerealiseerd en klaar om te laden!
lastig via twitter we komen 2x per jaar fysiek bij elkaar, we verbinden daar en ontwikkelen samen.
morning! wat bedoel je nu precies met een echte community? vind dat wij er eentje hebben met 7.500 leden.
vanavond 100 innovatiepanelleden te gast voor een innovatie avond met sprekers
hulde voor
dinsdag komt er een monteur van jullie bij mij langs, maar probleem is al verholpen. hoe kan ik deze afspraak annuleren?
leuk dat je er was!
tijdens leggen we uit dat het energiebedrijf van de toekomst een datadienstverlener zal worden
marketingtribune | daan sip social1nfluencers invloed influencers groeit stevig
nle verkozen als beste internet provider van 2016
zojuist zat ik naast lucas toen hij jou belde. ik begrijp dat het probleem is opgelost! veel plezier met allesin1 van nle!
ik help je graag! ik lees me even in en kom dan bij je terug.
goedemiddag! ik heb jullie gisteren een vraag gestuurd via facebook. wanneer kan ik een antwoord verwachten?
ik zal dat vertrouwen zeker niet beschamen, dat weet je! 😉
effect slimme meter te versterken met mailtjes over elektriciteitsverbruik
het kerstpakket als ultiem loyaltyinstrument door via
deze bewaar ik!
graag, ik ben heel benieuwd. zeker nu aangeeft dat eigenlijk dit boek had moeten winnen volgens hem
ook dit jaar is de marketing literatuur prijs van weer enorm populair met de beste 10 marketing boeken i…
interessante bespreking van het boek service excellence als een van de genomineerden voor de marketing l…
daar heb ik begrip voor ik zorg dat onze gasten op tijd zijn! fijne avond, jullie doen goede dingen!
nog bezig! de deelnemers lopen over 25 min naar rijden jullie de treinen alvast voor? 😉
vandaag hebben we 25 social experts op bezoek voor masterclass social media &amp webcare met oa gaaf verhaa…
kwaliteit was niet top. dit soort instrumenten vind ik dan wel weer goed, uitvoering valt wat tegen wat vind jij?
super! heel veel plezier vanavond! en kim, arend jan, yvonne of pascal kunnen al jouw vragen beantwoorden!
heel veel plezier vanavond heel benieuwd wat je er van vindt! door drukte moest ik vanavond helaas overslaan!
zo wordt de kwaliteit van de service op inverness airport gemeten. ik werd er niet echt blij van.
gisteren mocht ik met aan vertellen hoe de transitie maakt naar meest klantg…
het initiatief is wel goed
vet! ik ben er om 15.00 uur sydney! ik zie mijn huis!
game changers – hoe nederlandse bedrijven het spel veranderen
tesla de snelweg naar de innovatie van energie customertalk
aan alles komt een eind! ook aan het inspirerende bezoek aan de fabriek met klanten!
vandaag met 32 leden van het innovatiepanel op bezoek bij
vandaag met 32 klanten op bezoek bij de tesla fabriek in tilburg!
dat horen we graag! voldoende input voor blog?
leuk dat je er was!
donderdag 3 november organiseren we met een excursie aan boord van de aidaprima. nog paar kaarten! kom je…
leuk dat je er vandaag was
meer dan welkom bram! en dan elkaar nog niet eens de hand geschut...
mooi verhaal van van over zijn inspiratie
bij snappen ze wat klantgerichtheid is
en zo ziet een volle zaal er uit. we gaan beginnen
met een volle zaal!
nog even en we gaan van start!
ik denk dat de wint. wat denk jij?
klantgericht ondernemen eist een totale cultuurverandering
leer hoe je net als citizenm en aegon een klantgerichte cultuur bouwt
ubervette nieuwe commercial voor allesin1
marketingtribune | energieleverancier nle betreedt de telecommarkt
energieleverancier nle wil internet en tvmarkt openbreken
in mijn rol doe ik niet anders dan voortdurend naar de klant luisteren en die input is mega waardevol!
leer hoe je net als citizenm een klantgerichte cultuur bouwt via
klanten ervaren klantenservice in nederland positief’
weekend!
inmiddels al ruim 90% wie biedt?
dank voor je bericht! ik wil je vragen om het noodnummer te bellen van allego zoals gecommuniceerd staat op paal! ok?
waar ik blij van word? een jongetje uit groep 8 wilt zn spreekbeurt houden over energie van
nog 1x dan een gelukje voor elektrische autos tm 15 september gratis laden bij het snellaadstation
herkenbaar!
t/m 15 september gratis laden voor elektrische autos op het snellaadstation aan de a13 bij ruyven
leuk dat je aanwezig was
wat fijn! morgen zal je deze nodig hebben! veel plezier ermee
en dan ook nog eens dit stralende weer! daar krijgen we energie van!
haha! ik ben dol enthousiaste klanten! jouw berichtje maakt mij blij!
haha, daar kunnen we altijd naar kijken samen. betwijfel wel of je buurman er blij van wordt?
alweer een vroege morgen bij het snellaadstation! wat is ie mooi geworden!
en kijk vooral kritisch mee gaat alles goed met je?
wat leuk dat je klant wordt bij nle! stuur in pm even je adresgegevens dan heb jij wellicht post morgen
moet het team de wisselbeker as zondag meenemen naar het stadion voor de ?
fijn! ondanks airco is het hier bij nle headquarters behoorlijk warm
mooie auto en ongetwijfeld jouw kennende nog met 0% bijtelling! doe je goed!
ik schat in dat jij niet volledig elektrisch rijdt, maar hybride?
ik rijd niet, nog beter! jij? kom je dan bij een van onze stations laden en ff bijkletsen?
wat een prachtig snellaadstation hebben we toch
leuk dat jullie er waren!
magic het geheim van disney’s legendarische klantbeleving door via
klopt! nu op naar de volgende!
nle, simyo en coolblue voetballen met elkaar op kantoor
de sokken tussen de rest!
deze mocht natuurlijk niet ontbreken! ook ik een bij het snellaadstation
we verdedigen immers onze titel
krijgt amsterdam de hoogste houten woontoren van europa?
leuk interview met van in de gisteren!
eindelijk huisdieren gezellig!
leuk dat je er was! meer dan welkom als je weer eens in de buurt bent
nle, vrienden voor het leven? via
leuk dat je er was!
leuk dat je er was!
en aan de slag met klantfeedback tijdens de woningcorporatiemiddag
dank en leuk dat jullie er waren!
en smiddags met 25 medewerkers van woningcorporaties aan de slag met klantfeedback
deze morgen 70 rotterdamse medewerkers van op bezoek voor nieuwe inspiratie!
vandaag vond de nle vriendenmiddag plaats niets is leuker dan samen met klanten nadenken over toekomst!
afgelopen jaar won het toernooi! dit jaar revanche ?
‘woningen worden kleine ecosysteempjes’
vorig jaar hebben we een weddenschap afgesloten weten jullie nog? ik wil even kwijt dat huidige nps op +14 staat
weer een energieke sessie over customer experience
aha ik heb het voor je gefixt, jij moet natuurlijk bellen met
bij nu aan t woord over de transitie die doormaakt. van een nps van 82 naar ...
in twente werkt er wel meer niet
dit is een heerlijke quote! zouden meer bedrijven een voorbeeld aan moeten nemen
super verhaal over de manier waarop voortdurend bezig is met klantinteractie
mooi voorbeeld door over bij de gemeente amsterdam
ja leuk he!
yes! van harte!
dank en voor t mooie event!
goed om te weten!
nog geen cadeau voor vaderdag? geen nood, wij helpen je
leuk dat je er was!
gewoon verkrijgbaar bij nle
dank je wel voor je positieve bericht! leuk leuk!
heel netjes!
sorry! sorry sorry! ik drink er een rosé op in frankrijk!
veel succes vandaag
op weg naar 100% elektrisch rijden in nederland
op naar 100% elektrisch rijden!
energiemaatschappij nle opent snellaadstations
haha zo voelt dat! je hoort er inmiddels toch echt bij
bij hebben ze geen managers en functies, wel zo simpel!
vandaag onze op t podium met een mooie case over de rai!
en die kleine seph die komt er wel weer bovenop na zijn val dank voor de goede zorgen!
wat een super lief gebaar bij de post nadat onze zoon vorige week in t park was gevallen. top!
prachtige innovatie saltwater edible six pack rings
waarop worden b2b marketeers ‘afgerekend? lees 24 mei het b2b marketing trendrapport 2016!
iets voor ons tussen?
van harte gefeliciteerd met je verjaardag! dat er nog maar velen mogen volgen
ook ik geniet van deze zon, peter
leuk om te zien, peter!
leuk! leuk! ook namens mij gefeliciteerd!
sputteren..dat is een positief begin! hier ook alles goed. leuk je te volgen op twitter
mooi om te zien dat je ook lekker aan het twitteren bent, huub! hoe is t met je?
gisteren was ik te gast wat een super inspirerend kantoor en wat maken jullie mooie stappen!
mooie lijst! passen we al veel van de trends dagelijks toe om klanten goed van dienst te kunnen zijn
cool!
leuk dat jullie vandaag te gast waren!
dank voor de rt! valt nog veel te halen en die verantwoordelijkheid moeten wij met zn allen pakken!
een goed geoliede klantreis voor nabestaanden
superpromoters aan de kookworkshop
vanavond gaan we aan de slag met onze
elke dag proberen we klanten blij te maken! leuk om te zien dat onze klanten het waarderen
vandaag weer veel blije klanten de top adviseurs van de afgelopen 4 weken op een rijtje!
goed nieuws! doe er wat leuks mee
onze berivan van geeft antwoord!
done!
ik had niet anders verwacht. en dat nog wel met een veteraan er bij.
opgeladen wel, dat komt goed bij een energiebedrijf! als jullie vliegtickets en startbewijzen regelen zijn we erbij.
vandaag met super veel plezier samen met mijn collegas de marathon van rdam gelopen voor
over 10 uur gaan we van start voor kwf
‘99% van de beslissingen neem je onbewust’ – customerfirst
center parcs zinspeelt op innovatie in customer experience – customerfirst
6 redenen waarom de internetmarkt kan openbreken
hartelijk dank voor de gastvrijheid vandaag erik! mooie uitdaging heb je bij kpn!
dank voor je komst! tot snel!
leuk dat je aanwezig was!
en we sluiten natuurlijk af met een borrel en een ijsje bij het verlaten van het pand
daar heb je helemaal gelijk in! we hebben je gemist vanavond ?
advies betrek andere niet concurrerende bedrijven bij het vormgeven van je klantreis aldus
de avond wordt afgesloten door met een verhaal over hoe de klantreis is geoptimaliseerd
na de vorige sessie kregen we het verwijt dat we geen b2b case op het podium hadden. daar hebben we naar geluisterd met afas
goed b2b verhaal over klantreizen door bij
feitelijk helpt met zijn psychologische inzichten om ons keuze stress te verminderen...
dat is een hoop dagelijks maken wij als consument zon 600 onbewuste beslissingen
de helft van de deelnemers is druk aan de slag met service design door
prachtig om te zien hoe wij als consument onbewust in al die prijs trucjes trappen. goed verhaal van
beslissingen worden volgens de laatste onderzoeken in 99% van de gevallen onbewust genomen
we worden meegenomen in de psychologie van online touchpoints door vanmiddag
jazeker, wij hebben een echte vliegende microfoon
super dat niet alleen succesverhalen deelt van maar ook haar uitdagingen!
haha! ik wil je laten zien wat jij dadelijk ziet vanaf het podium!
dat zijn best wel erg veel mensen!
nu op het podium namens om ervaringen en kennis te delen over klantreizen.
na de aftrap van heet van ons allemaal welkom en vertelt hij welke rol klantbeleving heeft binnen kpn
we gaan bijna beginnen, zaal stroomt vol! te gast
zeker! combinatie is mogelijk maar niet vereist. voldoende keuze dus
als jij dat wilt rinus, gaan we dat regelen!
nederlandse energie maatschappij wordt ook internetprovider via
nle gaat als eerste energiebedrijf telecom aanbieden
met 140 cx professionals staat vandaag alles in het teken van customer journeys ben je er ook bij?
bijna zo ver!!
succesvol inspelen op veranderende klantreizen met service design
mooi! we gaan er een mooie klantreis van maken! tot dinsdag.
heb je er al zin in, kees? de zaal is inmiddels vol!
heel erg benieuwd! en dat voor een uitverkochte zaal! tot dan!
het belang van helder inzicht in de customer journey customerfirst redactie geeft laatste 4 gratis kaartjes weg!
gefeliciteerd met je reservering!
druk bezig met voorbereidingen voor bijeenkomst volgende week 5 april over klantreizen. nog 20 kaarten beschikbaar! volvol
mooi initiatief! goed voorbeeld doet goed volgen!
marketingtribune | tesla 3 speerpunt mistergreen en nle | food en retail
successen en missers met de customer journey via
waarom harald swinkels 1000 tesla model 3s bestelt via
successen en missers met de customer journey door via
en de lamp gaat aan
leuk dat jullie op bezoek zijn geweest! ook veel inspiratie gehaald uit ons gesprek!
en ook wij hebben dat begrepen! doen we!
en zo is het!
dat doen we zeker, zoals je mag verwachten van een goede onderhoudsbeurt!
de nle helpt klanten met nieuwe cvonderhoud service
coole job! solliciteren en snellllll!!
vandaag na 1 jaar nle deelgenomen aan de instroomtraining veel enthousiasme bij nieuwe nleers!
leuk bericht! zitten de sokken lekker?
‘klantenservice 4.0 gaat verder dan whatsapp’ via emerce
het moest er na de fantastische presentatie van een keer van komen.....
hoe picnic, de vegetarische slager en ketelbink zich onderscheiden
deze morgen een collegetour die in het teken staat van een korte refreshment nps &amp klantbeleving door
trouwplannen?
goed te horen en niets mis mee
gisteren voor 120 enthousiastelingen een sessie georganiseerd over challengers en startups!
ik trakteer mijn gezin vanavond op een vegetarische maaltijd en laat je weten hoe dat was!
prachtig verhaal van tijdens sessie morgen proberen!
siebe nooij van online supermarkt op het podium vertelt over hun business model
op t podium nu remy van met inspirerend verhaal over challengers!
over 20 min staat alles in het teken van challengers met en
dank voor je komst naar ons kantoor. was een leuk gesprek. veel plezier met de unieke nle sokken!
meer dan welkom. tot zo!
marketingtribune | pim een jongensdroom die uitkomt biermerk ketelbink | food en retail
nu christiaan koenders van aan het woord over optimale klantenservice op basis van data
eelco aan het woord namens nle tijdens de marketing data challenge
vandaag staat data centraal tijdens de marketing data challenge
gisteren het pakket alsnog netjes ontvangen. dank voor het bericht!
gewonnen?
2/2 zojuist pas bericht van postnl dat het pakket nu pas verzonden wordt? kunnen jullie met mij meekijken?
hey ik heb gisteren een boek besteld met bestnr 8674041150 in de veronderstelling dat ik deze vandaag kon lezen. nu krijg ik 1/2
ook ik heb vanuit mijn netwerk deze reacties ontvangen! zonde, want vorig jaar heb ik een aantal top sessies bezocht.
aandachtig toeschouwer bij pingpong match tussen en
en gaan! uhhh slaan....
spannende pot van de pingpong toppers tegen stadsgenoot
en het kantoor uit succes! wanneer is de uitwedstrijd?
succes pingpong team en team. 100% winst nle? ik heb er vertrouwen in!
hallo ted! excuses voor mijn vertraagde reactie. dank voor je suggestie, we kennen pieter goed!
ik zeg winnen!!
wie o wie kan mij helpen aan een inspirerende spreker over het onderwerp voor een inspiratiesessie? mag eventueel praktijkcase zijn.
aha, zo ziet een kwekerij of plantage er dus uit....
dit is toch cool!? creatief met koffie deze machine print ieder plaatje op schuim
haha...man man man dit gaat niet goed hoor!
vanavond samen met en onze industry experts plannen gemaakt en lekker gekookt
en ook bij dit kookeiland werd goed gewerkt met de industry experts
nle start samenwerking met energiebank nederland
nle gaat samenwerking aan met energiebank nederland
iot komt er niet aan, het is er al!
ik wacht rustig af! fijn weekend jullie en tot snel!
al meer nieuws over wanneer deze battle uitgevochten gaat worden? ik werp mij graag op als coach van nle 1!
ze zeggen t....
haha dat klinkt best ouderwets en saai!
dat is het ook zeker! nu weer aan t werk voor jullie
nieuwjaarsreceptie
mooie volle zaal bij de nieuwjaarsreceptie we blikken terug en kijken vooruit!
nederlandse customerexperiencecases die je energie geven door via
challengers maken absurd goeie producten mét een boodschap door
leuk blog geworden! dank je wel, ik ga hem delen.
dank voor t gesprek vandaag!
leuk event maarten! zoals je weet doen we zelf al heel veel met whatsapp! wel benieuwd naar sprekers!
appen met klanten? antwoord snel! antwoorden we snel!
welkom! leuk dat je bent lid geworden. het programma staat inmiddels en ik kan je verzekeren, dat is goed!
welke verzekeringsmaatschappij maakt gebruik van steengoede customer journeys? tips voor sprekers?
dit jaar onder de kerstboom. kon niet achter blijven
ook tijdens de kerstdagen geven wij onze klanten warmte &amp licht. zie hier de video
ha patrick! lukt t om vandaag t berichtje te plaatsen van nle? dan heeft t nog impact
bij deze!