ad enkelblessure vermeer valt mee
van beek terug in selectie voor wedstrijd tegen vvvvenlo
feyenoorder meldde zich ziek bleek geen koorts te hebben via
feyenoord onder 19 nieuwe nummer twee na zege op nec/fc oss
live 1230 | opstelling feyenoord bekend | feyenoord nieuws | fr12.nl
live 2045 | opstelling feyenoord bekend | feyenoord nieuws | fr12.nl
live 2045 | sjachtar donetsk feyenoord | feyenoord nieuws | fr12.nl
onder 19 pakt op valreep punt in oekraïne via
vermoedelijke opstelling feyenoord |
duel feyenoord o19 uit bij shakhtar donetsk woensdag live op ziggo sport
vente helpt feyenoord o19 aan zege bij psv
live 1830 | opstelling feyenoord bekend | feyenoord nieuws | fr12.nl
koninklijke onderscheiding voor dirk kuyt via
hans kraay senior 81 overleden
vermoedelijke opstelling feyenoord diks en larsson in de basis
dat betekent dat ze niet meer naar hem luisteren
tapia, nelom en van beek niet inzetbaar via
live 2045 | feyenoord avv swift | feyenoord nieuws | fr12.nl
slotboom feyenoord begaat een historische blunder via
aboutaleb denkt aan opbouwscenario voor uitfans
feyenoord netwerk / nieuws / vermeer en larsson naar verwachting in de basis in bekerduel
gio komt met opmerkelijke verklaring voor blessure van beek soccernews.nl
van bronckhorst ziet diks en geertruida als opties om van beek te vervangen
gio bevestigt blessure van beek denk niet dat hij inzetbaar is via
aanstelling makkelie voor klassieker vreemde beslissing via
boskamp bekijkt shaktar en vreest voor feyenoord
livestream 1500 uur | feyenoord o19 sjachtar o19 | feyenoord nieuws | fr12.nl
mijn speler van de week bij voetbal inside is sven van beek via
ik heb gedacht dat ik nooit meer zou voetballen via
goede generale voor shakhtar donetsk
ernst blessure tapia bekend
koeman heel duidelijk ik ben het niet
van bronckhorst bevestigt jørgensen bij wedstrijdselectie via
tonny vilhena kan zaterdag geschiedenis schrijven tegen pec zwolle via
gemeente rotterdam wachten op concreet voorstel van clubs en supportersverenigingen
afscheidswedstrijd van dirk kuyt voor het wk via
tapia moet met peru extra wedstrijden spelen voor wkdeelname, mist duel tegen ado
jørgensen meldt zich weer op varkenoord via
bijlow debuteert met overwinning in jong oranje
vilhena vanavond in de basis bij oranje
feyenoord mogelijk zonder el ahmadi tegen ado via
ook bekerduel feyenoord zorgt voor problemen soccernews.nl
bekerwedstrijd feyenoord avv swift bestempeld als risicowedstrijd
dat verwachten we wel, maar we gaan nuchter om met die miljoenen feyenoordpings | feyenoord
basisplaats lonkt voor tonny vilhena bij oranje via
miljoenenwinst en recordomzet voor feyenoord via
overzicht internationals wie speelt waar en wanneer?
diks meldt zich noodgedwongen af voor jong oranje
mijn speler van de week bij voetbal inside is steven berghuis via
eerste puntenverlies feyenoord onder 19
justin bijlow ontvangt kampioensring
live 1230 | opstelling feyenoord bekend | feyenoord nieuws | fr12.nl
vermoedelijke opstelling van bronckhorst stelt kramer niet op via
gudde neemt na 10 jaar afscheid van feyenoord
boëtius geloof me, het zit wel goed in onze koppies via
extra kaarten voor feyenoord shakhtar donetsk via
stem op feyenoord.nl als website van het jaar 2017
az mogelijk zonder vlaar tegen feyenoord
kritiek op van bronckhorst deze coach, die ik heel hoog heb zitten, maakt nu echt fouten
van beek ‘jammer dat wij niet zo’n team hebben’ via
medische update janarie van der heijden
toornstra vocht in knie, maar ik kan er mee spelen
van hooijdonk snapt gio niet geef dan larsson die kans via
ad van der heijden minimaal zes weken aan de kant door spierscheuring
feyenoord o19 gaat in napels voor eerste europese punten
van hanegem snapt niks van beleid als hij bij ajax, psv of vitesse had gespeeld
feyenoord onder 17 moet genoegen nemen met punt
bekerduel feyenoord – swift op woensdag 25 oktober
verwachte opstelling amrabat in de basis, geen larsson
vilhena vraag het aan vitesse
van bronckhorst kijkt uit naar avondwedstrijden in de kuip
napoli en manchester city halen uit in eigen land
ik kan geen handschrift van de trainer in de speelwijze van psv ontdekken
haps zou er van de start al bij kunnen zijn
feyenoord brengt statement naar buiten over kaarten wedstrijd tegen napoli
betaald voetbal steunt actie ‘nederland helpt sintmaarten’
breaking | feyenoordsupporters niet welkom in napels frfans.nl
feyenoord traint zonder twee mogelijke basisspelers
feyenoord geeft definitieve champions leagueselectie door
berghuis ik weet niet welke kans we maken via
larsson ik kan nog veel meer brengen via
mijn speler van de week bij voetbal inside is steven berghuis via
feyenoord nu ook in punten alleen koploper na nederlaag psv
feyenoord bevestigt jørgensen woensdag niet inzetbaar via
live 1830 | heracles almelo feyenoord | wat gaan we doen vandaag? frfans.nl
vermoedelijke basiself feyenoord ongewijzigd via
feyenoorddrietal nog weken absent
van bronckhorst gaat mogelijk elftal rouleren
van bronckhorst bevestigt larsson zal meereizen via
spelers feyenoord kijken uit naar zwaar programma
heracles almelo mist mogelijk smaakmaker tegen feyenoord
oranje stijgt met stip op fifaranking en krijgt top 25 in vizier
update | van persie spreekt bericht fenerbahçe tegen | feyenoord nieuws | fr12.nl
overzicht | selectie feyenoord voor champions league bekend frfans.nl
advocaat bevestigt basisplaats voor vilhena zondag
‘advocaat grijpt in en laat sneijder buiten basiself voor duel met bulgarije’
derksen daardoor wordt feyenoord kampioen via
reis bz niet in samenwerking met vereniging via
welke spelers mogen in de champions leagueselectie?
advies voor de jong je bent naïef als je denkt dat het hier eeuwig rustig zal blijven
dat zijn grote ambities om als feyenoord trots op te zijn via
jan de jong nieuwe algemeen directeur feyenoord via
bekerduel met ado den haag op woensdag 20 september
feyenoordsupporters halen al 17.000 euro op voor gyan via
mijn speler van de week bij voetbal inside is kevin diks via
israel het is lastig te verklaren waardoor dat komt via
van hanegem leg de lat nou iets hoger als kampioen via
winst voor alle europese opponenten feyenoord via
napoli vooralsnog geen kaarten voor feyenoord via
als hij wegvalt heeft feyenoord echt een probleem
ik was niet over de hele wedstrijd tevreden via
jones dan is dat ook weer good business via
feyenoord al 24 thuiswedstrijden ongeslagen in de eredivisie via
speelschema feyenoord onder 19 in youth league bekend
eén feyenoorder in definitieve selectie oranje
van stee toen is het wel een stuk minder geworden via
loting champions league live uitgezonden op tv
informatie thuiswedstrijden uefa youth league
adriaanse er komen ook hele andere dingen bij kijken via
feyenoord lanceert nieuw platform voor seizoenkaarthouders om kaart aan te bieden
drawday 1800 | groepsfase champions league | feyenoord nieuws | fr12.nl
el hankouri nog altijd bij feyenoord
ik zal de ziektes die me werden toegewenst niet opnoemen via
haps achteraf ben ik verbeek wel dankbaar via
video | van bronckhorst laat zijn dansmoves zien frfans.nl
kein geloel als sjakie zondag maar niet op middenstip staat via
aanvangstijdstip feyenoord nac breda gewijzigd via
sam larsson voor vier jaar naar feyenoord via
de wolf ik vergeet nooit de woorden van ronald koeman via
van geel en larsson willen niet reageren op geruchten via
feyenoord en heerenveen akkoord over larsson
van beek naar laatste fase van zijn revalidatie
feyenoord verwacht nieuwkoop terug na interlandperiode via
brad jones traint vanmiddag weer mee via
jones en vermeer ontbreken op training, doelman evora traint mee
dat maakt feyenoord opnieuw een belangrijke titelkandidaat via
el ahmadi beëindigt training voortijdig
vermeer terug op varkenoord
van bronckhorst overweegt verandering speelstijl
smit nieuwe voorzitter rvc van knvb, gudde nieuwe directeur
feyenoord onder 19 sluit toernooi af met twee zeges
el ahmadi de fans mogen opnieuw heel veel van ons verwachten
live 14.30 | basisplaats bijlow tegen fc twente | feyenoord nieuws | fr12.nl
jones van de partij op laatste training feyenoord
feyenoord laatste jaren sterk uit de startblokken
vandaag duidelijkheid over inzetbaarheid jones via
jones nog altijd twijfelgeval voor fc twentethuis via
van bronckhorst zo ben ik niet opgevoed via
gio verwacht dat jones en haps gewoon inzetbaar zijn via
ik kan me niet voorstellen dat feyenoord het weer wint via
de boer het ziet er goed uit voor feyenoord via
van bronckhorst schaart zich in select gezelschap trainers via
live 18.00 | basisplaats voor steven berghuis | feyenoord nieuws | fr12.nl
akkoord met arsenal weg naar feyenoord vrij voor van persie soccernews.nl
vermoedelijke opstelling bilal start, berghuis op de bank via
haps berghuis vertelde mij de rest via
direct penalties bij gelijke stand na 90 minuten in duel om johan cruijff schaal
van bronckhorst noemt zijn mogelijke opvolger
knvb presenteert gloednieuwe johan cruijff schaal via
feyenoord gaat vvf geleidelijk terugbetalen via
elia toen ik mijn contract verlengde hadden we ruzie via
kenneth vermeer twee maanden uitgeschakeld
defintief | feyenoord neemt berghuis over van watford frfans.nl
feyenoord houdt vak z leeg en plaatst opnieuw netten via
zaakwaarnemer van persie transfer niet aan de orde, nieuwe trainer erg positief over robin
feyenoord lijkt indirect te zorgen voor niet doorgaan ajaxtransfer
telegraaf gio denkt aan vermeer voor eredivisie, jones voor champions league
van hanegem snapt niets van keepersdiscussie bij feyenoord via
feyenoord wint besloten oefenwedstrijd van fc den bosch via
feyenoord oefent vanmiddag tegen fc den bosch via
terugkeer van persie kleine stap dichterbij via
vi principeakkoord feyenoord en watford over berghuis via
vi watford verlaagt vraagprijs berghuis via
update | watford wil zeven miljoen voor berghuis | feyenoord nieuws | fr12.nl
van bronckhorst martin is hard bezig dat te compenseren via
feyenoord en watford zeer dicht bij akkoord over berghuis via
feyenoord met nieuwkoop terug op varkenoord via
feyenoord krijgt binnen 48 uur duidelijkheid van watford fc via
| fenerbahce wil minimaal 4 miljoen voor van persie | feyenoord nieuws | fr12.nl
ad berghuis wellicht binnen week feyenoorder via
nicolai jørgensen back on track na bijzondere zomer via
rond het weekend meer duidelijkheid over berghuis
feyenoord in gesprek met van persie willen heel graag via
zes eredivisieclubs in de markt voor woudenberg
feyenoord betaalt ruim tien miljoen voor haps en st. juste via
feyenoord en heerenveen bijna rond over st.juste
feyenoord en st. juste bereiken persoonlijk akkoord via
ook goede speler van drongelen op wensenlijst feyenoord via
telegraaf feyenoord gaat vol voor st. juste en haps via
van geel wij gaan voor nog drie of vier versterkingen via
nieuwkoop maximaal maand uit de roulatie via
prachtig eerbetoon van jonge feyenoordsupporter aan nouri
feyenoord krijgt 8,8 miljoen euro aan tvgeld eredivisie via
| financiële voorwaarden struikelblok voor transfer zeegelaar | feyenoord nieuws | fr12.nl
foto | johan cruijff schaal heeft nieuw logo frfans.nl
de klassieker is van ons
van beek ziet progressie
van bronckhorst is eerlijk je kunt het nooit helemaal uitsluiten
piair maakt zich zorgen nu écht doorselecteren via
oproep inzending herdenkingsdoek openingswedstrijd via
video toornstra tekent tot 2021 hij past bij feyenoord
| hoge vraagprijs zeegelaar schrikt geïnteresseerde clubs af | feyenoord nieuws | fr12.nl
overeenstemming feyenoord en sporting lissabon
feyenoord telt af tot mysterieuze onthulling via
bijlow met oranje onder 19 naar halve finales ek
feyenoord verwacht van beek niet snel terug via
feyenoord en az in gesprek over luckassen via
van marwijk tegengestelde belangen bij feyenoord via
ik zei tegen kramer dat hij gewoon even rustig moest doen via
vitessesupporters boycotten johan cruijff schaal
vertrek basisspelers zorgt voor onrust bij feyenoord
diks geeft reden ontbreken optie tot koop in huurcontract
dat zegt iets over hoe krachtig feyenoord nu is via
jan de jong genoemd als kandidaat opvolger eric gudde via
overtuigende 14 zege bijlow met oranje o19 tegen duitsland
duel om johan cruijff schaal twee uur eerder dan gepland via
feyenoord staat er beter voor dan vorig jaar rond deze tijd via
giovanni van bronckhorst eenmalig het luxor in via
feyenoord en fiorentina akkoord over diks via
aanhang vitesse dreigt met boycot van duel om johan cruijff schaal
gio goed beeld van wat we nog nodig hebben via
amrabat supporter van feyenoord? ik ga niet liegen via
van bronckhorst andere spelers en speelwijze op kunstgras via
van geel amrabat een speler die bij feyenoord past
foto | feyenoord presenteert nieuw thuistenue frfans.nl
feyenoord versterkt zich officieel met amrabat via
opnieuw bod op sofyan amrabat afgewezen via
ik kijk er naar uit om weer met hem samen te werken via
transfer karsdorp levert de club in dit kampioensjaar zwarte cijfers op
video | stadionverbod voor vrouwelijke feyenoordfan drama feyenoordpings | feyenoord
oefenduel feyenoord tegen fc lisse live bij fox sports | frfanatic
feyenoord wil huur diks met optie tot koop nu snel afronden
van geel wil geen bepalende spelers meer verkopen via
feyenoord sluit trainingskamp af met oefenduel tegen freiburg
boëtius keert terug bij feyenoord via
ad transfer boëtius naar feyenoord op een haar na rond via
knvb wil beloftenelftallen competitie laten spelen om 2 plekken in derde divisie
traditionele openingswedstrijd tegen real sociedad via
van geel zou kunnen besluiten om vejinovic en tapia te verhuren | frfanatic
| feyenoord informeert naar nigel de jong | feyenoord nieuws | fr12.nl
van hooijdonk hij is voor mij de reden dat feyenoord kampioen is geworden feyenoordpings | feyenoord
gudde heeft beste papieren om directeur knvb te worden
amrabat wacht op akkoord ik wil die kuip meemaken via
jansen feyenoord moet zich niet gek laten maken via
invloedrijke stroming ziet in kuyt ideale opvolger gudde via
van geel wil van persie
van breukelen vertrekt bij knvb
update | transfer john niet definitief
vi boëtius wacht alleen nog op een akkoord tussen clubs
feyenoord kan komst ola john vergeten via
feyenoord wil 20 miljoen voor rick karsdorp via
| karsdorp voor twaalf miljoen naar as roma | feyenoord nieuws | fr12.nl
feyenoord ontvangt officieel miljoenenbod van as roma via
feyenoord gaat lange transferzomer tegemoet
italiaanse journalist as roma onderhandelt met feyenoord via
as roma onderhandelt met feyenoord
bt everton overweegt bod van 20 miljoen op jørgensen
clubwatchers over van persie kan het me nog niet voorstellen via
wijzigingen in staf feyenoord academy voor komend seizoen
van persie zo goed als rond met feyenoord
amrabat sprak gio hij wil dolgraag naar feyenoord via
ad feyenoord verwacht snel akkoord met fc basel via
feyenoord ligt ver achter op concurrentie bij transfergelden via
gouka john vooral aangeboden bij feyenoord via
van geel bij komst elia al afspraken gemaakt over vervolgstap
vertrek van deze spelers kan feyenoord extra ruimte geven om zich te versterken
gerard cox klaar met feyenoord begrijp ik niet zo goed meer via
feyenoordtargets staan open voor transfer, van geel hoort woekerprijzen
knvb biedt excuses aan dit is niet ons beleid via
feyenoord denkt aan boëtius als opvolger van elia via
eerste training feyenoord waarschijnlijk niet in de kuip via
update | medische keuring scheidt hahn van transfer | feyenoord nieuws | fr12.nl
onderhandelingen elia leverden niks op, blokkeren daarmee transfers
feyenoord en watford in gesprek over berghuis
eerste feyenoordbod op amrabat afgewezen via
karsdorp reageert op geruchten onzin via
oefenduel feyenoord afgelast door massale toestroom fans via
knvb stelt werkgroep aan voor natuurgras, feyenoord tegen nieuwe competitie opzet
feyenoord denkt aan supportershome naast de kuip via
vermoedelijke basiself oranje de vrij en wijnaldum via
eindstand reservecompetitie bepaalt instroming beloftenteam via
feyenoord b1 overtuigend naar bekerwinst | frfanatic
ongelooflijk bizar bod op feyenoordtarget van persie soccernews.nl
persconferentie advocaat dinsdag 15.00 uur live op onsoranje
video feyenoord in illuster rijtje kampioenen
kuyt doet geen beloftes misschien komen we erachter dat die functie mij niet ligt
berghuis volgens mij zijn de clubs bezig via
feyenoord o17 in finale jeugdcup tegenover az
gudde nu belangrijke kandidaat voor de knvb
bedrijven moeten plaats maken voor feyenoord city maar we zitten zeker niet op een schopstoel
eenhoorn grote favoriet als opvolger gudde via
eric gudde kondigt afscheid aan bij feyenoord
redding jones genomineerd voor save van het jaar via
borussia dormund denkt aan van bronckhorst via
opel blijft als strategisch partner aan feyenoord verbonden via
selectie onder 19 ter voorbereiding op ek in georgië
feyenoord onder 17 naar finale bekertoernooi
amrabat nog met niemand gesproken, maar feyenoord zou de ideale stap zijn
vermoedelijke opstelling oranje vilhena en toornstra starten via
feyenoordtalent wil plek in eerste elftal daardoor kom ik sterker terug en kijk ik er positief tegenaan