mijn speler van de week bij voetbal inside is luigi bruins via
gelukkig inderdaad even een interlandbreak en dan moet je drie punten halen tegen vvv thuis.
ondanks matig spel wederom een hoger xg... kan toch niet fout blijven gaan...
ongelooflijk! niks aan de hand en je moet zelf de 02 maken en dan opeens 11...
matchday! eindelijk weer eens winnen!?
bij feyenoord al eerder gemist in de strafschoppenserie
en ook geen jupiler league...
na het vertrek van gudde is alles in elkaar gestort. dan toch duidelijk wie het brein achter het kampioenschap was .
waarom bij feyenoord geen reclamebord achter de interviews?
helder stuk!
valt wel mee...
napoli verloren van city, 3de plek nog in eigen hand!
je voetbalt redelijk mee, maar shaktar is duidelijk beter. toch creëer je zelf wat kansjes.
feyenoord kan ook de slechtst presterende nlse club ooit zijn in de groepsfase. willem ii had ooit 2 punten...
altijd de eerste!
kunnen jullie op mijn pb reageren?
is feyenoord uitgespeeld met betrekking tot het kampioenschap? zo ja, gaat top 3 makkelijk lukken?
vv terneuzen
idd, excelsior vergeten te noemen.
bij feyenoord en nec altid fan van woudenberg, maar wat begint die dramatisch bij hveen. misschien toch goed gezien van gio.
laatste wedstrijd van de trainer de verliest!?
jup, vond de 2de helft echt heel goed. maar afmaken is helaas ook een onderdeel....
verwacht met beide een groot gat. maar goed, 11, beide 2 punten verlies dan
denk je dit serieus? vitesse speelt ook nog 3x europees en ik zie feyenoord ondanks alles best gemakkelijk top 3 eindigen.
dat zeker en daarnaast voetballend drama. weet niet hoe dat bij bijlow is...
2 jaar geleden was de 11 tegen roda ook het einde van de negatieve reeks.
ongelooflijk! tweede helft gewoon goed, maar helaas is afmaken ook een onderdeel van voetbal.
precies. zo slecht het nu gaat is het niet, maar zo best het vorig seizoen ging ook niet. waarheid ligt ergens in het midden.
vermeer is lood om oud ijzer, zoals we afgelopen woensdag zagen...
jones wederom dramatisch, maar zoals woensdag te zien was, is vermeer lood om oud ijzer.
de invalbeurt van kramer was ook wederom dramatisch. voegt weinig toe en zorgt alleen maar voor overtredingen tegen.
idd... gelukkig...
dit was zon wedstrijd die je vorig seizoen gewoon won.
met normale teamspelers had hij 3 assists gehad...
alles trekt naar binnen,waardoor de ruimtes klein waren. ondanks dat speelde larsson echt een prima wedstrijd.
wat een frustrerende wedstrijd zeg... ongelooflijk dat die goal niet valt.
gaan we dan. eindelijk weer een winst in de competitie!? voorspelling 01.
helaas geen boetius. larsson en berghuis willen beide de bal in de voet en komen naar binnen. trechtervoetbal.
10 eindhoven, 10 de graafschap... periodetitel gaat zo naar nec.
10 voor de graafschap. dat wordt dus een lastig verhaal.
avondje met hopelijk de periodetitel voor fortuna, maar ben bang van niet.
feyenoordheracles... wat een zaadpot weer.
balletjes opendraaien graag en snel een beetje!
over ongeveer 10minuten de loting!
01. dit is gespeeld. geen penaltys minachting van de kijker.
verlenning bij psv. mooi met het oog op zondag vitessepsv.
nog een stukje psv meepakken, stunt volendam!?
larsson was prima vnv. toch bang voor trechtervoetbal indien larsson en berghuis beide spelen, doordat ze beide naar binnen komen.
gelukkig maar!
weer thuis van avondje de kuip. belangrijkste in de koker!
thanks. 2de ring blijft wel dicht?
hoeveel kaarten zijn er voor morgen verkocht?
gefeliciteerd!
wat is jullie mening over de edivisie, die weer op fox uitgezonden word…
idd. hopelijk geertruida gewoon cv. zie het liefst een echte cv centraal ipv een middenvelder of back.
dat is helaas wel weer...maar weinig ritme enzo. zie hem eigenlijk liever dan vd beek.
prima weer voor een klassieker!
wtf. bij fox sports wordt net gezegd dat s de jong waarschijnlijk basis staat. dat zou positief zijn!
wij gaan winnen alleen met hoeveel is de vraag!
thanks.
wat is dat eigenlijk in de neus van fischer? voor meer zuurstof of wat is het verhaal daarachter?
tijd voor de rotterdamse derby. laatste wedstrijd van pastoor!?
ik ben bang dat nelom morgen gewoon centraal achterin staat, net zoals laatst bij de jeugd.
el hankouri met zijn debuut voor willem ii.
eindelijk weer tijd voor prima om het weekend mee te beginnen!
en de 10 dan in de beker? in eredivisie verband dus.
al 2 weken geen podcast? of komt er deze week nog iets?
shaktar wist nog nooit te winnen van een nederlandse ploeg.
zo kan je het ook zien. ik bekijk het positief .
als je vanavond wint, kan je zomaar gedeeld 2de staan. alhoewel ik verwacht dat het kansloos wordt.
mijn speler van de week bij voetbal inside is sven van beek via
wauw, wat een prachtige docu!
eerst even kijken met als gast o.a. pieter zwart en dan eindelijk de documentaire van kuyt!
idd, vandaag erg matig, maar normaal de beste rechtsback in de eredivisie imo.
buiten die 3 ook nog arias, maar feyenoord heeft idd een betere selectie.
2de goal van jinty caenepeel in de eredivisie.
gaan normaal gesproken ook nog een terugval krijgen. kijkend naar vandaag, in elke linie nog goede ve…
eens,maar dat dacht ik vorig seizoen ook van feyenoord. psv heeft een beetje het feyenoord geluk van…
helaas... en weer 23.
idd, vind het geen duidelijke rode kaart, maar je kan hem geven. harde overtreding.
en inmiddels ook rood voor vvv, promes.
21 hunte. zou een flinke meevaller zijn.
isimat houdt weer dom vast, zoals zo vaak. 11 leemans! hopen op puntenverlies psv.
eens, alhoewel het weinig nut had gehad als je keek naar het niveau van de corners...
oke, dat heb ik gemist, verklaart het. blijft echter een laffe wissel.
eens, alhoewel 5 punten indien psv wint al wel veel is. maar psv en ajax hebben ook hun eigen probl…
zeker waar. maar jorgensen helaas nog geen minuten, dus daar zullen we sowieso nog even op moeten wachten.
het is echter ook niet zo overdreven. het zit ook niet echt mee qua blessures. we hebben nog geen 1x met de sterkste elf aan kunnen treden.
ook weer aparte wissels van gio. apart dat toornstra gewoon mocht blijven staan. had dan larsson dicht tegen jorgensen gezet.
wat een drama avond. zit toch vooruitgang in, na verlies tegen nac toch knap één punt uit het vuur gesleept.
kunnen jullie mij even volgen, dan gooi ik het ordernummer even?
gecondoleerd en veel sterkte!
gisteren dagje efteling gehad en vanavond gelukkig weer naar de kuip!
ik heb 2 kaarten gekocht voor feyenoordpec via feyenoord ticket exchange maar nog geen etickets ontvangen...?
ik zou in beoep gaan als ik lisse was.
gaan we dan! legendarisch.
spannend!
jep, las het ook, maar onzin. dat weet ik niet, maar blijkbaar wel
tegen ado is onzin. dan begint de interlandperiode, marokko speelt wsl het weekend er na pas. afrika cup v…
wat saai een weekend zonder feyenoord,ondanks dat het nu goed uitkomt.vanaf volgend weekend gelukkig 4x achter elkaar thuis en naar de kuip.
mooi vooruitzicht!
heerlijk dit!
thanks, duidelijk!
certificaat binnen, waar ik aan meegewerkt heb als vrijwilliger.
5 nov idd adofeyenoord en ajaxutrecht ivm el ahmadi amrabat en ziyech. dit bericht kwam vandaag
thanks. hopelijk kan el ahmadi en eventueel amrabat gewoon meedoen met feyenoord.
klopt het dat marokko maandag 6 november speelt? of is dat nog een conceptschema wat nog gaat veranderen?
weer een ouderwets avondje jupiler league. wat een uitslagen en spektakel weer.
goede eerste helft jong oranje. na rust was het niet meer super. st juste wat kleine foutjes achterin en goed debuut bijlow.
30 uit een penalty. prima voor het doelsaldo zo.
prima en verdiende 20 van jong oranje.
prima voetbalavondje met jong oranje en schakelkanaal jupiler league.
dat boek moet er komen!!
in 2015 schreef je een stuk, dat achahbar de spits kan zijn die feyenoord zoekt. verklaring hoe hij zo…
wat een heerlijk programma is dat tiki taka touzani. leuk om voetballers om een andere manier te zien. gisteren met elia.
mijn speler van de week bij voetbal inside is steven berghuis via
trouwens wel geluk gehad met dat buitenspelgeval aan het begin van az.
heerlijke wedstrijd! nu rustig naar heerenveenajax kijken.
zo, dat az weet ook weer even waar het staat.
enig idee waarom achahbar niet op de bank zit?
lurling ui de boeken! amrabat!!
nee... kramer is geblesseerd. vandaar op de tribune.
met van hanegem!!
22 geertruida!!
hand in hand wordt gezongen bij de youth league. mooie dingen.
geen super fan van botteghin,maar toch weer een aderlating. opties st justenog bewijzen. vbeeklang er uit geweest, tapiamiddenvelder
dat zeker, maar denk dat je na komende dinsdag weinig zelfvertrouwen meer hebt.
en volgende week speelt az weer de sterren van de hemel...
wat een begin bij azexcelsior. wederom een penalty voor excelsior en het had al 02/03 moeten staan.
is ook. maar denk je niet dat, gezien schema, psv volgende week 6 punten voor staat?
is ook. verwacht dat de top3 dicht bij elkaar gaat eindigen en dat het met jorgensen berghuis, toornstra weer goed komt.
klopt, maar zit er niet best uit en acht de kans groot dat je al 6 punten achter staat, terwijl het net begonnen is...
13 psv. virtueel 3 punten voor op feyenoord. kan volgende week, na 7 wedstrijden, zomaar 6 punten zijn met azfeyenoord en psvwillem ii.
middagje eredivisie. hopen op utrecht en vitesse....
zeer triest dit. zo ken ik mijn feyenoord weer.
helaas nog geen eredivisie op vrijdag, maar gelukkig wel weer gewoon het schakelkanaal met de jupiler league.
wat een gezeik altijd weer om de loting heen. hop loten.
loten maar!
jammer!
top weer! alleen helaas geen boekbespreking.
moet kramer zaterdag weer spelen tegen nac? en dan die week er op napoli en az uit.
wwet thuis, iig door in de beker, maar daar is alles mee gezegd. ook eindelijk mijn shirt bedrukt.
matchday! eindelijk begint de beker weer!
derde verrassing van vandaag is een feit. kozakken boys wint met penals van de graafschap.
bij dordrecht, de goal was net op fox.
lekkere blunder weer van de keeper.
eerste verrassing in de beker is een feit! rkc verslaat sparta. rkc stond in de jupiler league nog geen minuut voor dit seizoen.
oneens. helemaal niet bruikbaar.
weghorst kon naar rusland de laatste dag. club uit moskou bood meer dan 10miljoen. jammer! via
weer thuis. verloren door drama tweede helft. kut feyenoord week met 2x verlies en 0 goals. op naar woensdag!
daar zijn we weer! wat een heerlijke zondag kan dit worden met ajax op 11.
zo op naar eindhoven! zeer benieuwd. voorspelling 11.
matchday!! hopelijk psv op zes punten.
kijk erg uit naar deze docu na dit prachtig verhaal, uniek!
helemaal mee eens. nu ook weer... voor niks.
en ook rkc mist een penalty.
en groeneveld nec ook.
hahah heerlijke beelden! weghorst die penalty mist, wordt overgenomen en mist weer.
leukste van het weekend!
al wat bekend hierover?
nee, onvoldoende bewijs
eigen verliest is altijd kut, maar nog kutter is dat shaktar van napoli wint, waardoor het eigenlijk al klaar is.
weer thuis. wat een pijnlijke eerste cl ervaring.
wij gaan winnen, alleen met hoeveel is de vraag!
matchday!! eindelijk weer cl in de kuip!
complimenten voor je boek, tof on te lezen en herkenbaar! maar dit was toch heintze ipv lee?
mijn speler van de week bij voetbal inside is steven berghuis via
eens. vilhena en amrabat wel omdraaien, is logischer.
yesss, lozano rood! die is er niet bij tegen feyenoord!
wat is dit!? 20!!
idd. 442 misschien maar dan...
lekker met nelom en kramer de champions league in. twee posities waar je het meest op achteruit gaat.
kan kuyt zijn rentree maken?
drie punten, maar wereld van verschil tussen 1ste en 2de helft. op naar de wedstrijd tegen city.
haps heeft last van zijn enkel, dus enkel botteghin.
nog een kleine opmerking koppers heeft zijn achillespees afgescheurd en wordt in 2018 pas terug verwacht.
oke, op die manier, zeker eens ja. echter weet ik niet hoe promes dat bij zijn club in rusland doet.
vanwaar boëtius op links? is ook een rechtspoot...
waarom twee keepers als dispensatiespelers?
vandaag lijkt mij... zijn gisteren verzonden
jaja tuurlijk, eerste keer cl buiten vcl ! vak rr, jij vak e?
nog precies één week tot dit eindelijk weer in de kuip klinkt! via
en dan eindelijk cl!
20. isco met zijn 2de goal. spanje lijkt eerste te worden in de poule.
toptransfer voor brugge, maar erg vreemd van clasie. ver onder zijn niveau. club brugge speelt ook geen europees v…
bedankt, duidelijk! vak w is toch al uitverkocht?
kan ik ergens vinden welke vakken ongenummerd zijn ivm verkoop passe partout? gerard meijer tribune, vv en welke nog meer?
schandalig! dan napoli ook geen kaarten in de kuip.
mijn speler van de week bij voetbal inside is kevin diks via
20 psv, dat wordt een lastig verhaal om koploper te blijven.
direct een 2de aflevering deze week?
idd. we zullen de lijst iets langer maken dan alleen jørgensen. bizar dat de lijst idd ni…
prima overwinning, redelijk wedstrijd, mooi debuut van toure. hopelijk vallen de lichte blessuregevallen mee.
kramer valt zo erg uit de toon in vergelijking met de rest.
ja eens, geen risico met deze stand.
amrabat eens ja. verder graag eens hansson of toure ipv kramer.
matig begin, maar daarna perfect hersteld! tijd om jongen talenten eens te laten invallen!
voorspelling 20. benieuwd of v bronckhorst hansson of toure durft in te brengen nu bilal niet op de bank zit.
el hankouri wil niet naar dord, maar zit wederom niet op de bank vandaag.
jup. toegang tot de eerste thuiswedstrijd om de knvb beker tot 1/8e finale
haha mooie, ajax amateursutrecht
feyenoord thuis tegen ado
eerste goal jinty caenepeel in de eredivisie.
nou loten maar
volgende week natuurlijk interlands, dus misschien over 2 weken.
oeps ja idd, dan misschien voor over 2 weken
kuwas geblesseerd van het veld en armenteros waarschijnlijk weg. gunstig voor volgende week met het oog op heraclesfeyenoord.
respect voor de commentator evert ten napel, maar dit kan niet meer. ziet tegenwoordig pas bij de 2de corner dat de keeper mee is.
en direct 11. goede goal bruins.
heerlijke goal, 10 kuwas. benieuwd hoe lang hij nog bij heracles speelt.
geweldige wedstrijd vitesseaz. nu een stukje heraclesexcelsior en wachten op de loting!
en alsnog de verdiende 12, wederom een mooie assist van vejinovic.
en de onverdiende 11
totaal niet verwacht, maar az de veel sterkere ploeg. wachten op de 20.
wederom een prima assist van vejinovic. 01 az.
daar gaan we weer met het schakelkanaal en hopelijk weer veel sensatie!
zitten in ieder geval in de goede poule!
lazionicezulte waregemvitesse... die gaan dus niet door.
ligt aan de gasten . prima, ik kijk!
prima podcast weer, maar apart dat er helemaal niks over de loting wordt gezegd?
wederom een tripje geboekt naar manchester.
thanks, welke prijs?
via waar napels geboekt? welke prijs en met tussnestop?
betrouwbaar?
2 woorden, 9 letters
haha, ja 2x verwijderd haha, las de vraag fout.
over 1uur gaan we loten!
nog 2uurtjes!
grot weg bij nec en dan nog steeds geen achahbar in de spits.
over 24uur gaan we eindelijk loten!
afgelopen. potindeling wel zo goed als zeker.
haha hier ook. kijk je?
22... wordt weer spannend.
21 sevilla. celtic blijft in pot 3 of hoffenheim moet morgen nog gaan stunten.
tof begin door en alleen wat kort .kijktip en het boek leestip! via
wat blijft dit leuk als voorpret voor de loting van donderdag!
de kuip was vorige week zondag tegen twente gewoon uitverkocht, dus max aantal kaarten verkocht 47.500. 100% dus.
waarom el hankouri op de bank? zou vandaag toch naar dordrecht gaan?
waarom el hankouri op de bank? zou vandaag toch naar dordrecht gaan?
en drie bonuspunten ten opzichte van vorig seizoen.
wederom niet best, maar toch weer 3 punten! zakelijke overwinning.
en boetius wederom belangrijk. laatste 4 wedstrijden 3 assists en 1 goal.
heracles komt zowat voor het eerst over de middenlijn en direct 10 uit een corner.
ja geen idee... dit is blijkbaar het derde tenue...
uittenue is wit van ado... weet niet waarom dit shirt...
logisch en is dat gedoe ook klaar.
4 miljoen valt mee!
wat een spektakel weer in de jupiler league!
hmm ja toch niet de eerste.
1ste goal was toch van runderkamp van volendam?
eindelijk weer het het schakelprogramma op fox.
zou de komst breed gedragen zijn?
toch waar dus... larsson naar feyenoord. redelijke speler, maar geen mentaliteit.
timo maakt 10 en juicht, maar blijkt buitenspel, daarna maakt zijn tegenstander deto 01 en gaat door naar de finale.
hahaha lol, was al aan het juichen idd
halve finale fiwc op fox sports. na twee wedstrijden 11 en nu golden goal voor wie er naar de finale gaat.
wie te gast?
eindelijk begint de jupiler league weer!
13 voor spanje uit een corner. spanje door!
21 natuurlijk!
en de verdiende 20 van spanje na wederom een mooie aanval.
mooi om het spaanse combinatievoetbal ook bij de vrouwen u19 terug te zien.
en 10 voor spanje.
nu op eurosport. nederlandspanje u19 vrouwen, halve finale ek. goed begin van nederland en een afgekeurde goal van spanje.
eindelijk ook een podcast over de jupiler league!
achahbar wederom niet in de basis...
dan neemt het toch weer gewoon over .
oke, thanks. nog niet fit genoeg of sowieso geen basisplek?
is achahbar nog geblesseerd of gewoon geen basis?
benieuwd naar nec dit seizoen, een aantal leuke spelers bij elkaar met verdonk, schuurman, jansen, achahbar, sleegers en kadioglu.
niet halen dus.
ik graag. heb dm gestuurd.
wie is de favoriet om kampioen te worden in de jupiler league?
idd. brama niet te vergeten. en dan vandaag nog zonder kali, janssen en leeuwin.
wat een knappe overwinning voor utrecht, maar wat was zenit zwak. benieuwd of ze volgende week stand kunnen houden.
verdiende 10 voor utrecht. nu een kwartiertje billen knijpen?
wat een aardig begin van de wedstrijd en wat start utrecht goed.
top! alleen hoort links en rechts te zitten .
wie is kampioenkandidaat nr 1 voor jou? en wie wordt er topscoorder? hoge verwachtingen van achahbar?
mijn speler van de week bij voetbal inside is bradley kuwas via
helden!
spel niet best, maar de 3 punten direct binnen!
matchday! eindelijk beginnen we weer met de competitie. op naar de kuip.
eindelijk weer matchday!!
lekker hoor! morgen zelf winnen en direct 3 punten los.
heerlijk dit. 21 kuwas.
gaat weer lekker bij vitesse.
az en keepers. geen gelukkige combo.
ook de keepersblunder blijven dit seizoen in de eredivisie. vvv 10.
dramatisch verdedigd. vlaar is ook niet meer wat het geweest is.
de trap terug in de eredivisie!
eindelijk weer een lekker avondje eredivisie voetbal. benieuwd hoe psv met de druk omgaat en benieuwd naar v crooij en tissoudali bij vvv.
ook mooi om te zien dat de spelers die vorig jaar nog in de jupiler league speelde het ook in de eredivisie laten zien.
eindelijk weer thuis. prima begin van de eredivisie gezien. blij dat het weer begonnen is.
fijn dat de eredivisie weer begint. vanavond direct maar even een wedstrijd bezoeken.
vandaag begint de eredivisie gelukkig weer, eindelijk!
duidelijk nummer 3!
thanks! oke geen tijden bekend? nog op de foto geweest/was die mogelijkheid er?
kan ik mijn shirt aanstaande zondag ook bedrukken in de fanshop op rotterdam centraal?
tof man, op goed geluk heengegaan of ergens tijden gekeken?