vomar
frontier seizoen 2 ga ik sowieso kijken. ben nu ook benieuwd naar godless!
ik ben er vorig jaar december geweest. en natuurlijk het beatles museum een aanrader!!
oh wat een jaar is wel een leuk programma
ik weet wat ik na het werk ga doen!
wat een slecht en inspiratieloos feyenoord!! met name nelom bilal en kramer....
hans van harte!!!!!
en dan besef je dat na vanavond is afgelopen... dat wil ik niet!!!
met dit centrum kan je ook geen potten breken.
slechte bal van amrabat...
wat een geweldige voetbaldag! om 1430 en om 1700
een fenomeen als andre van duin is niet te persifleren....
wat een geweldig leuk programma! zoals altijd zijn en ruben nicolai weer geniaal grappig. 🤣🤣
geweldige kerel altijd 100 procent zichzelf. gefeliciteerd en nog vele jaren!! 👍👍
kunnen we niet gewoon elkaar respecteren en genieten van het spelletje?
wie is er niet groot mee geworden? gefeliciteerd!!
hij hoeft ook niet bang te zijn dat een club op het hoogste niveau hem ooit nog wil.
ik ga het morgen zeker terugkijken!
bij nummers van mccartney is dat zeker geen straf😁
dankjewel dit nummer krijg ik nu de rest van de dag niet meer uit mijn hoofd 😄
meer dan terecht
groot respect voor een groots sportman
wat een held!!! robben!!!
vandaag zou deze legende alweer 77 jaar zijn geworden...
wat een prachtige biografie van the boss. elke bladzijde genieten.
wat zijn we een treurig voetballandje geworden...
allebei
queen treedt nog steeds op met adam lambert als leadzanger.
fantastisch bedrag voor deze man!!
linda, niet van het slechtste scenario uit gaan 😑😑
eindelijk doet het programma zijn naam weer eer aan
nederland kan er zomaar een miljonair bij krijgen vanavond...
nico is goed deze week. ik voorspel hem als dagwinnaar.
trap na aan je oude werkgever?
geweldig programma!! onbegrijpelijk dat het niet is genomineerd voor de televizier ring.
zei ik het niet?! 😧😧
seizoen 3 het beste seizoen naar mijn mening.
laat die mensen die dat zeggen maar eens luisteren naar a day in the life fenomenaal drumwerk van ringo
weer iets om naar uit te kijken! de kaarten voor zijn besteld!! ☺🙌🙌
programma zonder enige diepgang. is totaal het contact met de kijker kwijt. schaamteloze rtl zelfverheerlijking.
zal dan wel binnenkort weer bij rtl late night zitten.
helemaal mee eens
naar mijn mening is dat u2
peter sagan voor het derde jaar op rij wereldkampioen!! wat een fenomeen. 🙌🙌🙌
helaas kunnen bepaalde mensen geen enkel respect of begrip opbrengen.
bijna een minuut sneller 🙌🙌🙌🙌🙌
ja die winnen dan weer wel
zo te horen zou je het niet erg vinden als het nederlands elftal het wk niet haalt. 😉
zolang het dus nog meer oplevert dan het kost. zou ik zeggen houdt het sprookje maar in leven.
tot nu toe levert het meer op dan het kost
en dan?
hans wordt altijd een beetje belachelijk gemaakt. maar hij is degene met het meeste voetbalverstand aan de tafel
prachtig, pure emotie bij en simone kleinsma
je zou bijna denken vader en zoon 😉😉
ziet er heerlijk uit
de taart van maarten vind ik nu al de mooiste taart van het seizoen. 👌👌 🔴⚪
de televizier moet gewoon nu alvast die ring geven aan
maarten de feyenoorder 💪💪
andre van duin wil whisky in de taart 🤣🤣🤣
weer genieten van het met beste programma op de nederlandse tv!
waarom speel je zo slecht bij oranje?
tja toornstra en uitwedstrijden....
eens
hans heeft weer gelijk
even uit zien te goochelen
100 procent mee eens.
zo had de documentaire van klaver moeten zijn 😂😂😂
wat een geweldenaar is andre van duin!
toch nog een nederlander op het wk
al gedaan
na ben je de eerste 😉
oh wat sneu voor rick
oude bomen moet je niet verplanten! andre is al weer in vorm.
ja hoor hij pröpt er weer een in
daley blind speelt degelijk. maar door het povere spel is hij de beste van het veld. zegt genoeg over dit oranje.
de honneurs waar nemen👌😂😂😂#theomaassen
het was echt evenementenpubliek
ze is toch niet voor niets in de finale gekomen? lijkt mij dan een verdiende winnaar. ik geniet ook al…
gisteravond nog in parijs in het stadion en nu weer kijken in nederland.
waarom zou je de verwachting temperen? met deze selectie is feyenoord titelkandidaat nummer 1
blijkbaar is het tegenwoordig normaal om een crimineel op de cover te zetten. een man die verantwoordelijk w…
prachtig boek met mooie verhalen van een op en top artiest.
roerend eens met derksen
vandaag eindelijk naar de bassie en adriaan tentoonstelling gegaan in vlaardingen. als een kind zo blij met mijn ni…
lekker een dagje fietsen op texel! 😊😊
ik zal nooit snappen waarom je zoveel mensen zoveel pijn en verdriet doet. en het zal helaas nooit stoppen.... 🙏🙏🙏🙏🙏
het was lullig voor pete best. maar ringo was nu eenmaal een betere drummer. toch is het een beetje…
nog nooit last van gehad. slaap er niet minder om
🖐🖐🖐🖐🖐🖐🖐🖐🖐🖐🖐🖐🖐🖐🖐🖐🖐🖐🖐
wat een drama voor bolt....
eindelijk gaat het weer beginnen! 😄😄🙌🙌
ik heb net de eerste aflevering bekeken. bedankt voor de tip! 👍👍
nog een paar maanden wachten op seizoen 2....
het camerawerk in de nieuwe aflevering van is zo ongelooflijk goed. 👌👌👌
een man die het wielrennen extra kleur gaf.
haha iets met een spijker en en kop
wat een sportman en wat een carrière
ik ben de baron! quiz | welk personage uit bassie &amp adriaan ben jij? drommels drommels en nog eens drommels!!
zijn laatste 100 meter en langzaam komt het besef. er zal nooit meer een grotere atleet zijn
net geweldige duitse supercup gezien en daarna meteen een geweldige 100m sprint winst voor gatlin respect voor bolt
bolt feliciteert gatlin meteen na de finish. wat een voorbeeld voor de sport!
allememaggies wat een dag!! 😉
wat een geweldig goed nummer. perfect live uitgevoerd door the man in black. ♫
zal die wel de motivatie kunnen opbrengen in de eredivisie?
kijk later maar verder nico, de halve finale begint bijna!!!
als ik van slechte muziek had gehouden dan had ik ook genoten van jouw vertolking van no woman no cry bij dwdd
yes het is weer koers! 😍😍
heiko westermann😎
als je goed voetbal wil zien kun je de eredivisie ook wel overslaan. met dit soort eindtoernooien maakt de spanning veel goed.
wat was het een prachtige tour. nu al zin in de ronde van spanje!!!
ik denk dat ik hier de komende uren even naar blijf kijken!! 😄😄😄
groenewegen van kop af!!!! 😀😀😀😀😀😀🙌🙌🙌🙌🙌🙌🙌
geweldige uitzending van het kon odie niet veel interesseren helaas... 🐱🐱🐈🐈
het is weer genieten van de goed spel!
wat een etappe en wat een overwinning voor de laatste kilometers bestond ik voor 90% uit kippenvel 😁😁 🙌🙌💪💪
wat de trainer zegt... 👏👏
ja hoor de biografie van een van mijn ultieme jeugdhelden is binnen
wat een verschrikkelijk droevig nieuws... veel sterkte voor de familieleden en vrienden.
ik ben ook van plan om er naar toe te gaan. voor mij het ultieme jeugdsentiment.
het is wel tijdloos ik vind het nog steeds leuk.
was er ook iets wat je wel leuk vond?
mooi om te horen dat nouri stabiel is op het moment. 🙏🙏
er ligt een man te vechten voor zijn leven. dit lijkt mij nu totaal niet belangrijk
wat een verschrikkelijk nieuws vanuit oostenrijk. blijf vechten nouri!!
ik vind persoonlijk dat hij te zwaar is gestraft een tijdstraf was voldoende geweest.
kan ik ook een movies en tv pakket bestellen zonder klant te zijn?
dat is een artiest die wat mij betreft nooit vergeten kan en mag worden
vandaag is het alweer 8 jaar geleden dat michael jackson overleed.
wat is een geweldig programma! elke week met een brok in mijn keel door alle verschillende verhalen.
het 5e seizoen van was geweldig! nu weer een jaar wachten 😣😭😭
wat was dit seizoen van house of cards weer geweldig!
wat een verschrikkelijk nieuws
weer een geweldige blog! vind het persoonlijk een van de mooiste nummers op pepper
de stem van chris martin ontroert elke keer weer...
zes mensenlevens wat een zieke wereld...
wat een verschrikkelijk nieuws opnieuw vanuit engeland
bedankt voor de tip! programma is opgenomen en morgen ga ik het bekijken
wat een matenaaier
helemaal mee eens
van begin tot einde genieten!
we zijn in de voor
mooi op tijd in de
donderdag eindelijk naar voor
ze hadden gewoon 20 minuten lang de anologues moeten laten zingen
met een goed jeugdig team zo ver komen is een topprestatie zonde voor dat het dan zo eindigt
zelfs als feyenoord fan vindt ik dit een beetje sneu ajax heeft gewoon een topprestatie geleverd
nee jorgensen maakte die wedstrijd 2 eigen doelpunten 😉😎
ziet er prachtig uit!! 👌👌
wat krijgen we nou!? ik zie de nieuwe single van dotan niet 😉
bedankt en veel succes in stockholm!!!
wat kan zo,n schaal mooi zijn!!
toen ik nog een klein jochie was van 8 jaar was al mijn voetbalheld nu ben ik 21 en hij is nog steeds mijn held!!!!
diep respect voor de manier waarop dit prachtige nummer heeft laten horen. nederland is trots op jullie!!
portugal van europees kampioen naar europees songfestival winnaar
ik heb wel gekkere dingen gezien vanavond hoor
elke keer als die presentatoren wat zeggen...
ik kan me er heerlijk aan ergeren maar sommige nummers zijn wel de moeite waard
weer top gedaan door
en stel je nu die mensen eens voor die voor deze wat vertoning 10.000 euro hebben betaald
de kaarten voor zijn binnen! nu al zin in 1 juni
zoveel respect voor fernando ricksen ondanks die verschrikkelijke ziekte toch strijdbaar
meest afgespeelde artiesten top 3 spotify 1. 2.@queenwillrock 3.@paulmccartney
yes! morgen na het werk meteen kijken! 🙌
dit blijft toch wel geniaal 😅😅
paul mccartney en ed sheeran
crackerbox palace 2004 digital remaster van george harrison ♫
vizier op de toekomst, respect voor het verleden prachtige bio van rinus israel!
complimenten voor de bijpassende foto!
alweer een jaar geleden dat cruijff overleed
morgen is het eindelijk zover!! flowers in the dirt deluxe edition komt uit!!
lekker cruisen met herman
hoe belangrijk is brad jones?
feyenoord wint met 12 van sc heerenveen!! bekijk de doelpunten van en terug op mijn kanaal!
allemaal even dankjewel zeggen tegen brad jones wat een held!!
wat gaat het worden jongens?
morgen om 1230 is het zover bij elk doelpunt van feyenoord zal ik live gaan via
chuck berry overleden zwarte dag voor de muziek. maar laten we genieten van de muziek die hij heeft nagelaten…
mooie blog, flowers in the dirt is een van mijn favoriete albums van mccartney
omdat hij toch ondanks alle tegenslagen zijn rug recht hield en zich een waardig verliezer toont.
technische dienst nodig bij ongelooflijk
net mijn stem uitgebracht voor
lodewijk asscher is fel vandaag wie weet heeft het morgen effect.
na lang twijfelen neig ik nu iets meer naar nog even debat buma vs pechtold afwachten.
feyenoord wint afgetekend met 52 van az. bekijk de doelpunten nog eens terug op mijn kanaal
gaat lekker zo!!
bij elk doelpunt van feyenoord zal ik live gaan zodat jullie het kunnen zien
weer genoten van je blog dankjewel
sowieso ga ik stemmen op
schattig
henk en ingrid
die kans van di maria of het schot op de paal van cavani. op dat soort momenten moet je gewoon geluk hebben.
iets te eerlijk geweest?
het was mooi om te zien!
dit vind ik belangrijk … 🌹 luister niet naar deze man maar naar
de schade blijft gelukkig beperkt.
kom op maak de dag nog een beetje goed!!
zal ajax het dan ook laten afweten? kom op groningen!!
ik denk dat dit te goed is voor het songfestival, daar wordt goede muziek niet gewaardeerd helaas.
misschien een nederlandse versie
de top 3 in de eerste voorjaarsklassieker
hoe gaat de reageren als feyenoord of ajax onterecht een doelpunt wordt ontnomen het kan je als club de titel kosten.
kost zeker weer te veel geld het is alleen wel de competitie die er vanaf hangt
en bij david valt nog heel wat te boetseren
wat een fenomeen is peto sagan!!
ik zorg goed voor je hoor
het is al verholpen ik heb de app opnieuw geïnstalleerd
ja had ik al geprobeerd nog steeds dezelfde melding het apparaat is de samsung galaxy a3
ik heb nu al twee dagen als ik de app opstart de tekst kan geen verbinding maken met netflix enig idee hoe dat kan?
leuk ook dat ie het achter de decoder doet
jullie zijn ook de enige die hier over berichten. zou het vrouwenvoetbal goed doen als het wat meer aandacht van de media kreeg.
gefeliciteerd met je plaats in de premier league!!
was jij dat koert?
ja volgens mij was dat 400ste geboortedag van shakespeare of zo
wat een geweldige ervaring
wat vindt johan van deze cover van zijn oude blad?
fijne sint nicodijkshoorn
daarom
en de collectie is weer verder uitgebreid!
lekker lezen over de beste en mooiste band die er ooit is geweest en ooit zal zijn
misschien moet je gewoon de wedstrijd kijken in plaats van op je telefoontje zitten te spelen
ik stem op en jij? laat horen die stem! 🌹
haha gelukkig deze tijd wel
het leven is zwaar younes
dit is bij het betalen van premium voor de livestream
dan wordt het vanavond maar op tv kijken als er geen antwoord of oplossing komt
jullie livestream doet het niet ik wou er voor betalen maar gaf aan dat er een storing is
cruijff was veel beter
coen moulijn
en het is nog puur verdiend ook
leeftijd 20 jaar, gewicht 70.0kg lengte 180cm
dag ik heb je veel kritiek zien uiten op wat vindt je eigenlijk van bands als direct rigby en racoon?
is op dit moment gewoon de beste band die ons land heeft te bieden.
ik denk dat de wint. wat denk jij?
ostlund
higler fluit als een pannenkoek of mag ik dat niet zeggen in de week van de scheidsrechter?
pauze bij vermaak ten top
vanavond naar zelden zoiets gezien van zin in!!
yes hij is binnen!!!! goed leesvoer
als ze nu deze mannen wegsturen zijn ze echt inconsequent
en nu zal kenny wel olympisch kampioen worden
dit is toch niet geloven ze lappen opnieuw de regels aan de laars
opnieuw een teken van zwakte van de organisatie. kon er nog wel bij na het rusland verhaal
nu lekker kijken naar de beach volleybal kwartfinale
van harte gefeliciteerd en geniet er van.
nu hopen dat er ook gerechtigheid komt voor steven avery. de amerikaanse rechtspraak staat hierdoor wel volledig voor gek
dat is nog eens goed nieuws. heb seizoen 1 gekeken en met verbazing zitten kijken naar zijn veroordeling
heb je het prachtige huis waar je woont laten bouwen of stond het er al?
het wekkertje is gezet voor de 100 m finale vrije slag
zondag vrij? stelletje ambtenaren!!
zo beginnen we lekker het nieuwe seizoen
wat een geweldige prestatie van jou en de rest van het team op dit soort dagen ben ik trots om feyenoorder te zijn
te vroeg?
danny had de dag van zijn leven
zijn er ook nog andere mensen die windsurfen? heb ze 4 jaar geleden niet gezien
alejandro valverde
tijd!!
de reden waarom morkov afstapt is bekend
een man met een een duitse achternaam die zeer waarschijnlijk duitsland uitschakeld
ga zeker kijken
als het aan de ligt is het niet langer maar
met de g van grandioos
de keeper van maakte zijn debuut in de laatste interland van ference puskas joggingbroek
de keeper van bij een dopingcontrole piescheck
nog een dagje wachten voordat het voetbalgeweld weer losbarst!!
ik heb getwijfeld over belgië goh wat spelen ze slecht
de interlandcarriere van zlatan lijkt voorbij
hoop dat zweden wint
geweldige pass van zlatan jammer dat berg niet kan voetballen
jan verthongen verdedigt slim en is zlatan de baas
net weer die reclame van zlatan voor hopelijk niet zijn laatste interland
zo wat een kans voor
misschien sneu voor de belgen maar ik hoop zo dat zlatan vanavond niet zijn laatste interland speelt
aanstaande zondag de eerste training van op naar hopelijk een mooi seizoen
wie zal er vanavond winnen?
eerste doelpunt tegen voor spanje doelpunt van kalilic
toch nog een leuke wedstrijd voor 2 landen die al door zijn
goed om te horen dat heeft verlengd
jij kan het weten als meestervoorspeller
adam lallana maakte in 26 interlands geen doelpunten sloeg in 1000 wedstrijden onzin uit
jan mulder geilt op de belgen
johan heeft groot gelijk over wiel coerver was een fantastische leermeester
lekker dunne shirtjes bij zwitserland
ja dit is hoe spanje moet voetballen degelijk en goed positiespel
heeft groot gelijk over
goed dat je ook in slechte tijden klaarstaat voor de mensen om je heen.
gun het pelle wel als feyenoord fan
moet werken helaas
we kunnen even rustig ademhalen. het rustsignnaal
is er waarschijnlijk ook ingegooid door die syriër
zal ik je vast laten opnemen?
in darten gaat het om de livebeleving ik ben echt teleurgesteld in jullie
slecht dat jullie het spectaculaire einde niet uitzenden ik zit maar te kijken op sky die pakken het beter aan
wat een ongelofelijke faalhaas die marko vejinovic
topactie van hij geeft de grasmeester zijn gouden veter zeer terecht met dat prachtige veld
geweldige serie ontdekt op over pablo escobar en steve murphy van de dea
terecht
meer dan terecht speler van de week