puigdemont? kom hier kijken en luisteren. de grote meerderheid seperatistische gelul helemaal niet. houden zich stil.#catalonie
honderdduizenden aanhangers catalaanse afscheidingsbeweging zaterdag de straat opgegaan in barcelona. ik ben hier, niks van gemerkt.
de krant rept over massale demonstraties in catalonie de afgelopen dagen. ik ben al 2 dagen in barcalona. niks gezien, gemerkt.
ik ben in barcelona. meervgeen catalonische vlaggen dan wel. ik heb alleen nog gehoord als ik het vraag dat ze tegen afscheiding zijn.
de afsluitingskoers is toch in putte/kappelen morgen. heel niet in sina.
tapia en diks zijn gebleseerd en spelen morgenavond niet
niet afscheiden maar samen lopen. geen eta, geen ira, geen voormalig joegoslavie. gewoo…
ergens bij parijs in de buurt. morgen meezitten in parijstours, jouw koers, ff je seizoen in stijl afsluiten toch?
man, dat geouwehoor over zingen van wilhelmus ... voetballen, opvreten, messen slijpen, er op knallen. la…
ze kunnen beter gaan stappen met die belarussen. lekker zuipen, wat hoteldeuren intrappen en naar de ....…
er rest maar 1 ding. michel kramer opstellen voor het doelgemidelde.
inderdaad, wat bezielt die catalanen. het moet gaan over samen en niet afscheiden en dat soort onzin.…
hulde aan chantal blaak
blaakie !!!!!!!!
wat een mooie zege. en indrukwekkende emotie.
hij is er weer.
boekhandel en websites bv
editie 9
die ron van het journaal. leuk. ik moet altijd aan hello dingle en hello dangle denken.
en een schnitzeltje erbij?
super gedaan.
iedereen is zo blij met contdor. maar hij gaat toch altijd te laat? het lijkt toch eigenlijk nergens op? beetje dom?
als je me even volgt, kan ik je buiten de twitter om een berichtje sturen.
ik ga een stukje over bertus bul schrijven voor de hand in hand. wil die foto misschien wel g…
usain bolt overweegt nog steeds voetbalcarrière. iets voor sparta nu de broer van pogba weg is?
iets van 10
voor de hand in hand. hoe krijg ik contact met je?
waardeloze tv ontvangst. ik heb het wel opgelost. gewoon de kabel weet direct in de tv. analoog. gee…
afspreken dan voor het interviewtje voor de hand in hand?
zin in een interviewtje voor hand in hand, supportersmagazine feyenoord?
nee hoor. dat wist die sufferd zelf toch ook wel. blinde ambities. prima zo. harde leerschool. ter…
succes in de vuelta
veel succes. na kuthai gaat het nu gebeuren. de spaanse steile klimmen.
de acht van chaam
erik dijkstra vind armstrong een engerd. hahaha erik dijkstra
jazeker.
succes met de lottojumbo mannen. vanuit innsbruck.
succes gewenst vanuit innsbruck/kuhtai met de nieuwe sponsor
fietstocht vanuit en rond innsbruck waar volgend jaar het wk wielennen op de weg is . mooi fietsen hier
gisteren met de lottojumbo ploeg, vandaag zelf op de fiets in en rond mooi innsbruck#myinnsbruck
lottojumbo boys op stap in innsbruck. zijn in omgeving op hoogtestage. enthousiast over mogelijkheden en verblijf
veel beterschap. het was iid a big show, maar hadden je liever gezond over de meet zien komen. rustig aan en genezen!
bauke vond de afdalingen te gevaarlijk. blijf dan thuis, denk ik dan
al dat gejenk. moet dat? deed joop nooit.
moet je gentleman in de tour zijn of niet?
de eerste tourweek met jos, marcel, peter, fabio, chris en bijna jan raas
die thijs. hahaha, tussen 3 vrouwen zeggen dat hij liever naar dameskoers kijkt dan naar heren. dat heeft hij natuurlijk van thomas dekker.
lees over de tour 1980. raleigh en joop. ook over de gele trui op
van petersproducties ellen van dijk teleurgesteld wegens afloper tijdens nk tijdrijden
fotos nk tijdrijden met o.a. robert gesink
fotos nk tijdrijden 2017
hahaha, michael woods met de klompjes van goldmember
nergens de dauphine op tv. en de rit naar de alpe d huez zelfs ook niet. sleeeeeecht!
leuk bassie als commentator op eurosport of is het toch michael?
de laatste voorjaarsklassieker en wat voor een.
hee teun, wat het water in flesjes betreft, eens. maar waarom een glaasje water bij je koffie. slaat ook nerrgens op, toch@teunvandekeuken
de amstel gold race toer versie
paul de munnik zingt feyenoordlied en vertelt over zijn feyenoordgevoel op
morgen weer zon mooie dag als in de ronde?
tom egbers zegt pierre vermeulen tegen van hooijdonk. vuinisman, kan deze zak ook mee.
blind weg, anderhalf jaar te laat, nou aub ff geen ajaxied meer
luister maar. de vertaling van doe normaal in het engels door buck owens en ringo starr
een hele troost. karsten kroon als cocommentator bij san remo op eurosport. altijd goed om karsten te horen.
stream? weet ik niet. ik kijk gewoon op europsport en ga onder de onvermijdelijke reclames wel even richting koelkast of toilet.
geen primvera bij nos en sporza! de wereld is gek geworden. dan maar euro sport. help!
ik interviewde arjan erkel voor de hand in hand van fsvde feijenoorder.
bassie en adriaan. oh nee, toch niet, daar doe ik de gebr. van toor ernstig te kort mee.
zon schijnt. lekker buiten. weg uit de zandbak, op naar vlaanderen. omloop komt eraan. yea
het boek waar ik jaren op wacht is geschreven. junijuli in de winkel.
koersje organiseren daar?
joh, echt?
ik snap dat de belg enthousiast is, maar er zijn daar toch helemaal geen topsprinters? was een mooi kans voor dylan geweest.
bauke coppi? omdat bauke met petje op op fausti coppi lijkt.
vanzelfsprekend. en dat er ontelbare bijnamen zijn is bekend. maar zullen we er zelf een paar bij verzinnen?
de karst
henk doet de pagina op de maandagen en henk kent geen twitter.
ik verwacht dat we uiteindelijk meer van robert zullen zien dan van gilbert. wacht maar even af.
ik denk dat dylan vandaag met alle vingers die hij heeft, in de neus, in de vuelta gewonnen had.
steven kruijswijk kent de aankomst van morgen niet, lees ik. hij wil die vuelta toch winnen? dan moet ie elke aankomst kunnen dromen toch
klasbakken en nog leuk en ontspannen ook. poels, dumoulin, kruijswijk. mooie tijden voor ons.
smeets en ducrot thuis. marijn, dione, herman en danny ipv. beter, prettiger, houden zo.
marijn wordt met de dag mooier. en met verstand vd koers ook nog
een rustdag in de tour. voorproef op het zwarte gat van aanstaande maandag.
daar krijg je tegenwoordig bonusseconden voor. moet nairo winnen van prudhomme?
voor op de berg kaartjes verkopen. 50 euro. vol is vol. net als bij pink pop en zo. makkelijk zat toch? en meerennen mag niet.
alles mag. ik verbaas me er alleen over dat zon froome zo veel kritiek krijgt ipv de bewondering die hij verdient.
waarom hebben zoveel mensen een hekel aan winnaars, zoals froome en ronaldo. afgunst? waarom voor de underdog kiezen?
boogerd ook aan tafel. prettig.
ik mis mart smeets helemaal niet. dione en herman zijn prettig. helemaal goed.
dat je mee rijdt en uitdoet in de echte koersen dit jaar. chapeau!
kampioen nk worden is knap. maar de koers uitrijden is soms nog knapper. respect voor thijs
op naar het nk tijdrijden met jos van emden.
zlm 2016. drie lottos waarvan twee jumbos stralen op het podium. mooi toch. foto maarten roosenboom.
zlm 2016. twee jumbos stralen op het podium. leuk.
heeft ook geen zin, maar is uit teleurstelling. het kan zo mooi zijn als er er professioneler gewerkt wordt.
thx voor de mooie jaren.
lijkt op mijn liedje eenzame wolf gezongen door john buisman en jack wouterse en koor prettig weekend.
bedankt voor de tip. dus iid sepp eerste ovetwinning dit jaar. in de zlm, oei. knap.
heel dom dus.
ja, al 2 toch? of was dit de eerste?
het zal toch niet zo zijn dat kelderman de rit naar de rettenbachgletsjer niet verkend heeft en daarom geen 34 heeft gestoken?
vergeet jos van emden en wesley kreder niet in de zlm tour. en dan vandaag dylan de sprintert die griep en kittel er op legt.
nederlands voetbal stelt niks meer voor, onze wielrenners komen terug aan de top. mooi toch
stukje van onkenhout gelezen vandaag? het lijkt er op dat die sukkel niet van wielrennen houdt. jumgmann terug, onkenhout weg.
ik heb die shampoo ook gekocht en het klopt. ik verlies meer haar dan ooit met elke douchebeurt.
als je niet sterft, heb je niet geleefd. vrij naar cruijff#grootste voetballer ooit
van gastel heeft het oortje in
van gastel heeft het oortje in.
helemaal eens. dick is een voorbeeld voor ons allemaal. als we zondag winnen en dan ook nog van az koop ik ook zon sjaal.
in dwdd marcmarie als brains van de the thunderbirds.#dwdd
van marwijk huilie huilie over de vermeerpop. in sa hangen ze geen poppen maar mensen op, maar daar pakt bertje zijn poen.
en spuug. dat is helemaal smerig. waarom doen die belgen dat?
mooi. het uitshirt van utrecht is het shirt van elinkwijk. volgende wedstrijd het shirt van dos. dan van velox. eert uw geschiedenis#utrecht
in 1963 fietste peter reiger op de fiets naar lissabon voor de match benfica feyenoord. wie hem opspoort krijgt een fietsscheurkalender.
misschien nog te krijgen op je bijdragen voor 2017 editie welkom op info@indebeugel.nl
toch naar the program geweest. in grote vaart door het imperium van lance, voor als je onder een steen hebt gelegen. anders thuisblijven.
hek en meeuwis treden in parijs, olympia op .... voor hollanders, in het nederlanders. sneu.
onveilge seks met worst of frikandel kan echter geen kwaad lijkt mij. dus wil je helemaal aan de veilige kant zitten ...
giant alpecin is dus een duits team zie ik in richmond
volkskrantmagazine gezien? hahahaha, die schoentjes van matthijs. met zonder sokken. hahaha. hier kondigt zich de nieuwe mart aan. hahahaha.
dumoulin was geweldig. genoten. maar ik denk dat gesink nog steeds een stukje beter is in de bergen. niet vergeten hoor, die gesink.
en gesink natuurlijk en er schijnen nog meer talentjes op de deur te kloppen.
mooie tijden in het verschiet. dumoulin, poels, mollema, kruijswijk en kelderman. allemaal top 10, top 5 en podiumkandidaten. pure weelde.
schippers maakt excuses, dat is helemaal niet nodig. ze heeft gewoon gelijk. je kunt de schaatsfolkore niet vergelijken met atletiek.
gadver. tot overmaat van ramp ook nog die enge hazes! beter naar tom dumoulin kijken.
... dus ga ik vaak naar saar, kom ik daar op visite, nou ....
daphne schippers en tom dumoulin. vergeet het scholletje met het verbleekte oranje.
neeeeeeeeeee. wordt wel retespannend. ik neem een vrije middag op.
als dumoulin de vuelta wint .... kijk maar eens na wat er gebeurde met jan jansen en joop zoetemelk 1 jaar nadat ze in spanje wonnen. o jee.
de nos is niet eens bij. missen deze historische dag. schande.
zo dan!!!!!!! tom dumoulin. waar gaat dat eindigen. heel sterk.
lammerts selecteert jos van emden niet voor de tt in richmond. heeft die man onder een steen gelegen de laatste maanden?
schande!
voor de kijkers die later hebben ingeschakeld opschakelen.
zeer verdiend voor van avermaet. mooie renner, goeie gast.
mag ik zeggen dat wilco beter gisteren ipv sep mee had kunnen zitten om robert te helpen en vandaag sep ipv wilco? ja dat mag ik zeggen.
met plezier op kop? het is niet de tour defteling hoor. wat doet sep daar? daar had een klimmer moeten zitten.
ik hoorde hem zeggen aan de voet. misschien met een afloper de berg op? toch, ten dam had daar nog robertmleten zitten.
en lance is weer terug in frankrijk. hij rijdt een aantal etappes met een ploegje, de dag voor de karavaan dezelfde etappe rijdt.
jos haalt parijs zeker weten. forza jos!
waar was deze held aan de voet van de slotklim om heel snel zijn fiets aan gesink af te staan?
als gesink aan de voet van de slotklim lekrijdt moet er toch een mannetje ten dam bijzitten en als de sodemieter zijn fiets afstaan???????
op die plek komt hij nog. en wat dacht je van podium?
ik ga nooit, nooit, nooit meer zuur doen over gesink, echt nooit meer.
haha, jankverhaaltje van sjoerd mossou in het ad. sjoerd, je zult het er mee moeten doen. geeft niks. voetbal is straks ook weer belangrijk.
met gebroken ruggenwervels fietsen. dat zegt alles over de mannen van de weg. respect. kantoorjongens zijn dan een half jaar uit de roulatie
morgen over de kasseitjes dokkeren en ik moet werken dus kan niet kijken. balen.
waarom zitten na de koers nog op de rollen? vroeger ging de mannen nog flink uitrijden om de cortisonen uit de benen te rijden.
mee eens.
het lag niet aan het weer, maar aan een concentratiefout van wilco kelderman. even niet opletten en hup, daar lig je. voor gesink goed.
ja, toch voor het geld naar vino gegaan?
zo. thijs zonneveld pakt lars boom even heel flink aan in zijn ad column. zon aanklacht lees je niet vaak. wat denken we daarvan?
morgen tom dumoulin in het geel en dan een zeker een week lang.
zon burgemeester. het doet me denken aan swiebertje, maar nu gaan we fietsen. heerlijk. 3 weken voor de buis, en live onderweg in frankrijk
jc man, dat bobo gedoe is toch onverteerbaar. rijen motten ze, rijen peter post.
ik hoop dat er iets moois over jos van emden gezegd wordt.
heel nederland en verder kent nu ook de klasse van jos van emden. nu voortaan goed opletten allemaal hoor.
zag je dat doodshoofdje van anquetil?
de geschiedenis van de tour. prachtige beelden. canvas. kijk nou!
we kijken toch wel naar canvas nu?
een mooi en terecht eerbetoon aan de allerbeste nederlandse renner ooit. joop held. en hij geniet er tegenwoordig met volle teugen van.
als je joop zijn verhaal laat doen wordt hij echt wel fel en praat hij honderduit.
we gaan kijken naar joop op npo 3. kijken of ze alle clichés uit de kast trekken en joop neerzetten als de man die hij niet is. of niet.
wie gaat woensdag winnen in emmen? dumoulin of van emden?
als kara ben nemsi moest vluchten,fluisterde hij zijn hengst het toverwoordje rih toe. het paard vloog er dan vandoor. mooie naam rih.
elk jaar wielerfeest op zijn rotterdams. volgend jaar vast weer.
mooi
heb je zaterdag katendrecht gemist mariska?
in 1961 karstens handtekening gemist. nu 54 jr later zaterdag het cirkeltje eindelijk rond gemaakt op katendrecht.
ik heb wel ff gekeken of ik je 06 had, aan twiiter heb ik ook nog gedacht maar toen kwam karst aanfietsen.
ik heb nog naar je gevraagd en iig je tentoonstelling bekeken. leuk hoor.
dat denk en hoop ik ook van harte. nu is het niveau van de eredivisie ook lachwekkend bizar slecht.
dat komt doordat de clubcultuur hopeloos achter loopt bij waar de wielertoerist van nu mee bezig is/wil.
behalve gerben karstens dan. die na jaren van zeiltochten weer zijn gezicht laat zien.
klopt wielerplaatjes. eigenlijk is zon terugkeer altijd een deceptie. ben benieuwd naar de rentree van kuyt.
dat is wellicht zachtjes uitgedrukt. maar iid raffie is al jaren over zijn top heen. dus hup naar ajax wat mij betreft.
jammer voor feyenoord dat raffie zo noemt men hem toch niet naar ajax gaat.
leesvoer rooks &amp theunisse door peter tetteroo — racefietsblog.nl
ja, jammer. geen gevoel voor traditie, die italianen. o jee, wat zeg ik nou? 😰
thx en dat fietsen zit even in het slop vanwege knie. maar hoop het weer snel op te pakken.
geen dura ace groep als je achter een bord patat op het terras gaat zitten.
zet de deur maar vast open.
guido bindels bij pauw. gauw kijken.
bij de paaswake in rome zag ik meerdere mensen in een feyenoordshirt. de sint pieter staat nog. zie je wel. al die overtrokken verhalen ook.
was toch een ajaxhuurling. zeer verdacht.
gj kon ook enorm filosoferen doordraven heb ik gehoord. misschien is hij hier plato of zo?
dat is dan duidelijk rooks, de bergkoning met de adelaar op zijn schouder.
mail gestuurd. op reactie wachten.
ik hoor ook steeds meer tja, het is zoals het is. ja, daar hebben we wat aan, denk ik dan op mijn beurt.
interessant. ik zal het harrie jansen eens vragen.
ik gok king of the mountain. niet eerder gezien overigens.
hangt er zeker goed bij 😉
schaatsen, een ultieme buitensport, maar dan in een saaie zaal. verschrikkelijk. dat je daar nog geld voor krijgt ook. vreemd.
bleeeeehh, het schaatsen is weer begonnen. we gaan weer zware maanden tegemoet. de fiets verlangt nu al naar het voorjaar. ik ook.
op een vide grenier een magazine met het verslag en fotos van de tour van 1954 gekocht. wagtmans, nolten, faanhof, van est, bobet etc.
zo deed bv bernard dat ook. wild laten opdrijven en dan rustig pijprokend op een stoeltje wachten op het hert en dan beeeeeng.
die jagers lopen niet achter het hert aan, maar laten het opjagen door de honden en wachten dan aan de andere kant op het hert.
en ado dan met lex immers. vermeer komt er echt wel, maar immers is er nog steeds niet.
zegt lex immers ik schaam me voor dit feyenoord. zeg ik schiet hem er dan eens een keer in ipv naast. niet te geloven!
advies voor mijn mede feyenoordfans. volgende week zondag een boswandeling maken zonder telefoon. thuis gezellig bbqte zonder studio sport.
wie was de beste keeper die feyenoord ooit had? juist. en bij welke club werd die keeper weggeplukt? juist. welkom vermeer.
jhoop dat ze bij de nieuwe lottoploeg weer een gazelle onder hun gat krijgen. toch ben ik trots op onze boys hoor.
dat de belkinners om te beginnen al niet blij waren met de wisseling van giant naar bianchi is een publiek geheim toch?
gewoon blij zijn met de prestatie van bauke en laurens. 2 man in de top 10. is toch super!!!!!!
je kunt niet meespelen in de tour als je niet kunt tijdrijden. theunisserooks verloren daar ook. joop kon daarentegen ook tijdrijden.voila
voortaan alle nederlanders op de gazelle!!!!!!!!!!!
trek bouwt misschien wel een betere tijdritfiets?
die dijkstra!!! man houd toch je kop over dat tejay ineens ook een nederlander is. wat een bullshit. wat kan ons dat nou schelen.
ik heb nog een mooi boekje voor je liggen. komt tzt een keer naar je toe.
ja ik ook natuurlijk.
laten ze riis overwinning op hautacam zien. hallo riis. ding dong. wakker worden. ik snap het niet meer.
belkin is gewoon een mooie ploeg. tja, geen raleigh, maar ja, hoe dat komt weten we ook wel. blij zijn met belkin.
wacht dacht je dan van die smeets en zijn vriendjes. misselijkmakend.
mannen met heel erg veel boter op hun hoofd aangevoerd door smeets. wordt ondertussen wel een beetje misselijk hoor
peter winnen is nog steeds de renner met de scherpste blik en de interessantste teksten. geef die man een avondetappe ipv de obligate smeets
smeets vandaag zijn bespreking in de vk over een boekje over armstrong. dan net meedoen met peter winnen over hypocratie. smeets? gotspe !
tja, bij belkin denken ze nu doei bauke, have fun bij trek. we gaan nu voor lau. begrijpelijk. had het stil gehouden tot na de 8 van chaam.
wakker worden. ding dong. koekoek.
en .... de duitsers zetten nog niet eens aan.
en in brazilië is het einde der tijden nabij geloof ik. misschien is dit wel het eind van het hele brave toernooi.
djiezus, ik wist wel dat die brazilianen heel slecht waren, maar zo slecht??? bizar, echt een elftal van helemaal niks.
mee eens.
mooie film. vooral als ze gaan zingen voor kittel du hast die haren schon.
wat cav hier doet is erger dan de beet van suarez. wat een sufferd. maar kittel, yes. yellow.
als ik naar vi oranje kijk ben ik blij dat ik gisteravond in ootmarsum was met wielerliefhebbers.
oh god. dijkshoorn heeft ook een mening. nou ja, niet echt niet natuurlijk.
en die gijp maar herhalen dat hij er voor het mooie voetbal zit en het hem niet interesseert of we kampioen worden. ik zeg blijf dan thuis!
psv in bulgarije. een bijna leeg stadion, knollenveld, sfeerloos, kansloos verliezen. prachtig. oostblok revisited. oude tijden herleven.
wat een vervelende man bij dwdd. ja die zogenaamde wetenschapper die even niet weet hoe laat die malle komeet dan te zien is.
de mooiste uitdrukking van dit jaar komt wmb op rekening van peter ouwerkerk. de bekennende nederlander ivm de dopingbekentenissen.
goed om te horen. was woensdag in denhaag, maar net voor ik je kon aanspreken werd ik weggeroepen.
wilde het woensdagavond vragen in den haag, maar vraag het nu heb je mijn rooks theunisseboek gelezen? vond je er iets van?
als het klopt heb je mijn boek over rooks en theunisse gekregen tijdens de tour. vond je ervan?
zorg voor sterke deuren !!!!! en een paar mooie vrouwen.
veel succes daarbij gewenst. wat ging je ook weer doen?
manfred dinsdag nog gezien. ik schat de hematocrietwaarde op ruim 75.
kijk naar buiten. geen zon maar ook bijna windstil. ik ga nu mijn fiets toch maar uit de schuur halen. het voorjaar is nog te ver weg.
en dit vindt het prachtblad grinta van mijn alweer 5e fietsscheurkalender
ja gelukkig zat ik stevig op mijn stoel anders was ik er van verbazing afgevallen. die johan toch.
gek he. wij ook met hem.
ga je nog naar iets voor je fietsvriend of vriendin kopen?
theo jansen lijkt wel een beetje op mijn oude stramme schoonmoeder als we die naar de auto brengen.
dat getrut ook van die trainers met zon flesje water. neem dan happel. die rookte gewoon op de bank en had een platvink in zijn binnenzak.
ajax utreg. het spel is al op amateurniveau, nu de salarissen nog.#nietomaantezienzoslecht
mengvoeders unitet. ken je die van theo maasen?
ze bewaren de mooiste miss voor de nummer 1. zo hoort het ook.
nee dat was de hond van die andere super portugees.
gauw naar de belg overschakelen.
een finale om in te lijsten. spanje in het pak gestoken. goed van nibali en briljant van costa.
felicitaties voor de portugese jongens met wie ik gezellig op de alpe dhuez stond deze tourzomer. fans van rui costa.
wat een mooie finale. alle wetten netjes uitgevoerd. hennie kuiper kan tevreden zijn.
valverde rekent verkeerd. dat is ook koers.
als we die rare horner alvast niet meerekenen. wint nibali straks twee grote ronden en het wk. verdiend!
de mannen van de vuelta maken het.
ok we missen de slag.
weening rijdt vlak voor de laatste klim waar niemand het verwacht.
het gaat beginnen wordt nog spannend. weening gaat echt wel iets proberen. iets met gladiolen denk ik.
morgen nummer 3? dat zou geschiedenis schrijven worden. spannend.
ik heb de radio aangezet. kan ik zelf ook controleren hoe je de focus op het werk houdt gio
gelukkig. focus op de wedstrijd. overigens in fiensole at ik ooit de lekkerste biefstuk ooit op een buitenterras.#tip
ja en dan na 9 maanden een hobby buitenshuis zoeken. veel fietsen bijvoorbeeld.
heeft marijn dat korte rokje aan wat ze ook droeg tijdens het voorlezen in de muur on tour, gio? en die hakken?
een babbelaar met een huilend kind. ben benieuwd naar de schoonmoeder. arme meneer bras.
babbelkous zeg. die mevrouw bras.
ik vind het belgische wkshirt mooier dan het oranjeshirt. welk shirt is vandaag het allermooist?
klopt het dat tony martin geen vriendin heeft en het met zijn moeder moet doen?
makkelijk zat toch.
minder verplaatsingen bij de grote rondes. prima. in eigen land starten en finishen. etappes starten in de finishplaats van de dag ervoor.
de giro start in 2014 een dag eerder. op een vrijdag. omdat er een derde rustdag ingelast wordt. belachelijk. starten op zaterdag!!!
gelukkig zit hun haar goed en zitten ze elke week bij tatoo bob. afmatten op het trainingsveld, die gasten.
nu gaat het zo slecht met feyenoord, mijn club, maar als ik naar de ranglijst kijk staan we al weer bijna 2. vreemd.
kippenvelmomentje. ik was bij de afscheidswedstrijd van willem van hanegem. wat een voetballer was dat.
je hebt gelijk. het is kommer en kwel. we gaan weer kamperen. is ook leuk en is fietsen bijna gratis.
google hem eens en kom tot een voor jou verrassende ontdekking.
moet je in het weekend eens in de kroegen en restaurants gaan kijken. nog zat te besteden schijnbaar.
fiets in elkaar zetten en laaste stuk fietsen. winnen en met de premie benzine kopen. simpel toch
maandag meteen kopen en lezen. dat verhaal met kai had ik graag willen maken, nu lezen dus.
ongelofelijk. horner richt zich tot de camera en spreekt de hele wereld toe en vertelt zelf hoe uniek hij is.
de redactie van oprah heeft al contact gezocht met het management van horner. een uitgever voor zijn boek i confess is er al.
waar staat die fontein van de eeuwige jeugd?
straks staat hij lachend te vertellen dat hij nog niet eens moe is.
horner. dit kan niet.
jammer, die horner gaat er niet af.
mooi. winnen is met de bonificatie de vuelta winnen. maar wie zitten er nog tussen. mollema nog gezien?
het kan. gaan we helemaal uit ons dak.
robert super. gefeliciteerd. mooi om je blijdschap te zien. dik verdiend.
heel blij voor robert en hoop dat hij weer terugkeert op het niveau van een paar jaar geleden
wie weet denkt horner al aan het sprookjesboek dat hij gaat schrijven en de kassa net als figuren als hamilton en millar.
chris horner? voor het wielrennen hoop ik dat nibali gaat winnen. dat scheelt straks een volgende klap.
hahaha. sneijder stelt fenerbache boven liverpool. hihihi. ik kom niet meer bij. zou hij het echt menen. nee toch zeker.
wout bij qstep. betere stap had hij niet kunnen maken. heel goed
en bovenal. echt amateurwielrennen natuurlijk. in katendrecht.
vandaag de ronde van katendrecht. met vertier, burgerwielrennen, artiesten wielrennnen, burgerwielrennen en exprofs wielrennen.
ik hoor nu al in de boekwinkels gesignaleerd. met o.a. de ventoux als therapie, karsten kroon, 100 cols tocht etc.
fietsscheurkalender 2014 is vroeg dit jaar.
iedereen wint!
ze hebben het al eerder geflikt. de mannen siemons weten echt wel waar het geld zit.
eerst maar eens zien wat er los komt als er veel rt komt.