groot tekort aan verpleegkundigen, maar wel een studentenstop. hoe zit dat ? heel snel de inservice opleiding terug in het leven roepen 🌚
de olympische spelen hebben rio de janeiro in een peilloos gat gestort via
de verzorgingstehuizen krijgen per jaar 55.000 euro per patiënt , gvd wie steekt hier het geld on zijn opzouten 🌚🌚🌚
wederom blijkt dat het afschaffen van de inservice opleiding verpleegkunde een van de dramatische fouten is geweest in het verleden 😥🌚🤔😥
zo zet je de circulaire economie in de turbostand
grootse veranderingen op transfergebied in aantocht via
is er voldoende marktwerking in bankenland? via
klimaatdoelen parijs zijn ver weg, situatie alarmerend via
bewoners blazen een oud idee nieuw leven in ze beginnen een wooncoöperatie via
op naar de bacteriofagen, weg met de monopolie positie van de pharmacie 👍
mrsa in opkomst , de weg is vrij voor bacteriofagen, opzouten met de antibiotica,de sleutel rol van de pharmacie in een keer knakken 👍👍👍
factcheck zo snel volgt de benzineprijs de olieprijs
lang leve het wapenbezit in de usa weer een mafkees heeft voor 20 lijken gezorgd in texas 🌚
sleepwet wat is er toch tegen op raad krijgen? via
column ‘het roer moet om in agro en food’ via
hoeveel kansen kun je missen 🤔
de kakelende daad van de haat via
debat regeerakkoord onvoldoende herstel koopkracht senioren kbopcob
mediastormen. beleven we een crisis der zekerheden? via
‘sprinkhaankapitalist’ verovert de schoolboekenmarkt via
wat een weerzinwekkende film over het schutterswezen de film limburgia , trekt het schutterswezen in het belachelijke
film limburgia trekt het schutterswezen in het belachelijke, begrijpelijk dat de meeste schutterijen bedankte voor de eer 🌚🌚🤔🤔
alarmerend tekort aan gespecialiseerde verpleegkundigen dreigt via wegbezuinigd , dat wisten we 🌚🌚🌚🌚
op naar een écht duurzame economie via
rutte iii maakt de onzekerheid op de arbeidsmarkt alleen maar groter via
meldpunt! aflevering waar zijn de anbo miljoenen
zo zet je de circulaire economie in de turbostand
kan artificiële intelligentie de natuur redden? via
matchfixing daar lijkt het wel op weer door het midden uitverdedigingen 🌚🌚😂😂
referendum , 60 miljoen verkwist , burgerparticipatie ho maar 👎🌚
matchfixing ? amrabat weer uitverdedigd door het midden, waanzin 🤣🤣🤣🤣🤣
totaal onbegrijpelijk
matchfixing amrabat , weer door het midden uitverdedigen , leerden we al bij de f jes niet doen 🌚🌚🌚🌚
rutte iii maakt de onzekerheid op de arbeidsmarkt alleen maar groter via
kan hem geen ongelijk geven
moet duitsland binnenkort de euro verlaten? via
het systeem moet op de schop
de boekhoudersmentaliteit domineert het duurzaamheidsbeleid via
hoe xi de wereld wil veroveren via
gebruik van rubbergranulaat en de gevolgen voor ons drinkwater
niet meer te verkopen in deze tijd 🤔🤔🤔
rente gerechtvaardigde vergoeding of onnatuurlijk fenomeen? via
pensioenfondsen stellen ultimatum aan polder via
geniet nog van de vakantie, want nu is het écht gedaan met onze planeet via wat een onzin verhaal 😂😂😂
voedselbeleid het kabinet doet reuzenstap terug in de tijd via
eerst verwijderd van het vorige podium de wraak zal zoet zijn van nr 33 van ronde 1 tot finish big max 🏎🏎🏎🎉🎉🎉🎉
super start op naar de zege van ronde 1 tot finish 🏎🏎🏎
de ecb kan nooit meer terug via
dit is de geluksmachine voor haagse topambtenaren via
corporaties gebruiken onwettige zwarte lijsten
fortuna einde oefening 20 de graafschap
totaal niet in de wedstrijd,dag periode 🌚
waarom een europees monetair fonds zon slecht idee is via
hoe brute moorden leiden tot een discussie over privacy via
is al die ophef over roundup wel terecht? via
hans kraaij sr. overleden via
en wij slapen verder met dank aan de eu
miljoenenstrop wooncorporaties nieuwbouw en isolatie huurhuizen in gedrang dag verduurzaming huurhuizen 😡
oud vriend van mijn vader, fijne man
lidstaten zoeken naar compromis over landbouwgif glyfosaat dag bijen bloemen en vogels,ongelooflijk
niet naar goudzoekers 🌚
grootste fout bezuinigen op wijkverpleging 🌚🌚
mailen uit naam van mark rutte? geen probleem via
het geheim enorm belabberd ingeschoten 😥
uitslag tsjechische verkiezingen wakeup call voor eu via
je bankafschriften zijn binnenkort goud waard via
rutte3 blijft visieloos bezuinigen op de zorg via
waarom we digitaal geld minder vertrouwen via
helaas niet gedaan 🌚🌚
waanzinnige beslissing team heeft al protest aangetekend
terecht protest team verstappen waanzin ten top 😣
ongelofelijke jury actie dit stinkt enorm verstappen moet protest indienen
gekloot door de fia 5 sec straf maffe beslissing
makkelie floot goed, daar heb je niet door verloren 👍
rutte iii en het beteugelen van de boze burger via
huisarts onthult “we worden voortdurend bedonderd door de farmaceutische industrie” via
totale afgang feyenoord kunnen nog geen pass over 3 meter geven, heel heel slecht
is wel eens beter geweest😣
artikel 155 is een feitspaanseregering start proces omde autonomie van catalonië op te schorten via
zien we morgen wel
op naar morgen
onjuiste cijfers bleken doodskus schipholbaas via
bacteriofagen een alternatief voor antibiotica?
wat willen merkel en macron met de eu en willen wij dat ook?
oudbestuurder spreekt over vermeende fraude bij ‘declaratiefabriekje’ casa via
wat een gezwam, dit komt door een botsing en niet door geen wedstrijdritme
de catalaanse catch22 via
weerzinwekkende uitlatingen van volstrekt idioten gedrochten 🌚🌚
alle bewindslieden van vvd bekend via sander dekker wat een ramp op justitie 🤔🌚
wie bedenkt zo n onzinnige beloning
het lot van de nieuwe minister van defensie lijkt nu al bezegeld via
de lange arm van ankara in nederland via
vergis je niet. ook de nieuwe huizenzeepbel zal barsten via
klaas knot zet de aandelenmarkt op scherp via
miljardenvorderingen binnen eurozone vormen groeiend risico voor nederland via
farmaceuten, schandalige smeerlappen over de rug van de zieken zich verrijken ,taaislijmziekte 43 miljoen schofterig gedrag 🌚🌚🌚🌚🌚
geluidsberekeningen maastricht airport nader bekeken hier heeft men dus de plank compleet misgeslagen
nee gio dan hadden we gewonnen
maar dat zijn we wel zelf schuld 🤔
ernstige zaak als het zo is 🤔🤔🤔
één bedrijf is verantwoordelijk voor ruim tien procent van alle schuldzaken bij kantonrechters via
wiebes de grootste kwiebes op economisch zaken wat een grandioze miskleun en het milieu erachter aan😥😥🌚🌚
wat gaat het nieuwe kabinet doen aan de woningnood? via
die boren de gewone burgers dus 1 miljard door de neus, vvd 🌚🌚🌚🌚🌚
de eu en de euro gaan uit elkaar via
zwaar onder de maat 😡
verdomde veel geduld dan toch wel 😡
totaal verdiend terugspelen moet verboden worden de ziekte van de hollandse school
zou zo maar kunnen
hersenloze cellen roepen in de arena , bommen op rotterdam, dus voorlopig geen uitsupporters bij de klassieker, sufferds 🤔🌚
altijd weer schitterend
antibioticaresistentie wordt gezien als een enorme dreiging. onterecht, vindt deze microbioloog via
als het kalf verdronken is 🤔🤔🤔🤔
ministerraad heerlen en landgraaf moeten fuseren
de oppositie ruikt bloed het regeerakkoord staat bol van compromissen via
bekijk op neimed.nl
‘we moesten mee om kleedjes te kopen’ via
dus ook bij de buitenring zou een super zaak zijn 👍
wat gaan superstormen nederland in de toekomst kosten? via
grootste milieuramp van nederland de kunstgrasvelden , sanering van 1800sportvelden art.13 verontreiniging bodem is een economisch delict
345.000 huishoudens gaan erop achteruit, vooral gepensioneerden met dank aan het koekoek kabinet 🌚🌚🌚🌚
kunstgrasvelden zijn dus milieudelicten 🌚
zelfs op detoekomst van ajax verontreiniging van het kunstgrasveld, dus kunstgras weg
61 kg zink loopt het grondwater in bij kunstgrasvelden nu op zembla
europees parlement wil duidelijkheid over gezondheidsrisicos kunstgras
nóg duurdere groente en fruit? zeg nee! stop dit kabinetsplan, help mee met de emailactie van
spruitjeslucht via
de oppositie ruikt bloed het regeerakkoord staat bol van compromissen via
helemaal de weg kwijt rutte en co.
lage inkomens hebben niets aan dit regeerakkoord via
heerlijk wat een wedstrijd wales ierland 01 oranje ga op les daar inzet inzet inzet ⚽️👍👍👍
sociale huur? nu maar eens in de rijke wijken via
asielbeleid rutte iii broddelwerk van de bovenste plank via
oranje moet zich vastklampen aan monsterzege tegen hongarije alleen is zweden geen hongarije 😂
je maakt wat mee daar
voormalig casabestuurder ‘beschuldiging declaratiefraude apekool’ via
zes weken extra wachttijd voor deel vgzpatiënten klantenbinding
verstappen het was weer veelbelovend! via
wat hebben we daar in godsnaam te zoeken 😡😡
cadeau van de scheids
dit oranje wint nog niet van san marino, andorra en gibraltar niet te geloven wat een afgang 😡😡😡
de laatste interland van robben 😥😥😥
belarus geeft oranje voetballes , wat een puinhoop 🌚
advocaat zweden 80? wat is dat voor stomme vraag? via was zo stom nog niet
zwedenluxemburg 80 , blijf dus maar thuis 🌚 bedankt danny
zwedenluxemburg 40 , wk voor oranje raakt steeds verder uitzicht 🤔
plotseling vertrek casadirecteur zet abortuszorg nog meer onder druk via
gelukkig het was me een smak
hopenlijk zonder ernstige gevolgen 😥
hoe de politiek het digitale spaarvarken doodknuffelt via
dit is wat mark rutte over de euro moet weten via
ooggetuige john reed deed verslag van lenins operetterevolutie via
keten van abortusklinieken fraudeerde voor miljoenen met verzonnen declaraties via slaap verder 🌚🌚🌚
wanneer stopt dit gegraai ?🌚
‘liever de aivd op het internet, dan een rus in mijn laptop’ via
nieuw kabinet verhoogt lage btwtarief van 6 naar 9 procent lonen omhoog , btw ook omhoog de welbekende sigaar 😂😂😂
westerse isdeserteurs tikkende tijdbommen of gedesillusioneerde gelovigen? via
900.000.000 euro te grabbel door vliegveld lelystad, mer rammelt 🤔
de 101 miljard die nederland nooit meer terugziet via
een deel van de catalanen wil een progressief nationalisme net als londenaren en amsterdammers via
’rijke ouders handig met huurtoeslag’ via oneigenlijk gebruik ongehoord 🌚
cees nooteboom over de strijd die catalaanse families tot op het bot verdeelt via
het woord gebruik is in onze samenleving ook abominabel slecht ook woordelijke verdoezeling is een feit 🤔
vvd ole hieper de piep
enige logische conclusie en ook geen minister van buitenlandse zaken
geweldige opkomst in amstenrade omtrent de fusie. 87 aanwezigen met een duidelijke uitspraak hou alle verenigingen in amstenrade. 🤔
pedagoog max verstappen moet stoppen nieuwspaal dwaas die komt echt niet in de bijstand 😂
de levensgevaarlijke goednieuwsshow van minister hennis via
de gehele nationale top van onze regering heeft faliekant zitten te pitten betreffende het hele defensie dossier, aftreden allemaal dus 🌚🌚🌚
relatie tussen asscher en vvd verziekt door lerarensalarissen en hennis
een waarheid als een koe
advies patiënten en zorgaanbieders moeten juist de ruimte krijgen via beste zorg verzekeraars 🤔
het hennisdebat voor dummies via
sidder en beef het is bijna gedaan met onze planeet via reddeloze mafkees
nee haalt voordeel@uit zijn buitenspel positie
als je je burgers verliest, dan houdt de democratie op te bestaan via
waarom we eigenlijk met facebook moeten stoppen via
waarom de catalanen geen eigen staat krijgen via
max verstappen op weg naar overwinning in maleisië 🏎🇳🇱
absoluut geen pingel keeper speelt de bal
formatie overhoop door mogelijk aftreden hennis via
‘ik ben een klier, maar een nuttige klier’ via
mega val esteban chaves in de ronde van emilia bij de afdaling van de san luca 🚵🏿😥
tekort betaalbare seniorenwoningen
dankzij de toegekende 🌚vog
de oplossing voor de armoedeval via
nederland steunt de fossiele industrie met 7,6 miljard euro per jaar via
helemaal mee eens
l1 journalisten gedwarsboomd door zich roda supporters noemende, maar brengen hun club in discredit 🌚
datvwordt verrekte moeilijk 😥
foeilijk beleid onverantwoord alleen in de nachtdienst met 32 patiënten en geen cliënten, die kopen nl niks maar zi…
rotterdamse economie meest vervuilende van nederland via
anders gedacht pffff
niks nul,komma nul gio wordt wakker het rammelt
tapia echt door de mand gevallen 🤔
dswverzekeraar bewijst dat we systematisch bedonderd worden klotsende verzekerings potten klotsende pensioenpotten, wanneer komt de opstand
anders gedacht dan 😥
aller belabberdst wereldkampioen terugspelen 🌚
het wordt gevoelig warmer, voorspellen nieuwe klimaatmodellen, en dat is niet positief via
italiaanse herfstklassiekers exclusief bij eurosport reclameblok koersen niet dus
yarden laat families na uitvaart tot wel duizenden euros extra betalen via
chaos in de zorg hoe zit het precies? | metronieuws.nl
nederland een lichtend voorbeeld? we zijn een slachthuis via
fundamenteel en majeur worden de zieken besodemietert door de politiek weg met boete op ziek zijn 🌚
trump betreedt de buik van het beest via
kan niet hard genoeg zijn voor de raddraaiers gooien naam van club te grabbel 🌚🌚
de sufferds zullen de boel wel weer verzieken
nederland lobbyde om handelsverdag ceta minder groen te maken via
wat je moet weten als je nu nog een eigen huis wilt kopen via
het beste over het duitsland van kanzlerin merkel via
terechte winnaar maakt het perfect af 👍
kramer komt echt tekort
wat een dreun , flauwekul geen inzet 😣
geen excuus feyenoord niet om aan te zien 🌚🌚🌚
wk🚵🏿junioren belgen wereldkampioen vallen 😣
de bangmakerij van kees van der staaij
is merkel iv wel zo’n gunstig voorteken? via
de wilje verkes hubbe aostrao ontdekt
wild hogs in oirsbeek gesignaleerd ! via
bitcoin bubbel of belofte? deel 1 de bubbel via
is de volgende financiering met gemeenschapsgeld nature gok world in brunssum 🌚🌚🌚🌚🌚😥😥🤔
limburgs parlement steunt miljoenenlening toverland gemeenschapsgeld is geen gokgeld
twijfels over lening aan toverland voor uitbreiding de provincie moet geen ondernemingsrisico dragen
wordt heel hoog tijd
hoe noemen we dat ? afgang optima forma
wild zwijn gesignaleerd in de gyselaar in amstenrade , ook hier komen de zwijnen naartoe. mogen in oktober pas afgeschoten worden
het eigen risico kan dus per direct afgeschaft worden 👍
waarom de zorg onbetaalbaar is geworden 70 miljard awbzpremie is niet aan zorg besteed! via
raad van state rijk moet koopkracht van ouderen niet compenseren via
de verkiezingszege van merkel lijkt zeker. is dat wel gezond? via
waarom laten pensioenfondsen zich door janenalleman ringeloren? via
sigaar uit eigen doos, afschaffen die onzin
politie bederft prinsjesdagfeest rond de introductie van de ‘nieuwe gulden’ via
geen fan van erdogan? pas op voor de turksnederlandse kliklijn via
wie o wie krijgt de politiek aan het verstand gepeuterd, dat dit een farce is , prinsjesdag eigen risico, het kabinetsrisico ???
gedwongen gebruiker mevrouw de minister 🌚🌚🌚
de koopkracht fopspeen 😥
het geld in den haag klotst tegen de plinten , daarom verhogen we het eigen risico 🌚🤔😥
ongemerkt 2.1 miljard extra voor ouderenzorg het perfecte politieke misdrijf via
kamer trok ongemerkt 2 miljard uit voor zorg via
de nederlandse links in azerbeidzjaanse smeergeldaffaire via
duurdere boodschappen in zicht ’verhoging btw’ via wat een mooie sigaar uit eigen doos,verlaging ink.belasting
hoe houtkap en natuurbeheer samen het nederlandse bos kunnen redden via
commentaar overbodig
omstreden legeroefening rusland is “een serieuze voorbereiding op een grote oorlog” via bangmakerij 🤔
de koreacrisis keuze tussen twee kwaden via
de meest gelukkige wint , psv proficiat
speler moet opletten kan scheids niets aan doen
zijn we getuige van een knappende bitcoinzeepbel?.
nieuwe atlético madridstadion eerste ter wereld met ledverlichting van philips lighting voor veld, gevel en ontvangst en horecaruimtes 👍
de dreigende europese intifada van 2018 via
van bitcoin tot gooische gulden hoe alternatieve munten ons geldstelsel omverwerpen via
geslaagde info avond in merkelbeek aftrap naar beekdaelen,van de burger voor de burger.👍
waarom kan dit in ons land niet 🤔
gezondheidscijfers in plaats van sterftecijfers via
over het ontwerp van een nieuwe grondwet deed thorbecke als ministerpresident in 1848 slechts twee weken .wat een schertsvertoning nu 🌚🌚🌚
zeer waarschijnlijk vergiftigde kipfilet op grasveld veldgaard amstenrade
zou mooi zijn tijdrit de dag voor parijs en een nederlander in het geel 🚴🏼
de onverwachte politiek van een orkaan via
europese commissie wil af van dubieuze donaties aan partijen via
hockey moms trekken de democratische partij naar links via
op weg naar psv ?
van marwijk op weg naar psv ? zou zo maar kunnen ⚽️
hebben meer verstand van woestijnzand 🌚
mafkezen daar
niet raar na gebeurtenis in rome
onafhankelijk onderzoek naar financiën supportersclub oranje via
hoe durft u, meneer witteveen? via
junckers gedram veroorzaakt dubbele scheuring in eu via
gouden koffer, goud voor advocaten 😂😂😂
nog 5 wedstrijden en dan einde oefening denk ik 🌚😥🌚
feyenoord, geknipt, geschoren en afgedroogd 🌚
van bitcoin tot gooische gulden hoe alternatieve munten ons geldstelsel omverwerpen via
hudson bay kijken en niet kopen 😂
de ‘lege’ ministeries van trump zijn minder dramatisch dan het lijkt via
tihange 1 onverwacht stilgelegd voor onderhoud via nooit meer opstarten
mythes en waarheden over geldschepping geld komt uit het niets via
“tegenstanders die hier komen en verliezen hebben altijd het gevoel dat ze ook van het publiek verloren hebben”
guardiola ‘kolkende kuip is in het voordeel van feyenoord’
de uitvinder van fentanyl , prachtige fabriek in turnhout, ik mocht er van een rondleiding genieten 🇧🇪👍
lijden deze mensen aan geheugenverlies ?
rapport over belgische kerncentrales trekt aan alarmbel “te onveilig” via weg met die troep dus🌚
het wensdenken van elektrisch rijden via dat wordt weer een belastingaftrek verhaal.🤔
bijna dode wordt van gezegd dat ze aangifte gedaan heeft, van haar eigen ongeval slaan we compleet door in juridisch nederland 🌚🌚🌚🌚🌚🌚
yves leterme financieel toezichthouder uefa slaap verder goede man 😥😥😥😥
overheid wil besparen op de huurtoeslag door minima in kleinere huizen te stoppen via
reacties gelderse bedrijven op de zorgwinsten het grote graaien ,zorggeld is bestemd voor zorg, niet om zakkenvullen
ik vind dat de urgentste uitdaging is en onderdeel moet zijn van het
wat een onzin buffon is 40 jaar en draait gewoon mee
cruz de ferro hier was ik 11 jaar geleden ook maar dan met de fiets👍
jorgensen out tegen manchester city dankzij het alom geprezen kunstgras grrrrrrrr🌚😥
en wat een slecht weer daar 🤔
ik denk voor de sukkels van mvv 🌚
dan zijn dat dus de domste supporters ,zal wel flinke boete worden
de graafschap mvv tijdelijke staking , vuurwerk op het veld, die sukkels leren het nooit 🤔
wat beloofden ze ook alweer ?🌚
el pistolero blijft een fenomeen 🚵🏿
we slaan totaal door hier 😣😣😣😣
keert de academie haar rug naar de nederlandse samenleving? via
bedankt voor alle felicitaties 👍