altijd zo indrukwekkend.de minuut stilte bij de spaanse clubs.nu kijken naar met ome pio pio!!
harmen siezen bij wat een held. beste nieuwslezer ooit! 🤓
naar huis rijden en deze mooie fotos kunnen maken omgeving willemstad
ouderen vallen vaak omdat er geen toezicht is. schoonvader is 8x gevallen! reactie verpleegtehuis…
dit zijn mijn favoriete hits voor de top 4000 wat zijn jouw favoriete hits aller tijden? stem nu op de top 400..
oudere betaalt boete voor valpartij ik geloof gewoon niet wat ik hier lees...
nope hier ook de bloeddruk niet meetbaar...
wanneer max de cd te leen heeft gekregen van rosberg 😁😁😁
dat wordt um!
nope. race control luistere mee 😊 dit onder andere ivm tips welke evt niet gegeven mogen worden
ze zijn wel erg positief ingesteld. zoals hij zelf net al zei. eerst starten en de race rijden. mexico is een pittig circuit
de race kijken met het open haardje aan
precies wat hans zegt, je bent nooit klaar om je ouders te verliezen. ik mis mijn mama nog elke dag. veel sterkte h…
mag je vanmorgen lekker uitslapen, lekker warm in het bedje en wintertijd 0600 klaarwakker
en dan weer!! een penalty missen...😠😠😠
gaaf hoe die jongens van swift zo genieten in de kuip! top!
jaaaa!!! verenig allemaal!! de bus moet langskomen in ons durpie! stem via de site van npo radio 2 op r…
een fucking naaistreek, anders is het gewoon niet!! dit is gewoon een schande en zeker dat die brillo van ferrari zo op het podium staat 😠
wat een naaistreek. kan er niks anders van maken 😠😠😠
wat een geweldige podium!!!!
alonso altijd sympathiek gevonden en het interview bevestigd dit alleen maar
gefeliciteerd ajax... wij waren in en in slecht... de slechtse klassieker ooit 😔
ongelooflijk..... 🤤
zekers..
jeetje... wat een babys... nee wacht.. die kunnen beter tegen een stootje dan hunnie
geef kraam of winkel op voor 25ste oliebollentest
een leuk programma met nostalgie. was toen nog niet geboren maar wat tof! goed gedaan linda en
in 1974 zijn mijn ouders getrouwd. de woonkamer herken ik wel. hebben ze lang aangehouden
te ver.... deze tweet slaat net zoals de foto helemaal nergens op. extra aandacht willen jullie blijkbaar. negatieve aandacht.
helemaal met je eens, werd gewoon verdrietig toen ik dit zo zag. echt te verschrikkelijk voor woorden,…
top foto!, dit is inderdaad feyenoord en ajax
die man is gek. in saoediarabië heeft 80% van de vrouwen last van seksuele intimidatie, hij gaat…
wat een sfeer! mooi in onze kuip!! 👍
goed gedaan hoor! je moet het allemaal maar durven en kunnen en dan ook nog met de cameras. je was de ge…
oei, das heel heftig, heel veel sterkte ina 😘
wow! wat een metamorfose!
waarom pakt dit mij zo..het is gewoon zo verschrikkelijk voor de nabestaanden. en, had dit voorkomen kunnen worden
verdriet.alleen maar verdriet. veel sterkte papa, mama en verdere familie en vrienden van we steken een kaarsje aan voor jullie😔
yep! wanneer mogen we stemmen 😁😁
goedemorgen en wat zitten jullie er gezellig bij daar in londen, erg leuk!
wow! toevallig net zijn biografie gelezen. mary austin schijnt er nog te wonen. have fun daar!
en we doen we nog een schepje bovenop. suddervlees en stoofpeertjes staan ook op d
laatste dag vakantie en dus maar even lekker bakken. speculaaslucht vult ons huisje
ja/nee met niki lauda hij is weer erg leuk en
haha! die gast was zo aan het rammen lol!
op de site van redbull staat buemi naast gasly, kans dat hij wellicht gaat rijden over 2 weken in de usa?…
nu staat je mobiele nummer openlijk op twitter. 2/2
hoi ria, je hebt het antwoord aan postnl openlijk op twitter gezet, het beste kan je dit weg halen en via…
zachte viervoeters troosten getraumatiseerde slachtoffers vegas mooi werk wat deze knuffelende woefies doen
wanneer mogen we stemmen voor de heb er zin in na deze dramatische regendag
sterkte aan de amsterdammers vanuit ridderkerk,ontroerend om te zien/lezen hoe jullie houden van deze burgemeester
verwacht maar erg triest uiteraard burgemeester eberhard van der laan van amsterdam overleden.sterkte aan alle betrokkenen
en ze stopt plus de commandant der strijdkrachten. moeilijk maar helaas keuze welke gemaakt moest worden
lijkt mij duidelijk. minister is politiek verantwoordelijk dus opstappen. vind debat erg verdrietig voor nabestaanden.
you go girl! herkenbaar. blijf trouw aan jezelf en heb je schatje lief. das alles wat jij kan doen😊
oef... veel sterkte aan alle betrokkenen
kippenvel! de zege van verstappen met titanicmuziek!
wat gebeurt er, nu al op 02
pfff! spannend. 🙃je gunt het max zo na al die pech. flink duimen
snap niet dat hamilton zo af zakt? tactiek? of is er wat met zijn auto?
even afkoelen haha!
gefeliciteerd!!
oei! balen voor
onderstaande zou wellicht ook wat kunnen betekenen bij een maagonderzoek?
bange patiënt krijgt lachgas bij kaakchirurg
hoe krijg je de eerste glimlach op maandagochtend. door jullie zekers! 😂😂😂
wat leuk! ga je morgen daar ook kijken? hopelijk met een succesvol wilhelmus op het einde
oef! de kwali is mij toch spannond! max op pole voor de 1e keer? stay tuned!
kan het alleen eens met je zijn
we krijgen serieus voetballes... het enige positieve is het commentaar van ome leukt het nog een beetje op.
dadelijk de wedstrijd met commentaar van ome 😁😁😁⚽⚽⚽ 🖒
ik doe hem maar nog een keertje
groot gelijk.. wat een gevalletje matchfixing
nog 24 uur en dan zal de hymne van de cl door de kuip schallen! kan niet wachten!!!🙋🙋🙋 🙄🙄🙄😁😁
goede trainer die pep en het respect! ik zeg top!
pep heeft het over de sfeer in de kuip. hopelijk laten de supporters dit morgen ouderwets zien!
gaat hier best los in allemaal wel lachen naar het vogeltje
het gaat eigenlijk best wel goed🙄
same here 😕
deze clip kreeg ik door,op zaterdagmorgen met een bakkie thee gekeken en ik ben er stil van, mooie clip en top gezo…
wow.. gewoon prachtig.. &lt3
wow geweldig, lambert heeft wat dat betreft ook zon prachtige sterke stem!
prachtig, vd laan is idd achteruit gegaan zeg. het is gewoon top om te zien dat onze koning hem probeert te steunen met lopen.
ik kende hem en queen uiteraard maar sinds de special ben ik eigenlijk nog meer gaan zoeken naar platen. prachtige band en man
mooi! ik heb er al zoveel naar geluisterd als fan kan jij dit ook wel waarderen denk ik zo
derde kind op komst voor william en kate
daar gaan we! 🎂🎂🎂
wat is dit voor gelul! ik wil interviews zien 😠😠😠😠😠
het grote ridderkerklied ons durpie heeft een lied! leuke clip!
eerste interview gezien met nieuw directeur geen slechte indruk, gewone jongen. ik wens je veel succes jan! welkom!
het belgische team doet wat wij vroeger ook konden
en dat wordt dag winst voor de appie volgend jaar
ach meis toch.. weet dat je iig niet alleen staat. het is een zwaar proces en mensen oordelen hard en snel
heb het zelf namelijk mee gemaakt, ik kan je zeggen. dat geeft een deuk. gelukkig is er nu een aantal kilos af maar deed pijn...
vind het in ieder geval wel heel goed van de mensen die hun mond opentrekken. echt chapeau!
de bakkerij scène is niet echt maar mensen,dit gebeurt wel! wellicht niet in de bakkerij maar wel op andere locaties helaas 😕
hihi! ik zat ook al te kijken
hier hetzelfde echt zuur voor max en de fans daar 😕
maar goed. mijn voorspelling is dat hamilton wint. hopelijk nog een goede voorspelling 😁
denk het ook idd. zijn talent komt hier gewoon niet goed uit meer
voor prof kijkers. max fans zijn teleurgesteld, laat ze gewoon ff. het deskundig commentaar, daar hebben ze niks aan
en natuurlijk zwaait max naar de fans, zij kunnen er immers ook niks aan doen. 😕
dit is gewoon zo balen voor je. heb het echt te doen met hem. 😕
ga je niet menen dit... hoeveel pech kan je hebben
oh! in 2 strijd. mijn cluppie staat voor, 40 en max gaat zo van start. 2 schermen nodig hopelijk ook maxwil
huh! doelpuntenfestijn a gogo!!!
hallo zeg, ik kom net binnen van een rondje natuur en het staat al 20 !!! duidelijk!😎😎😎😁😁😁
genieten van een bakje aardbeien wat zo lekker zoet is
geweldig stukje paul, lees het elke week weer met veel plezier!
volgens mij geen slechte groep en malen we kans!🤗
en ze wint hem!!!!
en we zitten in groep f
zoals de meeste bij het einde van de film
radicalisering bij kleuters in belgieze noemen klasgenootjes varkens en bedreigen omg
luisteren naar ome en kaarsje branden voor
precies, gevalletje oude koeien uit de sloot halen
elke week weer een top stukje om naar uit te kijken.thanks zomerruzie
oh nee... ik liep 2 maanden geleden op de ramblas en nu ook hier? 😢
straks zonder jones maar een debuut van bijlow. op de bank zit ten hove bron fijne match iedereen!
oke, alvast een fijne wedstrijd!
wat gaaf!!!! veel plezier jullie 2!
zit jones wel op de bank?
nieuwe bewoner diergaarde blijdorp geboren
thuis maar wat een prachtig sfeertje in bakkie v v van de kuip! en gelukkig dankzij penalty killer jones gewonnen!…
kom op
geen flauw idee. had deze nog niet gezien maar zal vast wezen😉
kijk je niet meer naar mr frank visser? nu op sbs6
sissi der haar zit uiteraard perfect. as usual
daniël is boos en begrijpelijk. max krijgt nu straf maar dit had bottas toen ook moeten krijgen
double facepalm
wij zijn erbij😁😁😁😁
onbegrijpelijk dat deze vrouw gewoon weer schrijft na haar kwetsende opmerkingen. vrijheid van meningsuiting…
van harte gefeliciteerd met deze mooie prestatie! ook een mooie pluim voor jouw topcoac…
wat ik eigenlijk wil zeggen, zeg maar op, je abonnement. te verschrikkelijk dat hier een podium voor gegeven wordt😢🙁
gaat er niks aan doen..publiciteit! hoe kan deze vrouw met moederhart spreken..kinderen welke zijn overleden met mh 17 🙁
nou... dat is nog eens een vangst
wat een geweldige reactie van de vriendin en familie van
fantastisch hoe ze barcelona zongen. prachtig!
yeeeeeeu! op teevee. samen met ruud! hou nog ff vol jongens!
hieperdepiep hoera! 109 jaar!
alle lopers van de heel erg veel succes gewenst! mogen jullie blaren minimaal zijn!
hieperdepiep hoera!!! van harte gefeliciteerd met je verjaardag!
haha! heel veel succes!!
frank!!! denk je aan de juiste onderbroek??? 🙄🙄🙄
gekeken naar de bijeenkomst het monument. ook al kende wij niemand persoonlijk, toch traantjes. binnenkort een zonnebloem brengen ❤
als je daar met zon chago muil zit ga dan uit die kleedkamer en geef het plekkie aan de max
top gedaan van max en daniël! mooie race!
nee ik ben 3e, nee ik ben 3e! nice fight!
we zitten er klaar voor !
verschrikkelijk nieuws over familie,vrienden, spelers, staf en supporters van ajax. veel sterkte. wat erg😔
inderdaad... het is gewoon te zot voor woorden
ik zie dan helemaal de denkwijze voor mij. ja maar, dan moet fikkie lopen met dit weer hallo! lopen heeft een hond nodig!
echt gezien in baarle nassau.rollade op pootjes lees hond welke vervoert wordt in kinderwagen.
geweldig max! dit moet een boost geven toch!
reactie van een aantal leeghoofden..triest! gelukkig leeft de overige 99 procent wel met jullie mee, zoals het hoort
lees dat een eigen hartslag heeft. veel sterkte nogmaals voor spelers, familie en medische staf. hopelijk hersteld hij goed!
veel sterkte gewenst! hopelijk komt hij er bovenop. zal best schrikken zijn voor jullie supporters! sterkte nogmaals uit ridderkerk
en dat vind ik gewoon top aan vilhena. terug van vakantie, nog ff vrij maar is er toch nu ook al bij. gewoon toppie…
gefeliciteerd! &lt3 fijne papieren volgens mij is dat het eerste jaar dag morgen
ik neem mijn woorden terug! we gaan toch! 2 plekkies gevonden!!!!! 😁😁😁😁😁
teleurstellend hoor, helemaal geen stoelen naast elkaar meer beschikbaar.. geen kaarten voor ons dus
ik ken je niet persoonlijk maar wat was jij een mooie ziel...veel sterkte aan de ouders, familie en iedereen die kende
ik heb hem binnen. dank corine!🖒
wonderfoetus redt leven van moeder en zichzelf
is dit bezorgd in heel ridderkerk. niks gezien helaas en fikkie heeft het ook niet opgegeten 🤔😔
dan krijg je een medaille en je doet hem gelijk af...
vanavond stonden we bij de kuip en toen hard gerend naar het water maar helaas. wel gezellig gekletst met andere supporters.
hulde voor deze meneer en iedereen die geholpen heeft. veel beterschap voor leeuwin en sterkte voor de spelers! kim
hoort erbij dat iedere coureur naar vierkantje komt.dat hij boos is snap ik maar we hebben allemaal…
we hebben allemaal weleens tegenslag en sommige pittig ook dus ff advies inwinnen hoe hiermee om te gaan in de toekomst
dus gaf geen interview maar... dat hoort bij het spel. hij kan beter bij 1 van de oudere coureurs vragen hoe hiermee om te gaan
kijken naar 😍😍😍
vettel moet straf krijgen voor de actie tegen hamilton
jammer dat je dit zo op twitter plaatst..waarschijnlijk heeft deze mevrouw dit niet door.. hou het leuk hi…
nou bij 1 nummertje wel een beetje maar dat waren veel persoonlijke herinneringen, voor de rest mee sw…
in tranen in uitverkocht gelredome mooie en geeft zeker weer hoe gisterenavond was!
en waarom mag je ze niet denken?vele onderzoeken en een blik op het spel alleen al laten zien dat dit pure dierenmishandeling is!
afscheid werd pijnlijk einde... zon arts mag zijn beroep nog uitoefenen? hopelijk niet jouw huisarts
druk aan de hemelpoort al 3 lieve mensen sterkte gewenst vandaag.. dat hun dierbare mogen stralen als de mooiste engelen &lt3 &lt3 &lt3
lieve ina, dat is toch snel gegaan. veel sterkte! xxx
londense brandweerhonden doen zwaar werk op hun sloffen
presentator andré van der toorn heeft kanker toch altijd weer schrikken
je hoort het verhaal net bij boulevard over het staken van de behandeling van hun moeder,mijn hart huilt mee.veel sterkte meiden ❤
dat je gewoon via al een voorproefje weet voor volgende week vrijdag! aftellen tot zo happy!
wow! thanks!,zal ook de volgorde voor arnhem zijn? zitten voor mij al 5 zakdoeknummers bij emotut samen…
als die roze fristies ricciardo inhalen mag red bull zich achter de oortjes gaan krabben
waar 3 vechten om een been, gaat de 3e ermee heen?
capt. picard doet podium interviews na de race.zal hij ook bij de start staan en dit zeggen?😁
joehoe politici, hier kunnen jullie nog van leren!
zeker eens!
waar is als je hem nodig hebt... inclusief high lights van rotterdam en omstreken. 😊😊😊
ik ken er ook helemaal niks mee... brrrrr
hier gaan we!
lieve ina, ik kan alleen zeggen, veel sterkte.knuffel je broer en geniet dat je nog samen kan zijn nu. dikke knuffel en kus!😘
hier gaan we jongens!
oef! toch een fijne vlucht toegewenst!
die duitse coach vind ik een engert maar goed. hij speelt niet iig maar als hij aan zijn vingers gaat ruiken ben ik weg mensuh.
en onze jørgensen speelt vanavond voor zijn land. succes
die onderbrekingen van michiel.. sorry maar soms echt irritant
bloed, zweet en tranen 😠😠😠😠😠😠
hier gaan we hoor. poging kijken iemand een bingokaart?😁
dat je een horloge om hebt...maar je hebt hem niet om. wit vlekje met rood eromheen...
de trekt door de koolmees. gezellige sfeer!
er zit een vogel talent in mijn tuintje. niet normaal. fluit met een vrolijk krulletje in zijn stem
home! lekker koude douche en huisje laten luchten. ik zeg oké!😎😎😎
love actually benieuwd hoe het nu gaat met de cast van bekijk het hier!
erg leuk om te zien. was mijn eerste maar niet de laatste keer. top!
zonde voor poef! en motor weg 😔
knappe tandarts maar je lijkt er nog steeds op hoor. net je tweelingbroer 😎😎😎
top! nac terug in de eredivisie! gefeliciteerd!
geweldig voor wielrennen, een pittige sport en dan zo winnen. klasse!
wat denk jij ed? krijgen we nog wat bliksems hier vanavond?
ik vond het podium in de ongemakkelijkste ooit. de enige die naast vettel straalde was 😊
en is bijna terug in de eredivisie. staat er goed voor bij 01 voor de bredanaars
ik zit elke keer bij die ene bocht van max pas up menneke!
stand 1 iceman 2 driftkikker 3 andere fin 4 limburger 5 altijd lachende australiër 6 real madrid forever 7 le petit pain
geweldig! alonso wenst button succes! prachtig!
love vandaag met de toppie zomerhits. een groot plezier in onze tropische garden!
ik heb deze ontvangen inmiddels.
en bovendien. airco voor die kwetsbare luchtwegen? strak plan! tijd voor wat actie lijkt mij...
moet ik in mijn handjes klappen? omdat de media zich mengt gebeurt dit dit had al geregeld moeten worden 😠
wat een heerlijk programma. benieuwd of we de jongens morgen zien bij
video laat redding zien van hond uit bloedhete auto en dit is de 3e x dat ik dit lees vandaag! zijn mensen zo dom😠
verontruste familie demente ouderen in snikhete portacabins dit kan toch niet! 😠
en de 33 graden is een feit in ridderkerk 😓
1 uur te laat. als je weet dat het druk is waarom toch doorduwen op vandaag ? 2/2
gisteren besteld bij zie dat het maandag bezorgd wordt. ok, niet erg. vandaag mail van bezorging vandaag maar nu al 1/2
kijken naar de kwalificatie en mezelf afvragen...waarom ben ik daar niet! ach.. playa del tuin is leuk en veel goedkoper
geweldig stukje! fijn weekend met je kids en je 007😎
drama in ons huisje. mama had een nestje gebouwd en is tijdens de bouw overleden😔
heel jammer maar wel te begrijpen. we kunnen nog een maandje van je genieten 😎😎😎
rip favoriete james bond
ik zeg en terug in de eredivisie. zou tof zijn 😎😎😎
zou wel tof zijn voor het nederlandse voetbal als ajax wint dus bij deze veel succes😊 ff... wat heeft mourinho gesnoven?
ontknoping van la liga! wordt het real madrid of barcelona? we kijken en luisteren naar ome
kijk dromen van de coolsingel tranen en kippenvel bij kampioensfeest op youtube erg tof!
groot gelijk. mooiste afscheid wat er bestaat !
zicht op de coolsingel 0 meter 😁😁😁
nog aan het herstellen van een vervelende infectie dus we kijken de huldiging thuis bij de tv met wat lekkers!…
gefeliciteerd met het kampioenschap en maak er een mooi feestje van!
gefeliciteerd ron!!
jaaaaaaaaaa
ik begin al te janken.. .. 30!!!
fijne moederdag iedereen, ook voor alle mamas waaronder die van mij in de hemel
hele fijne dag peter met hopelijk een mooi toetje!
prachtig geschreven!
geweldig! moet je kijken haha!
geen punten van de zuiderburen... bon... mercikes😡
oostenrijk, i love u!
kinderarbeid!! dat kleine mormel hoort al lang op haar nest te liggen
ik durf wel te zeggen dat ik de show qua presentatie vorig jaar stukken beter vond.
klein vraagje maar de winnares van vorig jaar hebben ze vergeten uit te nodigen?
samenvattend volgens manlief weinig tieten...
wow! stukken beter dan dinsdag zuiderburen. jullie kunnen weleens winnen 😊
duitsland, ik verwacht meneer guetta binnen 2 minuutjes aan de foon met deutschland
de mannelijke victor victoria
kijken en luisteren naar de bbc met graham norton😁
mist ma me? elke week schrijft hugo een stukje over zijn moeder.. mooie en ook ontroerende stukes
verbijstering na verlies feyenoord toch trots op de uitgeleide. toppers!
probeer te geloven inderdaad maar was wel een gemeen tikje vandaag. champagne is lig nog in huis. thanks! 😊
ook in deze tijd leer je de mensen kennen. maar goed, ff treuren en dan snel weer door. sterkte lieve medesupporters 😘
zelfs mensen welke eerst met je mee hoopte maken ons nu belachelijk. 1 apje gekregen van een meelevende en oprechte vriendin😔
wij waren op een verjaardag.. leedvermaak was daar genoeg😔. nu lekker thuis en maar hopen op volgende week😘
verlies...een aantal heeft veel plezier beleefd aan leedvermaak. de relschoppers hebben zich goed laten kennen. mijn geloof is afgebrokkeld
maar even een goedemorgenplaatje, wordt ik wel vrolijk van goedemorgen!
goedemorgen, slapen met fikse verkoudheid en keelpijn
twuste voor strakkies en dan vooral voor mijn mede supporters. nog 1 nachtje... 😴
voorpret met de kampioenstompouce van bakker vd waal
onder het mom, je moet jezelf vermaken. spelen met de nieuwe foon😁
wow! toppie en wat woon je prachtig!😍
nice! veel succes morgen! lieve groetjes uit ridderkerk
maar goed, strakkies een kampioenstompouce, sommige spelen er goed op in en met wat valium en paracetamol komen we er wel
en dan heb je van die mensen die zeggen het is maar een spelletje...
18 jaar geleden was ik er ook maar de club is gegroeid in mijn hartje,dat begon 15 jaar geleden toen ik manlief leerde kennen
tel daar ook nog is een fikse verkoudheid inclusief zeer keeltje bij op.. boehoe...
onrustig slapen,visioenen zien, dromen van de coolsingel, filmpjes opnieuw kijken. yep.. tis begonnen
heerlijk leesvoer op mijn part time vrije dag!
bij de kuip geweest in de fanshop, je merkt het aan alles, iedereen wil nog ff snel iets kopen
exclusief lees hier de hele mail van wietze aan mattie oef... dit is toch wel heftig allemaal
tof dat je het probeert maar veel te leren.wel graag de toezegging dat we je nooit! meer zien in een…
happende mensen in 3, 2, 1.........
ronaldo stop met die botox manneke!!! het gaat regelrecht naar je adamsappel 😨😨😨
ronaldo zijn adamsappel is chirurgisch aangepast?
luisteren naar ome 🙄🙄 en we zijn voor atleti!
snap echt niet dat mensen dit nog doen.. 😠
gefeliciteerd met de knvb beker! 👍👍👍
1e keer dat ik een wedstrijd in de kuip zonder spanning kijk. leuke sfeer. laten jullie de boel heel? succes!
bottas doet mij denken aan wednesday van the adams family. hij zegt op dezelfde manier als haar de volgende zin im very happy
ik ben het aan het kijken via replay tv van ziggo
lieve majesteit, kijk naar dat profiel en dan weet je genoeg...meneer zal zelf echt geen volle zale…
de prinsesjes zien er trouwens toppie uit hoor! respect dat ze dit toch maar ff volhouden 👍👍👍
er wordt hier aan de deur gekrabd, aantal straatkatten willen binnen
goeiedag... sommige mensen worden snel grijs
messier kauwt nog steeds op zijn servetje. bloeding nog niet gestopt?
wow! veel plezier!
inderdaad
inderdaad. weet alleen de verhalen nog goed van oma en opa. vind het zo erg dat jongelingen dit er bijhalen. gewoon onnodig 😳
die snapt er duidelijk geen zak van😠
zeker mee eens.
niet zon slimme opmerking. aan je profiel te zien niet de oorlog mee gemaakt. beter nadenken. je kwetst hier veel mensen mee