dus volgens jou heeft er geen enkele speler recht om geselecteerd te worden als je in nl speelt en je clu…
bedoelt hij niet gewoon ‘lastig als je van geen poot kan voetballen’?
veel feijenoorders uit mijn tl ben ik spuug zat. met gio moet weg. schaam je godver dood met zulke domme teksten
mijn god. we houden er over op. voetbalverstand van een stoeptegel heb jij.
die meestertacticus heeft ons afgelopen 2 jaar wel 3 prijzen gegeven. al weer vergeten of? het gaat nu ku…
en wat had die dan moeten doen volgens jou? diks is slecht. maar iedereen was ongekend slecht. grote fout amrabat bij 1 0
richting rotterdam voor
maaaaatchday en wat voor 1 🔴⚪️
ik niet, zie er zwaar tegen op 🙊🙊
en toch gewoon winnen zondag, bizar 😂
ongekend dit... wat een drama met al die blessures in de verdediging
jones altijd een klasse beter dan vermeer! echt mensen die om vermeer smeken, waarom? op basis waarvan???
en die amrabat, serieus wat is die gast goed. nooit meer uit de basis elf laten die gozert
onnodig dit. godverdomme wat had er meer ingezeten
richting rotterdam voor
mijn speler van de week bij voetbal inside is sven van beek via
ook wijnaldum speelt als een drol bij het nl elftal. geen schim van wat die laat zien bij liverpool.
wanneer wordt hij vervloekt? gewoon een prima speler hoor. veel dreiging en kan doelpunten maken.
berghuis was speel je toch ontzettend goed man, niet normaal
heerlijke goal van samba sam
op basis waarvan zou je voor vermeer gaan? echt dat is mij een raadsel! wat maakt…
ik ga een potje janken ipv de 2 1 maken wordt het 3 0
heerlijke assist van diks... en pleur gelijk ook weer de tv uit. serieus wat een ellende dit. kijk er naar uit als het er op zit!
net thuis en zien dat al weer na 7 minuten achter staat...
kan via de officiële website van sporting. vaak kan je…
dat hij die penalty neemt! goddomme waarom? techniek van een lantaarnpaal heeft die
tranen in mijn ogen echt waar. wat een god tiefus ellendig kut heb ik gezien. om te kotsen gewoon. en die kramer??? oh man 😱
richting rotterdam voor
dat willen wij ook fraser 😂
020 punt verlies zien lijden doet mij altijd goed 😆
je muil 😂. 1e helft psv wel beter. bizar genoeg feyenoord 2e helft met man minder. gelijkspel was op zijn plaats geweest.
trots op wat betreft 2e helft. een klasse beter met 10 man dan tegen 11 van psv.
het is je vergeven haha. maar echt super dom van berghuis. onbegrijpelijk
wordt helemaal niks meer dit. weer ongekend slecht beginnen en dan berghuis zo ongelofelijk een domme 2e gele kaart pakken. onbegrijpelijk
helemaal mee eens. super dom van berghuis echt niet te omschrijven. maar hem zo weg zetten is supporter onwaardig
daar stond ik met feyenoord shirt aan. iedereen werd er 1 voor 1 uitgepikt en gefouilleerd. was iets ge…
richting rotterdam voor
check. nooit vergeten hoe gek die fans van marseille werden en hoe de me er op los sloeg in dat vak
mijn speler van de week bij voetbal inside is steven berghuis via
ik ga naar liverpool toe vanwege een gevecht met een team maat van me, voor slechts 70 miljoen 😂
mijn speler van de week bij voetbal inside is kevin diks via
richting rotterdam voor
maaaatchday
precies terug vliegen naar nederland als de loting begint...
maaaatchday zeker wat goed te maken daar
speelt altijd op links, heb je nu alleen boetius en kan eventueel ook op 10 uit de voeten. die 2 posities niet dubbel bezet
als deze speler komt word ik gek, in een positieve zin. zeer creatieve voetballer. wat betreft gedrag naar heerenve…
goed voor het engelse voetbal 🙊
is er nog gevoetbald gisteravond?
maaaatchday helaas er niet bij kunnen zijn vandaag
avond wedstrijd bezoeken tussen sporting portugal vitória setubal
party vroeg op. zo richting schiphol en dan vliegen naar 🛫
zo richting rotterdam voor
eindelijk weer maaaaaatchday
zo op het gemakje richting voor
in een feyenoord shirt. de gedachten alleen al maakt me zo blij. hopelijk gaat het echt gebeuren
.@feyenoord trekt hem vandaag over de streep... 🏆
serieus op basis waarvan? ben niet anti vermeer perse, maar hij is echt gee…
zeker mee eens
ben je echt zo gecharmeerd van die haps henk? leuke speler maar ik geen velde of wegen…
ben ik ook helemaal met je eens. maar diep van binnen hoop ik het toch een klein…
inderdaad zeer slecht van larsson. en toch hoop ik stiekem dat hij naar ons toe k…
af aan al mee genomen naar feyenoord. dan heb je nog geen besef van de historie of wat dan ook. liefde komt er dan al wel in.
zeker meer respect voor het laatste, ben ik met je eens. aan de andere kant is het ook hoe je wordt opgev…
support your local wordt inderdaad lastig hier in zeeland 😂 gelukkig dat feyenoord de prijzen aan 1 ragt ieder jaar...
hoho met je laagste iq. ik schaam me ook aardige voor deze kerel. maar…
je kan het ook overdrijven vind ik. maar dat is mijn mening...
hersendood zijn en toch zelfstandig kunnen ademen?
wat lul je nou dom man. je weet helemaal niet wat hij nog wel en niet kan mafkees. hersendood zijn is totaal iets anders.
ongekend dat zo iets kan gebeuren op die leeftijd 😢 te triest voor woorden
groot fan van deze speler alleen speelt hij toch altijd linksbuiten net zoals boetius? berghuis altijd rechtsbuiten…
erg schrikken wat er is gebeurd met hopelijk komt het allemaal goed met die jongen
gisteren dagje antwerpen geweest en toen dit café gespot
deze man vind wel dat de pvv mee moet doen! inderdaad iets met laag niveau 😂
jij praat over hoog niveau maar je retweet wel dat je vind dat de pvv mee moet doen?🙊 dubieus
wanneer mensen tege me zeggenhier ga je spijt van krijgen morgenochtend, ik slaap dan door tot de middag omdat ik een probleemoplosser ben
vakantie geboekt en er nu achter komen dat ik gelijk de eerste competitie wedstrijd mis klasse gepland weer dit...
hoop wel dat deze transfer door iedereen binnen breed wordt gedragen
beter stapt nelom eens over naar een nieuwe club
waarom zou je in vredesnaam boetius terug willen zien? op basis waarvan? afgelope…
zeker waar. alleen nu heb je financieel meer opties.
in het begin was hij gewoon goed bij feyenoord. maar afgelopen 3 jaar heeft die echt stil gestaan en niks meer laten zien..
op basis waarvan jpb wel? behalve dat het een feijenoorder is? al jaren hopeloos uit vorm die man
waarom zou je in vredesnaam boetius terug willen halen? laatste 1,5 jaar bij hopeloos uit vorm en elders ook niks laten zien
oude mensen kunnen uren discussiëren over iets zonder google te gebruiken om te kijken wie er gelijk heeft. zeer opmerkelijk.
leuk om te lezen. begin van seizoen harde haat op peter bosz. kut kakkerlak enz. nu is die weg en lopen ze weer allemaal te janken
11 jaar!?! dood maken die gast serieus. kan hier echt niet met mijn verstand bij
ik dacht precies het zelfde haha
mooie trip en leuke stad. afgelopen zomer geweest en aik panathinaikos bezocht toen
is oude er eindelijk eens mee gestopt? werd tijd🙊😂
is dat het zelfde als nummer 2 zijn en niet van de nummer 3 kunnen winnen?
echt volstrekt onzin! waarom lukt gae het wel? iedere bvo moet toch in s…
waar??? is die er ook voor mannen?? wat mooi ❤️
als je als betaalde bvo niet in staat bent om eens in de 2…
93 niet bewust meegemaakt. echt te jong. 99 wel. was 12 jaar en was ook geweldig. maar dit na 18 jaar in…
ondanks dat dit te verwachten was komt het toch hard aan op 1 of andere manier. geweldig mens 🔴⚪️
dirk bedankt voor alles 👏🏻 een voorbeeld voor velen 🔴⚪️
waarom staat nelom hier niet bij?
we wachten het af. er moet ieder geval wel een sterke speler voor terugkomen als elia vertrekt
dank u voor je antwoord mikos 👏🏻
zeker ook waar henk. zou zeer blij zijn met hem. moet die wel veel in will…
oké we gaan het meemaken
lol en waar heeft dat in gestaan dan? volgens mij is dat dikke onzin
sam larsson een optie voor feyenoord mikos? ik vind dat een geweldige spel…
brok in mijn keel hier voor. wat ben je mooi ❤️🔴⚪️
jij bent echt feyenoordgeil hé 🙊😂 wat een geweldige dag
veeeeeel te weinig maar ja
meer mochten er niet komen! ze hadden vakken gemaakt. plek was voor 140000 mensen
hahaha precies 😆 maar deed wel even pijn 😂 maar het is het allemaal waard 😊
4 uurtjes geslapen check✅ zo de trein weer pakken terug naar rotterdam voor de huldiging
gio in tranen, kuyt in tranen man man wat prachtig
en dat net al de doelpunten heeft gemaakt. het heeft zo moeten zijn! oh wat ben je mooi, geweldig, groot en uniek
mijn eerste tweet na de wedstrijd! wij zijn verdomme kampioen!!!!
haha dank je wel. jullie ook veel succes daar in duitsland! 3 punten 💪🏻
zo richting rotterdam voor 🔴⚪️
.@feyenoord trekt hem vandaag over de streep... 🏆
kameraden het is maaaaatchday en wat voor één spanning giert door mijn lijf. vandaag moet het gebeuren 🔴⚪️
klinkt als muziek in mijn oren haha
zo daar ligt er 1 lekker voor de buis 😆😂
mensen die niks met feyenoord hebben moeten gewoon stil zijn. dank u
feyenoord is de kuip! de kuip is feyenoord. jullie hebben je ziel verkocht! schaam je dood met dat kut feyenoord city
ik kruip met opgetrokken knieën mijn bed in en ga heel hard huilen 😭😭
wannneer is de uitspraak of dat feyenoord shitty door gaat ja of nee?
dit had ik even nodig, bedankt. wist niet dat ik vandaag nog een beetje zou kunnen lachen
ik heb me eigen nog niet verdiept in de prijs, ik hoop ook dat het niet zo ver gaat komen haha. maar ee…
haha ja ik denk het ook maar 😅
dat ziet er perfect uit 😍
geen idee. 1 waarvan we het bestaan nog niet weten. als die me maar uit mijn lijden verlost haha 😆
en tijdens die 2 weken van janken hoop ik dat ik een exotisch dier aantrek die me uit mijn lijden verlo…
als we het volgende week niet worden dan verlaat ik de bewoonde wereld voor een onbewoond eilandje en g…
dus bij deze voor iedereen
ik negeer alles en iedereen, op twitter, whatsapp, snapchat, instagram en weet ik veel wat nog meer!
maaaaaatchday vandaag kan/moet het gebeuren 🔴⚪️
erik verkoop jij nou je kaartje aan iemand die na 020 feyenoord zei nooit meer coolsingel !?
deze zondag een keer niet in de kuip maar op stadhuisplein
dat staat toch los van in welk stadion het wordt gespeeld? dat probleem blijf je houden mocht fe…
hahaha. weet je wat, dan doe ik hem ook aan. dan kan het niet missen 😅 hahah
mensen dus denk kleine kans haha. maar wie weet eerst zondag maar eens winnen 😀
dan is het inderdaad wel een ander verhaal met als ex burnouter. sorry voor het grapje dan, niet echt…
nee joh gewoon coolsingel. ik ga ook met mijn ouwe. touwtje om zijn nek dan kan er niks gebeuren 😂😭
god allemachtig dat gaat maar net zie ik wel.... 😂😭 nee hoor past je prima 👌🏻😉
dat is een flink aantal 😂🤣
om trommels in ons stadion te horen, vreselijk!!!!!
wat geweldig mooi geschreven. niks mooiers dan dat het recht uit het hart komt. veel sterkte toegewenst met dit grote gemis
ik dacht er aan om naar buiten te gaan en wat dingen te gaan doen vandaag maar mijn wifi heeft echt geen heel erg ver bereik dus ja...
zo nederlanders lekker voor de tv met een oranje tompouce en in spanning afwachten wat voor jurk maxima zal aanhebben?
ik ben daar niet heel bekend mee dus dat weet ik niet. maar meer van dat je toch een relatie hebt? wil…
dan is het goed. ik schrok al
ik mag toch hopen dat je niet voor je zelf op tinder zit hé?!?!! 😶
ondanks dit tijdstip toch opstaan met een mega brede glimlach ^^
mijn speler van de week bij voetbal inside is nicolai jørgensen via
feijenoorders morgen op hun werk
met flinke tegenzin maar eens studio sport kijken...
kijk nu al uit naar het interview met lasse schöne
dit wordt de eerste keer dit seizoen dat ik het ga zeggen feyenoord feyenoord, we worden kampioen!!!!
hahaha. ik hoop uit de grond van mijn hart dat het daar zo in eindhoven blijft. echt waar haha
4 punten tegen feyenoord en? wij 6 tegen psv en jullie? maar ga vooral door met kankeren. ik geniet
tip. even wat tweets van 020 lui bekijken. gewoon even doen 👏🏻👌🏻
al die kansen man man man 😱
ja foutje daar alle euforie hahaha
maaaaaatchday 🔴⚪️ aardig zenuwachtig kan ik je zeggen
maandag lid geworden en nu al alles binnen 👏🏻
wat een waardeloze reden om daarvoor eventueel je lidmaatschap op te zeggen!
een partij van eencelligen! echt waar, zijn dit de 6 redenen dat jullie ja stemmen? lachwekkend 😂
ik zou daar maar niet teveel op rekenen henk. psv gaat die pot gewoon verliez…
vandaag lid geworden van elke keer weer geweldige sfeer actie in het stadion! hulde 🙌🏻
mijn speler van de week bij voetbal inside is karim el ahmadi via
richting rotterdam voor 🔴⚪️
fuck die mensen! niks anders dan respect voor wat jullie doen! hulde 🙌🏻👏🏻
werk jij nog met een bel en sms tegoed? 😂😂 kom eens uit die grot van je...
hoop wel dat nelom mag blijven....
alles thuiswedstrijden geweest. inclusief finale. mooiste herinnering ooit!
heel mijn tl in de ban van boer zoekt vrouw. ik snap daar oprecht niks van
mijn speler van de week bij voetbal inside is steven berghuis via
lekker berghuis godverdomme en door gaan
nou er vol op nu 2e helft. geen woorden maar daden aub!!!
ik zwijg maar...
maaaaatchday 🔴⚪️
hoe kan zo iets toch mogelijk zijn bij zo een klein kind! te triest voor woorden 😭😭😭
wat een heerlijke pot 8 0
geeft helemaal niks. en er lekker mee door gaan ook. alleen maar positief dat je eigen zo voelt. een he…
ben je verliefd? dat kon ik niet opmaken van je tweets afgelopen weken
helemaal waar. maar nu zeggen nooit meer coolsingel slaat ook compleet nergens op. dat…
dat is inderdaad net zo sneu als een tweet de wereld in slingeren met nooit meer coolsingel
afgebluft. voetballend niks in te brengen. wel praatjes vooraf. maar op het moment dat het moet spelen als lamme hondjes
en het is gewoon klaar. elke jaar weer tegen dat tiefus 020. spelen nooit wat klaar daar. sterf er mee
kan toch niet godverdomme
maaaaatchday de spanning giert door mijn lijf verdomme 🔴⚪️
en al die wratten met een kampioen tatoeage 2016/2017 moeten ze ook ritueel slachten
naar die mensen mogen van mij ook de tering krijgen!
mocht er een nieuw tiefus stadion komen zou dit enorm kut zijn. tranen met tuiten zelfs. maar om nu al te zeggen dan ga ik niet meer 1/2
sneijder had ik ook inderdaad wel laten beginnen. maar die bondscoach van ons 😭 haha
richting jaarbeurs utrecht voor
dat wijnaldum begon leek mij wel volkomen logisch toch?
hoe lang moet ik op de bank liggen in dezelfde positie voordat ik het yoga kan noemen?
heerlijk wakker worden na zo een voetbal zondag 👏🏻👌🏻
mijn speler van de week bij voetbal inside is tonny vilhena via
en u bent vader en opa? chapeau 👏🏻
kolere wat een stress maar de overwinning is er 1 2
kut volk. moet van de aardbodem weggevaagd worden!
ik klap dadelijk dood neer echt waar
waarom altijd die tiefus nelom opstellen ipv woudenberg?? ik snap er niks echt niks van
maaaaatchday 🔴⚪️ overigens heb ik er vandaag een slecht gevoel over! hopelijk zit ik er keihard naast
waar is d66??
d66
bijlow of hahn verhuren. jones houden. beste 1e keeper die we hebben in jaren. zie je wel weer na gisteren!
mijn speler van de week bij voetbal inside is nicolai jørgensen via
richting rotterdam voor 🔴⚪️
ja jonge om zeeland kan je niet heen. top provincie
wat een vreselijke hond is deze vent ook echt waar
ah vandaar, nu snap ik het 😉
ja klopt. ik heb vernomen dat jij daar ook zit, klopt dat?
zijn gewoon hele dure punten. op deze manier maak je het je zelf erg moeilijk. feyenoord nog heel moeilijk uit programma
als je van gae en sparta verliest verdien je het ook niet. zo eerlijk moet je dan ook zijn! maar er is nog niks verloren
wat een grafzooi maar ja dan nu nog maar ff 9 x achter elkaar winnen...
jammer, was wel benieuwd eigenlijk.. 😆
maaaatchday ook vanuit rome veel spanning verdomme! er moet weer gewonnen worden 🔴⚪️
beest! wat doe je allemaal joh 😆😂
die discussie tussen jou en was ook behoorlijk kansloos hoor. misschien moet je ze nog een keer terug lezen!
ben daar zelf ook geweest en dortmund is machtig. dat er 30000 man meer in gaat speelt ook mee!
ga je nu echt een discussie aan met iemand die voor 020 is? natuurlijk denkt hij er zo over! kansloze discussie
hehe ze snapt het 😉😆
maar facebook is er toch om mensen bij elkaar te brengen? dus vrees het ergste voor je 🤔😂
jullie zijn dan toch echt voor elkaar gemaakt denk ik...
ja dat wist ik daarom was ik zo benieuwd naar dat gevecht. echt kut. nu ferguson tegen mcgregor of?
de tering wat een drama zeg. keek echt uit naar dat gevecht verdomme
jij bent een ufc kenner, ik las net iets van dat khabib geblesseerd is en morgen niet vecht, klopt dat? 😱
geweldig nieuws 👏🏻
herstel de wedstrijd is op zaterdag 😂
zometeen de lucht in richting rome 🛫zondag wedstrijd bezoeken roma napoli 👌🏻
gecondeleerd met dit verlies en veel sterkte toegewenst
ja die denkt kut zeg straks worden we nog echt kampioen met dit oude graf stadion 😂
waarschijnlijk omdat je alleen maar ongekend domme dingen tweet wat betreft voetbal! ik zou een andere sport nemen
hoe kan het dat je zelf wel nederlands bent, je voor 020 bent en geen nederlandse volgers hebt? 🤔
misschien even een cc naar luuk de jong doen?
mijn speler van de week bij voetbal inside is jens toornstra via
verdiende overwinning wat een reactie van die luuk de jong haha. twijfelen aan de doellijn techniek. dit maakt het nog extra lekker
haha dat snap ik 😉 maar bedankt. heb er vertrouwen in
richting rotterdam voor 🔴⚪️
wat betreft wedstrijdspanning voelt het alsof we tegen 020 moeten spelen. belangen zijn zo groot
maaaaaatchday 🔴⚪️ spanning loopt al aardig op
alles moet wijken voor het kampioenschap! ook kuyt als dat beter is. en dat is het momenteel dus geen dilemma lijkt mij
die zou helemaal geen dilemma moeten zijn! groot fan van kuyt maar toornstra is zeker momenteel een klasse beter op…
ik las het gisteren haha. dacht 1 + 1 2 😆 beetje flauw! nogmaals beterschap.
slaat het vrijgezellen leven nu ook al over naar je bloed druk? 🙈 nee hoor dat is een grap. hoop dat het snel weer normaal is
zeg het ook met pijn in mijn hart maar kan eigenlijk gewoon niet meer op 10. toornstra velen malen beter op die plek
niet best, wel 3 punten gelukkig 🔴⚪️💪🏻
wat een ongekende slechte eerste helft 2e helft vol gas en winnen goddomme!!!!
maaaaatchday traditioneel altijd lastig daar. hopelijk vandaag niet 🔴⚪️
mijn speler van de week bij voetbal inside is jens toornstra via
waarom die ploeg uit 020 geen kampioen mag worden, zie hier onder. zo een vervelend en naar ventje die veltman
ja ik ook. psv moet zowel ajax als feyenoord in halen. gaat niet meer gebeuren.
klopt. ik ben er ook nog niet gerust op hoor haha
az, twente, heerenveen en vitesse
feyenoord heeft zeker lastig programma nog. maar geldt toch ook voor ajax? die moeten ook nog naar psv toe en spelen tegen
geldt ook voor ajax toch? moeten ook nog naar psv toe en spelen tegen az, twente, vitesse en heerenveen
heerlijk dominerend gezien. en een prima sfeer ook
bedankt. hoor ik al weken dat van eerste punt verlies dit jaar 😆
zo richting rotterdam voor 🔴⚪️
volgens mij moet het zijn waarom zou botteghin behoefte hebben aan oranje?
lekker samen van die stoel af glijden? 😆
mijn speler van de week bij voetbal inside is elvis manu via
heerlijke overwinning 🔴⚪️
spannende wedstrijd ik moet het nog maar zien dat we dit gaan winnen
berghuis is laatste weker erg sterk. vind ik althans. had toornstra op plek van kuyt gezet
maaaaatchday
super gaaf kapsel. gewoon doen
eindelijk iemand die het snapt
dit is mijn speler van de week 😆
mijn speler van de week bij voetbal inside is nicolai jørgensen via
op eerste 5 minuten na bij vlagen een goed gezien. prima overwinning 4 0
richting voor
maaaaatchday
weinig vertrouwen in vanavond, hopelijk zit ik er volledig naast
nederlanders die zich druk maken om trump. ik verbaas me eigen er nog steeds over.
mijn speler van de week bij voetbal inside is eljero elia via
ja die was wel goed hé? ik vond hem echt top. heb ook paar keer stevig gegild!
schijt hebben ^^
wat een vreselijke wedstrijd zeg. zeker de 2e helft. en die scheids? wat een graf hond is dat. maaaaaar 3 punten zijn weer binnen 💪🏻
richting voor
maaaatchday
stel je stelt vermeer op en verliest gelijk. dan komt er wel een enorme druk op hem. op heel het team denk ik.gok niet waard
denk het ook. en het mag ook. ieder zijn mening. ik zou, als het zo blijft gaan als nu, zeker niet wisselen
alle statistieken vertellen wat anders hoor!?
mijn speler van de week bij voetbal inside is dirk kuyt via
klasse wedstrijd gezien van everton tegen manchester city 4 0 👏🏻 straks weer terug richting nederland
morgen vertekken voor een weekendje liverpool 👌🏻 met als afsluiter op zondag een bezoek aan everton manchester city
super gave ervaring was dit! nu die in breda gaan proberen 😆
wat een lachwekkend idee
vrouwen zijn ook zo mysterieus! allemaal zo moeilijk te peilen 🤣
ik zeg altijd bedankt als iemand tegen me zegt i love you nu weet ik waar het aan ligt 😝 bedankt voor deze lijst 😆
hier kan ik echt zo boos om worden. iedere supporter die dit koopt moeten ze gelijk een levenslang stadion verbod g…
zou behoorlijk kut zijn als dit werkelijk gebeurd
gefeliciteerd 🎁🎉🎊 welkom bij de club van 30 😝 een hele mooie dag gewenst
jezus ben je zoveel eisend? nu twijfel ik haha 🤔
gisteravond gekeken. verrassend veel om kunnen lachen toch
mijn speler van de week bij voetbal inside is steven berghuis via
heerlijke uitslag bij 👏🏻👏🏻
mijn speler van de week bij voetbal inside is steven berghuis via