het is niet op tijd aangevraagd. niet ineens doen alsof er alles aan gedaan is om voor al je supporters…
wie zit hier op te wachten ? bloed zweet en tranen willen we zien!!.. winst of verlies maakt dan geen klote uit..
graag ! waar moet ik heen ?! regio den haag woon ik.. anders kom ik gewoon naar born
manmanman wat een bedroevend stuk feyenoorkleding. welke vrouw trekt dat ding aan? vormloos, stijlloos,…
gemiste afl. er aan het terugkijken. wat een heerlijke en positieve deelnemer. jammer dat je niet door kon.. je had ver gekomen!
op zoek naar een auto voor de germanenuit.. rt wordt gewaardeerd
een doelpunt voor de eeuwigheid!
alleen met hoeveel is de vraag..
hier ook! kom niet aan met zaten allemaal in de winkelwagen binnen 10 sec was ik binn…
op enkele puntjes gc mislopen &amp niet in het uitvak kunnen! dát is feyenoord. maar als je ff €300 lapt mag je zo mee hoor!
die reis gaat alleen uitverkocht raken omdat mensen er anders helemaal niet heen kunnen. iedereen h…
die kuip komt echt wel vol hoor !! laat ik niet alleen kritisch zijn…
ja dus mensen die altijd 2e ring zitten moeten wachten totdat er 27000 verkocht zijn..
wtf alleen eerste ring ? koekoek
goed je weer terug te zien vanavond in de kuip!
ik stel een naakte duik in de hofpleinvijver voor bij schaal of bekerwinst als inzet van de bilalto…
wat een dag ! vanavond de cl hymne in de kuip..
dinsdagochtenritueel in de trein naar werk toe. heerlijk !
hopla. psvuit in the pocket. kostbare punten om gold te worden en nooit meer te hoeven sprokkelen voor uitkaartjes
ja het is kut maar ik kwam 2 punten te kort voor goldcard. nou al moest ik o…
kak. blijf je volgen voor een volgende keer
mag ik ze overnemen?
feyenoordloos weekend? feyenoord sevilla terugkijken op dailymotion met engels commentaar .. wat een geweldige pot en sfeer
daar zullen de mensen die 300 euro per kaart vangen echt wakker van liggen.. hoe weten jul…
hoe is dit uberhaubt mogelijk? wildvreemden in de kuip op onregelementaire kaarte…
r van helden seizoenskaart gevonden vak r
klasbak.. altijd strijd en trots op het shirt a la sexy lexy maar kwalitatief…
ja ik ook meteen zodra ik die foto zag maar bij klik op definitieve boeking voor 160 pp knalde hij naa…
napels meteen op gegokt tijdens de boeking van 160 naar 370.. nu manchester met klm voor 99 pp. denk dat het daar bij blijft
moet t anders formuleren. denk dat ze fey uit gaan onderschatten.. alhoewel ik me geen illusies maak
voordeel is, net als manu vorig jaar, hoeveel zin heeft een b ploeg uit tegen feyenoord, zie best mogel…
ja stil maar arie
als we samen ruim €100 willen besparen gaan we pas vliegtickets zoeken na definitieve indeling na loting..
waar blijft ie ? zo lekker om tijdens de eerste officiële werkdag op school ff naar jullie te luisteren..
nee moet rechtsom. ze moeten ook voor een bepaald punt de ockey verlaten, en niet treuzelen, anders…
bedankt !!
beter dan een kampioen sjaal
groen wit groene komen wij uit rotterdam ken je dat niet horen dan sjaaltjes mening ?
best knap dat iemand ongeveer alles wat ik haat aan de moderne, zakelijke segment bezoeker van tegenwoor…
4e keer..
sensatiezoekers. alles voor de kliks he ?! bah bah
wat een verschrikkelijk sensatie belust misbaksel van een tweet.. hopelijk ben je dit niet persoonlijk ook..
❤️#vooraltijd
ga je mond spoelen mafkees, als je normaal…
3 volgers, 22 volgend.. niet serieus nemen.
dit is dan wel weer goed nieuws.. er staat namelijk helemaal niemand in de rij om hier in te participeren
als dit nou echt het beste voor feyenoord is hoe kan dan 9 vd 10 reacties op dit bericht negatief zijn…
ja hoor ! voor !
extreem veel mitsen en maren, dit is onmogelijk. hup! renoveer de kuip en ontwikkel gebied ernaast!
al zijn we nog niet zeker van de beker, feyenoord, feyenoord, we blijven blijven blijven blijven gaan..
maar dit laten ze niet zien hoor dit trekt geen kijkers..
als je om 10 u al zwaar vuurwerk gaat afsteken op rdam centraal verpest je het voor iedereen.. doe normaal!!
als feyenoord zijnde slim zijn en hele wvh tribune aanbieden. verkopen ze niet &amp krijgen wij…
als zelfs overstag is, dan ga ik er in geloven.. we gaan kampioen worden ?!!
wat wil je nou en kort daarna 13 haha gekke sjakie.. ik hoop dat psv degradeert xd
laat maar t is al geregeld. tot zondag !
volg me aub. dan kan ik je een pb sturen. ik wil je om hulp vragen. groetjes
ik snap de vraag niet vervolgens ja je kan niet iedereen tevreden houden over de belache…
dat je in de efteling ineens aan feyenoord moet denken..
waar of niet waar zondag niet verliezen! met of zonder vilhena. trucjes en haat krijgen ons niet klein.
kans om te laten zien dat het kan! geef feyenoord hele noordtribune! prima te resliseren en voorkomt feyenoorders op thuisvak
waarom ook. ze zullen goede ideeën eens uitvoeren..
wanneer bericht mbt schermen in kuip voor ? prima te realiseren, 100%uitverkocht winst voor de club
nieuwe sk kan wel gele zijde 2e ring maar nog niet 1e ring. kan ik dan nu 2e ring aanvragen en late…
vroegboekprijs .. 7 euro minder 2.39%.. phoe zeg dat scheelt een slok op een borrel !!
in beroep speelt ie az thuis mee en mis je m sowieso uit tegen 020 want minder dan 2 wordt het…
uitspraak ?
geen kuyt. pijnlijk maar beste opstelling is nu met toornsta.. simpel.
niet lullen maar poetsen, altijd inzet en trots op je shirt. bedankt voor je jaren als feyenoorder lex!
ja hier.
en dat voor 30.000 man.. echt ff bedenken of ik ga bidden in de loterij of lekker op de thuistribune plaats neem..
zoek een plekje in een auto voor roda uit.. rt zou fijn zijn !
natuurlijk. het was te verwachten.. engnek
10tje per kaart volle kuip. 28 euro voor 1/8e finale halfleeg. wat snappen jullie niet ? ado betaald 5!
het is warm, gezellig en bier is met alcohol
nou nee hoor. op centraal ging het goed los om half 5. uitgescheurde oorlel oa. gelukkig ik niet. hele groep ingesloten erna
grote groep fen fans ingesloten bij cs. sloegen net kleine groep fey in elkaar+gooiden vuurwerk. blijf bij elkaar
4 stadions in 8 dagen. wie nog meer ?!
dat was een pittige werkweek. op naar manchester !
hier krijg je toch kriebel van ? moeilijk ook om andere stadions te bedenken voor ee…
kan je me helpen met tickets voor az feyenoord. dan kan ik evt tickets voor feyenoord az voor je regelen. gr.
12e mankbier. als ze echt zwaar zijn loop je na 12 stuks mank
ja heel graag. kan er iemand heel blij mee maken!
nog iets meer
als silvercardhouder moet ik dus tegelijk kaartjes zien te krijgen voor united uit en gae uit ? bitte warten sie
volg me ik volg jou dan moet het goedkomen.
ja graag !
thanx maar je weer het niet met die loterijen van nu liever nu al geregeld.
zoek 2 sk houders gele zijde die bekerpot niet gaan voor mijn neefjes. rt zou gewaardeerd worden
ja nu wel. 2 uur geleden niet.
ik heb twee vip kaarten liggen als je ze komt halen mag je ze gratis geen grap.
wiens brood men eet diens woord men spreekt..
scherp blijven michiel. je was ook bepalend in de beker vorig seizoen, jouw momenten komen vanzelf!
helemaal niet. we staan nog altijd bij de kuip. zonder enige informatie waarom het zo lang duurt! top!
heel graag uitleg hoe dit kan ?! veiligheidsmaatregelen?!
tijd om een groot compliment aan de supporters te geven. niets gebeurd. niet alleen klagen toch ?
column | sterker door strijd wauw must read!! spijkert en kop.
tegelijk besteld met hoop minimaal 1x er door te komen. nu extra tickets ineens voor beide dagen en geen teruggave mogelijk?
purpose vip, merchandise pakket geloof ik en golden circle plekken. gekocht vorig jaar voor nichtjes maar was zelf gelukt
nog altijd 2 vip kaarten ter overnamen voor kostprijs. waarom geen teruggave ?
oelewappers zijn jullie. vrije verkoop resterende kaarten?! en achteraf zeker alles afschuiven op de supporters..
das geen 10 meter hoor misschien waait er straks wel een banaan overheen pfff
eehm nee. het staat 11.
geldt dit alleen voor foute ? heb een correcte bevestiging gekregen+betaalbevestiging en juiste bedrag afgeschreven.
na hoop gezeik toch 3 kaarten weten te bemachtigen.. plek boeit me niet wil mn club naar overwintering schreeuwen
onzin! blijven proberen eindelijk gelukt na 3 x 20 min gele zijde te lang moeten wachten nu wel vak e betaald 4 min geleden
vak e betaald 1 min geleden en bevestiging via mail..
onzin. net eindelijk gelukt na 2 x 20 min gele zijde te lang moeten wachten nu wel vak e betaald 1 min geleden
onzin. net eindelijk gelukt na 2 x 20 min gele zijde te lang moeten wachten nu wel vak e betaald 1 min geleden
helemaal geen wedstrijden meer in verkoop..
3 kaarten in je winkelwagen en gewoon na 20 minuten wachten op het betaalscherm weer achterin de rij !! lekker bezig..
ja dat andere ook maar dat zeg ik niet anders ben ik zaterdag helaas uitgeloot
alle vakken open!! maar/en als je wat gooit zo moeilijk is het niet
positieve noot door hopelijk vele gekoppelde seizoenkaarten zou de belasting op het systeem minder moeten zijn..
order binnendoor 38 denhaag voor as maandag let op werk aan tram+asfalt dus rij via prinsengracht en spijkermakersstraat
ja hier. 3 man. op en neer vanuit daaro voor 135 pp. werd enorm duurder in hele korte tijd !
oh laat maar. had om verhalen gevraagd. niet echt volledig juist dus. anyway leuk stukkie !
jeuhhh mijn tip is m geworden. top. kan ik nog een gerse stickert ophalen op varkenoord als beloning ?
3 dagen voor de neusjes thuis.. hopelijk thuisduel de 20e..
volgende keer graag paar uur eerder vanuit den haag haal ik het net niet nu
waarom in elke link van het online aanbod van live sporten uit rio ajaxfalse ? het klopt wel hoor
ben wel benieuwd naar korte verhalen over de flkg bij uitwedstrijden. zitten vast mooie anekdotes tussen.
hoeveel kaarten zijn er nog voor heracles uit ? kans met silvercard ? groningen uit een mooi vervolg geven !
je zou zeggen genoeg kijkers met al die tt supporters xd
feyenoord 12 zien winnen door k2 in de arena, vechtend met 10 man. op door een prijsvraag gewonnen kaartjes
bij mij 49% omhoog. doei ! ik zit nu bij tip
natuurlijk voor jou en g2 gestemd. tussenstand 59% voor jou
maar gefeliciteerd !! op naar de finale.
nee ik ga morgen al naar spanje italië als neutrale hollander gaat het niet beter worden dan dat
2 kaartjes over voor kwartfinale in lille. dm bij interesse
ik heb 2 kaartjes te koop voor de kwartfinale in lille. dm bij interesse
en toen had je ineens kaarten voor italië spanje..
game 48 in paris, sdf.
succes gewenst vanuit nederland. ook voor mn toto !
een geluk voor in de toto divisie, is het altijd een feest.. groetjes!
congratz!!!! goed gedaan.
the warrior was ziek goed gespeeld. beetje raar gespeeld eerste pot maar goed hersteld. gogo!
dat hoeft niet hoor want daar schiet ik niks mee op. het is zelfs 45% ! van 40.51 naar 58.73
zomaar de premie 29.8% omhoog gooien ??? mag dat überhaupt?? op zoek naar een nieuwe verzekeraar
daar gaat je meest productieve middenvelder v/d afgelopen decennia.. eeuwig zonde. zon type is nodig!
met afstand beste aankoop vd afgelopen jaren. staat er altijd, professioneel en 100% inzet. dank voor je onmisbare bijdrage
binnen stadion paar afgepakt.. maar op centraal ? riskeer ik zelf een klap op me muil als ze denken dat ik jat..
telefoon leeg. oplader spaced hem weer. weet jij waar die draadloze gebleven is met dat half kapotte kabeltje ? die deed het nog.
scriptie ingeleverd!!! en vakantie..
je weet wat dit betekend eric..
lekker aan het koffiedrinken bij mn buurvrouw ?
heb al 2 keer contact gezocht met cardiff, lukt me niet een shirt met jou naam te regelen. kan je me helpen ?
mooiste pot van mijn leven !
´we hoeven nooit meer naar twente, nooit meer naar twente !´#twefey
mn oplader ligt nog bij jou
mijn data is op.. maar dat is niet op.. ik wil graag mijn normale snelheid terug!
klopt gewoon hoor.. mag met een identiteitsbewijs wat maximaal 5 jaar oud is! om oudjes en vernieuwers niet te pesten.
waanzin hetzelfde blijven doen en toch een ander resultaat verwachten..
mooie lopende zin in dat zeg..
belachelijk einde van ss met een zgn rode kaart ?? van elia waardoor feyenoord niet de 21 had gemaakt..
gaat niet meer gebeuren wedden.. helaas niet gelukt.. morgen meer info
billenknijpen is nu echt begonnen..
fijn hoor 36% kans op kaart voor bekerfinale.. heb de afgelopen 8 jaar om en nabij de 3 wedstrijden gemist..
prima. mag ik je email dan ? ik doe niet aan facebook.
graag !
het houdt niet op niet vanzelf..
het rare is..ze weten dat het balletje rolt... het legioen heeft toch de langste adem..
misschien even mijn poll er bij pakken ? valide en betrouwbaar want ik heb geen 500+ volgers..
ja! vraagstelling moet zijn gudde blijft zitten.
door de negatieve stelling klikken veel mensen verkeerd. foutief en verwarrend wordt in onderwijs niet goedgekeurd
verademing om te lezen! presteren of inpakken! geldt voor maar ook voor spelers.
sneeuwballen hooligans !! jongens er wordt ook gevoetbalt
normale prijs ! als ik er een kratje bier aan over hou na al dat gedoe zou nog mooier zijn. app me anders op 13674654
hij doet t ook nog.. thanx john! onzin verkoopt blijkt maar weer eens!
aub ! maar deze is ook om te smullen
he jongens ik heb afgelopen zaterdag een mailtje gestuurd en nog geen reactie.. foutje ? of erg druk ? gr.
waar gáát dit over ?! 0 punten, 6e verlies op rij! dát zijn de cijfers..
en dit was nieteens geel waard..
jullie zijn vaak erg scherp maar ik heb vermeer toch al vele malen vaker punten zien pakken hoor. maar we zijn door!
ik heb 2 vip kaartjes. interesse dm me
laat maar. het een heeft niks met het ander te maken. maar dat kan ik niet uitleggen in een tweetje.
ja klopt. ooit uitverkochte arena gezien na 4 verliespartijen op rij ? komt wel heel goed uit dit.. geloof er niks van.
veel succes lex vandaag met je eerste basisplek! verdiend!
op viagogo €29, er komt nog ong 20% aan btw en verzendkosten ondanks thuisprint bij.
spijkert &gt kop
heb twee vip kaarten voor jb over omdat mijn nichtjes zelf kaarten hebben. ze staan op mijn naam. hoe kom ik hier vanaf ?
laat opnieuw zien dat onvoorwaardelijke stijd+inzet beloond wordt. wat een lekkere invalbeurt! top gedaan!
had ik ook maar daarna snel op 2 tickets gezocht.. en bingo d
hoppa tickets gescoord !!
hmm nieuwe ploeg.. heb wel al kaarten voor willem ii thuis..
en die 133 kaarten in vak g en o dan die jullie voor zeer hoge prijzen via viagogo verkopen dan ? tellen die mee ?
ook om 6 uur nog de verkeerde uitslag nee sorry het is
feyenoord twente is 50 geworden..
mooi shirt bij paul! nultien.
oefenen tegen gouda zondag een ideetje ?.. vriendschappelijk
oke ! laten we hopen dat we in de komende wedstrijden tegen hunnie vele fotos voorbij zien komen en thanx voor de reply
waar zijn de fotos van de doelpuntenmakers? ik dacht dat dat een nieuw dingetje was..
iets voor jou ?
wauw wat een artiest en een nummer..
beter maak je je druk om het opwarmen van je knokkels
bedankt voor het spannende en humorvolle verslag van vanuit egypte !
op naar de tt van assen !
kappen met die poppenkast jongens. we zijn sv gouda, niet sv zaterdag of zondag
dit is een grap toch ?
happy birthday !
oehhh la la daar issie dan d
moet ik helemaal naar belgië om fv de film te zien of draait hij ook ergens in nl ?!
mardle zei gisteren toen je op 172 stond ik denk dat ie m kan uitgooien zo goed is hij vanavond haha goeie pot
daar zijn ze 11..
schandalig. je komt aan fiori en de gummiknuppels vliegen je om de oren. gedraag je eens
ik denk dat je compilatie bedoeld..
hoe echt hoe
manmanman pfff hoe dan
klasse ! door aangevraagde uitkaart geen kaart met voorang kunnen kopen voor feyrom ? je krijgt m gewoon automatisch ! top !
hotel sonya geloof ik.. maar prijzen verschillen heel veel wij hadden laatste kamer. zou zoeken op termini en kijken..
dat wordt gezellig ! wij ook
rome we kome! eerste europese uitduel geboek !
wat een onzin !!!! altijd zelfde liedje jammer remy er uit.
komop dan !! vanavond hopelijk grote stap zetten.. wat gaan we doen vandaag ?
zo ongelofelijk simpel.. ben echt bang voor zondag..
kak
zegt niks hoor. zulke kleine verschillen. juiste man op de juiste plek doet wonderen !
wat waren de statistieken van pelle en guidetti ?
yes ! eerst uit. hele mooie spullen
dat valt dan weer mee toch ? 10 eurootjes voor el pot jammer dat ik op vakantie ben..
oekraïne.. dag leuk tripje
heeft 1 actief spoor 1 of 2 en dat is de vernieuwde kant. halverwege bevind zich de foutief geplaatste beugel
horen de beugels die de rails vasthouden zo te zitten
een nederlandse club kreeg nog nóóit een tegengoal op 30 juli. laten we dat zo houden !
matchday !!! met en naar
dat was zwarte cross 2014 ! hard gewerkt maar zeker genoten ! nu snel naar !! l
11 dagen turkije geboekt ! lekker opchillen met l
ik heb er een neusje voor hoor, salsa tequila op nummer 1 haha
geen kopenhagen..
bijna...
en ff 70 euro aftikken voor een nieuw paspoort.
waar gaat dit heen jongens.. boulahrouz ?!
bedankt voor alles wat je voor betekend hebt. het ga je goed in engeland !
vakantie !!!
laatste dagje stage/school en dan vakantie ! hophop
game of thrones helemaal opnieuw kijken, omdat t kan en t is kloteweer met x
haha goud
trots op mijn afgestudeerde !!! ik hou van je !
haha dag wk pool ? nee
dit wordt een hele lange dag..
zo speel je even een arena voor bedtijd, ineens is het 2 uur later.. 83
joehoee lekker opspelen tegen elkaar. we gaan wel een middagje met zn allen gamen xd
hele nieuwe ervaring naar groningen met de trein en niet bij amersfoort al dronken zijn..
slaapkop ! eerder naar bed dan p
ongelofelijk zo veel lege plekken..
hij klopt wel, want als ie zn zoontje mist dan betekend dus dat hij mee is naar brazilie
ongekend
posities gudde en co hadden natuurlijk onhoudbaar geworden bij keuze voor .. enfin dan maar feliciteren !
ben benieuwd hoe het in huize de vos nu is..
l nog vele jaren erbij..
jahaaaaa
mijn avatar kan iig weer veranderd worden na zon anderhalf jaar !!
yes !!! de kuip blijft !! gefeliciteerd met het halen van de finale ! dag volkerwessels dag gudde ?!
maar cl dan zeer waarschijnlijk niet..
eerste stemmer in den haag! miss wel landelijk
oh ! en wanneer begint het in vlaanderen dan ? t is al snel compleet online te vinden en te downloaden gelukkig d
goedemorgen begijn ! weet jij wanneer de uitzendingen van foute vrienden seizoen 2 beginnen nl ?
dan zie ik liever een 35..
valt een beetje verkeerd / ach volgende week .. ?!
natnekje. die kreeg toch rood ? heeft er niks mee te maken. knap als je dit een terechte uitslag vindt.
je word er zo ongelofelijk moedeloos van..
volgende serie l !
iq van 150 helaas geen wat me aanstuurt om te leren haha
maar het regent, en het regent zonnestralen 8
gelukkig nieuwjaar! en speciaal voor mijn l xx
dday! of moet ik zeggen tday ! wie steelt de kroon van mijn hoofd vanavond.. of krijg ik een nieuwe ?
cherr op zichzelf !! woehoeiii dag kerstvakantie haha l gefeliciteerd
wauw wat geniaal gespeeld !!!
hmm wat eerst.. of
toch ruim 3 uur slaap voor 21 uur werk afscheidsfeestje en
iemand nog een kaartje voor over ?
pff dit wens je je ergste vijand niet toe. brak, lange broek, bloedhete bus
op naar awakenings! lekker
zo klakkeloos informatie overnemen dat je niet eens de spelfout eruit haalt..
is mulders een nieuwe speler ?!
vergezellen tijdens een paar daagjes barca!
24 juli naar keulen rond uurtje of 8 sochtends en 28 juli zelfde idee maar terug !
van utrecht naar keulen. maar de boekingsmodule doet het niet.. ! dus geen prijzen te zien en niet te boeken..
de reisplanner doet het niet, kan dit asap verholpen worden! ik wil graag op vakantie !
als het niet gaat zoals het moet..
mooi ! hoe hoger de eisen hoe kleiner de kans op lang leve de kuip
k lig wakker in mijn bed..
larrie is helaas verdwenen..
ik zie het weer eens licht worden.. thanx to vanghizzle ben zn twitternaam vergeten
zo iemand heeft een blik agenten opengetrokken..
daar was voor nodig ?! ik wil een pak melk, kost 1€.. maar ik wil wel eerst de melk voordat ik 1€ ga verdienen..#kloptniet
voorwaarde voor hns is de sportieve&ampfinanciële groei bvo naar een structurele plaats in de top van het nederlands voetbal 1/2
bouwkosten dus 9% hoger 242 mil en investeringskosten 10% hoger 399 mil excl btw..
twee maart staat alweer met hoofdletters in de agenda..!!
572 km gereist, 1343 biertjes verkocht, op naar volgend jaar!? was iig supergezellig werken bij
3 avonden groots met een zachte g meepakken en nog betaald krijgen ook d
huilie huilie p
haha ja ik had mijn voor de looks grap pas door nadat ik m tweette. misschien luistert hij naar een horlogebandje ?
tegenover me zit een blinde man met een horloge om.. ik snap het niet.. ?
soms heb je iemand nodig, stil en oprecht..
een seizoen ongeslagen in de kuip. en verder niks. nouja, pelle dan.. tot volgend jaar
ze ligt er weer beeldschoon bij.. tot zondag !
gáásten komop. 800.000 man is wel ff heel wat anders dan 45.000. omgerekend +12x zoveel aanhoudingen