er zijn er ook die blijven praten en niks zeggen...wat heb je liever?
maartens mening wisselt net zo snel als gordons stemmingen. verleden week was t 👏sie…
benen heel gelukkig😊. hoe kritisch op gio was je?
klopt en toch..stel dat je met 2 6 wint..faalt de taktiek dan ook? had gekund nl. maar lamlendigheid troef.
stel gio de vraag maar..hij heeft t niet blijkbaar. tis lamlendig.
twijfelen aan deze rode kaart😂😂😂
leuke discussie😊...feiten zijn zoals ze zijn, krant mag daar mee om gaan zoals ze wil. o…
unilever en sociaal beleid gaat niet samen niet voor niets komt rutte daar vandaan.
graff met name..ook in spanje goed terecht gekomen. tininho had andere kruiwagen dacht ik..
arie haan als scout vragen..af en toe een miskleun en wat extra geld kwijt.. maar ook een pablo sanchez…
ik nog niet..linkje?
frank, heeft iemand al s gezegd dat jij erg goed bent? doe ik t nu.
dus onderling resultaat telt? mogge overigens..
vechten en bierkaai..laat gaan. veel plezier daro.
dat zijn we wel gewend toch van die kliek?
niet zo bescheiden..
waxtep vs oenehoopa..om naar uit te kijken..
waarom nu pas? samen was links de grootste partij geweest!
denk een stagiaire..
dat is wel zo..maar gooi er wel argumenten bij ipv slechts telkens dit. over 2 weken is…
zeg t niet snel maar vond t wanprestatie. de bal van toornstra..80% leeg doel..en dan de bal aaien. niemand had overtuiging.
op basis van wat is van nistelrooy een musketier?
diks kan niet anders ivm blessures..nieuwkoop rb is ook ok. vihena heeft, bij mij, krediet.larsson logi…
lees de te verwachten opstelling..al beter..
hou die gekke buijs in de gaten..die gaat goed terecht komen.
kan jij niet s een gesprekje regelen? 🤔 ik wil m niet afvallen maar moet nu wel stoppen met die opstellingen zo..nja..te maken😒
ok ander issue dan gedacht...grappig wel..los van dat ik jou/ad er niet in herken..getuige s…
nog niets gelezen..in vi over de teleurgang en redenen gok ik..wijzend en om zich heen slaan…
hah..gewoon nieuwsgierig..waarom nu wel? niet actueel, geen nieuws..
ik lees een gefrustreerde man..ik lees geen argumenten.
en een biertje..3xwaar. maar ook beledigend waar voor exact tzelfde vertonghen 3 wedstr kreeg?ajax zel…
klopt...en toch erg makkelijk. er zijn voorgangers en ook gestraft. ik mis de verontwaardiging deze kee…
zou je wel verwachten toch of niet?
komt er een vooronderzoek knvb naar viergever dat je weet?
want we gaan vol voor frank de boer? of dick nog ff? of guus boven koeman? er is geen alternatief. bo…
mogge..ik heb spotify account binnen abo..mijn vrouw kan die niet tegelijkgebruiken dan maar heeft ook kpn. hoe los ik dat op?
ja leuk al die gasten int uitvak gooiend met van alles naar zijvakken en beneden, en hun suprematie i…
ik doe mijn oude pet op en douche en scheer me t/m de wedstrijd niet meer. dan winnen we op zeker.
zelfs niet trots.
erg christelijke gedachte ook. mag hopen dat petrus sybrand en chris aan de poort tegen houd tzt.
walgelijk. de man die dit de wereld in gooit trouwens ook getuige de bijdrage van zij…
de toornstra vorig jaar had er nu al een paar in liggen..dat was z…
dat gaat jens worden..
vraagje..de 3de plek gaat op doelsaldo of onderling resultaat?
jip..maar toch weg gegooid geld
ik heb totaal geen beeld van de sterkte van die ploeg..jij? waar mee te vergelijken?
zo kan je het ook zien..
volgens mij zeg ik niet dat het acceptabel is, ik zeg dat je niet alles onacceptabel moet vinden.
dat je, professioneel gezien, dat blijft uitdragen begrijp ik. ik vind het echter te kortzichtig..sorry.
een analyse helpt een helder beeld te krijgen toch? je kan ook altijd alles onacceptabel vi…
jawel, dat het even tegen zit, toornstra schiet in de wedstrijd jaar terug er 3 in, nu niet…
mijn vrouw vond zijn vrouw nogal...aanwezig. ik heb haar uitgenodigd om een keer mee naar de kuip te gaan😊
10 jaar gelden stond az bovenaan, ergens in 1992 roda, in 63 na de strenge winter holland sport ff.
gingen ze daar nu ook referendum houden voor onafhankelijkheid?
1 bestseller om de 18 jaar is blijkbaar genoeg..verder ajax 8, psv 3, door jullie aangekondigde uitda…
krijgen we nu de hype bosz?
de onderwerpen komen gewoon naar je toe tegenwoordig..
wil iemand haar vertellen dat ze recensies schrijft..en televisieoptredens maar niet moet doen. ze ga…
wat is die jansen eigenlijk een verrot slechte spits..
thx..wel warm idd. ik las over een principe accoord die de polder verder in moet..is dat nog t a…
ik wil sowieso wat info over pensioenen die via de polder moeten lopen..ik kom er via google niet achter. tips?
kniertje ook in kabinet dan? toen ging de kleine man ook met de pet in de hand langs de baas. goed gevonden dus van segers.
ik denk dat je gelijk hebt..alleen is men daar bereid een team te zijn.
klopt. daarom begreep ik alle negatieve termen niet mbt int. clubvoetbal als bv onthutsend. dit is t..meer niet.
mooi gedaan..mag ook eens gezegd.
ga jij eigenlijk naar t wk?
maak geen uitzondering voor je zelf of beroepsgroep..maak dat mogelijk voor iederee. wees solidair.
davis cup weekend alweer?
hij kijkt ook echt gelukzalig uit de oogjes die gast...
haha..nja voorin had ik al tegen psv willen zien. achterin vond ik t fris wel.. gio moet gewoon zijn se…
ff eerlijk nou..waarom vind je dat belachelijk? wat verschilt dit nu met wat we hier gewend zijn al…
wie is die gek die zo loopt te gillen vlak voor de aftrappen?
veel platteland..veel mogelijkheden voor moestuintjes..
omdat ze hapert in intervieuw? had jij ook last van begin dit jaar dus flauw. inhoudelijk moet je sowieso…
dat ie hautain voetbalt en dezelfde fouten maakt? klopt. maar vergelijkingen trekken..heb je niet nodig om een punt te maken.
met scherper bedoel ik bv de kwalificatie die je tapia mee geeft, dat is bijna populisme. dat mag, maar…
sja als we die kant op gaan..graag 2 aan 2 hand in hand lopen, jongens korte…
stukje op premium vandaag is niet je beste stukje ooit😊. lijkt wel, over de hele media linie, dat alles scherper moet. waarom?
ik ben tegenstander. dit is een manier om populaire standpunten ondoordacht voor elkaar te krijgen. soms…
tapia en stjuste laten staan. dynamischer dan verleden. kan ook positief uit pakken. cl geen graadmeter…
altijd blijven lachen adriaantjuh😂😂
mistte de voorpret..bv kramer niet op de bank. waarom dat dan denk je?
goeie gozer wel..al kijk ik niet naar dit programma..
hou t gezellig daar hè..
daar heb je de brede selectie voor toch? het loopt even niet, ik denk door wat verkeerde keuzes. herpakken nu en niet zeuren.
misschien moet ieder voor zich beslissen, beter als oordelen.
oke je hebt geen glazen bol maar eigenlijk lul je ook maar wat in de ruimte hè..
media markt rotterdam heeft t ook druk vandaag hoor..
die online staan. kom aan.. overigens goed door beveiliging opgelost. wel begrip overigens.
beste ziggo..voortaan ff goed aangeven vsn die tassen. publiek is vn bejaarde bakvis die niet zonder kan…
zou best kunnen dit..en dan dinsdag kramer niet, en berghuis weer. ik ga er van uit dat gio ook leert van foutjes.
maar beste lilian..er was en is toch een meerderheid in de kamer? waarom nog geen uitvoering dan of l…
ik kan hier dus echt niet tegen..pissed
voor een journalist van een grote krant een gekke tweet. ik lees beroerdere reacties, maar die kan ik dan wel weer plaatsen.
dat zijn politieke keuzes die je maakt maar iedere partij dekt die keuzes financieel af. van links naar rechts.
maar wat is dan je punt? alles wat geld kost moet de sp betalen?
nou de zorgpremie gaat omhoog bv. wees niet bang, er staat altijd wat tegenover bij de vvd.
jan weet niet dat loonsverhogingen geregeld worden in een cao...sja..ff ergens ander een meninkje over hebben maar..
je word er op zich geen kampioen mee nee..maar bulykin hielp ajax ook aan puntjes.
arbeid..techniek en onvoorspelbaar bij invalbeurt. das een twist in een vastzittende wed…
nja..pinchhitter laten blijven. zoveel klasse op de bank tegenwoordig. in winterstop ver…
wat foutjes in de feiten maar ok..
als toornstra de 11 maakt gaat dit al niet meer op. bovendien niet echt mat en leeg feyenoord gezien na min 2.
stop met dat gezever...in de jaren 7073 was de competitie ook met 18 clubs. o.a. telstar..dws..holla…
dan zeg ik..wat een paardelul.
vertel m ook dat kramer dit niet kan..
😅😅
larsson meemt beter aan..passt beter.. verplaatst beter.. kopt minder maar daar ga je t niet van hebben…
man zo n speler hebben en dan niet gebruiken. begrijp ok niet. kramer gaat uit bij psv t verschil niet maken. maja
jij..met jouw invloed..jij krijgt t toch wel uit gio zun hoofd gepraat dat kramer nou niet de ideale ve…
realistisch stuk mikos over superleague. dat zal ook wel gebeuren.
jip..zo moet het hele journaille het bekijken. laat realisme zegevieren..poeh wat een zinnen..
njah..afdrogen komt in de buurt wel😉
maar..ik lees geen termen als afgaan..weg gespeeld..blamage..
had m gezien en ook de terechte opmerking hoe duur een kaartje daar wel nie is...
oo zich schrijnend t verschil..alleen op de opstelling van f was wel wat op te merken..ook vooraf al. leuk leermomentje.
buitencategorie...gewoon accepteren.
had jij wat anders verwacht?
want?
je kan gaan afzeiken..je kan ook accepteren. dit is 2017 en zo liggen de zaken. paar clubs bepalen..k…
wie in de spits? las kramer maar zal toch niet?
hi, rijden er morgenavond nu wel of geen treinen delft zuid tot feyenoord stadion? op jullie planner wel..op 9292 1 om 18.42
vorm van nieuwsgierigheid..
die laatste moet ik nog lezen maar vrees geschreven uit rancune.
nou gaat meer om de volgorde..de nummers zelf zijn denk wel de bekende.
kan je m niet kwalijk nemen hè..we zijn niet allemaal even slim
vanuit deze goede selectie moet je 4 4 2 spelen nu..
dat idiote zg volkslied daro..
iets te vroege tweet
de hymne al beetje geoefend? tis ook jouw debuut op dat niveau hè!
sry..wat een naieve opmerking. dat doet niemand na verkiezingen vandaar de teg…
begin met die kutklappers te bannen..
die 4,1 lopen achter kleintje pils met klappertjes in optocht naar thialf. krijgen we die shit weer.
de reden dat politiek zo ver weg is gaan staan van het volk. spelletjes..niks anders. los…
ongelooflijk dit weer..
over welke dag gaat dit? ns lult zich klem..die verklaringsn kloppen niet. afgelopen weekend zelfde discu…
geen hoedjes..brillen..tattoos van onder de oren naar de bilnaad.. en overige bling bling. jaren 80 intervieuw..hè lekker ff.
nogmaals de vraag..de deeltjes van de brand in tuin ect..kan dat g…
mogge..oo branddeeltjes lijkende snippers in tuin en op auto schipluiden. kan dat gewoon opgeruimd?
en waar gaan we actie voor voeren?
niet echt gelukt hè
ben bevooroordeeld ok..maar dit dus. zo waar..treffend raak.
deze begrijp ik niet..er moet geplanned worden toch? op deze manier kan ik als klant niets plannen nl. is er iets te regelen?
dat begrijp ik..en dat weet ik..maar mijn zwangere dochter vind dat best een eind lopen. welke weekenden nog meer?
brrr jongens weer geen extra treinen naar de kuip zondag? wanneer zijn jullie keertje klaar daro?
waarom niet, iemand moet t doen ook.
heilig geloof..daar gaat t vaak al mis..
uhuh..is idd veel beter dan, bv larsson. hij was psv ontgroeit ook.
misschien is het een christelijke gedachte mensen eerder bij de heer af te leveren..
scherp man
beetje ego hebben we allemaal mikos, de een gaat er wat gereseveerder mee om dan de ander..dat wel.
vandaar het lek..ap wilde achterban testen. ik mag t hopen..weg met overmoralistisch gedoe.
is t bericht van larsson ergens in de verte iets van een waarheid?
per ongeluk sry verleden week uw programma gezien en bewust deze week weer..mijn complimenten er voor.
dat dan weer wel😊
nja doorgaans ik ook niet..de bekerfinale verleden jaar was wel raak. weg jas. maar ook ik heb zat mooie fotoos.
tot je er naast staat..en je kleding naar de kloten is. t word niet eerst netjes gevraagd aan je namelijk.
wat kan ik verwachten? moet nog op vakantie😉
jongens het moet allemaal nog beginnen hè..lief zijn voor elkaar.
ja precies..ik zie nieuwe werkgelegenheid☺
dan verschuift t probleem. als hij slok koffie neemt ziet ie die…
dat is bv 1 niet goed uitgelegd onderdeel. wie bepaald wat in we…
hah bas..deze x zat ik thuis en was al niet te volgen..rol voor speaker in stad…
ze is knvb? prima..gebruik ook clubfora en supp verenigingen zou ik zeggen..you tubu..…
begin met de regels goed op een rij te zetten en uit te leggen in diverse media. ik vind…
daarom..tweeledig..prima voetballer maar bv niet de drive van kuyt meer. we gaan t zien😊
er komt ook wat binnen en rvp kost ook wat en gaat minder brengen eventueel. restwaarde 0.
amrabat rb voor diks..signaaltje wel hoor. maar focus moet op aanval..moet iets bij..larsson echt onmogelijk?
dank voor je antwoord. neem dat in de discussie idd tzt mee..het is persoonlijk en eigenlijk niet te definieren. succes!
beste henk, al eerder gevraagd maar geen antwoord wat is een zwaar beroep. beperkt zich dat tot het…
verder leuk geschreven als altijd..
ik heb 3 kinderen en wat aangewaaid spul..het is een bepaald slag probleem, geen compleet jongeren pr…
ed..collegaas worden niet afgevallen naar buiten toe. bovendien heeft driessen een a…
die gast wil aandacht..altijd. zijn krant is in nood en hij moet wat.
sowieso...altijd..
volkomen irelevant. de komende jaren blijven het er 76. hadden we maar anders moeten stemmen toch?
heb net 10 minuten gekeken..voor t eerst. en voor t laatst.
jaja ..je zal dalijk net een stem tekort komen en je krijgt m van deze altijd gezag…
feyenoorder..en dan maakt de rest geen donder uit toch?
twitter moet wel leuk blijven hoor..wakker worden met een foto van die bloedhond is geen pretje..😝
is t ook wel..maar de prijzen schuiven mee de lucht in. vind je 19milj voor karstdorp gewoon? ik nie.
tis niet je dag hè?
eva is hele seizoen in vorm..daar ligt t niet aan. denk dat derksen de radicale twist wel zal nuanceren.
zal gewoon een basislijst zijn en toch niet per keer ja/nee? en waarom hij dan niet? goeie voetballer.
toch een aantekening definieer maar s een zwaar beroep. gewoon leeftijd als referentie!
heb nog antwoordnr/ adres tegoed van jullie want ah wilde het niet in ontvangst nemen zonder🤔
ok..ik moet dat aannemen, jou/jullie weten/ervaren dat beter dan ik. succes daar mee.
ik volg t nieuws, actualiteiten, lees krant en apps. ik kom die stigmas nooit tegen, serieus. en naivite…
ik bedoel t niet negatief maar waarom moet ik dit van je weten? lastig voor jou, tuurlijk, en je naasten,…
nou..geweldig
dankjewel! het was een korte maar innige relatie. zal ze missen op mijn slaapkamer maar kijk uit naar de toekomst.👊
denk van wel..zie de mail onmiddels😊
ik ga er van uit dat de foto aangekomen is? met nr?
ze stond af en toe al vast..heb getracht met liefde en geduld te reanimere telkens maar helaas. overve…
hi, mijn 2de ontvangstkastje is overleden. hoe kan ik een nieuwe regelen?
ik lees 15 miljoen. ik heb t niet maar is dat een hoofdprijs?
heb m nog life gezien..oranjeierland ergens en ik dacht 22.
interessant wel..hoe zou jij een td invullen?
2017..zoek jij s een telegraaf journalist die groen links stemt..
mee eens. waarde van de prijs nu al 0.
wat ik nu hoor van u bevalt me wel. ga zo door en wie weet kom ik wel terug als stemmer. maar niet te vroeg juichen😏
ik vind t uitshirt niet geweldig eigenlijk..
beetje net als wesley verhoek..buiten den haag luktte t niet. hoop niets ernstigers trouwens.
populair ben je daar al snel hè, dat zal iemand m toch wel gezegd hebben?
helemaal terecht deze actie.
misschien om niet te rijk te lijken en voor haps 15 mlj te moeten betalen?
zo werkt t toch naar beneden door van az naar sparta of almere? dat is toch niet ni…
ik heb t geprobeerd met ekdom maar om nu sochtends om 6 uur al mee te stuiteren..pfff. ga dat weer do…
tot 50 jaar geleden deden katholieken niet anders. vanaf aswoensdag tot pasen. heb er niets mee, heb er niets tegen. rare ophef.
vingerwijzen helpt niet. u wil regeren, prima, maar noem u zelf niet progressief en de cu op vraags…
en de wat minder hoog opgeleide? waar trekken we de grens?
zag m voorbij komen..inmiddels t nieuwe goud dat schitterende boek van jou😊
maar ja..willen we dat..
ik ben ook dolenthousiast..man..20 miljoen en vervanger in huis😊😊
succes heeft vele vaders..maar hij zag t wel😊
60% herinvesteren in 3 a 4 spelers.
er zijn nog wat dingen meer te regelen voor werknemers als je aan de knoppen zit. of terug te…
waar te beginnen😂??
geen v persie in beeld?
stap in het gat van gl en je kan iets betekenen voor de 45% die niet rechts gestemd hebben. alternatief word minder.
gemiste kans, hand overspeeld, tikje arrogant ook. wat had er wel niet bereikt kunnen worden?
weer naar de coolsingel morgen dan?
goed verwoord!
ieder zijn voorkeur dus😉
ieder zijn voorkeur.
cilissen en veltman begrijp ik niet helemaal...het centrum is mooi en goed ingespeeld en de spits die s…
je kan volgend seizoen wel vanuit je skybox je werk doen😉
waar waren de watchers om dit destijds naar buiten te brengen? dubbel eigen belang?
dat dacht ik ook. wat is daar de reden van? dubbele petten? eigenbelang? leve de vrije, objectieve journalistiek!
wat ik lachwekkend vind met al die watchers..niemand wist iets..of heeft iets gezegd. in beide gevallen bedenkelijk.
blijft mijn opmerking overeind die vi lees ik morgen wel..hoe kan niemand dat gemerkt hebben? of gemeld hebben?
ik lees nu over een conflict wat er al even is in de tech staf. dus of je hebt t niet gemerkt..of ni…
ik ben 14 en 15 mei totallloss geweest..moet ook nog werken🤔..beetje periodiseren hoor
mee eens...
weet jij wat echt op de radar staat?
prima allemaal maar ook gevaarlijk. je zal moeten doorselecteren. de nrs 14t/m18 zijn nu onvoldoende. 19t/m 22 jeugd..zo iets.
dat is een nog tijdrovender spelletje! er komt een anoniem plan waarin staat dat de aow op 65 jaat moet.…
beste edith, ik wil graag mee doen maar met een minister voor ouderenbeleid. voorts heb ik van de aow een…
heb je echt lang over die stelling na moeten denken?
beste henk..geef de definitie eens van landsbelang? ga jij t doen als 65 toch 68 word?
ja is een mooie..boek doet denken aan de met zwart/wit fotoos toen wel van phida wolf. lkr man!!
ik zal de hond in de tuin zetten maar..
past ie er wel door heen?
antwoord mocht er ook zijn hoor.. men leeft daar in de veronderstelling dat de aarde om amsterdam draait. laat maar joh..
eens moet je merken dat je ouder word toch? hebben…
dan maar op vakantie!
totti rol?
lekker grote ploegen graag...winnen doe je dat ding toch niet.
eerlijk..ik vond je een nare gast, misschien nog wel, maar die docu gisteren..top. tranen bij die jongen en zijn vader.
en dan denk jij dat die andere 4 jou die 65 jaar optie gunnen? reken je nie al te rijk hè!
complimenten voor 2 mooie, veilige dagen.
je boek..boekhandel gewoon?
dat vind ik te makkelijk geantwoord. hier uitroeien, daar hebben we geen invloed. zo l…
ik moet je geloven maar massaal of individueel? dat laatste is niet te voorkomen. en die geuzennaam?
wat moet de actie daar op zijn?
goed punt. echter 2 opmerkingen..ik hoor t echt nooit in de kuip de laatste 5/6/7 jaar en he…
ik doe t er voor😉
dan hou ik me aan de telegraaf vast...dat ik dat nog ooit zou zeggen..
ik hou je der nou aan hè!
tja..als ik verbanden en complotten constateer reageer ik als supporter. dat klopt ook wel, maar ff gek..zet t s op een rijtje..
dan ben je een echte hoor
ja..ja..ja..nja was te verwachten. het 2matenmeten scenario blijft van kracht. maar ti…
🤔mikos toch..ik zie geen quote dus jij behoort tot ons als je we zegt. ouwe feyenoorder😉
los van dit onderwerp waar geen discussie over kan zijn werken er nog meer mensen dan a…
die verslaggevers..hebben die een opmerkingafstreepkaart dat je weet speciaal voor de heerlijkheden zelf?…
leo is wat vermoeiend gelijk alle ouwetjes met het vroegerwasallesbeter syndroon, maar ik gun het d…
dit..dat..wat..als ik er maar kan zitten.
is dat voor seizoenkaarthouders?
jij weet nog wel s wat vantevoren....word t zondags schermen voor sk houders en maandag coolsingel of??
ik ben toch wel een voorstander. overtuig mij van t tegendeel dan maar.
hij verdient veel respect, zeker. een held is toch wat anders denk ik.
ben jij wel s thuis?
t gaat gebeuren jongen..
en fraser..net van duinen bij je collegas en van wolfswinkel van de week. suggestief allemaal vind ik. zal er bij horen zeker🤔.
klopt..velen..maar er spelen overal spelers met topclub verleden. moet je die dan altijd vooraf ter d…
mwah of word er een item van gemaakt. prima als er echt iets opvallends gebeurd maar tis zo beschuldige…
wat worden er veel insinuaties gemaakt over vriendendiensten van feyenoord tegenstanders eigenlijk..nos..ad.. telegraaf..waarom?
arm sparta...mja..moeten ze maar niet winnen van feyenoord..
nu nog wat puntjes terugdraaien en t word weer wat..
goedemorgen..ik wil graag een wifi storing melden. ik kan bv mijn bankzaken niet meer doen. andere apps werken slecht/langzaam.
bericht ontvangen?
met een vraag over mobiele telefoon kan ik ook bij jullie terecht?
wedstrijd word nie echt serieus genomen lijkt me..gezien opstelling en bank.
wat is de status van de geblesseerden jorgensen, bilal, el ahmadi?
ik begrijp er niks van..met kramer heb je wat aan voorzetten..nu niks.
zeker een punt..al die vaders vroeger konden dat niet. die zijn nu bejaard en zien deze generatie h…
maar dan kom ik weerwaarom in godsnaam dat verdomde sociaal accoord afgesloten paar jaar terug? leuk hoor dit achteraf..
kramer spelen is sparen jorgensen of?
voor uw doelgroep zon beginnen...toch wat overschatting nu😊
ik haal eea door elkaar..de helicopter bedoel ik, zag een foto. ben nu met maandag bezig..soort mash...…
😂😂ik zie nu de krant van gisteren pas..kreeg t nie voor elkaar...maar wat een voorkantje zeg..
blessures vallen mee lees ik? of dagje vrij vandaag een keer?😊
maar van alleen groen kan je niet vreten..niet zo kortzichtig.
waar is je aansteker?
niet zon slimme actie..
je zou bijna wat gaan denken..nee..zal niet..hij niet.
bedje nat anders..we komen niet meer bij hou op hou op
daarom..we liggen hier allemaal dubbel man..kunnen we goed gebruiken🖒
zo oud ben je dus..dacht ik al.
grappig wesley..woordgrapjes. nou weer pampertje aan en bedje in.