geen probleem
wij seh jo151 kunnen/ willen wel?
laten we het hopen 🖒
mooie demonstratie van zowel feyenoord als ajax hoe erbarmelijk het nederlandse voetbal er voor staat.
dat zal feyenoord a1 gisteren ook gedacht hebben 😉
wij zijn inmiddels rond met diepenveen jo151. gr
welkom in heerde !? 🖒
hoi heim, al een reactie gehad? gr
wat een aanfluiting dit
hoi heim, is jullie jo151 geïnteresseerd in oefenpotje op 21 oktober tegen seh jo151?
frenkie de jong, geen balletjes breed of terug. wat een verademing
gedaan
wat er echt gebeurde in amsterdam...
zelfs de efteling doet mee 🖒
de koffie deed het hem. gefeliciteerd! 🖒
in ieder geval bedankt voor de reactie 🖒
🤔
wij seh jo151 zoeken 22 april nog een tegenstander?
ik zag op hart van nederland dat het vandaag nationale opschoondag is. doen jullie mee?
zoeken jullie binnenkort nog een doordeweekse wedstrijd? wij seh jo151 zijn wel geïnteresseerd.. kan bij ons
ik heb u een appje gedaan. gr
seh jo151 zoekt tegenstander voor aanstaande zaterdag 25 februari om 1000 op kunstgras in heerde.
dat is dus exact de huidige regeling 1 euro korting op je contributie per lot. geen verkoop geen korting, dus betalen.
wanneer verwachten jullie de bekerloting voor jeugd categorie b te publiceren? gr
ja hoor. het kunstgras is gereserveerd om 1900. tot vanavond!
nee hoor. bij deze bevestigd en tot woensdag om 1900 aftrappen bij ons 🖒
kom maar bij ons! 1900 beginnen.. 🖒
3108 vastzetten om 1900 uur?
er zit een fout in kalender 2 zaterdag 12 .. op 1510 en 84 dezelfde tegenstander thuis....wij zijn nr 8 en spelen thuis tegen 9
seh jo151 c1 zoekt een tegenstander voor zaterdag 3 september in heerde.
kijk vanavond maar eens naar willem ii...
zit niet te dromen italië, eet je pizza! 🍕
aanstaande vrijdag alleen het 1e lijkt me?
vanavond is de brexit er definitief door? 🙈
dat nederlands elftal is zo slecht nog niet..
zet je centen maar op de oosterburen
seh c1 wordt 2e van de 15 op talententoernooi bij
de wedstrijd van 86 tegen t harde c1 is verzet naar 66 op verzoek van hen.
de kop is er af! nunspeet c2 nieuw seh c1 nieuw 17.
geen zaak voor de knvb, maar voor justitie.
nee🙈 als je tweedejaars in je a1 hebt, dan zal het team gewoon jo191 heten.
klopt, dus zullen alle verenigingen alleen o15, o17 en o19 doen c, b en a. geen toevoeging dus naar mijn mening.
dat zal gewoon via spelerspassen gaan. er verandert niet veel. het beestje heeft een andere naam.. onzin dit.
dan is dat jo181, als je a3 eerstejaars hebt dan wordt dat jo182
theoretisch leuk. in praktijk staan dezelfde teams en indelingen op het veld met een ander naampje.
gewoon jo191 jeugd onder 19 1e team
tot dan!
woensdag 15 juni om 1900 in heerde ? gr
ga even navragen hoelang het sportpark nog open is. je hoort van me!
nee dat lijkt me niet verstandig. wellicht tot volgend seizoen
nee nog niet. gaat om nieuwe selecties
seh c1 zoekt voor woensdag 18 mei een tegenstander om tegen te oefenen met de nieuwe selecties, in heerde. 2e klasser.
wat een beschamend verslag. zou de club sieren om zich te distantiëren van het racistische gedrag van een aantal supporters
oké helaas! bedankt voor de reactie!
heeft jullie c1 zin om te oefenen in heerde tegen seh c1 aankomende zaterdag? gr
ik zie dat jullie c2 vrij is zaterdag. hebben ze toevallig zin om te oefenen in heerde tegen seh c1?
onzin
seh c1 zoekt voor zaterdag 0503 een oefenwedstrijd. wij spelen graag thuis.
wij seh c1 zoeken voor 6 februari nog een tegenstander op kunstgras in heerde. intresse?
er wonen inmiddels een zwarte specht en een wespendief in. laten staan s.v.p.
nou in ieder geval rijker 😁
kom ik nog even op terug. vtc is bezig om dit structureel op poten te zetten.
eens
helaas. arbitrage kost feyenoord 2 punten.
een mooie 30 overwinning op t harde c1 gisteren
dat had ik ook gezegd als ik 20 meter van vv nunspeet woonde erik p
onvoorstelbaar, geen spits erbij in een alles of niets wedstrijd!
verkeerde opstelling, verkeerde speelwijze! gio faalt voor zijn eerste test.
kunt u mij privé bericht doen? wij seh c1 zoeken nog oefenwedstrijd thuis in heerde.
ongelooflijk? ik geloof het meteen😳
heerlijke goal wijnaldum!
zwaarbevochten knappe overwinning met 10 man!
.@knvb ik denk dat de johan cruijff schaal wint. wat denk jij?
stelletje gekken bij elkaar
eindelijk weer een vriendschappelijk potje dat leuk is om te kijken 👍
belgië door? lachertje!
feyenoord en ajax moeten stoppen met vast salaris. gewoon betalen per punt.
we zitten er weer klaar voor!
nunspeet a1 wint door penaltys!!!!
angst heerst, teleurstellende 1e helft
hopen op een mooie open wedstrijd met veel goals!
de doellijntechnologie bewijst zijn meerwaarde in het voetbal! 10
vandaag met c2 een knappe 10 overwinning op owios c1!!
haha vooral goed uitgespeeld bij 40 he
fotos nunspeet b1 go ahead kampen b1
sterkte!
arbitrage weer lekker bezig dit weekend
gefeliciteerd hea!
haha ben benieuwd! leuke vent
dat zijn derbys! na 8 min 3 goals 21!
tjah dat gebeurt er als een aanvaller moet verdedigen in eigen 16
dat komt goed
svi heeft 2 kunstgrasvelden zo uit me hoofd
thuis.. jullie kunstgras?
betekent en eencelligen! gloetjuhs veijenoort
echte kerels zijn niet bang voor vorst!
vanochtend was 3/4 bespeelbaar. nu 7/8 . goed dat het teruggedraaid is!
b1 traint gewoon neem ik aan??
belachelijk. 3/4 is gewoon bruikbaar voor training...
doordeweekse wedstrijd ook mogelijk nunspeet c2?
wederom 90 min. heer en meester! ajax figurant.
er is gekeurd, definitief afgelast!
definitief afgelast nunspeet 1 nieuwland 1
de weergoden haten voetbal
afgelastingen vv nunspeet
we zitten er weer klaar voor!
leuk avondje nac gehad!
ja oud en nieuw wordt iets minder duur zo
hoop dat verwende mensen genieten van deze vrije dag. sommigen onder ons moeten keihard werken op 2e kerstdag!!!!
zal hem ff voor c2 bekijken
sowieso middenveld clasie, klaassen, ziyech. aanval toornstra, milik, depay
clasie? toornstra? o
haha ja zul je altijd zien als je zoiets tweet hè haha. hij heeft wel mijn unibet gered
poe overleven voor feyenoord, maar de 3 punten zijn binnen!
ga je deze tweet nu verwijderen? p
wat een fenomenale redding van vermeer!!!!
ten rouwelaar gaat ook alles behalve vrijuit
heerlijk kazim!
thnx! kom na de winterstop x bij jullie!
fotos nunspeet b2 terschuurse boys b1
zaal vol topsporters luistert ademloos naar de big boss. mooi!
beste man op het veld kenneth vermeer. slechtste man scheids
leuk voor je dat je pa er is
dus de nieuwschapen rechtsbuiten gaat vlammmmmeee
ok, kom ik ff kijken
hoe laat begint de wedstrijd?
ja met 3 punten meer kan je 7e staan
vandaag 11, maar we staan netjes middenmoot
ja maar zoals oprah ooit zei het verleden kun je niet veranderen, maar de toekomst wel
en nu zaterdag doorpakken!!!
er is niks zo irritant als een gedicht aan de wand wordt het waarschijnlijk
ja je profiteert nu gewoon van het goede c2 seizoen p oogsten he haha
ja daar wordt je niet vrolijk van! tevreden over b1?
klopt.. 1e ook weer lekker! 20 voor, rode kaart en weg zijn de 3 punten
slechte dag voor de jeugd van vv nunspeet als ik de uitslag en zo hoor
heerlijk assistje
de keeper van heracles keept een wereldpartij
door jullie of door albatross?
vermoed dat mijn voorspelling rutten voor de kerst weg toch uit gaat komen..
feyenoord heer en meester, maar vergeet te scoren! jammer, eindelijk een goed feyenoord gezien.
na een kwartier is de conclusie
haha ff jackass 3d kijken
scheids fluit wel heel makkelijk voor de tsjechen!
weer thuis van turkije!
lekker bakje koffie doen aan middellandse zee!
ff eten en dan trainen
belachelijk! eerste helft heer en meester, 2e helft dramaaaaa!!!!
van oene?
waarom afgelast?
immers schiet weer ff 2 meter voor doel nog over
lees morgen de stentor maar
hoop dat het gerucht over ziyech klopt!
12x geel, 1x rood en doelpunt in 91e minuut. dramatische pot
heeeeeeeeeerlijk! !! 01
het was henk baum van dvs33
haha die tijd is allang voorbij
juichen bij fifa 14 telt niet mee he
laat het maar snel weer beginnen. lang genoeg stil gezeten!
maar oefenstrook 4 is leuk voor een maandje en daarna bagger p
ja idd maandag is standaard voor a selectie en woensdags zit je ook nog met alle teams die bij erik moeten..
b1 heeft zelf om maandag en woensdag gevraagd en andere teams wilden niet ruilen.
haha nou niet zozeer nunspeet hoor
ff een routebeschrijving printen voor oefenstrook 4 p
maar wel lekker dat jullie zo snel kunnen beginnen!
haha vergeet dat maar pittige competitie! b1 ook aan de bak.
beste goal van brazilië! zie je wel, die moffen kunnen er geen zak van.
zondag duitsland pakkie geven!
laat maar beginnen!
toch blijf ik romero een prutser vinden!
fluit maar af, uitslag is al bekend!
spannende pot! maar kwalitatief uitermate terleurstellend, oftewel kut!
terug van tandarts! lekker zon verdoving in je bakkes. .
joo volgens shamel komen jullie ook??
moet suárez bij martins indi proberen, die hoekt hem neer!
jammer hoop dat uruguay er uit vliegt
suárez weer gebeten
geen 62 maar 52
prachtige goal! 52
nou zwitserland kan beter een container op goal zetten!
haha senderos houten klaas
heerlijk engeland!
prachtig volkslied. god save the queen !
ja daarom. louistje neemt wel souveniertje mee
ja maar brazilië belachelijke pen al mee en goal onterecht afgekeurd.. wordt allebei geen makkie
zou kroatië heel veel onder doen voor brazilië? vind kroatië hele goede indruk maken. .
zo belgië kijken! hopen dat ze winnen
vanavond om 1800. mooie pot!
14 klapper tegen 3e klasser! 140 gewonnen
haha hoort erbij
gefeliciteerd ouwe
mooi potje gezien! 01 verloren van t harde c1.
heerlijk!
dm
morgen laatste x c2 in wedstrijdverband
prachtige goal!
hoe oneerlijk! heeft ook een baard, maar niet op haar gezicht!
heeeeeeeeeel goed gedaan van ilse de lange en waylon!
mooi statement van westeuropa!
jeujj wat een wind!!
geen water
heerlijk feyenoord!
slim van de ajax supporters. wordt weer 5 jaar geen uitpubliek bij de klassieker !!
voor het eerst dit jaar successupporters in de kuip
i.p.v. goeddie
goed
heeft amsterdam een annuleringsverzekering????? 20 feyenoord! !
wat een drama scheids is die blom!!!!
nou na 2 maand maar weer eens ff ghosts doen!
vanmiddag lekker feyenoord kijken. vertrouwen is groot! 40?
is goed ik zal je wel fff dollen! kwart over 7?
beginnen maar!!!
30 boetius! !
moet zo eten. morgen?
hoelaat
c2 laat kop weer hangen na tegengoal 32 02
morgen uit naar vvop c2!
fifa 14 doet het niet???
raar verhaal
niet meer.. heb ik aan jou verkocht
haha en in het echt
met die zijwieltjes haal jij de 30km niet eens
snelheidscontrole op de nijverheidsweg!
als siert de vos scheids is dan moet je 4 ledematen kwijt zijn voordat je een penalty krijgt
neymars voet wordt gewoon aangetikt!! terechte penal!
jammer, had het wenger wel gegund om van mourinho te winnen
70 min gedomineerd, 2 kansjes weggegeven prima pot! 13 gewonnen
gestart met fut!
morgen tegen hoevelaken c3
in overweging
op afstand mijn koelkast openen en biertje komen brengen
ja dat zeker! ik kan zelfs me tv zappen ermee ^^
jawel, zoek note 3 maar eens op
nieuwe telefoon binnen!
morgen nieuwe mobiel halen
4 min in blessuretijd de 12 tegen gekregen ontzettend zuur, maar heel trots op ons spel en werklust vandaag!!!!
haha derksen is los
ik kom bij je kijken buurvrouw
in hierden?
hoelaat begint je wedstrijd vanavond?
kt ajax, denk eens aan mijn unibet!!
eindelijk thuis. vanochtend 82 verloren /
zie rutten opvolger koeman
wtf fred rutten opvolger ronald koeman !!!!!!!!! s
twee feyenoordsupporters kwamen vanmiddag onder de trein en zijn overleden
ben je thuis????
in mijn huiskamer ^^
eerste overtreding feyenoord wel geel
ajacieden zijn ook weer wakker
hopen dat binnenkort weer uitsupporters mee mogen naar de klassieker
zij kregen vrije trap..
nee 01. onze 10 wordt onterecht afgekeurd en hun krijgen een penal voor een schwalbe
pfff baal nog steeds van onze scheids vanochtend!
door schwalbe penalty tegen gehad en doelpunt van ons onterecht afgekeurd! 01 verloren
morgen hopelijk een goed gevolg geven aan het goede veldspel van vorige week
goed gespeeld !
joram ik weet dat je me mist, maar je zit niet meer in de c2 ^^
wat een heerlijk doelpunt van huntelaar!!!!!!!!!!!!!!!!!!!!!!!!!!!!!!!!
scheids bedankt! 2x geen penal, 2x geen rood en buitenspelgoal
koeman moet hij hem met twee handen vasthouden?
feyenoord wordt alweer een penalty onthouden! !
ajax veel sterker, maar verzuimt wedstrijd op slot te gooien
ja zeiden ze net.. ze zijn al in gesprek
foxsport van gaal naar feyenoord
hij had eerst van dat paard af moeten komen
nee gaat lastig te paard..
je had onze mogen hebben! !!
en de complimenten aan !
33 gespeeld. tevreden over het vertoonde veldspel! ontevreden over de uitslag.
morgen eindelijk weer aan de bak! c2 harskamp c1!
morgen werken en daarna ff naar nunspeet owios
het publiek pakt elk vingertje om enthousiast te worden. tenminste zij die er nog zijn... oei pijnlijke diss van commentator
bij salzburg heeft er ook 1 een dooie chihuahua op zn kop
lekker getraind met de dames!
geen buitenspel
vind spel barca gewoon saai om te zien
kramer geen goud ! wel weer goud zilver brons
nou reportage slaan we ook maar een keer over
01 janmaat
dat wordt avondje gamen
oooooh dat is zat toch ^^
en dan donderdag weer bij d1?
haha niet geïnteresseerd
die van pelle was ook zwak ingeschoten
jeuzessss wat een goal!
boetius !!!
fantastisch van boetius
sommige mensen zijn niet gemaakt voor
kom bij je kijken!
ja wordt nog spannend. .. opzich vanacht mooi droog maar morgen ochtend weer regen zeggen ze...
ja c2 is al afgelast uit
morgen weer geen wedstrijd
veel plezier!
ff reportage kijken en dan slapen
mounir, mounir, tymen komt eraan!! tymen komt eraan!! met
het enige wat vanavond duidelijk is geworden is waarom het programma heet
en de dader heeft zich verklapt ^^
ok, doe dan net alsof je kunt lezen ^^
ja koop ff lkkr een tvgids
vanavond kijken!
en terecht!!!