moet je ff uitslag door appen naar arjan
vandaag mijn eerste doelpunt mogen maken voor het eerste van mijn clubbie in een 43 overwinning op vv emmen. nu nog beter worden
ook als feyenoorder kun je maar 1 ding zeggen geef niet op nouri!
trots op dit team van ! 3de positie met 101 doelpunten in 22 wedstrijden. had meer ingezeten maar helaas…
jo151 wint sterk en overtuigend met 61 van hzvv jo152. het vergeet alleen een paar doelpunten bij te prikken.
dit maal met 11 veldspelers weten te winnen met c1 van achilles. eindstand was 32 volgende week meppeler derby.
mix van cjeugd van 9 spelers pakte knap een punt tegen 11 van sjo j.v. oostenburg c1. eindstand 22
ik zie deze krachtpatser graag terugkomen om onze club nog sterker te maken voor het kampioenschap!
helaas, dan pakt msc maar volgend jaar van een ander 6 punten.....
iets voor ?
je moet toch ergens een excuses zoeken........
vandaag weer meer dan verdiend gewonnen! en we blijven maar stijgen!
prima overwinning! goede teamprestatie, 26 overwinning op urk. 3 puntjes in de tas naar meppel.
zeg jij het maar!
tuurlijk! kan niet missen dat feyenoord wint
hahahahaha, dit is de beste grap van het jaar... gefeliciteerd edje!
dankjee edje!
het gaat gebeuren! het bekerseizoen openen tegen de buren.. alles er aan doen om de eerste 3 punten van het seizoen binnen te halen
vandaag eerste wedstrijd naar de zomerstop! nieuwe ronde, nieuwe kansen. vandaag wat laten zien!
oke bedankt. live on
geen antistoffen live on
kan iemand met bloedgroep ab, bloed krijgen van iemand met bloedgroep a? live on
en spregedrag is? komt dit ook alleen bij vogels voor? live on
wat zijn gedragsketen? live on
een verandering in het dna of gen dacht ik
en wat bedoelen we met spergedrag? live on
wat zijn gedragsketen? live on
hoe kunnen we vragen stellen via meerkat?
matchfixing
wat een partij! gary anderson gegunde winnaar! phil taylor heeft er wel een mooie partij van gemaakt
inderdaad, jammer dat het nu zo ver gaat dat zelfs schoenen worden gejat..
sneu dat mensen dit doen......
jammer dat de winnaar van al bekend is, oneerlijke strijd. het was een individuele talentenjacht maar dit seizoen dus een uitzondering
wat een serie, wat een eind.....
hilarisch altijd
wat een opluchting, eindelijk bio verlag ingeleverd
wie had dat gedacht!? van 51 winnen van spanje, naar een ek 2016 zonder oranje!!
blind laat even zien dat hij 20 miljoen waard is..... pfffff
slechte en rommelige 1e helft van b1. nog wel 10 door penalty via remco maar ruststand is 11
hoppaaa 7 punten! 42 winst op noordseschut. blundertje van mijzelf ook een penalty ingeschoten. verder rens en stefan 2 keer
vandaag weer goede wedstrijd gespeeld, met zn allen geknokt. 24 overwinning. goals niek,stefan,rens en ousamma geel voor rens en patrick
al een tijdje onderweg naar emmeloord. flevo boys b2 msc b1.
cillessen had er net zo goed afgestuurd kunnen worden, en als je ze niet maakt...... overigens natuurlijk was het geen penalty
en dan ook nog backs die alleen maar balverlies leiden en niet goed hun mannetje dekken.....
nodige kansen gehad, en dan nog verliezen. ajax 1 kans gecreëerd en een vrije trap die der invliegt. beter maar dat is niet hetgene dat telt
welkom op de nieuwe msc account b junioren. volg hier o.a. de verrichtingen en uitslagen van b1 en b2.
ik blijf maar proberen....
echt klote, nu licht het er weer uit....
hoe kom jij derop?
beschamend! 2 keer vrije bal op zelfde plek, 2 keer staat wilkshire te slapen! bedankt man.......
gefeliciteerd man!
jammer dit... weggetikt worden door willem ii. had je maar een spits moeten kopen..
kijken! leuk deelnemersveld!
kenneth vermeer naar feyenoord is zo goed als rond, meldt frank de boer. wtf
hahaha zekersss, gaat nu de boeken in
vrij, morgen 1ste 4 uur vrij.....
morgen weer naar school wat hebben we er zin in! 😒🔫
spierpijn, hallelujah
heerlijk dat slapen hier in mijn eigen bed!
wakker, en dan is het eindelijk zover, ook mijn voetbalschoenen mogen de kast uit!
een onverdiende 01 vam te vrede. wie moet dit jaar nou kampioen worden? zou het dan toch pec worden?
en ik ben wakker..... goedemorgen
moooizoo!
betuur, nouja wij hebben in ieder geval mooi sagje gehad, jullie verser ook?
aah klote, wel beter dan ergens midden in baan.. lekker veel licht ook. haha
hahahaha, waar zat je vast dan??
hhaha welke dan?
en we zijn ook weer thuis, pfff wat een avond.......
officieel hij is terug! didier drogba heeft een contract getekend bij zijn oude club chelsea. held
jammer dat de jury uit allemaal argentijnen moest bestaan.......
wel weer wat omhoog in de wereldranglijst!
toch trots dat we zover zijn gekomen, wie had dat durven denken!?!
net als in de finale.4 jaar geleden had robben de wedstrijd kunnen beslissen.
messi voor de wedstrijd who the fuck is vlaar? messi nu vlaar is de beste verdediger die ik tot nu toe heb gezien.
cillessen stuurt higuaín het bos in
finale bekend nederland duitsland
er komt nu geen team meer die met zn 10en voor de goal staan!
wat een wedstrijd, alle wissels van van gaal zijn goed toegepast en de wissels waren belangrijk!
wanneer gaat van gaal depay en van persie eraf halen? ik hoop zo snel mogelijk
doe huntelaar er maar in
wissselennn de vrij en bmi
van harte jongen! mmmm jij was toch niet zon type?
zal wel leuk zijn als msc van sneek wint en daarna ook nog eens van eredivisieclubje fc dordrecht ^^
de loting van de knvbbeker. de tweede ronde, via wel trots dat mijn club er ook in staat!
dat is tien meter hier vandaan
fijn dat mensen oo een random dag even vuurwrrk afsteken..
foto | het nieuwe uitshirt van feyenoord. via hebbeennn
wat een top wedstrijd weer! ongelofelijk wat een passie van algerije
wat een goal nog van algerije
indd, nieuwe rechtsback van het nederlands elftal zeg ik! huntelaar verfient ook een plekje maar waat?!
kuyt werd al afgeschreven door ee mensen, en dan nu zo spelen
aiaiai wat een man! en oo plaats 2 klaasjan huntelaar
in huize van keulen is dirk kuyt benoemd als man van de wedstrijd!
en dan winnen we alsnog! wat een wedstrijd!!!
doet hij het voor nederland?
en dan toch die gouden pik voor van gaal! wat een assist van huntelaar!
sneijderr!!!
blind sr. heeft waarschijnlijk een gied woordje gedaan voor blind jr. wat een slechte wedstrijd speelt blind
eindelijk weer een goeie actie van de vrij, bijna beloond
hoe kan je die nog redden !?!??!
inmiddels is de vrij ook weer lekker bezig.............
sneijder
wie is zijn beer vergeten in de cafetaria? we zullen goed op hem passen.
voel me echt goed!
koekoek, wat een baas......
msc b1 zoekt keeper – msc meppel via
over legendarische wedstrijden gesproken..
de mensen die deze uitslag goed hebben zijn inmiddels miljonair
jaaaaaaaaa van persieeee! 41
we tikken ze weg
we wordeen wereeldkampioeeeen!
ooooeeeei wat een aanval
waaaat eeen goaaaaaal!!!
gadver die spanjaarden. kan er niet tegen.
hij raakt hem niet..
gefeliciteerd! x
geen training vandaag
nee ik vroeg jou wat.
ik zeg toch niet dat ze niet mogen gaan. van mij mogen ze alles doen
wat is er zo verkeerd aan dan? en waar dacht je te komen dan? volgens mij redelijk team toch?
niet goed?
gefeliciteerd jongen!
vandaag softbaltoernooi gehad. ging lekker! finale met 140 gewonnen
gefeliciteerd man!
“@iamwesley 12 verloren van de koploper...”
“@xritaa eindelijk klaar met stageverslag”
straks op het hoofdveld bij msc msc c1 hh97 c1
jij met je audioberichten....
waarom dat nou weer? ik gaf je een compliment en dan dit? beetje jammer
met je mooie krullen.!
jij beny schattig jari!!
wat schattig....
gefeliciteerd man!
hoef je wel naar school?
net the hangover gekeken! veel gelachen. volgende week maandag deel 2!
gefeliciteerd taraaa! x
koeman eens een feyenoorder, altijd een feyenoorder ””
nu maat lekker slapen, en morgen laat het bed uit!
wat een wedstrijd... helaas in de laatste minuut de beslissende treffer en dat zorgde voor een verlies... jammer jammer.
lekker die vakantie!
wakkeer, heerlijk geslapen
hij reageert ook niet meer. hahaha rutger, vilgens mij heb je tegen een slechte verliezer gespeeld
gefeliciteerd kirsten! x
okeee, komt bog wel een keer!
strx ff een wager?
echt gay is dat man..... robben, van persie, ronaldo rusten ook niet. dan zouden ze hen verlies toch wel kunnnen nemen!?
barca fans messi en neymar willen 100 % fit zijn en drm deden ze rustig aan hahahahahahhahahahahaha
wie wil tegen mij dan ?
ik wil wel eend een wager tegen 1 van jullie
eerste stage dag zit er alweer op! leuke mensen en leuk werk gedaan.
vandaag is onze vader alweer jarig.. hij wordt nu echt oud
moet je zelf kleding meenemen? justin hoelang was je?
mscers van harte met de verjaardag van jullie vereniging !
wel mooi dat er ook andere teams dan normaal in de cl zitten!
pittig donker oppeens.
jahooor, mij gunnen ze dat noooooit......!
thuis, even laten zien wat voetbal is tegen fc meppel c1
msc c1 verslaat fc meppel c1 met 50.
wakker, matchday, derbyday msc c1 fc meppel c1
gefeliciteerd!
gefeliciteerd
wie is dat dan?
bayern kampioen! wat een goal van ribèry!
daar heb je hem!
dit is dan wel een penalty, maar die ander
wutt weer een penalty...
22 wat een wedstrijd
susan was mijn mol en is de mol!
zoals mata, ozil, lewandowski en balo waren voor 2 of 3 k verkocht 2/2
had 300 k aan spelers. ik kijk op web app, alle spelers verkocht en heb fitness cards voor 45 k gekocht en pro spelers 1/2
5, maarja ik ben gehackt dus heb er niks aan hahahahahha
maar heb je ze niet als je inlogd met ps3
godver maar die ligt eruit bij mij
wat voor pakketjrs zijn dat.?
20 van persieeeee
raak! 10 van persie
msc c1 verslaat kzc – msc meppel via
nu nog maar een wedstrijdje!
coöp met staan we 10 achter in min 5. vanaf 20 tot 35 min staat het 51 met pro goals!
haha geniaal marco van basten
en rood voor kum
jaaa lexie doet het weer!
nu slapen naar lekker dagje.
42 gewonnen van kzc c1. geweldige wedstrijd. en wat een goal van ook goals van 2x en
flikken maastricht kijken!
cijfertjes
hidde reken maar dat ze kunnen voetballen!
31 verloren tegen staphorst c1. nouja jammer dat we een staphorster als scheidsrechter hadden.... wel een penalty gescoord!
en daar ging 1 van mijn mollen....... nu susan dan maar!
msc bekert verder na een knappe overwinning op harkemase boys. 12 hoppa
beetje midden op de weg staan. haha
foto | klaasjan huntelaar in wkshirt van het nederlands elftal.
graziano pelle noemde jan joost supporter van ajax. toen vroeg jan joost waarom? via 433nl
en waar kun je bieden?
dom dat ik reageer.....
hahahaha allemaal naar fox sports 5! kinderachtige reactie pelle! zometeen ook wel op 1
als dit het moet worden.....
wat heeft feyenoord de tweede helft?
pelle, hou je handen thuis..
veel harder raken p
pelle, doe nou niet zo dom aub.......
en de ajaxcieden worden ook weer wakker...............!
aai dit is niet best.... 11
11. dat krijg je als je hem niet aanpakt
leuk dagje gehad, vooral deze avond!
22 gespeeld. en een goeie wedstrijd gevoetbald
zooo.. sportief genoeg hoor ik al....!
en natuurlijk mag pelle ook normaal doen. pijnlijk om te zien als feyenoorder. gelijk heeft hij. maar beheers je als topsporter!
ongeloofelijk.. gozubuyuk een ajaxcied ofzo? jammer
rt voor strafschop, fav voor niks duidelijk
hahaha hele plafond naar beneden. paar mensen zwaar gewond!
hahahaha echt he..!
ik doe normaal. doe jij maar normaal.. ze lijkt gwn oo miley cyrus. quaa zang tenminste ♥♥♥♥♥♥♥♥
hahaha! je moet respect hebben voor iemand....
03 wat een wereldgoal!
je zou maar vakantie hebben......... ken je dat gevoel?&gt
was ik maar eerste uur vrij....
wedstrijd weg.....
dit jaar gun ik het psg im de cl te winnen.! en ibrahimovic de gouden bal! wat een beest!
het was niet eens in zestien
leuke reclame voor de publieke omroep 1, 2 &amp 3
de wereld weet nu wat voor toppers we hebben in nederland!
weer een 1,2,3 tje !
je bent me moeder niet.... haahha
bemoei je niet met mijn leven......
doe normaal aub...........
doe dat maar eem.....
doe je ook mee met race?
yes morgen 1ste 2 uur vrij!
hahah dikke fail. bij broertje gaven ze nog 7 weg, bij mij 3 terwijk ik eerder was
lucky ajax. 2 penaltys 1 makkelijk gegeven..
hahahah volg allemaal voor arjen robben die je niet krijgt. vraag maar met 2 acoount enmijnbroerenik
senn, je moet weer ff volgen. je hebt pro spelers gewonnen man...!
gefeliciteerd man!
nee dat is kut man. speel nu ook meer gta
die zijn verkocht. de beste zijn in ruilvoorstel gedaan. echt kut man. nu heb ik niey eens meer eeb team. 2/2
nee, dat is het probleem dus.. ik was mijn ww kwijt, keek ik ff op webapp. alle spelers weg. wat minder goed 1/2
hahaha ik ben gehackt, 300 k aan spelers kwijt ....
voeg ff remcovankeulen toe
moordvrouw kijken
we worden vandaag toch wel verwend! rieks, immers mooie beweging boetius, pelle geweldige aanval en boetius
wat een mooie! weer boetius! 51
pelle!!!!!! 41 wat een goal!
ik zeg immers is de man van de wedstrijd!
miss! jemig wat slecht ingeschoten!
goal! | real madrid villarreal 31. jesé! dit wordt een wereldvoetballer!
wat een aanval! 21 pelle!
wat nou immers kan niet scoren! hij doet het weer hior!
gefeliciteerd man!
gefeliciteerd! x
we staan allemaal achter je brecht! hou vol ❤️
11 kashia herhaling doelpunt otigba bij heerenveen feyenoord
veel plezier man!
jij hebt wel veel beters te doen zekeer?
paar honder maar
miet dan weer ff geld verdienen..
nieuw teampje
alles geleerd voor engels! word hopelijk mooi cijfer morgen!
ja man... ribery toty gekregen
net klaar met team op futhead nu ff invoeren op ps3
van der bie ofzo?
een geslaagd verjaardagje gehad. alleen last van teen en hand....
dankje x
dankjewel! x
bedankt man1
dankje!
dankje!
dankjewel xx
bedankt man!
dankjewel marlot! x
nou maar gaan slapen. anders wordt het morgen niks!
bijna jarig
weet ik niet. heb ik niet gehoord. we zullen zien....
zin in wedstrijd van morgen!
nog mac gehad met en van ouders.
jammer dat je dan helemaal belaagd word ....
wapp dan
dat het elke keer hetzelfde liedje is
ze kunnen niet iemand anders zoeken ofzo. altijd op 1 iemand maar dat hebben ze niet door.....
zo is het tegenwoordig....
zag het eerste half uur robin pppp
dan worden we maar kampioen!
net als in competitie. nu vasthouden feyenoord!
dan weet ik het niet
niet sbs6?
jaja. maar moet nu al!
we hebben er zin in! laten we beginnen!
maar was wel facking lang geleden voor hem om een wedstrijd te spelen.
dat is toch heel anders of niet dan ezel p
naah hij is wel facking goed. maar mensen zijn ongeduldig
hij is er ook pas 2 dagen.
geweldig feyenoord gezien trouwens! tja op naar woensdag!
gefelciteeerd maatiee
wakker! vandaag 3/5
morgen
vriend. je zegt dat je 200 k hebt
haha hoezo zou je coins weg geven?
indd. eindelijk gerechtigheid pppp
moooizo xoxoxoxoxoxoxoxoxox