dat wordt toch echt even wennen...
prima te doen
uurtje vertraging...🤔 precies onderhoud gepland tijdens onze landing op luchthaven van bestemming. hoe kunnen ze het zo plannen?
ouwe testament?
geflatteerd wel, maar helaas niet onterecht
boeiend!
tja...’t kan raar lopen
ik snap de drukte ivm de weersomstandigheden, maar ik wil jullie echt graag spreken mbt annulering van mijn vakantie!
boehoe!!!!!!
wilde om 9.30 weg gaan, maar net vandaag rijdt max langer dan 2,5 minuut
tapia is nu al beter dan kramer
nu al beter dan tegen city
en zo is het...
middagje in het hol van de leeuw
hoop dat gio het enige goede van vanavond ook gezien heeft amrabat er niet meer vanaf halen dit seizoen
als dit geen hands was, dan weet ik t ook niet meer
stilte voor de storm?
op zich is met 10 man niet handig...maar op zeker minder balverlies nu
zit mezelf in de kuip al jaren kapot te ergeren aan vilhena...maar hij valt toch aardig in
tering...dit is een potje triest om naar te kijken zeg
doodmoe?
tuurlijk, makkie
voor het geval jullie het gemist hebben...
tuurlijk...leuk...
gewoon goed gesprek met clau is beter paats!
voor het geval jullie het gemist hebben...
hoe kom ik van dat voor het geval je het gemist hebt af in mn tijdlijn??
ik ga net kijken, moet ik ergens op letten?
hup
10 min reanimeren is best lang toch?
denk aan je hart...
treurig nieuws
hier ook, zonder hond dan...
is niet echt gebeurd toch?
net lasse schöne geappt, hij is ervan overtuigd dat 020 volgende week bovenaan staat
geen blessuretijd deze week...
pre kampioenschap run
lekker potje wel...#ajalyo hoeveel kansen heb je nodig?!
vliegtuigen kijken! o ja...en mama ophalen 😊#schiphol
dat schiet niet op...
het zit je ook niet mee ook...
gewoon omdat t kan boeruh!
ja win eens wat
ongelofelijk...heer en meester en nog steeds zo nerveus als wat
ik niet...denk ik
stijve nek?
maar jij hebt een veel jongere vrouw
bayern wordt behoorlijk genaaid...#rood
rustig aan hè! hans kazan heeft best goeie trucs...
ongelofelijk
mmmm...ik vrees plek 4 voor max
oei...ik had het nieuws nog niet meegekregen 😞en ik moet over 2 weken naar stockholm...
heb net de beelden teruggekeken...17690 keer!
topper
statistieken...
zeker...na een fles wijn en 10 bier gisteravond voelde het niet zo 😬
nee...
weekend! zaterdag overslaan wat mij betreft...op naar zondag!
je loopt wel zo in ieder geval 😁
je zit ook echt te kijken?
ik ga mee woensdag...#hartslag
mmm...valt niet mee ik durf ook best nog geld te zetten op 2e geel voor nelom
tuurlijk!
plaatsje in de zon...lets go!
leuke pot volleybal
en adem uit...
zou het dan zon zondag worden...
er gebeuren gelukkig meer gekke dingen op t voetbalveld vandaag younes al 2x buitenom zien gaan...
gerechtigheid? vorige week was ie toch gewoon over de lijn?
😂
interessante timeouts vol aanvallen, beter verdedigen
zoonlief druk aan t dansen...goed om te zien dat ie nog wat van zn vader heeft meegepikt 🤔
tippie voor patries dont eat yellow snow!
ik watch wel een andere club 😉 jij gaat trouwens ook overal op de tribune zitten hè?
probeer zoonlief kleuren te laten herkennen...moeizaam in het nederlands, maar vloeiend in het engels! lang leve youtube
helaas!thuis bij de kleine, iemand moet het doen 😉
hij wel!
dat dan weer wel, maar t wordt er niet leuker op!
het was niet zo leuk 😔
ging er goed voor zitten maar wat een ktpot, hopelijk vanaf nu wat leuker
voortaan slapen in je trainingsbroek...
goeie tijd, niks mis mee!
daar gaat de wintersport...
voorbeschouwing darts hij moet hoog gaan scoren en goed finishen
mooie ring...
grappen worden nooit beter met uitleg 😉 ik bedoelde een interimmer via kasparov als tijdelijke trainer van nac
misschien een tijdelijke oplossing via
ik heb altijd al een hekel aan analyses bij darten, maar nu heeft blijkbaar robin van galen ineens ook verstand van darten...#toppunt
hup handbal hup 😵
je zou erbij geweest zijn...
klaar voor vertrek naar liverpool, wedstrijdje kijken bij
hup
in topvorm vanavond!
brrr...maar toch best lekker!
ihc laat uniek baggerschip te water
ik heb ze vrijdag nergens zien demonstreren
eerste paal van de nieuwe sporthal zit erin, onder toezicht van onze opzichter...#sliedrechtsport
verstappen maakt geen vrienden...
hoop dat bilal slecht slaapt...die gast kost gewoon 4 punten in 1 week wegwezen!
mijn excuus...inmiddels is huren wel mogelijk. ik stel voor dat zn medewerkers wat beter inlicht!
beste ik probeer feyenoord excelsior te huren via ziggo...maar krijg te horen dat jullie geen toestemming geven!waarom niet?
staan ze 01 foor?
spanning loopt op...#klassieker
ja dat, als feyenoord maar wint 😂
janschaarie van der heijden...hoogtepuntje van de avond!
moguh! autos kijken 😉
t is vrij matig....#fenfey
ga je ploeg aanmoedigen ofzo...wat een trieste gasten zeg
waarom is de wedstrijd feyenoord oss niet beschikbaar om te kopen?
interpol van boekel...
buenas dias!gewoon vroeg op tijdens de vakantie...tijd voor koffie en woezel en pippos!
😂😂😂
trots op me cluppie! lekker wedstreidje gespeelt in eindhoven en drie punten mee naar huis!
iemand tips voor een plek in nerja zuid spanje om morgen feyenoord psv te kijken?
er zit een goede sportsbar in seminyak...
thanks...ik heb een passe partouts en zit in spanje 😂 wel een mooie overwinning idd!!!
weer niet goed? passen er nog bananen door heen?
of niet....tsjonge wat een pot
mn vorige tweet kan de prullenbak in...
psv wordt toch wel een beetje genaaid...#psvatl
dat is een forse adolating
city loopt toch aardig te voetballen...#munmci
zojuist op t werk ging het over de cosinus...laatste x was op de middelbare school! conclusie ik had beter op moeten letten...
yessss! kaartjes europa league in de pocket!!!
wel in t nederlands ipv duits dit keer!
wel fijn dat strootman weer terug is
ok ok...niet heel erg terecht dit hup danny!
tof man, gefeliciteerd! zoeken ze ook nog een spellie? 😂😉
voortaan gewoon kaarten bij de ticketshop...afrekenen met t handje en geen gezeik met overbelaste websites
dit is het probleem
wat een kutzooi weer met die kaarten als hoofdboeker maar 1 kaart kunnen kopen
ff 3 a 4 afleveringen doorbijten! enjoy!
overleg in t stadion...ook de 01 is de schuld van gudde
complimentje voor na alle problemen gratis een extra wifi point gekregen...werkt als een tierelier!
bazoer zit lekker in de wedstrijd
jij altijd 10!
in de van der valk bus richting hotel!nu maar hopen dat de buschauffeur weet waar ie naar toekan!
samen met opa in hét kado van de dag tentje van 💙💙
topsport...@brouwermeeuwsen, en volgen midden in de nacht
rob rensenbrink is er niets bij...#handbal
erg cliché, maar toch wat gaat het hard! morgen mn kleine vent alweer 2...💙
ik heb meer behoefte aan info van mn contract kan ik al opzeggen? zo niet, wanneer vanaf welk moment is dit mogelijk? 2/2
ik heb dit al vaak gedaan met je collegas, incl. 4x monteur, nieuwe kabels en 3 nieuwe boxen. ben er serieus klaar mee 1/2
prachtige teleurstelling van
foutcode 13201, kan dit het aantal keer signaal verlies zijn geweest? er stond bij stap over naar kpn
eeuwig zonde! wat knap gespeeld door zeg!
echt waar...wat is toch een ontzettende kak provider! box knalt eruit tijdens halve finale beachvolleybal
wat een gezeik op zeg!kramer vorig seizoen te weinig aan de bal en nu is weer te weinig in de spits...
zou deze wedstrijd nog een staartje krijgen?
analyse achteraf ik had vannacht beter na heren beachvolleybal kunnen gaan slapen! verder wil ik er niets over zeggen...😉
hoppa! moet zeggen dat ik ergens tussen 10.00 en 00.30 wat gesmokkeld heb 😬😴
present!
😂😂😂😂
ik voorzie weinig slaap 00.00 beachvolleybal, 01.00 beachvolleybal, 03.00 zwemmen en 03.30 hard rennen
nos
hup handbal
tyfus...heeft die japanse judoka haar vorige tegenstander opgegeten?
de wedstrijd van nummerdor / varenhorst is afgelast?? balen!
hoog!
proost!
hou vol
😂😂😂
hahaha! sierd en westermann worden dikke vrienden!
bosz heeft het al aardig op de rit...
pfff...wat een tactiek! kramer voor jörgensen en 5 minuten later botteghin als 2e spits...niet te volgen
je bedoelt die rode kaart voor willems?
klaar voor de hup
je kunt bij mij kijken hoor! alleen niet boven op bed, na het bezoek van monteur gisteren doet de box het weer niet!
fucking druk op dat rooster!
stuur me ff je nummer, na twee monteurs nog steeds slechte wifi en een haperende mediabox! 😉#ziggo
leuk weekend bij opa en oma in zeeland, wel een beetje vermoeiend!
dit keer écht!
en hoor net dat ze in de sky bus queen aan hebben staan...#bicyclerace kan er ook nog wel bij voor froome!
ach, dan vast sneller progressie
eigenlijk wel een fijne zondag...ochtendje dierentuin, middagje sport op tv en zo de bbq aan!
goed begin van een mooi sportweekend op tv! wat jij ?
ik wil ook zon volkslied...#euro2016
niet meer inzetten op contador...#tdf2016
hup belgië dan maar...👹
nieuwe poging...hup slowakije!
tv gaat continu vanzelf aan en uit en reageert nergens op!@samsungnl misschien een idee om even te communiceren over updates oid?
wat een ontzettende zaadpot...
haha, ik ben letterlijk in slaap gevallen op de bank!
wachten duurt lang...gelukkig nog maar 1,5 uur
ik heb sinds een uur netflix...en aan het einde van de avond een volle bucketlist denk ik
wakker om 6u zaterdagochtend....😕
documentaire van terugkijken wat een passie!!
soepel gesprek bij 😂😂
sorry...cl finale kijken in de kroeg 😂
anti real, telt dat ook?
avondje genieten
goed idee 😉
iets voor heren 3?
tering wat spannend
ook toevallig als je op weg bent naar je zus...
podium voor ???
na opzeggen ultiem aanbod gekregen om toch klant te blijven...bij zijn ze dat blijkbaar vergeten op naar
iedereen blij
torentje bouwen tussen het klussen door
laat ze in niet meer klagen dat uit rotterdam komt...#ajautr
ochtendje boerderij!
het zal nog wel ergens fout van zo...het ziet er te goed uit tot nu toe
de dag beginnen met een paar naalden in mn schouder bij
topdag met tante
yessssss! kaartje voor de in de pocket!!!
kom maar door met die finalekaarten
tuurlijk...ook onze schuld 😂
hup!
eens moet de eerste keer zijn...#kuip
20 puntjes...is maar 7x op rij verliezen 😂
lekker...twee puntjes ingelopen op psv en ajax
goeie timing...#griep 🤒😴
kan gewoon
1 april?
ik heb ellie niet gemist...#widm
klaar voor wie is de mol!
is aan!!!!
opblaas banaan is wedstrijd zonder publiek...opblaaspop aan galg?
het gaat niet zo lekker...#feyenoord
nog klein beetje pijn in mn buik...genoten van
klaar voor
1 plek waar je niet moet zijn aldus dat had ik net even eerder moeten weten...#file
goed voornemen beginnen met lopen ✅
nieuwjaarsochtend nieuwe stijl...
pannenkoeken maken met opa...💙💙
wat een lief manneke...net zo ondeugend als zn vader 😂
3e kerstavond...gezellig bij
samen de liefde vieren met
mama net op bed...papa en vigo aan het ontbijt
wat een goal
benieuwd of al met een biertje op de bar staat...#borrel
dat wordt gezellig morgen bij
toevallig...bij jou ook toch ?
net op tijd voor de grand prix...
sesamstraat rules
maandagmiddag
aftellen tot 1 mei 16 begonnen ✅
we zitten inmiddels bij zweden denemarken
wat een tenenkrommend programma 😫😫😫 die mensen moeten maandag toch ook weer naar hun werk?
geen idee of iemand m al gemaakt heeft, maar het debuut van el hamdaoui is behoorlijk de mist in gegaan...
toch jammer voor die jongen van de eigen goal...hij was de beste van het veltman
en zonder shirt 😉
hahaha...ik heb er dus nog kijk op ook!
ik denk dat die kerel wint 😂
ja...spannend!
zo...dat was de zolder
en een stadionverbod voor die fcking nepsupporters die nu kaarten te koop aanbieden op marktplaats
om 9.02u kaart in mn winkelwagen, niet kunnen afrekenen. nu is de kaart verdwenen en geen plek meer op t vak...kut geregeld
communiceer eens iets...
ik lijk een kaart te hebben maar kan niet afrekenen..#foutmelding
zou er nog een blaaskapel komen?
wat een wedstrijd
wel leuk, paar dagen is genoeg. leuke trips over het water white sand beach, oorlogsschip in zee bij amed om te duiken snorkelen
staat een hotel in mn vorige tweet, was best mooi!
heeft zn goeie arm erop geschroefd!
het escaleert uit de hand
met je paardenpoep!
wat een sfeer in ahoy, helaas rusland klasse apart met heel veel dank aan voor de kaarten!
hup holland t helpt nog niet echt...
bolussen in de bonus volgende week?
zou ze ook kunnen stucen?
pino rules
ik had een foto uit de pacha verwacht, inclusief danseressen en flessen champagne...maar dit is ook leuk 😉 enjoy!
top zondagochtend voor vigo en voor papa...uitgebreid ontbijt en
💙 boekje lezen...
goed begin van het weekend!!!
daar word je wel even muisstil van inderdaad 😉
goedemorgen! nog even genieten van ontbijt in het spaanse zonnetje...
tering...heeft niemand een livestream van nederland ijsland die ik ook in spanje kan kijken??!!
niet op de ipad zeker?
op zoek naar een livestream nederland ijsland vanuit spanje...iemand tips?
vet!!!
aanmeldingen voor de bbq van vanavond stromen binnen...
moeder en zoon in diepe rust...papa ook vakantie!
klaar voor vertrek! bijna op weg naar mallorca... eerst nog even een biertje met mn maat
even de post op de bus doen...
moguh!ontbijten met mn maatje en op
en nog even het mooiste kado van de dag...althans dat vindt papa
1e verjaardag van mn kanjer...zo ontzettend trots
3 punten...bus in naar rotterdam en niet meer over hebben
iets met onder voorbehoud en financiering...maar ons huis is verkocht!!
briljant gelezen. zal het ad abonnement opzeggen?
hans kraaij jr. altijd beetje irritant bij maar nu toch echt klasse...laat die genee en derksen kappen met sensatie zoeken!
vorige keer heb ik het via gedaan...maar weet niet of dat een optie is 😂
altijd 10ie
publiek gaat uit zn naad
zo zonde voor het nl voetbal...#ajarap
zak in zn achterwiel...hij mag blij zijn dat t niet andersom is
serieus? bilal heeft alleen maar tegen een tegenstander aangeschoten en el ahmadi heeft heen en weer gerend?!
kippenvel!
mooi bergie
ontbijten met mn kleine vriend
dan heb je haar zussen nooit gehoord 10!vraag maar aan die kent ze...