komt er nu eindelijk een andere keeper op doel
al stond er een pion, dan kwam boetius er nog niet voorbij.
zullen we bij de volgende corner gewoon zeggen dat we hem niet willen hebben?
die broer van van persie kan wel aardig ballen 11
pffff en dan komt city uit ook nog.. als we nou eens niet op komen dagen. dan is het toch 30 nederlaag toch?
ben godver gister bij de kapper geweest, je denkt toch niet dat ik een bal ga koppen
is basel niet wat voor boetius?
3 voorzetten boetius in 15 sec. 3 x kut
die scheids is tenminste geen mietje. gewoon korte mouwen en zonder handschoenen 👍
swalbe!! boetius en iemand om duwen bestaat niet
ja komt eraan
gaat lekker sinds de wissel van boetius
toornstra wil gewoon niet scoren in een awaygame
we hanteren zon laag tempo.. er is bij swift nog geen enkel krampgevalletje geweest
wat een wereldgoal... en feyenoord? schaam je kapot!!!!
als ik gio was wisselde ik een spits voor een verdediger. boel op slot gooien achterin. alleen resultaat telt.
we moeten natuurlijk niet vergeten dat swift vitesse ook heeft uitgeschakeld he
scheids schaam je, kramer schaam je
nelom hoeft alleen nog maar rode lippenstift op te doen. overigens niet racistisch bedoeld voor het geval dat😉
lekker die extra tijd.. even 2 minuten wisselen en 1 minuut ouwehoeren
hij kan er misschien bij dit doelpunt niet veel aan doen, maar ik vind jones niet zon stabiele factor meer als vorig seizoen
ik zie heel veel mensen reageren met drie rode kruisen. dat staat toch voor 🤔..
zegt ronald de boer nu wij ipv hun of feyenoord.😂
klaassen? die scoort alleen op de training man daar in engeland
wat een slap zooitje in de 2e helft
in de kuip had dit wel kans gehad
ik denk dat advocaat janssen eruit haalt voor een verdediger aangezien het doelsaldo niet zo belangrijk is😂
volgens mij is dit een wedstrijd voor dost
het begin is in ieder geval goed.. er word rustig rond getikt😏
dit was dus ze laatste volkslied
ik denk echt dat die zweden het in de broek gedaan hebben na zon opkomst...
kunnen ze dat onder de wedstrijd ook niet doen? alle lampen uit
ik zeg de 40 tegen frankrijk gaat ons nu nekken
kunnen jullie zweden luxemburg ook even onderzoeken op match fixing?
jorgenson is toch tot oktober uitgeschakeld? gelukkig dan maar dat het zondag 1 oktober is
ik zeg het toch verdomme
toornstra scoort nooit buiten de kuip niet doen
gio? kom eens even met een tactische meesterzet.. je kunt het
hoe makkelijk kun je de bal weer kwijt zijn zeg
zet boetius eerst maar een week in het krachthonk
we verdedigden de 1 0 achterstand
ik zeg niks meer over diks..
hopen dat ze dat bij feyenoord niet doen met al die geblesseerde spelers. dan mag de waslijn er wel bij komen
wat makelijk weer😡
dat was de 1e keer dat de tuinkabouter omviel
lekkere goal berghuis en lekkere assist van bassie
sinds wanneer dat dan? of heb dat al die jaren gemist?
als je verzorgen krijgt in het veld moet je er eerst uit toch?
wrom we zijn een klasse beter.. alleen tegen 12 man kan je nooit winnen
maar kort samengevat wij zijn feyenoord en wij zijn met 10 man nog een klasse beter dan pisvee
toornstra scoort echt alleen maar in de kuip
het nederlandse voetbal stelt niet veel meer voor in europa maar het als europese top is.......... ...
overtreding van een feyenoorder. uiteraard geel
elleboog lokadia geen gele kaart
tis 12 tegen 10
haps krijgt geel omdat ie tegen de groot gegooid word
zelfde overtreding als van berghuis nu geen penalty feyenoord
ik bedoelde op basis van de 2e helft
amrabat verdiend basisplaats zondag.. het enige lichtpuntje van vanavond
kan wel bij de ns aan het werken. is altijd te laat
kamertje heeft geluk met geel
kramer eruit toornstra erbij op het middenveld
verdomme je moet ook nog naar city toe.. niet op komen dagen is toch een 30 nederlaag?
dit is echt klein duimpje tegen de grote reus😓
de eerste 50k aan boete is weer binnen😂🤣
nee dat is een storm in een glas water
hoe gaan we deze storm noemen? de 1e dus we beginnen met een a.. euh🤔
eigen risico gaat onder rutte iii verder omhoog en weer zijn we voorgelogen met de verkiezingen
een kinderhand is gauw gevuld
samen met montenegro zijn we de slechtste nummer 2.. hun programma is makkelijkere..
zoon van wilders?
nu hoop ik dat ie voor 6789 wedstrijden geschorst word
wissel janssen maar voor miedema
een eredivisieloos elftal
wanneer moet az dan? misschien kunnen die dan nog wat punten halen?
zo lang psv maar te zien is op foxsport 1 gaat het goed met utrecht😀
de miljoentjes zijn alleen van ons.. bedankt🖐
ik wil inloggen om kaarten te kopen voor de johan c schaal. ik doe wat er gevraagd word maar het komt niet in beeld.
toch doodzonde dat het gras na het ek weer gaat vervangen voor die kunstof troep
wanneer komt er meer informatie over de kaartverkoop voor de johan cruijf schaal?
................ stil van
1 dag mooi weer code oranje voor natuurbranden, bruin water uit de kraan, en treinen die niet rijden.. wat is het toch wat
als ik bijna europeestopscore was, zei ik tegen dat ik niet langer in zijn sprookjes geloof en ging ik mooi naar huis🖐
en de wethouder komt notabene ook nog eens uit diever
hoe mooi kan het zijnterug komen om kampioen te worden, 3 goals maken in de kampioenswedstrijd en dan stoppen. bedankt dirk kuijt 🔴⚪
bedankt voor je inzet doei doei
dwingeloo🔴⚪ van harte groeten uit
willem van hanegem held!!! jij had de schaal uit moeten rijken
ik moet steeds aan denken😂😂 er is nog een betere club in nederland
waarom wel in barcelona en liverpool en niet in r.i.p en 🖕#feyenoord city
tijd voor red de kuip!!! in liverpool barcelona en madrid weten ze wel hoe ze het moeten doen!!
denk niet dat ie met 11 tegen 11 eindigd ⚽⚽
nou volgende week dan maar. op echt gras!!!
dus na brandweer dinspilhuus word nu het verenigingsleven in ook om zeep geholpen. dankzij een wethouder notabene ook uit
wat een giga potje is dit zeg op
nou lekker is dat voor die mensen die wel weg zijn gegaan en niet op vak p zitten
ging het publiek nu echt klappen tijdens het rust signaal?😨
san marino wil graag op zeer korte termijn ook een oefenwedstrijd tegen nederland
dit kan gewoon niet, dit kan echt niet meer misschien maar een tijdje zonder nationaal elftal gaan spelen??
commentator is al naar huis. ik begrijp het wel.
co vond klaassen wel redelijk? ik vind het schandalig dat zon speler nr 10 mag dragen in het nederlandselftal.
teletekst app ligt volgens mij ook plat😂
vandaar dat kuyt gewisseld werd. hij moet gio assisteren op de bank 😂
goede wissel kuyt en berghuis op de flanken
en die berghuis loopt er ook als een lamme hond bij
nelom heeft het niveau van apenkuttenveen 4
wij gaan winnen alleen met hoeveel is de vraag.
ik wil ook bij de me! waar kan ik solliciteren
oma kwam nog even langs fietsen 😂zeker net terug van de bingo
na de brexit ook maar de nexit dacht ik zo.. want aan brussel hebben we nu ook weer niks
kan beter de naam veranderen in tos turkse omroep stichting#turkijerel
die fotograaf met die stoel om zijn nek is nu voor de 873e x neer gemept. verdomme wat is ie hardleers trt
dit kon psg nooit winnen met zon scheids.. het word echt tijd voor de videoref
nelom pffff ongelooflijk 😢
misschien samen met ziggo op de shirts van volgend seizoen?
gaan jullie in de rust ook wisselen?
hoevaak gaan jullie die herhaliny van sparta nog laten zien? die van elia lieten jullie maar 1 x zien
ik denk dat ze vanavond bij zeggen dat het geen doelpunt was😂. wat een heerlijke overwinning
meende dat studio sport altijd met de koploper begon
dat ado geeft 1 x per seizoen een beetje weerstand..
😂 en co adriaanse wil niet in het nederlands elftal hebben
naar verluidt gaat twente aangifte doen wegens het slopen van de geparkeerde bus rond de 16 meterlijn door botteghin en jorgenson
wil de eigenaar van de rode bus die staat geparkeerd rond de 16 van de grolsch veste zijn voertuig verplaatsen?
karsdorp? wil je nooit geen vrijetrap weer nemen
die grens heeft zijn middag niet. als ie de 2e helft dat maar wel heeft
nou zo lastig was het niet te zien. die bal was over de achterlijn
het verwende nest zonder geld twijfelt als ze wel naar tenerife wil 😰😨
kijk bilal, zo geef je een voorzet
die van boekel heeft na 13 min nog gewoon echt alles verkeerd gedaan. ook best knap eigenlijk
als die swalbe van de jong een penalty was dan was dit ook een 100% strafschop!!!
wat is bullshit? dat het een swalbe was van de jong? of dat heerenveen een penalty had moeten hebben?
hulde aan de scheids. heerenveen had ook een penalty moeten hebben bij 23 🖕
hier spreekt de knvb een oproep aan alle scheidsrechters!! zorg ervoor dat feyenoord niet uitloopt dit weekend.
gaat hard achteruit met rtl5 errug hard zelfs
nou daar zitten ze op de bank. fc bijstand en co..
zo blinker zit er niet als feyenoorder? oh nee dat past niet in het programma.
bedankt bosz eens een feyenoorder altijd een feyenoorder. oh ja en zondag weet je ook wat je moet doen 😉
kunnen ze bilal niet stiekem meenemen naar turkije? mag best hoor
kuyt doet echt alles verkeerd
nou lopen we in nederland altijd te zeiken over scheidsrechters maar daarmee mogen we de handjes dichtknijpen als je dit ziet
gevalletje matchfixing ik kan er niks anders van maken
74 minuten. 1e schot op doel. er zit schot in
met bergwijn kom je wel een ronde verder.. pfffff
ze missen gif. mes tussen de tanden, hard spelen, gele kaarten, veel te lief allemaal
wij op het platteland hebben genoeg van stadse problemen
nou daar gaan we weer. verstappen vs vettel
weer verstappen time dus😂#formule1
wat een baas!!!!
zo en maandag weer lekker van je ww uitkering genieten..
je hebt helemaal gelijk johannes... waar maak ik me eigenlijk ook druk om😂
voor alle blanke pieten op de pakjesboot schaam je!!!! dat je hieraan meewerkt..
nederland wint alleen maar in de
en daarom worden we weer geen kampioen. want wij kunnen zulke potjes niet winnen.
geef bilal maar rood en 30 wedstrijden schorsing
vies ventje die wolters voetballen kan ie al helemaal niet. leuk spelertje voor de hoofdklasse.
kut bilal, komt nog geen pion voorbij man
gio? mag bilal weer gewisseld worden?
nou moet je dus thuis van fener winnen en dan ben je er nog niet. dus begrijp niet wrom dit puntje zo goed is. je hebt er niks aan.
stadionspeaker leest de krant even voor
de enige middenvelder die geen geel had word gewisseld. gio is de kluts even goed kwijt
we gaan het einde niet halen met 10 man
wat een verschrikkelijke slechte scheids. een schande dat zon man überhaupt mag fluiten.
mooi al die voorzetten maar als je je spits wisselt kun je ze beter direct aan de keeper geven 😠😠
anders haal je de enige speler die een bal vast kan houden eraf. wat een slechte wissel!!!
maar jullie handtekening staat er toch niet onder?
waarom hebben jullie er geen handtekening onder gezet dan
westerveld is regenboog gemeente alleen heeft petitie niet getekend!! zijn ze tegen??
jeetje het hele land op zijn kop door johan derksen zijn aapje🙊 de blanke vla loopt me uit de mond van het lachen.
we kunnen ook gewoon zeggen tegen de kinderen dat sinterklaas na 368 jaar is overleden. zijn we van het hele gezeik af.
let op!!!!!!!!!!!! witte bus poolskenteken?heeft vanmiddag fotos gemaakt van woningen in
sorry dat ik je even onderbreek je doet ja niks anders tommie😂
en toch heeft die pastoor wel gevoel voor humor😂
pierre... 27/9 🖕 en nou je bek houden
jupilerniveauwaardig clubje dat nek. ogen uit de kop schamen als je hier punten laat liggen
kom op feyenoord, dat nek stelt ook geen ene moer voor
sta je een x in de basis en dan voetbal je zo.
blind gaat de 01 verdedigen willems 😂😂
nu spelen we dus zonder middenveld.
nou komt het goed. depay komt erin. man man man die speelt nog geen stokbrood voorbij
kan aan mij liggen maar was deze aflevering er vorige week zondag ook niet op?
de kuip doet wonderen
kemkers was toch die man van de verkeerde wissel?
ik kijk alleen studiovoetbal als wint. het begint echt een lijdensweg te worden al die overwinningen 😂
waar blijft die herhaling van dat buitenspel van klaassen dan?
wat zijn de scheidsrechters toch van een triest niveau in de eredivisie
wat een irritant stuk vreten die lens
cillessen hoopt dat barca psv loot in de volgende ronde..
bedankt. het waren 3 fantastische minuten😢
ja en dat was het.. psv is aan de beurt.
snel naar bed jochie, jullie zendtijd zit er op en je moet morgen je schrijf les niet missen op school…
hallo? wie is er koploper? wie staat er op 1? wie heeft 7 wedstrijden op rij gewonnen?
niks mis mee toch 41 winnen
je zal normaal maar bankzitter zijn en nu opeens moeten voetballen. dat valt niet mee.😏
haha ze maakte een grapje aan de tafel🙊
oh wacht ik begrijp het al, 6 gespeeld 18 punten, maar dat ligt niet aan feyenoord dat ligt aan de tegenstanders.
het geluk loopt ze weer dun door de broek
volgende x graag andere commentator dit is waardeloos
je kunt een wedstrijd dood fluiten en een wedstrijd dood fluiten. maar wat deze portugese oetlul doet slaat helemaal nergens op
ja zelfs in een lege kuip is er nog meer sfeer dan in de
heeft meer weg van een avondje ufc fight night dan een avondje uefa cup met al die netten.
is ie nou mr. bean of is het zijn broer?
pfffff co, trek je shirt de volgende x maar aan joh, mafkees
100% zuiver doelpunt afgekeurd. gif beker was nog niet leeg dus
eerlijk is eerlijk janmaat herpakt zich best na een zwak begin in de tweede helft.
nou nog 1 en dan zijn we weer top favoriet voor het wk 2018
wie moet er in de rust gewisseld worden?
zo nu even de laatste wedstrijd van kijken
zal hans van breukelen ook al invloed hebben bij verbeek, je mag gewoon zeggen dat het dieptriest is hoor.
zet dat score venster is even netjes links boven in mijn tv hoek.
en weer lijden de goeie onder slechten!!
geef bilal maar een schorsing van 31 wedstrijden voor die elleboog. zijn we daar ook vanaf
het is net als volleybal. 1 speler in een ander shirt.
als zelfs el ahmadi al begint te scoren....
ik zeg finale wales ijsland
hehe hij snapt het eindelijk. nu maar even niks meer zeggen
neeeee zit bij de belg😨 gelukkig alleen maar in de rust anders toch liever
als belgie nou snel 02 maakt kan het geen 11 meer worden😎
lekker bezig schaam je!!!!!!
oh jee, nu gaat ie echt huilen😢
als je nu € 2.40 per seconde verdiend dan mag je zo n bal er wel inschieten
die hand ziet er niet lekker uit na het incident
zijn zeker verkleede russen
niet? dus als je de boel belazerd krijg je alleen een paar punten in mindering en een boete?
bijdeze de vrijbrief aan de andere 17 eredivisieclubs om ongestraft wanbeleid te voeren
kheidira had al van het veld gemoeten met 2x geel na 3 min.
als in de eredivisie blijft, dan is het toch voor andere clubs ook een vrij brief om wanbeleid te voeren....
belgie is los zand. is geen team, zit geen lijn in
het fc miloenenteam gaat het ook niet redden
2 straaljagers door geluidsbarriere?
is het nu eindelijk zo ver dat heel nederland zich tegen keert?
ik lach al 32 minuten
😂😂
zooo die is binnen!!! en nu hopen dat psv kampioen wordt
waarom reageren al die 020 supporter toch steeds om tweets van feyenoord?
ajax 2 x wel feyenoord 2x niet
dat zeg ik
als feyenoord maar wint robert
ajax wel feyenoord niet
en de kampioen van 2015/2016 word de gefeliciteerd alvast! de huldiging zal binnenkort volgen bij de knvb arena te amsterdam.
verslagever want u komt uit een ander land gevlogen? 😮😮 nee joh hij had een binnenlands vluchtje vanaf eelde
oeps. komt door al dat lachen
hoop niet dat cnn het commentaar van at5 vertaald. dan worden we nooit meer serieus genomen😂
politie met zwaaiende sirenes🖐🖐
waarom zenden jullie toch altijd de verkeerde wedstrijd uit?
de aanloop van narsingh zei al genoeg
wat een kippenhok dat laat elkaar eens uitpraten man
heb van jullie nog geen reactie gezien op twitter over kwestie
hoe kun je aan de exploitatie twijfelen? terwijl er 2 ambtenaren het deo en 2 banken akkoord gegeven hebben.
en kom dan eens met een voorstel wat jullie wel een goed plan vinden zodat niet kapot gaat.#dingspilhuus
nou 1 schrale troost. een beter plan zal er nooit komen.
jullie hebben het toch zelf afgeschoten??
ga jij nu een sportzaal annex dorpshuis creëeren bij een school die over 10 jaar niet meer in staat.
denk dat ik het oud papier wat door opgehaald word as zaterdag ook maar binnen laat staan.
nee klopt dat schrijf je niet. ik vroeg ook alleen maar wat jouw partij besloten heeft
jouw partij dan ietje?
dwingeloo en wapse stemmen tegen bedankt oa.
dday dingspilhuus day vanavond. 18.45 verzamelen en dan met zijn alleen naar het gemeentehuis.
vvd heeft moeite met energie neutraal? bang dat andere dorpen dat ook willen, op het gemeenteh.liggen wel 237 zonnepanelen
lekkere reactie
falend beleid.. en snel een beetje
vincent jansen was niet goed genoeg voor feyenoord??? ron vlaar was niet goed genoeg voor feyenoord???
van gaal vs koeman 01
best pakkie sneeuw hier in school zal wel weer dicht zijn zeker
oh nou dat stomme ding onder mijn slaapkamer raam brand anders nog prima
school open school dicht. kinderen kwijt.. lekker geregeld
basisschool de singelier is gewoon open!!!
opnieuw well done jelle klaasen
blijf er maar over lullen
opvreten dat volk
wat een waardeloos programma
hopen dat de nederlandse scheidsrechters ook kijken naar arsenal bayern münchen
pascal boschaart
pascal boschaart
you more van dj paul elstak
voor een dubbeltje op de eerste rij wil niet altijd met
koeman wisselen spitsen erin!!!!!
jezus wat schreeuwt die kraay
wat is er waar van een persconferentie om 13.00 uur van de scheidsrechter?
zeg maar dag met europees voetbal
hey danny ben je ook nog wakker! zet vorm er maar in of krul stekelenburg heeft zijn beste tijd wel gehad
volgende week 10 winnen
mulder waarom pak je die bal niet gewoon ipv dat gestomp.
hoppa 01 schaken
zo nog een paar sigaretten roken en dan....
zoekt iemand bij feyenoord om een heel ziek jongetje heel blij te maken rt aub
lijkt wel dat iemand anders mijn twitter bedient. heleboel mensen die ik volgde volg ik nu niet meer.
pfff kan die cdaman niet weggestuurd worden.
ja mario alleen was het jou niet gelukt om met dit feyenoord zo hoog te eindigen.
wat een zuur pruim die van rossem.
sorry maar ik snap je niet meer..
wat zal het naar drank stinken in dat stadion.
was dat geen natrappen en rode kaart?
dus gijpie lult maar wat..#vioranje
cruijff heeft ook weer wat te zeiken. nou zijn die zwarte shirts weer niet goed. dan zie je je medespelers niet het is geen blinddoek!
jan van halst gaat onze hockeycoach nog een keer slaan.#studiovoetbal
maar het lag niet aan de penalty can marco. zoals het nooit aan hem ligt.#anderetijdensport
na de wk finale verprutst robben nu ook de cl finale?
dat heeft er mee te maken dat als feyenoord de finale volgend seizoen speelt de thuis spelende ploeg is.
wat een slotfase 11
nee beter na de grond koppen kon niet idd frank snoeks anders had hij niet gezeten.