maar ik zou de bus ook pakken als ik jou was, uurtje geleden dus gasten gesproken die bij de metro waren aangevallen
wij zijn ff een turks restaurant in gedoken. eigenaar bleek ook naar de wedstrijd te gaan en we mochten met m meerijden hahah
top, klinkt goed. kijk wel uit man, lopen veel mentalist lui op straat in t centrum rond
net ook weer mensen aangevallen, zelfs tot aan de metro. wat is er bij de irish pub gebeurd?
welke kroeg vanavond wat te beleven hierzo?
hoezo mag een trainer nou weer geen feyenoord verleden hebben? waar baseer je dat op? gelul in de ruimte gewoon
wat een onzin....
was niet zo moeilijk hoor, je kon gewoon zo door t hek en het veld op lopen 😂 geniaal
er is bij t stadion van shakhtar een fanshop, daar kan je een wedstrijdsjaal halen!
gistermiddag aangekomen! vandaag al dag twee 👌
het was echt in alle opzichten kut vandaag. en zeker waar. nooit opgeven 💪
geen woord aan gelogen..
ik kan wel janken.
dacht die buurt te herkennen aan je foto, en had zelf ook tentamens deze week 😜
studeer je ook aan de uva?
eerst kerkrade!
dat kwam gelukkig vanuit het uitvak.
dus? moet je dan zeggen dat die zich voor de bussen moet werpen? je kan m slecht vinden, maar dit slaat nergens op
klasse teksten man, over één van je eigen spelers, bovendien een echte feyenoorder. 👏
vandaag sinds lange tijd weer eens een wedstrijdje missen, kut tentamens
van harte goos! 👊
zo is het, en dat wij als legioen ze daarin maar vol gas mogen steunen. 💪
te belachelijk voor woorden.
wat een ontluistering vandaag.. ziek van.
en terecht!
ah, ik snap je! daar was ik dinsdag voor shakhtar thuis nog geweest, toen waren ze op 🤔
serieus? dat gaat echt nergens over.. moet je idd geen sk op de gele zijde nemen.
mee eens. lijkt door die europese wedstrijden ook wel alsof we ons niet meer op kunnen laden voor pec of nac thuis..
ook zeker waar. maar t kan wel, zie t begin tegen shakhtar, dat was die magische wisselwerking.…
ja, zeker mee eens. uitwedstrijden is top, zelfs potjes als heracles goeie sfeer. thuis idd laat…
t is ook wel een beetje de samenhang tussen publiek en spelers he... valt iets voor te zeggen bi…
ik die van jou ook. kan er alleen niet tegen als clubiconen in mijn ogen onterecht worden afgeschreven
banken kuyt, maar met name aanpak en tactiek sommige wedstrijden 020thuis, united thui…
meerdere redenen nietvoetballend gedeelte zoals sfeer in de groep, met name na gaeuit…
speelt juist niet al weken hetzelfde. juist veel gewisseld in de opstelling. kampioensch…
wat een enorm gelul.
op die op rb na. overigens het kampioenschap aan anderen toeschrijven vind ik helemaal l…
voor het gemak vergeet je even wat voor niveau sommige jongens kunnen halen, zoals vorig…
je zegt dat hij ongeschikt zou zijn door zijn keuzes in de opstelling. ja, toornstra en…
in het marathongebouw? weet even niet waar dat is haha
eens. na al die nederlagen hiervoor was er nog het applaus, het…
wat een enorm slecht artikel. opportunisme viert weer eens hoogtij na een nederlaag zo te zien. maar…
iemand die aan losse kaarten voor ado uit kan komen? dm graag 👉
heel zonde. had m ook graag aangeschaft!
jaa zeker waar. maar verdient meer waardering vind ik! geeft altijd alles.
mag ook wel wat vaker toegezongen worden wat mij betreft!
en de arrogante praatjes zijn alweer begonnen..
wát een gelul... alsof dat een constant iets is. zo van hij staat nu weer in de basis dus…
lijkt me niet helemaal de bedoeling dat deze letters groen worden? 🤔
inmiddels al een mooi appartementje geboekt, maar bedankt mannen 👊
rt is fijn 👆
iemand nog tips voor een hotel in charkov?
hahahaha lekker je eigen spelers wegjagen 😂
niemand zal dit ooit vergeten die hier was!
snap dat ook niet.. voor s zouden juist de minste kaarten beschikbaar moeten zijn. meest fanatieke lui zou je zeggen 🤔
oh dus alleen bij buscombi rotterdam eigenlijk. geen erg in gehad, pak laatste tijd…
bij ons mag er geen bier mee hoor.. geeneens blikjes zelfs. alleen pakjes van max 33cl
ja, hij deed de bal wel 257 keer zeer. dat zijn namelijk t aantal doelpunten in zn carriè…
en ook verschil in carrière van dag en nacht!
dan moet je er vast geen pepernoot van kunnen!
😂😂😂 ja precies. noem nog even een paar nederlanders die scoorden in een clfinale, wk fina…
en verwacht jij ook dat ze zullen starten? of is training do/vrij daar doorslaggevend voor?
hoe gaat het met t herstel van onze spits? en nieuwkoop? verwacht je beiden zaterdag inzetbaar?
haha dan nog een bijdehante opmerking proberen te maken ook.…
ver gepasseerd wellicht nog niet, echter is onze verwachte begroting voor 1819…
verwacht je dat hij 90 minuten kan spelen tegen pec?
hoe zit t met het herstel van jørgensen? geen minuten gemaakt in het tweede zie ik, wel bank of loopt herstel niet voorspoedig?
mijn speler van de week bij voetbal inside is steven berghuis via
de ironie het uitvak van 020 wat ze zijn er wel, je hoort ze niet zingt in heerenveen 😂😂😂😂
je gaat nu zelfs de xg en passmaps van de nederlandse top 3 niet meer doen? of komen de xg en passmaps van psv en ajax nog?
tot in blessuretijd!
laten we hopen dat het een onmogelijke opgave blijkt.
prachtig! waar heb je die vandaan?
zou idd een goed idee zijn! ong tweewekelijks kampen mensen met dit probleem dusja 😂
haha ja gaat weer lekker. ken eventueel wel 2 man uit vlaardingen die een auto zoeken, mocht je nog op zoek zijn jan.
ja hebben we, wij hadden alleen net al 1 iemand gevonden, dus zijn nu precies compleet. sorry mannen!
welke omgeving? wij wonen namelijk nogal in verschillende steden haha
wij ook nog 1 plek over.. 7 man totaal. gekut altijd
vanavond sinds 1,5 maand helaas weer eens een wedstrijd van feyenoord op tv kijken.
altijd genieten als willem op tv is. naast wat hij de club allemaal gebr…
medesupporters voor jood uitmaken is idd ten allen tijde kansloos.
of het er nu 2 zijn, 10 of 20 weggaan vanwege een achterst…
dat bepaalt iedereen idd zelf. ik vind het alleen niet des…
dat zegt hij niet. hij vindt het alleen logisch dat je je c…
serieus? 😂😂😂 je weet dat er niet meer kaartjes dan 47.500 verkocht…
ja en dan lekker blijven wijzen naar de hoofdstad, als die hetzelfde doen.
ik zeg overigens nergens dat je het recht niet hebt eerder weg te gaan.
waarom zou je vanwege de stand eerder weggaan? onvoorwaardelijke steun…
mensen moeten het idd zelf weten, maar dan moet je het niet goed gaan praten.
zo is het toch? jij wilde zeggen dat je de spelers steunt als ze tegen e…
wat een tenenkrommend stuk. ja, laten we feyenoord voortaan lekker in de steek laten bij een achterst…
dus dat keurt het goed? als je al jaren gaat heb je t recht je club in d…
amen.
zoals ik al dacht. nul grote kansen creëeren tegen nac !. schaam je kapot te kansloos voor woorden.
collecte voor christian gyan op varkenoord. echt bijna iedereen die wat geeft. fantastisch, echt.
eigen spelers uitfluiten doe je nooit. klaar.
waarom zo cynisch 😂😂😂? zouden onze spelers ook kunnen steunen. kramer is ten slotte een feyenoorder.
1200 gold idd.
zou je er ook één kunnen maken van feyenoord vorig seizoen, en feyenoord dit seizoen? 😁
jaa snap ik man, maar alsnog netjes! eens in de zo veel tijd een wedstrijdje missen ontkom je helaas niet aan.
toch een netjes gemiddelde man! 👏
nouja goed, dan hopelijk maar op volle sterkte tegen shakhtar en in de klassieker.
begrijpelijk, wel zonde. zou betekenen dat hij tegen napoli en az er sowieso nog niet bij is, hadden he…
maar dat is toch merkwaardig, hij zou tegen ado of nac toch ook al minuten kunnen maken? is hij sneller…
achten ze een rentree in het tweede eerst noodzakelijk voordat hij minuten in het eerste kan maken?
wanneer wordt verwacht dat nieuwkoop weer inzetbaar is?
wanneer wordt verwacht dat nieuwkoop weer inzetbaar is?
spelers verdienden het ook! echt gestreden met 10 man de tweede helft 👏
kreijermaat dan, hoop ik 😜
echt te triest voor woorden. ongelofelijk dat je zoiets kan doen. ongelofelijk dat er blijkbaar…
tsja, twee keer geen antwoord gekregen. dan blijf je doorvragen. puur interesse he.
onzin man.. jaren gedroomd van dit podium. en na 1 pot dit zeggen.
helaas niet, blijkt...
hebben jullie gedaan vanavond? of spelen jullie morgenavond?
hoe zit dit met laptops bij de kuip? ik kan mijn tas incl laptop toch gewoon afgeven bij de poort?
een presentatie staan te lopen te geven terwijl de wedstrijdspanning door je lijf giert. altijd fijn!
wat niels zegt.
die krijg je pas als je, ik meen, minimaal 3? keer de cl/europacup 1 hebt gewonnen.
mooi! ben er benieuwd naar. enig idee wanneer je er mee gaat beginnen? zal nog een paar speelrondes duren zeker?
ga je nog wel title predictions doen voor de eredivisie? zoals je afgelopen seizoen vaak deed.
in acht dagen drie keer mijn club achterna. morgen richting almelo, woensdag cl in de kuip en zondag naar eindhoven. heerlijk!
tuurlijk!
ga je de uitdaging aan?
heerlijke column.
zelfde als hier ook!
erg slechte eerste helft jong feyenoord. larsson nog weinig aan de bal geweest. uitblinkers in positieve zin touré en amrabat
ja, verschrikkelijk. hoopte echt dat ze eenhoorn aan zouden stellen, ten minste iemand d…
wat een held.
fc gaf zelfs de doorslag voor hem, aldus helaas.
zouden jullie me kunnen volgen voor een dm?
top, bedankt!
top, bedankt! weet je toevallig ook welke vakken ze meestal open gooien jan?
hoe laat speelt jong feyenoord donderdag in de kuip en is deze wedstrijd vrij toegankelijk?
die fotos van onze clublegendes zo op de achtergrond 👌
kostte samen met berguis en boëtius even veel als jouw toppertje neres, marc. 🐸☕️…
robin is ook liever bezig met reageren op feyenoorders dan de wedstrijd van…
nergens anders vind je zon sfeer, gaat het voetbalhart tekeer, bij het horen van dat ene toverwoord feyenoord, feeeyeeenooord! ❤️
we zetten alles op alles!
valt wel mee hoor
haha komt goed, als jij het pils maar koud hebt staan! 😜
nice! waar heb je die info vandaan? uefa site zelf?
voor mij een groot verschil, ben rond 4 uur die dag weer thuis van vakantie 😅
kunnen jullie bevestigen dat de cl loting om 1800 is en niet om 1200?
fijne vakantie maat 👊
met jeroen eens! lijkt mij een zeer interessante tabel. ook een tabel met xg voor xg…
weet jij toevallig hoe t werkt met die vpn…
hier in is het al matchday! come on feyenoord! 💪
haha ohja, dan gaan ze voor mij geen feyen…
iemand die weet waar ik zondag feyenoord kan kijken op gili trawangan bali?
zouden meer spelers een voorbeeld aan moeten nemen! 🙌
wat is het record aantal dagen dat een club achtereenvolgend bovenaan heeft gestaan in de eredivisie?
er zijn geen betere stoeltjes dan kuipstoeltjes.
jaa, is ie zeker. snap ook wel wat je bedoelt. blijft idd een absolute held nog steeds 🙌
natuurlijk is dat echt jozsef, dat is echt duidelijk te zien. recente intervie…
matchday! en we hebben er weer zin in! 💪
tsja.. barbara barend, wat verwacht je 😂😂😂 kansloos figuur is dat zeg
en hoe.. dan ga ik wel ff uit mn plaat hoor hee
en dat noemt…
w…
feyenoord! zeer benieuwd of we het succes van afgelopen seizoen door kunnen zetten, m…
vind dat je bij n prijs die over één wedstrijd wordt gespeeld wel eerlijk moet verdelen. bovendien is de…
ja klopt, maar dat vond ik ook een raar iets. waarom zou de één meer kans mogen hebben om die prijs dan de andere partij?
gewoon terecht hoor. jc schaal is in principe een wedstrijd op neutrale bodem, en dan krij…
ja, het wordt alleen uitgezonden op fox
top, bedankt. weet je ook of ze daar ergens fox sports hebben?
weet iemand een kroeg waar ik zaterdag feyenoord kan kijken in porec kroatië?
hahaha! met de nodige mazzel 😂😂 t zit je nog diep he pik?
die van breuer en pogba had ik idd zeker wel verwacht haha, was je er bij die andere twee ook bij?
heb je de passmaps en xg plots van freiburg feyenoord gisteren gespeeld ?
haha ja dat lijkt me wel 😂
zeg dat wel..
zulke dingen gaat vergelijken om te kijken wat het ergste is. echt een zinloze column
wees blij.. ja joh dat mh17 dr allemaal niks doet en dat dat nouriverhaal wel ontzettend heft…
dit is echt met afstand de meest achterlijke column die ik ooit gelezen heb.
heeft zich toch sterk ontwikkeld hoor. ik vind dat je zn vorige seizoen met leuk te kor…
denk alleen de backs. gio gaat niet ineens t centrum uit elkaar halen lijkt mij. en waarom zou hij.
vrij jong? is wel al 24 he, zit minder rek in dan met bijv st. juste
waar zijn de prijzen voor het terugkopen van je eigen plaats voor de jcschaal te zien?
speel je op je 20e niet meer in de jupiler league.
ik ben het wel met je eens man. ik bedoel het was een groot talent, en een goed ventje, maar als j…
normaal doen hoor!
is de kwaliteit van de shirtjes een beetje goed?
hahahahahaha wat een pareltje deze reactie. in de categorie dom, dommer, domst, ....
jørgensen kwam ook volledig uit het niets, zonder geruchten vooraf.
ja, studio sport al meerdere malen teruggezien. had de live beelden van de nos die middag alleen nog niet gezien
ik dacht echt dat ik alle beelden al had teruggekeken, maar dit had ik nog niet gezien. waanzinnig. weer t…
voor de zóveelste keer betrap ik mezelf erop dat ik weer beelden aan het kijken ben van die ene 14 mei 2017. voor eeuwig nagenieten.
hoi, ik heb afgelopen dinsdag een nieuwe foto laten maken voor mijn uitkaart. wanneer kan ik mijn sk in de bus verwachten?
woudenberg was imo een prima vervanger, maar gio geeft wonder boven wonder altijd de voorkeur aan nelom..
zeg maar de al bekende, van daar had ik ook wel op kunnen komen. bij onbekende namen zijn er altijd…
bij ons zeiken ze juist over t ontbreken van scouting, haha. dat vgeel met namen als haps en diks kom…
jaa veel te veel. sparta haalt alleen maar onbekende namen beetje he volgens mij?
hahaha goud ook. nee ze hebben wel geïnformeerd naar haps, maar az vraagt 10mil en dat istie niet waard
91e minuut, natuurlijk.
die tackle op dolberg in de 92e minuut. de onverzettelijkheid waarmee ook jij ons kampioen maakte. bedankt voor all…
bedankt voor al je passie, strijd en toewijding aan onze club. ook jij vertrekt als kampioen, we zullen je nooit vergeten!
karsdorp na as roma feyenoord als ik niet op het veld had gestaan, had ik in dat vak gestaan. dit is mijn club, ik begrijp die gasten.
het is 23 juni en we zijn nog steeds kampioen.
eerst zien dan geloven. hopen dat het er nooit komt. zou een zwarte dag in de geschiedenis van feyenoord zijn.
haha ik heb m ook gehad 😂
haha wat voor enquete is dat?
schoot ons naar de beker, had een levensgroot aandeel in het kampioenschap en gaf altijd alles voor ons. bedankt voor alles held
maar één ding is een feit, zoals het nu gaat is te gek!
oh thanks man, dan klopt het wel. ik zat met 5 jaar in mn hoofd maar is 3 blijkbaar
ja maar een maat van mij had die brief gehad en dat klopte niet, dus ik dacht ga het ook ff na.
ik heb een brief ontvangen voor het maken van een nieuwe pasfoto voor mijn uitkaart, kunnen jullie nagaan of dit klopt?
ja, is echt mooi om te zien. ook in de interviews met stegeman en armenteros gaat t de hele tijd over…
ik zeg doen 🙌 met de helden van nu!
ja, daar doelde ik op! bedankt.
wanneer is de kampioensbedrukking op het shirt weer mogelijk?
ja precies, horen er gewoon thuis. had persoonlijk ook liever nec…
ja ik snap ook nooit wat veel feyenoorders tegen nac hebben en an…
prachtig stuk, sjoerd! eigenlijk hebben mijn club feyenoord en nac best wat o…
hahaha is toch een heerlijke foto
als feyenoord heeft gewonnen, duik je zo in de fontein
elia is niet eens te zien op dat filmpje joh, tering sensatiezoekers! lekker je eigen spelers in ee…
vandaag precies een week geleden.
hoe veel kost zon schaaltje in de fanshop? zelfde prijs of duurder?
staat de hele wedstrijd mét nl commentaar ook al ergens online toevallig?
niet te omschrijven dit. dit zie je écht nergens.
zelfde prijs ook? en waar te koop? kan m niet vinden op de fanshop site.
was er daar nou ook een van die feyenoord zelf verkoopt?
wat was voor dit seizoen de laatste club waarvan 4 verschillende spelers een hattrick maakte in één seizoen in de eredivisie?
ik ga genieten van de kuip zolang het nog kan. echt mocht het zondag lukken zal dat nog intenser zijn
ja, enorm. droom om nog een kampioenschap in de kuip mee te maken is door gister nog groter geworden!
feyenoord zit juist in de lift nu. fc is groot financieel risico, zonder…
geef t een kans zegt ie dan. alsof het niks uitmaakt als de club het be…
helemaal eens. mensen snappen niet dat feyenoord de kuip is en andersom.
inderdaad, je ziet gelijk dat zon iemand als tim geen fanatieke supporter is, haha.
als ik de reacties lees zie ik vooral 99% van de supporters die tegen dit plan is.
ach tyft toch op joh, lees de reacties onder dit bericht en er blijkt maar weer dat jullie al…
belangrijke zege? verschrikkelijke nederlaag bedoel je... 😔
nog steeds niet 100% zeker toch? moeten nog investeerders gevonden worden en moties moeten nog nagekomen worden toch?
fijn hoor telkens 5 min. van tevoren aangeven dat de ic direct niet rijdt! geef dan gewoon gelijk aan dat de komende niet rijden
haha idd, wel één van de betere hashtags deze
het was toch altijd 😜
ik ook niet, maar het had veel logischer geweest, ze konden sowieso verwachten dat het eind vd competitie spannend zou worden.
kijk naar camp nou, bernabeu, anfield. stuk voor stuk beroemde stadions. daar bouwen ze er ook o…
wereldberoemde naam. een nieuw stadion zou er jaren over doen die status te bereiken. waarom nie…
sentiment is niet alleen slecht he, zoals men doet vermoeden. juist door dat sentiment heeft de…
helemaal mee eens. waarom niet gewoon volgende week? als competitie achter de rug is?
eens. ik hou me vast aan de gedachte dat we bij winst zondag deze week en wedstrijd allemaal vergeten zijn.
dat die nog wel na 1530 naar binnen kunnen, zeg maar.
én rekening gehouden met mensen met kaart voort thuisvak excelsior feyenoord. das wel klasse.
hoe groot is zon ding?
ook zien. alleen huldiging op maandag is jammer, maar was te verwachten. maar verder t…
mogelijk de schaaluitreiking te zien, voor uitvak wordt een vak vrijgehouden, mensen o…
ik kan het mis hebben, maar het in in principe toch helemaal niet zon gekke oplossing…
kan me niet voorstellen dat ie een evt huldiging af zou blazen... dan krijg je meer re…
waarom zonder huldiging?
tot wanneer is de 40% korting op het uittenue geldig?
dat is wel zo idd. zeker uitwedstrijden zijn wel een verbeterpuntje ja. zal er ook vanaf hangen of dirk doorgaat.
jens is toch een fantastische 10? zeker icm jørgensen in de spits. denk echt dat we met h…
willem moet hem toch gewoon uitreiken... zou toch geweldig zijn
eerlijk is eerlijk, jørgensen binnenhalen was echt een meesterzet van m. niemand had ooit van die gozer gehoord, en kijk nu.
of die zondag in de kuip, als er schermen geplaatst worden, opwarmertje voordat de spelers komen vanaf woudesteijn!
ongeloof. puur ongeloof. wat is dit godverdomme mooi.
gouden pik!
ik, met kaart!
wat een achterlijk account is dit. jullie kramen echt onzin uit. hef je account lekker op man, je verteg…
haha dat zou wel kick zijn.
haha mocht ik geen kaart hebben is dat uiteraard het beste alternatief 😜
ja ik denk ook zoiets. ga t hoe dan ook proberen
thanks man! gaat lastig worden voor gold haha
aangezien jij de enige diamond bent die ik volg zou je misschien dagelijks even een updat van het aantal…
zeker mooi. je zag het ook aan het vieren van de 10, spelers en…
die passie bij botteghin, prachtig!
en daarvoor 1430 vitesse feyenoord 😁
fijn, dan zitten we in seizoen 202930 eindelijk op het niveau van de concu…
een spelersbudget 10mil lager dan ajax en psv vind jij ambitieus?
jij hebt dus echt héél weinig kennis van zaken zo te zien. uitstekend betoog robin.
sylvana die in de slachtofferrol kruipt, dat doet ze anders nooit 😂
sterkte!
kaartje voor vitesseuit ook weer binnen. gaat hoe dan ook een hectisch dagje worden!
heb je een update van de titelkansen in de eredivisie?
😂 coen effect omgekeerd dit he
zal je altijd zien 😜
ja helemaal mee eens. kongolo wereld van verschil imo. met de vaste elf móét het gewoon lukken. hopel…
we de laatste fase met onze vaste 11 in kunnen gaan. dat is mijn grootste zorg. als dat lukt heb ik er volste vertrouwen in
met een goed gevoel naar zwolle. hopen dat we daar nicolai en rick weer hebben, tonny hebben we dan o…
wat dat betreft heb ik er wel vertrouwen in dat t in de koppies wel goed zit. woensdag er gewoon mass…
in ieder geval mooi dat we als supporters elkaar op deze manier kunnen helpen om t wat positiever i…
en het geloof weer terugkeert. precies wat je zegt, t is vooral gevoel vs realisme nu. hoop dat die t…
ik moet er echt niet aan denken. merk dat ik na gister weer erg aan t doemdenken ben. blij dat we woe…
heel mooi gesproken. geeft exact het gevoel weer van mijzelf en ik denk nog vele andere feyenoorders.
vanaf een hotel. hij vertrekt morgen 16.00 vanaf de kuip, volgens
begrijpelijk mannen... maar wel zonde ook. spelers hebben ons nodig. zeker nu!
het zal toch zeker niet... leek er nog zo rooskleurig uit te zien toen cda als enige partij voor stemde.
het geluid loopt achter op het beeld bij de stream!
ik denk dat de wint. wat denk jij?
wijnaldum, robben, cillissen? genoeg spelers bij grote clubs hoor.
helaas wel!
willem is groot genoeg om een eigen tribune bij ons in de kuip te hebben hoor.
als we geen kampioen worden, verwijt ik het die mensen. net als die evenementmakers en tattoozetters.
top! kijk er naar uit.
ga je nog zon plot/voorspelling maken voor de klassieker, 2 april? of post je die vlak voor de wedstrijd pas 😁
heel herkenbaar. wat een stress, wat een spanning. nu al.
we moeten inderdaad vooruit, dus hup renoveren die kuip! dan maak je pas echt stappen.
welke partij is de gelukkige?