misschien kan mr visser dit probleem oplossen?
wat leuk dat jullie the it crowd erop hebben gezet!
dus kramer en bilal zijn nu echt afgetest
mijn speler van de week bij voetbal inside is steven berghuis via
10 redenen waarom rotterdam beter werkt dan amsterdam
keepertje hoor die cillissen.
mijn speler van de week bij voetbal inside is kevin diks via
fijne terugreis. droeftoeter.
potverdorie ray! das kloten!
tegendoelpunten seizoen 1718 jones 0 diks 0 vermeer 1 🙊
zo hé zonder haperen een kaart voor de supercup gekocht. 🙌🙌
aken nooit geweest. bochum is een prima stad voor cultvoetbal en bier.
zal dan wel de rijsttafel van kees zijn
wow! eten met de sensei!!
nieuwkoop heeft het goed gedaan. hij mag het van min gaan doen. we hebben met van beek ook een goei…
nee!
dat zijn er twee fulham v newcastle vanwege craven cottage en man utd v feyenoord vanwege de sfeer in het uitvak.
je bedoelt door injectie met besmette naalden?
je verwacht t niet...
op welbekende manier de bus onthalen.
gaat prima die finale. je wint niet zomaar van united. ik neem er nog een op. proost!
dat lijkt mij juist een hele goeie reden om nooit meer op die plastic troep te spelen
helemaal mee eens!
beestenbende weer overleefd. nu tijd voor echt belangrijke zaken feyenoord!!!
dat roemeen je niet!
domino dday met surfboards hawaii, eehhh spanje doet het gewoon!
daar is onze grote vriend weer!
zo! daar komt die aap effe uit de mouw!
ha, daar is bokito!
de oogst tot nu toe een boot, een bling maan en een goed stuk kattengejank
houd de fontein heel!
heli zoekt een plekje op jozef israelslaan
mijn speler van het jaar bij voetbal inside is nicolai jørgensen via
laat me jouw zwaartekracht zijn? serieus???
en dan staan er ineens weer nieuwe afleveringen van saga noren op
leuk voor fraser. voor de rest couldnt care less.
vfl bochum in de netten.
goeie keuze! staat bij mij ook op het programma.
ergens tussen gespannen en ietwat triggerhappy.
mijn speler van de week bij voetbal inside is steven berghuis via
eens!
ik hoop dat harry inderdaad nog lang gezond mag blijven.
wellicht het worstenimperium
kunnen jullie volgende keer geen seniele oude mannen uitnodigen harry mens is over de mentale houdbaarheidsdatum.
geen probleem. die krijgen rust voor zondagmiddag. 😆
het is nu wel tijd voor om vertrouwen in blind uit te spreken.
nog daar geweest met feyenoord tegen lokomotiv. verbaast me dat die bak in de tussentijd niet is ingestort.
nou... in groep 5 luisteren ze wel beter naar de juf!
en zo hoort dat. het is tenslotte wel ijshockey! op naar vrijdag!
mijn speler van de week bij voetbal inside is tonny vilhena via
alle ballen op mikey!!!
laat m maar lekker daar blijven
slechts 63% maar...
mijn speler van de week bij voetbal inside is nicolai jørgensen via
voor het eerst sinds de winterspelen van 2010 weer eens ijshockey gekeken. dit keer bij geweldige po…
bedankt voor de tip. ik vond m mooi!
alaaf!!!
ik reken op een zakelijke 02
mijn speler van de week bij voetbal inside is jens toornstra via
heeft het bestuur al zn vertrouwen in de trainer van quinten uitgesproken??
lees dat partijen allemaal zeggen dat de plannen rammelen en slecht zijn uitgewerkt. waarom denk je dat raad dan voor zal stemmen?
lees net jullie verslag. is er iemand in de raad die fc wel een goed plan vindt?
zouden ze blij mee moeten zijn. 😂
met schrootjes op het plafond. netjes!!
schijnt dat ze al wel een appie hebben
sorry. zit ff te eten.
neemt iets te letterlijk
😆@rayclaassen
verdacht kerstpakket?
thuis tegen 020
nu al een topavond!
had je best mogen klemmen, nick!
mijn speler van de week bij voetbal inside is karim el ahmadi via
wedstrijd gaat gewoon door aldus wat nu valt kan straks niet meer vallen.
succes vanavond!
een uur lopen, terwijl er een tram gaat? nee dank u! dat geloop gaat allemaal ten koste vd pmds
twee uur van te voren? wat dacht je van 15 minuten?
zoek maar eens op google naar wristband away fans. vind je niks.
werkze gozer!
hee! ga je weer naar astrid?
was je daarbij?
philippe leonard. linksback die volgens eigen zeggen liever niet tegen rechtsbuitens speelde...
wat een suggestieve titel. er is toch geen vogelpest op t akkertje?
dat van gudde is wel terecht.
mijn speler van de week bij voetbal inside is rick karsdorp via
lekker geregeld eerst man utd weinig kaarten geven en dan janken dat je weinig kaarten voor de uitwedstrijd krijgt
aan alle boeren met kiespijn vergeet niet te lachen!
onderweg naar zwolle voor een bakkie met en
moeten ze in ook doen. gelijk flitsers installeren!
sowieso een mooie boete voor staan op de trappen. ik gok op eur 60k.
mijn speler van de week bij voetbal inside is brad jones via
die maatregelen zijn nog zwaar overtrokken. resultaat van gisteravond doet daar niets aan af.
dat was niet plotseling. de sfeer is altijd fenomenaal europese wedstrijden. ☺
ze zijn er wel, je hoort ze niet!!! 🙊
zal wel net aan lukken
miljoenen verspild aan dit megalomane luchtkasteel. tijd voor en
90 min + 55 min voor drie wedstrijdkaarten. benieuwd hoe lang ik voor man uuit kan wachten
dat zou mooi zijn!
kassa bij aub!!!
man man man. wat is dit een kansloos systeem. echt een verbetering.
lekker geregeld jongens!
14 mln voor cillesen. das een ruime 13,5 miljoen te veel.
vanavond met en naar woudestein.
opblaasbanaan mee!!
paar jaar geleden geweest. hele mooie groundhop. mooie mensen daar. en je hoort de apen uit de zoo ernaast op de tribune.
topstadion, maar voor t voetbal hoef je er niet heen!
succes vanvond. wie weet tot vanavond op woudenstein.
moggûh. zet dan wel t juiste rijtje neer
vanavond 2245 ja dit verdienden we niet. we hadden véél meer balbezit, maar zij benutten die ene kans...
lees hier wat tips over hoe je met meldingen van burgers omgaat.
sponsort de en wij ons maar afvragen waarom we niks meer voorstellen op sportgebied...
😆
mij ook niet!
onderweg naar met gewoon, omdat het kan!
yes! eindelijk weer voetballen! ik ben erbij vanavond op craven cottage
oh ja das waar. die zijn er ook weer bij dit jaar! twentefans geven stadionverbod aan feyenoord bestuur
london calling! morgen fulham newcastle en zondag west ham juve.
toch aardig om die onterecht gegeven pingel te missen
en het is matchday!
nope. nog steeds geen verlichting op de lindelaan. de chef straatverlichting van is zeker nog op vakantie...
het thuisshirt van feyenoord
volgens west ham worden de uitschuiftribunes voor het eerst gebruikt bij de openingspot vd premier league tegen bournemouth
speciaal voor
mooi snel opgepakt door reageerde maar eens zo adequaat op jullie meldingen...
dit heeft kennelijk geen hoge prioriteit voor
terwijl ado met 04 wint, heeft feyenoord het weer traditioneel lastig in de bollenstreek.
het is henk vos
jammer. dan moet duitsland t maar doen.
hup ijsland! stunten maar!!
en weer wint een brit op utah beach.
die kan er echt ouderwets geen kloten van!
eén voordeel voor de belgen. ze nog voor middernacht thuis!
pruik nummer 8 haalt einde wedstrijd niet.
hup ijsland!
heeft 115 minuten geduurd maar we zijn begonnen.
zet net de tv aan. heb ik nog wat gemist van
ohhhh wat hebben die belgen een hoop goede spelers. maar een team no way. wat een overschatte ploeg. heja sverige!!
das waar. zit dat weekend in london. even wachten daarop. qua zaterdag totnutoe weinig soeps.
er spelen toch niet zoveel clubs thuis in london dat weekend? zie alleen millwall thuis tegen oldham
aparte competitie inderdaad. feyenoord heeft een tijdje terug geoefend in belfast. maar dan heb je nog geen ierse wedstrijd...
10 uur scherp!
is geen ierse ploeg. coleraine ligt in noord ierland.
morgen maar eens kijken wat daaruit komt rollen.
makkelie gegeven penaltie.
zeg htm, mag een buschauffeur bellen onderweg?
rusland hoef je niet te diskwalificeren. die werken zichzelf wel het toernooi uit!
ik ben voor!
en kijk je op de belg, hebbie jan mulder er gratis bij.
kijktip. bbc
zeg wat doet die vd vaart bij jullie op de bank?
en gewoon weer banken vanavond!
jammer dat die fransen nu winnen, maar quel goal van payet!
kijk wel uit. zette precies tussen de reclames door in de rust de tv aan. gelijk de dieptepunten vd 1e helft te pakken.
hij is knijterzoet en een tikkie kruidig. 4 oinks!... geurdrardus
wellicht is regionalliga west optie voor eerstedivisieclubs tegen deelname fc twente aan jupiler league
toch nog een oostblokwaardige bijdrage!
oostenrijk zingt in t frans. ach het is leuk om naar te kijken zullen we maar zeggen...
ik denk dat ik even de laser show, aldus de zanger van
waaaaat? niet in het engels???
gewoon op de bbc kijken met edward nortons commetaar. ook niks mee, maar el sierd zou ook niet mis zijn!
en dan nu de grote favoriet van edward norton
minder gestroomlijmd dan gister
nee, broer van mario
amstel en broodjes unox zullen daar ook wel lastig te vinden zijn.
ik denk dat ik louis zie.
zag er best beschaafd uit. zeker in vergelijking met de rest van het publiek.
onderweg naar griftpark om met hippe happen en dito pinten te doen.
komen wij uit rotterdam??
sterkte ermee.
net nu het mooi weer wordt en de bbq aan kan? nee dank u!
doelpunt van het seizoen!
wat een briljante docu over een van de mooiste sfeeracties ooit.
makkelie gegeven.
en top. nu focus op de bekerfinale.
kan hij nu mooi wang uitkopen.
die van inesta was wel 99.9999 procent strafschop.
hopelijk heerlijk fa cup avondje op de bbc. ⚒
is een steward van kan niet anders.@nossport kleine atletiekfan mag niet met zijn vader over de finish.
rust in twente. we doen even een rondje schlagers.
mijn speler van de week bij voetbal inside is jens toornstra via
beste 1 aprilgrap tot nu toe!
ik hoop dat ie in 2016 geen directeur meer is.
dat is pas na de eerste screening van feyenoord
hij wel, zij ook, hij ook wel. deze zeker niet!
woudenberg terughalen. beter dan nelom
wordt bij elke slok lekkerder. pepertje, bloemig en duvel. duvel tripel hop 2016
hoofdstukje. mooi versprekinkje in item over gevonden hoofd
schijnt dat abou utrecht met vrij vervoer wil laten komen. en wij een buscombi krijgen. opstap lage zwaluwe &amp woerden.
en nu op naar de finale.
u is lekker bezig. tosso!!
kan knüppe voor feyenoord ook een rapportje schrijven met dezelfde conclusie?
laat m gudde meenemen!
hij moet dat lijf ook goed onderhouden!
knappe score van 200 arrestaties rondom zullen er vast twee veroordeeld worden voor wildplassen en drie voor geen id
strik erom.
in een notendop 8jr lang voorzitter. geen reet opgeschoten met stadion en 49% vd club verkocht voor een habbekrats.
zegt genoeg.
opvissen en opeten!! rt rode rivierkreeft bedreigt het wilhelminapark
opzouten!
die vd heijden van fc den haag kan een stukkie beter ballen dan janarie.
en we zijn weer op woudestein!
koekoek!
dat pak je toch niet op zonder handschoenen??
op een plek waar volwassenen in koeienonsies lopen.
ik doe mijn stoute schoenen aan, ik wil gaan met die banaan!!!!! wat jij ? 🍌
is dat niet wat ze in engeland al jaren zelf doen??
nog een dagje bikkelen en dan naar
.@knvb volgend jaar weer gewoon loten zonder publiek?!
mooi! feyenoord door. nu
feyenoord kiest met 532 voor verdedigende zekerheid. jan arie op de bank is nog een extra zekerheidje.
is geregeld. over een paar dagen hebben we een nieuwe modem. ik kan heel goed zeuren.
geregeld. we zien vol verwachting uit naar onze gloednieuwe modem!
is het al zover? is
hoogste tijd!
ik ga zo naar huis. denk dat ik terugfiets over de
nou dan moet dat daarvoor helemaal belabberd zijn geweest... 😂😂
die is net verhuurd aan charlton. deze paniekaankoop wordt het dus niet.
je eigen spelers bedreigen. daar gaan ze echt beter van voetballen...
klopt. heeft vooral in t verleden laten zien dat ie goed kan voetballen.
al maanden ondermaats. heeft laten zien dat ie beter kan.
hopelijk spelen die nog heeeeeel lang op vrijdag!
als hoopt dat als het maar vaak genoeg roept dat er een topsportklimaat is, er vanzelf een topsportklimaat komt...
rtm en mancester zijn beide prima airports. in tegenstelling tot de gribus charleroi!
is het niet een beetje overdreven de brandweer een voetbal uit het water te laten halen?
zwemles wachten. schuifelt er opeens een vrouw in een giraffeonesie langs.
beter! morgen kom ik lunchen voor
kazim moet inderdaad snel weg. en nooit meer terug naar
zoek een plaatsje in de zon!
lekker bitter en een vleugje zoetig, honing. drinking a koper by rijswijk —
nog steeds een hele lekkkere pint! drinking a dark roast by rijswijk —
waarom renoveren ze nunde trappen? dacht dat de fontein gesloopt was. 😆
drink mijn bier al jaren bij voorkeur gefermenteerd
no problem. kijk zelf liever naar gary lineker dan naar jan joost.
nog culter, als je deze pot vanavond op bbc1 bekijkt.
lekker hoor klaasen!
zou ie t warm hebben die klaasen?
zn lelijke neefje?
en een beetje op adrian edmonson.
we komen in de zomer weer, als t nog kan.
bedankt. we vermaken ons prima in de eifel.
moet van zeggen het was in de boekhandel in bernkastel.
sepp heeft al een nieuwe hobby.
mijn speler van de week bij voetbal inside is tom beugelsdijk via
8 jaar schorsing voor platini en blatter. good riddance!
🙋
lukt hier een beetje beter.
ik wacht gewoon rustig af. wie weet krijg ik m nog voor de kerst.
dankuwel sinterklaas! de nieuwe en een lekkere letter!
romantisch wakker worden met op de ferry naar newcastle?
en nog een wazige uit balgarka armiya. sofia, 2006
lokomotiv sofia.
goed idee ben erbij!
bedankt, ik houd t in de gaten.
is er al info bekend over de kaartverkoop voor de bekerwedstrijd tegen az?
hoe houd ik mijn eten binnen?
en zelf gevallen...
hoe vaak hebben we die al niet gemeld? 😦
algarve is superlocatie in de zomer. winter weet ik niet. albufeira is supertoeristisch. dorpjes eromheen vond ik leuker.
hebben jullie ook een onderzoek ingesteld naar het gezochtsvermogen van grensrechter schaap?#feyaja
mijn speler van de week bij voetbal inside is rick karsdorp via
wat een heerlijk avondje
gefeliciteerd!
mijn speler van de week bij voetbal inside is dirk kuijt via
kom maar brengen om half drie in t mfc
daar heeft ie maling aan!
dan zijn we het helemaal eens met elkaar.
geen idee waarom. deze man heeft al 30 jaar niks meer met feyenoord te maken. wens m alle beterschap. dat wel.
aha. vite$$e koopt nu ook al stemmers voor de poll.
mijn speler van de week bij voetbal inside is simon gustafson via
20 euro geef ik ervoor
wat mooi! een echte ouderwets gebreide voetbaltrui!!
gefeliciteerd! ben benieuwd naar het resultaat.
hele timeline met online ticketinggedoe en dan lees je dit... ormer ict | feyenoord
xxs als initialen. das wel logisch met een sleutelhanger als vader.
gelukkig! gaat t nederlandse voetbal redden!!!
dat niet nee, maar ik kan niet veel beters bedenken.
ijsselmeervogels? vriendschappelijk potje van een paar winterstops geleden.
hoe harder, hoe beter!
matchday! eindelijk weer eens naar !
op twittâh. dat moet wel een aanwinst worden!
lekker rustig zon ek zonder
deur staat altijd open voor vlaar. of een beetje. en misschien wel helemaal niet.
vd heijde en vermeer?
sta je dan met je lotus naast het home van fc den haag.
ja. kortste weg. je weet toch?!
haha lukniks. zag m vorig jaar nog schitteren bij aue.
drinking a kraanwater 9.2 by brouwerij kraan speciaal bierwinkel —
kent ik er nog bij in de wagga?
naar bed. morgen ongehoord vroeg opstaan voor een trippie naar kent met en zijn eega.
denk dat ze wachten tot iemand zijn enkels breekt in dit gat.
niet verrast, meer verbaasd dat dit nog niet hersteld of gemarkeerd is.
ja erg he. wel jammer dat je de verkeerde fontein hebt gefotografeerd.
en daarbij
te lastig voor die gasten. conclusie is dat het tijd is het nl voetbal aan de haren de 21e eeuw in te sleuren!
is dat dezelfde verhoek die al in enschede en nottingham last kreeg van heimwee?
kloppt!
balbezit met tikkie breed is niet sexy!
niet noodzakelijk. heb je ook gelijk goeie reden om van die hollandse school af te stappen.
heren, wordt het niet tijd een buitenlandse coach aan te stellen?