wat was het heerlijk!🌴😎🌞
en noemt nou niemand de reden? ik kan niet altijd luisteren maar met jullie slippers zijn jullie toch altijd bij me🤔
op de ja daar moet je wezen want staat keihard bovenaan!🎶🏆💪
denk aan het klimaatkonijn!!! 🐰
ik zou nooit een programma laat presteren met een grote pot. volgens mij probeert 1 bner de boel te saboteren🤔
stemmen✏
wil nederlandse jongeren opnemen als politieke vluchtelingen mocht ook maar enige invloed krijgt?
is er een partij die pro is?😉
zou jullie namelijk graag een mail willen sturen. hebben jullie een adres voor mij? 2/2
weten jullie dat de pvdd website momenteel niet bereikbaar is? 1/2
trots om met de te hebben gehaald💪🏻
jongens is jolie niet moe? ze loopt namelijk al uren rondjes in mijn gedachten😍💘
heerlijke vakantie gehad🌴
ik heb al een bevestiging ontvangen van mijn opzegging maar nu hebben jullie toch nog geld afgeschreven. moet ik dat terugboeken?
en hebben jullie mijn aanmelding binnen? nadat ik op verzenden klikte kwam ik weer terecht op het eerste scherm
als ik een verzekering bij jullie neem zeggen jullie dan ook automatisch mijn oude op?
hoeveel krijg ik vergoed bij de tandarts van controles tot gaatjes met de aanvullende jong verzekering? en tot welk bedrag?
en bij ongevallen?
en met de aanvullende jong verzekering wordt alles bij elke tandarts toch vergoed van controle tot gaatjes tot een bepaald bedrag?
kijken jullie bij die €200, vergoeding per 2 jaar voor lenzen ook naar uitkering van andere verzekeraars?
...@dswzorg, of 4/4
...als zorgverzekering? of wordt ik straks weggekaapt door 3/4
ik denk dat jullie mij dus best als klant willen behouden? maar waarom zou ik weer moeten kiezen voor 2/4
op €100, na voor mijn lenzen heb ik dit jaar niks gedeclareerd bij jullie. 1/4
voor wie ooit rollercoaster tycoon heeft gespeeld er is eindelijk een geweldige opvolger!
leuke dag gehad in de en eindelijk is kunnen doen!🎢
een keer niet in de kuip als speelt maar in het oude luxor voor
de kuip zat niet vol door de maatregelen, maar wat was de sfeer geweldig! een heerlijke avond in de kuip! 🔴⚪
als je net aan het verliezen bent en dan iemand je gaat vertellen hoe je het beter had kunnen doen😣😫
ahhh dus zo voelde mijn peeps zich als ik speelde.
ik heb via tui sol principe in torremolinos geboekt. terug vliegen we laat. is onze all inclusive wel die gehele dag geldig?
ik wacht in spanning af en hoop spoedig van jullie te horen!🙂
hoi weten jullie al wat ziggo gaat doen met de prijzen van straks worden het de o verstappen weken naar
het is even je wekker zetten, het is helaas geen goud geworden maar wat een knappe prestatie van
even creatief met fruit geweest op mijn werk
weekendje maastricht was geweldig😍❤
leuk zon programmatje maar het is natuurlijk niet zo top als met en
denk even de galm erbij😉 een avondheld, in een karaokebar, op jou radio, bij igmar
maar de grote vraag is natuurlijk krijg je ook het salaris van joep erbij?😉
🎵zoek een plaatsje in de zon🎵 nou dat gaat vandaag wel lukken😎
dodenherdenking 2016. ik sta stil. mijn telefoon gaat uit.
ik sta stil. mijn telefoon staat uit. ben om 20u niet te bereiken maar aan het herdenken.
het was koud, het regende maar dat hield het niet tegen! geweldig om erbij geweest te zijn😆🏆🙌
heerst er toch net een griepepidemie in en omgeving😉
here we come!
weer? heb wat gemist?😉 maar eerlijk is eerlijk hij zat er lekker in
het spel heet bubble brainer en is een geweldig leuke puzzel game😄
wil toevallig ook een applicatie voor ios aanprijzen?😉
was ook leuk om in de zaal te zitten😁
het erge is dat ik er specifiek naar gezocht heb😂 ach hebben jullie ook wat te doen😉 maar hij is besteld hoor!
is er toch een nadeel aan het hebben van zon groot assortiment😉
oké dat is fijn om te weten! kan je deze schermen en deze ook even bekijken in de winkel rotterdam?
oké en krijgen jullie de 27 inch nog binnenkort binnen?
wordt er een hdmi kabel meegeleverd bij de lg 24mp77hm? en krijgen jullie ook nog de grotere variant 27 inch binnen?
in amerika is het al heel normaal dat je niet in openbare plekken mag roken zoals terrassen en parken. lopen hier gewoon achter...
toevallig een volger die mij kan helpen met welke specificaties mijn nieuwe laptop/desktop moet hebben en welk merk het moet zijn?
feyenoord supporter ben je niet altijd voor je lol maar wat is het geweldig om op dit soort avonden in de te zitten!🔴⚪
ja was gelukkig voor de aftrap binnen. maar niet dankzij oom agent. zij waren de enige die op rellen uit waren
alle wegen naar mijn vak geblokkeerd door me. totaal geen dreiging. maar niemand kan vertellen hoe ik er moet komen.
de app waar ik de marketing voor mag verzorgen heeft nieuwe levels! download dit leuke spel vandaag nog!😊
bedankt voor de snelle reactie! ik heb het doorgegeven😊
kunnen jullie ons nog helpen om toch in aanmerking te komen voor deze vergoeding? 5/5
dat is mij al gelukt alleen kwam jullie mail daarvoor te laat 4/5
alleen krijg ik een dag later een mail van jullie dat we €40, kunnen verdienen als ik iemand laat overstappen. 3/5
ik was zo enthousiast over jullie dat mijn broer ook is overgestapt naar anderzorg! ontzettend goed en leuk 2/5
goed nieuws! ik ben naar jullie overgestapt d en ik hoop dat jullie goed zitten want daar blijft het niet bij... 1/5
als mijn opticien er niet bij staat krijg ik dus niks vergoed?
en met het pakket jong krijg €100 per twee jaar vergoeding voor mijn lenzen. los van mijn sterkte en opticien?
met hoeveel % van de zorgaanbieders hebben jullie een contract? en hoeveel word er vergoed van een niet gecontracteede aanbieder?
is jullie basisverzekering een budgetpolis, naturaverzekering of restitutiepolis?
is jullie basisverzekering een budgetpolis, naturaverzekering of restitutiepolis?
en wordt de rekening bij jullie gelijk doorgestuurd of moet ik die eerst zelf betalen?
wordt de rekening bij jullie gelijk doorgestuurd of moet ik die eerst zelf betalen?
wordt de rekening bij jullie gelijk doorgestuurd of moet ik die eerst zelf betalen?
bijna al geen argumenten meer om niet over te stappen gaan bijvoorbeeld tandarts kosten wel van je eigen risico af?
kijk in ieder geval de snelste service! is er bij het aanvullende pakket jong nog een maximaal bedrag aan tandarts kosten?
met welke tandartsen in barendrecht hebben jullie in 2016 al een contract afgesloten?
met welke tandartsen in barendrecht hebben jullie in 2016 al een contract afgesloten?
met welke tandartsen in barendrecht hebben jullie in 2016 al een contract afgesloten?
pure laster weer, eerst meld de media dat het feyenoord hooligans zijn. maar geen refecticatie zeker
de halloween fright nights​ was weer geweldig gisteren!
wat een geweldige sfeeractie! en heerlijke overwinning van die de deed ontploffen🔴⚪⚽
weer drie belangrijke punten zien pakken!😆 met alweer een hattrick van
eindelijk een keer live kunnen bekijken in het nieuwe luxor😀 een geweldige show!😂😄😆
wij zijn er klaar voor, jij ook? 😉😊😄
leuke avond gehad in het nieuwe luxor bij
naast anton pieck ziet het mooiste attractiepark van nederland de er vooral zo uit dankzij ton van de ven
ook komend seizoen ben ik weer onderdeel van het hondstrouwe van
met 30 zien winnen van kleine broertje sc helaas bleef nog op de tribune⚽
van de week extra mediabox van horizon besteld en zojuist geïnstalleerd. maar deze zend nu geen wifi signaal uit
scriptie ingeleverd!😀 nu duimen👍
toen ik stage liep bij ging ik altijd gewoon in de kantine eten...
zelf mooie herinneringen aan de en veel respect voor deze deelnemers!
knap dat met één actie 90% een nog grotere hekel aan de heeft en ze geen loonsverhoging gunt😧
noemen ze niet eens als reden😝 of hebben we geluk dat in belgië woont?😁
we zullen ze laten beven krijgt vandaag toch een andere betekenis😛
&gt gewonnen abonnement op mijn oude simkaart? dit abonnement is namelijk beter 4/4
&gt vervangen maar dat is dus niet het geval/mogelijk? kan ik dan wel mijn huidige nummer over laten zetten op mijn &gt 3/4
&gt loopt nog een jaar door. ik begreep van qmusic dat het abonnement dat ik heb gewonnen dit misschien zou gaan &gt 2/4
bedankt! heb ik alleen gelijk nog een lastigere vraag. ik heb momenteel al een abonnement bij tmobile &gt 1/4
klopt het dat er geen oordopjes zitten bij de sony xperia z3 compact die ik heb gewonnen bij how low can you go op qmusic?
het kan aan mij liggen of irriteert deze situatie en vrachtwagens je een klein beetje?😜
wel fijn dat voor volgend seizoen een nieuwe spits, buitenspeler, middenvelder en verdediger heeft met
om iets voor half 11 ben ik te horen op voor
oké zijn er nog meer mensen die een 1 april grap met me willen uithalen?!?
ik had op zijn minst een reactie verwacht of wil de keuze om over te stappen wel heel makkelijk maken?
de veiling van de eerste kreeft met als veilmeester levert €23.900 op voor
waarom krijg ik zon historisch lage rente als er blijkbaar genoeg geld is voor salaris verhogingen en bonussen?
kunnen jullie verdedigen waarom wethouder vermaat wordt gesteund door d66 tijdens belangenverstrengeling?
gestemd✏
de studiefinanciering is hervormd maar hoe gaat de kwaliteit van het onderwijs er nu op vooruit? wat zijn de concrete plannen?
wie kan mij in 140 tekens overtuigen dat ze mijn stem verdienen?
wie kan mij in 140 tekens overtuigen dat ze morgen mijn stem verdienen?
wie kan mij in 140 tekens overtuigen dat ze mijn stem verdienen?
in plaats van deze symbool politiek zou het niet helpen om gewoon de service van de te verbeteren tegen agressie in de trein?
het was heel duidelijk dat had besloten wie door moest... wees dan ook een vent en laat de wedstrijd niet eens spelen!😠
wordt een mooie wedstrijd volgende week in een kolkende kuip! 3/3
in plaats van de goede sportieve prestatie. 50 van de 6.000 supporters is nog steeds minder dan 1% van het geweldige legioen! 2/3
ontzettend jammer dat een paar mensen die je geen supporters mag noemen zich hebben misdragen en dit zo het nieuws domineert.. 1/3
als ik nu ga rellen en zeg dat ik een fan ben vindt joep dan ook dat jullie voor straf van de zender moeten?😞
ja daar trap ik mooi niet in! jullie hebben die beelden gewoon versneld 😏😜
analyseren kennis kennis conversie conversie $$$
was van plan te stemmen 18 maart maar dankzij het zal ik een nieuwe keuze moeten maken.
van vanavond in gezien. een geweldige show. absoluut een aanrader!! 😂
ehhh... gewoon aan het uiteinde van mijn armen 🙌👐 waar zijn die handjes!?!?
mocht er een god bestaan dan geloof ik dat deze staat voor liefde en niet voor geweld.
oké blijkt het dus gewoon 2015 te zijn, dat niemand dat ook even meld op social media...😒
is het nog gelukt om koeman en van gaal te zien winnen of kon fox je niet helpen en moest je naar de kerstboom staren?🎄😜
je moet je vraag naar sturen, reageert namelijk niet op klachten en zo mis je alle wedstrijden😉
oké bedankt, dan wacht ik dat even af! fijne feestdagen 🎄☺
ja dat lijkt mij de beste oplossing. welke acties moet ik ondernemen met deze houder?
neem aan dat ik dan niet puur de zuignap krijg maar het hele onderdeel?😉 dan moet het design weer kloppen met de afbeelding
ik heb net mijn bestelling binnen gekregen 11799051. maar ik mis de zuignap en hij ziet er anders uit.
deze foto is van afgelopen zomer toen jullie op vakantie waren?!?. momenteel hangen jullie in 1 hokje minder
jullie twijfelde om te adverteren in en toen maar besloten om het bescheiden te doen?😅
de kerstperiode is officieel begonnen. voor het eerst dit jaar van op de radio gehoord 🐇🎄
deze twee kreeg ik bijvoorbeeld gisteren en vandaag
de muziek van 2014 in één video!
beste we zijn een jaar verder en ik ontvang nog steeds meer smsjes van jullie als van is er iets misgegaan?
onderweg voor de minor online marketing naar het hoofdkantoor van om geïnspireerd te worden en een pitch te geven
wat een heerlijke sfeeractie, doelpunten, wedstrijd met passie en strijd en na vijf wedstrijden al door!😆
nou dan hoop ik helemaal dat hij nooit meer een wedstrijd fluit! zelfs niet meer bij de fjes😒
en het was nog mooier om er middenin te staan!😆
de buitenspel goal afkeuren was zijn enige goede beslissing!😖 die scheids kan er helemaal niets van
toevallig ook op zoek naar een marketing gerichte afstudeerder?
dat kan ik alleen als jullie mij volgen en dat is tot op heden niet het geval 😉
afgelopen dinsdag gaf je aan dat er een mogelijkheid was om af te studeren bij twitter. waar kan ik deze vacature vinden?
twee grote concurrenten die wel gebruik maken van elkaars diensten. adverteert op
inspirerend gastcollege gehad van over en al haar mogelijkheden.
een upc monteur heeft alles aangesloten en kabels vervangen. verwacht niet dat daar het probleem zit. het probleem is ook niet constant
is weer in het land! mooie herinneringen aan😃😆
als wij tv kijken via horizon hapert het beeld de laatste tijd steeds vaker zie video kunnen jullie ons helpen
koopt de een in, leidt deze alleen naar een niet bestaande pagina
met oud stagiaires en weer een top avond gehad bij in veel mooie herinneringen opgehaald😈
sinds vorige week zaterdag is sinne bij ons komen wonen. tijd om haar even voor te stellen! 🐶 credits video
als je een nieuw bedrijf wil starten is de voorbereiding belangrijk! schitterende vergader locatie 😃
durf je nu nog wel het weekend in quarantine te komen?😈😉
welkom in de familie sinne! 😄😍🐶
jammer maar bedankt.
met in 😃😆
...het ook mogelijk is om een afstudeeropdracht uit te voeren bij ik hoor graag van u en nog een fijne avond. 2/2
ten eerste bedankt voor het inspirerende gastcollege van vanmorgen! ik vroeg me na deze overtuigende presentatie af of... 1/2
hebben jullie ook commercieel gerichte afstudeeropdrachten beschikbaar en hoeveel tijd van ten voren komen die ongeveer online?
kijk net dat beetje extra motivatie dat je nodig hebt op de vroege dinsdag morgen😧😒
de beste plek om een lijk te verstoppen is op de tweede pagina van google.
over drie weken komt één van deze zeven puppys ons gezin uitbreiden😀😍🐶
staat helaas nu niks op maar voor de leukste bedrijven ben je bereid om te wachten😊 hopelijk is er binnenkort een mogelijkheid
voor de periode van februari tot en met juni 2015. zijn er mogelijkheden om dit voor uit te voeren? 2/2
momenteel ben ik op zoek naar een uitdagende marketinggerichte afstudeeropdracht. 1/2
om te kunnen afstuderen ben ik nog op zoek naar een interessant bedrijf waar ik een leuke afstudeeropdracht kan uitvoeren. iemand tips?
in een klassieker ligt elke beslissing onder een vergrootglas! waarom stel je dan niet aan, de beste scheidsrechter van nl?
ook voor mij is de vakantie nu echt voorbij😧 onderweg naar de voor mijn eerste schooldag van het laatste jaar
ach, scheelt straks natuurlijk wel weer bij de stroom kosten😉😶
wat een heerlijk nieuw seizoen van 😄
blader je het magazine door kom je jezelf tegen😄
voor het niet volgen van de juiste rijrichting... op een fietspad😧
ongelooflijk hoe je een 30 voorsprong uit handen kan geven maar geweldig om er bij te zijn als de kuip ontploft!
het nieuwe seizoen van begint al op 5 september! ben ik eerder dan gedacht op tv😉
dagje in
ohhh dan kom ik morgen nog snel even langs als het weer mee zit, als je dat goed vind natuurlijk 😉
ik ben even de pot met goud zoeken
wie zag hem liggen? 😉
2\2 dus de eerste 5 seizoenen van meegenomen om via auto dvd speler te kijken 😊
als je dan toch een auto rit van ongeveer 10 uur moet maken, kan je het maar beter ook leuk maken voor jezelf. 1\2
haha misschien moeten we het even over doen, het is niet mijn beste foto 😂 maar wel heel toevallig! 😜 veel plezier nog!
lekker in met
een geweldige ervaring gehad op de van met het ondertekenen van mijn contract als de
zondag tijdens de open dag van bij martin van geel mijn contract ondertekenen als de nieuwe nummer 12!
eerlijk is eerlijk, de heeft er wel alles aan gedaan om zich tijdens de belachelijk te maken!
als ik zo kijk wat voor ruimte duitsland af en toe weggeeft had echt een goede kans gehad om te winnen met
rt ik, een dikke maand geleden we moeten wel 1e worden in de poule want anders moeten we tegen brazilië. hahahaha.
voor af hadden we allemaal voor een derde plaats getekend, achteraf had er meer ingezeten maar ongelooflijk trots op dit
vandaag weer voor één dagje werkzaam op de marketing afdeling van walibi om te helpen tijdens
vandaag tegen gekomen in leeuwarden. ik vind het maar verwarrend! 😉
roadtrip met door nederland, na zwolle zijn we nu in leeuwarden! nog leuke suggesties voor plaatsen?
gisteren leuke middag gehad op de ss rotterdam en gelijk toen was geluk heel gewoon de film gezien.
onderweg naar maastricht om te figureren in flikken maastricht
maar ik heb hem via de webshop besteld, ik kan dus niet naar een tmobile winkel.
nee enkel het contract en rond uw bestelling af mail. is het mogelijk dat jullie hem nog naar mij kunnen mailen?
heb s5 gekocht maar heb aankoopbon nodig om 32gb sd kaart aan te vragen bij en heb alleen pakbon ontvangen
tot nu toe ben ik vooral onder de indruk van de batterij kwaliteit, maar ook de hartslagmeter vindt ik een leuke toevoeging
nieuwe telefoon! toch gekozen voor de
hoewel brazilië beter was hebben ze toch onverdiend gewonnen. bedankt scheids! maar mochten we ze tegen komen dan maken we een kans!
dat scheelt weer, moet nederland gewoon tegen kroatië in plaats van brazilië na de poule
oké laat he maar beginnen! ik ben klaar met de voorbereidingen en heb zin in het echte werk.
aankomst door
ik duik nu mijn bedje in maar voor alle teams die hun laatste nacht ingaan op weg naar de coolsingel!
doordat onderhoud uitvoert aan het spoor mag ik half nederland door reizen om weer thuis te komen.
onderweg naar harderwijk om daar het zonnige weekend door te brengen
heb 4614 abonnement verlengt maar geen bevestiging mail ontvangen volgens mytmobile zou die ook in oktober starten ipv za
onderweg naar de kuip om het nederlands elftal te zien spelen tegen ghana.
dan is de actie van albert heijn toch sterker als die juich pakken van de
iedereen bedankt voor alle felicitaties!
ter voorbereiding van de champions league finale het het grote erger je wel voetbalspel gespeeld.
altijd met veel plezier en interesse gekeken naar pauw &amp witteman! jammer dat dit de laatste minuten zijn, hoop op een goede opvolger.
oké waarom hebben sommige partijen tot wel 47 kandidaten op de lijst staan terwijl we als nederland maar 26 zetels mogen verdelen?!?
stoppen ze er bijna mee gaan ze weer spannende tv maken met en paul witteman die elkaar in de haren vliegen!
maar guido als je wordt gekozen met voorkeurstemmen ga je dan ook echt naar brussel?
je blijft je natuurlijk wel afvragen wat er was gebeurd als we ook een baard hadden gegeven
ik eis een hertelling! volgens mij is dit doorgestoken baard!
dus als die man in een jurk niet had meegedaan hadden we gewonnen.
volgens mij zouden we met onze inzending pas echt kans maken als hij wordt aangepast naar deze versie!
seizoenskaart aangevraagd om een seizoen lang bij elke thuiswedstrijd aan te moedigen met o.a.
heerlijke vakantie gehad bij met
moet ik voor de samsung galaxy s5 gaan of toch voor de htc one m8? en waarom?
de kopgroep van de marathon van rotterdam gespot. kwam net daarachter.
nog niet iedereen uitnodigen! heb net mijn kaart op de post gedaan
leuke dag gehad in de is echt gaaf geworden! en de marketingfdeling is nog steeds gezellig
je veter zit los!
pfff dan kan je al een uur korter slapen maar wat je pas echt opbreekt is die wekker om 0200 uur om alle klokken te verzetten...
volgens de tv gids en jullie eigen website moet er nu een aflevering zijn van ipv ncis
mijn burgerplicht ook weer gedaan!
samenvattingen blijven bij de heeft hansie hansie dus voor niks bij dovo getekend en td positie bij de graafschap mis gelopen.
het laat de gemeenteraadsverkiezingen in draaien om de koopzondag. nos neemt het over.
ja zo lust ik nog wel een paar. naast het zij zijn groot en wij zijn klein argument heb ik geen enkele goede reden gehoord.
grappig als nederland dezelfde wet in wil voeren als de andere landen binnen het koninkrijk, wij dan opeens racistisch zijn.
ongelooflijk!!! castaignos blijkbaar nu wel hinderlijk buitenspel en vorige week niet! maar zal volgens wel weer kloppen...
goed om te horen. uiteraard! kom ik gewoon een kopje choco doen
geniet ervan! ook genoten van amerika? het is weer erg wennen maar overleef het wel
was het maar alleen een niet gegeven penalty geweest... maar verder alles goed? al klaar voor de opening?
ja de knvb had nog iets goed te maken met feyenoord
mag toch hopen dat cris van nijnatten geen geld ontvangt van het om deze onzin in zijn column op te schrijven!
natuurlijk mag je het nooit meer weggeven maar twee penaltys en een rode kaart die niet gegeven worden...eén grote show!
vandaag een excursie gemaakt door en onder andere een dierentuin en een berber stam bezocht.
aan dit uitzicht kan ik wel wennen
zit op de vroege zondagmorgen alweer een uur in de trein van harderwijk naar barendrecht om straks wedstrijd van excelsior te bezoeken!
ik had beter in bed kunnen blijven liggen...
zullen virtual realityattracties de komende jaren de trend worden of zijn juist virtuele pretparken de toekomst?
jammer dat weg gaat maar ik kan zijn keuze wel begrijpen. als ik van geel was zou ik nu gewoon van gastel aanstellen.
alleen jammer dat niet gevraagd werd om donateur te worden of het woord niet meer te gebruiken als scheldwoord in de stadions
zon voetbalwedstrijdje valt toch wel volledig in het niets als je de verschrikkelijke verhalen hoort over kanker.
haha ja we hebben een groot en trouw legioen
kijk johnnie! zeldzame, nog nooit eerder vertoonde beelden van een kijkje achter de schermen bij
op blue monday met de gaan reizen, dat is natuurlijk vragen om een depressie
wat een slecht interview door knevel en van de brink. wanneer zijn pauw en witteman weer terug?
voor het eerst sinds afgelopen zomer een bezoekje gebracht aan school. de 27ste beginnen voor mij de lessen weer.
op de één of andere manier vindt ik het veel fijner om s nachts te werken. krijg je meer gedaan en er is minder afleiding.
ja als je meer dan twee uur in de trein zit heb je er de tijd voor
dat noem ik nog is service van en in de trein dat geldig is tot eind 2025!
vanmiddag gekeken bij op en nu ga ik hem zelf ook doen... alleen dan wel in een zwembad
dan ga ik je niet zien, maar ik wens je veel succes!
bij paal 28?
2013 was niet altijd makkelijk maar heeft ook mooie herinneringen en ervaring gebracht. hopelijk wordt 2014 voor iedereen een nog beter jaar
het oudejaar afsluiten met een dobbelspel.
na een strandwandeling lekker aan een kop warme chocolademelk!
in de trein van harderwijk naar barendrecht.
ik probeer me in te schrijven inwonend maar als ik bsn invoer van hoofdbewoner krijg ik foutmelding.
op een gezellige manier afscheid genomen van een top stage bij
vandaag voor de verandering is naar een attractiepark
ja het is zover! voor het eerst dit jaar flappie op de radio gehoord
oké maar er zijn dus ook geen acties van bedrijven zoals afgelopen weekend, zodat het drukker is in het park? alvast bedankt!
ivm het plannen van mijn bezoek zou ik graag willen weten of er aankomende zaterdag een uitkoop van het park plaats vindt?
t heerlijk avondje is gekomen...
ja het klopt dat ik mijn nummer heb meegenomen, maar het eerste smsje kreeg ik pas 25102013. wel gek opeens na zoveel jaar...
over hoe ik mijn prepaid zaken kan regelen. en ik ben ooit klant geweest maar dat is alweer vijf of zes jaar geleden.
beste hoe kan het dat ik smsjes ontvang van jullie terwijl ik bij zit?
wat een heerlijke wedstrijd! na vorige week weer trots om supporter van te zijn. geweldig legioen!
blijft toch leuk om elke ochtend wakker te worden met zon achtertuin
was een leuk feestje!
samen met een leuke dag gehad in en natuurlijk een gekocht!
gaat hier op nog wel even door en dan alweer laatste dagje halloween fright nights!
zag zijn club feyenoord verslagen worden in de halve finale van de champions cup tegen man utd met 54 over 2wedstrijden.
help mij met mijn onderzoek. vul deze enquête in en maak kans op 2 entreetickets voor zondag inclusief 2 rip passes!
weer een nieuwe reden van vertraging meegemaakt met de ns. de goederentrein naast ons stopte plotseling waardoor hij onze baan versperde...
over de oplossing met kleuren pieten zou ik graag jules deelder citeren wat zwart is, moet zwart blijven.
waar?
eerst dagje gewerkt, toen halloween fright nights beleefd en daarna door naar amsterdam voor top dag, maar voor nu welterusten.
ja was deze zomer op vakantie. ik ga haar heel erg missen. ik heb het erg ook heel moeilijk mee.
vandaag afscheid moeten nemen van onze lieve trouwe viervoeter rakker. ik heb hier het verhaal op papier gezet
lieve rakker, bedankt voor de mooie 13 jaar die we samen hebben doorgebracht. ik zal altijd van je houden! rust zacht
je hebt woord gehouden, een top show! in de pauze wel met andere ogen gekeken naar stelletjes die knuffelend rond liepen
onderweg naar in het nieuwe luxor. ik heb er zin in, nu hopen dat hetzelfde geldt voor youp
wat ik ga doen vandaag? op een unox kraam staan en een wereld record poging filmen.
tijd om mn bed op te zoeken want moet morgen om half 8 beginnen. maar voor wie nog wakker blijft zo komt op rtl5 de ident van
net door de haunted houses gelopen als voorbereiding. heb nu nog meer zin in halloween!
net was de ident van voor het eerst op zag er op tv nog gaver uit! heb jij hem al gezien?
gister een bezoek gebracht aan ben positief verrast, mooi en leuk park. en wat is een geweldige achtbaan!
beste sinds mijn sim only abonnement is ingegaan neem ik mijn bel minuten niet meer mee, terwijl was belooft dat dit kon.
de trein van amersfoort die om 20.25 aan moet komen op rotterdam centraal. dan mis ik trein naar barendrecht van half.
2/2 gelukkig gaan voor deze service wel de prijzen binnenkort fors omhoog... bedankt