oke ik heb m iets tevaak al geluisterd. 😂
true, zaterdag kon ik eindelijk weer meedoen, vallen er 3 spelers uit met blessure waarvan 1 gescheurde…
vnv heb k wedstrijd☺
jaa maar de parodie is wel geniaal geworden ffs!😍
hahahhaha ik ging stuk deze parodie is zo geweldig😍😂 “the ting go skrraa | minecraft parodie via
ja maar echt hoor
jeetje wat een prestatie😍
ik ben super excited, ik heb zin in alle videos. maar vooral wel kingdom en david vs reve😏 maar kijk er echt wel naar uit!!!🎉
had ik dan afgelopen week al moeten aangeven, was me al aangeboden. maar afgelopen week ging alles weer goed en nu niet😢
morgen begint toetsweek 😢 hoofdpijn neemt steeds meer toe en heb nog steeds last van een piep in mijn oor. hersenschudding is slecht getimed
wat is dit dan?
hey ik zou je graag een dm willen sturen alleen kan dit niet helaas. ik heb een vraag😅 je mag me volgen en weer ontvolgen voor dm
heftige wedstrijd achter de rug...😳
zometeen wedstrijd tegen broekster walden😊⚽
je kan nog steeds niet voetballen, maar ze dachten we laten dyonne mee doen zodat ze van voetbal afgaat omdat ze kapot slecht is.
06112 alleen voor noodgevallen🔥
fck hoofdpijn weer... klaar mee😳
ik heb tussenuur en ik wil even leren... is de mediatheek gesloten. oke geef me dan gelijk een 1...
hahahaha eerlijk
er staan brugklasser in de kantine die de hele tijd atten, atten, atten schreeuwen. oke je bent 12 ofz...
hallo moeheid, ik ga slapen in de lessen...😴
oh nvm ik las t als slapen is vermoeiend hoor maat dat staat er niet
jap met volgende week een toetsweek op de planning.
hersenschudding verneukt mn schoolleven op dit moment...
goedemorgen, zo weer naar school en dan om 1345 weer studievoorlichtingen tot 16.00. en vanavond weer proberen te trainen😊⚽
hmm had liever alle toetsen gemaakt in de toetsweek, maar ik denk echt niet dat anw mij gaat lukken...
lol, zeg jij 😏
ik wil met iemand kunnen praten op school docent maar mijn mentor kent me niet/amper en mijn coördinator ja die heeft het al heel druk...
en dan morgen weer studievoorlichtingen fysiotherapie bewegingswetenschappen technical computer science ben benieuwd
ja klopt, wel echt jammer. het is echt niet een jongens ding. alleen denk ik dat jongens zich er wat sneller interesseren
ja t valt binnen de sector ict
als ik politie ga doen, dan ga ik bij de recherche met een wo opleiding. en dan het ict gedeelte. dat was ook erg v…
tandheelkunde vond ik echt helemaal niks, het is niet echt mijn ding.
bij computer science and engineering waren ongeveer 50 mensen en daarvan waren er maar 3 meisjes incl. ikzelf. maar…
had vandaag 3 studievoorlichtingen tandheelkunde computer science and engineering politie en ik vond de laatste 2 wel echt interessant😊
studievoorlichtingen op de nhl
ik heb studievoorlichtingen maar ik ga de livestream zeker terug kijken!😊
inderdaad!
hmm geen behoefte aan😂
waar weg?
ik weet het ik hoor het genoeg van mn ouders. welterusten😊
hoop het ook, dankjewel❤
mn hersenschudding heeft nog best veel impact... heb weer enorme hoofdpijn dus ik ga nu maar slapen. gn iedereen❤
lekker daaf, ik verlies de hele tijd, heb geen idee wat een goed deck is. zit nu rond de 1600 de hele tijd
dit is maandag
eh er zit een bot geloof ik niet helemaal goed onder mijn bij mijn rug😂😂
morgen weer naar school, na 3 weken thuis heeb gezeten😊😊
samenvatting maatschappijleer ook weer af, gaat wel goed zo😊
mn gabber dat ben jij vriend, mijn maat❤
isomeren en iets wat ik niet kan omschrijven omdat ik gewoon niet snap waar het overgaat😂
is iemand echt heeeel goed in scheikunde, heb hulp nodig man?😅
jeetje wat een storm zeg...
wat is een goede horloge shop?😅 niet al te duur svp😊
mn ogen kunnen er bijna wel uitvallen zo vermoeid ben ik
vertel... en anders doe je maar via app. maakt mij nie uit
die twee woorden weet ik wel zeker van niet😂
oke, dus als ik t goed begrijp moet ik bij jou kut opmerkingen maar doen alsof t een grapje is e…
is dit sarcasme?
heb ik nooit gebruikt
oke drop een woord en ik zoek het op in mijn whatsappgesprekgeschiedenis dingetje😂
bij mij niet😂
heb ik ook de hele tijd op mn ipad, vooral ook problemen met die onderstebalk😕
ben fck grote fan van hun, ze zijn echt geweldig😍
lol, en wat wil je hiermee zeggen?
dit liedje raakt me elke keer weer en maakt me eigenlijk altijd aan het huilen. 🎵demons imagine dragons🎵
maandag eindelijk weer naar school, na 2 en een halve week thuis te hebben gezeten😊
ik heb t zo koud
new rules van dua lipa, of malibu van miley cyrus😊
nahw wat een lieverd😍😍
van sommige vrienden verwacht je net iets meer😕
gun hem
deze kan k ook helemaal mee zingen/ rappen 😅
hellup, 5 letterwoord met deze 5 letters😅
trots weer op de nederlandse leeuwinnen❤❤⚽
weer genieten van de intro❤️waarom roleplay niet werkt!! minetopia | minecraft reallife server via
ict gespot
zeg ik dat die lang is dan?😂 en ja opzich is ie lang maar vergeleken met alle tekst die in t boek staat heb ik t goed gedaan.
t maakt me niet uit want ik kijk de video toch wel een keer😂
ik heb echt een dikke samenvatting voor bio😎
ik had een goede planning voor de toetsweek, maar t is iets meer leerwerk dan geplanned😆
scheikunde atomen moleculen bindingen naamgeving structuurformules molecuulformules van derwaals rutherford ik weet t allemaal niet meer😩
byeee bitches ik ga weer catfish kijken😏
heb bijna 1600
nieuwe minetopia video van met een super toffe intro op het begin! zeker even kijken en like! via
wij hadden ze een maand geleden ook al, dus neuhh niet raar😂
als ik doe de toetsweek moet doen, heb ik dit als rooster😅
toetsweek week 45 ma anw &amp schk di bio &amp wisd wo wisb do engels &amp maatschappijleer &amp rekenen vr nl &amp natuurkunde
sup? klinkt heftig.
maar vind het toch super tof om een lange video of livestream van je te kijken
het lijkt me dat daar wel verschil in zit, maar misschien zie ik het alleen anders hoor.
ben nog altijd zo blij met de follow van david, zo iets “kleins” maakt me zo vrolijk🔥
en weer een dagje vervelen door die klere hersenschudding.... ben er nu wel klaar mee
de slistrack van snapking
naast de hersenschudding ook nog oorontsteking erbij.😡
hersenschudding + koorts + keelpijn + oorpijn geen goede combinatie.
komende twee weken moet ik rusten ivm hersenschudding ik zal daarom volledig afwezig zijn, maybe een paar tweets. app me maar bij nood.
op bed liggen rusten en niks doen, ivm hersenschudding. eigenlijk mag ik ook niet achter mijn ipad maar moest ff twitter checken.
zo ga ik wel eem de kijken jajajajaja😊
ook gelijk alle kut vakken... succes😇
ik vind dit echt geweldig. je gaat weer lekker met youtube hoor nu ik dit weer zo zie, proudd!!
met een hersenschudding weer thuis rust nemen, ik moet zelfs van de coördinator thuis blijven morgen en overmorgen. dus moet veel rusten...
die youtube disstrack gebeuren in, wat was het? iets van 2014. en natuurlijk minetopia, sinds toen ben ik actief gaan kijken!
ik kan beter naar huis gaan maarja ik wil niks missen anders loop ik achter
zo met de auto naar school, want ja leuke ligte hersenschudding enzo😡
deze schoenen besteld💓
mij niet amen😂
kijk er naar uit😊
jajaja ik speel weer clash royale en zit in verslan v.5 woee🔥
hele dag al last van mijn heup en rug. loop hier nu al bijna 7 maand mee rond... en de huisarts zei in april dat het zo over is met wat rust
mij niet eh, je waagt het
morgen natuurkunde toets, hoop echt op een goed cijfer😊
altijd als ik zing ik ben lit dan zegt mijn moeder van de donald duck als in dat ik lid ben van de donald duck.
oh wacht nee spaties er tussen dus siva en ruja
sivaenrika drop m daar maar ff
en so naar mensen die de tweet alsnog negeren😂😂
goodnight❤ so naar mensen die deze tweet in eerste instantie zouden negeren d
morgeee
hax
sims 4 maar op mijn laptop installeren want ja computer stuk😬
dat wil ik niet per se zeggen, maar wat een eindstand zeg! 😂😅
ik, maar ja moet folders rondbrengen😬 volgende keer hoop ik maar dan😆
ik ben echt altijd aan het rekenen en nadenken. soms is het fijn, maar vaak is het vervelend/storend omdat ik afgeleid ben en hoofdpijn heb.
ik kan niet slapen door al die drukte in mijn hoofd😕
favoriete serie op dit moment❤ hoop dat hier veel seizoenen van komen!
yes jongens de wereld is niet vergaan! wat een vreugd.
pake is trouwens opa. ja dat komt door het fries excuses
maarja dat van jou is toch wel stukje heftiger.
ronder/boller en er valt niks aan te doen. allemaal door een stomme fout van het ziekenhuis...
snap ik, heftig man. mijn pake leeft nu ook met een opgeblazen buik en een stoma door een fout van het z…
jeetje wat heftig man😔
doe dit eens ff
nee echt geen idee, weet uberhaupt niet wat specs zijn maar goed.😅
hoe goed ken jij rika?
oke de wereld vergaat vandaag hoor ik? top hoeven we dat niet vaker te horen als dat het geval is.
t gaat niet meer aan😂
lekker hoor
mn computer is onlangs gestorven. rip pc rika 23/09/2017 1213 dat wordt voorlopig geen sims 4 en meinkweft.😴
yes ontstoken tandvlees fcking leuk!
rt wordt gewaardeerd❤
mijn bril is echt mijn pijnstiller tegen hoofdpijn!☺
lekker heur
gun me 250 volgers lol😂
ik weet niet of ik dat per se positief zou noemen😂 maar ja is wel waar haha😅
ik dm daaf echt nooit lol😂
gefeliciteerd! echt jaloers gewoon tho hahaha! 😅😊
wanneer een giveaway doet op ts😂
legends is een leuke gamemode, net zoals deze video van dus zeker even kijken en liken!
ohhh naja ik koop t misschien in de tussen tijd nog wel een x
tweet wordt verwijderd...
jap ik ga ze ook maar houden i guess. als ik het speel dan heb ik iets super vets! + ik heb ze van…
jap, vind het wel heel erg jammer. minetopia is wel een van mn favoriete games. ik was er niet vaak maa…
in de gratis tijden zal ik t nog wel spelen. maar ik zit nu in vwo4 en ik heb het daardoor best druk du…
oke ik geef ze sowieso niet zo maar weg dat is inmiddels duidelijk
ja maar ik weet niet wat ik er mee moet
ja of ik houd ze natuurlijk kan ook
ja i know, maar hoe moet ik ze dan kwijt? ik speel het toch niet dus als ik er geld voor krijg is het geld net zo goed weg
heb je een huis ofzo waar ik ze kan brengen? 😅
ziek😷 was ik de hele week al, maar nu had ik gewoon echt de kracht niet meer😕
je volgt me gewoon nog! wow😅
hahahha dit is geniaal, ik kijk de video vanacht wel! 😅
ff 108 woordjes leren brb
jeetje 2136 stemmen als het inmiddels niet al meer is! hoop wel echt op wie is de mol en klopjacht he…
beetje laat maarrr ey beterschap pik💎
gaat lekker pik!
dan maar weer een gn so naar iedereen die dit leest wordt altijd gewaardeerd heb ik het idee hihi
morgen eerste bijles engels😅
bij nhl heb ik gehoord😅
goodnight so naar de mensen die dit lezen nu wel wat meer dan 2 mensen gok ik zo
ja hey niet eerlijk
oh en morgen wedstrijd die vorige week maandag was afgelast ivm onweer!
morgen school 1/6 en daarna starbucks leeuwarden😊💎
ja geloof ik zo, mijn tweets per dag is nogal achteruit gegaan😂
verschil tussen nu en 28 januari.
is voor ons bedoeld
fijn ik ben op maandag het eerste uur ingedeeld voor bijles engels. heb daarna een tussenuur... nice school, dikke vette love 😕
ik schrik de hele tijd van deze lach...
super vet, ben benieuwd of het een beetje actief blijft. denk dat ik het regelmatig ga spelen!
ik wil opzich best wel weer minetopia spelen, maar dan speel ik alleen in het weekend, want ik heb t druk met school. dus zit te twijfelen.
wie is van plan te gaan? hoeft niet per se met zekerheid, maar wie zou willen of is van plan te gaan?
ben op verjaardag ik zie het vanzelf wel voorbij komen!
iemand heeft hier echt een kut hoge lach... ik irriteer me eraan...
update van mijn ipad duurt zolang....
vanmiddag verjaardag van mijn tante😅
misschien is een fysio handig beterschap!! &lt3
iets meer dan 2 personen😜
ik ga maar slapen! so naar iedereen die dit leest 2 personen ofzo
jaaa snap ik, is voor voetbal inderdaad! haha
hahah nou t is in friesland, oentsjerk. en t is op dinsdag en donderdag avond trainen.😂
ja kom maar op!
god we hebben echt te weinig spelers voor onze mo17
vaiana is echt een leuke film😊
ziek. komt door training😂 heb me daar nat laten regenen en ik heb daarna het heel koud gehad en ik ben nooit weer opgewarmd.
dat heet teamsport
dat dus ^^
mannen voetbal is echt te kinderachtig...
jap, maar er zal toch iets moeten gebeuren want zo kan het nederland voetbal niet lang mee…
gaat echt slecht... oprecht heel triest en jammer voor het nederlands voetbal. wordt tijd…
dit is slechr voor t nederlands voetbal voor je het weer mag uberhaupt heel nederland niet meer mee do…
wtf is deze wedstrijd 😕
ik verveel me echt dood
tussenuur, wie komt appen?
wedstrijd afgelast in verband met dikke onweersbuien😕
vandaag 3/8😅
morgen weer bekerwestrijd tegen broekster walden met de mo171 van !!
lol das die gast die david zat af te kraken wat nergens opsloeg.
lol je begint zelf he besef dat even. maar doe je ding ga haten, maar hou t lekker voor je zelf
nee true, ik snap ook niet wat ze te zeuren hebben. geniet lekker van t leven en doe leuke…
en als je zelf eerst research had gedaan, had je ook geweten dat david in 2014 al disstrack…
sowieso wordt minetopia nog steeds geupload net zoals andere orginele gamemode van david ze…
druk bezig met kaften en huiswerk😅
van 303 naar 256 volgend gegaan. en ik ben 1 van die 256! dat vind ik nog eens leuk! nog steeds dankbaar voor deze follow ❤
lekker heerenveen❤❤
20 voor sc heerenveen❤
zelfs youtubers kunnen zo kinderachtig doen, ze zijn ouder in leeftijd maar gedrag niks anders dan ons. heb t over yter die me geblocked.
ben zo blij met de steun van en ❤ in zulke situaties is dit zo belangrijk voor mij😊
l😂
zijn er meisje in friesland onder de 17 jaar die kunnen voetballen en eens een keer mee willen trainen met ons team? iedereen is welkom &lt3
als ik zo besef, zit ik met n best wel groot probleem. als ik de keuze maak het wel te doen, gaan mensen me niet respecteren. moeilijk...
kut sjaak. we gaan van t beste uit in t leven!
ik ga weer es serie kijken op netflix doeidoei
mensen doen zich dommer voor dan dat ze zijn puur voor de aandacht en de populariteit.
t is gwn echt kut om de hele tijd ergens op te wachten en uiteindelijk gaat t niet door...
ik ben erbij!
wie zegt dat je niet liegt over je leeftijd.
ik ging stuk😂 ff deze video checken mensen. reactie op de disstrack over ddg!! het klopt!!
nee ik niet, want t word niet van mij verwacht + is niet mn taak. maar ik heb wel een hatrick te…
oeh geniet er van!😊
morgen begint school en ik voel me ziek 3x raden hoe dat kan😂
morgen boenkies halen!!
ik ben daar op gebanned zonder dat ik ooit op die server ben geweest. echt leuk man
ik kijk eigk nog maar 5 kanalen op yt, maar ik ben op 53 geabonneerd😅
klinkt stom maar k denk dat ik toe ben aan school, want ik begin veel klachten te krijgen. dus weer even in het ritme kan geen kwaad!
als t niet via bots is😂
gelijk ff opgegeven😊
ja dat is een beetje jammer, maar dankjewel😂😝
nee je bent een 24 niet een 10!
wie gunt mij 240 volgers?
kiek, zet een feyenoorder in de basis en we winnen weer eens❤🔴⚪
is goed en als je er klaar mee bent zet je het maar uit xd
hahaha, oprecht je krijgt 1 melding per week hooguit. nu school weer begint
ik tweet toch niet veel dus zet maar😂
morgen laatste dag vakantie😭
hahah, maar ik denk niet dat ze zulke bouwers als ik zoeken😅 kan alleen worldeditten, zelf bouwen is echt een drama bij mij😅
heeft het ddg bouwteam worldedit? ga ik joinen. kappa😜
yess met worldedit😅
ik ben riekjeexx yeah leuk he😂 heb je toegevoegd!
lol ik ben gebanned op heb nog nooit op die freaking server gezeten hahahahaha
oh ja zeker dat ik er bij ben
ah jammer! hoop dan snel van je te horen
dit vat ik op als een nee, haha😅
ik zou best graag mee willen doen! wanneer zijn de eerste opnames? en kan ik nog mee doen?😊
omdat we vandaaf helaas geen wedstrijd hebben gaan we trainen❤⚽
41. sophie turner 42. vissen 43. x 44. nagelbijten 45. 1 zusje
helemaal gek in het hoofd
daar weet jij niks van.
ja
24 juli 1 broertje idk leeuw kapsalon blauw hond zon chocolade ijs
hahahahha dat is echt een kut school. en aardbei moet citroen zijn. voor de rest klopt het.
26. ha grappig 27. soms 28. niet echt ofz 29. mien heit en mem 30. mijn oma
nee maar is iemand van school en als mensen van mijn school dit lezen is dat kut😂
16.complicated 17. witte tijger 18. zie 16 19. altijd 20. dat oorlog een term is wat niemand kent en dat t uberhaupt niet bestond
11. de mo131 is afgelast btw 12. 4 jaar en 180 dagen met mn bed 13. 12% 14. geen idee groen grijs ofz 15. nagel bijten en got
1. rika hoef je niet te weten verder 2. 1,75 zoiets 3. 58 kg denk ik 4. 14 5. 3 maart
iedere like is 5 van die dingen😂 want ik haal de 10 likes toch niet.
1 jonger zusje, ja die ene school idd, sneeuw en citroen. maar ik vind t best goed tho
doe nou ff gewoon mensen
nu snap ik deze tweet, echt kut man.
volg haar bitches
maak je ook bekend hoeveel geld je in totaal hebt ontvangen van donaties? ben wel benieuwd, waren er behoorlijk wat😝
stalken😂
alles behalve kapsalon en hond😂
bijna
super vette donatie van op de livestream van nu weer samen videos opnemen! woepwoep🎉
eerst ik heb geen geld vervolgens omw groningen en zwolle uhu nee ja, want opeens betalen je ouders die dat nooit doen...
iemamd geïnteresseerd in een sims 4 account? dm me rt lief
deze video is leuk, dus moet je deze video kijken van btw dit is echt een leuke gamemode!
300 snapdagen met 💓
ik heb echt veel snapdagen verneukt, maar ik begin het steeds vervelender worden die snapdagen.
wtf dit is triest hoor
gelukkig zijn vrouwen beter in voetbal dan mannen⚽
iemand van wie ik mario kart voor de wii goedkoop kan overkopen? de mijne is kwijt...
goedemorgen mensen! ik ga ff ontbijten!
voor de rest kon ik niks, dus heb niet veel gedaan. na deze nacht slapen ben ik wel alle pijn kwijt en kan…
wow dit had ik gister ook, maar dat was meer de rug en knie pijn. ik heb de hele dag op bed gelegen en som…
hoeveel frikandelbroodjes koop jij in een pindawinkel vol met colaflessen?
wat een klote weer god damn
ik ga sowieso zelf de constructies na bouwen en gebruiken! toffe video van zeker even kijken!
ik heb ook echt fck last van mn keel
leukk ziek in de vakantie...
ik heb dan ook een bekerwedstrijd! wat leuk!
en toen klikte je perongeluk op iemands insta stream.
gaat lekker hoor! dikke prestatie! 😊
ja maar dat zijn 2 jaren😂
nu tot 2019 wachten op game of thrones😢😢
dit zijn btw mn voetbalschoenen dit seizoen!💓💓
leukk veel plezier!
ohh jammer, waar ben je op vakantie?
nieuwe video! leuk leuk