groot gelijk
het is niet voor niets dat je de letters van mark rutte door elkaar husselt je kamer trut krijgt.
als je anorexia heb is het verstandig dat je in huis blijft tip van mij 😁#storm
dat is het . maar gebeurd dagelijks en dat is het allerergst er van
het is niet best weer in emmeloord . maar ik garandeer dat ik er niet in sta
gezocht een kaart voor de zwarte cross voor zondag
hoe lang moet dit nog duren het lijkt wel een bananenrepubliek hier in genemuide…
gaan wij hier nog wat aan doen of doen wij hier ook een brug . daar is wel geld voor .....
aanslag in manchester. blijkt james bond gewoon ook overleden te zijn... rip roger moore
doe er wat aan het is niet de laatste keer !!!
die taak nemen robin van persie op zich
ja ik lees het net goeie keus van hem
leergeld heb ik al betaald 😊
veel slaap zal er niet zijn voor dolly morgen vroeg naar rotterdam
gefeliciteerd vrind 👊🏻
hahahah dat is waar maar je gunt je collegas toch wel een lolletje 😇
buikje weer vol nu aan het werk#emmeloord
tampon in de 👃🏻#hooikooerts 😉
het is toch jammer dat 11 mensen een huldiging moeten verpesten
niet zo bijdehand gozert 😉
neem nog maar een biertje 😉
goedemorgen eerst maar eens koffie
het is een stad vrind geen dorp 😉
grapjas hoe lang moest je daar over nadenken
dat is niet meer grappig. maar ik sla toch over😉🙈
je heb ook mensen die gevoelloos zijn 🤔
goedemorgen mensen van het goede leven
humor in de categorie blinde tyfus hond
bij aldi te koop...voor mannen die denken dat wanneer ze staan net niet die hamer kunnen pakken
wij zijn er klaar voor
hoe ver zin je het
zo versleuteld zijn die berichten van whatsapp dus niet.
kut maandag ook altijd
ik neem er nog een
voetbal kijken 🤔
ik hoop dat erdogan op een blokje lego stapt.
de 5e colonne waar pim fortuyn ons 15 jaar geleden al voor waarschuwde...
hahah geweldig altijd die voetbal humor
goedemorgen
laat ons ff 😎
is hij dat
het is vandaag totaal geen weer om met de boerka buiten te lopen# weer
dat is een programma gevaar op de weg 😉
hoe komen deze mensen aan een rijbewijs gekregen bij een pakje boter
sjakie had teveel gezopen!!
het is dat wij geen badkuip hebben
ik heb er nog 2 filmpjes maar die zijn voor mijn privé collectie
volgens mij worden teckels zo gemaakt 🙈
even een grapje tussendoor#humor
van de 81 politieke partijen die mee wilden doen aan de verkiezingen, zijn er al tientallen afgehaakt. wie volgt#stemwijzer
ik doe met je mee
rechtssysteem in holland is gewoon te triest voor woorden
wat een spanning . kom op
ik weet niet wat slechter is
lekker agressieve die moeder.hoop niet dat ze zo omgaat met haar kind
op elk potje past een deksel 😝
dat is soepgroente 😂😂😂
je heb er mafketel bij
en dit heeft ook gewoon stemrecht😟
wilt u het bonnetje
zit is een vreselijk wijf bij de wereld draait door waarom kijk ik er ook na !
dan kies ik voor een voetbal wedstrijd kijken op tv . en dan maakt het mij vrij weinig uit welke voetbalwedstrijd
creatieve met poep
stel je niet zo aan linkse rakker
de beveiliging van kost 100 miljoen 😟
elia maakt er 20 van.
die gast met die trommel bij
de koffie smaakt goed 😉
perjan je was vroeger mijn held maar nu ben je een mega mafketel 🙈🙈🙈🙈
volgende aflevering van kijken
als je last van de drank he moet je er gewoon weer een nemen . ik w8cht nog ff
detectiepoortjes bij begrafenis martin kok.
inderdaad je verwacht het niet . zal die van mij vanavond ook maar eens ff controleren😇
tjonge een best stof nest
sex druks en drank
hij doet het wel weer dirk kuyt
en na 50 kilo lichter nog steeds de zelfde onderbroek nou heel goed
je mag 80 rijden en wat doe je gewoon 50 rijden . kan ik zo slecht tegen
en maar eens weer aan het werk het is al 1 uur de voedertijd is voor bij .
vind het heel vreemd waar om dat zo lang moet duren
op facebook worden de borsten van de vrouwen af geplakt met een balkje of wat anders . maar eens en facebook ontwikkelen waar het wel mag
het lijkt wel of ze die dingen uit de fruitschaal hebben gehaald🍐
maar eens boterham naar binnen werken
even niet denken aan 020 😇😂sorry kon het niet laten
arrestatie voor liquidatie excrimineel martin kok /via
gaat heel mooi zo
het is maar voetbal 😂
dus daar komt die muur vandaan!!!
dat zegt al jaren
zie je wel vaker bij de linksmensen white pride stem groen links!
ik krijg hier plaatselijke schaamte van pfffffd
toen ik jong was hadden we nog geen pomémon go. als je dingen wilde zien die er niet waren nam je gewoon paddos of lsd.
rtl past ’oh oh’ aan na kritiek op alcoholgebruik via en dan vragen ze mij niet of dat goed is 🙈
het weer in cuijk is kut
zulke moet je geen aandacht geven
nu ze gaan er goed in
wat zijn jullie zielig zeur piet pas je aan
tja.... het is wat
je heb altijd van die slechte verliezer er bij . gewoon accepteren#trump
hahah ik doe met je mee
geweldig
al die verbaasde berichten op twitter
ik ook niet veel te veel zand daar ben ik allergisch voor
dood of verkrachting was de keuze bij de aanval in zuidsudan via
voor het eerst sinds mei ligt trump voor op clinton in peiling dat u het weet ..
400 miljoen bonus het moet niet gekker worden kromme kut wereld
mooi stukje vlees van de slager mmm
kan ook iemand zijn die zijn stoma lek heeft 😛
sylvana, waarom ga je niet op 6 december weg uit nederland? en neem rtl lekker mee
zie ik graag 😇
wie ziet u het liefste !!!!
dingen waar je eigenlijk niks aan heb
klopt . maar dat je de moeite er voor neemt om dat met ons te delen mijn oogjes bleven mooi dicht 😉
het weer voor vandaag nat
klopt hij pruttelt hier lekker
is dit de werk wijze van de gemeente . het mag ook geen geld kosten en de troep laten ze gewoon ligge…
.met ze allen op 1 wat zal je moeder trots zijn ..
trump voor president anders komt er nooit een verandering in de wereld !!!
maandag is kut
01 genieten op de zondag
kijken 🤔
ook weer klaar
😂 geweldig
was het maar 4uur nu al klaar mee
de vorst is nu wel uit de grond pffff wat een hitte
wil je mijn tijdlijn niet vervuilen met deze vreemde snuiter 🤔
en dat net voor schaft rust10
meerdere politiemensen zijn bijna tegen het autodashboard geknald daar hebben ze tegenwoordig iets heel handigs voor de gordel.
danny blind met zijn technische staf
een aan het werk en de andere op de schommel 😆
ik had de broek vol 🙃
goede zaak tis geen vertoning
luuk en siem echte psvers
wel aan 2 kanten boter doen
of als ze een boerka aan trekt valt het misschien wat minder op
haha als je het zo wil vergelijken ja . het is topsport
daar om hou ik het maar bij over spel daar heb je geen verliezers of winnaars . deel nemen is net zo belangrijk 🤔
wat en geweldige speler eljero elia een ding karakter heeft hij wel ☝🏿☝🏿#grofey
geweldig genieten tot nu toe
balotelli wil graag naar ajax ‘heb altijd al in duitsland willen voetballen
stukje uit een sprookjesboek 😂
mafketel lekker je kop in het zand steken kijk eens om je heen man islamterrorist
wie doet je wat... zo rondlopen in parijs
het maakt niet uit waar je kijkt op facebook of twitter het is alle maal moord en doodslag
cross het is ook altijd feest dat
het is wel een beetje de waarheid
gaat best zo veel drinken hoor ik op de radio
ja ga om 12 uur its niet te doen
in krijgen de planten al water maar de straatenmaaker kan zijn bek af vegen
nr 2 .van het meest tering beest wat er is . eens kijken of het werkt
de eerst is het land al uit 😂
ik zag hem niet
pokemon zelf hier in de schaft jong jonge moet niet gekker worden en ook nog volwassen 🙈
tour de frans 1940 zonder epos
of en halsbandparkiet
welk bier merk drinkt u het liefst
nee klopt maar waar rook is daar is ook vuur en het speelt al een poosje..
het wordt gewoon in de doofpot gestopt en hij is zo schuld ongelofelijk dat dit kan
grote schande geen worden voor ...
nieuw briefje van 50 €
dus hij bestaat wel
ja wel . hij blijft 👊🏻😉
weer een die geen stageplek kan vinden stumper
van op de tv voor de tv het heldere licht
het is goed voor de planten maar voor mij niet . straatenmaaker op zee
jack spijkerman stopt definitief met televisie maken was hij dat nog niet dan
amerikaanse preutsheid. ik zie ook liever tepels dan dood en verderf
kom op zeg dat maakt tv eens keer interssant met zulke opmerking top
gestoord ben je als je dat doet je gaat toch ook niet met de rubber boot de over steek maaken
je kan natuurlijk niet iedereen serieus nemen . sommige hebben altijd een theorie complot
dit is nu humor . top 👍🏻
buitje voor de stof 🙈
wel heel dom dat je meld dat je een aanslag gaat doen in frankrijk en belgië . of zou het van de belgië media af komen
dat heb jij wel goed en dat op de vroege morgen
de reden waarom moslimvrouwen burkas dragen heeft niks met geloof te maken wel met de blauwe plekken en dik geslagen ogen uit het huwelijk
ek stoelen gooien
honde stront is kut maar katten stront nog veel erger . grrrr
hahahah geweldig 😂
ja gaat uit de hand lopen wij zijn er nog lang niet ..
wat gaat of kunt u doen als zon zogenaamde lone wolf uw werk aanvalt? de politie bellen? succes ermee!
het tweede palestina waar is het leger
je vergeet er nog 200 😇
engelse hooligans, russische commandos, poolse ultras en... nederlandse clowns
probeer eens van af de simonstraat richting de overtoom heb je wel vaart ik film wel 😉
hoe laat komt die langes vliegen in houten/utrecht kan ik er rekening mee houden
ja hij doet het
ja van mij mag die geld kraan wel dicht
duurde even
ik denk dat ik maar stop met werken op de maandag het valt altijd tegen
een uit 73 van een bewoner gekregen op het werk 😊
let op politie en belastingdienst controle n 50 kampen zwolle
begrijp jij het nog
en het lost veel problemen op 🤔of was het anders om
bier !!!!
hahahah maar het is wel goed 😂😂
het is maar een spel 😩
😇kijk ze bestaan nog mensen die het snappen .👍🏻
ik krijg die lach niet van mijn gezicht wat een prachtige maandag ...
waar kom ik er aan maak ik ff foto overtoom😗
ik ga bier drinken
wat de best 😂😂😂😂😂😂😂😂😂😂😂😂😂😂😂😂😂😂karam
tip .van mij smeer u zelf goed in anders komt u ook in de vitrine van de groenteboer bij de tomaten
de vrachtwagen zit best vast gelukkig kan de piloot er om 😂#kamperzeedijk
tja pim wist het wel
als werken gezond was waar om laten wij het dan niet aan de zieken over 🤔
.@eljeroelia goud waard voor feyenoord
tevreden nu maar eens paar biertje drinken
voetbal tja wat moet je er mee
en daar gaat je bier 😂😭
en daar gaat je bier 😂😭
mr de pool wou over de pont van zwartsluis naar genemuiden maar kwam er achter dat hij er niet op mag
waar ik het meest geniet op mijn werk is schijten in de baas zijn tijd
ze bestaan nog ...mensen met het hart op de juiste plaats
was hij maar snel voor bij pfffffffff
hahaha beste balletjes zijn het . kan het wel gebruiken 😗
niet omdat het moet maar omdat het kan
dankje smaakt best hoor 😉
het voordeel van werken bij een cafetaria is dat je met de middag ff lekker een balletje kan halen
goedemorgen! ik bestelde net 200 gram ossenworst. mijn slager vroeg liever ietsje meer of ietsje minder dus ik heb meteen aangifte gedaan
om dat het gemengd douchen is anders zou ik het ook niet weten 😗
grenzen dicht belgie frankrijk!! rutte gooi ze hier ook dicht!!! oh nee...hoeft niet...hier gebeurt toch niets
ja vanzelfsprekend 😀
ik blijf mooi in huis veel veiliger 😏
drama weer hoe lang nog voor het in nederland gebuurt
super idee maar ik moet ff 3 jaar wachten 😗
hou wel je kop er bij als je waterpijp rookt en laat hem zeker niet buiten op de stoep staan.
een hooft gevonden in amsterdam nog meer van die afrikanen hier op aan halen
die naam van die scheidsrechter dennis higler doet mij ergens aan denken heb er al zon 40a45 min over na gedacht
moet het weer doen
ik neem er nog een
een eigen doelpunt van markus henriksen
waaaaaaa lekkerrrrr blij hoor#feyenoord dan maar 😛
klaver pas op wat je zegt voor je het wet staan er voetbalsupporters bij je voor de duur
ik hoop het van mij mag het gestoord volk die theedoeken
onwerkelijk
een moslim vrouw onthoofde een 4jarig meisje en brachten de afgehakte hoofd tijdens het wandelen door de straten van moskou
moest wel goed kijken 😀
nu ben ik heel benieuwt hoe het af loopt heeft iemand de laatste 2 min nog van dit filmpje 🙊
beetje bier moet willen 👊🏻
ook wel een niet hoor 🙈
mooi lijf maar die kop 🤔
ik moest wel goed kijken 😳
swaffelen met een pingpongbal
dick advocaat moet het dus gaan doen bij komt dat goed
eens af wachten of wel doorgaat 🙈
dit zijn geen lange benen zonder flamoes
wie de billen brandt moet op de blaren zitten
hahah daar was ik niet op verdacht maar ja dat heeft hij ☺️
ik zou er wel een willen hebben van kenneth vermeer 🙊
maar hij staat er mooi op 😎
daar heb je niets aan zulken
niet iedereen heeft geleerd van zondag
lekker interssant het is gebuurt ze gaan de wedstrijd niet meer over doen ts gebuurt
moet oma maar mee gaan met de tijd 😭😭
asielzoekers zijn beschermen in holland
genieten 😊
de spijker op zijn kop 😩
niet te begrijpen dit is niet meer normaal
typisch amerikaans
vluchtelingen calais vallen nlse documentairemakers aan snap ook niet wat je daar te zoeken heb in die jungle !!!
ja hoor dat kan ik wel
dat klopt kom dat ik er niet bij ben maar zet hem in de agenda
met jou wel heb de eerst 3 jaar wel tijd 😂
ik zag het net dit is bizar maar ook een geweldige opmerking zo door gaan 👊🏻👊🏻
kan je nog ff terug gaan met die camera volgens mij was leo messi dat in het publiek
hahahahahah ja dat weet ik wel vind het zo mooi als je hapt 👊🏻😊
die 020 supporters dat was bekent fluit publiek
ja klop en meestal zijn dat de amsterdammers 😊
ja dat voetbal is manen sport 😇
cillessen knockout na trap in het gezicht van schaken
ja volgens mij wel dit is een perfect opvoeding van opa👊🏻😇
veel plezier daar 😉👊🏻
lampies gaan eraan#feypsv
ja vast ado hebben julie het altijd moeilijk mee . maar een goede wedstrijd
hahah die farmaceutische industrie doet er ook alles aan om cannabis van de markt te houden de boefjes
haha nee daar zijn de mooiste vrouwen 😇
geniet van de schoonheden van dat land!!
naast rekenmachine nu ook woordenboeken in de 2e kamer. geweldig!! wanneer komen de bijtspeeltjes?
die weet wat hij wil
net als of dat helpt ze zijn gek !!
afrikaanse afkomst !!
even wat endorfine aan maken
dames en heren jambers is terug! vanaf 18 januari is paul jambers bij rtl 7 te zien met de serie jambers 20 jaar later😏
mislukt kerel weer eens op tv prem radhakishun pffff wat ben ik die gozert zat
er is niet veel aan zo met die natte bende morgen het ook niet veel beter zijn...
dat was ik al 😉
ook in
herman finkers oudejaarsconference 2015 geweldig is een aanraderals u het kunt verstaan😏
gefeliciteerd zij weet het toch wel !!!
er mee omgaan ook 😇
kan mij zelf niet meer voor stellen dat ik hier vroegernaar luisterde 😏
in nieuw klokje gekregen van mijn vrouw 👍🏻👊🏻
is er een storing bij#t mobile
zielig hoor en dat moet het nieuws naar buiten brengen
hier hoor je niets van wat nu feyenoord supporters onzin media
ja vast hier hoor je niets van
was het maar vrijdag ben ik aan toe
juist rechter heeft nog geen moeite gedaan om straffen te minderen ..
ze zijn gestoord daar in die rechtbank ...