mee eens! en de commentator maar zeggen”het is alleen een overtreding om de counter eruit te halen.”
allemaal natuurlijk!
ja hoor alles en iedereen zit in het behalve…
allemaal zeker
wist niet dat zo humorloos en een slechte verliezer is, als…
klopt helemaal. ingewikkelde taak voor ouders om ze dat bij te brengen.
als iemand het niet eens is met of dan is het
ik herinner me dat ook een keer de klas is uitgestuurd door mw schippers voordat de les frans begonn…
ik heb de charge gezien, maar dit kun je toch geen “held” noemen. het is een wonder dat die groninger nog opstaat.
van harte met de 21!
wat een treurige argumentatie weer.
hier zal onze van genieten! c’mon!
je wordt er toch schijtziek van! eerst schade aan de auto en de dader ligt op t kerkhof en nu inekes fiets gejat. fin dorp
echt schandalig dit
ik heb geen idee waar het over gaat. ik ben door deze voorvechter voor de vrijheid van meningsuiting geblokkeerd
zou ze dan toch een tweelingzus hebben? 😀
we zijn met zn 3en geweest van vrijdag t/m maandag
ik was er niet bij, maar ik zie het zo voor me 😀!
“man skiet rechtdoor ipv linksaf.” ik moest gelijk aan een verhaal van denken
een fantastisch lang weekend in
zou chique zijn als hierop zou reageren.
het is voor die jongetjes van natuurlijk te laat, zon avondwedstrijd om kwart voor 9
oh gelukkig
een stoplicht springt op rood, een ander weer op groen. in is altijd wat te doen.
je viel erover dat fm een hogere straf kreeg dan mp. dat is dus niet waar.
maar als ze er geen aandacht aan hadden besteed had je er ook weer commentaar op gehad. het is ook niet gauw goed.
stop maar met nadenken, m.p. kreeg in hoger beroep 11 jaar
een beetje genuanceerder zou geen kwaad kunnen.
iemands dochter
iets genuanceerder zou je niet misstaan
nou begrijp ik waarom die wordt afgeschaft.
ondanks dat je het al maanden weet, voelt het toch klote nu het zover is
wat een prachtig eerbetoon aan
heerlijk om dat gif bij te zien. had de rest maar minstens de helft .....
40%! zou ooit geslaagd zijn voor zijn ?
hoevdan? volgens mij is deze wet juist deze zomer door het parlement geloodst en gaat ie in op 1 januari a.s.
dit is een uitstekend onderwerp voor een referendum!
tijd voor aadje mansveld op defensie nu
gekheid, dit was schandalig! het meest erge is nog dat daarmee de wedstrijd zo wordt beïnvloed.…
dan was het 14 geweest 😀
gewoon rammen op ongewapende burgers! hier heeft de democratie verloren ondanks de eerdere…
een heerlijk strijdbaar gezien! prachtige 04. nu lekker uitwaaien op het strand
vroeger wilde koot &amp bie aadje mansveld van ado op defensie
van kooten &amp de bie wilden vroeger aadje mansveld van ado op defensie
volkomen mee eens!
bevindt zich in goed gezelschap! ook binnen 2 minuten met 10 achter!
niet kijken is de beste zelfbescherming 😀
toch vreemd om te spreken van grote verliezer als je de verkiezingen wint
juist niet! feyenoord zou hier goed lering uit moeten trekken.
nog 5 nederlagen en we zijn weer boven jan!
zelden zo iets gênants gezien. moet zich diep schamen
kampioensovertuiging en scherpte van vorig is totaal verdwenen bij
voor de eerste keer weer in de kuip naar sinds de op 14 mei 2017
heb je weer azijn gedronken 😀?
vanavond met laura naar nac. we zijn er bijna klaar voor.
wat een gigant!
volle bak daar!
man, wat is dit slecht
buitengewoon mooi gesproken door gertje over
mooie wagen buurman!
prachtige fotos zeg!
sterkte!
maar volgens de doen ze er alles aan. maar feitelijk interesseert het ze weinig, want er verandert ni…
heerlijke topper, maar onnodige nederlaag van tegen zelfs met 10 man.
een stoplicht spring op rood, een ander weer op groen. ook in almelo is altijd wat te doen.
nonsens wordt geen waarheid door het te herhalen . het zal je volksvertegenwoordiger maar zijn…
de verbinding op zich is prima, maar de manier waarop er uitvoering aan geeft is zeer belabberd.
heeft geluk dat het geen concurrenten heeft. reizigers zijn de vele vertragingen en ove…
het gaat erom dat zoveel storingen niet normaal zijn en dat daar eindelijk eens een keer wat aan gaat doen
ik bedoel er zijn zoveel storingen op de elijn dat beter kan melden als er geen storingen zijn.
de zou beduidend minder werk hebben als ze de reizigers zouden informeren bij geen storingen
gaaf hoor 😀
stoere jongen die
je zou eens moeten uitrekenen hoeveel uren werktijd van alle passagiers de verspild met al die vertragingen....
defecte metro, een kapotte wissel en vertragingen op de elijn business as usual bij de
tuurlijk, maar dan krijg ik met de knoet!
dan krijg ik van ineke de goedendag 😀
ik krijg toch zukke jeuk van die janny van der heijden van en ik hoorde net dat dit pas week 2 is
de liggen nu exact 3 jaar op het dak en de opbrengst is uitstekend! 11.731 kwh in 3 jaar, ruim 10% me…
maakt zichzelf nogal belachelijk met dit soort teksten. ben nu blij dat hij mijn volksvertegenwoordi…
weer iemand die struikelt over een speler die al ligt, strafschop! wat is dat toch ?
dat wordt een puinhoop als zowel de burgemeester als de gemeenteraad een mandaat van de kieze…
heerlijk dit
weer een schandalig gegeven strafschop door
wint de etappe, dankzij die niet laat gaan voor de etappewinst!
gaat het dan toch doen, in zijn allerlaatste grote ronde, in de allerlaatste bergetappe op de angliru?
hoorde net op 1 van de commentatoren het woord palaveren gebruiken prachtig!
ja, heb je je handdoekje al klaar gelegd op je favoriete strandstoel 😀?
hoe krijg je dit opgeschreven
dit soort teksten van kan je toch niet serieus nemen ...
geniet ervan. 1 zekerheid slechter weer dan hier bestaat niet 😀
beste zijn er problemen met eurosport op kanaal 150? we hebben al een tijdje problemen.
altijd al geweten ...
prachtig plaat weer!
inderdaad, je kan je haast niet voorstellen dat de schrijver ooit een tweet van u gelezen heeft.
en terecht, dit is toch ziek.
uiteraard getekend!
stop de mondriaankwelder op striep
keutshavel is altijd leuk! en wie won de vergulde ?
ik weet niet wat het is, maar elke keer dat ik het logo van de zie, moet ik aan de denken
met deze opmerking geef je er blijk van dat jij totaal niet gehinderd wordt door enige kennis van zaken
hulde aan mister
check out “eens een voorburger ....” on relive! heerlijk gefietst!
je zal je kind zo genoemd hebben 😀
festiviteiten alvast gestart ivm de dag van morgen?
je zal je kind maar zo genoemd hebben.
wat een plaatje weer!
prachtig, dit soort interviewers hebben we veel meer nodig!
inderdaad!
ik ben voor! dat zou toch wat zijn
gelukkig was het niet zo druk op het perron van rotterdam cs vanavond op het traject van de elijn van de…
wat een prachtige foto van het vuurwerk bij edinburgh castle vanaf arthurs seat
ps deze overheerlijke bramensmoothie is gemaakt door laura!
een lekker voorgerecht, gevolgd door een mini bbq en tenslotte een super gezonde bramensmoothie uit eigen tuin…
en dan vreemd vinden dat de burgers zo weinig vertrouwen hebben in de politiek
dat scheelt in ieder geval alweer een tegengoal in de eerste minuut op het kasteel, hoop ik 😀
is het weer een ouderwetse woensdag vandaag op het zomerkamp? nog een mooi vervolg van de kampweek!
leuk rondje zo. ik gebruik m ook voor het fietsen. rondje van gister check out “schöne runde” on reli…
met deze neerslag wordt zelfs een spijkerbed spekglad.
een antwoordapparaat, dat heb ik niet, de praktijk is 24 uur per dag open. wat een huisarts!
prachtig!
jullie bedankt voor zoveel voetbalplezier tijdens
echt zon moment dat je voor altijd weet waar je toen was op de camping in het zwitserse susten!
helemaal mee eens! het was heerlijk om naar te kijken. heb enorm genoten van de passie, teamspirit, v…
dat krijg je met een grote prijs 😀
dank voor het antwoord het is de 22e editie van de
zo, de eerste grote prijs van het seizoen is binnen voor geweldig! alleen het spel moet wel wat beter.
moet het in de kuip niet zijn johan cruijff schaal xvii in plaats van johan cruijff schaal xxii ?
zie nu het bericht tussen alle andere meldingen. ik ging uit van een directe reactie, zoals nu. alsnog bedankt voor feedback.
alleen op twitter gisteren dat de wachttijd ruim een uur was.
trouwens, heeft nog op jullie site gekeken gister, maar geen info hierover op dat moment.
dit hadden we graag gisteren gehoord toen we in de file stonden en niet pas een dag later!
helaas geen antwoord ontvangen gisteren van
wat is er aan de hand voor de gotthardt tunnel ? we staan vanuit italië op 35 km al een tijd stil, terwijl de andere kant rijdt
en is erbij!!!
schreeuw de naar de finale!
lijkt me een mooie plek voor een derde supermarkt.
dat dacht ik ook al. straks 4 supermarkten en 0 sportwinkels. maar ja, als je je huur hebt opgezegd…
ja, en hij kan het weten!
en zo zitten we straks in pijnacker dus met 4 supermarkten en 0 sportwinkels.
dat doet me denken aan de van maradona!
hij zou het uitgevonden kunnen hebben.
succes met de knoop doorhakken!
dan heb je er dus echt niks van begrepen en laat slechts zien hoe verwrongen jouw blik is
als je die boodschap ook online had gedaan en door had laten bezorgen, had je ze niet gemist 😀#omgekvanteworden
mooie profielfotos! een bandje goed om de velg leggen kan toch iedereen? 😄
een week dick!
lag dat niet in de buurt van keutshavel en ?#goeieouwetijd
nee, dit zijn echt de blikverruimende programmas waar je op zit te wachten!
super gedaan weer een 10 overwinning tegen de denen!
mooi he! genieten geblazen!
als de ramp met de je inderdaad niet raakt is het zeker voer voor de psycholoog zou ik zeggen.
tsja, als je zo naar de dingen kijkt is het leven niets anders dan een rechtstreekse weg van de wieg naar t graf.
succes alle lopers vandaag in de bergetappe! morgen ligt de medaille op jullie te wachten!
wat is het gevoel van de van toch een fantastisch programma. langzaam wordt de geest rijp voor de tweede keer deelnemen!
heerlijk! in de afdaling een paar geiten op de weg!
fantastisch toch! het kriebelt om de 4daagse nog een keer te lopen als je deze beelden ziet.
als je zo zuur bent, dan kan het niet anders dan dat je vanaf het ontbijt al azijn drinkt. man man man.
geweldige pot van de rusland met 30 verslagen!
man man man, hoe treurig ben je dan.
even een rondje hofplein ....
hartstikke goed gedaan ! een prima wedstrijd en een dik verdiende overwinning in
en maar lachen toen ze in dit shirt zagen fietsen! 2 maand na het landskampioenschap nu zelf een schi…
heerlijk filmpje!
chapeau winnaar van de 15e etappe in
onder de indruk van het nieuws over
dacht dat dat in het westen niet speelde...
ik zou zeggen skuumkoppe! super lekker biertje en dat dan op een terras van een strandtent ...heerlijk!
kortom, straks alleen maar een paar goede buikspieren is voldoende! prachtig!
mooie lucht!
op de wadden is het altijd mooi weer!
en als een moslim een vrouw geen hand geeft, is de wereld te klein. trouwens, je hebt blijkbaar met je oren dicht zitten kijken.
dat heb ik gisteren inderdaad ook een aantal keren betoogd....
aiaiai heerlijk! een echte zeeuwse!
dat heet gewoon rekening houden met elkaar.
klimmen heeft als voordeel dat je een keertje zonder…
en jij weet toch wel dat die bril voor je ogen moet.…
zegt de man die zelf…
hij zit niet voor niks met zijn ogen dicht op zijn profielfoto
van harte gefeliciteerd! een mooi en dapper besluit!
nogmaals een rechter kan niet uitgaan van beweringen alleen.
ik vind de uitkomst ook triest, maar je moet verder kijken dan alleen naar de uitspraa…
ik snap wat je bedoelt, maar als de rechtspraak is gebaseerd op wat je beweert zonder…
nogmaals als de verdediging zaken beweert maar niet kan onderbouwen, dan houdt het op
mee eens! zie eerdere tweet
als de verdediging zaken beweert die onvoldoende voldoende zijn, dan ligt het probleem…
het probleem ligt meer bij de verdediging dan bij de rechter s. maar het is triest dat he überhaupt zon eis indi…
dan heb je de stukken niet gelezen. verdediging heeft stellingen onvoldoende onderbouw…
mooie actie van het waterkanon!
super gefeliciteerd!
echt schandalig dit!
met een gebroken tussenwervel is dat niet zo vreemd
wat kan je toch intens genieten van oermens op de fiets in
onvoorstelbaar inderdaad!
daar hoef ik niet zo lang over na te denken ...
dat je dit durft te schrijven, onvoorstelbaar, als je de beelden ziet van alle door demonstranten aang…
wens nouri en sterkte en beterschap!
heerlijk!
hoi jij had er toch ook zo 1?
sinds de dag voor kerst vliegt deze column van regelmatig door mn gedachten.
vanmorgen laura voor het laatst naar gebracht. ze is klaar voor de volgende stap, dankbaar, maar ook weemoedig
wat een warrige motivatie van
dat heb ik al een paar keer gedaan, maar ze weten allemaal van niks. erg onbevredigend!
beste is er al bekend wanneer de hackproblemen zijn opgelost? wacht al 1 week op een pakket en de klantenserv. geeft 0 info
mooi is dat de kinderen gaan nog een week naar school, maar de is al met vakantie!
ook zonder zon is het schitterend!
dan zou ik ze als inleiding even laten kijken naar jacobse en van es van de tegenpartij
ook vanmiddag was de dansvoorstelling van weer prachtig! en wat een schittetende kostuums!
vanavond weer een super dansvoorstelling gezien in van complimenten voor allen voor en…
dat begrijp ik. eet smakelijk!
succes maarten! 👍🏻
een mooi snorretje heeft ie inderdaad 😀
heerlijk! aankomst op het oerd?
zo kan het ook! mooi.
dit slaat echt totaal nergens op. dit is een totaal ongefundeerde en schandalige uitspraak.
net lid geworden van de .steun is hard nodig voor dit schittetende maar kwetsbare gebied!
komt het witte tshirt met dit logo ook weer terug?
alweer 13 jaar vandaag! van harte gefeliciteerd laura! maak er een mooie dag van!
prachtig dit!
my little bro koko is jarig. van harte gefeliciteerd!
prachtig! heerlijk!
je moet ook niet binnen zitten! tijd voor een pint in de tuin!
inderdaad. fans moeten maar eens gaan staken!
dank voor alle goede zorgen. laura heeft genoten!
zegt de man die zelf 0 nihil zetels wist te halen.
couldnt agree more! uitstekende column van
heerlijk, een super enthousiaste gertje
astenblaft
net alle fotos van het kamp op de blog gezien. wat waanzinnig gaaf! al die lachende gezichten! erg leuk 👍
een puntje van kritiek en kijk eens wat een hysterische reacties allemaal. als door een wesp gestoken.
man, wat is dit goedkoop zeg en makkelijk scoren ....
als je de oorlog erbij moet halen om je mening kracht bij te zetten, dan weet je dat die mening niet deugt
het is vandaag 5 juni en laura zong vanmorgen alhoor wie klopt daar kinderen? het aftellen is begonnen
wat kan een mens een onzin uitkramen. deze man zouden ze geen podium meer moeten geven!
mooi, met oma en opa de vries op de fiets!
prachtig om zon super enthousiaste te zien!
we hadden vannacht een niet slaapfeestje met 7 logeetjes. om 11 uur de klok 1 uur terugzetten en het ultieme ghzvtweet gevoel is terug!
paradijs op aarde
en dan het verslag van de nos
er wordt duidelijk genoten van de speech van onze
mooi om gertje het commentaar te horen doen bij de wedstrijd in limburg
dat bedoel ik. iets verder kijken dan de spreekwoordelijke neus lang is.
..... onder het mom na mij de zondvloed. dit zijn de ware wegkijkers.
... en het oplossen van het klimaatprobleem dat door de grootste wegkijkers wordt ontkend. ne…
is het al ergens te koop?
daar is de selfie
soms is het koud, soms is het warm, dat heet het weer, aldus trump. hoe simpel kun je redeneren ...
maar er zijn ook speeches waarin hij zegt dat de mens maar een zeer minimale bijdrage levert aan klimaatverandering ....
super! wellicht ook een idee voor het nieuwe stadium
als jij zegt dat de cijfers niet kloppen, dan kan het niet anders dan dat jij de correcte c…
dit is allemaal niet waar, volgens klimaatwetenschapper
schitterend! met jan en joop in maastricht.
mensen hadden prima door dat ze op jou niet moesten stemmen. man, wat praat jij een onzin. ik zou daa…
alles werkt weer
klopt het dat radio &amp tv eruit ligt?
mooi dat het zo ook kan!
de eerste 10.000 kwh staan op de teller na circa 33 maanden. als het zo doorgaat is de installatie na…
gertje is er helemaal klaar voor!
inderdaad, was ook hier weer genieten!
tijd voor een bankje tijdens een fietstochtje en luisteren naar de vogels en het ruisen van de wind
wat een ongelofelijk nare ploeg is dat om naar te kijken zeg! je zal daar een seizoenskaart van hebben
dit geeft precies aan dat geen zin had in de dus daarom gisteren een schijnvertoning opgevoerd
oh dear! zijn ze weer aan de gier? en dat op je verjaardag ... 🎁🍰🍺
inderdaad, mannetje had er gewoon geen zin an. ten koste van alles zijn medischethische agenda er doorh…
daar heb ik ook aan gedacht.
mannetje heeft gewoon een schijnvertoning opgevoerd en en de in de maling genomen
heeft informateur al gesproken met jacobse en van es?
gelukkig is de hartslag inmiddels weer tot het normale niveau gezakt!
op de trekker in ketelpak. fraai!
de eersten zitten al in de rr van op weg naar de huldiging van !#kampioenen
opgelucht, trots en blij om met dochter laura vandaag in de kuip te zijn en het kampioenschap van mee te…
prima beslissing rotterdamse gemeenteraad 😀
vorige week ook bij utopia geweest. was geweldig! iemand van natuurmonumenten nodigde ons…
met een herdershond
nee, zeg dat 😀
ik weet niet wat die gasten van allemaal aan het doen zijn, maar het slaat nergens op...
ik begrijp wel dat die supporters seizoenskaarten van hebben gekocht!
in en in triest!
misschien is het naar beter ook dat je dit soort types niet als volgers hebt, toch?
prachtige vogel!
als dit consequent gebeurt is de financiering van het nieuwe stadion binnen een week voor mekaar
terug in de hut, nog ff nagenieten van
we hebben weer enorm genoten op
ook op was het fris deze week, maar van een weekje wadden knap je altijd op
net zoals op een vraag over de or, hoor ik keizer hier ook alweer zeggenik ken die regels niet
voor een topdag op de heb je maar een beetje zon nodig en een enthousiaste dochter
al die verschillende accenten en dialecten in onze taal moeten we inderdaad koesteren. dat maakt de taal zo ontzett…
na 11 jaar was de accu stuk, dat schijnt erg lang te zijn
dan had ik er niet zo vrolijk bij gestaan. deze wordt volgende week ingeruild.
vanmorgen zeer goed en uitermate vriendelijk geholpen door de bekende wegenwacht gijsbert pronk. bijzondere o…
zo onvoorstelbaar asociaal om zomaar weg te rijden en de ander op te zadelen met honderden/duizenden euros schade…
prachtig shot!
zelfs tot aan het gebouw staan de fans! amazing!
maar jouw logica kennen we inmiddels wel ...
je had ook de hele dag heerlijk naar top snooker kunnen kijken 😀
prachtig!
die zal wel gaan roepen dat psv moet gaan degraderen 😀
aanrader om te kijken, bbc2
hoe simpel kun je redeneren. het is ook niet zo gek dat je niet verkozen bent tot lid van de tweede kamer
nog eentje great safety!