hoe wil je dat we willen aangekondigd worden bij de eurosongfestival bijv! dan sta je zo voor schut gwn!!
ik ga mij kapot schamen nu door deze naam en ik ben vgm niet de enigste!! 🤢
gefeliciteerd winnie🎉❤️maak er een leuke dag van!!!!! ik zal nooit je birthday vergeten want je bent 2 dagen na mij jarig💕
met wat en hoe😂
omg dat is mijn droom😻 winston ik wil wel langs komen😻😻
wat betekent mwt?
als die op het internet staat ik ga het zoeken😝😂
voor het eerst heb ik zin in school....... komt omdat we kamp hebben morgen😂
wanneer je opeens heel veel haat krijgt en dit maar op je instastory zet🌈
ik willll in die groep!!!! ben grote fan van winston maar ik kan je niet dmen
net wanneer ik geen wifi heb...... gebruik nu mn 4g die bijna op is
hahah ik ben uit mn bed gekomen en lig nu op de bank😅
dankje❤️ ik ben echt trots op die achtergrond.........
neeee...... wrm toch elke keer op een datum dat ik misschien niet kan😭😭
dit is het zwaarste baan ever...... op de bank youtube kijken😂😁
😝❤️
ik heb echt mn best gedaan en dan krijg ik een......
ik heb net een aflevering gezien echt zo tof😻
lijkt me vet ik ga sws kijken
over wat gaat het dan??
godverdomme ben nu pas klaar met mn wedstrijd
dat is zo true
ze zijn gwn jaloers je moet er mee leven
voor mij is het een traditie geworden dat je 9/10 reacties van mij liked of reageert😂😂
wens me succes moet 25 opdrachten maken
wat nou als ik niet lief ben.........…
ik ben blij dat wij dat niet hebben😝😂
ik krijg morgen een kleine link🐱💕
beter dat het een kookvideo wordt
lijkt best lekker
letterlijk lol
ik weet wel iemand.... ik stel je voor aan mevrouw kakel
hahah mijn engels docent wilt het niet weghalen
daar is wel prof in
pascal weet je dat je geweldig bent💕💕
haha ik zit in een ander lokaal
nee 2e maar ze zijn wel fking klein he
niet als je al anderhalf uur nederlands hebt😿😿
wrm heb je mij niet getagd😢
veel plezier de laatste dag
je ging vast ergens in een hoekje kip zitten eten
derde van rechts is ook een ginger
je bent de beste😻💕😝
ik heb al maar mag ik op insta😇ik heet samaatje
ik heb echt mijn best gedaan om hem te vinden
jouw videos mogen niet op youtube💕
elke pizza die je op vreet is een offer aan de pizzagoden en ik ben gelovig dus eet ik veel pizza
mijn geloof is pizzagoden
kom samen naar een steakhouse😂🤤
hoe reageert gio dan als jij bij hem in de buurt bent? 😂💕sorry gio
jullie zijn echt onze bazen😻 love naar jullie man💕✌️
ooh oké ik dacht vrienden zijn oud. ben blij voor je😘
ik kan geen engels wat betekend dat
oma miep en illuminatie
pascal ik zweer die wepsen😉 in zwitserland zijn agressief. ik ben zo maar gestoken en mijn zusje en vriendin ook😯
ik vind het een leuke combinatie💕
jij tuurlijk anders ben je gek😇💕
hallo goedemorgen hallo goeie dag lalaalalla en de rest van het liedje ken ik niet
ben het net aan het eten😝
hoi. ben onderweg naar nederland😃🇳🇱
waarom zie ik jou zo vaak in dieren? nee grapje gio love you😘
broodje kaas😂ben onderweg naar nederland😆
isg wens je veel succes😂💕
goed💕ben onderweg naar nederland😃hoe gaat het met jou?
gaat goed
hoe gaat het
ner hey is eeb vrasgzim.
ja tuurlijk
is ze dan vreemdgegaan?!
ik ben al ik spanje, zwitserland, italië geweest ben nu in frankrijk
can niet wait
wanneer jouw meest dierbaarste persoon op aarde je vol negeerd😭😫😔😢ze zeggen ik sta altijd voor jou klaar
fijn om te horen
naar het kippenheelal
over wat denk je nou weer? ooh wacht ik weet het al 🐔🐔kip
wanneer je een snoepje van een klein kind gestolen hebt
kwam je nog tegen in milaan😆
je wordt beloont door mijn liefde💕
dit maakt mij moeder altijd is echt heel lekker
misschien iets voor vanavond?
veel suc6💕ik ga naar milaan en dan naar frankrijk morgen ofzo💕
ik kwam jou nog tegen in de winkel
echt
ben in zwitserland ga zo over de grens naar italië en na paar dagen in italië naar frankrijk😆
thnx voor de tip💕
mijn wenkbrauwen blauw verven
geniaal
ff applausje waard voor dit
mensen die dan hele lelijk fotos van je op sociale media plaatsen
ze zeggen ik ga je irriteren
jullie hebben echt goals😻💁@winstonjulianvg
prachtig
dat boeiend niemand
true had ook gisteravond leuke vlog gekeken dat ze naar turkije gingenvlog 817 tot 826😻
je vader mag trots op je zijn💕😂😻
samaatje
maakt mij dag beter omdat ik niet bij de treinmeeting kon zijn😭
je bent wel het glittertje tussen de rest💕✨
kijk gios yt kanaal
ik wil ook naar de treinmeeting😭😭waarom moet ik nou weer hief in spanje zitten😭😭😭
vandaag is de eerste keer in de vakantie dat ik vroeg moet opstaan. welterusten allemaal😴✨
ik had niet verwacht dat je er nu al uit zal liggen😒😱
ik voel de spanning van hun wedstrijd😂😂😂
veel sterkte jill😢💕je bent echt een powervrouw💘💪
probeer je skills over te kunnen nemen!?
lekker nummertje luister hier in spanje😻
is er misschien een trailer van misfit? ik kon er geen vinden
veel plezier!
je hebt echt goals💕💁
mij niet😭😭kom 27 juli pas terug naar nederland😭😭😭😭
je bent een ritart, dat snap je zelf toch ook wel💘🙊
ik heb al 3 weken😇heb nog 4 weken vakantie😢😻
dingen die je als kind deed?
10 geboden van school?
😢 bij mij schijnt de zon nog😇
hij is wel koewl😊😎
heb je toch mijn advies opgevolgd😂je wou knuffels, met een knuffel kan je knuffelen😊😉
was furtjuh live in rotterdam maar op 2410😻dat zou dan echt de beste verjaardagscadeau ever zijn😪😆💕
nog 20 min😻😻😻can not wait🤗ik heb geen geduld
heyy 💕leukgenoeg is heel de wereld rond gegaan, zelfs gebruiken hem in het engels😻
om precies te zijn... 37 min
mooi om te weten💕
niemand vraagt ook gwn waarom? mijn leven is echt niet boeiend. dus zeg ik het zelf wel ik kan ni…
beterschap
nie goed😣
1, lig dan op de grond te slapen
zijn er ook echt mensen die kamer?😂
dit was ik in mijn vorige leven😂🤔
ik geef altijd lieve berichtjes💕behalve als je moet roasten😆
wow!! echt mooi💕💕💕💕😻😻ik ben echt super blij voor je❤️
je hebt gelijk een like binnen💕😊
zooooo wat een enthousiasme😂😃
echt nooit van gehoord😂😅
toen ik de video zag moest ik op de een of ander manier aan hem denken!?
neeeeh blond past beter bij zijn hersens😆
gelijk een like binnen hoor💕
❤️❤️😪iedereen zal aan tijn denken💕
😂😂ik zag het eerste niet, maar nu ik het zie hahah lig helemaal dubbel😂😂😂kan niet wachten nog 30 min
jaaaaaaaa! wacht ik pak een glas water😂😂
zieke schermen 😻👌
het lievelingsdier van mijn vriendin is een giraf dus jij ook
ik ben zo blij voor je💕
je hebt mijn verwachtingen overtroffen met je parodie😻😻😻 hij is echt geweldig geworden😋
neeeeh houd het nog maar ff spannend😆
even een vraagje aangezien jij creatief bent. heb jij een leuk/mooi idee voor een tattoo? alvast bedankt💕😘
😎😎ik heb nu wel hoge verwachtingen😏
can niet wait😆
de reactie van mijn vriendin ook😂😂🤦‍♀️
😂😂heb dit op mijn status gezet op whatsapp😆
gebruik google translate en typ dan heel snel wat er staat😂😂😂
😆het zelfde😊 ik ging gisteren om 2045 slapen, en ben net wakker😅😂
dit is de iphone 8! gelekt mensen ga deze kijken echt heel leuk💕
niet mij favo eten🤢maar eetsmakkelijk😘
jmmr dat nou net geen ytber ben en jou nmr niet heb😢😂
jesssssss can niet wait
en ik heb ook nog deze
heel schattig is het ook weer niet maar het is iets
wie zou er eerder in zijn broek plassen? wie zou er eerder struikel over zijn eigen voeten?
wie zou er eerder als bleek illegaal was, bleek stiekem dealen?
wie zou er eerder een koe neuken?
kut wijf! iedereen is toch anders!? dat zij zo is betekend niet dat andere dan ook zo zijn!
😆😂😻prachtig moet er van huilen😭😂😂
hoe heet de film?
slaaplekker winnie💕
maar ik heb geen geduld😣😣
yess, kan nie wachten
heb ik ook zo vaak😊en dan moet ik iets voor school doen maar kan dan niet😒ik heb zo vaak te laat ingeleverd hier door😂
😒😒wat haat ik die gast! ik ken hem al een tijdje en heeft altijd commentaar op mensen😣hij kijkt nooit naar zich zelf😟
ik zag deze bij de blokker en moest eigelijk aan jou denken😊
ik ben super blij voor je😘😻💕
ja de achtergrond van de foto is een verschil
eyy dee! even een vraagje, war wil je later worden? advocaat,rechter? en hoelang duurt het?
al die stokbroden zijn maar €1 waard😇😏
hoeveel kost zn paar?
😂😂😂geniaal
bof kont😒ik moest om 0630 opstaan
ik kan niet komen omdat er dan daglicht op mijn schijnt en dan smelt ik
ik kan niet komen omdat ik straf heb en moet in een hoekje zitten
ik kan niet komen werken omdat ik in de dierentuin ben aangevallen door een winston
prachtig nummer of nie?
het maakt niet uit dat de video later komt, je doet je best en daar gaat het om💕
sinds wanneer werk jij bij de bruna?
lijkt mij hilarisch op jou te zien koken😂😂 doe een kookchallenge met iemand,wie het beste het gerecht kan maken wint😂😂😆
7 second challenge met iemand
deel 1 over het stokbrood complot🥖
dit is , vond het een leuke foto dus alstublieft.
ik ga het nu ooookk doen, moment
lekkerrrrrrrr
ik heb net stokbrood op met kruidenboter
jaaaa lijkt mij geweldig en hilarisch😻💕❤️
kijk als jou hoofd er in voor komt is die sws kut, maar de video kan wel leuk zijn❤️😊😆love you pascal😆❤️
het shirt zegt de waarheid over jou.
je maakt een foto van onder om je lelijke kop te verbergen
dit is zo lelijk dat er geen roast voor te bedenken is
beste voorbeeld ever
ik zag op je is insta story dat je hulp nodig had! voor wat eigelijk😆
kan niet wachten om ze te zien❤️😆😊
en de laatste
koop een knuffel want die kan je knuffel en
waar woon jij dan? ik in rotterdam.
ik was net nog op het strand👍🏻lekker 27 graden en daarna ging het onweren😤😒☹️
ik heb zin in een nieuwe video👍🏻😻💕
alles kan in rotterdam!
heb je advies opgevolgd
vroeger aten ik en mijn kat samen een ijsje ik was toen 4🤔🤔pascal... je bent net een klein kind
hoe kom je aan ios 11? ik heb nog steeds 10.3.2 ik heb een iphone 7.
ik ga zo langs mij nieuwe school met mijn vriendinnen😜
jmmr dat ik geen skype heb😭
paprikaboy
dankje wel voor het melden😜😘
niet leuk...….………maar fantastisch😻
en doen alsof je iets zoekt maar niet kan vinden😜
ga ik echt dood😔mijn waterfles is net omgevallen en er is nergens een kraam😭
de vlog is echt geweldig😻
omg! ja! dat wordt nog wel eens een keertje uitgezonden op nickelodeon😻
volgende week pas😔😤😒
heeft het nieuwe haha uitgevonden haba. iedereen gebruik de om winston te steunen😆😆
ik heb heel de dag heen en weer gelopen met mijn ventilator, waar ik ook heen ging in huis moest d…
kan niet wachten!ik snap me zelf echt niet, ik heb dit al op insta gezet dat ik niet kan wachten😑😆
nee ken ik niet😆maar ga het zeker opzoeken😜
kan het lampje alleen paar licht geven?
word je teminste niet lek geprikt van avond ik bed😆
heb de video echt net afgekeken hij is echt hilarisch❤️😂✌️
ik dacht dat je ging slapen!? 🤔😆😑😂@winstonjulianvg
slaap zacht❤️🙈
ik vind je videos geweldig om naar te kijken! ik en mijn ma zijn helemaal fan😻ik ben zelf oo…
gefeliciteerd❤️
😂😂wow ik wist niet dat 2 dagen later dan mij jarig is! eyy winston kom samen vieren😂
iedereen slaapt tegenwoordig🙄😆
leuk!! kan niet wachten❤️😆
ik doe het ook nog😆😅link je bent niet de enige
eyy die gast met die zwarte pet lijkt op jou!?🤔
wanneer ik wil zijn😆
😂😂ik zie de tweet nu pas, want ik kom net van kamp en ik had geen wifi 😅😂😆maar alsnog thnxxxx❤️❤️
jaaaaaa!!! dan ben ik heel de week blij😊
5 juni 2017 om 2335 heeft de 1m abonnees gehaald! ✉️dit was het nieuws van dese week💌alstublieft, graag gedaan😊
ik ga morgen op kamp😔en naar de efteling💘maar met dit weer is er niks leuks aan😑
link kijkt zo blij zeg😂😑
goeiemorgen willi
ik heb de vlog net gekeken, hij is echt leuk geworden!❤️❤️
ik wou dit even kwijt😊❤️😔❤️
dylan ik ben echt bijna aan het huilen van geluk❤️
gefeliciteerd omg ik moet echt janken ❤️😻😻
nog iets van 20!!! mijn tranen komen al😻😭❤️
nog minder dan 100
nog 100!!!! ik ga janken😁
ik ga echt janken😻
ik zit hier naar mijn telefoon te kijken vol met spanning!! ik ga echt huilen als jullie vanavond de 1m hebben gehaald❤️❤️😻
omg!! ik moet eigelijk slapen maar ik blijf wakker tot de 1 m!!!!!!!!@dagelijkshaadee
goeiemorgen winnie💘
je hebt het verdiend
slaaplekker drollie😘😘
ja zeker, maar in het paars veel mooier😂😉☺️@itzsyntrax
maakt niet uit dat de vlog later komt! je doet je best voor ons en daar gaat het allemaal om❤️
waar gaat de wereld toch naar toe😔#prayforlondon
het is niet eens een 2 weken geleden toen het in manchester gebeurde😾waar gaat de wereld heen😢😭#prayforlondon
ik zou me dood schamen als ik dat moet vragen😂😆☺️
🤔🤔misschien ben je een soort van verslaafd🤔🤔misschien he!😆😊😂
mijn moeder heeft ook astma en loopt de hele tijd met dat pufjeof hoe het ook heet rond
hij type fout
was jij dronken ofzo?
ik kan er niet bij zijn😭😭😭😭😭
same😾ik heb overal jeuk😑ik had er zo veel last van😢
dikke kus van mij en justin😘💋
veel plezier schatje😘😘❤️❤️💘wel oppassen dat je ribben niet breken😉
hij kan het beter dan kuch kuch🤐😊😉
mijn nieuwe omslag😻@enzoknol 💘
ga jij voor het eerst naar pinkpop?
je bent een beetje vermagerd of zie ik het verkeerd😂🤷‍♀️
of liever deze
is deze goed genoeg?
mijn gesprek met over 😻😻😻staat je goed dat paarse haar😘💜
maakt niet uit! iedereen maakt fouten 😘😘❤️
misschien een leuk idee om ze een keer zelf te maken😻😉
ja!!! die zijn hilarisch😂❤️👍🏻
links jeugdverhaaltje😻📖
gefeliciteerd !😻😘je hebt het verdiend!
ik bedoel het toch niet gemeen zie je die hartjes niet ofzo
het zou lekker weer worden☹️
je zag er al niet goed uit en nu al helemaal niet met paars haar😂😂❤️❤️😘
ja dat heb ik ook, ik ben er mee geboren maar ik heb het op mijn benen.
ik heb gewoon de ventilator naast me gezet😅en dan word je nu pas wakker😅
ik ben echt net pas wakker😅ik heb beetje laat geslapen😁
ze zijn bijna overal €4
ik heb heel vaak een porsche met kp logo gespot😻
ik ga zorgen dat mijn zusje niet gaat kijken😝ik denk niet dat het lukt, ze kijkt elke video😻
jij ook!!❤️en lekker morgen genieten van het weer😝✌️
bleek zit dus in de familie❤️😂😝
ik zou antwoorden ik ben een hologram🙄
eindelijk makeup voor pascall, heeft hij zeker nodig❤️❤️😝
knip gewoon een van je lange broeken😂?
je kan ook hard lopen in het bos bijv. ??
als iedereen zoals jou was,zal de wereld een stuk beter zijn. een heeeeel groot stuk beter zelfs✌️❤️❤️
het werkt heel goed tegen keelpijn. als je ooit veel last krijgthoop het niet kan je het gebruiken. zeker een aanrader👍🏻✌️
heyy !! ik zag dat je in duitsland bent. ik heb een tip. je moet zeker weten lemocin halen in de apotheek
als je het mee had genomen, is die misschien ergens uitgevallen🤷‍♀️
niet alleen de youtubers😝😉
link sluit joost gewoon buiten😂😝😔
dat zei mijn moeder ook.