ik ben toch wel erg benieuwd naar deze foto......#elvis
ik word er blij van. dank!@arievandergraaf
hebben ze ook een eenhoorn hoodie??? 😊
prachtig art!!
als je je wilt opsluiten ergens aan de kust dan hoor ik het wel, kom ik voor je koken.
prima pics hoor.... ach die laatste 28 hadden niet gehoeven...., maar toch bedankt😜
ik zoek maartje uit en haar man louis waren 10101969 op het
was echt super lekker!!!
we worden weer verwend!!
😂😂
ik mag zelf volgend jaar weer voor controle na 3 jaar......😊
wat een prachtig nieuws!!! 🌸gefeliciteerd.
lekker potje om bij te zijn in alkmaar!! 💪🏻 📷📸
yeah!!! de mannen van jo81 hebben vandaag een mooie wedstrijd gespeeld en 51
ja zucht.... en wat zat er uiteindelijk in???
hoezo volgende week...? wie komt er dan??
ja echt hé zo irritant
dat zou wel een prachtige aflevering worden!!!😊
maar ehhh hoe is het met je?
hè, hoe gaat het met je?
nou ja zeg..... hang je zomaar bij ons aan de waslijn...😜😜
zijn eerste echte shirt.... oh oh oh hoe trots kun je zijn😊#feyenoord
ik ben sprakeloos😱
we hebben genoten!!
met mijn naar de geweest. super middag gehad!
ok ik van de week naar de mac met de kinderen. voor de wrap gegaan vanwege lage punten. maar ehhh w…
coen zijn op school..... wat heeft de kleine man genoten van
maar ja ik verwachtte de draadloze bij de iphone 7.....
whaaaaa we gaan zondag naar de
en in dat promofilmpje zie draadloze oordopjes
kreeg daarna een mailtje, gefeliciteerd met je iphone 7
verlenging van mijn contract.
vraagje in het mailtje over mijn nieuwe iphone 7 zie ik draadloze oortjes.... maar ehhh waarom heb ik die niet gekregen?
yeah net mijn contract verlengt met en lees nu dat mijn nieuwe al onderweg is!!
tja, zo kun je ook folders bezorgen...😜
jemig wat een goeie in geen geen twijfel gewoon langs komen en op de minuut op tijd!!!
toch maar overstappen op 😜😜 had de hele dag 4g
pffffff het is nu officieel..... we hebben een in de
ja echt prachtig!! vandaag ook trouwens tijdens de watersafari op het naardermeer!!
zeer hartelijk ontvangen bij van pfffff we gaan pas om 11 uur open.
wat een prachtige wandeling vanmorgen door de rond mee!…
wat een super vanaf mee!!!
mooi plaatje!!
wat een prachtig meertje zeg!! heerlijke gemaakt rond het
mooie afsluiting van onze week in de iain matthews trad op, op les murets. 💜#lesmurets…
ohhhhh het ruikt hier toch lekker!!
ehhhhh wij denken een ringslang.... jij ook??
jemig lijkt wel oud op nieuw....
in de polder steken we bij elke verjaardag af.... is hier volkomen
en de gebruiksaanwijzing altijd een puzzel is...😜
🍻proost en veel plezier
heel blij!!! mooi assortiment en snelle levering!!! bedankt
hoezo? das zijn priveleven, mi…
whaaaaa op deze kaart staat zelfs nog de manege. weet je nog....
oh sorry het is het tweede korfwater.....
haar mooiste plekje, nu haar plekje.
kind van haar vader..... en
mooie avond in gehad.
had je iedereen weggejaagd???
klopt het dat jullie ingrekeningnummer veranderd is??
wij gaan met de kids naar buiten. jullie ook? je kunt het vakantieboekje van oerrr nu gratis aanvragen bij
dit online bij psychologie magazine besteld ontving dit fotobewijs wat voor mij worden ingepakt!
vraagje in de webshop krijg je een minipoppetje kado bij lego star wars, is dat ook in de winkel bij jullie? groet
wat is ie gaaaaaaaf!!!
de is begonnen....
ik word ook zo link van de reacties dat dit toch een ongeluk betreft en deze persoon niet wist wat hij deed.....
onze
gatver wat loop ik te genieten!!!
mijn tante is haar iphone kwijt.... graag delen!!!lief
wie kan mij helpen???telescopische tentstokken.....
lekker aan het klussen op deze tropische dag groetjes klaziene en jan!!!
wat zijn hunnie nu stil hé......
hamster.... met kooi.
mijn hemel..... kun je nog wel over straat?? of liggen er nu allemaal mensen achter bosjes🌳 te wachten…
alexander ik vind het stiekem een erg grappig filmpje!!durf het bijna niet te zeggen na sommige react…
toch vandaag de kampioenswedstrijd..... verloren na verlenging. 12
in de
eerste is een feit!!! achter de
daar zat ik dan... in mijn eentje te bij de
en dan mag je naar school!!!!
ohhhh en hij kan nog voetballen ook😜😜😂😂
ik heb een leuke schoonzoon voor je in de aanbieding....
je helpt ons over onze van gisteren en vandaag en morgen...tot zondag!!😊#coen
ja een grote, maar die verdwijnt weer. we gaan weer door, wij zijn !!!! …
mooi stuk vandaag van in ik zet morgen mn vouwwag…
gatver ik vond je al leuk, maar je bent nu nog leuker.....
in vorig jaar ook bij hetzelfde meisje!!
nou de dag kan niet meer stuk!!!!
ondertussen in het rustige en schilderachtige tuitjenhorn....
nee, voetballen hebben ze net gedaan in arnhem
haha helaas 87 verloren... maar wel genoten!!
in de aan de whaaaaa zijn 1e is een feit.
weer optimaal nagenieten van een maga spannende wedstrijd!!
super!!! wat een leuke actie!! en wat ben ik hiermee geholpen!!!
vraagje moet je zelf actie ondernemen wat betreft de extra data actie? wij hebben ook ziggotv en internet thuis.
och och...... het is niet altijd makkelijk om te zijn.. maar volgende week…
heeft het niet meer.........
ik dacht van wel.....
pffffff kom op!!!!!
dit is in scène gezet....😂😂
staat haar mooi!
wat heb je toch een rare mensen, belachelijke reacties! succes cynthia, ik vind je heel dapper!
en om 400 nog buiten???? echt bizar!
en dan ook nog 14 jarige die erbij waren...
het was gewoon geen vrije trap, maar ja dacht daar anders over!!!
groot is dat niet gewoon
😬😬😬😬ff geen tijd voor....😜 vertel het me maar niet.
nee joh, woensdag staan ze er weer als vanouds....
het is wel duidelijk voor wie kuipers is.......
jemig, wat een mooi verslag in de wild van freek!! en gelukkig gaat het goed met j…
super leuke dag gehad in
ik zag de scène in de hot tub ook niet aankomen...😂
hij is terecht!! en weer onderweg naar huis!
jeeeh, nummer 3 is gearriveerd!!
tja.... zo kom ik ook wel aan lezen toe.......
1230 wedstrijden zijn vaak niet best......😬
bah, wat een kl... begin van je weekend! sterkte met het gemis!
met heerlijke burger van
jemig daar kom je nu mee.....
in ja, volgens ons 3e hebben we de enige juiste rood gekleurd!!
heel veel succes morgen!! hier in tuitjenhorn krijg je in ieder geval al 2 stemmen!!! 🖍
ohhhh jammer, bij mij thuis zeiden ze dat mijn geheime feyenoordvriend in beeld was😜
was je in beeld bij studio sport???
wij ook!!!!!
6jr. die lampie de jong kan wel zeuren hé........
we staan voor....
een woord wat je niet zo vaak hoort pedant.
zouden ze in eindhoven natuurlijk nooit doen.....
zouden ze in eindhoven natuurlijk nooit doen.....😂
hahahaha dat verklaard alles!!!😀
welke bron???? wnl of de telegraaf
in
wat een geweldige aflevering weer!! bedankt!
het ruikt hier nu al heerlijk!!
toeval bij wie is de mol????
en haar ook nog mogen aanraken?😃
nou hebben we hem allemaal gezien??? dan kan hij nu normaal doen....#irritant
yeah!!! de kaarten voor zijn besteld! we komen eraan!!
wat super tof! gefeliciteerd en veel succes gewenst!
diederik ging naast de wagen lopen maar we weten niet of hij iets gevonden/gepakt heeft.
dit recept is bij ons thuis de hit uit het eerste boek moet je ook eens proberen!!
zelfs zon jurkje staat je goed..... voorspoedig herstel!
yeah!!! reservering van ons vakantiehuisje is bevestigd! de voorpret kan beginnen!😎🏝 via
zit je ook met zweethanden??😜
stond al aan.... maar opent nu in ieder geval wel...
ja, dan wel.... hoe kan dat?
weet iemand hoe ik dit kan oplossen? opent niet 6s
je kijkt toch wel???🎾
echt super aflevering! wat een wegen, wat een land, wat een duo.
pffffff ik pis bijna in mijn broek😂😂
op de ketting van sigrid staat vogue dat betekent gezocht worden......
joh zit nog in nog even niet aan ik pas denken hoor...😜
en miss mole was een andere.
tja als je dan een foto plaatst zorg dan in ieder geval dat het model de goed vasthoudt.
ketting van sigrid vogue....
op de ketting van sigrid staat vogue.... misschien een aanwijzing.
ok, het is misschien ook te ver gezocht,maar de ketting van sigrid is volgens mij vogue geschreven.…
het ruikt hier nu al lekker!!! vanmiddag met de kinderen op pad, dus alvast op voor koken.
planet earth 2 aan het kijken, k heb steeds het gevoel dat elk moment door het beeld kan lopen.....…
thomas betekent tweeling .....
wat een klote naam.... we love
hoi, wat heb je in de wraps gedaan? ik zie sla......en
daar ben ik ook benieuwd naar!! werd gepakt en terug gestopt.
tja, ik denk dat zowel wij als zij moeten wennen aan hun nieuwe rol. hopelijk kijken ze vorig sei…
met tara en coen naar mees kees langs de lijn geweest. vreselijk gelachen, wat ben je weer hilarisch
dan hou je 2 dagen je katten binnen vanwege het vuurwerk, gaan ze op de sportlaan in gewoon nog een avondje knallen
lekker aan het werk met de meekijken en luisteren.
we hebben genoten van je vanmorgen! het was het vroege opstaan meer dan waard!!
heel veel plezier en succes morgen!! we zien je donderdagochtend en jemig wat hebben we er zin in!!
🎄mooie dagen voor jouw en de mensen die je lief hebt! fuck de twitteridioten en facebookdebielen met h…
wij voor
wij hadden helaas geen rood en wit in huis...
daar gaan we voor julli…
delen mag!!!! graag zelfs!!
ik zoek een goed huis voor moeder en dochter! super lief, helaas kan hun baasje niet meer voor hun zorgen..mogen…
je nieuwe auto????
je nieuwe aut
en ik maar wachten op de fotos.....😜
ja precies, dat wil je toch meemaken😜
die ene feyenoorder, in het vak links van jullie, die straks juicht als we scoren is mijn martin. 😜
onze schoonzoon supporter had een kadootje voor martin.
..... al mijn az vrienden proberen mij nu bang te maken..... gewoon mee naar
hoi hoi peter. vraagje is dit evenement ook leuk voor kleine kinderen??
mooie wedstrijd om bij te zijn!!! pffff wat een spanning!
en de meneer met baard ik weet zijn naam niet verteld alles wel rustig en sterk uit.
ja en dan zegt hij iets...maar dat slaat dan weer nergens op.
wat een leuke verrassing!! geniet! en de
oh en che mag ook mee! die vermaakt zich hier ook wel!!
nou je kan altijd bij ons komen logeren hoor! ook als je eenzaam bent! kus
beterschap, hopelijk knap je snel weer op! 🛁💉🛌
wil je alsjeblieft een foto/link van de planet earth 2 naar ons sturen? na 18x het adembenemende filmpje willen we de hele box.
toppers van de bellen en met 15 min staat er een vriendelijke meneer om mij weer op weg te helpen.
de fotos lijken wel vanaf een andere plek genomen dan anders. ben je verhuisd?
oppad met owen.
ook gestemd maar dan wel op ...😁
even een dooddoener..... we hebben niet verloren!
ok ok gelukkig bleef kuyt staan!!!!
onze heeft de oplossing, erin eruit.
heel goed. had rood moeten krijgen
pffff kom op mannen...... 3 kansen en 0 goals...... hopelijk krijgt 020 die 3 kansen niet....#💪🏻
tja.... wat er ook gebeurd vandaag, dit gelukkig niet!!!!!
met zn alle incl. schoonzoon joost de super freek vonk show kijken!!
de drukte van deze werkdag helemaal vergeten!!! bij thuiskomst een zeer aangename verrassing. wat een heerlijke cd!…
heerlijk herfstvakantie! coen en ik kijken een van zijn favoriete films. en als b…
ik vond je al leuk, maar pffff petje af dat je jeroen oerlemans eerde deze avond!! 🏆gefeliciteerd met je prachtige ring
super snelle en goeie service van lang gezocht naar goede koordjes en nu gevonden!!!
kijk je niet naar nos studio voetbal??!
bommetje xxl kijken met coen. ik blijf lachen..😂😂@patrickmartens1
erg inspirerende look and learn!! waarschijnlijk in januari naar je trainingsdag!! 😁
de fotos waren weer grappig😂😂
super look and learn gehad vandaag tijdens de
super leuke dag gehad in de spant in bussem.
jij zit toch wel gewoon in het uitvak hé......😃
super blij met mijn nieuwe laarzen!!! wie weet brengen ze geluk en win ik ook nog 2 kaartjes voor …
win bij nelson.nl kaarten voor hartenstrijd!
🍂zeker weten geen bladeren??😜. 🍁
😱ik moest het een 2e keer lezen joh....#shame.
ehhhhhh wat doe jij daar??😉
waar blijven toch al die berichtjes van mijn psvvrienden 💡
ik ben benieuwd of we morgen een krant krijgen...en als we m mogen ontvangen is het dan voor 740 of erna...
joepie onze eerste van de van dat wordt
grappige tips in de van de naar ehhhh ik mis de fles rosé
vroeger in kreeg de bezorger van de met kerst €20, als deze zo door gaat krijgt ie niets.
tja... dan krijg je door de weeks de krant al niet voor 730 en nu op zaterdag helemaal niet...#opzeggen?
vandaag geen krant ontvangen en ook na melding is er geen krant nabezorgt...
ik hou ervan dat gezellige avondje, al gezelliger worden en ik morgen gewoon om 630 op moet staan.....
zin in!!!
zo op mijn meisje!!! ondanks de mega toch in blijven.
het wordt al mooier!!
eten op het strand in met mijn mannen!!
haha ja herkenbaar!
das bij ons de dinsdag.... maar helaas de eerste 2 van dit schooljaar niet gelukt....😌
kijk je geen voetbal???
shocking!!! mijn hemel.... je zou toch niet aan kinderen beginnen na deze beelden. 😂
mooi stuk in de elvis matters!! en zo herkenbaar allemaal!
kijk dan wat van kan!!
ok, dus het loont om de wedstrijd nog even terug te kijken? 🤔
ik vind het onbegrijpelijk dat hij zelf niet opstapt!!!
zo te lezen heb ik niet zoveel gemist.....
ben je aan het hardlopen???
de app werkt niet, hoe kan ik nu mijn xl bundel aanzetten in het buitenland????
ehhhh wat is er aan de hand? ben je ziek?? niets ernstig hoop ik 020 verliest........
weet nou niemand wat dit is......???
oh wat heerlijk gaan we weer 2 uur naar luisteren??
wat is het??? of een jonge
oh.... dan was er nog een andere oefening gaande. 2320 vloog hier de laatste over....🚁
prachtig plaatje, maar ehhh tot hoelaat gaat die oefening door??
ja bizar, en waarom ....? is 1x oefenen niet genoeg....
ja bizar, 6e keer. maar is het niet zon leger helicopter? dat ze oefening hebben ofzo.
vandaag deze zwemvleugeltjes gekocht, maar tijdens het opblazen ging het niet helemaal goed....
ik ga binnenkort naar en heb mijn kaartje met korting besteld. wil jij dit ook? klik dan op de link!
misschien is de combi het even kwijt door alle spanning.....?
olympische spelen kijken via livestream van de
weer een aanrader!!
prachtige wandeling door het
weer een prachtig stukje nederland!
ik ben in stijl deze ochtend....
lekker begin van de dag! via
tja en dan loopt er zo maar een muis voorbij.......
wat een super wandeling!
super blij!!! en zag er keurig uit!!
wij hebben m vandaag gelopen en ook super genoten!!
bramen eten onderweg.
tip paar losse euros meenemen voor koffie in de schaapskooi.
lekker aan de thee/koffie bij het bij
prachtige wandeling gemaakt bij van echt een aanrader om naartoe te gaan!
sssst niet zeggen, straks wordt ze ook naar huis gestuurd......
maywood rio live 1981 , ik ben niet bijgelovig ofzo maar misschien helpt het....
tja..... ik hoop beide maar denk alleen het weer.☀️
vanaf morgen wordt het prachtig!!☀️☀️
mmmmm soms is tanken lastig.... net bij spuit een vrouw gewoon in het rond....
vliegt net over op weg naar de
hij speelde niet goed hoor...., hopelijk had hij last van zenuwen ofzo.
maar ja zoals al mijn az en ajaxklanten gisteren al zeiden. ach joh de stelt eigenlijk niets voor.
eindelijk eens sfeer in de
jemig wat een heerlijk gevoel voor humor heb je toch😊
jemig wat een prachtige aflevering van de
goede avond, tot mijn verbazing zie ik dat mijn maand bedrag van mijn autoverzekering ineens veranderd is..... vanwaar??
wat een leuk stuk over jullie huis in in magazine!
pffffff mijn god....
maar ehhhh waar moet je anders over praten????😜
nou je hebt genoeg te melden!! vilhena, lodewijks, nelom, jørgensen.
tara 11jaar is op zoek naar een kwieke 80+ die haar zijn/haar ervaringen van de hongerwinter wil vertellen.
tara 11jaar is op zoek naar een kwieke 80+ die haar zijn/haar ervaringen van de hongerwinter wil vertellen.
mooie foto!
huh wat doet die in mijn boek?
stiekem is het echt een leuke spaaractie van de we zijn allemaal gek op en zijn
ja precies, maar dat die kaplan er tussen zat....
whaaaaa heb je de aflevering gezien van vanavond??
nou vals alarm hier tot nu toe.. 2 spatten gevallen....
ik herken het probleem!!
tuitjenhorn tot nu toe 2 spatten.... we wachten rustig af....
joepie
weet je het is hier ook best leuk, geen zon, wolken, regen...🌧
das inderdaad zielig!
proest😂dat dacht ik nou ook.....
mn tante speelt dit via facebook met de hele familie. wie kan ons helpen?
!!! wat is dit??? we spelen d#raadhetvoorwerp