jorgensen heeft in de wedstrijd bij ado een polsbreuk opgelopen. nog niet bekend hoelang de feyenoorder is uitgeschakeld.
interviews met karim el ahmadi ,steven berghuis en giovanni van bronckhorst op rijnmond.nl
larsson en tapia in de basis bij feyenoord. boetius en diks beginnen op de bank.
kenneth vermeer is donderdag door zijn enkel geklapt en is er niet bij in den haag. justin bijlow is tweede doelman vanmiddag bij feyenoord.
spelers van feyenoord komen aan bij stadion van ado.
boetius,amrabat en tapia in de basis bij feyenoord . geen diks, toornstra en larsson .
amrabat heeft definitief voor marokko gekozen. hij zit ook in de definitieve selectie voor duel ivoorkustmarokko. punt is genoeg voor wk.
legendarische laatste vraag aan gio . wat hij zou aantrekken voor halloween. superman pak zegt gio. vraag kwam van oekraïense dame.
pc gio is bezig straks allemaal op rijnmond.nl
persconferentie van feyenoorder brad jones is bezig zometeen komt giovanni van bronckhorst.
stadion van metallist charkov van binnen.
aangekomen bij het stadion waar feyenoord morgen speelt tegen shakhtar donetsk.
feyenoord komt aan bij roda jc
feyenoord loot opnieuw thuis na ado en swift komt heracles langs.
renato tapia heeft dinsdag de training bij feyenoord hervat. tapia raakte tegen zwolle geblesseerd aan zijn hamstring.
el ahmadi”ajax had een beter plan dan ons” op radio rijnmond .
gio “misschien heb ik het team niet goed voorbereid.”
been in fc rijnmond hoop op gelijkspel, maar ajax favoriet
klaar voor fc rijnmond. we gaan zo beginnen.
dat vond gio een van de mooiste wedstrijden tegen ajax als speler.
gio denkt nog terug aan bekerwedstrijd met ajax met de winnende goal van obiku in amsterdam. gio zat niet bij de selectie maar op tribune.
feyenoord ajax is altijd de wedstrijd van het jaar. ongeacht de stand volgens gio.
volgens gio heeft feyenoord vee geleerd van de cl wedstrijd tegen donetsk.
gio wil net als tegen donetsk weer fel starten. laatste jaren begon feyenoord ook sterk thuis tegen ajax.
volgens gio is na shaktar ondanks de nederlaag het gevoel goed bij feyenoord.
jorgensen heeft geen reactie gehad en kan gewoon spelen tegen ajax .
van beek kan volgens giovanni van bronckhorst zo goed als zeker niet spelen tegen ajax. heeft een blessure opgelopen tegen shaktar.
renato tapia mist definitief ook de klassieker feyenoordajax. hij denkt wel weer snel terug te zijn. tapia heeft lichte hamstringklachten.
tom beugelsdijk moet alsnog 4 wedstrijden schorsing uitzitten en mist met den haag de thuiswedstrijd tegen feyenoord op 5 november .
aangekomen bij de kuip waar we zometeen tussen 7 en 8 een live programma maken op tv. en vanaf 20.45 live commentaa…
einde persconferentie met giovanni van bronckhorst.
diks heeft een hersenschudding opgelopen op de training van gisteren en is niet inzetbaar . hij kreeg een bal in zijn gezicht.
van beek maakt een goede indruk op gio, die blij is dat hij terug is. van beek zal tapia vervangen.
tapia kan niet spelen het is nog niet bekend of hij tegen ajax wel inzetbaar is.
gio reageert op de vraag welke spits er speelt, maar gio wil geen details over tacktiek of opstelling geven .
giovanni van bronckhorst is nu aan het woord en gio geeft aan dat feyenoord in een sterke poule speelt en dat ook shakhtar sterk is.
boetius heeft als voorkeur om aan de buitenkant te spelen, maar schikt zich in zijn rol als centrumspits.
boetius is erg gecharmeerd van speler tyson van shakhtar . volgens boetius heeft feyenoord zijn huiswerk goed gedaan. jp ziet mogelijkheden.
persconferentie gaat beginnen van feyenoord.
persconferentie is klaar om half zeven komen van bronckhorst en boetius.
nu gaat speler fred vragen beantwoorden op de persconferentie. de braziliaan heeft sinds kort oekraïns paspoort nu…
fonseca zegt over feyenoord dat hij denkt dat het een zware wedstrijd wordt omdat feyenoord een sterk team heeft. dat was zijn analyse.
tot nu toe schopt de trainer van shakhtar donetsk paulo fonseca louter open deuren in tijdens de persconferentie.
fonseca weet dat de sfeer in de kuip altijd goed is en denkt dat dat de prestaties van feyenoord kan helpen.
zondag speelt shakhtar de topper tegen dynamo kiev, maar fonseca focust zich eerst op feyenoord. pas daarna wil hij aan kiev denken.
trainer fonseca over van bronckhorst. ik ontmoet een held morgen. maar het gaat om de wedstrijd.
trainer paolo fonseca van shakhtar verwacht twee sterke teams en hij verwacht dat feyenoord zal aanvallen.
de trainer van shakhtar zegt dat hij niet veel van feyenoord weet, maar wel dat hij feyenoord respecteert.
persconferentie van shakhtar donetsk gaat beginnen.
jeanpaul boetius zal straks namens feyenoord op de persconferentie verschijnen voor het duel tegen shakhtar en uiteraard ook de trainer.
geen renato tapia en kevin diks bij feyenoord naast de al langer geblesseerde van der heijden en botteghin.
laatste feyenoord training voor shakhtar geen renato tapia wel zit vermeer bij de selectie.
nicolai jorgensen geeft in interview aan dat hij nog niet 90 minuten kan spelen tegen shakhtar en ajax. interview zo op rijnmond.nl
oudfeyenoorder terence kongolo had vanavond eindelijk een basisplaats bij monaco. 90 minuten gespeeld . wel 32 verloren bij lyon.
in een nog nagenoeg lege arena begint nederland aan de warming up.
john guidetti begint bij de zweden op de bank.
feyenoorder tonny vilhena in de basis bij oranje tegen zweden. oudfeyenoorder wijnaldum ook. daryl janmaat begint…
bij feyenoord heeft jorgensen 20 minuten meegedaan aan de warming up en daarna weer naar binnen. kenneth vermeer tr…
nu 10 winnen en dinsdag van zweden 10 winnen en dan hopen dat die fransen verliezen bij bulgarije en van witrusland en we zijn door.😉😉😉
feyenoord boekt recordomzet
diks en kramer niet in de basis bij azfeyenoord. amrabat is rechtsback en larsson speelt voorin. boetius is de centrale spits.
in de rotterdamse bibliotheek zometeen een college geven over sportverslaggeving.
bibliotheekcollege het leven van een sportcommentator
feyenoordfans met ovchipkaart naar napolifeyenoord
opstellingen napoli en feyenoord
selectie komt aan.
zelfs media moet id bewijs tonen. het wordt moeilijk voor de feyenoordfans die toch een kaartje hebben om binnen t…
bij de poorten wordt inderdaad iedere supporter naar zijn id bewijs gevraagd.
aangekomen bij stadion van napoli. straks het verslag op radio rijnmond .
dennis en sinclair live vanuit napels rtv rijnmond
vader en zoon hopen nog op tickets rtv rijnmond
feyenoord selectie traint in stadion van napoli
aangekomen bij het stadion van napoli om half zeven is de persconferentie met giovanni van bronckhorst en steven be…
feyenoord en ook de jeugdploeg is aangekomen in napels . dennis en ik zijn er ook volg alles via rijnmond.nl
opstelling feyenoordnac met bilal voor berghuis. amrabat voor toornstra. van beek op de bank en st. juste en toorn…
van beek meldt dat zelf op zijn instagram account.
sven van beek zit na bijna anderhalf jaar blessureleed voor het eerst weer bij de selectie van feyenoord vanavond tegen nac.
en de tvgelden moeten eerlijker worden verdeeld. dat zegt sparta directeur manfred laros. zometeen op rijnmond.nl
zo moet het gras in elk stadion hetzelfde zijn. moet er met dezelfde bal worden gespeeld en mag nergens het dak dicht.
sparta is met de 6 overige kunstgrasclubs in de eredivisie in gesprek . de clubs zijn bereid om weer op gras te spelen onder voorwaarden.
opstellingen
boetius zit ook niet op de bank tegen ado. sam larsson maakt zijn basisdebuut voor feyenoord .
boetius en vilhena krijgen rust tegen ado amrabat en larsson beginnen in de basis
keepers van feyenoord zijn begonnen aan de warming up in eindhoven .
jones, diks, botteghin, vd heijden, haps, vilhena, toornstra , el ahmadi , berghuis, boetius en kramer bij feyenoord in de basis tegen psv.
feyenoord met diks en haps in de basis. geen amrabat en nelom.
manchester city wint in een week met 50 van liverpool en 60 van watford. heeft feyenoord het met 40 niet eens zo slecht gedaan.😉
psv spits lozano definitief niet tegen feyenoord. als hij tegen zijn schorsing in beroep gaat is hij sowieso automatisch zondag geschorst.
ook dennis en ik debuteren zometeen in de champions league.
we hebben om 19.00 op rtv rijnmond live een voorbeschouwing op feyenoord manchester city .
guardiola zegt dat hij geen spelers gaat sparen net als manchester united vorig jaar.
guardiola zegt op de vraag wie de beste feyenoorder is. jorgensen , el ahmadi en vilhena .
ronald koeman heeft guardiola in het verleden ook veel over feyenoord verteld.
guardiola zegt dat van bronckhorst een fantastische linksback was en ook een prettig mens. guardiola heeft veel duels van feyenoord gezien.
guardiola weet hoe belangrijk de cl voor feyenoord is na al die jaren en heeft veel respect voor het nederlands voetbal.
guardiola zegt dat feyenoord meer titels heeft gewonnen dan city en dus wordt het niet makkelijk.
guardiola zegt dat hij van het nederlands voetbal geniet en dat hij het voetbal in nederland waardeert.
guardiola wil niet praten over het winnen van de cl met city. eerst hier maar spelen in rotterdam. uitwedstrijden zijn altijd lastig.
ook yaya toure is er niet bij bij city. guardiola heeft hem nog niet gebruikt en heeft een gesprek met de afrikaan gehad.
guardiola zegt dat de belg kompany niet is meegereisd naar rotterdam. doelman ederson die geblesseerd raakte tegen liverpool wel.
guardiola komt de kuip binnen voor pc.
el ahmadi we moeten scherp zijn alle spelers zijn goed bij city. pc is nu klaar zometeen komt guardiola.
el ahmadi heeft cityliverpool gezien van afgelopen weekend maar hij wil geen ontzag hebben.
el ahmadi wil ook niets kwijt over het spelsysteem voor morgen .
el ahmadi zegt dat feyenoord niet naïef moer spelen en met de supporters erachter kunnen we ver komen.
karim el ahmadi staat te popelen om cl te spelen. het is mooi voor ons omdat het voor de meeste nieuw is
gio is klaar met de persconferentie nu komt karim el ahmadi.
gio heeft de wedstrijd manchester city everton een paar weken geleden gezien . ronald koeman wist toen met everton een punt te pakken.
gio bevestigd dat haps niet kan spelen.
gio heeft de wedstrijd al een paar keer gedroomd en ziet mogelijkheden om te winnen van city.
gio wil niets zeggen over de vervanger van jorgensen. we moeten het compact houden en via omschakeling toeslaan,zegt gio
gio won de cl in 2006 met barcelona en heeft veel respect voor city coach guardiola die hij kent van zijn spaanse tijd.
eerst zijn de vragen in het engels. gio is onder de indruk van manchester city en denkt zelfs dat ze de cl kunnen winnen.
pc gio gaat beginnen
ja dat is zeker de jonge tyrell malacia trainde mee als backup, maar nelom zal spelen. n…
de kuip is er al helemaal klaar voor.
feyenoord traint zonder haps , jorgensen en bilal.
het is druk qua media voor de laatste training voor manchester city. pers mag een kwartier filmen.
bekijk hier fc rijnmond van zondag 10 september
haps heeft last van zijn enkel en is er niet bij en botteghin zit op de bank.
bij feyenoord beginnen st juste en nelom in de basis . geen botteghin en haps.
bekijk hier fc rijnmond van vrijdag 8 september
makkelie fluit heraclesfeyenoord komende zaterdag. makkelie floot feyenoord dit seizoen al eerder in de strijd om de johan cruijff schaal.
nieuwkoop was ook niet op het trainingsveld
feyenoord traint met een kleine groep vandaag. nog zonder alle spelers die interlandverplichtingen hadden de afgelo…
feyenoorder tonny vilhena begint zometeen in de arena in de basis tegen de bulgaren.
feyenoordhuurling gustavo hamer heeft een scheurtje in zijn middenvoetsbeentje,maar denkt bij dordrecht vrijdag wel gewoon te kunnen spelen
feyenoord rekent niet meer op komst robin van persie deze transferwindow en zal in de winterstop opnieuw gaan proberen hem te halen.
geen feyenoordwillem ii voor mij vanmiddag, maar ik heb een goede reden. ella bischop is de naam.
alleen feyenoorder tonny vilhena zit bij de oranje selectie , berghuis en toornstra zijn afgevallen. van persie zit wel bij oranje.
en uiteraard de wereldcup.
feyenoord veruit de meest succesvolle ploeg uit de poule met een europacup 1 en twee uefa cups.
feyenoord speelde nog nooit tegen napoli, shakhtar donetsk en manchester city in europees verband.
bij feyenoord traint nieuweling sam larsson voor het eerst mee. nieuwkoop en van beek trainen apart. voor de rest i…
renato tapia speelt bij feyenoord centraal achterin in de mini derby tegen excelsior.
op woudestein begint nu jong excelsiorjong feyenoord. bij excelsior speelt karami en bij feyenoord oa kramer,amrab…
alleen vermeer op varkenoord en sven van beek traint later ook nog apart. sam larsson ondergaat momenteel medische…
veel toeschouwers druipen af bij training feyenoord. alleen kenneth vermeer traint op varkenoord. basis traint binn…
opstellingen
wat een contrast met 7 mei. er heerst nu serene rust voorafgaand aan excelsiorfeyenoord. bij feyenoord keept brad…
robin van persie in voorselectie oranje.
voorlopig nog geen akkoord feyenoorder mo el hankouri en fc dordrecht voor een verhuur. meerdere clubs willen hem huren.
jari schuurman ontbreekt ook op de feyenoord training. zoals bekend is hij dichtbij een overgang naar nec.
brad jones ontbreekt op training van feyenoord. vermeer van beek en nieuwkoop trainen apart.
feyenoorder jari schuurman is met nec in gesprek over een verhuur dit seizoen. vorig jaar werd hij door feyenoord uitgeleend aan willem ii.
de knieblessure van rick karsdorp is erger dan verwacht. mogelijk moet de oudfeyenoorder, die naar as roma vertrok, weer onder het mes.
feyenoorder mo el hankouri heeft woensdag een afrondend gesprek met fc dordrecht voor een verhuur voor dit seizoen.
we gaan zo terugblikken op het voetbal van het afgelopen weekend. ik ben de justin bijlow aan tafel want ik maak mi…
opstellingen
bijlow gaat keepen bij feyenoord tegen fc twente dus geen jones.
klaar voor een nieuw seizoen feyenoord. de kuip is nu nog leeg, maar zometeen weer afgeladen. vanaf 1 uur begint on…
persconferentie van bronckhorst gaat ieder moment beginnen. volg rijnmond.nl
van bronckhorst gaat er gewoon vanuit dat haps en jones zondag kunnen spelen ondanks dat ze de laatste dagen niet konden trainen.
individueel binnen. geen signalen dat hij geblesseerd is.
op dit moment nog niet bekend. er trainen wel vaker spelers
bij feyenoord trainen alleen de jonge keepers ramon ten hove en justin bijlow. jones, nieuwkoop ,haps en van beek trainen niet.
jones ontbreekt op het trainingsveld bij feyenoord . ook haps is er niet.
wel grappig dat alle kenners na de poulefase vonden dat miedema uit de basis moest bij de oranje dames.
de kuip begint vol te lopen.
de persconferentie van feyenoord en vitesse voor de johan cruijff schaal gaat ieder moment beginnen in de kuip.
de kuip wordt klaar gemaakt voor de johan cruijff schaal van morgen . feyenoordvitesse.
fc utrecht heeft bij feyenoord geïnformeerd naar de beschikbaarheid om michiel kramer over te nemen, maar kreeg nee te horen.
kenneth vermeer is geblesseerd geraakt aan zijn hand en is twee maanden uitgeschakeld.
van persie blijft nog een target alleen zal die eventuele transfer pas laat in augustus plaatsvinden.
nelom is er wel. lijkt me sterk dat feyenoord hem nu nog laat gaan nu verdonk en woudenberg weg zijn.
bij de training ontbreekt alleen bart nieuwkoop. van beek traint wel mee.
feyenoord met berghuis begonnen aan de training .
erg druk op varkenoord voor de training zometeen van feyenoord. enige open training voor johan cruijff schaal. berg…
woudenberg tekent nu voor drie jaar bij heerenveen.
feyenoorder lucas woudenberg wordt vanmiddag in friesland gepresenteerd. straks meer op rijnmond.
het kasteel is een bouwput nu het gras weer wordt vervangen voor kunstgras . straks op rijnmond.nl directeur manfre…
zoals verwacht is steven berghuis vanaf vandaag weer feyenoorder en tekent voor vier jaar.
opstelling feyenoord tegen real sociedad.
willem van hanegem,paul bosvelt ,wim rijsbergen . veel helden bij de reünie .
oudfeyenoorders maken zich op voor de foto tijdens jaarlijkse reünie .
nee waarschijnlijk als alles definitief rond komt maandag
bij feyenoord ligt er een 4jarig contract klaar voor steven berghuis. watford en feyenoord zijn op kleine details na rond over een transfer
mario been nu al ontslagen bij apoel nicosia. na de nederlaag in de voorronde europa league besloot de cypriotische club hem te ontslaan.
st. juste hoop dat ik minuten kan maken tegen sociedad
nelom als er iets moois komt ga ik daar over nadenken
de spelers can feyenoord krijgen hun nieuwe pakken voor het nieuwe seizoen aangemeten en poseren voor de fotografen.
de feyenoorders nieuwkoop , toure en van beek trainden vandaag apart van de groep. st juste en el hankouri waren helemaal niet op varkenoord
is niet fit. maakte ook al geen minuten tegen freiburg.
feyenoord is begonnen aan de eerste training in rotterdam na het trainingskamp in oostenrijk. st juste en nieuwkoop…
het is druk op varkenoord voor de eerste training van feyenoord weer op nederlandse bodem na het trainingskamp in o…
spelerspresentatie is begonnen bij de open dag van feyenoord .
de poorten zijn open de open dag van feyenoord is begonnen .
de open dag van feyenoord vandaag verslaan. uitzending op radio rijnmond van 1100 tot 1700 en op tv om 1720 een e…
feyenoord kon geen nee zeggen tegen bod op terence kongolo van monaco. nu wil feyenoord geen basisspelers meer laten gaan.
amrabat ik wilde alleen naar feyenoord
amrabat gaat spelen met nummer 21.
amrabat staat de pers te woord. straks meer op rijnmond.nl
sofyan amrabat is vandaag in rotterdam om zijn transfer naar feyenoord af te ronden. vanmiddag wordt hij mogelijk al gepresenteerd.
rick karsdorp moet dit weekend worden geopereerd aan zijn knie. meniscus zo meer op rijnmond.nl
karsdorp tekent als hij door de medische keuring komt vandaag voor vijf jaar bij as roma. feyenoord en ro…
giovanni troupee staat al lang op het lijstje als opvolger van karsdorp. heeft alleen deze maand zijn contract bij utrecht verlengd tot 2021
boetius voor drie jaar terug naar feyenoord.
opstelling in 2014 mulder van beek, steenvoorden, mathijsen, nelom vormer, immers, vilhena verhoek, te vrede en boëtius.
feyenoord oefende onder rutten in 2014 ook thuis tegen real sociedad. het werd 11 door goals van prieto en mitchell te vrede.
hahn keuze heerenveen op gevoel
gio kracht van feyenoord dit seizoen was familiegevoel
van bronckhorst in fc rijnmond
laatste 2x dat feyenoord in de europa league uitkwam werd er thuis gewonnen van de uiteindelijke winnaar van de europa league.
feyenoord wil ook het contract van jan arie van der heijden verlengen. club en speler zijn in gesprek .
van bronckhorst met de persconferentie na het behalen van het kampioenschap. hij heeft een trots verhaal en bedankt…
bart nieuwkoop en dirk kuyt beginnen in de basis bij feyenoord . karsdorp is gepasseerd en vilhena geschorst .
.@feyenoord trekt hem vandaag over de streep... 🏆
de feyenoord selectie is al om 11 uur aangekomen in de kuip voor de kampioenswedstrijd van vanmiddag. wel erg vroeg.
giode voorbereiding is normaal en daar ligt onze kracht. we hebben vaak na een teleurstelling de zaak weer recht gezet.
giowe moeten niet zoeken naar excuses.
persconferentie giovanni van bronckhorst, die er veel vertrouwen in heeft dat feyenoord zondag alsnog kampioen word…
feyenoord voert ook gesprekken met rkc en fc den bosch om volgend seizoen daar spelers te stallen.
omdat feyenoord ook volgend seizoen niet met het beloften elftal in de voetbalpiramide uitkomt kunnen sommige talenten toch in jl spelen.
feyenoord en fc dordrecht willen volgend seizoen gaan samenwerken. feyenoord zal dan enkele spelers gaan stallen aan de krommedijk.
spelers komen het veld op
op woudestein voor de kampioenswedstrijd van feyenoord. hier moet het voor feyenoord gebeuren.
kuyt is eerste aanvoerder en haalt daarom de schaal op. ook al is de kans er dat hij niet speelt. karsdorp is fit en zal weer spelen.
gio is blij met contractverlenging van vilhena. geeft aan dat spelers het hier naar hun zin hebben
gio het was prettig dat er een week rust tussen zat. botteghin en van der heijden hadden lichte knieklachten, maar zijn nu fit
gio ik ben trots op het team. het is uniek dat we na 18 jaar weer kampioen kunnen worden. spelers beseffen dat,
gio het was moeilijk om alle aandacht deze week weg te houden bij de club. uiteindelijk hebben we nog niets gewon…
persconferentie feyenoord gaat ieder moment beginnen. eerder heb ik al gesproken met kuyt en toornstra . gesprekken…
dankjewel voor de vele steunbetuigingen. gisteren bij een inhaalwedstrijd mijn enkel en kuitbeen gebroken. volgende…
sparta mist in kerkrade morgen breedijk , vriends en bergkamp. bergkamp komt dit seizoen niet meer in actie .
jorgensen kan toch niet spelen na de warming up en kuyt vervangt hem in de spits .
terence kongolo begint op de bank. bij zwolle start calvin verdonk in de basis,die door feyenoord is uitgeleend aan…
jorgensen staat bij feyenoord in de basis en vilhena keert terug. kramer en kuyt op de bank tegen pec zwolle
feyenoord op weg naar t stadion
hij is inzetbaar maar kan nog geen 90 minuten spelen.
jorgensen mogelijk toch inzetbaar voor feyenoord tegen go ahead eagles. karsdorp zeker niet. jorgensen had een blokkade in zijn rug.
in de kuip voor
klaar om verslag te doen van ajaxfeyenoord . heerlijk
feyenoord begint met bart nieuwkoop in de basis voor de geschorste vilhena. nelom vervangt kongolo die nog niet fit…
mooi stuk in het ad over de feyenoord radioverslaggeving bij rijnmond met dennis. er stond 1 fout in. ik werk vanaf…
gio wil niet ingaan op de vraag wie de nieuwe bondscoach moet worden. gio hoeft niet gebeld te worden. ik zit op mijn plaats
gio speelde samen met ajax trainer peter bosz. heb hem als collega meegemaakt ook als technisch directeur, maar we leven nu.
gio we gaan vol voor de winst. het vertrouwen is er. we staan niet voor niets bovenaan.
bart nieuwkoop is klaar voor een basisplaats zegt gio. morgen beslist hij wie er speelt.
giojammer dat vilhena niet kan spelen. hij was aangeslagen .
persconferentie feyenoord is begonnen. gio denkt dat elia inzetbaar is. kongolo en bilal halen het niet.
feyenoorder steven berghuis komt er voor de laatste twee minuten ook nog in. karsdorp blijft op de bank zitten .
jens toornstra komt een kwartier voor tijd voor wijnaldum . italië staat nog altijd met 21 voor.
vilhena is er ingekomen in de rust voor kevin strootman.
feyenoorder tonny vilhena loopt zich warm bij oranje.
halflege arena kwartier voor begin van nedita. van bronckhorst zal het niet erg vinden dat er vanavond geen feyeno…
geen feyenoorders in de basis bij oranje.
worden. nog nooit bewezen goede coach te zijn.
mee eens . daar is de laatste tijd veel mis gegaan. van marwijk, hiddink en nu blind. maar blind had nooit gekozen moeten
blind per direct weg bij oranje. onvermijdelijk na alle wanprestaties.
feyenoord wint met 20 van fc dordrecht door twee goals van michiel kramer. de blessure van bart nieuwkoop valt mee uit voorzorg gewisseld.
oudfeyenoord wint met 10 door een benutte strafschop van pierre van hooijdonk met 10 van de suriprofs.
voorwedstrijd oudfeyenoordsuriprofs. edgar davids en clarence seedorf doen oa mee bij suriprofs. feyenoord staat…
de basisspelers van zondag kuyt, van der heijden en nelom beginnen op de bank bij feyenoord.
kleine groep bij de uitlooptraining van feyenoord . elia is erbij en doet mee aan oefeningen met de bal. kongolo en…
gio ik was wel geschrokken van de eerste helft. het is moeilijk om daar een vinger op te leggen.
oudfeyenoorder martins indi maakt definitief de overstap van porto naar stoke city. hij was uitgeleend. feyenoord krijgt een vergoeding.
gio jan arie van der heijden was in mijn ogen ook wel kandidaat voor oranje.
gio thuis tegen heerenveen wad een mooie wedstrijd. het werd 22. het zat dicht bij elkaar en dat zal zondag ook zo zijn.
gio we blijven doen wat we normaal ook doen. ondanks dat er steeds meer druk bij komt.
gio kunstgras of gras maakt wereld van verschil . ik ben blij dat we zondag op gras spelen.
gio heerenveen is lastig, maar de laatste jaren hebben we het goed gedaan. vorig jaar met de 25 speelde we een van onze beste wedstrijden.
jones is fit. bilal,elia en kongolo niet tegen heerenveen.
persconferentie feyenoord is begonnen. gio is trots dat er 4 feyenoorders zijn geselecteerd voor oranje.
jones en kongolo komen ook nog trainingsveld bij feyenoord op . jones traint voor het eerst weer buiten na de wedstrijd tegen sparta .
op de woensdagtraining ontbreken bij feyenoord . jones , elia,kongolo , vermeer en bilal.
beroepszaak vilhena op 29 maart
ook kongolo is terug op het veld. kongolo en elia trainen wel apart van de groep. alleen bilal en jones ontbreken.
elia en vejinovic terug op het trainingsveld bij feyenoord. bilal, jones en kongolo ontbreken nog.
nog steeds geen datum voor beroepszaak van feyenoorder vilhena. het wordt of donderdag en anders volgende week. in dat geval kan hij spelen.
feyenoord en vilhena hebben het schikkingsvoorstel afgewezen . morgen om 20.00 is de arbitragezaak in zeist.
vilhena karsdorp berhuis en toornstra in voorlopige selectie oranje
aanklager wil vilhena voor vier duels waarvan een voorwaardelijk . als hij de straf accepteert mist hij de wedstrijden az,heerenveen en ajax
feyenoord traint nog altijd zonder jones,elia,jorgensen,bilal en kongolo. allemaal nog geblesseerd .
van boekel fluit feyenoordaz
elleboogstoot in de wedstrijd spartafeyenoord richting spartaan pogba.
feyenoord en vilhena moeten voor woensdag een verklaring afgeven en dan beslist de aanklager of er een schikkingsvoorstel komt nav elleboog.
van bronckhorst zou geen nee zeggen tegen barcelona al realiseert hij zich dat hij als trainer nog stappen moet maken.
giospelen op kunstgras maakt het moeilijker om ons spelletje te spelen.
karsdorp is helemaal fit , elia is nog niet helemaal fit . vandaag heeft elia gedeelte meegedaan . zaterdag besluit gio of elia kan spelen.
giowinnen van psv heeft extra vertrouwen gegeven.
van bronckhorst vindt het jammer dat sparta niet de finale heeft gehaald van de beker.
giovanni van bronckhorst heeft niets met de statistieken die leren dat feyenoord de laatste drie edities op het kasteel verloor.
persconferentie van feyenoord is begonnen. net bij sparta geweest. sparta mist vriends mendes da silva en breedijk.
karim el ahmadi blijft tot 2019 bij feyenoord vanmiddag tekent hij zijn nieuwe verbintenis .
rick karsdorp en eljero elia ontbreken bij de woensdagtraining van feyenoord . beide spelers vielen tegen psv geble…
dirk kuijt begint op de bank
psv komt aan in de kuip.
de scheidsrechter van vanmiddag bas nijhuis komt ook de kuip binnen nu is het nog wachten op psv .
feyenoord selectie komt aan in de kuip
de selectie van feyenoord vertrekt zo van het bilderberg parkhotel naar de kuip voor de kraker feyenoordpsv.
jorgensen denkt niet dat zondag het kampioenschap wordt beslist. daarvoor winnen ajax en psv teveel.
sinds vorige week zit jorgensen op nederlandse les, maar interviews doet hij nog het liefst in het engels zegt hij op grappige wijze.
ik denk niet na over een vertrek. ik ben eigenlijk nog maar net in nederland , alsdus de topscorer van de eredivisie
jorgensen gaat ervan uit dat hij ook volgend seizoen bij feyenoord speelt.hij tekende afgelopen zomer voor 5 jaar e…
gedaan
wat wil je vragen ?
gustafson en feyenoord hebben tot vandaag om eventueel in beroep te gaan tegen forse straf. hij kreeg bij de beloften rood na natrappen
knvb heeft feyenoorders simon gustafson schikkingsvoorstel van vier wedstrijden schorsing waarvan een voorwaardelijk opgelegd nav rode kaart
eljero elia ontbreekt op de dinsdagtraining.