het kan nog slechter.....
heb wel diverse fotos van jou met het legioen voorbij zie komen! blijkbaar zaten er genoeg!
wat een verschil tussen nijhuis en kuipers
moet daar zelf niet voor zorgen? stelt ook de spelers zonder vertrouwen op…
haha is gelukt voor rust. welke wedstrijd kijken jullie? helemaal geen controle! alleen maar paniek.
de keeper van den haag
vluchtmaatschappijen worden steeds onbeschofter!@eurowings lekker door laten boeken voor de hoofdprijs. vroege boeker dan maar teleurstellen
daarom jong feyenoord ipv bij almere gaan voetballen.
en voor die 22 miljoen die we zijn misgelopen? met een jong feyenoord elftal niet gebeurd.
pep een stuk groter is
ik zie het als kaartjes voor de dubbele prijs verkopen. iets waar de zwarthandelaren voor worden aangepakt!
feyenoord ticket exchange nu al een flop. wat een achterlijke prijzen. waarom is dat
haha niet normaal hè
was ik weer een dag te vroeg.....
niet de leukste??
inge al verteld dat er donderdag geen overige activiteiten plaatsvinden?
vilhena heeft zijn postzak weer gevonden..
slecht na 3 keer dragen de neus van der schoenen al los!!
ik adviseer een nieuwe kuip
zelf ook al getekend?
ook ik heb nog geen mail en geen sc ontvangen. gaat dit wel goed?
wanneer kan ik een status update van mijn sc verwachten? alvast bedankt.
in 100 meter van 0 naar 12 minuten.
dat is niet helemaal waar. vorig jaar kregen wij 3000 kaarten. bekerf…
ik zie graag 15000 man uit arnhem komen. hoop alleen dat alle clubs inclusi…
ik begrijp dat echt niet. zelf te beroerd om extra kaarten te geven en nu klagen!
vanaf de teso
maakt gehakt van mooi om te zien!
hoeveel tickets zijn er verkocht?
ben nog op zoek naar de persoonlijke boodschap van
hij vergeet nog wel die 30kg extra te vermelden
vergeten jullie de niet?
wij hebben al een aantal weken storing in het beeld. is dit bekend of ligt dit aan de box?
vandaag moet het gebeuren!!
dat niet. wel zenuwachtig.....
shirts liggen bij kampong kita. daar blijven ze ook. zijn daar gewoon te koop!
zondag komt het goed!!
alle dagjesmensen die het straks verzieken voor de echte supporters!!
beetje vertrouwen!! 😉
denk vanaf 1300 / 1330 tot aan de wedstrijd.
zondag zijn we eventueel te vinden bij kampong kita. chinees bij pathé de kuip.
welke maat zou je graag willen hebben? als ik hem voor 1730 op de bus doe heb je hem morgen ik huis.
in weert rennen ze door de straten!
had je een psv shirtje in je auto hangen?
wereld op zijn kop. biedt zijn excuses aan voor feyenoorders op de tribune. in het buitenland worden we ook hierom uitgelachen!
ook in weert rennen ze door de straten!!!
die krijg je ook met verlichting aan......
lorwa is een vriend van mij. hoe zou die jullie kunnen bereiken? zal blij zijn met jullie!! alvast bedankt!
misschien dat de ook alleen het uitvak aan kan geven in de bekerfinale. of zouden ze er dan wel zijn??
kan iemand het item met die krullebol schrappen??
van blom naar kuipers wat een drama. zien jullie nou echt niet dat het niveau van de scheidsrechters dramatisch is?!
instelling van de basis niet veel beter
dat ben ik met je eens. maar zeker geen waard.
jij de 10? zie ik namelijk geen tweet over.
dat is echt onzin! tapia is op dit moment de sterkste aan feyenoord zijde
denk dat blij is dat we nog maar voor 1 prijs spelen
wanneer vanuit het zuiden?
en dat met feyenoord supporter als burgemeester!?
herkenbaar toch!!
sweeuwpret!!
hoeveel kaarten zijn er nog beschikbaar voor en mij voor roda uit?
knibbel knabbel knuistje van de kerstman gekregen. de heks komt er echt iedere keer uit. is dit juist? spel is zo geen doen!
de kuip en erasmusbrug waren ook geen straf toch!?
beide puntverlies en een berg geblesseerde! jammer dat het winterstop is. wij staan bovenaan!!!
valt onder discriminatie ook dat de ene club 2500 kaarten krijgt bij en de andere wellicht 900?
haal die van praag weg. doet niets fout. kunstgras, verschrikkelijke scheidsrechters en geen rust voor of na el voetbal
is de vestiging in weert gesloten? nemen al heel de dag de telefoon niet op.
de kuip over 6 jaar......
verleden week was sparta ook al zo slecht. denk dat we het toch ook gewoon goed doen!
koopzondag en kerstmarkt in wat een feest!!
we weten hoe jij over denkt 😉. kan niet zeggen dat die vandaag het tegendeel heeft bewezen!
zo ziet de directie het graag. geen sfeer en de trappen leeg! ben bang dat dit ons niet gaat helpen!
leuk die bussen. verander de verwachte vertragingstijd even naar 1 / 2 uur. trieste organisatie.
waar staan de bussen in eindhoven?
vanaf rotterdam stadion naar weert. ben nu bijna in breda. maar makkelijk word het niet gemaakt.
de zorgt weer voor geweldige informatie eindhoven/ roermond word er lastig plannen zo. weekend reizen is zo een weekend ergeren!!
denk toch dat het door frank komt!
vandaag met de familie naar ik hoop dat ik daar wel bij mag horen.
mag meenemen. wellicht zijn de wedstrijden van dan ook besloten.
is vermeer al fit??
af en toe nog in de lach schieten. wat was het een feest in manchester!!
leuke avond in manchester! mooi kunnen praten met de man die onze laatste echte prijs heeft bezorgd
respect voor de engelse politie!! wat doen die het goed!!
wat een feest tot nu toe!
straks dochterlief voor het eerst naar school brengen. dan op naar manchester!!
gaat het zeker door vanmiddag? dit ivm tijdig vertrek uit limburg.
zou weer de pech hebben om naar manchester arsenal te moeten gaan?
verschrikkelijke man die lodewijk asscher
dacht dat we dit stadium voorbij waren.....
suske en wiske en het geheim van de kuip.
kaart voor united uit is binnen! nu voor mijn maatje nog iets regelen!!
je ziet vechten voor zijn plek 🤔🤔🤔
is lekker bezig vandaag!!
zo hebben we er nog een paar!
toch knap dat de de klassieker na een europese week indeelt. straks weer klagen dat er geen punten in europa worden gehaald....
zelfde soort wedstrijd als de laatste weken. verschil nu maakt je keeper een fout
mag ik vragen hoeveel uitkaarthouders er zijn? alvast bedankt.
madrid ook 22 prijzen en arsenal maar 1
vroeg wakker.....
tradities a.u.b. in de kast
en de directie!!!
helaas is er voor veel supporters niets meer aan!
als ik zo eens naar de kuip kijk. lijkt het erop dat toch voor een renovatie heeft gekozen.
het supportertje pesten begint te werken. krijgt niet eens 26000 kaarten verkocht!
alle kinderen?
ben er helaas klaar mee. ze hebben het voor elkaar....
hier hetzelfde. helaas verzieken ze het. alleen naar manchester toe. jammer dat het allemaal zo gaat...
dag te laat...... vannacht flink verkeerd gereden.
is er iets aan de hand op de weg bologna milaan? of is het gewoon druk?
wat een rare en trieste organisatie is toch geworden. het word steeds lastiger om klant te blijven.
volgens mij gaat beseffen dat ze zo iemand hard nodig hebben....
mogen we de punten niet bij elkaar optellen?
hopen dat vanavond geen biertje drinkt. zijn we weer een medaille kwijt!
mooie uitspraken bij iedere keuze van de coach moet in het teken van de sporter zijn! dat is bij dus niet zo!!
hoe kan ik mijn geld terug krijgen? helaas geen reactie per mail of telefoon. wil dit graag zo spoedig mogelijk terug.
wel vreemd dat die er vanmiddag na het belletje nog op stond. dan is het gewoon achterstallig onderhoud.
ook dat is na 15 minuten wachten maar opgehangen en geen reactie via de mail!
blij met je vakantie. blijkt de site niet op orde te hebben. gelukkig krijg je dan nog wel 2 flut alternatieven aangeboden.
berghuis heeft nog een groot gat te dichten......
opvallend dat een veel leukere reportage heeft van de dan
is deze nog niet beschikbaar in de webshop?
zaterdag in de pub maar eens meezingen dan!
en helaas zonder publiek. trieste opkomst! jij succes!!
juist!!! goed gedaan!
de is lekker bezig!! wanneer is het eens klaar met bert kroket? nu alleen de jc schaal nog over 2 wedstrijden en de soap is compleet!
daar!!
helemaal niets!!!!!
sorry maar wat een fiasco! gooi die poort van limburg vandaag open en maak er iets leuks van voor kinderen!
is het al 1800??
en dus geen reden om je seizoenskaart te verlengen....
sparta naar voren!! 3 keer is scheepsrecht!
beetje zoals jou poepjes?
wat een lachertje weer! volgt netjes de regels en vliegt er straks uit. en de laat twente gewoon zijn gang gaan!
vooralsnog mis je niets....
trots op mijn zus!
mag hopen dat de supporters die hun kaart op marktplaats zetten gelijk geblokkeerd worden!
en nou op naar dat nieuwe stadion! hoeft er niet meer geloot te worden ook!!
juist!! finale! gezellige dag met 🍻🍻🍻 en hopen op die 🏆!!
les 1 doe nooit een valse belofte aan je klant!
of op marktplaats.......
wat is die klantenkaart van nog waard? geen garantie in europa of de bekerfinale. alleen zekerheid tegen de graafschap en cambuur
veel plezier!!
slechte aankopen bij feyenoord!! gelukkig bezorgen ze ons wel de overwinning!!
wat is dat leuk om naar te kijken!
hoe is het? regelen wij nog een boot met de bekerfinale? idee staat nog open!!
wat een drama!
bij iedere organisatie waar men klanten op deze manier behandeld gaan koppen rollen of ze verliezen de klanten. ben bang voor de klanten..
we gaan met zijn allen naar de kuip zingen ze bij dan blijven er veel kaarten over!!!
opnieuw opstarten is geen optie!! wat gaan we doen??
deze week maar weer eens intern bekijken waar het fout gaat...... buitenwacht zoekt altijd maar een schuldige!!
feyenoord laat vandaag in ieder geval weer 50000 geliefde zitten.....
die lopen ook in zwolle!!
appels met peren
zondag niet bij kou dus!!
mario been zou niets veranderen. wellicht dat we er daarom ooit 10 hebben tegen gekregen!
van 5 weken geleden dromen over de ware kampioen naar wederom een doffe klap voor het legioen!!
woensdag de kans om het seizoen nog te redden! al ben ik er bang voor!
goede column van over de spijker op de kop!!!
merk dat ik na 20 jaar een seizoenskaart nu echt bijna klaar ben met waar doe je het nog voor???
is een jaarabonnement persoonsgebonden of binnen een gezin?
staan wel bovenaan! daar komt de supporter toch voor. je betaald ook meer voor een a artiest dan een b artiest!
ik was voor een nieuw stadion. na de toespraak van vandaag kun je wel raden wat er gaat gebeuren. 50 meter van het veld!
flink blijven staken in de haven van rotterdam! dan zitten ze misschien al een paar jaar eerder thuis!
leuk!! mis alleen nog de foto in zijn tenue erbij 😉
whatsapp ligt eruit! kan ik vanavond eindelijk weer eens praten met !!
hallo thomas, helaas nog niets gezien. deze week word nog erg lastig. wat is de status?
heerlijke column weer. spijker op zijn kop.
hallo thomas, we hebben de keuken nu een jaar. dit is al voor de 5de keer ellende. danique heeft de mail 13 nov ontvangen.
en daar gaan we weer de zegt 3 weken geleden toe de schade te vergoeden. na 3 weken nog niets gezien.
hadden het beter kunnen treffen maar is te doen! nu die uitkaart punten ophalen.
engnek!! probeerde zo ook een kaart aan te naaien!
nee joh, lekker op vakantie. misschien wel goed. kan die lekker uitrusten
een kat in het nauw maakt rare sprongen....
twente krijgt steun van de en vvv krijgt geen steun van de meten met 2 maten!
volgens mij heeft die ingezet! 4de keer onder de bal door!
pecstakel stuk hopen we morgen op!!
gezellig! lang geleden maar straks vanuit oostende lekker naar jullie luisteren!!
hoe is het in brugge? ook een spookstad of kunnen we gewoon gezellig naar de kerstmarkt? succes morgen!
nou gelijk stoppen over ziyech wij hebben gustafson!!
nou we zien al waar het sinterklaasjournaal naartoe gaat! volgend jaar allemaal witte pieten!
wederom problemen door de wanneer zou het stoppen?? vaatwasser vergeten vast te zetten. die is nu kapot!
winst op 110% verlies op 70% dat is feyenoord!
eigen schuld dikke bult
totaal geen beleving!!!
we hebben er weer 1 bij bah bah bah
heb er al 5 kunnen afvinken!!
vandaag rust gehad! woensdag knallen!!
uur langer slapen gaat met kinderen niet op! dan duurt de dag gewoon een uur langer.
zelfde mail hier! is geen slecht advies!!
hoor je het de analist ronald de boer zegt dat je je handen hebt gekregen om te gebruiken. vrijspraak voor dus!!
mooie doelpunten eerlijk is eerlijk!!
kijken of deze tik ook zo vaak gaat herhalen!?
helaas niet.....
zo en nu de bezem door die hele
sterk optreden! puntje van kritiek van de vrouw 2 keer streepjes.
blind aanvoerder dat zegt toch alles!! slechtste van het veld
f3 wint met 62 op het kasteel
zijn dat de conclusies na molde uit en gisteren??
hou jij veel tijd over!!
vraag gelijk aan joop hoe het komt dat zijn eigen club zoveel doelpunten tegen krijgt.
ooh nou is het duidelijk onze is de commentator!! we weten welke bril hij op heeft!!
zou ook weten dat er nog andere spelers op de bank zitten?!
feyenoord speelt slecht!! maar de verslaggever van heeft volgens mij ook wel een gekleurde bril op!!
van geel komt niet erg sterk over bij de daarnaast vergeet hij achabar als spits te noemen
in het zonnetje met een biertje naar hopen dat we die 3 punten meenemen!!
was jij niet een weekend met je schoonfamilie weg 😉??
avondje rugby. net de spelregels voor dummys bekeken.
dom van feyenoord!!
na 17 min wachten op de klantenservice van maar opgehangen! zo verloopt de garantie wel.
het is weer genieten......
door een storing bij de tickutbox geen kaarten voor
geen tijd om conclusies te trekken? verkeerde trainers, kunstgras, play offs en laffe scheidsrechters in nl
heerlijk om te zien bikkelen iedere week!!
klopt! dat wist ik niet!
wat een kt bedrijf is dat toch storing, 18 min wachttijd telefoon en een menu van 10 min. jammer dat kpn geen haar beter is.
denk dat er al 3 zou hebben in liggen bij united vanavond! maar met je eens haller is een stuk completer
volgens mij weet van der heijden nog niet welke kant die op moet!!
hebben ze straks wat met hun stakingen!! dag extra diensten op zondag! geen politie meer nodig!!@jongblauw
blom doet altijd te zijn best om het tegendeel te bewijzen!!
mitchell zijn spullen al gepakt?
3 miljoen voor gaat toch echt te ver!! hoop dat daar niet in gaat trappen! ondanks dat ik het hem van harte gun.
ik vind die verwachte aankopen maar niets
is het niet voor iedereen van belang om zo snel mogelijk duidelijkheid te geven of de wedstrijden van dit weekend gewoon doorgaan?
wie heeft dat je nou weer ingefluisterd?
wellicht een idee voor tonny, jp en kongolo om eens met karsdorp te gaan praten. vechten om te kunnen spelen. maakt niet uit waar
moet je ook op de markt kopen!! beter en goedkoper.
hier nog 1. niet normaal he!!
nu al fan van vejinovic!! wat een heerlijke voetballer!
daar gaat ie weer!!
strootman, depay en wijnaldum leveren in totaal 70 miljoen op. had rijk kunnen zijn!!
lijkt feyenoord wel!
en natuurlijk ook nog een storing
net als ze door de mooiste stad van nederland rijden laten ze een interview zien met een bejaarde fransoos
onvoorwaardelijke liefde onvoorwaardelijke steun!! ook al krijgt het dit jaar weer een ongelofelijke dreun!!
heb er zin in! zet je adres er maar niet bij! anders zitten we morgen zonder.
zondag gratis toegang? volgens mij hebben we daar gewoon voor betaald!
wat een niveau!!! sevilla thuis en dan nu dit........
wat een club......
mag hahn morgen ook doen!!
90 minuten lang afgetroefd!!
vergeten wat zwaluwen voor arij heeft betekend?
veel vrachtverkeer en smalle wegen!!
boete en straf ok. maar niet vanwege racisme!!
in koud en verschrikkelijk saai!! op naar de speeltuin.
als het goed is mag het ook gezegd worden. gaat alles oplossen! hopen dat we snel van de nieuwe keuken kunnen genieten!
alle talenten lopen weg bij feyenoord. er is er maar 1 die weg is gegaan en de absolute top heeft gehaald.
al zet je messi hierbij word je nog geen kampioen
ondertussen 2 dagen verder nog steeds geen reactie. ondanks toezeggingen van diverse medewerkers.
er is reeds contact geweest. ik hoop dat we tot een goede oplossing kunnen komen. order 2 0275 001083.
vreemde klantenservice bij de zelf veel schade veroorzaakt en vervolgens over kosten beginnen voor de consument.
denk eerder dat die de zaal verlaat met truus!
leuke gastsprekers en goed georganiseerd!! leuke middag gehad door
turkije! kuyt natuurlijk.
verleng nu je seizoenskaart en zie nog een jaar te vrede!!!
kijken of hem ook straks zo binnen tikt!
zo lost de uefa zaken op die buiten het veld gebeuren!
hoe werkt het precies? moet morgen vanuit venlo met de trein.
feyenoord heeft een elftal met 6 middenvelders! lastig scoren en verdedigen
zie dat de politie in rome het feest al aardig aan het verzieken is. jammer!!
nog 1 feyenoorder die het goed doet vanavond!!!
weg in
tsja zo makkelijk is het als je een spits hebt!!
hoe werkt het als mijn neefje mee wil gaan trainen bij de fjes. hij is 6. gr.
wat zijn de kansen? kom uit weert morgen.
tot het einde op de tribune.
toch mooi om te zien dat een wedstrijd in de arena maar 85 minuten duurt.
slecht geslapen?
wat zal jij het zwaar hebben. wat een drama zeg. zonde hoor!
wat is dat nac slecht!!!
dat heeft been goed gezien!! halen die gozer
blijft eng die samenvattingen bij zeer slecht commentaar en een zwaar vertekend beeld.
180 minuten de betere ploeg en helaas maar 1 punt uit de klassiekers dit seizoen, maar spel om trots op te zijn.
geen woorden maar daden!!
david luiz en thiago silva in het elftal van het jaar. is dat niet dat duo wat er 7 om de oren kreeg?? had er beter kunnen staan!
tegen psv is dat niet zo moeilijk
lekker allemaal blijven klagen over het vuurwerk!!
staat daar nou zaakwaarnemer of iets anders??
goed dat ze nog om mijn legitimatie vragen bij het bier halen!!
zozo de arena is pas in de 85ste minuut leeg!
laat weer zien dat het een echte kasteelheer is. zomaar op straat gezet.
had roma tegen city niet leuker en spannender geweest??
ik hoop dat iedereen ziet dat niet goed genoeg is voor
psvfeyenoord kan toch om 1800 beginnen. genoeg rust gehad en geen verder gezeik!
en dan dit raar vinden!!
in ieder geval een rode neus.
guus was niet zo stoer om zijn lot van deze wedstrijd af te laten hangen
opstappen in maastricht zou fijn zijn richting luik!!
het niet aantrekken van een spits heeft ons al genoeg gekost!
en dat na een nederlaag van zijn favoriete club
wat een slechte scheidsrechter!!!
vandaag begin van het einde of het begin van het seizoen??
op naar zondag........
lekker geluncht bij fijne zaak!!
wederom zit ik me te ergeren aan die den ouden.
blij met hopen dat deze keeper wel punten voor ons gaat pakken!!
heeft nu ook al een shirtsponsor met sos er op??
dacht dat ze zouden gaan verlengen met 33
makkelijk geld verdienen voor beide!!!
had nu al 6 kaarten getrokken