32 toch? ... scheidsrechter hoopte nog op een 33 zelfs 😅
door het ! ein de lijk weer komend ! ! 🔵⚪️💪🏼! nu nog ee…
gezocht dames lienden
namens vriendje en mij... happy new year you all 🎉!
vriendje terug naar fc lienden, erg tof !
vergeet ook je feyenoord vriendjes niet kees 😁!
heel bar, dat barcelona ! dendert maar door en nog steeds geen goal 😓...
wedstrijddag!
wedstrijddag ⚽️! competitie gaat thuis tegen aacolympia van start, zin in 🔴⚪️! lets gooo 💪🏼!
denkt tenminste een beetje mee... alles om die te laten vliegen ! ! ⚽️🔶🔷
dat zijn de echte ! niet blij te krijgen met minder!
ook mijn seizoen is weer begonnen! vanmorgen eerste training afgewerkt, was weer heerlijk ! ❤️⚽️
slagroom? doe mij maar felicitaties met het kampioenschap van feyenoord ! en een wijntje op het terras bij tries uiteraard!
kratje cola? 😜
voor twente dit jaar ook niet denk ik kees! maar maak je geen zorgen, komt volgend jaar in de jl wel !
aan je retweets te zien heb je vuurwerk op een bepaalde manier toch gemist kees, werkertjes vs prutsers 20 💪🏼.
! een geweldig aandenken aan een geweldige vakantie! ❤️💙
wie heeft die nummer van de geselecteerd?
gewoon op één kijken !
was genieten! voor mij was 30 perfect, correct score 💰 !
man zoekt iets... vorm?
heeft niks te maken met het krakkemikkige optreden van de scheids, waar de goal nu ook weer door valt.
wat een drama scheidsrechter zeg! ieren krijgen niks mee !
erg blij met nog blijer met 💰
niet veralgemenen, dit gaat niet over een groep mensen, degene die dit doen vallen niet onder de noemer mens. ik geef ze zoiezo geen naam!
90e minuut, thuis tegen roda, 11, wissel, van beek in 🙈, ik zal er wel geen reet van snappen... 😏
hopelijk sta ik er einde seizoen weer zo bij schat, doe je best x
al dronken 😂?
nooit dezelfde elf, hij doet maar wat, kan nooit wat worden zo.
aan voetbalkennis geen gebrek mannen, hij heeft geen idee.
laat van bronckhorst vooral oprotten, weet niet wat ie wilt, elke week iets anders, wegwezen, mietje!
zo, die zouma heeft zichzelf aardig te pakken!
dat ga ik eens aan de vragen ! ik ga er niet vanuit, wat moeten ze zelf doen om hiervoor in aanmerking te komen?
niet zoveel als ze wilden in ieder geval 😂
zouden ze bij ook zo publiekelijk hebben geklaagd destijds? 😏
mijn ouders hebben ook een week zonder gezeten! echt een schande ! op naar kpn!
mijn op 1 na favoriete trainer !
hoe kan iemand jurgen klopp niet fantastisch vinden? wat een trainer is dat zeg, geweldig !
te op teller, erbij! ingebouwd.
michiel kramer ! heerlijk! 😆
gave foto! terecht trots! gefeliciteerd 😀
x!
en dan dat kleinzerige gedoe van robben elke keer, om te huilen !
wat een onbegrijpelijke wissels ! en wat een fantasieloos nlelftal! verschrikkelijk !
na 2 weken verplicht rust heb ik nu zware benen na nog geen 7 !km.... dus 😠!
heerlijk gelopen met mn nieuwe ipodje, die perfect bij mn schoenen past 👌... dank 💋!
hardlopen is heerlijk ! echt! ❤
aanwezig bij ermelo draait door waar mn lief straks aan tafel zit ! gezellig!
klopt... pechvogel
staan in het na alle peperdure aankopen, voor en tussentijds. en spelen nóg geen 🙈
dat is bij altijd heel lastig kees! zal voor mij bij de kraplap ook wel lastig worden, pas al sfeer geproefd daar.
dank kees, doen we volgend seizoen nog eens over in ermelo en/of spakenburg! 👍
met hoofd, hart en ziel steun ik mijn vriendje vandaag! ga ervoor 🏆!
het shotje in lienden, op morgen ! heb alle vertrouwen in jou, 😘
alsjeblieft, als je niet genoeg hebt aan ga ✌
duimen voor dvs33 vandaag, ik heb er een goed gevoel over!
zet hem op schat! ik geloof in je 💋
een afstandsschotje met links, de winnende, onhoudbaar 😂! een blunder van de keeper mag de pret niet drukken! 12 winst bij cjvv.
hardlopen vanmorgen was meer kracht dan conditietraining...
met open mond zit ik naar kijken, wat een kleuters !
en dennis zit daar naast te smikkelen van zijn salade ! ik zou van die aansteller over mn nek gaan!
hoppa! 10 overwinning! lekker!
thuis tegen sv baarn, lets gooooo!!! ⚽
puntje te pakken !
3 minuten blessuretijd en in minuut 97 de 01 om je oren krijgen, mijn dank gaat uit naar de scheids, bij deze.
wat een vertrouwen joene! 😕
vandaag thuis tegen de koploper ! ⚽
na hard trainen ⚽, hoort rustig uitlopen... zaterdag thuis tegen de koploper!
ik weet zeker dat dvs33 ermelo aan kop blijft na vandaag !
is het na een mooi ! nu languit op de bank met op de buis!
!
x
mijn god, waar is die kuipers mee bezig!?
eindelijk! na anderhalve week weer heerlijk kunnen hardlopen ! i like 😅...
nope, gewoon zaterdag om 15.00 uur
zeg dat joene ! was weer genieten. ik denk dat ie jou ook nog wel aan het voetballen krijgt 😄
zelf al gewonnen! nu mn lief nog! hup dvs !
blauwe vinkjes die de boel op stelten zetten.........
rondje rennen door de regen! lets gooooo !
beentjes weer getraind! op naar de volgende negentig minuten ! 💪
ohja! afgelopen zaterdag eindelijk mn 1e officiële wedstrijd weer gespeeld, helaas 22, wel 90 minuten en de 01 gemaakt! i am back! ⚽️
genoten van het voetbal, ziek van het resultaat......
zoek de verschillen! / in!
bij de baas voetbal kijken!
het verschrikkelijke feyenoord ! niet om aan te zien!
zó, nu eerst maar even het sportschooltje in 💪!
heerlijk hardloopweer! 😅
vanavond moet het gebeuren! 22.00 uur, het gelag. lets gooooo 🏆
yepes trouwens ook
heerlijke speler die chamès !
eerste halve finale vanavond, kan niet wachten ! hup brasil!
tot nu toe bevalt mn nieuwe baan prima! nice !
oh oh, wat een amateurs, snappen de corner van colombia niet!
een prima chileense wijn tot nu toe!
nou, geef gerust iemand een doodschop en je komt er mee weg!
laat die lekker schrijven ipv lullen! wat een, zoals kraay al zei afschuwelijke man ! blehh
wedstrijdje kijken in volendam !
op naar het nieuwe cluppie van mn lief!
dat wat het dan...... kort! maar krachtig 🏆!
prachtige prestatie van de herculesboys en mn lief! kampioenuhhhhh! trots op je ❤️
beter laat dan nooit! geniet ervan !
x
ze hebben bij een stelletje angsthazen meegenomen voor de pasen en nog 3 punten ook!
waar een van in de heenwedstrijd nog een pak slaag uitdeelde, gaat vandaag een pak slaag uitdelen ! 🏆
lekker gelopen op mn nieuwe schoentjes !
de scheids denkt dat het al afgelopen is maar we moeten nog een helft......
heerlijk middagje harderwijk met mn lief !
welnee! maakt je niet moe, wel even buiten adem
ik ging zo snel, tel kwijt geraakt !
of visee maakt het seizoen af bij de vogels......
autootje weer schoon!
heerlijk avondje!
vroeger, toen ik de krant nog haalde
bij hercules loopt een betere !
was weer genieten gisteren! wat kunnen die gasten voetballen ! pfff.
vandaag tegen ook al verloor de wedstrijd in meppel, de gasten zullen tegen deze wedstrijd opzien! en terecht !
omdat jij er niet bent kan ik eindelijk een keertje witlof uit de oven eten! hoef vast niks te bewaren ?
tot zo
zometeen tegen het cluppie van !
er is een behoorlijke kans dat hercules het weer tegen de vogels op gaat nemen in de beker, dan wel thuis. first things first!
speelt de volgende thuis tegen winnaar van deze wedstrijd speelt de achtste finale op eigen terrein.
zon 1e oefenwedstrijd na de winterstop moet natuurlijk niet gelijk tegen een al te lastige tegenstander zijn, dat was gvvv dan ook niet
trots op mn lief en de boys !
vandaag een mooi jaar afsluiten met hopelijk een mooie zege, of anders een lelijke zege! anyway, lets beat them !
ik zal me er voorlopig niet over uitlaten, dat is een vooral verstandig besluit . ass holes! oepsie, kon het toch niet laten
even druk......
joep in zn nieuwe adidog trui!
ik hoor hem zeggen zweepslag, lijkt me toch sterk, hij trok zowat een sprint richting kleedkamer......
scheidsrechter luinge stopt de wedstrijd, niemand weet waarom?
rondje wezen rennen met joep, ikke kapot, joep door het dolle /?
ze weten bij goed wat ze wél en vooral niet van de wedstrijdbeelden laten zien, helden.
ze zijn niet goed snik in sneek.
slijmbal x
de kracht van liefde in een wereld vol waanzin!
dat ze niet in ajaxtenue spelen......
zou wel eens willen weten om welke het hier gaat, als het tenminste een waargebeurd verhaal is?!
op naar utrecht ! daar gaat het vandaag gebeuren! hup hercules!
smakelijk!
het moet niet gekker worden, straks gaan we nog wordfeuden
jaa ! maandag kan ik weer zeggen vandaag werken, op naar het weekend!
verloren. niet dat er gewisseld is om te winnen!
soort van wedstrijdspanning....... ! lets go!
geen grenzen, geen tijd tekort.
was echt helemaal top !
rusten met 30, das wel lekker!
aftrap hercules uitgeest !
zó, wij gaven zeeburgia vandaag even hercu les !
de lekkerste overwinning van het seizoen tot nu toe !!!!!!!!
“@stanschrijft vocking maakt 12 en het is afgelopen !!!!!!!
vergeet de wereld als je danst met mij....
door een avond op ze te staan schelden, nu gaat het wel weer ! succes vandaag!
14.00 uur hercules purmersteijn !
kampioenen ! en dan vooral dat oenen!
2 assists en een goal! feyenoord !
wat een lekkere voorzetten van die blind en dan siem om ze in te koppen! ohnee.......
de boer zou janmaat eraf halen en siem de jong brengen, heeft met ajax verder niks te maken....duh !
ongelofelijk !
pfff, paal.
dit is dus de messi uit vorm?!
dwv ondersteboven gespeeld !
sportief van je, dankjewel!
echt niet !
twentievoor
hond op schoot, ipad op hond en het album van maroon 5 downloaden !
helemaal opgeknapt en met mijn eigen sterkte glazen erin ! 2/2
deze bijzondere bril geërfd van mijn oma, vandaag als valentijnscadeau gekregen van mn lief! 1/2
helemaal mee eens, het zegt ook iets over tobklasser fc lienden.
gister liet blijken het niveau in de tweede klasse prima aan te kunnen, maar met 23 verloren van eerste! klasser !
23 gebleven begreep ik!
ik snap wel dat fc lienden de eindstand niet heeft getwitterd !
waarom kan dat niet?
“@stanschrijft nathan bijl verkiest boven vva71. vandaag in zijn verhaal. ”
in deze wereld moet je een schoft zijn om iets te kunnen bereiken ! ik ken er wel een paar.
ik ben benieuwd of ajax vanavond kan stunten tegen vitesse....
ik had het ze ook lekker laten bekijken als ik hem was !
is echt een schande om zomaar iemand te noemen!
en dan bepaalde spelers de schuld geven....... geinig!
sinds het vertrek van veldhuizen was er natuurlijk al geen redden meer aan !
ook al is het veel te koud, toch maar voetballen kijken bij mijn vriendje om 20.15 uur bennekom hercules in bennekom!
diegene die het te doen hebben met de ik begrijp ze niet !
over een uurtje goed?
je weet niet eens watser met mij maar watser met jou ouwe!?
je praat maar je weet niet eens watser met jou....
straks eerst even stuk gaan! en dan vanavond welverdiende ontspanning met mn lief !
soms denk ik dat het beter is je nooit af te vragen waarom....
zó ! daar gaan we weer! een kilometer of wat door de sneeuw, heerlijk!
rondje hardlopen met mn lief !
balen ! weer geen competitie voetbal! hopen op een viendschappelijke pot dan maar, zoiets als afgelopen zondag zou leuk zijn 32!
lekker in het bos geweest met mijn vriendjes !
ik denk dat bar nie de tegenstander van van gerwen wordt....
wat is er toch, zo ken ik
als je te trots bent om rivieren te volgen, hoe zul je dan ooit de zee vinden?
het is tijd dat onze versie van de gebeurtenissen uitgezonden wordt.
wel zin in een potje eigenlijk !
tja, als je er zelf niet meer mee speelt dan gaat een ander er mee spelen! zonder het te vragen ! gekregen? zo zou je het kunnen noemen
als apen hoger klimmen willen, ziet men gauw hun blote billen.
weet wat je te wachten staat
kaarsjes aan. vriendje vertroetelen! gewoon, omdat ie het verdient !
dan voelen ze zich ineens schuldig, natuurlijk.
niet zo gretig!
chantalleke en hend hier ! zo leuk
er is altijd wel iemand, maar niemand als jij ...
passie in de polder
hou me in de gaten greet !
leuk programma, dat de jongens tegen de meisjes. was vanavond op ned3!
overnachten met filmnet dan maar.......
wie er nog staat, wanneer het opklaart....... ♥ !
wel weer eens zin in een potje ! snirpassilem is de naam.
alles wat je moet veranderen, is alles wat je bent.
niks is beter, dan de rillingen die komen van jouw omhelzing &lt3
komt uit italië, ik drukte 1x, bleef spuiten. psst. slaap lekker, doe maar aan me denken en snuffelen
oh en duh.
top training ! ballen tikken met en kantine kan er ook wel mee door
ik ben benieuwd!
verslavend hè? ...pff
ik slaap.
hond kijkt tv.
het is echt de malibu die de ananassap maakt, puur is het niet te harde zeg!
jammer van die omhaal! dat kleine keepertje kon er nog maar net bij, grr %^\&gt|%#!
wat n schik enzo !!!!!!!
wie volg je dan? ik weet niet beter dan dat ik jou moet volgen! veel plezier
wat ben je stil! niet aanwezig in haaksbergen?
kussengevecht met joep, ik bedoel zonder joep !
veelzijdig.......
mijn meestal vrolijke viervoeter vertroetelen omdat ie ziek is, mn kleine vriendje
wekker zetten op een uur of zeven, pff
werkomschrijving in elkaar puzzelen
ik zeg 0229!, hollandia ! zelf sdoo voetballes geven.
we zijn wat aan de vroege kant.
ik vond het zelf ook wel een aardig idee! geniet ervan
opzoek naar een plekje in de zon !
lekker begin zeg !
poosje ploeteren
ja, dat zal het zijn ! ...jammer man, 10, hop die gele
piet klonk anders ook niet erg lekker
ook begint te kriebelen !
behoorlijk belachelijk.
ik verwacht geen drukte bij vv bennekom, chingching!
goed gesprek, lekkere lunch en nu een kopje thee .
oefenwedstrijdje da1 eldenia da1.
heerlijk dagje harderwijk achter de rug !
dat heb jij goed geroggeld !
mogge rogge aaie met !
even wachten op vervoer en dan een poosje sporten !
4e klasse west it is. dames 1, vorig jaar 2e, dit jaar spelen we om het voortdurend vlammen.
kijkt ik omhels je met duizend armen ! ...fijne film
poosje praten straks op het clubje ! ...en dan hopen op een vlammend seizoen ! dames1
thanks ! ..vrijdagmiddag wel tijd om te trainen gelukkig
potje ballen tikken op deze prachtige zomerse zondagochtend. boffen wij even!
ik heb zin om te zwemmen.
nu niet meer, is al laat ! morgen lekker treenen
even op de koffie bij opa en oma!
juist die indoorspeeltuin doet het m met deze regenachtige zomer . ik zeg ouwehand, op basis van mijn dierentuintijd!
ik ben nog wat voorzichtig, maar mag niet klagen ! over 2 weken eerste oefenpot, eens kijken hoe dat uitpakt
zere benen van het trainen! ..morgen rust! dinsdag weer! klaarstomen voor de nieuwe competitie dames1.
ouwehand ! ..leuker voor je kids
treenen ! dames1.
euhh.. dit is niet best! wat een woordspelling, vandaar de drank buiten het terras!
straks een poosje sporten !
nog maar n paar weekjes en dan alweer naar school !
vlamklaar gemaakt! ..ik zeg n stuk of 23
blij met mijn nieuwe shoes !
alsof ze voor die wedstrijd komen! de dames zijn weer in training, dus verwacht wel wat publiek
lekker zeg ! ..eerste training dames1
neuh ! ..zonde van mn tijd, even trainen
tegen half drie ! kee?
jup! pik je vanmiddag wel op , leuk!
..ga je kijken vanmiddag? whatsapp doet t nie
ik blijf lopen! ..zelfs al zijn mijn schoenen kapot!
fijn weekend voor de boeg met zondag de eerste training voor dames1, ik verheug me erop!
half een !
..alsof ik niet gewoon hard aan het werk ben !
kapoet.
usa dames voetbalshirt ligt in amerika klaar om verzonden te worden... cant wait! ..kalm aan, kan ik nog even sparen
hele huis op zn kop !
saai, saaier, saaist! ..verveel me stierlijk en draait pas om 23.05 uur! beetje lezen en optijd naar bed dan maar
kleintje, joep viel er bij neer!
rondje rennen zit er weer op! lekker zeg
oefeningen voor mezelf, nog 3x een uur te gaan! dan weer volle bak trainen bij plus 1x per week bij
tour is nog wat saai, wedstrijden al gespeeld, formule 1 is stom! ik kijk voetbal, daarna tour laatste kms zijn het leukst
dan loop je geen meter naast je schoenen !
cobu boys begint het seizoen met een spectaculaire start tegen topklasser
zo eerste maar eens wat oefeningen doen voor die knie!
de doos van elma is binnen, aldus mt.
ik mag weer werken !
ach! ..het is ze best gegund! wat n kutzooi
..zwabberknie? als ik zo doorga ben ik volgende week fit ! snel kom kijken dus
ontbijten en dan een poosje sporten !
heerlijk geslapen na een avondje sanadome en n fles fantastische wijn !
..voor het eerst na mn blessure voel ik me kan nog fitter en over een poosje weer op mn fitst! mss wel fitter dan ooit tevoren? 2/2
zonder enige last mn rondje aan 1 stuk door op rustig tempo hardgelopen, hard werken loont fit, fitter, fitst! 1/2
het wordt weer tijd voor een geniale tweet van !
dank aan de voor die harde/scherpe stukken aan pistolets! ..gehemelte aan gort!
nog even lekker liggen en dan toch maar een rondje hollen !
oefeningen voor vandaag zitten er weer op, lekker zeg! ..morgenvroeg een km of 3 eruit lopen in het bos!
met zulk weer is uitslapen wel lekker! nu maar een ontbijtje op bed maken voor mezelf! ..straks weer oefeningen doen !
was daar goed te vertoeven ja, alleen niet zo heel zonnig!
gewoon naar het vlot gezwommen en weer terug, aardig eindje! wel lekker zeg...