aaaahhh het ajax van leo driessen krijgt geen penalty. hij zit haast te huilen,
de gemeente rotterdam heeft niet alleen schijt aan de markt kooplieden maar ook aan de bezoekers van de markt. loop…
op de track &amp trace staat dat de pakketten van kpn bezorgd zijn echter wij hebben niets ontvangen. waar zijn onze pakketten gebleven
die ene hoge terugspeelbal bij ado den haag, die door iedereen gemist werd is ook een typisch voor…
kom op utrecht volhouden!
eet smakelijk
ze gaat bij excelsior c meiden spelen en ze is keepster en krijgt ook extra keeperstraining bij ed…
ik was er, mijn dochter liep met zeil op het middenveld, maar was gewoon 100 % verdiend door de denen.
primeur ek voetbal vrouwen nacht wedstrijd.
beste speelster van oranje leeuwinnen was vandaag de keepster sari van veenendaal.
en nu maakt de keepster een grote fout. 21 rusland italie
wat heeft rusland een uitstekende keepster. ek vrouwenvoetbal
en met die guidion wil ik niets te maken hebben. die hangt gewoon op. dat was gewoon einde discuss…
dat had ik zaterdag bij jullie aan doorgeven dat het niet meer nodig was. maar de monteur stond er gewoon.
even voor de duidelijkheid wij hebben zelf de problemen opgelost dus geen monteur sturen.
ik zelf iemand laten komen door jullie super service. die had het binnen 15 minuten voor elkaar. h…
de geen service van tmobile thuis heeft ons besloten om over te stappen na een jaar.
geen tv internet en bellen wanneer de monteur komt geen idee. klote service wordt weer overstappen.
nee werkt nog steeds niet. maar als het goed is werkt de technische dienst er aan. had ook gebeld vanochtend
okee haal het eraf
hoeba hop wij zijn twee vrienden...
dik en dik verdiend fc utrecht winnaar play offs
wat is die leo driessen ineens lekker rustig.
die leo driessen heeft een natte slip!
als er 1 positief is over ajax dan is leo 020 driessen
inderdaad een bal over 4 meter verspeelt ie.
a.s. zaterdag het stempel bij stappen met koppendrayer
ben je vroeg wakker kijk je naar de eredivisie highlights op zit er in de samenvatting gewoon een wedstrijd van vorige week in.
a.s zaterdag in het radiospektakel met ad en pierre het stempel van roberto tan en te beluisteren via am fm kabel en www.
a.s zaterdag in het radiospektakel met ad en pierre de cd tripper van te beluisteren via am fm kabel e…
eindelijk wakker gemeente rotterdam.
top plaat
wat een prachtig stempel. de nieuwe ten sharp maybe
hallo rechter rijtje spartavitesse
gelukkig wordt feyenoord ook op uitgezonden. die zender is vanavond leo driessen vrij.
toch iets om over na te denken scheelt een berg in de kosten. op de markt
, gemaakt. hofijzer geeft slechte service. als ze het nu gewoon vragen dan is het al heel anders. rolstoel toegankelijk niet zo
de tuin deur kunnen gebruiken. over vijgenstruikje. de vorige sloopte de tuindeur komen kijken en dan niets meer. zelf maar gema
zou eens nadenken over ander schildersbedrijf. heel de wijk klaagt al nu weer stellingen in de tuin gelegd. zo dat we niet eens
het blijft toch een komedie stadstoezicht op de rotterdamse markt. wat een prutsers. tip voor rtl 5 maak er een tv serie van.
eindelijk binnen
22 , vandaag van 4 tot 6 en nu is ie er nog niet slechte zaak dus voor 22.00 betsed is niet de volgende dag leveren.
12 ik snap dat jullie afhankelijk zijn van ptt post, maar mijn dochter dr telefoon zou gister komen, kwam niet
kan dat niet eens gebeuren als leo driessen er zit. zou heerlijk zijn
pffff gauw naar fox sports over geschakeld. daar geen leo driessen.
zou wel leuk zijn omdat ze samen zijn gegaan met 538 dat de lach van het zelfde antwoord zou zijn wmdz. namelijk kungs.
toch jammer dat de belgische verslaggever nu vervangen is door leo driessen.
wat een leuk stuk in de metro. veel plezier bij de wedstrijd vanavond
psv en penaltys wordt vervolgt
wat een verademing, bedankt geen leo driessen bij feyenoord.
hieperdepiep hoera francis is jarig. eten bij eten en zo in zoetermeer. lekker hoor.
wat is die leo driessen weer vreselijk
wereld plaat
bijna goed
ze heeft gelijk
ben benieuwd hoe de overstap naar gaat. vandaag gaat het gebeuren.
gefeliciteerd wij vandaag 11 jaar.
als jullie maandag kunnen kijken heel graag. vraag het probleem bij vlaardingen 7vsv10 is kenteken
ik ben afgelopen maandag in vlaardingen geweest en die zeggen dat het een dag duurt en er geen plek is.
dus rijden zonder verlichting op de aanhanger. nee echt topservice voor bedrijfswagens. 3/3
aansluiting naar de aanhangwagen moet door gemeten worden, pas volgende week vrijdag plek. 2/3
in de frobenstraat werd je altijd perfect geholpen. helaas zijn ze daar gesloten. in de crafter zit een storing in de 1/2
dat klopt niet helemaal als je bij vodafone 2,50 kanaal 1 alle kanalen erbij 12,50 dus 15 euro en geen 25 zoals bij kpn
weer bedankt weer die leo driessen, weer een wedstrijd verslag naar de knoppen.
heeft iemand het al over regen vandaag gehad
eerst kapotte shirts nu is de bal lek bij zwitserland frankrijk
klaar voor feyenoord met heerlijk good old evert ten napel
ik heb esmee aangemeld, bedrag overgemaakt en vervolgens niets meer gehoord of email gehad.
lekkere alarmschijf.
en dat op 1 april
leo is echt heel erg.
en niet om aan te horen met en
vervelend commentaar leo driessen
pfffffffff leo driessen bedankt weer voor de verslaggever. toch maar opzeggen!
stappen met koppendrayer aan het opnemen.
wat een prachtig doelpunt van borussia dortmund
het is op 3 toestellen samsung s4 een andere samsung en een alcatel ik ben pas vanavond thuis
ontvangst of helemaal niet is er iets veranderd in berkel en rodenrijs
kpn was altijd het enige netwerk waarmee wij binnen in huis konden bellen maar sinds een week of 3 is er in huis nauwelijk
morgen is het stempel met kleine strijder en land van belofte cd tripper. morgen bij pierre van der stappen
oef
je zou toch denken top wedstrijd daar zet je een top verslaggever op en wat doet die sturen de slechtste wederom bedankt.
goud lintje erom.
heerlijk aan het zaalvoetballen bij togb. 1 gelijk 1 verloren en 1 gewonnen. erg gezellig met de boys 7 tegen 7.
als je amsterdammers rotterdams laat praten is het boek snel gesloten!
morgen in het radiospektakel, stappen met koppendrayer
morgen in het radiospektakel, stappen met koppendrayer
volgens mij doet ie van mij het niet
zo te zien zijn er nog kaartjes over bij manchester united!
het waren ook mooie doelpunten. gefeliciteerd!
ik zet de muziek lekker hard bij nec feyenoord, pffff weer leo driessen. hebben ze nou werkelijk niemand anders bij
en we zijn begonnen aan 19 toen
goedemorgen, alweer zondag, fijne dag!
psv kijken en terwijl de 19 toen show opnemen voor a.s. zondag.
zal ongetwijfeld gebeuren zeker nu er beelden zijn dat fledderus eerst op de voeten trapt van guftafson.
mooie wedstrijd van je club
wat een goeie spits is haller van fc utrecht met 10 man van 01 achter naar 42 voor.
ik reken op je
geen psv fan maar ze speelde geweldig.
op naar cvv berkel voor de meiden d training
geen hoogtevrees
hij dacht dat ie hem had. maar de rebound zit 11
ze spelen al 25 minuten en nog geen goal tegen gehad.
daar zijn ze weer eens grof geschut in het radiospektakel
pvd 11 maar de bal was over de zijlijn!
dat vallen in de arena van ajax ligt niet aan de grasmat in de kuip vallen ze ook om.
de nieuwe josje van k3 is best okee.
prachtige aanval psv en heerlijk doelpunt de jong 31
terecht dat de penalty van psv gestopt wordt.
fc utrecht komt heerlijk uit de kleedkamer voor de 2e helft. wat spelen die nu lekker tegen psv 11
die leo driessen blijft toch werkelijk irretant over dammers das de 2e feyenoorder die een eigen doelpunt maakt
hopen op een betere 2e helft van feyenoord
nog even naar hillegom om de gerepareerde weegschaal op te halen. kunnen de meiden weer wegen morgen.
echt?
wat klinkt leo driessen ineens down in de 89e minuut!
dan moet ie hem thuis hebben staan.
aan het kijken naar the blacklist seizoen 3, het begin is weer spannend!
leuk john ik kom echt snel weer eens langs
is het nou nog gelukt in het buitenland kijken naar fox. bij mij in tsjechie lukte het?
en ja hoor leo driessen zit bij feyenoord en gaat praten over zijn geliefde ajax.
ja hoor jullie zorgen er weer voor dat leo driessen feyenoord doet. wil er niemand anders het verslag doen van feyenoord.
alweer zondag vandaag goedemorgen!
wat is ruud van os weer verschrikkelijk eng aan het praten over feyenoord. ruud moet gewoon daar in een sparta shirt gaan zitten.
nu pas
psv gokte echt op de 2e helft super gedaan, van 30 achter naar 32. nu op naar de gelijkmaker.
als je fox go hebt hola installeren werkt zowel op smartphone als laptop. of hoop dat het lukt!
goedemorgen een nieuwe dag breekt aan! fijne zondag!
en we zijn begonnen aan de 19 toen show
het is een schande dat ie een feyenoord shirt mag dragen.
leo driessen zit waar die hoort bij 020
foutje kuijpers was een penalty!
nieuw tv programma vanmiddag. inplaats van opgelicht in het buitenland nu opgelicht in nederland.
jaaaaaaaaaaaaaaa geen kazim maar kramer in de spits!
wat een prachtig doelpunt van fc groningen.
hij was geweldig!
rest van de week aan het werk
helaas weer een dag minder om te komen. kan alleen op maandag
en we zijn begonnen aan de opname van de 19 toen show voor as zondag.
verveel je je niet deze zomer met alleen tour du jour?
hier hoeven ze ook geen remix van te maken.
misschien leuk idee voor nieuwe tekst we zijn er niet bij en dat is prima, volgens mij past het
tijdstip 18.00 uur laat ik dan toch maar even kijken maar ik denk dat ik weer afhaak. nederlands elftal.
je had afgelopen vrijdag 100 procent gelijk. zij zullen wel niet luisteren. dus maak er een laatste show van!
zou het wedstrijd zenuwen zijn? ben al een uurtje wakker. straks lekker 7 tegen 7 voetballen.
als je op buienalarm kijkt is het ongelooflijk dat het nog steeds droog is in berkel en rotterdam.
ja ja het dondert en het bliksemt en het regent cola light
gio zal echt kramer in de spits moeten zetten en kuijt er achter
breng nou elia en kramer en ga normaal voetballen. kazim en immers er uit! kuijt op 10
jaaaaaaaaaaaaaaaaaaaaaaaaaaaaaaa weer eigen doelpunt bruma 01
hoe is het mogelijk dat je de topper van het weekeinde door de slechtste verslaggever van nederland laat doen
daar komt ie weer. heerlijk nummer
wat een prachtig doelpunt van az 20
toch knap van de nieuwslezer om niet in de lach te schieten. morgen meer zon dan vandaag. nee echt. had ik ook kunnen voorspellen.
op naar cvv berkel, tijd voor de d meiden trainen.
zal wel druk worden met soliciteren met zulke lonen.
het regent aardig momenteel en op de pc klinkt donna lynton met a bridge of love wat een lekker nummer uit de tijd van yoko 3, amerika
zo dat is nog eens thuis komen.
he he de 1e werkdag na de vakantie zit er op.
hopelijk een drukke verkoopdag john. maar ja dat weet ik om 19.00 uur ben ik weer thuis
het is vroeg maar we gaan nu echt beginnen. goedemorgen!
wel een beetje lachen op de webcam. groetjes ad
kazim zal voorlopig op de bank zitten na zoveelste misselijke gedrag. die heeft geen media training nodig maar opvoeding.
leuk melvin
die blom heeft te horen gekregen dat ie fout zat bij de rode kaart en geeft een penalty kado.
heeft geen brilletje nodig zo fluit ie altijd. en altijd tegen feyenoord
en geeft ie een interview.
na sabia enbraphael, silvie en momo nu kermit en miss piggy uit elkaar via hoeveel kan iemand hebben.
en ik ben ook al een tijdje afgehaakt. vind de muziekkeuze niet leuk meer en vond de oude programmering ook leuker.
mooi geschreven bas
echt ongelofelijk
the look dangerous fading like a flower joyride it must have been love en ga zo maar even door. maar 30 is een beetje overdreven
wat een doelpunt van olijmpiakos 03.
tja 02 achter
pffff nu alweer 01 achter gaat een zwaar seizoen worden.
en zo sta je 02 voor en tegen 10 man met 22 gelijk.
was geen rood maar donkerrood.
wat een beer staat er in de goal bij rapid wien.
ik heb nog heel veel vinyl singles. ze staan nog steeds bij mijn ouders.
wat een start van vettel.
goedemorgen wat is het heerlijk rustig buiten, voor het raam fluiten de vogeltjes.
morgen het stempel in stappen met koppendrayer het radiospektakel
daar ben ik weer maar wat doet kazim nou in het elftal. komop boetius erin.
aaaaaaaaaah die hebben wij ook genomen in duitsland. heerlijk.
het miezert aardig maar esmee wil toch keeperstraning doen dus op naar cvvberkel
als je zo naar cobra 11 kijkt zou je haast niet meer op de duitse snelweg gaan rijden!
daar komt ie
beetje te laat waarvoor excuus
live stream gevonden van feyenoord dusseldorf
net een extra nos journaal over griekenland, dat gaat griekenland gewoon weer lukken en hoppa weer geld er heen.
het is vroeg maar we gaan beginnen. goedemorgen.
frank evenblij heeft de zelfde allergische reactie op een camping als ik.
nog 11 gele trui dragers uitvallen in bauke heeft hem.
zaterdag hoor je in het radiospektakel. stappen met koppendrayer
gezellig met togb 7 tegen 7 footgolf spelen.
wat was het koud in de dievries en koelwagen maar hij staat geladen voor morgen.
hij gaat lekker
ja go ahead maakt gelijk 11
en we zijn begonnen aan de 19 toen show voor a.s. zondag.
weet het niet nog minimaal 170 minuten
he lekker europaleague voetbal kijken go ahead eagles ferencvaros en het staat al 01 na 5 minuten.
vandaag een dagje vrij van de markt ivm de warmte. klusjesdag begint met een nieuwe voor ruit in de bus laten zetten.
begonnen aan het opnemen van stappen met koppendrayer gekleed in een boxershort ter informatie
jawel een goedemorgen, fijne zondag!
de koelauto is weer brrrrr koud. top service weer door carrier zoetermeer.
koelwagen is bij carrier voor de hoge druk storing. nu effe boodschappen 1 doen. later vandaag 2. en natuurlijk vanavond finale ballen in b
nog even zitten en dan gaan we beginnen met haring schoonmaken.
ik denk dat ik het bed op ga zoeken, weltrusten.
poesje gaat vliegen
maar een half uurtje eerder op gestaan kan ik nog een heel stuk van de oranje leeuwinnen kijken.
poltergeist 2015 aan het kijken. zitten goeie schrik momentjes in. eekhoorn
ik pak gerard cox er even bij. het is weer voorbij die .........zomer.
ja maandag alweer goedemorgen.
wat is dat nieuwe bestellen bij vreselijk. ijs is al gesmolten als je het krijgt. in de mcdrive is het nog erger. krijg je melk
was trouwens wel lekker om het laatste nieuws te horen tijdens het werken. ik ben klaar en jij mag nog even. werk ze.
ben altijd vroeg wakker, was gisteravond ook vroeg gaan slapen. ik heb nog een bestelling zometeen nog haring schoonmaken
goedemorgen zondag alweer.
ik kan nog een uurtje slapen voordat de wekker gaat!
jaaaaaaa 11 voor de oranje leeuwinnen .
we spelen de finale van ballen in berkel de 26e om 20.30 tegen milieu express.
7 tegen 7 voetbal, alles dik verloren en wat denk je 1 missen voor open goal maar ook 1 strak in de kruising gescoord. ook keeper geweest
goedemorgen fijne zondag
pfffffffff gisteren 2 wedstrijden gekeept 22.45 thuis en vanmorgen 3.45 begonnen met werken. batterij is bijna leeg.
zo thuis van ballen in berkel, eerst met mijn team gewonnen van dames 2 en vervolgens nog een partij meegedaan met de boys van 7 tegen7 togb
op naar cvvberkel voor ballen in berkel en we moeten straks tegen dames 2. de mannen dus van de me meiden.
cvv berkel we hebben wel ron gerritsma van togb erbij.
okee dat is niet zo mooi. sterkte met herstel. ik ga straks trainers en ouders en wat andere het vanavond opnemen tegen dames2
maar geen glow vandaag
hij had bij srr al sparta blindheid en dat is alleen maar erger geworden. sari was super. voor de rest super gozer. geen glow.
zaterdag in het radiospektakel
zaterdag in het radiospektakel.
leuk filmpje. groeten aan coen
ruud van os vind vrouwenvoetbal van niveau nul. de laatste keer dat ik bij sparta was vond ik dat slechter dan het vrouwenvoetbal.
helaas een 10 nederlaag voor de oranje leeuwinnen maar wat was sari van veenendaal goed!
ze is inderdaad heel goed.
er zijn weer heel wst stress momentjes vandaag.
a.s. zaterdag is met walk on water de plaat met het stempel en hoor je hem 2x in stappen met koppendrayer op fm kabel en www.
loopt net iemand voorbij toen voelde ik de stress opkomen. zie berichtje gisteren
en begonnen aan 2 uur 19 toen. zondag weer op fm kabel en www.
op naar scheveningen spullen bestelen voor dinsdag.
hoor ik daar weer eens een vuvazela oranje leeuwinnen!!
wie had dat gedacht van 14.30 s middags naar 03.00 s nachts voetbal kijken. oranje leeuwinnen. kom op oranje.
gisteravond was het laat bij ballen in berkel en vanochtend was het weer vroeg op 03.45 de 2e helft bekijk ik even aan de binnenkant ....
we moeten zo meteen om half 8 beginnen aan de voetbal wedstrijd zo te zien niet droog maar geen onweer dan volgens mij!
klopt het dat fc rijnmond nog niet online staat?
lekker druk weekend voor de boeg, dat begint zometeen met 7 tegen 7 bij esmee dr club cvv berkel. wij doen mee onder de naam me meiden.
en we zijn begonnen aan 19 toen voor zondag 7 juni.
start nieuwe haring week uitgesteld
eerst esmee weg brengen voor jonger oranje dan zelf 7 tegen 7 voetballen en dan weer terug naar jonger oranje. gezellig met de schoutentjes
wat een leuk begin van de duitse bekel finale!
even lunchen bij brasserie muller
hoe is het met je sollicitatie
koud en regen.
wat een takke weer.
het zou zo saaie europaleague finale worden volgens iedereen. voorlopig best leuk en 22
ik ga het off knopje indrukken.
19 toen show aan het opnemen voor zondag de 31e.
wat een drol van een scheidsrechter is ie blom toch.
op naar togb voor pinkster toernooi.
1e ronde ballen bij berkel is voor ons voorbij en gewonnen met 74.
bij cvv berkel voor 7 tegen 7 ballen in berkel.
esmee heeft net gaaf nieuws gehad. ze is positief opgevallen bij de knvb talentendag en mag zich in september melden voor vervolg traject!
toch wel opvallend het nederlands vrouwenelftal trekt meer mensen op het kasteel dan sparta. en er wordt niet lul of klootzak geroepen.
tijdens de wedstrijd zaten van bronckhorst en van gastel al de hele tijd met elkaar te praten zonder rutten erbij te betre
jaaaaaaaaaaaaa hij gaat de directie bellen. weg wezen!
onbegrijpelijk weer nelom speelt als een natte dweil die blijft staan en mathijsen die best aardig speelde eruit.
haal nou eens die nelom en kazim eruit. en breng achabar en kongolo
ja hoor nelom staat er in en kongolo zit op de bank. de volgende fout waarschijnlijk de laatste van rutten.
op naar togb voor een nieuwe ronde 7 tegen 7. voetballen dus.
goedemorgen een nieuwe zondag breekt aan. en zo meteen weer lekker voetballen 7 tegen 7.
wel lekker een dagje vrij van de markt. zometeen met esmee op pad. ze heeft een voetbaltoernooi bij xerxesdzb. 7.30 verzamelen bij cvvberkel
rechtsonder
wie niet ontevreden toptalent had rutten liever zien vertrekken
als je 5 minuten naar frank snoeks luistert is het eigenlijk raar dat bayern munchen nog aan de return begint. dus bayern zet hem op.
onzin verhaal groningen heeft de beker en is al geplaatst
kijken of het rijnmond alert nog afgaat met het nieuws dat fred rutten per direct vertrekt bij feyenoord. zou goed nieuws om 3e plek
opstelling voor zondag vermeer, karsdorp, van beek, kongolo, woudenberg. clasie, toornstra vilhena immers boetius en basisoclu.
je kan nog beter higler dan bjorn kuipers wat fluit ie man slecht vandaag.
hij zal toch niet karsdorp gaan wisselen?
hoe kan je blijven spelen met nelom en dan wisselt ie zometeen kongolo. wat een verschrikking slissi rutten.
je had een week of 6 terug afscheid moeten nemen van fred. ze winnen geen wedstrijd onder hem meer.
is het echt serieus dat er meerdere clubs zijn die kazim willen hebben. nu nog wisselen stel je voor dat ie ze poot breekt.
wat een verschrikking weer feyenoord!
wat een mooi doelpunt van vitesse, maar kom op feyenoord!!
zo te zien gaat trijntje oosterhuis zingen uit volle borsten op het eurovisie songfestival. aaaijaaajaaa
goedemorgen, zondag al weer en moederdag!
ons uitzicht op het veld bij het begin van de wedstrijd.
en jahoor ze heeft ja gezegd
ja ja mensen 5 minuten gespeeld 10 ado
vannacht weer een goeie hypo gehad na het avondje voetbal. bij 2.5 voel je je niet prettig kan ik je zeggen.
als de politie echt ballen had gehad en hadden ze op koningsdag actie moeten voeren. dan was binnen een uurtje geregeld.
en we zijn begonnen aan de opname van 2 uur stappen met koppendrayer. terwijl voetbal kijken.
ik ga de off knop indrukken.
bij de watertuin in naaldwijk voor vincent zijn verjaardag.
lekker 19 toen aan het opnemen voor 10 mei.
heb je ook gezien welke dag het gisteren was.
terug van het 7 tegen 7 voetbal en de volle 5 punten zijn binnen.
op naar togb voor een nieuwe ronde 7 tegen 7. voetballen dus!
goedemorgen we zijn weer online. een fijne zondag.
de nieuwe website is online. dit weekeinde komt ie af