ben er bij met
nooit meer penoza! geen meer als berry!
“vecht je voor geluk, of tegen eenzaamheid”...
van harte met danie
ajb zeg wat is overdreven aanwezig in !! hoor mij boven iedereen uit komen.....
is het niet een beetje hypocriet? na jarenlang in rotterdam gewoond te hebben? waar ook voortdurend gelu…
was een interessante middag! vond het leerzaam en plezierig om er bij te mogen zijn!
men klaagt liever dan die mannen/vrouwen van de kmar eens respect te tonen!…
price kon de uk open 2017 winnen tegen wright! dus dat klopte niet helemaal wat jullie net zeiden! 😜
een jaar ad geslikt hielp mij toen! nu helpt hardlopen om niet terug te vallen!
beetje jammer dat hij stopt na het reclameblokje! en dan weer vanaf minuut 1 begint!
wat let je om weer mee te doen? 😜
freak! dat is balen, vind het een van de tofste nummers van het album!!!
klopt het dat koor niet meer te beluisteren is op spotify!? 😑
gelukkig een correct uniform ! je schouderpassanten....
gaat nog niet heel soepel bij de verkiezingsavond!
.. zal het echt beter gaan doen voor defensie?
wordt er al gedacht / gewerkt aan een volgend seizoen?
wat wordt het weer tijdens de wedstrijd??
gelukkig zijn jullie niet partijdig....
kunnen jullie deze vraag nog beantwoorden?
heeft zijn ogen laten laseren? omdat ik geen bril meer zie die mee gaat het podium op?
stukje evm dan maar? 😝
jullie grote vriend op rtl 4 😝
mss je locatie uitzetten van je telefoon 😝😂 nu weten ze precies waar je bent!
hoi. ik heb jullie een prive bericht gestuurd! mvg
geniet dr van!
kom eens een kijkje nemen bij de chinooks op dhc minister ☺️👍
laat me, laat me, laat me mijn eigen gang maar gaan....
groetjes terug natuurlijk!
tijd gaat veeeeel te snel!!!
lijkt op mijn zusje haha!!! 😜
hoop dat jullie trainen op de zak die er aan het plafond hangt??
laat je dochter erbij zitten en wees gewoon stil! tip aan hanelore! zo hebben mijn ouders het altijd gedaan!
haha ik hoop het dan!
hoop het niet voor je!
wat is het weerbeeld tijdens de wedstrijd ??
allemaal koude handen? 😜
is echt leuk met en !! en natuurlijk
aaaahhhh poepie tochhhhhh
nrc column ook niet veel beter dan ad, dus bak diarree! 🤔
wat zit je haar raar daar 😝😝
jammer! was echt een waanzinnig concert! thanks voor de link! helaas kort filmpje 😝 kamervragen was kick!
frans, komt er een dvd van panama trouwens ? zag nl genoeg cameras!
ohhh jullie elke dag? wij om de dag 😝
voor donderdag al?
lig wakker in mijn bed mijn hoofd vol met gedachten de tijd tikt langzaam door....
yeah, je bent goed bezig frans! ben ook benieuwd naar zaterdag je concert! succes!
komt kamervragen 2.0 ook gratis op spotify asap?
benieuwd naar kamervragen 2.0 morgen! zaterdag naar panama voor
jazeker hebben en ik die besteld!
jammer dat als reageert, dat er dan wel een reactie komt 😊 en op fb zelf niet!
yeahh! goed bezig! ben benieuwd 1912!!
ie, chrome, firefox....alles blijft laden....
wat een kutzooi...€4 betalen en niet in de stream komen! mooi geld terug storten!
wat is dit voor een stekker???
van harte gefeliciteerd lange frans! en ook natuurlijk!!!
je gaat t eindelijk eens inzien!!
je was geniaal ! veel lol om dat zeggen ze allemaal gehad! grap moet in de show blijven!
het rijst de pan uit een mooie opmerkung van na een nieuwsartikel! 👌
de leegte van een druk leven?
hou van je..
zolang je maar jezelf was, jezelf bent en jezelf blijft
in nl werkte alles weer wel
in duitsland bleef whatsapp op verbinden staan! sms versturen gaf ook foutmelding!
aha okee! ik kon dus niet internetten/bellen/smsen....pas aan het einde van de dag weer...maar toen had
hi. ik heb een iphone 6. had roaming aanstaan! en die eu bundel functie aangezet op mijn iphone.
gisteren eu dag bundel aangezet! halve dag niet bereikbaar geweest! beetje jammer...
bekijk chriss inzending voor de fotocontest
volg je hart, dat heeft het altijd juist!
wat is mijn hart?
wat een vervelende nacht zeg!
bekijk chriss inzending voor de fotocontest
ik ben der bij!!
ik kijk niet naar de toekomst. ik leef nu en vandaag!
zoekend naar het antwoord op een vraag die niemand kent...
ik hou van je.
word echt gek van mezelf....
wat is dit nu? tijdens het van 1930uur.
klopt! ik ben op zaterdag ook bereikbaar!
is het mglk dat jullie mij weer bellen voor een aanbieding voor verlenging van telefoon abbo. heb ook al een dm gestuurd via fb
wow wow wow! dik respect voor !!!
zeker kijken! ben benieuwd naar je kwaliteiten deze keer
iets met prioriteiten....
je mist pas iets als het er niet meer is...
en dan een mooie discussie met een nedewerker op fb er over...dat dat het stukje service is...vind ik nogal dure service..
€250, meer vragen voor een imac om de prijs van apple aan te houden. terwijl bcc bijv stuk lager zit voor t zelfde product.1/2
voor en ...
super kick! binnenkort ook weer eens bij dex langs denk ik
dat is prima! alleen ben ik vanaf komende week, doordeweeks niet beschikbaar. mvg
voldoen. helaas, maar het is niet anders denk ik. mvg 3/3
mijn contract laat verlopen in november. en dan overstap naar een andere provider, die wel aan mijn voorkeur kan 2/3
hoi. had woensdag contact, zouden vrijdag avond terug bellen. niet gebeurd. maar denk dat het ook niet nodig is. denk dat ik 1/3
zou gisteren om 2000uur terug gebeld worden door .... is niet meer gebeurd!
kies en volg je eigen geluk!!
haha ik bedoelde natuurlijk klant leuk op gereageerd!
zeer tevreden over de service van via twitter! hopelijk kan ik als knalt blijven...
klopt voor mobiel. zie foto
beste ik wil graag verlengen. maar het kan niet staat er op de site. echter loopt contr 611 af...dus zou t wel moeten. mvg
ik heb de mail gestuurd. met screenshot van de bevestiging van mijn bank. hoop van u te horen. mvg
hoi. zondag aangemeld en betaald. tot op heden nog geen bevestiging ontvangen. gr
harbour run op 11 oktober 2015. durf jij hem ook aan
wat is toch een prachtvrouw. heerlijk programma laat me lachen!
kan nog wel volgen maar niet meer
geniaal programma gewonnen maar had liever zien winnen!
weekje focussen op de kazerne!
ik mis de nachtgroet van wel bij !!
komt het niet door het nieuwe materiaal?
ohh het was maar voor tijdelijk dan? o
heb je geen werk meer?
wat is de livestream weer verdomd slecht!!
en het geld wat ik betaald heb om een maand te kunnen kijken? 2e keer al dat er problemen zijn!!
vind rtl ontbijtnieuws altijd een stuk leuker met !!
heeft een horloge om! niet/nooit eerder gehad!
pep guardiola na de goal van robben prachtig! / hahaha
van 2 nederlanders in de halve finale naar geen nederlanders in de finale in één avond!!
kan het niet maken op mn telefoon.heb wel een tekst! van 2 nederlanders in de halve finale, naar geen in de finale!
sterkte! x
lol dat heb ik net ook getweet shane!
wie heeft tot nu toe de meeste 180ers gegooid ?
ooh oke thanks! ik had het idee dat hij opeens op het podium stond haha!
kwam dean winstanley nou zonder opkomst muziek op?
thanks! dat zijn scores waar alleen maar gedroomd van kan worden.
weten jullie het aantal 100/140/180 van anderson en klaasen?
succes maandag met de partij. als je gooit als in set 2/3 vandeweek, komt het helemaal goed !
wat verdiend men als je in de 1e of 2e ronde verliest?
wat dachten jullie van de opkomst van darryl fitton toentertijd ?
wat knap en goed! heb echt heel veel respect voor u en jullie! succes nog de komende dagen!
jullie kunnen de gulden biljetten inleveren bij dnb
hoe gaat u zelf om met alle indrukken die u opdoet met de reportages?
hopelijk werkt hij snel weer!
zoo! gefeliciteerd!
burgemeester hoes stapt op! ik schaam mij voor mijn collegas privé is privé en een rat is een rat.
haha hoezo niet dan? een leuk apenpak of dinopak ? p
onesie is een kleding stuk aan een stuk!! p wansie spreek je het volgens mij uit!
boek van davids kost 24,95€ !!
sws een draak dat mens ! schele dakduif.
bedankt voor het antwoord!
sterkte denk ik. na het lezen van je tweet...
niet de eerste keer deze vlaggetjes en
gefeliciteerd vriendelijke !! en en de kids ook gefeliciteerd!!
het gras bij de buren lijkt groener. maar als je de moeite neemt om je eigen gras water te geven, dan wordt het net zo groen
1.99 vragen voor de live stream. zijn ze helemaal gek geworden. dat betekent dat ik gewoon 6 euro kwijt zou zijn tot vrijdag.
moeten de grote namentop 10 ook vloertoernooien spelen? of alleen de grote toernooien?
nog 2 maanden tot 2015!
was goed in !! had wel langer gemogen hoor!!
ik was trouwens 275 euro kwijt voor mn auto !!
bij met in
in bij strakjes ! samen met
dordrecht we zijn in je!! // yeahhh !!
bij
zoo zoo! en jij? p haha! ooh handrem kabel moet ik ook....en achterrem kabel en iets met koppeling kabel ofzo.
tenminste bij je auto hoop ik p tenzij t een leuke monteur was!
jaa idd! wat hebben ze bij jou gedaan dan?
nee nee! maar woensdag gaan ze onderzoeken wat er precies moet gebeuren.
oeii. ik hoor woensdag wat de schade is...
ochtendje werken en daarna door naar de garage voor de apk 🚘 / me 2 haha!!!
gefeliciteerd met je verjaardag! en ook gefeliciteerd ! lieve groetjes!
ook vanaf hier gefeliciflapstaart met uw kleindochter! met haar mooie verhaaltjes en vragen op vakantie!!
ik leef nog ! / je mening mag gegeven worden toch!!
gefeliciteerd met jullie mooie ondeugende dochter! d
dat is ieder zijn mening. ik ben provermeer!
sinds het debuut van vermeer kreeg feyenoord elke wedstrijd binnen 8 minuten een tegengoal. toeval? /
bloed chagrijnig!!!
en dat kan maar tot maandag 22 september tot 12.00uur
ik heb nog geen jobcoach maar wil graag solliciteren op een vacature van !!
graag gedaan
melk in een glas
ja met een basisschool vriendin van mij werkte op die school
huh ik kan meer volgen? voorheen deed ik dit nog wel nl.
weet niet hoeveel kilo vet
vond mn stem wat ad hoge kant soms xd niet bepaald volwassen nog hahahah
raar is dat he. je eigen stem. voor je gevoel klinkt hij heeeeel anders
tja! was wel grappig. maar erg om jezelf terug te zien. toch vaak moeten doen in t verleden, maar blijft raar.....
dat zei die man die interviewde ook. dat ik goed en duidelijk mijn mening verwoorde. was ook mooi compliment.
zal wel iets eenmalig zijn hahaha!!
tenminste ik heb er een foto van gemaakt. ik werd gefilmd toen ik de foto maakte van el ahmadi en een vriend.
die foto is ook nog gemaakt en getoond ergens bij rijnmond
haha was grappig he! werd gevraagd naar mijn mening. nou dan geven we die toch 😎😎
lachen! waar? rtv rijnmond zeker of fc rijnmond?
hij was weer goed ✌ i like them!! heb je net de nachtgroet gemist ?
jezus, wat een heftige aflevering van ....
oohh wat erg! lol wilde een opmerking maken..maar dat durf ik niet p
jezus je wordt oud.... p
debuut op tv gemaakt haha !!!
✌✌ voor de uitzending van vanavond ongeveer 30 supporters gesproken. slechts 2 waren tegen komst vermeer.
geïnterviewd door bij voor dat ik in de uitzending kom.
nachtgroet bij was nice over martijn krabbé!! ✌✌
succes! waar gaat u solliciteren? d
feyenoord rotterdam!! wij gaan europa in!!!
ahaa! naja gewoon doen. of je laat iedereen wat lekkers meenemen? a la amerika?
wanneer ben je jarig dan? haha! gewoon lowbudget boodschappen doen. en dan geld cashen hahah!!
waarom niet joh! 25 is een kwart van 100.
nicee ✌@langefrans goedemorgen... voor wie t heeft gemist de nachtgroet van gisteravond
jaa is wel op waargebeurde verhalen gebaseerd denk ik
lol...ik kijk het ook maar t is zo slecht geacteerd he...# agd wel goede onderwerpen.
leuk dat u mij volgt 😃
veel plezier vandaag met de verjaardag van stoere willem!!
voelt zich aangesproken hahaha!
iemand een mooi voorbeeld voor een maori tattoo?
wat is een vriendelijke man! en 2 super leuke kinderen!!
wes newton gaat te snel gooien! nam in het begin meer rust tussen pijlen door. eerst focussen en dan gooien!
nog steeds op zoek naar leuke / voor een weet iemand iets leuks? liefst omg.
ja dat is goed! hopelijk verhelpt dit dan de problemen!
3 smsen/bellen geen probleem. puur gedoe met het internet. zodra ik op iets drukkere plekken ben, geen bereik meer.
2 toen even over. nu samsung s4 en weer problemen. ook in drukke winkels heb ik niet/nauwelijks bereik. wordt hier erg moe van.
had een jaar geleden een lg haf ik het zelfde probleem. toen tijdelijk een iphone, zelfde probleem, nieuwe sim gekregen 1
puur en alleen het internet. en afentoe ook alleen noodoproepen toegestaan!
hoi. blijf problemen ondervinden. vaak geen bereik op grote plekken waar veel telefoons zijn.
excusus het is inmiddels gelukt
de website geeft voortdurend aan dat ik hem niet kan openen.
hoi. de link die je mij geeft werkt niet. mvg
ook staat configuratie voor de s4 er niet tussen.
beste ok heb steeds meer bereik verlies.
hahaha weet ik ook niet meer. 122 mensen hebben gefeliciteerd haha!!
weten jullie dat je het engels commentaar door jullie heen hoort via de livestream? mvg.
bedankt voor de goede service ! eindelijk eredivisie via de tv! sneller dan geregeld! 24u ipv 3,5e week!!
3 weken geleden fox aangevraagd via foxsite. tot op heden nog geen beeld! kunnen jullie iets? mvg
hoeveel afleveringen zijn het??
dat mag, daar heb je mij niet mee p denk die vriend van dat zusje!!
ooh je hebt hem al helemaal gezien??
kan de tekst voor de smsjes/tweets iets groter worden ingesteld?
hahahaha gedraag je man!
boetius zijn eigen mening ne neef p dat hij het tefecht vond! en ik sluit me gewoon aan bij hem haha p
is afwijzing op leeftijd dan geen discriminatie? bij een sollicitatie?
boëtius blij met sterke rentree ik werd terecht gepasseerd
dat ik tegen rkc werd gepasseerd, heeft me geprikkeld. nu speelde ik vrijuit, zoals ik altijd moet doen”, zegt boëtius
nee ik heb geen nieuwr simkaart gekregen! heb de oude gehouden. gr
problemen id zin van, mijn telefoon werkt oke, sim kaart werkt niet oke!
hi hi, helaas houd ik dan nogsteeds problemen. nu ook steeds vaker bereik verlies. denk dat het aan sim ligt! gr
dat ga ik eens proberen. laat het resultaat weten. dank!
2 oke als ik dat voortdurend moet doen om op 3g te kunnen en goed te functioneren.
meerdere locaties. vaak als ik van wifi overga op 3g. als ik dan telefoon opnieuw opstart pakt hij hem wel. maar lijkt me niet 1
de lg optimus l9 ! voor omzetting bijna nooi problemen gehad!
hi, ja dit heb ik al gedaan. alle instellingen staan juist. toch heb ik meermaals per dag geen verbinding buiten de deur/wifi
beste, heeft u mijn vorige tweet ontvangen? dat ik sinds mijn abonnement omzetting meer problemen heb met internet. mvg
beste, ik heb 3mnd geleden mijn abo verlengd, echter heb ik nu telkens problemen met mijn internet. what to do? mvg,
spelletje met liefje!
laatste 40 minuten als 21er!
niceeee! jaa dan ga ik ook kijken hoor d
wanneer komt er een nieuwe show op dvd of tv van je ?
tuurlijk wil ik dat? hoe moet ik dat doen dan?
mijn slaapkopje kon gewoon nog blijven liggen, terwijl ik al aan t werk moest
04122011 jaartje samen ! ik hou van jou !!
moguuuuuh dis vroeg voor de fysio !!
als ik terug kon in de tyd? had ik maar een tijdmachine !
slapeloze nachten ! we zetten de tyd maar terug !
6 van de 8 ook goed?
ik deel die gedachten met je natas !! werkse ! xx
gefeliciteeeeeeerd lief broertje !! loveyou ! ♥
nog 4,5 uur te gaan met op eplaza zuidplein samen !
ik wil saxofoon spelen ! nu ! p
hahahaha !! jeetje t ging om mijn mooie spinnenwebje !! d
mijn / spinnenweb voor mijn stageklas gemaakt !!
gefeliciflapstaart naar mijn maatje !! 22 jaartjes jong die lange !! ☺
sterkte man !
per ongeluk mijn vriendinnetje wakker gebeld denet !! sorry lieffie !! ♥
werken 95 blegh !!
en dan word je koptelefoon ff van je hoofd gestolen!!
powernap gehad, nog even 4 uurtjes werken !!
zoo, had mijn tekst kunnen wezen hee! d
aaah wat een lieverdje !!
workie van 9 5....beetje moe !!
school van half 11 tot half 5 !!
weer even proberen verder te slapen ! lieffie slaapt nog ! ♥
is een beetje jaloers op jullie
wat moet ik toch zonder !! mijn allerbeste maatje, in goede en slechte tijden !! friends 4 ever !!
aan de studie...
was een best laatste avondje met en
brakker dan brak gewoon p
fietstocht op de planning !? maar ik chill hem op post 1 d
tik em aan vrouwe ! nog 5,45uur slapen d
vanaf vandaag 5 dagen knallen !!!
thuis lekker douchen &amp omkleden en dan uiteten met mijn droppie en haar lieve familie d
werken 95 en vanaaf lekker uit eten !!
je halff 10 op de 11e in de grote zaal
hahaha nee daar wil je niet dood gevonden worden xd
wat een kut avond he! je had net zo goed kunnen gaan koken en afwassen, ipv voetbal kijken p
ik ben vanaaf weer schoor hoor p
dit is te komisch gewoon !!!! opgesloten in een cel in de buffel !!
gefeliciteerd ouwe &amp je zus ook
vos? present! coenen?
al uurtje op, al 20min onderweg !!
jaaa echt he p speklapje, sateetje, salade alles gewoon p
suzieeeeee !
hahaha dat jij zon neusje bent dat wist ik wel hoor p
juisttt !!! zo hoor ik het graag natas !! d
werken van 9 tot 5 uur !
ik hou van mijn dinnetje ♥♡
bus 76 en tram 20 weer lekker vertrouwd ! i.p.v de spaanse of turkse bussen p
kippenvel !!! als je het legioen zo hoort zingen op de radio
zuchtt......gecijferdheid bikkelen !!!
en dan zit het er alweer op in turkije alanya 8 waanzinnige dagen gehad met mijn liefste !! ♥ love you so much
vanuit alanya turkije ook aan het volgen hoor d
lekker he baas, zon hamam p
genieten 2.0 in turkije met mijn liefste !! d ik hou van jou !! ♥♡
zooooo relaxt, heerlijke hamam sessie gehad met mijn liefste !!! ♥♡
dankjewel broertie !! d x
op weg naar schiphol met mijn lief !! met op in de auto !!