krabben, gelukkig heb ik dit..... rotterdam, netherlands
heerlijk, de stoel en stuurverwarming mag weer aan!
moet u zich niet weer eens bezig houden met eigen politieke standpunten ipv een hetze tegen nieuwkomers met een voo…
2 doden in drugslab midden in woonwijk, oezbeek rijdt mensen dood uit naam van, maar in nederland wil de media vooral hard lachen om trump.
dit is europa. terroristen kunnen zich vrij bewegen, politici met een tegengeluid niet. via
met 3 spelers die momenteel champions league waardig zijn redt je het niet
volgende keer maar gewoon een hotelkamer.
wordt weer snel donker pat, dus fietsen alleen zondag een optie.
rondje 2 à 7.2 km in the pocket. nu al 6 minuten van mijn eerste tijd aflopen wellicht wat teveel progressie...
24 en 25 jaar....drogering enige mogelijkheid, maar nooit te bewijzen. kansloos verhaal van jbc. schi…
wie is die godvergeten cliënt van advocaat plasman?
op basis van de opkomstmuziek zeg ik 10 voor bonjasky
wraak smaakt zoet geweldig gereden max verstappen.
over de doden niets dan goeds.....maar dit verhaal geloof ik klakkeloos.
wat een slappe beargumentatie, alsof je ondanks je afkomst niet juist te…
heerlijk land zijn we toch,druk met piet hein en witte de with vervolgen, maar deze mensen krijgen vrij baan
deels met u eens, niet netjes, maar respect voor politici kalft door handelen van diezelfde politici wel af.
het gaat over de schoenen van hebben we een minister met smaak, is het weer niet goed.
misschien moet deze beste man eens wat vaker een willekeurige wijk in een willekeurige stad inlopen.
helemaal mee eens!
roemenen die in gestolen autos uit denemarken en frankrijk rijden beroven hier al rijdende vrachtwagens. lekker hoor die open grenzen!
deze kansparel wordt gezocht en is vuurwapengevaarlijk!
wanneer komt de eerste genderneutrale piet?
ik kan alle huizenzoekers maar één tip geven koop mijn huis, net buiten rotterdam 😉
en het zijn nog steeds aspirantagenten?
transportsector is uitgezonderd. een mooi akkoord met een heel groot gat.
aanpakken door directe sluiting een idee? ontslag voor alle leidinggevenden en verantwoordelijken? via
om alle onduidelijkheid een eind te maken, we hebben hier over een speler uit de 4de klasse, niet uit de primera di…
de enige echt interessante rijder waar het publiek voor komt kijken straf je voor attractief rijden
hoe helpen we de populariteit van een sport om zeep?
fantastisch. verstappen laat raikonen zien wat racen is
maar die worden ingebracht uit armoede. wellicht zelfs beter om bij zoveel blessures dan maar gewoon jeugd laten debuteren.
deze stelling nu beantwoorden met eens slaat ook weer nergens op. hebben ook gewoon teveel blessures op dit moment.
teveel blessures,maar vooral teveel bepalende spelers ver onder de maat.onnodig grote nederlaag toestaan op eigen grond typerend
die. bal. mag. nóóit. meer. voorgegeven. worden.
boetius bevestigd waar ik bang voor was. nog steeds te zwak voor topwedstrijden
lessen uit champions league niet meegenomen het veld in. kinderlijke fout van amrabat
pasen valt laat dit jaar jan.
het compenseren van makkelie is begonnen. gele kaart jorgensen een lachertje
lars keek vroeger altijd sciencefiction. de werkelijkheid is voor hem nu nog steeds niet spannend genoeg.
bij de imitatie van andré van duin zapte ik al weg.
gezellige jongens nodigen we uit niet? bezint eer ge begint
koekkoek! dat mogen wij dan natuurlijk wel betalen en onderhouden.
en zo vaart de wereld in de hogere regionen mensen. een moordenaar moet zich druk maken om de gezondheid van mensen.
het niveau van d66 in één bericht weergegeven.
we staan weer lekker op de kaart...
beetje regen is lekker
en mevrouw jinek maakt een programma met ons geld om te laten zien hoeveel spijt amerikanen hebben dat ze…
over het weer?
dit is toch prachtig en afwisselend nieuws om de dag mee te beginnen
dat is ook deprimerend, net zoals het constante slachtoffer gedrag en stelselmatig verzinnen van racistisch gedrag…
volgens mabel van oranje lijden we aan islamfobie. ik heb voldoende moslim vrienden zolang ik moeilijke onderwerpen uit de weg ga.
deze mevrouw maakt ook vrienden met de onderwereld, dus die maakt heel makkelijk contact.
wat jan zegt.
dit wordt dan toch de nieuwe bondscoach.... koeman voelt nog volledige steun van bestuur everton via
de koersen die je noemt staan op zichzelf, dat maakt het leuk. daar hebben we dat soort k…
hoe dom kan je zijn of hoe inhalig kun je worden? strafrechterlijk vervolgen maar!
waanzin, echt pure waanzin dat deze mariniers vervolgd kunnen worden. alsof we over 20 jaar een agent vervolgen die…
proest..... hier moet toch sprake zijn van valse berichtgeving? althans, dat hoop ik.
eens.
precies, een lekke band daar verziekt je klassement. heeft niets met goed kunnen fietsen te maken.
buiten het gravelpad een mooi en uitdagend parcours
los van de lekke banden, wat voegt dit nou toe?
je hebt recht op je mening hoor, ook als het niet je club is, maar wellicht kan het wat genuanceerder,…
ja dat zal je niet veel gebeuren met al je volgers. maar zeg eens jan, voetbal je nog of heb je gevoetbald? en op welk niveau?
jij kan zelf vast heel goed voetballen aan al je tweets te zien...
champions league is leergeld voor meenemen dit seizoen en vol de focus op de competitie.
er zijn veel opties, maar amrabat niet meer opstellen is geen optie meer
dat is nogal daarmee doelen ze bij de belastingdienst nog steeds op een grote fout.
niet leuk om naar te kijken, wel dodelijk effectief dat shakhtar
jorgensen maar gewoon in de rust wisselen, uit voorzorg
lekker hoor, nieuwkoop er weer bij en amrabat op het middenveld
eerste gedachte? een wielrenner die zich in tom dumoulin wil verplaatsen.
bezint eer ge begint.... wel eens van gehoord?
geen rood weet alleen higler.....
pfff nagemaakte. laten net het beeld zien. berghuis geel wegens moordaanslag na afloop op zwolle spelers.
aan wie gaf hij geel na afloop?
diederickje zal wel in minuut 85 een gele kaart krijgen voor zijn gedrag
kwaliteitskrant hoor dat nrc. gaat met sprongen achteruit sinds het in amsterdam gevestigd is.
wat moet dan een heerlijk gevoel zijn, blunders kunnen begaan met altijd een vangnet achter de hand.
wat een idioot antwoord. ga je ergens in de hoek schamen man.
helemaal mee eens. nogmaals, de verantwoordelijken voor het vrijlaten van dit monster moeten zelf onderzocht en ber…
jazeker, bij dit soort grove nalatigheid mag dat zeker gevolgen hebben. u vindt dat dit soort fouten erbij horen?
prima als we het recht bij instanties laten. draag dan ook de gevolgen van je beslissing. net zoals in het bedrijfsleven.
dan wordt het onoverzichtelijk, maar wellicht niet slechter.
poll rechters, instanties, mensen, die monsters als michael p op ons loslaten moeten strafrechterlijk vervolgd kunnen worden
psychologie voor amateurs of weldenkenden michael p had op basis van feiten tbs moeten krijgen, met of zonder medewerking.
proest.... wel eens een programma van jinek gezien? gaat kritische vragen uit de weg als er belangen in het spel zi…
het zal je kind zijn, van 2 kanten bekeken. hoog tijd om de mensen die dit soort monsters vrijlaten verantwoordelijk te stellen
het boze oog van de grandland x orange motors
bellen maar naar orange motors rotterdam voor een proefrit!
eén woord pluche
nee, niets aan de hand. volkomen veilig. dank je wel voor uitvoeren van objectief onderzoek. via
had dick nu maar één laffe wissel minder gedaan, dan had hij robben nu een publiekswissel kunnen geven
zo, dick heeft al zijn wissels lekker behoudend ingezet, kan hij voor komende zomer lekker de diverse campings vastleggen
straks niet naar die door de gesubsidieerde treitervlogger bij pauw in ieder geval.
vanaf nu niet vol op de aanval spelen met zeer hoge druk is net zo erg als met 05 verliezen
dick, natte wind, een spits voor een spits, wat een creatief idee!
wauw robben, buitencategorie
wat is tijdrekken en irriteren in het zweeds? daar zou ik als zweed nu gewoon mee beginnen
soms moet je gokken of beter gezegd afdwingen. maar dick zal wel tot minuut 65 wachten om dost als vierde spits te brengen
de zoveelste gewijzigde opstelling. gebrek aan kwaliteit wordt ook niet gecompenseerd met vertrouwen.
lalala ff een nieuwe bank gekocht!
als hij nog onder begeleiding staat kan een enkelbandje toch geen kwaad me dunkt.
hè als je grappig wilt zijn, maar niemand kan er om lachen, verwijder dan alleen je bericht als je een excuus tweet terug plaatst.
kansloze reactie van de zou eerst even lollig gaan doen over je eigen blunders.
dit zou in niet misstaan.
in ieder geval door mannen zonder ballen.
bikeride haringvliet
de één leerde me als amateur professioneel voetballen, wat ze delen is dat het vooral erg gezellig kan en moet z…
de vraag stellen is hem beantwoorden.
ja, vrouwenvoetbal weer met mannenvoetbal vergelijken is bovendien oud nieuws.
wat een slecht staaltje journalistiek. babel heeft alleen deze kwalificatie wedstrijd gespeeld en die vraag je om een reactie
te jong overleden natuurlijk.....maar gewoon een vraag is het niet een beetje teveel aandacht voor het overlijden van een burgermeester?
al lanceren jullie nog zo snel, de amperae achterhaald ze wel 😁 via
sterk geschreven.
ik ken die voorbeelden. merendeel heeft voldoende vrije tijd. maar dan nog, ik bepaalde functies kun…
en daarom zijn zoveel mensen helemaal klaar met het europa van frans timmermans
definitief we zijn een bananenrepubliek!
idee als jeugdige criminelen eerst zelf onderzoek doen naar gevolgen van taseren? bezint eer ge begint!
vandaag staken de leraren. ik vind daar wel wat van. dat het niet kan. geen beroep met zoveel vakantie en studiedagen.
daar gaat de eerste proefrit met de nieuwe opel grandland x. vanaf vandaag in te plannen bij…
is dit wat er wordt bedoeld met de onderste steen boven?
geen woorden voor.nederlandse kamerleden die soldaten al jaren laten stikken en sjoerdsma maakt er een profilerings…
deze man moet lekker bij gaan werken ipv ons lastig vallen met zijn pogingen om serieuze politiek te…
ja zeker het voorbeeld dat militairen zelf een beter vest kopen is schrijnend.
kijk, baudet ziet er wellicht ongewoon en raar uit nu. de meeste politic…
kijk, baudet ziet er wellicht ongewoon en raar uit nu. de meeste politici zien er normaal uit maar gedragen zich on…
meneer de vlieger, niet te veeleisend. vragen aan haar om na te denken....
video training van de nieuwe over een uurtje weer up to date!
behoorlijk afgezakt....
door te bellen.....🤔
het is zover, ik ben op het punt aanbeland dat ik op zondag naar een meubelboulevard ga....
bier op wijn geeft venijn. wijn op bier geeft plezier. dat laatste is niet waar kan ik u zeggen....
hier staat voor ruim 1000 km elektrisch rijden bij elkaar amperae
👌👌👌 commandos doen aangifte tegen defensie voor ongeval schietbaan ossendrecht via
dan ben je gehecht geraakt aan je auto, als je meer dan 6 ton wegtrapt met je bmw!
bijna een feestje!🎉
onder zulke omstandigheden wil ik ook wel met een ajacied gezellig doen 😉
voer voor psychologen. de trekkende bewegingen in haar gezicht verklappen wat we al lang weten ze liegt dat ze bar…
het is een prestigestrijd deze maand, wie verkoopt de meeste autos en haalt dus een top notering. ik hou van een prestigestrijd 😊
kijk bert, zo kan het ook. gewoon kiezen voor het juiste ipv geld. via
kinderlijk eenvoudig......
verdediging met 0,0 ervaring.... het kan dooien en het kan vriezen
totaal geen verwachtingen, ook wel eens lekker om zo een wedstrijd te kijken
dit is zo verwerpelijk. de tegenstemmers hebben dus duidelijk belangen te verdedigen.
ik begrijp echt helemaal niets van vrouwen. zakelijk gaat het prima, maar privé, op mijn moeder na, is het een boek in een vreemde taal.
beste deel van de uitzending. prachtig, die nonchalante houding van je vader wat betreft de shirtjes…
vakantie voor sagan....👊
blijft lachen met oom erdo. zet maar door koerden, het moet jullie een keer gegund zijn.
waarom geen voornamen bekend gemaakt? halve informatie. politie arresteert vijf jongens na misbruik tilburgse vrouw
punt gemaakt. half jaar in gesprek om te bespreken hoe de kiezer te misleiden.
gaat voor verlaging van de het geeft maar weer eens aan hoe serieus we de politiek in nederland moeten nemen.
pernis het is al vroeg druk met het verkeer. pernis
mijn god pim, haal het eerste woord,rechtop, ook uit je profiel. je buigt vrij makkelijk nameli…
patiëntje van de tbs kliniek op proefverlof?
uppercut van jan op de vroege ochtend 👊
soms moet je geduld hebben voor je begint met het lachen om een andere club. ze noemen het ook wel een boemerang 😊
zelfs daar kun je sagan niet uitvlakken, maar mooie koers gezien vandaag!
tegen sagan kun je niets beginnen. is gewoon te sterk.
je hoopt toch ineens een oranje hemd te zien
gilbert ook kruid nog droog gehouden
laatste euro zet ik in op bauke
puntje van de stoel hoor
op weg naar nederlands goud!
niet te lezen dit soort teksten....en ik ben oprecht geïnteresseerd in diverse standpunten.
ja, maar wel heel voorspelbaar. kwestie van juiste teksten knippen en plakken…
mathijs zit nog de broeden op een reactie. ei is waarschijnlijk lente 2018 wel gelegd.
wonden likken en......doorrrrr! was toch wel lekker geweest nu, maar zonder gaat ook lukken. tot winterstop bijblijven
nou roger, wat kun jij leuk met woordjes spelen! echt heel leuk.
grote klasse chantal blaak! vrouwen halen het maximale uit
dit is misschien nog wel de minst schadelijke variant van in iets geloven. van andere varianten van gelo…
wel leuk om later tegen je kleinkinderen te vertellen, verhalen over de 3de wereldoorlog 🤔
twee stripfiguren in actie. kim jongun dreigt met zwaarste maatregelen tegen zwakzinnige trump via
nee nee nee! ik wil bellen of gebeld worden. als ik betaal moet ik aanvinken dat ik geen robot ben..... zijn jullie…
binnenkort wordt camiel ook weer op het paard gehesen. zal vast wel een plekje vrij kome…
ik vul een datum in, boek het hotel, betaal en moet vervolgens zelf naar hotel bellen om erachter te komen dat ze vol zitten. 🤔😭
de heer dijkgraaf verwoordt slechts wat een zeer groot deel vd bevolking, incl de…
het is weer tijd om me schuldig te voelen over mijn blank zijn en mijn niet islamitische achtergrond.
super enthousiast over de nieuwe grandland x die bij ons is binnengekomen.
ik vraag me wel eens af wat mij opas en omas hiervan zouden denken. zouden ze zich rot lachen of zijn ze blij dat…
waanzinnig, deze fotos van de galibier.
yo ,wel eens van fatsoen gehoord? fatsoen is de bedanken voor de eer en zo hun vergissing ongedaan maken.
wauw, wereldkampioen tijdrijden! wat een jaar voor deze klasbak. tom, ik kijk ook al met een schuin ook naar zondag😉
trek deze lijn door. makeup bij de herenkleding. lingerie bij het tuingereedschap. want je weet niet wie wa…
wie of welke instantie heeft er belang bij dat deze vervuiler gewoon zijn gang kan gaan?
misdaad loont in dit land. al ben je minister of tuigvlogger geweest, de beloning voor je gedrag volgt vanzelf.
allemaal de schuld van witte mensen 🤔 ‘meer dan veertig miljoen mensen wereldwijd gevangen als slaaf via
een die fietsen maakt is kennelijk een uitstervend gilde. derde zaak op rij die alleen dingen kan vervangen, maar niet maken.
ik vind het gênant, de amsterdamse burgemeester is nog niet eens overleden en de rouwdienst is al in volle gang.
populistische tv hoef ik niet te zien.
skippen, spijtig voor de andere gasten met wel echt een goed verhaal, maar ik ga niet naar dat treitervloggertje kijken.
gaat ook een klassieker winnen nu. van baarle verruilt cannondaledrapac definitief voor team sky via
gaap.... en alexander heeft zogenaamd het beste met ons voor. pvv is niet alles. d66 al helemaal niet.
grappig deze reactie. wel geradicaliseerde leerkracht inzetten die ons privé kan raken, maar nu speelt de school vo…
weten jullie nog wat er is gezegd toen de eerste stroom vluchtelingen op gang kwam?
en jij bent natuurlijk perfect......vandaar de anonimiteit en geen echte foto van jezelf. 😴
geacht journaille, zullen we nu ophouden met bjorn kuipers de beste scheidsrechter van nederland te noemen?
nog 10 minuten, cocu gaat er zo tegen 10 man een extra verdediger tegenaan gooien
het enige dat feyenoord moet doen om de middag van kuipers te verzieken is die gelijkmaker net voor tijd binnen schieten
berghuis of bergwijn. de één maakt 2 overtredingen, de ander 10. de één moet er af. de ander niet
dat kuipers geel geeft aan feyenoord is niet gek. dat hij inconsequent is weten we nu ook wel. doe het alleen niet zo opzichtig
rug rechten en onrecht teniet doen
waardeloze scheidsrechter. overtreding van berghuis is al 5 keer door psv begaan zonder geel
is niet het punt. voor de overtredingen die zijn gemaakt heeft feyenoord terecht kaarten ontvangen.
still counting, het aantal overtredingen dat psv mag maken van kuipers zonder een gele kaart te krijgen
kuipers is weer aan het marchanderen. geen geel voor spelers van psv?
verhoudingen zijn nu anders dan 2 à 3 jaar terug. volkomen aannemelijk dat feyenoord gaat winnen.
kratje pils voor zwinkels
gezellig volk dat samenkomt in
wat ben jij een kneus zeg. jij kan de dag niet goed doorkomen als je niet lelijke dingen via t…
wat een blindgangers! benieuwd of ze dit verstappen ook weer gaan verwijten.
het zal je vader zijn die door een dronken oostblokker wordt aangereden in zijn eigen huis. via
ik denk dat ik kleuters jans en nijhuis persoonlijk van het veld zou hoeken. hebben daar niets te zoeken
het is als een soort wedstrijdspanning, het gevoel van de laatste dag van opel.
kom op joh, zet je frustratie over je beginnende kaalheid aan de kant.
resultaat van financial fairplay
geen zorgen eus, feyenoorders kunnen zelf heel goed relativeren. hebben we geen ajacieden bij nodig. en we blijven…
even ontsnappen aan de werkelijkheid ohhh wacht, dit is ook de werkelijkheid, maar dan van het rechtssystee…
eén voordeel van een pak slaag vanavond. city speelt thuis tegen ons met het belftal en maken we wellicht wel kans
we worden geslacht.....maar we spelen tenminste vanavond
city speelt 3 tandjes hoger. harde conclusie, maar verschil in niveau is groot
verassende opstelling. zelf niet voor gekozen, maar ik laat me weer graag verassen door het technisch hart van feye…
zo jan, wat een slimme opmerking. heb jij gestudeerd?
dit is toch belangrijk nieuws. mannelijke fruitvliegjes kunnen lange tijd zonder slaap na seks via
en zo is het ebru!
dan moet er toch een behoorlijke orkaan in je hoofd woedden wil je dit soort teksten uitkramen....
over een jaartje of tien een mooie functie bij ministerie of veiligheidsdienst, geen zorgen.
jan siebelink aan het woord.ik naar wc, drinken pakken, hond uitlaten, brood smeren voor morgen. jan siebelink nog aan het woord.
eerlijk is eerlijk, mijn eerste reactie was ook cynisch naar jansen. heeft echter geen belang bij aandacht, dus waa…
triest hoor. we zakken steeds verder af. huis thierry baudet voor de tweede keer besmeurd via
kruisje bij ongeschikt achter de naam van jan smit kees jansma maakt gehakt van hem.
schandalige overtreding lozano. wordt een wedstrijdje of 4 brommen.
hilarisch deze jongen van 65. verheugd zich op elke keer dezelfde gasten en onderwerpen. zet dan een dvd met alle…
ronduit gênant dat dit soort sites met belastinggeld in leven gehouden worden.
weer een uitwedstrijd op dat klote kunstgras afgerond en 3 punten verder
40 man en lekker trommelen..... dan heb je de sfeer bij heracles wel samengevat
natuurlijk houdt ook van maar denkt suzuki nou echt dat de opel rijder ook van suzuki houdt?
lat ligt hoog bij feyenoord. concurrentie heeft zeer positief effect. knap ook dat van bronckhorst keuzes durft te maken
2 schiet kansen, 2 geweldige goals van steven berghuis
maakt een diepe buiging voor
ik ga er weer voor vandaag. verkopen, verkopen, verkopen
je kunt alleen van vakantie spreken als je werkt. anders is het gewoon trekken van een uitkering op een andere plaa…
dat dit soort mensen een podium krijgen, oké, maar stel dan echte vragen, ook minder gemakkeli…
ik hoorde het echt vanavond op interview met een linkse idioot die baudet vergelijkt met nazi duitsland.
een muis in het nauw maakt ook rare sprongen jan.
waldemar, je hebt de linkse gekte een gezicht gegeven onder bekend nederland. en daar hoef je niet trots op te zi…
ik stamel.....bizar! politie heeft amper contact met drieduizend agenten in ziektewet via
bezint eer ge begint. pas de straatnamen maar aan naar straat 1 t/m oneindig. niemand is dan een vernoeming waard.
reis geboekt naar sint maarten? nederlandse reisverzekering zegt dat wel meevalt en ziet het niet als rampgebied.
gevalletje gevoel met je achterban kwijtraken op jonge leeftijd.
nou, klasse hoor bert. schrijf nog maar een paar miljoen bij. wat jammer dat ik het je niet oprecht kan gunnen.
huis verkocht, aan een ierse vrouw die geen hypotheek af hoeft te sluiten. waarom heb ik mezelf er niet bij aangeboden? 😂😂😂
in de winterstop naar feyenoord komt dus niet in gevaar! 👊
hier ziet u wat er mis met dit land is. deze straf valt niet uit te leggen. iemand in mijn tijdlijn die het snapt?
politicus wordt je al lang niet meer voor een nalatenschap. ja, waar de rest vd familie van profiteert. via
hoe beter het geneesmiddel, hoe meer baat we erbij hebben, des te meer ze voor medicijnen vragen. 😭😠☠
de eerste zijn eus...intrigeert me. je gooit meer dan eens een wirwar aan woorden op mijn bord. en dan nu dit....
oudste beroep, respect voor oudheid, zeker in italië. 😉
nee, kleinere clubs hebben aansluiting bij de top gezocht door op kunstgras te gaan spelen. via
dit wordt een dolle dolle zaterdag.
volgend jaar van start, maar systeem is nog verre van veilig!? eerst oost europese brokkenpiloten, nu dit er bij.
allemaal waar! juiste spelers opstellen in een goed systeem wil ook wel helpen.
ook dat nog.....
rutte, natte wind, heeft hetzelfde dna als daley blind....
fosu mensah, neerlands hoop in bange dagen
op zijn rotterdams....de pleuris voor je.
typerend, daley blind laat zich als een puppy dollen door ploeggenoot pogba
scheidsrechter....wat een dramatisch slechte en gekleurde beslissing.fransen hebben ook echt dito overtredingen gemaakt zonder geel
sales meeting gehad vanavond. mensen, wij gaan toch een berg leuke en mooie opels verkopen de komende weken!
vilhena nu al 3 duels meer gewonnen dan sneijder en strootman bij elkaar in de 1ste heeft. gewoon duelkracht inbrengen
als je snijder en strootman voorbij loopt, dan kan je een bakkie koffie drinken, halen je echt niet meer in
denken dat je voetballend iets kan bereiken of iets kan verzinnen....kansloos.
dick, op kwaliteit ga je niet winnen. plan b dat plan a had moeten zijn vechtwedstrijd! breng vechters in en knokken maar
ik zie bij frankrijk durf en kwaliteit. ik zie bij nederland vooral angst en minder fitte spelers
nou hup we hebben lang genoeg gewacht. kondig ook nog aan als nieuwe speler voor de komende jaren.
knap hoor van wilco kelderman!
is dit een fake account? kan toch geen betaalde job zijn dit....
in alle opzichten ben jij een geluksvogel bram! en een markante kerel in een soms wat saai peloton.
terug van bezoek aan de smoelensmit. vulling weer op zijn plaats. ga ik nu maar eens onbedaarlijk hard fietsen.
misschien moet deze journalist eens een dag of 3 aan één stuk slapen. is goed voor zijn trump trauma. even 3 dage…
ik hoop dat mijn film wordt getoond, zegt boink. wij hopen dat ook voor jou.....zegt jinek
jezus wat een slecht interview over jesse docu mevrouw geen enkele kritische vraag. uw sidekick is u voorbij gestreefd.
peter houdt vol. valt kennelijk zwaar op de maag.
het was geen compliment, verre van.
rechts? als je gelijk een zeer discutabel boek erbij haalt, dan ben je zelf minstens zo discutabel.
al een myopel account aangemaakt?
alles dat je gezicht bedekt is een verbetering henk 😉
wij hebben de eerste auto ter aflevering staan. bent u in afwachting van levering?
dit zijn de mensen die staan voor een betere wereld.....ik zoek mijn eigen wereld dan wel uit.
mijn mensenkennis zegt dat het helemaal goed komt met cheick.
honderd keer gezien, toch weer kijken
hup weer een knieblessure door dat klote kunstgras
pssst....van plan om een nieuwe auto te kopen? ik kan het aankondigen.
kleine man jarig, daar hoort de juiste taart bij bakker mag voor de spelling bij wijze van straf nog een…
mooi gevonden, in zak en as.... benieuwd of betrokkenheid gaat tonen.
beste henk, zijn er europa cups behaald op echt gras in het verleden denk je? neem voo…
sgravenvoeren, in de mooie voerstreek. ligt in belgië, vlakbij maastricht, maar dan heerlijk rustig. weet nog wel een hotel.
kijkende naar de selectie zeg ik dat worden 2 spitsen en een verzwaard middenveld.