vooral dat laatste ik zou ook niet weten hoe ik me moest gedragen
gordon hayward.. 1 van de smaakmakers van afgelopen seizoen. seizoen nog niet begonnen of zijn seizoen is over 😔
bij mij braken de verstandskiezen af, moest geboord worden maar niks van gevoe…
have fun schat! en je weet het, pas kotsen als je over de kop gaat 😂
dat is niet bijzonder.. ik heb zovaak met een condoom gedanst. in de hoop dat ik iemand zou scoren om te nemen 🙄😂
hopen op het volgende positieve nieuws 🙏🏼
morgen..... schijt nu al zeven kleuren
uitgenodigd worden voor een verjaardag van familie die zelf met je gebroken heeft. van fb gekickt maar mij wel via groepmessenger uitnodigen
hahahah een neef van mij had een hele dure kast gekocht via mrktplts. blijkt de kast gewoon van ikea te zijn alleen dan overgeverfd 😂😂😂😂😂
mijn speler van de week bij voetbal inside is kevin diks via
hahaha bart de graaff ♥️
via de stofzuiger
en dan vinden ze het gek dat je geïrriteerd rond loopt. 3 uur al bezig met die kk make up
2009 lijkt zich te gaan herhalen 😣
wat fijn dat daar eindelijk duidelijkheid in is gekomen door wetenschappelijk onzerzoek
dat meen je 😱
hahahahahah deze was dat idd 😂 wenkies waren zeer aanwezig ook 😭
vrouwen die kauwgom kauwen als kamelen jullie zijn niet sexy, ookal denken jullie van wel
1. michael jordan 2. dwayne wade 3. max verstappen 4. ronaldinho 5. lebron james
nog geen uur binnen en ik ben dronken 💪🏼
ja precies, aan nicolai hebben ze niks
ik dacht aan nelom
heel veel sterkte
als ik morgen ochtend via rotterdam reis, moet ik dan alsnog overstappen op snelbussen?
is er morgen weer normale dienstregeling tussen zwijndrecht &amp eindhoven. of zijn de werkzaamheden dan nog bezig?
nl dames spelen leuk voetbal
mooie aanval hoor
gisteren gevangen 🎉😂
appa is de weg een beetje kwijt
woop woop tickets voor ed sheeran zijn binnen 💃🏼💃🏼💃🏼💃🏼
af en toe heb ik echt de neiging om mn vriendin te wurgen... om haar vervolgens keihard te neuken 😂
zo amerikaans met de kisscam en al... niet cool. jammer hoor
en dan bedoel ik voor mijn jankerige collegas
stelletje kk nederlanders... klagen klagen klagen, dan weer te warm, dan weer kutweer ivm regen, dan weer te koud.
je eigen misselijk eten bij de chocolade fontijn 😍
jullie kunnen allemaal de tyfus genieten. vanaf morgen offline ✖️
zit je in de trein komen ze controleren. schiet gelijk in de stress, want kan mn pas niet vinden... logisch als je hem in je handen hebt 🙄
hahaha maar wel gewoon weer opzetten alsof er niks aan de hand is
jup volg hem al 🤗
dit was de eerste die ik hoorde van hem, ben toen gelijk naar meer gaan zoeken.
hij heeft hele sterke lines
wennen na 2 weken weer alleen te moeten slapen 😒
de bom is gebarsten 💣
vervelend hoor zon dag
van harte 🎉
een griek die hand in hand zingt omdat fey kampioen is geworden en heeft maar 3 jaar in nl gewerkt ❤️
ik heb het ondertussen al via een andere route gedaan. eer dat hun antwoord geven zit ik al op mn bestemming 😂
hallo met terry. ik wil inchecken op mijn sunweb maar ik kom er niet in? is er een storing?
er komt geen eind aan deze werkdag pfff 😅
leek goffurdugoffur wel de jostiband die binnen kwam stampen
hou er rekening mee dat je nog een brug over moet lopen manon 😂
bløf dat je dat doet
waarom ben ik niet gewoon een die hard dan van schaken geworden
snapback van het vrouwtje gekregen 😍
bedankt! houden jullie morgen rekening met de vele feyenoord supporters die met ov willen gaan? 😂🙈
never mind, bus komt net aangereden.
hoe zit het met de bussen richting rotterdam vanuit zwijndrecht? staan al 20 minuten te wachten
ik heb op michelle zwaal gestemd om haar op te krijgen in de stem ook op jouw favoriet
als je met je collega niet kan wachten op zondag, dus alvast warm gaat draaien
als je vermeer, karsdorp, el ahmadi, van beek, bilal, vilhena, hansson &amp wss toornstra weten te verlengen ben je als td zijnde goed bezig 😁
mooiste moment van heel de wedstrijd
de enige hoop die ik nog heb om er bij te zijn met de huldiging, is mn directeur. want die is ook voor feyenoord 😭😭
je ziet gewoon zn pijn, verdriet, woede &amp onmacht in zn ogen. maar toch niet willen opgeven. wat een krachtige persoonlijkheid heb je dan!
ik zal het denk ik niet kunnen
docu is nog niet begonnen of ik krijg al natte oogjes
wat nou als ze de stad afbreken? nou dan bouwen hem weer gewoon op aldus jantje boskamp 😂😂😂
ja, kreeg als antwoord. moet even kijken hoe druk het is.... normaal gesproken is dat een nee😫😫😫
ik ga echt huilen als ik er nu niet bij kan zijn
ik was 9 maar heb het niet bewust mee gemaakt. ja via tv beelden 🙄
flauw hoor 😂😂
bij het pas ontdekte amazonerif willen bp en total boren naar olie. stop ze nu het nog kan
😶
klok staat in zeist nog op wintertijd
zijn ze flauw gevallen?
schiet op
het wasrek is dus zo gevallen, dat mn wcdeur geblokkeerd wordt... je geloofd het niet
je geloofd het niet... zit ik te kakken, hoor ik iets vallen. wil ik van de plee af, kan ik er dus niet van af...
half 6 gaat de wekken houdoe! 🙋🏼
wilde de boek weer even opkomen schudden 😏
maar echt 😂😂😂
weg toekomstige baan 🙈😂😂😘
wordt 3x niks morgen 😂😂
tweet van het jaar dit. moet in leven gehouden worden
tweet is ondertussen verwijderd 😂
hahahahahahahaha te vroeg voor deze 1 april grap
😂😂😂😂 maar moest toch zijn verhaal komen doen. maar ach doe er maar niks mee
dan had pogba er maar niet tegen aan moeten springen
helemaal mee eens
elke x als ik deze zie wordt ik nog zenuwachtiger 😫
ik denk dat de eindigt in een wat denk jij?
3 uur geleden nog niet 😂
zelfs heeft nog geen antwoord gegeven
2/2 maar wel 2 paspoorten. hoe zit dat?
ik had net met stemmen 2 turkse mensen voor mij die kregen 2 stembiljetten. beide hadden ze maar 1 stempas bij 1/2
het is niet maar
ik zit in een psv huis. laat mij aub trots zijn ❤️
😂😂😂😂😂😂 is dit een hint ?
om je te pesten
is ook niet aardig om te zeggen 😕
snel slapen aangezien de boven buren om half 8 alweer aan het zagen en boren zijn 😩 fijn hoor die avond diensten
denk je normaal avond eten te kunnen eten op je werk. doet de magnetron het niet.
patricia paay is nu oprecht een golden oldie
zat me al helemaal lekker te maken. maar dat viel dus zwaar tegen
mn vriendin is gisteren geweest. toen ik thuis kwam lag ze als een blok te slapen. zal wel saai zijn of ze heeft daar wat gedaan 😜
de laatste aflevering niet kunnen zien van homeland omdat je moet werken 😩 nu wachten tot in thuis ben...
ja dat wordt neuken...
door een aanrijding met een persoon, zoals ns dat zo mooi kan zeggen, komt mn vriendin terug naar mij 🤗
heb nog nooit zoveel mensen blij zien zijn dat er een marokkaan terug naar nederland komt. 😂
hij krijgt toch geen bruikbare ballen. dus je hebt er niks aan 😂
morning sex hebben terwijl ze naar binnen willen komen om de kamer schoon te maken 😂
lucky feyenoord.... ik zal het maar vast zeggen 😜
dan gelijk op
en voel me nog beroerder dan dat ik al was 🤒🤧🤢
ik had gisteren ruzie met mn vriendin. nu luisterd ze treat you better van shawn mendez. donderstraal gelijk op 🖕🏼
volgend jaar ben ik er niet meer bij
elk jaar ga je er weer heen met de hoop dat het gezellig wordt. maar nee hoor
drank saves the day.. het maakt deze dag nog een beetje dragelijk
trouwens leuk hoor al die nieuwe emoticons. mis alleen de is vlag nog... nee niet? oké slechte grap 🤓
eindelijk de update van apple kunnen doen.. zie dat ze mijn kleur hart ook hebben toegevoegd 🖤
mijn speler van de week bij voetbal inside is steven berghuis via
drinken weet ik niet, maar een aantal van die vrouwen zou ik wel kunnen eten 😏💦
dirk kuyt uitmaken voor ouwe lul. maar ondertussen is hij fitter dan de meeste spelers van die ooievaren✋🏼
bedankt, dat moet wel lukken hoor !
laat maar! ben er al uit verkeerde instellingen foutje bedankt 😂
hoe zit het als ik vanuit zwijndrecht naar rotterdam zuid wil reizen met de trein? ik snap het niet 🙈😂
waar de tyfus fack zijn die 4 minuten blessure tijd gebleven?
daar hoop ik stiekem een beetje op.
ach de telegraf.. ze kunnen niet zeiken over rellen in manchester. dan dit maar gebruiken.
en die jas is voor mij bedoeld....
terwijl ik een jas heb gezien voor 65, die warm &amp waterdicht is
echt een types mongool die moeder van mij... gaat ze een jas halen voor €80, die niet eens water dicht is op een markt
het enige leuke moment, is als je bij de vleeswaren kwam, en mocht vragen om een stukje worst.
nieuwe ervaring voor kinderen.... ik werd godverdomme met 3 jaar in dat rekkie gepleurd. of ik nu wilde of niet
verlies liever van gae dan welke andere club
wat een dag
waarom kan je bij de dokter nou nooit eens op de afgesproken tijd langskomen 🤔
ik moet een verlanglijstje maken voor die schijnheiligman. maar ik weet niks om te vragen 🤔😫
ze wordt de nieuwe marijke helwegen
ja echt verschrikkelijk...
christus, die amanda balk is lelijk geworden 😫
weet je toevallig nog iemand die een kaartje over heeft voor zondag 🤓
iedereen is al bezig met zondag. hopelijk zijn de spelers bezig met donderdag. net zo een belangrijke wedstrijd
iemand nog een bbq plaat?? nog nooit gebruikt alleen gekeken of het werkt. €15,
even op bezoek bij mn neefje, arm ventje.. morgen als het goed is weer thuis
dan schrik je toch wel even. maar gelukkig is er niks aan de hand
credits voor gio. om aanvallend te durven wisselen
je bent een held ❤️
nu wel goed
gelikt door 2 blanke mannen. incl door mijzelf. wat drank niet kan doen met een vrouw
officiëel
ik vsjel hwn offieen hangen
tequila shotjes uit een eierdop. kan alleen in mijn huis
maarten, was de bal houdbaar of een blunder? ja die bal was houdbaar, dus een fout van mij. maar was geen blunder aldus maarten.
blind mag de kosten gaan betalen
hou toch op met dat geblaat over, we hadden een punt verdiend, door hoe we voetbalde. je hebt niet gescoord, dus je hebt niks verdiend..
sambuca doet wonderen bij een verkoudheid &amp keelpijn
ja dat zeg je goed, lovehandles. geen waterbedden
nee, maar als de kruk verdwijnt in je zitvlak, is het toch wel te ver
maar tering wat is ze lelijk en dik geworden.... de leeftijd doet sommige mensen niet goed 😂
ik zie mn crush van toen ik 13/14/15 was. ik ging altijd naar dr toe om vakantieboeken te halen, omdat ik een school opdracht had 😂
dat moment dat je stomdronken in 020 staat. en gaat wielrennen
hoe beroerd kan je je voelen 😷, maar we gaan gewoon door
ze drinkt teveel
vandaar dat manon al zoveel aan het drinken is
dan krijgt miss toch nog speelminuten
hahaha hoe trap je iemand de grond in. neem aan manon een voorbeeld
ondertussen gaat er een 020er bij rtl4 geen leuk bedrag binnen slepen
dimmen mevrouw swaan, dat runderstoofpotje zal er bij mij ook wel in gaan
ben benieuwd 😜
ik wil niet op de zaken vooruit lopen. maar ik heb vanaf maart alle weekenden vrijgehouden
en weer een clean sheet voor jones
whatskebeurt? moest kakken, heb het niet meegekregen 😔😂
willem 2 doet ook niet echt moeite om het feyenoord lastig te maken
bilal staat de laatste weken prima te spelen.
grijze gans ik hou van je ❤️
dat glas zag ik dan weer niet, maar dat verklaard een hele hoop!
je kijkt ook alsof je het heel leuk hebt daar🙈
hoe graag ik het ook zou willen, maar fey kan mijn humeur niet verpesten 🙈
er gaat langzaam iemand dood van binnen in de trein.... de tyfus wat een lucht 😩
vanwege dit plaatje ben ik dirty minded... wat zien jullie hierin?
ik tref het wel met ns zeg... van de week de ontspoorde koe op het spoor. en nu een kapotte wissel 🎉. hoog tijd dat ik mijn rijbewijs haal
wanneer je ergens mee bezig bent, en je moeder dat aan jan en alleman moet vertellen
terence wat doe je 🖕🏼🖕🏼🖕🏼😂😂😂 het is je vergeven
toen ik hem terug las dacht ik al hmm dat staat best stom😂
mijn boeren smaken naar, desperados, smirnoff, donor, knoflook &amp tostis
ik zit alvast de muziek te luisteren voor vanavond. ik ga me wel vermaken denk ik zo 😳😂😂😂😂
dronken is dot makkelijker als nutter
nee kinderverjaardag terry....
kinderverhaardag trouwens
ik vind het geweldig 😂😂😂
dronken op een minderverjaardag, ik kan dat 😇
snapchats terug kijken en beseffen hoe dronken je bent geweest 😂
je bent zelf een trap
een vent die scherp moet zijn, maar zn eigen de pleuris schrikt wanneer de supporters juichen om een doelpunt 😂😂
oja wordt 40 voor feyenoord.
was het zeker 💕, weer ouderwets ergeren aan feyenoord 😂😂
zou heel mooi zijn
ik krijg in eens allemaal notificaties binnen, ik kan die shit niet bij houden 😭 snap, app, insta, fb
sjek je epp eens
mijn speler van de week bij voetbal inside is brad jones via
5 punten los op psv hoe mooi kan het zijn
wat een redding van jones 😭🙌🏼❤️
baco heeft ook nog geen fout gemaakt
volhouden nu 🙈
wat een held ❤️
wat een goal van henderson
als ze zondag maar weer met beide beentjes op de grond staan
zullen nog wel 5 á 6 min bij komen
nu wel even gefocust blijven
het is en blijft united he
en klaar
hahahah kuyt houdt woord aan met de hand op het hoofd 😂
eng vind ik nog wel meevallen &amp tatts heb ik er genoeg 😁
hahah ja in de trein tref in altijd kortzichtige oudjes tegen 😅
zit al half uur in de trein. ze doet dr best... maar een zak had een betere oplossing geweest
overkomt me zo vaak in de trein...
je kunt hier zitten, dan ga ik wel naast die andere zitten. nee deze heeft tattoos.. joh sterf lekker uitgedroogde rimpelsaurus.
het wordt er echt niet beter op hoor popje 😘
patat halen zonder geld, alleen ik krijg dat voor elkaar
alles in het engels, man man man.. nog best lastig 😅
onderweg naar 020 🛫✈️🛬 engeland
wanneer je je vrouwtje &amp dochter laat zitten omdat je zo graag naar feyenoord wil. sorry maar dan ben je toch echt verkeerd bezig
hahahah voorspelbaar 🙈😂
nu allemaal lopen janken omdat de scheids 1 goal afkeurt in mijn ogen terecht. genoeg andere kansen gehad om te scoren.
laat me raden, zwart?
ik vind helemaal mooi
als het weer niet mee zit, zorg dan voor een goede bui 🤓
ja daar liep ik mij ook druk over te maken, tot ik dit dus hoorde
jaren lang in 1 team met hem gespeeld bizar zeg
30 fucking jaar en niet meer te genezen
jezus dan krijg je het bericht dat een oud teamgenoot van je nier kanker heeft &amp 3 uitzaaiingen in zijn hoofd....
dit gaat te ver volgens mensen. maar iemand zijn profeet beledigen wordt als satire weggezet.
bier!!!
meisjes van 13 die een broek aan hebben waarvan de broekspijpen nog korter zijn als die van mijn boxer....
dit moet een slang voorstellen. ik vind het eerder op een zaadcel lijken
bingo wekt agressie bij mij op
23 jaar gewoond, wat een kut dorp was dat zeg
slechte herinneringen er aan 😅
neefje terug gebracht bij zn moeder en ik ben even door langs het huis gelopen waar ik ben geboren en ben groot gebracht
vandaar dat ie zo klein is 🤔... god als ik loyaal blijf krijg ik dan elk jaar een centimeter terug?
eerst in het centrum van zwijndrecht &amp nu in de stad van dordrecht... toeval bestaat niet ✋🏼
maar dan echt. ze volgen me 😫
ik wordt al 2 dagen lang gestalkt door 16/17 jarige meisjes
naja dan komen we naar varkenoord ja of dat jong nu wilt of niet 😂
als ik mn neefje op tijd heb ken in wel langskomen
na een lange dag werken in deze hitte, is deze zin best uhm raar 😅😂, maar neem aan dat je varkenoord bedoeld?9
geen dank 😘
dat is nog zacht uitgedrukt 😅 ik moest even langs de kant gaan zitten
dat moment dat je op de fiets zit &amp van de zadel komt door een drempel en dan vol op je zak terecht komt 😩😫
trouwens er is belachelijk dat je als staatsburger moet betalen voor je id
ik snap homos niet 🤔
leuk hoor dat rad van fortuin weer terug is. vind alleen het geluidje bloed irritant wanneer ze moeten draaien.
heeft er iemand een kaartje over voor de gele zijde voor aanstaande zaterdag?
voor mij geen slingers aan de wand van andre hazes ❤️ ♫
nee joh, moet wel spannend blijven
hey neusjes zo doe je dat. slecht spelen en toch de winst pakken 🤗#herfey
terry kijkt ook eens naar de olympische spelen
gefaald 🙈😂😂😂
nu de dwaallichten uit eindhoven nog even punten verspelen
jammer genoeg blijven er van die hersenloze tussen zitten
uitslag had hoger mogen zijn. maar 6 uit 2 en 70 doelsaldo. prima start door trekken die kar
kap nou eens met die vuurwerk geluiden 😑
wanneer je beseft dat je beter kon gaan slapen 😫😫😫
ik dacht precies het zelfde 😂
zal eens kijken thnx! 😊
die hebben we ook nog, ben benieuwd of kromo het weer waar kan gaan maken
thanks, nachtje doorhalen dus 😁
hoe laat is schippers aan de beurt?
gelijk die camera onder je neus. laat dr ff op adem komen jezus 😅😂
jaa! hahah had het eigenlijk pas volgend jaar verwacht als ik er 5 jaar werk😂. maar mag niet klagen
ik kreeg vandaag even een brief van de directeur in de handen geschoven, met het bericht dat ik 300€ salaris verhoging krijg. ik ben blij 🤗
een armeen die zijn arm breekt, dan is de grap al snel gemaakt 😅
echt niet
nee die was de scheids niet 😇
ik ga weer slapen zon wedstrijdje met 40 gr koort hakt er aardig in 🤒
maar ben nog steeds sceptisch.
een goed begin is het halve werk 😌
100 miljoen, om koeien te leren grazen honderd fucking miljoen
2016... koeien die een coach nodig hebben om te leren grazen.
is dit de voor of achterkant? help me out 😅😂
heeey, mn buurtjes hebben hun kamasutra boekje weer gevonden. het kraakt en beukt en kreunt weer lekker in het portiek
je was geweldig 🙌🏼 en ik wil je muts/hoed👌🏼🐼 big rivers 2016
hahahahaha 😩 + van die vieze haartjes erbij 🙈😂
het is onsmakelijk, maar toch ook grappig 😂😂😂
ik vind je profoto niet zo leuk.... het lijkt alsof je op het punt staat om uit een puni te kruipen 😫😅😭
niet zo heel gek dat de server er uit ligt
geen enkele server doet het meer, en dat alles door nl 😂
ik heb voor het eerst een eend zien niezen 🙌🏼😂
weeeeekend 🤓
weet je wat mij het meest frustreert aan sommige mensen die pokemon go spelen. ze hebben nooit geen fuck om pokemon gegeven. 😒
niks aan de hand, die gene zag een pokemon op het veld lopen en wilde hem vangen
zo ken ik rosberg weer... altijd de schuld van de ander nooit ben jij de schuldige.. mafkees
heeerlijk einde 😁😂
als de banden nu maar heel blijven 🙈
even een rode vlag ofzo 😊
ik zeg, op naar de coolsingel!!!💃🏼
2 mensen die te laat voor hun afspraak komen, en ik ben ruim op tijd. en wie mag er weer eens wachten 🙋🏼
is van de noordpool verdreven. teken en maak van de noordpool een permanent beschermd gebied!
ik word gewoon gediscrimineerd vanwege mijn kale kop 😡😜
ze zouden jullie moeten controleren ipv mij 😡😠😤😇