het zou wel mooi passen in een rijtje met koningsdag en bevrijdingsdag. een nationale feestdag
mooi dat er geen clubs met zijn uitgeschakeld in europa......... oh spelen die nooit europees
7 oktober 2135 een in nederland. toch maar even in de agenda zetten, anders vergeet ik het misschien.
wat een talent, heeft zelfs zwarte voetbalschoenen
opgebaarde vrouw bestolen bij inbraak in deventer hoe diep kun je zinken
een timmerman die geen hamer kan kopen, kan niet timmeren. een voetbalclub die geen grasveld kan kope…
weet nog niet of ik hier blij mee ben
apeldoornse profvoetballer zoekt club via linkedin
geen nacht zo donker of het wordt weer licht
dat zijn de echte
is er al een reactie van sjaak swart?
als je leest hoeveel zetels de diverse fractieleiders denken te halen, zitten ze straks met 300 in de 2e kamer
ben benieuwd of ze een bus vol krijgen. guram kashia heel arnhem moet naar de kuip
hoeveel geld heeft de provincie nu eigenlijk in vitesse gestopt? wat krijgen
dat zal een recordaantal toeschouwers trekken om 0150u op tv vandaag veronica jupiler league
,kan er maar één zijn , op zeker
en heeft zich al weer afgescheiden
de vraag stellen is hem beantwoorden
dat is billenkoek
ik neem aan dat de werknemers volgens de traditie, dit uit de krant moesten vernemen
800 mensen op supportersdag van vitesse we wilden dit evenement op een intieme manier organiseren aldus een woordvoerder. wat een gelul!
geldt meer voor supporters dan voor spelers. pröpper, jurjus, van de pavert, vermeij?
van harte gefeliciteerd, met jullie dochter en zusje. zuinig zijn op de zijwieltjes.
zou wel leuk zijn als ierland nog een keer scoorde
die hoeft volgend jaar de kampioenschaal niet aan uit te komen reiken. stuur maar per post
turkije helemaal van het matje gespeeld, zal dus zo wel scoren.
agendapunt 1 van de volgende rvc vergadering spelers van voetballen op zwarte schoenen en op echt gras.
geen woord over de wedstrijden en wel een ruim hele pagina over barcelona
heb ik iets gemist? australië op het eurovisiesongfestival?
boeren en superboeren verklaren elkaar de liefde
ook sjaak swart doet mee met het initiatief via
dat is sjoerd weikamp
de bloemen voor frank de boer blijven in doetinchem
van harte gefeliciteerd, nu jij nog
zwarte kicksen met ingebouwde automatische schijnbeweging, en ze spelen ajax helemaal zoek
de graafschap wint de grote vistadiontest
fans de graafschap de boer, stel acht spelers op
was mijn nu voorlaatste bezoek kom op zeker nu sneller terug. nogmaals bedankt
zuivere speeltijd van een voetbalwedstrijd is ongeveer 55 minuten. voorbeschouwing op duurt een uur.
verwarde man in hoogspanningsmast eindhoven. verliest van gaal, gaat hij direct weer rare dingen doen
kitesurfer vs waait de weg op en raakt zwaargewond
zal eens kijken of er een langzamere frituurpan is van zeg 120 minuten. kunnen we in ieder geval de vorige dag doornemen
knrm elburg redt bootspringer op veluwemeer uit ondiep water
zondagmiddag gedeeld tweede
herman den blijker uit zee gevist door reddingsmaatschappij
en nog zonder steunwieltjes
griekenland probeert plannen woensdag in te dienen via wedden dat het niet lukt
oppositie ongerust over aivd en politie
messi beste speler van het toernooi. jaja, en blatter is niet corrupt
van harte gefeliciteerd en vanzelfsprekend houkelien ook gefeliciteerd
is dat werken op je laatste dag?
nu alle limburgse clubs in de competitie van dat belgisch biermerk spelen, kunnen we die hele provincie wel aan de belgen overdoen
vermiste visser wilde vriendin opzoeken via
grote zoekactie vermiste visser waddenzee
twee surfers uit noordzee gehaald na bizarre zoektocht
“@rubentebrake lodenboontje komt op zijn loontje vrouw juwelier doodt overvallers /via lintje voor mevrouw
wereldleiders plassen samen 159 liter
anco jansen 6 weken aan de kant wegens knieblessure.
doetinchems bouwbedrijf goldewijk failliet
is dit alleen voor jou, of moet je delen
ja hoor. eind van de week wordt er vorst verwacht. het gezeur over de begint weer.
duizenden bij nagespeelde veldslag in de steeg bevat video
van harte gefeliciteerd. alles moet wijken voor
dinsdag moet ik dan niet naar het toilet gaan, of er de hele dag op blijven zitten.
als boodschappen doen een vrije dag.😄
bakwand defect, inmiddels gerepareerd door hewigo winterswijk. morgen weer patatekes bakken
teletekst meld opnieuw puntverlies willem ii slechts een paar jaar geleden had er gestaan laat punten liggen.
van harte
zie net de bus met de winnaars van morgenavond de amsterdam arena uitrijden. voor alle duidelijkheid ac milan
restaurant beat bij naar peter gabriel
zojuist voor de 3e keer deze week hardgelopen omdat het zo gezond is. als dat waar is, heb ik tot nu een uitermate gezond leven geleid.
had je op school maar een beetje op moeten letten
gewoon borden volgen
idee voor gelezen op voetbalclub wil met strippers meer publiek lokken
kijk dat is nederlands
neem aan dat die onbenullig grote voeten van gert zijn en niet van ellis
niet hahaha is een serieuze zaak, maar dat schijnt behalve ik niemand zich te realiseren
wordt tijd dat clubs een vuist maken tegen dit soort waardeloze figuren
zojuist besloten pas volgend jaar weer naar de te gaan
moandag noa de 4e zondag van augustus, fietse uut t stof, bande opgepomp. nog effe mentaal veurbereide en dan noar brumm veur de
er schijnt een heel draaiboek te zijn wat jij op een dag doet en waar je bent, en hierop worden de stoplichten enz. geregeld
ze doen het erom
jij hebt het niet zo makkelijk als iedereen denkt, blijkt wel😂😃
op toch veel vakantiefiles op franse en zwitserse wegen
na 3 weken de lange broek weer aan. past nog
vanaf dinsdag geopend, zal extra inkopen en de pindasaus extra dik maken
wat als zegt je prestaties zijn minder als verwacht, we gaan je salaris naar beneden bijstellen.
doodziek van over het paard getilde voetballers die ziek worden omdat het niet loopt zoals zij willen.
met de ipad op het toilet
ja, 10 personen aan 1 tafel
volgens mij nu bonje over de tafelschikking krijg mij hier nog niet weg
zit in bergerac op terras. naast ons zit een stel met een weddingplanner hun bruiloft te bespreken. man kijkt nu al wat ben ik begonnen
zie dat je lidmaatschap rvc echt serieus neemt. tot 3.37 uur met de club bezig.
weer dolfijntje geboren in harderwijk ook dat nog
gelezen op olifantje 65 kilo geboren in blijdorp
wat is daar mis mee
vanuit frankrijk gefeliciteerd met je benoeming in de rvc. laat een frissere wind waaien als er momenteel hier waait
nu echt vakantie. 1 zakdoek en 1 onderbroek per week.
laatste loodjes
reddingsbrigade in moeilijkheden
hoera van theo en mara, maak er een fijne dag van
had ik op school maar een beetje opgelet.
helaas koelvitrine defect, spul was 27gr. alles weg kunnen gooien. zaak gesloten en wachten op monteur. hopenlijk morgen.
1 glas voor zon poer .tegen de tijd dat alles klaar is ben jij alcoholist
gelezen op harde wind zorgt voor veel werk knrm@olaftompot
gezocht weekendmedewerker vanaf 16 jaar. werktijden van 17.00 tot 20.00 uur cafetaria de stunt hogendorplaan 53 doetinchem. please rt
toldijk
10.00 uur kun je geen nachtrust meer noemen
maar ik heb lekker de appelkruimelkoeken meegenomen lekkerpuh
is er niemand om koffie voor mij te zetten.
nieuw of al eens gestoomd bij
“@olaftompot voorbereidingen voor het nieuwe seizoen. filmpje van de knrm lifeguard selectiedag ”
johan vlemmix op de voorpagina. kan het blad al niet meer serieus nemen.
wij hadden vroeger taal en rekenen
ze zeurt wel een beetje, zondag wordt het 21gr. zal wel weer te warm voor je zijn😃
ik vermoedde al zo iets. als jullie zeggen gezellig met mijn moeder naar de stad, kost dat de moeder geld
dikmaker, kan ik beter eten, bij mij maakt het toch niet uit
je hebt toch wel gevraagd naar de ware reden.
tuurlijk haal je dat, voor jou
gelezen op wilders wil juni btwvrij. dat kan maar dan de andere 11 maanden wildersvrij
“@olaftompot bij de ijsselhoeve in doesburg krijg je je kinderen in een urn mee naar huis ”
niet dus
wat in hemelsnaam is nlt
studio sport kijken, net uitgezonden
“@flitsers let op! flitser op de hmp 122.1 veenendaal &ampgt arnhem volg alle a12 flitsers op ”
oh jullie waren geschminkt als zwarte piet, want die liepen wel voorop
zag zojuist cpc loop in studio sport, echter niemand van de fam. wassink bij de eersten
oordopje in, poot op het gas, blik op oneindig, verstand op nul, goede reis
ben er extra vroeg voor opgestaan om de eerste te zijn. van harte gefeliciteerd met je verjaardag
eigen schuld ik had je toestemming gegeven de school te laten vallen. maar als jij dan bang bent voor een leerplichtambtenaar
een penalty naast of overschieten heet in belgië buiten het kader plaatsen. klinkt toch een stuk sympatieker.
jullie doen 10 maart city pier city, geen zorgen heb vandaag village pier gedaan. stelt geen reet voor. morgen pier village
zondagmorgen 7.00 uur werken, het lot van de kleine ondernemer. had op school toch maar een beetje opgelet. sterkte
toch wel dat maskertje van gisteren afgedaan
het valt mij op dat de berichtgeving over sneller door wordt doorgegeven als door
je kon er op wachten
meldt zich ziek bij de fred rutten meldt zich ziek bij vite$$e.
hij mag af
zie theodebrouwer.nl
heeft een tekort van 2 à 3 ton. gelukkig is de veldverwarming nog steeds kapot. scheelt weer stookkosten.
door alle inspanning is mijn suikerspiegel ernstig gezakt, zodat ik eerst minimaal 24 uur rust nodig heb. het spijt me
sneeuw geruimd
vlgs mij is het uur om, dus je mag nu stoppen. fijn weekend😃
nog 7 nachtjes slapen, dan komt er weer een normale voetbalverslagen
viel hetmee?
dus niet op de zuigelingen?
pelle net getekend, nu al op bank tegen agovv
alvast bedankt
je wordt ouder papa
natuurlijk weet ik niets van liedjes ik ben bijna 60
wat een zelfkennis
wilde zojuist vakantie voor 2013 boeken. zelfde huis en periode als dit jaar. prijsverhoging ruim 40%.
gelezen op knrm woedend na kritiek op reddingsactie bultrug
“@olaftompot afgestudeerdedierenarts maakte foute inschatting met bultrug op texel. tuchtcommissie doet meteen uitspraak bul terug!
grasmat bevroren, veldverwarming buiten werking.
alles is goed, ik moest er ook wel een beetje om lachen wat een loser
20.30, poging overval snackbar van hogendorpln. dader gevlucht ri zuivelweg. zwart gekleed, sl postuur. geen eigen actie.”
doetinchem poging overval snackbar van hogendorpln. dader gevlucht ri zuivelweg. zwart gekleed, sl postuur. geen eigen actie.
vandat snappen had ik je van te vorenwel kunnen zeggen
sinterklaas is het land uit, dat betekent niet dat je straffeloos mag jokken hoor😃😀😜
toen dacht je er over om het bed uit te gaan😃
en dan nog tis 2 uur
wat weekend kijk eens op de kalender
proost ik zo aan de wiskey
onbekenden hebben in zutphen een container met ongeveer 15.000 kilo ” respect naast politiebureau
van rijn
je bent al begonnen met redelijk op tijd op te staan
dan ga je vast deze week gebruiken om extra hard te studeren voor het volgende tentamen😰😊
gelezen op hiddink fans de graafschap moeten zich diep schamen
beloften verliezen met 70 van volendam.
lekker buurtje nieuws feestje loopt uit de hand in ”
waar is mijn ijskrabber?
dagje blijdorp geweest nu voeten op tafel. pap is op
vaders houd je zonen thuis heeft haar rijbewijs. gefeliciteerd🚘
of koekenbakkers
tuurlijk wel, die docenten zijn toch allemaal koekebakkers.
pieter huistra ziet stijgende lijn bij . wanneer al die stijgende lijnen waar zijn, speelt gra in 2015 champions league
van harte gefeliciteerd
wel netjes binnen de lijnen kleuren hoor
zoveel és duurder, das een 2e hypotheek
dat is dus het verschil op de havo had je les, nu heb je college, klinkt een stuk duurder voor hetzelfde werk
die moet je toch niet als strafwerk maken omdat je gezakt bent?😉
overigens de wesp oefende rugslag
zit in restaurant met een wesp in mijn wijn. vraag aan de bediening om een ander glas wijn. vraagt de muts zal ik hem er even uitvissen
is toch wel een ferrari, met minder zou ok geen genoegen nemen
zo vroeg, heb je in bed gepast?😉
gelezen op jan smit, lange frans en lid 3js korte tijd in franse cel helaas ook al weer vrijgelaten
ook zo😃
even bloedprikken
houden zo met die
en boven de vaatwasser is het nog warmer pfffff
wat een voorrecht is het toch om met dit weer in een snackbar te werken. 34gr
smoesjes ik weet zeker dat je bij jullie nog prima achter het huis kunt zitten
toch wel buiten hè, fijn dat je weer thuis bent, nu snel weer helemaal beter worden😃😄
gefeliciteerd met je verjaardag, fijne dag
grapje, blij dat je alweer kunt twitteren, beterschap. trouwens wel een rigoureuze maatregel, om niet te hoeven behangen😃😄😉
pas maar op ik heb ergens gelezen dat je het van deze kleur aan de blindedarm kunt krijgen.
al die lui die medailles en bloemen uitreiken. de corruptie straalt ze uit de ogen
hij is fijn
😄😃😉
misschien, als ik morgen wakker word is het pas 31 juli en heb ik nog een week.
pardon is zeker goedemiddag
na een reis van 13 uur weer thuis
drank is op, dus we kunnen moeten morgen naar huis volgende week patat bakken
zie
“@telegraaf stoffelijke resten voorburg ”
onderzoek in de voorburg ”
zijn die grote van jou
geen zon?😠
tweehonderd meter vlinderslag wat een strijd, geweldig spannend
helemaal mee eens
ben niet van de herenliefde voor pindasausmetliefde langs sturen
hele berg of alleen de laatste 3 meter
te lang in de zon, krijg nieuw behangetje
gelezen op wie heeft nu het grootste probleem
het valt me op dat al die landen die democratisch in de naam hebben staan, niet zo democratisch zijn.
het begint te rommelen.#knappenmott
een poterie is dat een winkel van of voor homos?
ik maak een eind aan deze stomme tweets, en ga brood halen
eigenlijk niet maar weet wel dat een ezel op een weidepaal zit en niet op een telefoonpaal
drie avonden een uil op fotoafstand zien zitten. nu fototoestel in aanslag
wordt niet wat als je na 20 min al terug bent
ik heb de bonen afgehaald. wat zullen we weer lekker eten
buiten 35gr, binnen 23gr.
het valt ook niet mee.
van harte gefeliciteerd met je verjaardag. maak er een mooie dag van
de bbq brandt weer
bbq vol met vlees. zij ik mag toch geen varkensvlees. ik gelukkig wel en is er nog stokbrood.
medicijnen wegspoelen met vin rouge
peper en zout vergeten. supermarkt 10 km. rijden.
dank je wel, je bent mooi op tijd opgestaan.
had het inmiddels begrepen.
2e dag vakantie. weer wordt al beter.
1e vakantiedag zit er op. kan niet zeggen dat ik van het weer heb genoten.
regen. dank zij mijn onovertroffen luiheid ben ik niet op een fietsvakantie.
ik dacht laat ik maar eens vroeg opstaan, want ik heb
gelezen op drie kinderen uit zee gered bij egmond aan zee
het is nu 7.30 uur en de zon schijnt. wanneer je niet had je er ook van kunnen genieten
waar?
wie van jullie is nu de cheffin?
voorzitter ross ik houd van de zo ken ik er nog wel een paar, maar dat maakt hen ook nog geen goede voorzitter
s ochtends om 8.00 uur de aan
wrijf het er maar in
ik dacht spanje gaat moeilijk krijgen tegen italië. heb dus
nederland wint wereldkampioenschap winnen van duitsland, engeland, griekenland en ierland.
ned. uitgeschakeld. kunnen we het weer over de echt belangrijke dingen van het leven hebben.
gefeliciteerd
mijn glazen bol zegt cum laude
en toch wordt het morgen gewoon weer licht
fijn toch kun je je moeder een deel van het geld voor de renovatie van je kamer terugbetalen.
jij gekocht en mama betaald toch.
gemeentefeestje van 2,5 miljoen. haagse sp was aanwezig maar heeft uit protest geen voet op de rode loper gezet.
van tomaten is ontrafeld. kan gelukkig weer rustig slapen.
eerste rijles van 3,5 uur geleden begonnen. nog geen verdere berichten. is dit met stuur onder arm aan de kant?
volgens mij cum laude. fijne vakantie
de beuk drin
laatste lootjes zet m op
je zou engels studeren zegt die oma
weet ik veel?
toevallig deze oma?
joan franka zong met haar hart. zingen doe je toch met je stem.
dat ik dit nog mee mag maken in en
toch knap, één uur voorbeschouwen over een wedstrijd die nergens om gaat.
kom op niet zeuren, alles komt goed.
gisteren gedegradeerd. toch is het vanmorgen weer licht geworden.
veel succes
vlgs rtlz is er een verband tussen reizen en een dikke buik. moet ik dan toch verhuizen?
hoe kun je zo jokken?
wanneer ajax 2x verliest, en wint 2x met 120 dan is fnoord alsnog landskampioen.
de stand is weer zoals die hoort te zijn, alleen plaats 1 en 2 dient nog omgedraaid.
goede column in
bijen moeten ijzer eten. hoef ik niet meer zon fles limonadesiroop op tafel te zetten, maar een magneet.
spanning eredivisie is nu in handen van dus gewoon 3 punten meenemen uit amsterdam.
moet er nog gebak in de koeling?
dank, is weer aan de praat.
defect. wordt fris in huis. morgen monteur bellen
en cholesterolverlagers eten.
gele, rode, blauwe, en oranje voetbalschoenen. het wachten is op paars gras.
messiachtige beweging van poepon. in het land der blinden......
tot vandaag verloor nog nooit een thuisclub 9 wedstrijden achter elkaar. is de eerste. niet op zijn.
halve nacht in de disco hangen, en dan zo vroeg opstaan. dat heet karakter. s avonds grote meid s morgens grote meid
fleur geen rekening gehouden met zomertijd??
zo vroeg opgestaan
twente won de laatste 4 wedstrijden tegen in niet. is dat een voordeel of een nadeel?????
“@degraafschap samenvatting rkc waalwijk de graafschap video ” alsof iemand hier behoefte aan heeft
vereniging nederlandse gemeenten geeft feestje voor bestuurders. kosten €795 pp. hoezo
3 punten in de pocket
amsterdam arena scoort hoog in tevredenheidsonderzoek bij oranjesupporters omdat er een dak op zit en de parkeerplaats in de buurt is 1/2
2/2 laten zich natregenen en lijden kou.
in nederland het beste in europa. gelukkig van dit soort nutteloze onderzoeken krijg ik hoofdpijn.
vreest levenslange tbs. kosten hiervan € 500 pd. is toch balkenendenorm. dwangarbeid met een ijzeren kogel aan de voet lijkt beter
je maakt een vrij uitgebluste indruk.
graafschap b1 verliest thuis graafschap a1 verliest thuis, gelukkig speelt 1 een uitwedstrijd
mooi vakantiehuis gezien bij topic travel!
2 paginas in ad over een speler die zijn shirt uittrekt tijdens voetbalwedstrijd. commentaar van psycholoog en psychiater
koeman heeft gesprek met guidetti geschrapt, omdat de aanvaller precies weet wat hij heeft fout gedaan.
oorzaak slechte thuisbalans komt doordat het sfeer maken door publiek tijdens thuiswedstrijden heeft stilgelegen 1/2
2/2 en worden dan weg gecounterd. aldus rogier meijer in ad.
slechte thuisbalans komt door publiek. door hun geschreeuw om aanvallend voetbal, gaan wij uit de organisatie lopen. 1/2
“@degraafschap fans msv duisburg bewonderen sfeer bij de graafschap ” heb liever dat ze komen voor het voetbal