vallende bladerenloop 2017. 9km in 44.15. niet helemaal tevreden mee…
yes, als een usain bolt over utrecht cs gesprint, blijkt ie ook nog te wachten! thanks
is er een mogelijkheid dat spr utrht 00.29 2min wacht zodat reizigers uit rtd hem ook kunnen halen of kan ik dat aan hc vragen
lekker lezen in de gouda…
vandaag mocht ik mijn ophalen
chill dagje naar geweest
de die maakte, stopt. wat een fantastische loopbaan met een geweldige bekroning daarop…
genoten bij de 1/4 marathon van rotterdam. weer, sfeer en parcours…
hey ,wat is dit voor een grap? alle 12 paaltjes buiten dienst op oosterflank
een pijnlijke knie weerhield mij van een tijd onder de 1.45, maar…
een juridisch beleidsinstrumentnieuwe wet wordt door de eu gebruikt om consument te beschermen.
om antikartelbeleid te handhaven haalt de ec een economisch beleidsinstrument uit de toolbox
merkel als vrouwelijke hitler, symbolische framing om een gezamenlijke opponent te hebben
hoe een turkse krant een antieu frame probeert te creëren.
jaaa, zin in
een exante evaluatie van het effect van zelfrijdend vervoer op de rol van buschauffeurs
en met deze superleuke roep ik iedereen op om…
ik wens iedereen een gezegend 2017 toe happy new year! culemborg
maar bij de horloges is een foutje gemaakt
vanmiddag genoten tijdens de en een mooie tijd…
jaaa, gister geïnstalleerd tot lid van de nsr oudledenvereniging…
op naar de lage land
wat een heerlijke wedstrijd
2 mooie avonden gehad op
hoi, weten jullie misschien waarvandaan de nsbus van utrecht ri geldermalsen vertrekt om 0029. jaarbeurszijde?
als hij de schijf geeft sla je met de dam en blijf je de vangstelling houden.
jaaaaa, geslaagd voor mijn vwo!!!
tssss. duitsland 2.0
jalalalalalalalalala cupfighters
wat een heerlijk weer om een rondje te lopen! jammer dat de benen niet meewerkten
culemborg city run 28 maart 2016. 10 km in 46.45 minuten. hevige tegenwind op de dijk2x 2…
vanavond live the meegemaakt in was erg vet om mee te maken eemplein
de grootste nederlandse voetballer aller tijden is overleden. rip johan cruijff
botteghiiiinnnn, uit een corner nog wel
proost! op een fantastisch 2016! happy new year!
zo. genoeg gedamd voor dit jaar. vandaag bij het gezellige oudjaarstoernooi in heerhugowaard 11 uit 15 gescoord
enig idee of de trein van 23.55 van utrecht ri tiel rijdt? storingsbericht zegt van niet maar reisplanner zegt van wel
in bij het wereldkampioenschap dammen hotel ten cate
vandaag meegedaan aan het met 9 uit 9 22ste van de wereld geworden
de ene trein mist een conducteur, de volgende mist een machinist. gaat lekker wel een leuke dag gehad in
32 minuten, 04, wat een wedstrijd
vies weer, maar wel een lekkere kwclooop gelopen. 1ste in een mooie tijd van 13.10 min. op ca. 3 km
vandaag met school naar de in geweest
sinds vandaag heb ik weer een
fantastische tijdrit van belooft nog een spannend slot van de te worden
jajajaja, hij gaat hem pakken hoor
vanmiddag in bij de
lekker gelopen in noordeloos bij de loop naar de pomp. 4 km in 17.14 minuut
aan promes heb je dus echt helemaal niks. je hebt een echte spits nodig, van persie of de jong
dag frankrijk, dag ek
immers eruit, elia erin, zou ik voor willen stellen
de nieuwe single van imagine dragons is echt geweldig via
vandaag in amsterdam wezen kijken bij het nk atletiek op de foto de finale van de 100…
jordy wat een held
ah, jammer. 350 meter te ver
jordy bedankt
ja, gesink! gaan
kathedraal van gniezno
riddergevechten in het kasteel in nidzica, waar ook het damtoernooi wordt gehouden
onderweg naar
jawel. een waaieretappe
en vandaag de renners begroet in leidsche rijn
vandaag in bij geweest. we hadden een leuke plek op 225…
doe ook mee met de tour de france poule op en klik op deze link
zeker lekker. dit was wat ik me afvroeg, door die sms was ik even in de war. bedankt voor het antwoord!
...en 50 belminuten per opwaardering daar dan ook bij? 2/2
dit heb ik gedaan, ik heb een sms teruggekregen dat ik vanaf nu altijd 50% korting heb, maar zit de 200mb, 100 sms...1/2
via de site kan ik die optie namelijk niet selecteren 2/2
hoi, kunnen jullie mij misschien helpen hoe ik mijn prepaidtariefplan wijzig naar 200 mb, 100 sms en 50 belminuten 1/2
dan moet ik eerlijk opbiechten dat ik da vinci code niet heb gelezen. maar tot nu toe is het een goed boek, leest als een trein
lekker buiten genieten van de ,de en een goed boek
goedemorgen, kunnen jullie mij misschien helpen hoe ik mijn prepaidtariefplan wijzig naar 200 mb, 100 sms en 50 belminuten
zo. toetsweek zit erop. volgende week nog 1 herkansing, pwstweedaagse en op naar vwo6
doe ook mee met de tour de france poule op en klik op deze link
vanavond ter gelegenheid van met papa naar de film geweest in de fransche school,…
schijnt dus rond te zijn met zal een goede zet zijn van van geel
bedankt, jullie ook
dat hebben jullie goed geraden. ik ga meedoen
ik neem aan dat dat een retorische vraag is
laatste lesje . eten
ronddeelloop ging prima vanavond. 6 km in 28.46 minuut
7de van nederland bij het nk sneldammen junioren
jammer, in de 90ste minuut 10 voor wel meer dan verdiend
die chinese spits is nog slechter dan mitchel te vrede. mensenkinderen, wat een kans
en dan nu van afstand schieten. die keeper pakt geen bal meer
zometeen gezellig met mijn zusje kijken
ik had het zo gegund. ook. erg jammer dat deze 2 legendes afscheid nemen zonder clzege.
jaaaa, eindelijk
moet een strafschop krijgen, maar krijgt hem niet. in de counter scoort ,jammer
heerlijke champions league finale tot nu toe
eindelijk
fantastische treinreis gehad afgelopen week met een minstens even zo leuke groep. in zijn we…
supporters op het veld bij de winnaar van het fair play klassement, ergens klopt het niet
en nog een halfuurtje
heerenveen is bang, nu al minuten aan het tijdrekken, hopen dat dit goed in de gaten houdt.
zojuist gehoord afstandsschot van afstand tsjah....
durft in zijn 2de wedstrijd al te doen wat rutten het hele seizoen niet durfde, spelers uit vorm vervangen!
was supervet gisteren, nu onderweg terug naar huis na een fantastisch mooie
wenen vandaag
zo meteen is het dan eindelijk zover. op treinreis naar münchen, wenen, boedapest, warschau en berlijn.
op naar de playoffs 10
het wordt nog spannend!!! 😅
superblij met mijn nieuwe laptop!
net terug van was supertof
nu bevrijdingsdefilé kijken en zo zelf naar
ja, ik weet jullie te vinden. bedankt
ik twijfel nog, en wil sowieso nog elders kijken, voor de introductie hoefden jullie sws nog niet op mij te rekenen, ik zit in vwo 5
ik vond het een leuke, interessante dag, en het gaf een duidelijk beeld over de studie
onderweg naar nijmegen. proefstudeerdag bestuurskunde
vanavond lekker ontspannen getraind. 4x 600 climaxloop. nu voetbal kijken
lekker genieten van de zon tijdens maw
zo. lekker stukje gelopen vanmiddag. niet snel, maar wel ver
gezellig ijsje eten met liekevreugdenhil in de stad
uit verveling kijken, maar ook alleen maar omdat het over gaat
nergens, zie eerdere tweet
vanmiddag op de laatste meters van de city run 🏃
vandaag met papa, mama en liekevreugdenhil naar het geweest. was gezellig.
zo. toetsweek achter de rug, nu genieten van een ruime week paasvakantie
3/8 nog 3 dagen doorbijten, en dan een korte paasvakantie
vandaag was de eerste dag van de halve finale junioren. met 2 uit 3 een teleurstellende dag voor mij, maar niettemin zijn er nog kansen
hee tijn, cool man dat je nu ook twitter hebt snap je de woordgrap
vanavond naar de film michiel de ruyter geweest. hele toffe film over nederlands grootste zeeheld…
onduidelijke rode kaart voor vraagtekens bij de kaart voor morgen de beelden maar terugkijken. nu eerst slapen
en ja... hele seizoen aan lopen ergeren, maar op het moment dat te vrede erin staat, mis je hem toch
overigens zelden, zo niet nooit een slechtere scheidsrechter gezien dan deze franse clown
ondanks alles toch een mooie en gezellige avond gehad in de kuip
11 fantastisch resultaat. volgende week in een kolkende kuip er over heen knallen
goed nieuws op de vrijdagavond dirk waarschijnlijk terug naar
exact dit. rt@half3redactie steeds als je het gevoel hebt dat stappen heeft gemaakt en er nu écht aankomt, struikelen ze
vandaag in de provinciale competitie zelf weer eens gewonnen. denk en zet won ook. 84 tegen malden 1
ziek, zwak en misselijk de toetsweek overleefd. nu afwachten wat de resultaten zullen zijn.
bizar. hopen op een goede afloop
weten ze zeker dat het vorige week maandag was, en niet vandaag
90 minuten lang heer en meester. en toch 00
yesyesyesyes. kaartjes voor feyenoord as roma zijn besteld
gezochte terreurverdachte belgië zat thuis met enkelband iets met een belgenmop,maar dan echt.tsjah.
zodadelijk is de meentcross. 3 km crossen bij de meent. met mijn fantastische voorbereiding van x aantal weken rust moet het wel goed komen😑
oudjaarsdag, dus bakken
remise gespeeld tegen ton bij de tussenstand 251
hier gaat het zo dan gebeuren, van ton .…
zei mario been in de voorbeschouwing niet dat az geen snelheid voorin had???
kazimmmmmmm 12 come on. nu doorgaan
01 tegen de verhoudingen in én buitenspel....
02 daar deed kazim toch nog iets goed
hoe groot moet je de kansen hebben
heerlijke vrije trap 01
breaking news colin kazimrichards heeft zojuist gescoord
wat heerlijk wakker worden dit
memorabel europa league avondje gehad
naar de geweest. nieuw transformatie
wordt een lekkere morgen
vandaag met papa en liisannnnee naar de james tentoonstelling in de was erg…
zaterdag crossen in daarom vandaag getraind in een modderige
geen paniek mensen, anno 2014 kan ook de nummer 3 in de kwalificatiegroep zich nog plaatsen voor het ek
quincy promes. tsjah, als hij oranje moet redden weet je wel hoe laat het is
guus gaat naar huus
ik zal in het weekend wel ff kijken
mooie avond gehad gisteren in de kuip
fredje , fredje, we worden kampioen, aldus het uitvak in deventer. 03
vorige uur in het kwc uur voor het eerst gehad. was opzich wel leuk
tsjah... feyenoord zou niet zijn als het 3 dagen na een fantastische wedstrijd tegen ajax zou verliezen van de go ahead eagles
feyenoord verdiende een gelijkspel?? feyenoord verdiende een overwinning
soms is voetbal niet eerlijk
hoe. kan. dit? 2x de lat in 3 minuten. 1 vrije trap tegen 01
wat. een. drama
vanmiddag 3de van nederland geworden bij het categorie b. en nu lekker relaxed voetbal kijken
in utrecht voor het nk rapid
dat wordt weinig slapen de komende nachten, lijkt me wel mooi om een keer te zien
2 punten verloren
opmerkelijk keepersnieuws tussen en volgens ben nu wel nieuwsgierig. ??
we hadden het slechter kunnen treffen
het was slecht, heel slecht. het was spannend, heel spannend. maar vanavond was het resultaat het…
jalalalalalalala jalala jalalalalalalala 20 schaken
voor wie het gemist heeft, de grap gaat hierover belgische legervoertuigen botsen bij valkenswaard via
ken je die grap van de belgen die nederland binnenvielen? ze botsten op elkaar waardoor de invasie mislukte.
vanavond moet het gebeuren. op naar de europa league
weer eens kijken op mijn laptop. manchester city liverpool.
ongelooflijk heer en meester en toch verliezen
dat paste helaas niet in 140 tekens, dus vandaar
gisteravond teruggekomen uit zuidlimburg, gezellige 10 dagen op de camping gehad, en een goed toernooi in brunssum gespeeld
zojuist een foto geplaatst
op naar school, rapport ophalen
en zo goed als zeker over naar vwo 5
vanavond eindelijk
hup voor wie ben jij?
geen zorgen voor de dag van morgen, of naja, beetje dan
terug van was gezellig
toch leuk als je denkt je laptop een paar dagen kwijt te zijn, maar hem meteen weer mee kan nemen
daar gaan we dan, laptop wegbrengen zodat de accu gemaakt kan worden
jaja, terug op twitter, de vraag is voor hoelang??
je zou bijna medelijden krijgen met psv
lekkere loting zeg
dank u sinterklaasje
heerlijke middag gehad in de kuip, psv werd helemaal weggespeeld
zo naar de kuip
en wat is daar grappig aan?
nou ik niet in ieder geval, het maakt mij niks uit wat ze in de cl doen, dus wie dan wel?
piqué we speelden een verschrikkelijke eerste helft. dit kan niet. gewoon verschrikkelijk
ik wel maar maakt dat wat uit dan. ik zeg alleen maar dat barcelona slecht speelde.
ajax is ineens weer een miljoen supporters rijker.
maar wat was barcelona slécht, zeg
komt ajaks goed weg
en daar gaat ajaks goede eerste helft
tsjah, de ene week speel je de koploper helemaal zoek, de volgende week verlies je bij de nummer 17
zelf weer gewonnen in de provinciale, helaas als team met 57 verloren
al weer tijdje terug van de beroepen en studie markt, was wel interessant
wat een fantastische wedstrijd, wel jammer dat portugal wint
de zelfrijdende auto komt steeds dichterbij daar kun je een hele hoop woordgrappen mee bedenken
en verliest 2 punten. wel gespeeld
wauw, wat een aanval, helaas geen goal
dan heeft straks 1punt uit de laatste 4 eredivisiewedstrijden
wat een heerlijk weer, zeg
nog 1 toets, engels zodadelijk, daarna weekend
appelpop was geweldig
zo 2 uurtjes school, daarna kapper en vanavond
nederland geplaatst voor wk 2014
ahahahahahahaha. speler van real madrid.........c
nou. dat werd tijd ook 01
nu 2de helft kijken
maarrrrr dit hebben we dus allemaal aan louis van gaal te danken, of dit dan weer niet
tsjah, mooie goal hoor maar als die esten nu met zijn allen voor de goal gaan liggen kom je er niet meer door, zeker als je zo slecht speelt
gaan we nog voetballen???
die zat er lekker in
groot optimisme bij barcelona
daar had best een pingel mogen krijgen
dus#bmi verkopen,#bakkal transfervrij ophalen in rusland en verhuren aan
dan staat de komende 2 weken dus sowieso bovenaan
rt groots en sportief gebaar van cambuur. een heel punt gunnen aan het jarige psv. respect, hoor.
rt weetje | psv heeft aan de knvb gevraagd of ze op de dag van het 100 jarig bestaan een makkelijkere tegenstander mochten..
wat een wedstrijd
bereid is zonder t, spellingsniveau is wel héél laag
de vrij wederom een lesje effectiviteit
volgend jaar beter.
ook in de laatste minuten van de wedstrijd blijft het legioen de spelers op hartstochtelijke wijze steunen.
vorig jaar tegen kiev lagen we er ook uit door een gebrek aan effectiviteit
over en sluiten.
2de helft net zo starten als de 1ste, snel de 21 maken en dan doordrukken, alles of niets
die kansen moeten er natuurlijk wel in gaan, anders wordt het hem niet
nu gaat het zwaar worden, maar niet onmogelijk
rt de kuip is klaar voor hopelijk een zinderende europa cup avond!
nu luisteren, ik gok op 31
dat wordt na de winter met zijn allen naar de europa league
volgende keer als ik 4 km heb hardgelopen, ga ik de volgende dag niet bijna 40 km fietsen
net zo makkelijk!
klopt, daar is geld niet voor dus worden een aantal talenten bij excelsior gestald. zelfde effect maar goedkoper
ajax,twente en psv met 2 teams dus kunnen die 2 wedstrijden op 1 dag spelenen verliezen psv is daar nu mee bezig
nee want feyenoord speelt maar met 1 team in het betaalde voetbal.
zozo, zou psv dan voor een denk ik zorgen door op 1 dag 2 wedstrijden in het betaalde voetbal te verliezen
maar ik denk nog wel steeds dat feyenoord gaat winnen 12
okee, die 04 die ik op facebook bij feyenoord matchmaster heb ingevuld was waarschijnlijk iets té optimistisch
meneer . . mag ik een hervakantie
feyenoord dus weer benadeeld door arbiter en daardoor verloren. als de knvb niet antifeyenoord hadden we al 6 punten gehad
totaal geen penalty. kon mijn hond zelfs zien!
het
niet onsportief maar logisch, liesveld heeft feyenoord keihard genaait met 2 onterechte rode kaarten en 2 onterechte penaltys
geen commentaar
“@eredivisiememes hoe gaat het eigenlijk met fc twente in de champions.... europa lea... laat maar..”
niks aan de hand joh, verradertje castaignos stelt zich aan,feyenoord wordt keihard genaaid door oudfeyenoorders en door de scheids
nu bijna naar brunssum
124 van de 125 fotos geüpload facebook loopt vast, start facebook opnieuw op, 0 geüpload. achja, fotos komen later wel. goodnight
wat was uiteindelijk je score?
was superleuke open dag
vandaag open dag
naar school, rapport ophalen
de kuip met een extra ring ziet er indrukwekkend uit! foto via
sjongejongejonge vies hoor ik zou zeggen diskwalificatie
nu naar gorinchem, kloksimultaan tegen piet trapman sr.
boeken inleveren
zooo, het heeft even geduurd maar al mn boeken zijn goed geordendm nu slapen, morgen om 11 uur wekker en dan boeken inleveren
robin haase weet precies hoe ik me op dit moment voel
straat verderop wordt asociaal feestje gevierd, best goeie muziek hoor, maar ik kan daardoor niet slapen en mijn wekker gaat al om 0845 uur
dat was niet de bedoeling....
pauzeaardrijkskundewiskundevakantieen zeilweek
pauzeaardrijkskundewiskundevakantie
laadt zomervakantie 2013 25 uur resterend
als er wordt besloten dat de kuip mag blijven als feyenoord bij de eerste 2 eindigdt en de groepsfase van de el halen
eindelijk af, dan is het nu time
zo dadelijk maar eens beginnen aan het allerlaatste huiswerk voor dit schooljaar, ff een filmverslag afmaken
kuuuuuuuutzooi, 3.8 voor engels repetitie waarvan ik dacht dat ie goed ging
is een rotterdammer, zo is te zien aan het hoesje van mobiel 010 isnt just a code
kuyt is sws een meerwaarde, is nog een goede speler, en kan nog belangrijk zijn als mentor van jonge spelers
gerucht | feyenoord zou zich gemeld hebben bij het turkse fenerbahçe omtrent kuyt.
zo naar station en dan naar utrecht
nu ff hardlopen, vanmiddag naar utrecht, spullen kopen voor zeilweek
ah joh, dat was toch een penalty
alexander georgiev prolongeert wereldtitel.
zei je nou amy winehouse??? het is amy macdonald
gefeliciteerd met je verjaardag!!
vanmiddag definitief ingeschreven voor brunssum, zomervakantie begint vorm te krijgen
woooooww, zinderende eerste barragepartij
tussenuurtje
engels repetitie ging wel goed, hopelijk ook een goed cijfer
motivatieloos
wwwoooowwww 9.6 voor economie repetitie
op de een of andere manier ineens een wond onder mn voer, fijn nu ik over 15 minuten op de atletiekbaan sta om te gaan hardlopen
wiskunde repetitie was makkelijk
“@ikbenchristen god is trouw. gisteren, vandaag en morgen.