u draait de zaken om, vind ik. kolen lijken steeds minder toekomst te hebben. havenbedrijf moet daar…
haast is geboden, want het contract van de emo loopt in 2018 af.
heey kijk, de verlenging van het leasecontract van kolenboer emo heeft nu ook nos gehaald &gt
en 3 havenbedrijf is de logische partij om de verantwoordelijkheid voor het eeuwenlang opslaan van die co2 te dragen, want overheidsbedrijf
2 er liggen na de dood van road nog steeds honderden miljoenen aan internationale subsidies klaar voor een rotterdams ccsproject.
ik vind dat om meerdere redenen wel verstandig 1 de haven is n logische plek voor ccs. veel industrie dicht opeen, lege gasvelden vlakbij
havenbedrijf rotterdam gaat zélf een grootschalig ccsproject optuigen
wie heeft die verplichtingen? waar zijn ze vastgelegd?
gaaf. het emocontract staat binnenkort bij de tweede kamer op de agenda, als onderdeel van het debat over de natio…
ik ben ooit bij een kickboksgala in de escape geweest, waar bangbang ging vechten om aandacht te vragen v…
ha karen. kan ik je hierover via dm een paar vragen stellen?
noem me ijdel, maar ik ben hier dus wel trots op.
ik heb er een weeklang alle gemeenteraadsleden voor uit hun herfstreces moeten bellen, maar het resultaat is er.…
meerderheid rotterdamse gemeenteraad kritisch over contractverlenging kolenboer
morgen weer een nieuwtje inzake het leasecontract van emo. volg mijn dossier en je blijft automatisch op de hoogte
ik kon enkel nog aaaaaah!!! naar mijn computer schreeuwen bij die column van blij dat iemand een meer inho…
laat maar, is reeds gelukt.
hoi sven. ik zou je graag even per dm een vraag stellen. zou je me even willen volgen daarvoor?
dit nog, trouwens. of de steenkoolbedrijven wat minder hun best mogen doen voor lokale gemeenschappen, nu het zo sl…
co2 komt niet in het rapport voor. carbon evenmin. pollution slechts in relatie tot waterkwaliteit.
ik ctrlfde dit rapport over betere steenkool op het woordje climate. het enige resultaat...…
yung rasfriet
goed verhaal wel, over de kans op superstormen door opwarming zeewater in nederland. via
terecht.
zeg maar wie kan je wanneer hoe verantwoordelijk houden, en met welke consequenties?
ik zou wel een verhaal willen lezen over wat er nou precies gewonnen wordt met die klimaatwet. hoe werkt zoiets juridisch?
mee eens. goed verhaal, maar irritante kop, temeer omdat de suggestie gewekt wordt dat helemaal niet…
ook &amp kritisch over leasecontract
regeerakkoord vóór 2030 alle kolencentrales dicht. emo tot minimaal 2043 kolenhandel in 010. ¯\ツ/¯
regeerakkoord vóór 2030 alle kolencentrales dicht. dan ben je toch getikt als je een kolenoverslagb…
juist de vraag is of verlengen met 25 jaar verstandig is. ik denk dat de gemeente zich die vraag mo…
ik denk wel dat er ruimte bestaat tussen opheffen en 25 jaar verlengen. en bij het invullen van…
waar dan? ik denk niet dat opheffen juridisch mogelijk zou zijn en dat staat dan ook niet in het stuk.
ik suggereer verstandig aandeelhouderschap, niet bedrijf opheffen of nooit meer staal.
wat ben je fundamentalistisch george. dat suggereer ik toch nergens?
alleen is het onwaarschijnlijk dat duitsland nog 25 jaar in deze mate steenkool blijft af…
het grootste steenkoolbedrijf in de rotterdamse haven wil dus nog minimaal 25 jaar lang door. tot 2043.
christenuniesgp pleit ondertussen voor een contractverlenging van 10 jaar ipv 25
mn eerste dat blijkt uit onderzoek van follow the money
blijft rotterdam tot minimaal 2043 een steenkoolhaven? via
de laatste hand aan het leggen aan een mooi verhaal over de rotterdamse haven. morgen op met onder meer de…
ik kom uit millingen. daar zeggen we vriet.
volgende week weer een spannend verhaal over de haven. dit leek me vrijdagmiddaggeschikter. 🍟
ik schreef een verhaal over rasfriet in rotterdam. friet ja. met een natte v.
rutte iii legt klimaatdoel in wet vast via
vooruitgang, waarin we slimmer rijker en gezonder werden, waard? de antwoorden daarop zijn politiek, niet wetenschappelijk.
tot waar tel je klimaatschade mee? hogere dijken, aardbevingsschade, een afstervend great barrier reef?…
het antwoord daarop is altijd politiek&ampmoreel gemotiveerd, geen zuivere wetenschap. hoe waardeer je hog…
nederland steunt de fossiele industrie met 7,6 miljard euro per jaar via
wat zijn froggies?
natuurlijk is er sprake van outsourcing. daarvan is namelijk áltijd sprake, wann…
rotterdamse economie meest vervuilende van nederland via
weer eens gebruik gemaakt van de gave tool van om dit kaartje te maken. morgen online!
nog eentje schoot me te binnen. nls, maar over voetbal en erg leuk de via
nederland lobbyde om handelsverdag ceta minder groen te maken via
wie zou dat moeten controleren? wordt zoiets elders al gedaan?
vnklimaatcentrum gaat naar rotterdam en groningen | nos
dit is nieuw voor me steden die oliebedrijven aanklagen vanwege klimaatverandering.
ha rolf, kan ik je even mailen? dm even je adres.
stown. voor het eerst dat ik hoorde hoeveel meer een podcast kan zijn dan enkel pratende mensen a…
komaan nrc, zoek dat dan effe uit.
tuurlijk, tuurlijk. maar de richting is eens te meer duidelijk co2 moet duurder, dan volgt innovatie vanzelf.
waarom ccs in noorwegen wel werkt.
harde ingrepen in haven nodig om de klimaatdoelen te halen
een biowinkel die plastic flessen water verkoopt. ik vind dat dus vreemd.
zon zinnetje. ik wordt daar dus toch verdrietig van.
die zijn niet per se duur toch? shell mikt zelfs op die rol, met gas als transitiebrandstof…
hoi pieter. wat bedoel je precies hiermee? welke kosten voor aanvullende energie zijn hoog?
mee eens, warmterotonde is een razendinteressant thema. dm je emailadres even, hier op twitter sneeuwt deze info onder
nope. dat het klimaat door menselijke uitstoot van broeikasgassen verandert, is een gegeven.
ter volledigheid
dat zou een serieuze politieke bedreiging zijn voor rotterdam, als het op minder speciale aanda…
absoluut! de rli adviseerde al om de speciale aandacht voor mainport rotterdam en schiphol los…
ik zie dat zonneenergie nodig is voor een duurzaam resultaat. interessant voor petrochemie dus, m…
even voorstellen hier ga ik de komende maanden bij onderzoek naar doen.
stuur es een linkje en nee dus, ga me op duurzaamheid &amp de haven focussen voor ftm.
ik wist dan weer niet dat jij bij het ad zat, maar nee? waarom dacht je dat?
vandaag dag 1 bij mijn openingsverhaal morgen online had 25 inhoudelijke comments. good to be back
wel tof om zo om feedback te vragen trouwens
volgens mij is te veel vliegen gevolg van te goedkoop kunnen vliegen. en de oorzaak daarvan ligt de…
vind ik wel tbh. dit gaat om bijna alle mensen. bijna alle mensen aanklagen is niet zo aardig en ik…
ook goed dat de nos dit doet trouwens.
goed dat de nos dit doet.
sterk hoor professor legt uit hoe het nou echt zit met dat verband tussen klimaatverandering en hurricane
de vvd vindt het ook heel stom voor de boze burger datie natte voeten krijgt.
peak ad. de lezer wel laten weten datie natte voeten krijgt, maar niet waarom. boze burgers en politici aan het woord, maar geen experts.
bizar eigenlijk dat de oorzaak van die toenemende plensbuien in zon verhaal niet eens genoemd wordt.
ik gun ieder zn nieuwssnack hoor, begrijp me niet verkeerd. de mijne heet fr12. maar snoep verstandig, das beter voor je onderbuik.
je ziet het ook gewoon gebeuren. baudetclicks, weet inmiddels ieder online medium. lol kattengras overigens.
overigens schreef irene costera meijer zon 10 jaar geleden al over het snacken van nieuws. is dus al een tijdje aan de gang.
over junknews. en met die hele baudet gebeurt hier in nederland precies hetzelfde.
is risico op calamiteiten bij biobased chemie per definitie kleiner?
gedaan.
maar wie had 10 jaar geleden gedacht dat gassector uberhaupt co2reductie zou bejubelen?
dat, of ze verkopen echt bizar grote bananen in jouw appie
sterk afscheidsessay over de hobbelige weg van de energietransitie
misschien al eens gevraagd wat ik kende dit stokpaardje al van je , maar hoe sta je tegenover…
ik kom er net achter. excuus. is via kadasterdata.nl, heb niet goed opgelet. bovendien hebben ze m…
jullie hebben inmiddels weer een reactie. gericht aan martijn.
ik vraag me dan dus af of armstrong hier bewust niet genoemd wordt maar dan per ongelukexpres toch een beetje…
doelgroepschrijven bij het fd
ha daar. 2 weken geleden heb ik een mailtje gestuurd met daarin een aantal issues met mijn telefoon. reageren jullie even?
nice man!
of meer specifiek gaan engie/uniper een flinke schadevergoeding krijgen, of is er een alternatieve route?
iedereen vind de kolencentrales nu dus stom &amp rotterdam wil ze weg hebben. volgende vraag hoe dan?
de grootste strategische blunder in de rotterdamse haven van de afgelopen 10 jaar
aah ja. was van meet af aan zoveel logischer geweest ook.
enige om rouwig over te zijn, is dat we 10 jaar verloren hebben aan dat kolenccshuwelijk. we hadden zoveel verder kunnen zijn.
dat denk ik ook petrochemie kan road overnemen en kolen gaan nu nog sneller richting uitgang.
wie is ze?
advies voor de rotterdamse gemeenteraad meer, maar sois.
tjaa, ze hadden co2opslag nooit aan kolencentrales moeten koppelen. das de grote fout geweest.
nee, die ligt klaar voor dit project. maar het was niet genoeg hoewel bij de bouw beloofd werd dat de co2…
wel een streek aan het havenbedrijf dan. in toekomstscenarios wordt nadrukkelij…
ja. buiten die 150 mln van het rijk, ook 180 mln van eu, 15 mln uit noorwegen, ook zoiets uit australië en…
heel benieuwd wie road nu gaat overnemen. is voor de rotterdamse haven heel belangrijk dat het er komt, links en rechts is het daarover eens
van meet af was kolencentralesccshuwelijk een brakke strategie. iedereen komt hier slechter uit gemeente, rijk, eu, klimaat &amp kolenboeren
ondanks een half miljard subsidie en jarenlang getouwtrek krijgen ze het niet voor elkaar. ccsproject loopt hierdoor fikse vertraging op.
kolenstokers op de maasvlakte gaan definitief hun co2 niet ondergronds opslaan.
zojuist gekeken. je hebt gelijk man. keihard en rutger doet dat echt briljant. thanks voor de tip
en dan ja/nee/weet niet? vraag me af hoe betrouwbaar dat is. risico op sociaal wenselijke antwoorden li…
nope, staat per nu op de lijst
oow en vraag 2 waar ik al lang mee zit weet jij of ergens onderzocht is hoeveel artikelen er per lezer…
ik vind dit altijd van die ongelofelijke cijfers. het aantal lezers wordt berekend op basis van een su…
de tering, dus dit was de reden voor de financiële problemen destijds bij het
niet dat het niet leuk is natuurlijk
beproefd recept camera op een stel authentieke rotterdammers zetten en draaien maar.
oow, en ik wil niet betweterig zijn, maar er staan 3 massive coal fired power plants.
mooi verhaal van ny times over klimaat &amp rotterdam hoor. maar 2 zinnen over co2 uit de haven is toch wel weinig.
of leukere mensen volgen natuurlijk
of formatie met cda wederom niet mogelijk of formatie met vvd wederom niet mogelijk of formatie met d66 wederom…
prachtverhaal!
groningse studenten moeten verplicht meedenken over de prstrategie van gasterra.
ja. klopt. tuurlijk. moest even het hele land over één kam scheren om de omvang van mn teleurstelling aan…
china, rusland, europa, unilever, tesla, apple, nike. je zou bijna hoopvol worden van zoveel eensgezindheid. bijna.
ik maak me dus echt fucking zorgen om trump &amp parijs. dit draadje helpt een beetje.
en ze begonnen het toernooi nog wel met een nederlaag.
wat ik zoal leerde door een opiniestuk op joop.nl te schrijven.
yes, de spieren maar weer eens opwarmen
waarom het laten klappen van de coalitie op het thema migratie de lafste politieke daad in jaren was.
beste isabelle, ik zou je graag een vraag stellen. wil je mij je emailadres even dmen?
ha ike, ik heb een vraag voor je. zou je je emailadres eens willen dmen?
leestip deze serie klimaatcolumns op hoe we in rotterdam 42 megaton co2 gaan besparen
newsflash! leon de winter kletst uit zijn nek.
hoe is dit inderdaad in vredesnaam geordend? wel tof om te lezen trouwens!
wist niet dat je dit soort recensies schreef. kan behalve deze alleen die van het smelt vinden. zijn er meer?
de rucksichtlose mensenhaat van de overheid die uit zon verhaal spreekt, is eigenlijk nog het ergst.…
en ronaldo en hij is wel verwijfd/homo/arrogant he jj van gangelen, 5 minuten geleden
ik heb fb &amp twitter laatst dus gedeïnstalleerd. het is echt bizar hoe vaak ik ze toch nog probeer te openen. vooral op de wc.
dat isie. tik in de blendle slack ties en je krijgtem.
ik ga weer freelancen! ben bezig met een paar mooie projecten &amp ik wil ook weer zelf schrijven. plus n…
vandaag afscheid genomen van mn redactie. thanks for everything &amp…
ik vond de bijbel ook al zon feministisch vrouwenblaadje geworden.
verrek, dat wist ik niet! dan waren jouw interviews vandaag dus 2x mijn favoriet
hier al de hele dag van onder de indruk. wat een verhaal!
goede vriend bewijst dat cda &amp pvv in europa het probleem orban doodzwijgen.
best schattig zeg eerlijk
ha robert. ik probeerde je te mailen, maar heb denk ik enkel verlopen mailadressen van je. mag ik je nieuwe mailadres?
ha maite. zou je me even willen volgen? ik heb een vraag voor je. tnx!
ha daar. de p doet het niet meer op mijn telefoon. bekende bug of tijd voor een nieuw scherm?
ik ben dus wel fan van deze fact heavy analyses.
^^
erben wennemars vindt dat harde kern feyenoord ajax moet helpen voor johan cruijff arena. op fr12 vinden ze van n…
vandaag bij ons op de club kwart miljoen views, vet
lol. toptweets dit dave. ga zo door
ik vond oorlog &amp vrede in een obscuur hotelletje in myanmar. mijn 1e tolstoi, sindsdien fan. maar dat bedoel je vast niet
dat zegt mn gevoel.
persoonlijk denk ik dat de vvd na strafschoppen gaat winnen tegen de pvv. de degradatiekraker vnldenk wordt verrassend 12.
mensen die de verkiezingsuitslag aan het voorspellen zijn. 24 zetels voor de vvd enneh...19 voor de sp. dan ben je wel 100% koekwaus hoor.
alleen als nodig, maar dan wel co2compensatie. hoe sta jij daar tegenover?
nog altijd relevant deze hoewel gaat veranderen!.
noord stond er jarenlang in amsterdam ook niet op.
is wel zo
vind het wel een toffe keuze eigenlijk, elsschot. een aanklacht tegen commercialisering &amp viering van hollands absurdisme.
ok. gaan we proberen.
ha thom. je hebt een dm
nepnieuws is niet het probleem, het probleem is dat het een verdienmodel heeft. dat is waar voor zon beetje alles wat stom is.
dit is hoeveel geld shell écht in duurzaamheid investeert.
podcast reve vs. buch. bizar eigenlijk dat dit zo lang achter slot en grendel heeft moeten liggen.
het klopt dus. ongelofelijk. ga je lekker amsterdam?
ik dacht ik check het even bij je, het leek wel een typefout. ongelofelijk.
cabaret op nationale televisie op oudejaarsavond. dat we niet de koning maar de hofnar het laatste woord geven.
ruim meer dan 1.500 subscribers nu, een veelvoud aan views, tientallen reacties. ik ben wel blij met die eerste eigenlijk.
verkiesbrief
wat ik nog vergeten was te zeggen we maken hem dus samen met leuk
omg dit isum! de allereerste verkiesbrief.
binnen een uur gaat onze nieuwe nieuwsbrief eruit. 1250 subscribers al. ook onze boreling ontmoeten?
jup. ben jij nou aanwezig bij zon presentatie? hoeveel journalisten komen nou op zoiets af?
verschillende kranten, maar eigenlijk maar 1 bericht natuurlijk.
dinsdag de verkiesbrief bij elkaar gebrainstormd, nu al bijna 900 subscribers. gaaf! vanmiddag komt de eerste.
met de blendle redactie gaan we tot 15 maart wekelijks de verkiesbrief maken. morgen verschijnt de eerste. laat wet…
dit. de hummer onder de fietsen.
heey moeten jullie hier niet eigenlijk gewoon aan meedoen?
vet verhaal hoor! duizend hartjes voor dit soort journalisten.
dit is toch wel heel prachtig verwoord door
haha. ik kreeg de kans wessel. dan kop ik m in ook.
heb het tweemaal gebruikt in rotterdam. een keer ook meerdere dagen. werkt prima.
hoe wilders tot het witte huis doordrong dit zijn de lijntjes tussen geert en the donald
zeggen dat sociale media geen bron was bij bepalen stemkeuze en konden inhoud herinneren ≠ geen invloed.
helemaal vreemd is dat er dan ook weer een turksturks koppel in staat.
.@zadeldankje doe er iets aan!!
ter bevordering van de leesbaarheid schrijven wij hier moeder. eigenlijk had hier ouder moeten staan. only every time
in babyopvoedartikelen valt 1 ding op hij/zij/het en moeder/vader/ouder ligt gevoelig. ieder verhaal zijn haar genderneutrale disclaimer
woah wat een verhaal! nemen we nog even mee.
hoe heeftie zich daar in vredesnaam ooit in laten lullen he. ehm winston. kokosolie. nee niet voor je haar. voor alles.
uit dat verhaal blijkt dat belgië liever wil dan nederland
en alles beter dan n opzet waarbij je punten op tweederde van het jaar moet worteltrekken &amp vermenigvuldigen met je postcode
en natuurlijk is feyenoordzulte waregem wat minder. maar das feyenoordheracles ook. plus uitwedstrijd &amp dagje naar gent
truth, mij lijkt het ook wel wat. feyenoordanderlecht lijkt me geweldig.
volgens heb ik een hippe naam!
mijne was ooit bananageel
links de datawetenschapper. rechts de journalist. samen blendle premium.
stuur me even een mailtje, dan leg ik je uit hoe wij voorkomen dat je in een filterbubbel terechtkomt
doe je wel een beetje lief voor mij en mijn team marina?
altijd als ik reve zie in een krantenartikel dan reageer ik van oew! reve! journalisten, doe er uw voordeel mee.
maar natuurlijk
interessant een 6urige werkdag kost 10% meer, maar heeft een boel voordelen. weegt dat tegen elkaar op?
kan ik de discussie ergens teruglezen? ben benieuwd waarom je het een wassen neus vindt. wilde net overstappen.
beter goed gejat... zo gaatie vanaf morgen mee.
aah joh in absolute aantallen valt het allemaal nog wel reuze mee. waar zoek je een huis?
waarin overigens het laatste woord krijgt.
hier het volkskrantartikel waarin de loftrompet over rotterdam maar weer eens afgestoken wordt
topkop. hadden jullie boven het artikel moeten zetten
heey twitter, ik moet jullie nog aan mn zoon voorstellen. hij heet jan &amp hij is heel lief &amp het gaat goed met m.
waarom je beter kan vrijen en dansen dan werken en studeren. zo wasie op 1 gekomen.
18.561.786.274 woorden werden er afgelopen jaar gelezen op blendle. leestijd 128 jaar
koop een aandeel shell en
best wel vet eigenlijk dat nu moet doen wat ik zeg. alsie klaar is met het klimaat redden ga ik m koffie laten halen.
dag ben, ik ben shells nieuwste aandeelhouder. verander de wereld stap over op duurzame energie
maar ook heeft wilders nog niet genoeg podium? moet je als krant nou ook nog interviews met hem gaan verzinnen? afijn, een boeiend stuk dus
het roep zoveel vragen op. over de staat van onze democratie als een krant zich genoodzaakt voelt dit te doen.
omdat wilders nooit vragen van beantwoordt, knutselde de krant zelf een interview in elkaar
in mei breekt de revolutie uit
het lijkt wel een aflevering van house of cards
vincent heeft gelijk.
sterke, venijnige column van over de politiek in rotterdam
jan joosten
ze doen trouwens ook een samen overstappen op normale bankactie. vink dus hier je goede voornemens af
heel gaaf. deze gasten verzamelen een kleine crowd om samen over te stappen op groene stroom. ik doe sowieso mee.
misschien iets voor
wát een verhaal van prachtig opgeschreven, persoonlijk, ontroerend. over zijn dochter in berlijn
de verjaardagskados van mn moeder. volgens haar boekhandelaar ben ik een ouwe lul.
huh? bondscoachvoetbalbond toch? hoezo spreken die met 2 monden?
we zoeken trouwens dus nog iemand
onze redacteur schreef eens op watie zoal leert en doet bij blendle. best een boel eigenlijk.
dit was de kerstborrel trouwens. je mag ook in je hoodie naar kantoor komen.
we zoeken een nieuwe redacteur. wie o wie komt dit blije team versterken?
youp leest onze blendle nieuwsbrief. dat vind ik stiekem dus tering vet.
inclusief pluim voor dan neem ik aan?
toch opvallend dat de enige is die zijn naam aan de kritiek op de spleiding durft te verbinden
de coolsingel bleef leeg. zelfs voor jou als ajaxfan moet dat geweldig zijn.
dit artikel uit heet gewoon kraantje pappie terwijl het helemaal niet gaat over
hoi. dit heeft een volume van 4 ltr. daarin vervoeren jullie 0,9 ltr vloeistof. zonde joh! groet,…
dit is een gaaf initiatief van oa en ik hoop van harte dat ze het streefbedrag ophalen. doe ook mee!
hoeveel moet het worden voordat het bindend ie?
maxima loopt de trap af om utrecht cs te openen. zon 100 toeschouwers wachten haar op utrecht…
sterkste verhaal dat ik tot dusver over dat referendum las.
wist jij dit?
tegen compromisme. voor een verbinding met 50 plus. hoe dan?
het is een kinderfeest
is t zo erg ja?
het publiek kan al jaren niet gewoon zn biertje bestellen want gewone biertjes worden er niet verkocht.…
ron voskuilen van ik hoop dat rotterdam over 5 jaar voorop loopt in de energietransitie.
en hij las er een boel.
ik zou inderdaad wel gelukkig worden van een journalist die hier achter ¯\ツ/¯ zet. o…
komt hieruit
aah top! en een app om dit lekker snel te regelen, die komt er ongetwijfeld aan?
hoi! vraagje als ik 3 autos probeer te huren, en ik bevestig er 1, annuleren jullie dan automatisch de andere 2?
opvallende reclame van de vandaag.
michel. maar punt is dat de klimaatbaas van de grootste economie op aarde wellicht sarah fucking palin wordt.
toch opvallend dat een blanke, vrijwel mannelijke babyboomtafel in amsterdamwest klaagt over journalistiek die te weinig het land in gaat
vanmiddag komen we met een speciale nieuwsbrief met de beste stukken uit de amerikaanse kranten. to try to make sense of this all.
pff zit ook nog steeds te kijken...
zou je even je emailadres willen dmen? want dit komt een beetje raar over inderdaad. niet zoals het is bedoeld.
onder meer is het grondig met je eens ik ook overigens
la cazuela spaans &amp dunya arabisch op provenierssstraat, aan de noordkant van cs.
vet. ontwerp eens een blendleshirt
dat is dus totaal het punt niet.
zo ontzettend plat als je als krant bewust de lelijkste foto van een politicus pakt die je kan vinden.
zo heerlijk, dit.
dit vind ik dus ook iritant. geef me gewoon een kans om nee tegen je reclame te zeggen.
levert nieuwe op. kijk bv naar onze gemiddelde leeftijd ca 30. dat is een heel andere lezersgroep dan de krantenabonnee.
nieuwe of ex lezers? hoe bedoel je dat?
lees dit artikel uit catenaccio hoe feyenoord het manchester united van nederland wilde worden en dat mislukte
and while were at it, dat dit in de wachtkamer van een ziekenhuis ligt is toch eigenlijk ook gewoon r…
ha leon. heb jij voor revu nooit een ode of brief oid aan dylan geschreven? zoiets staat me bij.
dat je als nieuwsmerk dit soort reclames toestaat, dat is toch eigenlijk verschrikkelijk.
doen.
doen we dat samen met ovchipkaart? in utrecht staan die door de hele stad. wel makkelijk, 1 systeem.
het moment dat je wist dat zou komen. hij is een micha k. geworden.
scoop van hoe jouw creditcarddata in rusland terechtkomen als je bij de republikeinen n trumppetje koopt
het is blendle. met een l.
.@casmudde ik wil maar zeggen ze heeft heus belangrijk onderzoek naar shariarechtbanken gedaan.
.@casmudde machteld zee gaf eerder en uitgebreidere interviews over haar onderzoek, met bizarre anekdotes.
de trumprellen volgen elkaar sneller op dan voor een mens met het blote oog waarneembaar.
ik had 6 seconden niet op twitter gekeken. en daarom had ik gemist dat trump in een softporn film heeft gespeeld.
wel toffe lui hoor, doen oprecht een boel voor jonge ondernemers in 010. is de jongerenclub van
via
dit zou iedere supermarkt moeten doen
“we moeten de revolutie beginnen voordat hij uitbreekt.” sterk interview in met