boetius lekker banken. wat een drama....
we gaan voor feyenoord vvsb !
ik vind een leuk t is moeilijk bescheiden te blijven
film over dirk en het kampioensjaar in pathè
jones de laatste tijd......
zit ook geen hond bij dat rkc
amrabat kan je na vanavond niet meer op de bank houden....
had graag die gezien als rechtsback van
zaad pot
er is niet gesproeid?
van boekel?
svensson speelt echt een hele goede wedstrijd
tampa is gaaf. daar zit ik nu vlakbij. wat ga je daar bezoeken?
ik wacht in spanning af!
.@feyenoord trekt hem vandaag over de streep... 🏆
scheids laat het aardig uit de hand lopen....
goed zelfvertrouwen van de scheidsrechter... man man man
dat dit geen rood is..... ongelofelijk....
ik heb een video toegevoegd aan een john west wit zwart officiële video
ik heb een video toegevoegd aan een rein mercha en gitano kings vakantie
ik heb een video toegevoegd aan een dirk meeldijk vier zomers lang
ik heb een video toegevoegd aan een rene schuurmans laat de zon in je hart
ik heb een video toegevoegd aan een frans duijts jij denkt maar dat je alles mag van
ik heb een video toegevoegd aan een frans duijts &amp django wagner in ons café
ik heb een video toegevoegd aan een django wagner als jij niet kiezen kan
ik heb een video toegevoegd aan een django wagner oh milena
ik heb een video toegevoegd aan een klaus veen techbeat organ
ik heb een video toegevoegd aan een klaus veen ordinary days original mix
ik heb een video toegevoegd aan een jan smit echte vrienden jan smit en gerard
ik heb een video toegevoegd aan een echte vrienden muziek is ons leven
ik heb een video toegevoegd aan een alex adio amore
ik heb een video toegevoegd aan een alex anita
ik heb een video toegevoegd aan een jeffrey heesen jij
ik heb een video toegevoegd aan een arjon oostrom pure verleiding
ik heb een video toegevoegd aan een wesley klein hey jij, hoe heet je
ik heb een video toegevoegd aan een henk dissel een bom officiele videoclip
ik heb een video toegevoegd aan een henk dissel dansen officiele videoclip
ik heb een video toegevoegd aan een henk dissel lange nacht officiele video
ik heb een video toegevoegd aan een john west jij met je mooie ogen officiële
ik heb een video toegevoegd aan een john west jouw blik
ik heb een video toegevoegd aan een wesley klein waarom dans je niet met mij
ik heb een video toegevoegd aan een nelis leeman wie denk jij wel wie ik ben dj
ik heb een video toegevoegd aan een john de bever daar in dat kleine café aan de
ik heb een video toegevoegd aan een john de bever jij krijgt die lach niet van mijn
ik heb een video toegevoegd aan een django wagner &amp peter beense vanaf vandaag
ik heb een video toegevoegd aan een peter beense laat ze maar lullen officiële
ik heb een video toegevoegd aan een stef ekkel ik heb je sleutel weggesmeten
ik heb een video toegevoegd aan een rené riva cest la vie
ik heb een video toegevoegd aan een andré hazes jr. leef officiële video
ik heb een video toegevoegd aan een john west &amp lange frans lekkerding officiële
ik heb een video toegevoegd aan een john west ft. lange frans blijf bij mij
ik heb een video toegevoegd aan een jeffrey heesen mag ik de zon laten schijnen
ik heb een video toegevoegd aan een jeffrey heesen mag ik de zon laten schijnen
ik heb een video toegevoegd aan een voel je dan niet? milan milano officiële
ik heb een video toegevoegd aan een en ik droom milan milano officiële videoclip
ik heb een video toegevoegd aan een hoe zou je doen? milan milano officiële
ik heb een video toegevoegd aan een raymon hermans fenomeen officiële videoclip
ik heb een video toegevoegd aan een raymon hermans hypnose officiële videoclip
ik heb een video toegevoegd aan een raymon hermans mn favoriet officiële
ik heb een video toegevoegd aan een raymon hermans al laat officiële videoclip
svc08 heeft gelijkgespeeld
wat een passie. wat een sfeer bij woudestein. wij zijn feyenoord!
vilhena blijft tot 2020!!!
hey menno. we zien mekaar
natrappen kluivert. we zien mekaar
hoezo mogen al die spanjaarden en italianen opeens wegwerp gebaren maken?
manschot maakt het zichzelf weer moeilijk...
waar is de organisatie?
was geen eens overtreding
higler is net zo slecht als nelom
kunnen jullie mij even volgen voor een bericht. ik heb een vraag. alvast bedankt
aardige totos man 👍
duwfout. in de rug springen/hinderen van een tegenstander tijdens een duel. terechte beslissing in mijn ogen zonder fey bril op
ken je niet maken
we staan alweer vast op de fernpass! we zien mekaar
gelul.
jeroen zoet speler van de week? wij gunnen het je van harte! gr.
fernpass grens oostenrijk een groot drama. wat is de stand van zaken?
knvb wedstrijd ✔✅
de keeper van lyon 😂
echt een bizarre ontwikkeling van janarie van der heijden. blijven geloven in jezelf. wat is hij belangrijk geworden in dit
2 woorden.... baco arie!!!!!!!
daar gaat je geld op de donderdag avond
oprecht echt blij dat eric botteghin heeft gehaald!!!
51 gewonnen. zonder gevechten 😂👏
had ik dat geluk maar wat vaker 😅
het is een kwestie van geduld......
daar staan dus ook alle neuzen dezelfde kant op!
we hebben gefaald...
mijn speler van de week bij voetbal inside is nicolai jørgensen via
lekker werken... succes allen straks!!
janssen floot zo slecht bij feyenoord willem 2 en fluit nu de derby in het noorden?!
wordt er vanavond al bekend gemaakt of de grasvelden doorgaan morgen en de bijbehorende teams? alvast bedankt
vreem idd. jullie waren wel als eerst in t uitvak. ik moest met buscombi heteren 30 minuten wachten voor die poortjes. kut geregeld
wordt veel koffie morgen ben ik bang
het vak voor m 😉
zag dat zwaai tweetje over het hoofd 😶
kan wel janken
hebben het overwicht, maar creeren niet veel.
je hebt vast beter zicht dan mij.
tegen de wand in het midden. iets boven de ingang rechterkant
ook lekker achteraan....
tyfus lange rij
verkeerde bus 😛
hoor je toevallig laat de zon in je hart
ja wij zitten in de laatste bus volgensmij...
oh je bent er nog niet?
heteren bus6 de gekste!!!!
maccie heteren vol met feyenoorders 👌 😂
file in uuuutreeeegggggg
sterk arie
wekker kwart voor 7... we zien mekaar!
we zien mekaar morgen vriend!!!!!
we kopen nog een.....
zeker! wordt nog wat morgen. heb er wel erg veel zin in! 😄
cambuur door, bizarre penaltyreeks. je hebt zeker wat gemist!!
twitter houdt je wel op de hoogte, snelle jelle!
penaltys kijken is ook leuk 😉
mooie ontwikkeling voor het nederlands voetbal
bilal live op instagram 😂. het zijn van die bijzondere dagen wanneer zelfs kazim aandachtige kijker is.
is een kratje bier ook voldoende 😉
engels lees en luister examen. altijd leuk
rt, ik hoef er niks meer aan toe te voegen!
maaaaar, gelukkig ben ik niet de enige die het idee van arie goed vond 😊
ons voetbalteam was nog opzoek naar een wisselvallige linksback dus dat moet goedkomen! morgen ff martin bellen 😂😂
wat doe jij op twitter ouwe gek
die hadden ze toch achtergelaten in het wonderschone marbella? 😉
el ahmadi. we zien mekaar! tot die tijd gewoon lekker baco arie op het middenveld doen met kuyt en toornstra😇
gezellig! op naar de overwinning 🍻
we hebben er zin in!
eindelijk optijd slapen. we zien mekaar!
maandag... de slechtste dag van de week 😑
muntthee doet wonderen na zon koud ritje naar huis.
heereveen vandaag was van hetzelfde niveau als ed janssen gisteren
eindelijk klaar. het werd tijd
idd. ik heb ook soms last van een vervelende scooter die niet aan wilt. zo herken ik mezelf ook wanneer je uit bed wilt komen 😂😂
tis wat he, en dat allemaal voor je diploma 😜
das wel beter. gelukkig ben ik morgen eerste 2 uur vrij 🤗
pauze. het werd tijd
haha jaa ik heb al 4 jaar een sk op vak w. het spel was niet sprankelend.... en jij?
weer veel te lekker. helaas moet je dan daarna wel de hele dag werken.. 😧
de pils smaakt nog prima
ben benieuwd naar het middenveld. het gaat een lastige klus worden. tot donderdag 😉
proost op de 3 punten. en op ed janssen ook uiteraard 😉
laat de zon in je hart ~ ed janssen
een buitenspeler van vitesse heeft net rood gepakt dus die is er niet bij. maar we moeten het daar ook gewoon zelf doen 💪
ik hoop dat het donderdag beter is. kan eindelijk weer eens mee met een uitwedstrijd haha
ik meld mij graag aan als opvolger van ed janssen
ed janssen en zijn grensrechter met pensioen. we zien mekaar!
stroef kut veld bij roda jc
bezit zelf ook een uitkaart. dus snap niet helemaal het probleem. ruimte zat voor een uitzondering lijkt mij. maar bedankt
ik neem de kaart graag van je over als dit mogelijk is. zelfde probleem. vaders heeft een kaart en ik niet...
anderson wat een beest.... hij plukt wel veel aan zijn shirt.
wat hebbie besteld
extra kaarten lijkt mij de beste optie. met jodan boys kon het ook
zitten altijd wel provocerende supporters helaas. en anders is het wel de politie.
hoop op extra kaarten voor het uitvak!! wordt anders chaos op de thuisvakken met losse kaarten
kom maar door met die extra kaarten!!!!
hoelaat begint loting
de enige echte!
mijn speler van de week bij voetbal inside is janarie van der heijden
livestream ligt eruit helaas......
waar kan je badr hari rico verhoeven kijken als je geen ziggo hebt?...... struggles
steun je club in goede tijden maar vooral slechte tijden. of koop geen kaartje. genoeg echte die wel willen.
heb trouwens geen goed woord over voor de mensen die al in de 70e minuut naar huis gingen.
mooi! ik weet genoeg. thnx!
is de tram vanavond ook gratis voor feyenoorders?
luuk de jong doet weer huilie huilie bij de arbitrage
had wel rood mogen zijn voor moreno
luuk de jong doet weer huilie huilie op de arbitrage. droeftoeter
maar even serieus. elia, nelom en karsdorp. een offday kun je het niet noemen zo slecht was het.....
rustig blijven he. we zien mekaar
site is nog steeds slecht. fijn als straks mijn gewenste producten er niet meer zijn.
jammer dat de paarse scheidsrechtershirts er al lang niet meer zijn
site van kan black friday niet aan 😂
via wat kijken jullie? rtl7 of fox?
utrecht away is ook een feit
nog gefeliciteerd!
achja als we maar winnen vanavond 😉
hij kan echt goed voetballen. spat er helaas voor ons en voor hem nog steeds niet af. begon goed met oefenwedstrijd southampton!
zo gaat die nooit ze kans pakken helaas.....
wanneer komt er weer nieuwe voorraad van de scheidsrechterskleding van 2016?
mogge dagjes mensen in de kuip...
tapia aardige warming up met zijn goals
baco arie gaat scoren!
stijl naar beneden of bochten
lekker je muil houden tegen mij
gelukkig vinden jullie dat ook!!
geen eens kans gehad om kaartje voor nec aan te klikken 😂😂
als en nou eens slim zijn geven ze ons dat 2e uitvak erbij om problemen te voorkomen.…
nog steeds vaste klant bij de burger king zo te zien...
daarom. blind was sowieso al niet meer serieus te nemen
een toekomst voorspelling p
als feyenoord kampioen kan worden zal het elke uitwedstrijd gedoe zijn, maar dan met honderden meer als we geen groter uitvak krijgen.
als we botteghin toch niet hadden had het al 30 gestaan
wat een mogool die emenike
nee want turpin fluit psv
volgens mij pakt feyenoorder elia de balletjes....
slechte nieuws lezer zeg om 2300 bij . lijkt net of die gezopen heeft man man man
janarie van der heijden man of the match
ja ik ook. ik had al een mail gestuurd en het zou veranderd worden. volg nu nog de so3 cursus
sowieso geen bijlow. speelde gisteren al
daar ben ik t zeker mee eens. in de kuip zag het er niet uit maar heel hinderlijk was t niet.
sparta doet komen wij uit rotterdam....
we zijn vergeten feyenoord on fire te zingen!
ik viel 3 rijen naar beneden.
hoe is het gegaan in de stad?
ga janken
terecht doelpunt afgekeurd... zucht
het is nog steeds niet goed. wanbeleid.
psv feyenoord uitverkocht. 1600 man naar eindhoven en ik heb geen kaart. kutzooi
3 kaarten op vak r!!!
heeft al een storing?
word gek eh
wanbeleid. kut systeem. nog steeds geen topsportklimaat 👏
bedankt he! nu geen goede kaarten meer voor feyenoord!
heb thuis kpn uberhaupt geen eerlijke kans gehad om iets te kunnen reserveren. wanbeleid
begin oktober pas nieuwe informatie....
als united de thuisvakken niet uitverkocht krijgt. krijgt feyenoord een extra uitvak. united gaat er wel vanuit dat het uitverkocht raakt.
is verrot van binnen. bizar
beste . bij deze solliciteer ik voor de baan van dhr. b. van oostveen. u kunt hiervoor contact opnemen met mijn secretaresse. mvg.
en een europees ticket in een vol stadion d
als we hier nou ook een schaal voor kregen...
polletjes kapen was nog nooit zo makkelijk geweest! haha
gaan we weer? d
baco arie viel goed in
gelukkig nog niet door netten een wedstrijdje aanschouwen
daarom. maar ik had zelf als scheidsrechter ook een pingel gegeven. schaarbeweging. rode kaart overdreven
nou deze was wel terecht maarja
mogge schaarbeweging
en peter bosz die is de klos nananananaaaaaa
rustig jij he
feyenoord de tyfus! kijk liever de wedstrijden in een kroeg dan door 10 meter hoge netten heen.
jullie zijn niks zonder ons!!!!
de bal ligt nu bij ons. ben benieuwd zaterdag.
hehe eindelijk
bizarre gedachtes voor een prof
heb ik de verkeerde wedstrijd gekeken?
mooizo! op naar zaterdag!
vermeij jood
feyenoord onwaardig
rustig he maat. met grabbelende jones is niks zeker
mot nog een doelpuntje bij hoor
prima aanval
wordt het zo nog 44
hoezo gelijk shoutouts ipv verlenging. klopt helemaal niks van de sport
goede scheidsrechters bij hockey finale vrouwen. mag ook gezegd worden
waar feyenoord is... zijn wij 👊
hahaha mooie dingen. gaat helemaal goedkomen als er genoeg zo fanatiek zijn als ons
heb zelf op 4 verschillende apparaten gestemd. haha
beter dan die neus
helaas gatenkaas achterin bij bij het tegendoelpunt.
oke bedankt! hou ons maar op de hoogte met je verslag haha.
in wat voor situatie? dom balverlies bij eigen doel?
die zitten er altijd tussen.
ik floot niet uit maar hij viel bizar slecht in helaas
is ziyech al gevonden?
henk grol. held voor de camera. eerlijk en oprecht! een echte prof
wat zijn de tarieven in de vakantie voor een dagje zwemmen + sauna/wellness. staat op de site niet vermeld. alvast bedankt
naar vorige week zondag
ja das waar. moet ook zeggen dat vandaag ook echt alles lukte haha!
brad jones ook top. man met ervaring wat die ook uitstraalt. beter dan pär hansson.
ohja de man van glas. had altijd wat. woudenberg een verademing aan de linkerkant met combinaties. lekker laten staan.
dat was ook zon pippo hé. gelukkig hebben we nu jørgensen. zit nog niet helemaal in zijn element, maar dat komt wel goed!
ben alleen oktober 2011 ff kwijt. was dat die 60 nederlaag?
jammer! het was overigens mijn 2e awayday na jcs in 020. ondanks dat tyfus end een prima awayday!
gelukkig ghehe. zat je ook in t uitvak?
das zeker waar. keek alleen even vanuit mijn arbitrale ogen haha. heb gelukkig een mooie wedstrijd gezien
heerlijke awayday gehad. wat een sfeer. kameraden bedankt!
. politie is ook flink aanwezig
feyenoord, feyenoord, wat gaan we doen vandaag?
mis dat dominante wat davy pröpper heeft bij bijvoorbeeld een speler als marko vejinovic
morgen vroeg naar groningen!
blije feyenoorders in 3... 2... 1..
heeft brad jones voluit kunnen trainen vandaag?
helaas! gelukkig wel kaartjes voor groningen uit? bij welke wedstrijden maken silvercards wel kans?
goed gedaan man!
, supporter van fairplay... maar wat er bij toornstra gebeurde door willems was.....?
schande dit . bizar slecht niveau scheidsrechters
1e trein rijdt nu in breukelen utrecht
hoe ligt de grasmat erbij?
2e trein is aangekomen op het station bij de kuip. 1e trein gaat vertrekken
eerste trein moet nog vertrekken. staan nog zoveel mensen te wachten
zo naar de kuip voor de treincombi naar 020
gaat al fout bij de stad waar deze meneer werkt
belachelijk. zulke gebeurtenissen in een voorbereiding. goed gehandeld allard 💪
tim van doorn
kun jij aan beaton vragen op tv waar hij toch zijn motivatie vandaan haalt. wat hem toch prikkelt in moeilijke periodes!!
haha! vlakbij mij
beste martin. zie graag mijn vorige tweet. ik neem genoegen met een jaar contrant en een salaris van 2.5 ton.
beste jullie kunnen mij contracteren als keeper. ik raak nooit geblesseerd en pak af en toe een redelijk balletje uit de hoek.
solliciteerbijfeyenoord@ericgudde.nl
droeftoeters die portugezen
thanks vriend het was een gezellige middag
wat dan?
prima awayday gehad in rijnsburg! jorgenson gaat een hele belangrijke speler worden bij
keeperstrainer geworden bij onder andere mijn club voorschoten97. daar trainen we samen
pakketje binnen! bedankt voor de extra artikelen!! volgende keer weer bij jullie.
ik vrees dat nooit zijn oude top niveau meer gaat halen na zijn blessure.. vaak gebeurd bij keepers