mijn sjaal trok de aandacht natuurlijk! 😎🍻
en of het gezellig was!
lekker laten gaan.
zijn alle feyenoord bnners dood? hoor er zo weinig van. engnekken.
uitvak was vandaag weer aardig dood.
tussenjaar? vorig jaar was een tussenjaar. drie overwinningen in de laatste dertien wedstrijden !. geen woorden v…
thuis. wat een week. wat een geweldige trip. op naar manchester!
bijna thuis na een 19 uur durende reis vanuit charkov.
omgeroepen worden op het vliegveld omdat je nog flessen vodka aan het kopen bent.
geen klacht indienen omdat het waarschijnlijk geen nut heeft? zo veranderd er niks..
ja zeg dat wel, ondanks dat wel leuke dagen gehad?
nog een taxi gevonden na de wedstrijd? de taxi die jullie aanhielden waar er nog 2 in konden zijn wij…
drie uur wachten op het vliegveld van kiev, waar het bier weer goed smaakt.
helaas waren de wedstrijdsjaals vanmiddag sold out.
ja! morgenvroeg rijden naar kiev.
wederom een geweldige avond.
doen we!
aardig rustig nu, lumber nog wel aardig wat feyenoorders.
centrum valt echt mee, hele westerste stad.
goede vlucht! wij gaan morgenochtend vroeg rijden naar kiev.
centrum van kiev is heel mooi!
liepen we dan, half 2 snachts, in de sneeuw. langs de snelweg.
uit de taxi gesprongen, buiten charkov. corrupt als de pest. net op tijd eruit. telefoon wel mooi stuk...
oké wij nu vanaf lumber/ irish pub
zitten nog bij lumber, gaan ook zo lopen. zijn jullie met een grote groep?
al weg? vanaf waar?
ja even kijken wat iedereen hier doet, lopen of met de bus.
hoe gaan jullie naar het stadion? hier net partij vertrokken die met bussen gingen.
vuurwerk. veel mentalist spotters erbuiten. nu bij lumber. vol met feyenoorders, gezellig.
uitzicht op het vuurwerk van de irish pub. even wat eten aan de overkant. veel mentalist spotters.
wat een vaag hotel is dit zeg, snel de stad in.
roadtrip door oekraïne. met een gammelbak. geweldig.
op naar charkov.
wij zitten nog in kiev, maar ik las iets over de irish pub.
vandaag bijna 30.000 stappen gezet, even bijkomen in het saunatje 😎
auto vonden wij handiger, ov alles in andere taal dus auto leek ons beter. verkeer hier is wel cha…
heeft heel de dag gesneeuwd. bleef alleen niet liggen. ach, beter dan regen!
geen idee, kraampje op straat, in het centrum. had een paar sjaals van dynamo kiev, en deze.
was de laatste! anders had ik er zeker meer meegenomen.
sjaal bij de fanshop gekocht of op straat? deze vandaag gekocht in kiev.
klopt, heel gers inderdaad!
sneeuw. bier. mooie stad dat kiev. morgen vroeg rijden naar charkov.
het is koud, het is guur.
we gaan met de auto! ook een avontuur met het verkeer hier! 😜
ben geloof ik de enige nederlander wie dat formule 1 met die max geen moer interesseert.
jones, diks, toornstra en boëtius mogen de komende weken bankie warm houden.
tussenjaar. wanbeleid. crisis. hallo, daar zijn we weer!
st. juste loopt ook overal behalve achterin
nou moet je doordrukken
we kijken tegenwoordig niet eens wanneer we een voorzet geven..
gelukkig nog wel optijd in het stadion dus.
rico, sticks?
ik hoop het!
met shakhtar erbij rond de 70. roda kan ik helaas niet..
ga het net niet redden vrees ik...
prima infomail shakhtar uit, mag ook gezegd worden. 👍🏻
25 punten, bovenaan de mail.
wel wakker worden he!
droom zacht over de club uit zuid en de calimeros.
als volwassen man zou ik me toch wel zorgen gaan maken. al heel de avond druk in de weer omdat feyenoord thuis speelt.
hahahaha, slimme jongen. zou je iets mee moeten doen joh.
maargoed, die neuzen en psv ontlopen. eigenlijk wel prima.
020 &amp west ham united
26 oktober, ik heb zojuist een kerstboom gezien. ergens binnen. opgetuigd.
ik denk als een tekst logisch in elkaar zit, goede opbouw ect. dat het dan niet echt uitmaakt, maar da…
tuurlijk.
prioriteit tijdens een gevecht, ff de heg in de fik steken 😂
als bakens in de verte
vanavond weer eens een keer op de lange zijde gezeten.
zoek de verschillen, zelfde uitslag.
ik zag het ja, ben je ook wel een paasei ook hoor.
020 vlaggen in de bussen van de swift supporters
risico wedstrijd 😂
daar zijn we weer!
snap gewoon niet zo goed waarom je tegen amateurs opeens niet zou gaan.
25.000 +/ kaarten verkocht dus voor vanavond, valt tegen.
dat noemen we
niet, dan wordt het een wellis nietes spelletje tussen de club en supporter. die de club helaas altijd wint.
wanneer feyenoord een stadionverbod uitdeelt, moet het toch een geldige reden hebben neem ik aan?
feyenoord verschuild zich altijd achter de regels van de knvb, maar volgens mij zijn vlaggen niet verboden door de…
waarom geven we elke pannenkoek in nl een podium om dit soort onzin uit te kramen?
toch leuk dat deze tweet meer likes heeft dan jouw iq.
feyenoord verkoopt zelf ook vlaggen…
ik vandaag op kantoor.
echt even helemaal klaar mee, tot woensdag.
en waarom is dat tijdelijk? feyenoord zoekende na…
over de kinderachtige regeltjes gesproken...
las rond de laatste cl wedstrijd dat vlaggen ook verboden waren? alleen bij…
supporters steken heel veel tijd en geld in de club. het is frustrerend dat…
tuurlijk, maar dat bedoel ik niet.
kinderachtige regeltjes. dat is wel bekend inmiddels toch?
aan de dagjesmensen die bijdragen aan de sfeer dan de taak om ook te komen als het minder gaat.
klopt, sommigen helpen wel mee aan de sfeer, het andere deel maakt 30 snapchat…
je zou bijna willen dat het een jaartje minder gaat, de dagjesmensen en de wannabe puber hooligans lozen. zullen snel afhaken.
nu word je raar aan gekeken als je je bek open trekt door de dagjes mensen en de gloryhunters.
feyenoord gaat ten onder aan haar eigen populariteit.. het bestuur hoeft enkel het laatste zetje te geven.
sfeer was vandaag weer erg matig, bestuur heeft het helaas aardig voor elkaar.
30 meter door de ondergrens zakken, diks doet het al weken. en toch staat die er elke week weer in.
er is zoveel mis met dit feyenoord, binnen en buiten het veld..
jouw vrienden aan het werk? 😉
aan de taak om dit te veranderen.
heeft van de volksclub feyenoord een kutjes club gemaakt. alleen noemt feyenoord dat topsportklimaat
ik zou me heel diep gaan schamen..
als iedereen weg is, uurtje of half 6 😄
kreeg hem net doorgestuurd, maar als er na 90 minuten dezelfde stand als toen op jet scorebord sta…
ook een optie, als diks maar geen centraal gaat staan..
zit niet echt mee inderdaad... hopen dat geertruida het aan kan. ben benieuwd!
nieuwkoop centraal, amrabat rechtsback lijkt mij het beste nu van beek geblesseerd is..
fotootje van een insta account m…
jammer dat je weer meedoet aan deze hype...
telegraaf en erik de vlieger? weer blij, kunnen weer kankeren op feyenoord.
even serieus, wie de fock is die en waarom zie ik die engnek heel de tijd in mijn tl?
shit, je hebt ons plan door. slimmerik.
denk dat feyenoord er zelf voor heeft gekozen om rustige…
kan me niet eens meer herinneren wanneer bijvoo…
zondag andere muziek keuze neem ik aan?
keuzes van de beleidsbepalers van feyenoord of moet dan van de uefa?
waren inderdaad wat slordig af en toe, maar stonden regelmatig binnen 10 sec voor de goal.
helaas maar waar..
serieus? in de omschakeling waren ze zo snel, deden nog rustig voor mijn gevoel.
bizar, moet dit van de uefa?
zondag moet echt gewonnen worden, anders breekt de pleuris weer uit. en laat ik daar nou net geen zin in hebben..
vind ik ook! zag het van een afstandje, vond het maar een triest vrouwtje. vond zichzelf heel bijzonder..
vanavond weer een lesje in de omschakeling gehad... op naar zondag
op een paar persoonlijke fouten na een prima wedstrijd gespeeld. die gasten waren gewoon echt veel en veel beter.
werd nu net nog 2 keer aangesproken door de bazin. ze krijgt de wind van voren vanaf de parterre.
steward sweept het plubliek op. hoofdsteward kwam gelijk langs. die zit er volgende wedstrijd niet mee . kinderachtig
28 minuten in de rij gestaan, 28!! bij de fouillering letterlijk en figuurlijk van top tot teen gecontroleerd.
als dat is beloofd snap ik het!
nee gelukkig niet.
vandaag snap ik het ook wel, heb net ook in een record tijd naar huis gefietst 😂
ja ik heb ook altijd gelijk als ik alleen maar open deuren intrap
als je leuke collegas hebt. blijf ook altijd nog ff op de zaak hoor.
kan van hooijdonk zich er een keer niet mee bemoeien?
zit vol geloof ik, nog een paar 4 hotels beschikbaar!
ja dat wel, hopelijk over een paar jaar cl met alle toplanden en wij met een paar ploegen in de el.
voor feyenoord is de el een beter podium. ach dit jaar cashen we nog even bij de cl, toch de laatste keer c…
ben echt benieuwd, hopen dat ze een mindere dag hebben 😄
over 2 weken zitten we in het vliegtuigje naar kiev. mooi vooruitzicht!
denk dat veel mensen shakhtar onderschatten, spelen elk jaar champions league. kunnen echt wel ballen vrees ik.
mijn speler van de week bij voetbal inside is gertrude kuyt via
ondanks gisteren enorm veel zin in aankomende potjes. shakhtar, 020, swift, roda, weekje oekraïne en ado. en dat in 19 dagen 🍻
vrijmibo wordt wel heel gezellig, dalijk nog een avonddienst draaien....
bizar veel idd, maar ik zou ook geen 41, neerleggen voor pec thuis..
voor de klassieker kan je geen gebruik maken van ticket exchange... ik zou ook geen 4…
veel beschikbare tickets op ticket exchange, prijs ook bizar hoog. wellicht idee om de prijs iets t…
over de tweets praten van een onbekende van een maand geleden, dan heb je echt niks te doen.
wat is die frank snoeks toch een onwijs irritante verslaggever, dat geschreeuw heel de tijd...
een wk of ek met nederland vind ik altijd leuker dan zonder
tuurlijk maar een wk met nederland is toch altijd lachen, bbq aan, biertje erbij
wilde dat net zeggen, met de dames stonden ze vooraan..
heb je een eigen vlucht of ook met de feijenoorder?
dat is waar, mijn vlucht was geannuleerd en had nog geen hotel geboekt. nu op losse kaart?
wij eigenlijk ook, maar nu is wel alles geregeld.
vliegtuig, 385, maar ben je wel meteen klaar.
bestel net nog 3 kaarten inclusief vlucht
wanneer je binnen 5 minuten je daglimiet van je pinpas bereikt
met de supportersvereniging!
ik ben erbij! op naar manchester!
en dat is? want de minuten telde wel gewoon af. hij liep dus niet vast zou je denken
las dat de kaarten naast het uitvak al in de verkoop zijn. vraag om meer kaarten niet optijd aangevraagd?
oké maar als een kaart in mijn winkelwagen zit en ik hem ruim binnen de 20 min wilt betalen kan iem…
hoe kan een kaartje na ruim een uur nog in het winkelmandje zitten?
zijn er genoeg die voor een uitwedsrijd het wekkertje 3 uur van te voren willen zetten.
oneens, waarom kan het bij concerten, waar de vraag veel groter is, dan wel rust…
zie nu ook nog kaarten terug komen voor lvl 3, en dat na een uur. terwijl kaarten max 20 min in je winkelwagen mogen staan.
goed balen... gelukkig nog een weekje oekraïne in het vooruitzicht..
ging allemaal goed tot dat ik bij het betalen eruit werd gepleurd.
ja dat heb ik dus ook maar probeer al 30 min de vliegreis toe te voegen maar kom niet verder
als diamond/goldcard is het ideaal. voor silvercards een hel.
ook al tijdje uitverkocht
al jaren een bekend probleem die ticketshop, en feyenoord doet er helemaal niks aan.
helemaal gestoord, kaart stond gewoon in het winkelmandje. wil ik betalen word ik eruit gegooid.....
mijn kaartje zat inderdaad in het winkelmandje tot jullie mij eruit gooide
helemaal gestoord, stond verdomme gewoon in mijn mandje. word je bij betalen eruit gegooid
had verdomme een kaart, goed geregeld
mijn kaart staat in mijn mandje, wil ik betalen word ik eruit gegooid........
kan dat als mijn erop staat?
ik als enige een kaart....
weer een interland weekend, voor mijn gevoel is die onzin om de week joh.
ligt het aan mij of hebben ze alles eraf gehaald?
al besteld? lukt mij niet om meerdere personen toe te voegen
klote inderdaad, hopen op kaarten
gaat feyenoord voor meer uitkaarten voor cityuit? of staat dit vast?
crisis? op je muil, gauw.
bij de mannen van
wachtend op ander pakketje binnen. eigenlijk veel leuker. 3e en 4e canvas, huis hangt aardig vol.
toch leuk voor amrabat, staat de komende 386 jaar bekend als laatste feyenoorder die scoorde in de cl
dankjewel....... ik kon het niet, weten de buren inmiddels ook.
gelukkig hoeven nederlandse ploegen vanaf volgend jaar geen cl meer te spelen.
dit doe je gewoon echt weer zelf. helemaal geen ene pest pleuris geleerd van afgelopen weken.
had nog tot nu toe erbij gezet...
diks nooit meer opstellen. helemaal klaar met die gozer.
speelt prima tot nu toe.
sowieso eerst voorrondes toch?
in ieder geval leuker dan de cl, kan hier echt niet van genieten hoor.. het is dat we er geld voor krijgen
valt wel mee denk ik. zitten genoeg zaad ploegen in.
die snappen zelf ook wel dat ze hier gewoon niet aan kunnen tippen.
volgend seizoen hopelijk weer lekker europa league.
met je pleuris champions league. laat die rijke maar lekker tegen elkaar ballen.
zo ongelofelijk zonde, tapia tapia tapia loop anders nog verder weg
het is maar de champions league. ander niveau natuurlijk..
tapia centraal in de champions league. gooit ff een hakje.
slechts 20.000 man in het stadion, in rotterdam laten zien wat echte sfeer is.
even zaterdag afwachten, ga met iemand die enkel een clubkaart heeft. moet wel lukken gezien de verkochte kaarten tot nu toe
ik ga ook waarschijnlijk toch nog 😄
sinds wanneer is een wedstrijd bezoeken het verzieken
wat word ik een partijtje misselijk van al dat sensatie nieuws 🤢🤢🤢
heb gelukkig nog maar 648x voorbij zien komen dat er drie feyenoord supporters zijn opgepakt...
elke keer als ik er door heen kom zijn alle kaarten al weg....
ach je krijgt er wel wat voor terug. ik krijg niemand zover om mee te gaan 😕
wat een drama trouwens, eens in de anderhalf jaar verliezen we een thuiswedstrijd en de pleuris breekt uit. schei uit. seen worse.
ook niet bedoeld voor vaders die met een zoon naar het voetbal gaan. wel voor de mensen die je alleen ziet als het goed gaat.
tuurlijk, maar dat is echt niet het geval bij iedereen die weg gaat.
successupporters is iedereen liever kwijt dan rijk.
het is blijkbaar oké als je eerder weg gaat als je er al was in de slechte tijden heeft niks met elkaar te maken.
supporters die willen scoren met een grappige tweet door feyenoord belachelijk maken...
zuipmodus aan
ik heb niks gemist als ik mijn timeline zo door lees...
mis wel weer de beste wedstrijd...
de team chef komt de baldadige menigte even temmen.
heb je toevallig een linkje?
hoop het voor je, hopelijk ik het seizoen erna. zal een hoop gestress besparen 😂
oh, ga gold dit jaar nog niet redden. tevaak op losse kaart gegaan ipv uitvak.. probeer wat meer te gaan…
heb ook helaas nog silver, moeten er dus 600 niet gaan willen wij een kans hebben...
had dat graag in stand gehouden, helaas kom ik er zaterdag niet onder uit 😞
zaterdag moet ik voor het eerst in 3 jaar een thuiswedstrijd missen. baal ik enorm van..
kramer moet je alleen gebruiken als je 90 min op de helft van de tegenstander s…
dat is kritiek. kramer wordt soms zwart gemaakt, word je misselijk van.
iedereen ziet dat kramer geen jorgensen is, maar dat overdreven zwart maken word ik een beetje moe van.
gio zijn fout op kramer op te stellen. kramer is nuttig als je tegen een ploeg speelt waar je 90 min op de andere helft speelt.
maar gelukkig kunnen we weer zeiken op kramer... hoeveel goede ballen heeft die gekregen?
verloren van jezelf en van kuipers. op naar woensdag..
2e helft goed gespeeld.
kuipers heeft huis niets te zeggen denk ik.
hoeveel kansen wil je hebben..
hasj, coke en pillen, zo gaat kuipers zondags op stap
eigen schuld, laat je weer zo opfokken. gewoon rustig tikken. al mocht kuipers psv wel een paar keer geel geven..
alleen nelom kan dit nog recht trekken.
kuipers, zogenaamd de beste scheids uit nederland... dramatisch.
je laat jezelf weer vreselijk uit de tent lokken.
justin van de sanden
tuurlijk maar dat gehaat kramer soms word je ook een beetje moe van..
als wissel vind ik het prima. is nu ff niet anders. al moet ik wel zeggen dat kramer een streepje voor heeft bij mij.
heeft zich anders wel de pleuris gelopen woensdag.
hoeft ook niet live te zijn, vond de muziekkeuze gewoon matig.
tuurlijk is het mooi, maar voor de sfeer is de europa league beter.
fokt sommigen teveel op. was wel lekker voor de sfeer, vandaag beetje gemist..
benieuwd of het de uefa het heeft verboden of dat feyenoord het bewust niet doet. moesten nu genoegen nemen met chef special 😴
tegenstanders ook aantrekkelijker + betere sfeer.
speel eigenlijk veel liever europa league, nederlandse clubs hebben niks te zoeken in de cl.
dramatisch pak slaag kansloos feyenoord manchester city 04. we have seen worse.
paul elstak verboden bij de uefa?
mag wat kosten...
mijn punt is dat we gewoon moeten genieten. tuurlijk gaan we voor de punten, maar sommigen vergeten het niveau.
verbaas ik me ook over, gewoon genieten man. misschien een gelijkspelletje. punten halen we wel in andere potjes.
matchday!
ff zijn naam zoeken op twitter! hopelijk doet die dat zelf ook!
sander lantinga barca was met vlagen goed, vooral messi.
top! gaat de radio op kantoor morgen ochtend op
hoelaat ongeveer?
ja idd! hebben wel maximale beschikbaar gesteld. hopelijk doet manchester dat ook in november.
2400, is niet uitverkocht
2400 is de maximale capaciteit, het is niet uitverkocht
1800 dacht ik
4 van de 5 beschikbare vakken.
city neemt dus 4 van de 5 vakken af.
lekker het dubbele betalen bij the bulldog...
vond het al vreemd dat er vrije verkoop was.
zeker aangezien er vrije verkoop was
alle 2.400 tickets voor het uitvak zijn uitverkocht voor woensdag neem ik aan?
totaal niet gespannen voor woensdag, maar godverdomme wat heb ik er zin in!
wijze woorden van van hanegem
mijn speler van de week bij voetbal inside is via
voor de bank vind ik het prima. kramer vindt het ook wel goed zo geloof ik, krijgt geld om…
doe ik zelden, op een paar keer mgladbach na dan. maar in nederland kan het wel denk ik, maar de angst regeert.
vind kramer een topgozert, maar tegen city wordt het waarschijnlijk counteren, dan is kramer overbodig
steeds vaker gezeik als je op losse kaart gaat. en op vrij vervoer naar een uitwedstrijd komt nog…
stadion halfvol. je kan wel zien dat 020 nog in de vakantie periode zit
het kunst gras slaat weer toe.
heb je helemaal gelijk in. gaat nergens over.
tegenwoordig is het verboden om in een café voetbal te kijken.
stond een gozer naast haar, ook in zijn roze outfit. dacht ff dat het ze ma was 😂😂
geniet echt van dit feyenoord. kan me seizoenen herinneren waar dat niet altijd het geval was.
ben geloof ik de enige die echt geniet van kramert, goude gozer.
bij het horen van dat ene toverwoord, feyenoooord! comon!
de hype is aan het doorslaan..
klopt, gewoon teveel vraag. neemt niet weg dat ik het huidige systeem niet goed vindt.
groningen is 4 dagen na manchester uit. en op zaterdag, ook wel een kans dus
groningen kan wel, bij roda kan ik ook in t thuisvak zitten. maar ga dan maar uitvak proberen.
rond de 60 ofzo, vorig jaar vaak op losse kaart geweest, ipv uitvak
ik ga net tekort komen vrees ik. waar is de tijd gebleven wanneer je nog in alle rust een uitkaart kon kopen.
nadeel van t succes..
zo kom ik nooit aan een goldcard..
nope, zoals altijd 😂
bij mij kwam die helaas pas 0933 in mijn scherm te staan..
mensen die het wel altijd lukt, kopen jullie via laptop of telefoon?
onzin, dat weten jullie zelf ook. zoveel negatieve reacties en niet overwegen om een ander systeem in te voeren.