zin in dit rijtje shows! ☺ van matt via annie naar rico.
bedankt voor het cadeau gideon! brengt me weer terug naar 14 mei en de huldiging op 15 mei…
te grote inspanning....maar wel goed gedaan peter!
schitterend.....weer een paar keer kippenvel
onze mooie dagen in rome afsluiten met bertoluccis klassieker.
mooi nieuw nummer johnny pt. 2 van basement revolver ♫
jij ook gefeliciteerd oom! feyenoord voor altijd.
laat het vandaag gebeuren! de kuip
met nog meer spanning....op naar de kuip voor poging 2
het was te lang geleden...maar nu kan het weer. op naar de kuip om mogelijk het kampioenschap te zien en vieren.
de geen brood en alcohol weken zien er gelukkig wel mooi uit
maar weer een salade gemaakt....#wekengeenbroodeten hoograven, utrecht, netherlands
heerly gaan op de trails van austin walnut creek…
first day party....first beer...en zo eerste bandje las cruxes
heftig. maar maak er nog een fijne vakantie van!
dit was een topweekend in londen, alleen maar hoogtepunten.
het vnpf dinner was een succes.....feest! en prijs voor beste podium. 💖
en voor mij beste van eurosonic waren the amazons, la salami, novo amor en een hoop andere waren ok.
tof vandaag al 3 nl acts, crying boys café, avi on fire en nouveau velo, gezien die echt gegroeid zijn dit jaar.
was weer jaar met goede shows....en die van mijn jochie als beste
nu al met zoveel gevoel.....#piano buiten wittevrouwen
toch wel het album van mijn teenagetime en mindstate van altijd...elk nummer vd 28 raak!…
na dit eerste nummer gelijk benieuwd naar meer van ....
dikvoormekaarshow meshuggahband melkweg amsterdam
bandje op de zondagavond ballorig amsterdam arena
dag 4 van begonnen....op naar the cure!
ik zet hem gelijk aan!
heerlijk eptje van
1 woord broederliefde
een van mijn favoriete wonderschone bands in mijn favoriete ronda 😙
wonderschoon pitou het gegeven paard
gewoon een sfeervol showtje van sunday sun in molen de ster
wie laat mij even nos teletekst pagina 819 zien 😁
kanjers aanmoedigen in breda..go stybar breda
volg mij even.
nicolas bon under iver world jaar
doen ze alleen voor the voice 😉
was gisteren 1 september.....het seizoen is weer gestart
wegdromen
met bent in het bos amsterdam woods…
ik stap erin.... wel om te winnen natuurlijk ☺
broederliefde. ....op zijn mooist lowlands biddinghuizen walibi
lekker gaan op paul k. ook dat is lowlands 2016 ...heerly
na 26 jaar weer bovenop de dalsnuten
lekker rustig....effe niks behalve donker water en fjorden..#forsand forsand, norway
aan de kade waar ik ooit beatrix een bos bloemen mocht overhandigen...#stavanger
ulf, mijn oude voetbalclub sandnes ulf
omg wat een race!!!
ons huidige wagenpark hoograven, utrecht, netherlands
yes! utrecht!
cat met power tivolivredenburg
keep m coming courtney! courtneymelba paradiso amsterdam
thanks voor een top festival met de bloemen voor en
hey.. waar vind ik sigaretten op het terrein?
honne is lekker bezig....#summertune
mixtape! en zo live mothers in de regen. space 24 twenty
al 6 dagen mijn uitzicht....
phono gaat een mooie avond worden!
er zijn geen tostis op de maan, toch pap?
vrijdag.... puzzeldag en spelletjesdag 🎲
zweten en dansen bij dazzled sticks de helling
als vanmiddag in de kuip net zo goed speelt als gisteravond dan wordt het nog een mooie middag
yes! tot in
mijn held van noorderslag sevn alias...#esns16 de…
ja ja....verjonging in de popsector
nu al weer zin in de nieuwe plaat
laatste snooker van het jaar! ozebi
fissa! wat was jou concert/optreden van het jaar?
fijne vakantie martin!
de tuinen in nl zijn gelukkig slangvrij, op de tuinslang na natuurlijk.
zonder drumstokken
een show van watson blijft mooi! paradiso amsterdam
aanstaande zaterdag 28 nov. speelt jonathan bob sef wells
een van de betere....#protomartyr tivolivredenburg
ik houd wel van hand in je broekzak houden zangers.....#lgw15
is al een mooie eerste avond op le guess who? met nu the notwist en licht!
ha mooi zo...en alvast voor het toekomstige leven.
hooked aan wat zomaar de nieuwe kan worden. erg mooi album
mooi rijtje plaatsen en zalen.
rotterdam, je was weer heerlijk! ....
heerlijk!
grijs gedraaid. ...en nu dus een klassieker
drag! lekker deuntje hoor
natuurtalent op de toetsen tuinwijk
onthouden....schitterend
pffff en al gelijk een tenenkrommend liedje
hoe een onvrolijk concert zo prachtig kan zijn.
nog steeds 1 van mijn favoriete shows in tivoli oudegracht ever....nu naar carré
midweekje in drenthe, je kent het wel...kansloos hangen in een vakantieoord met allerlei jonge gezinnen
goed stuk helemaal met je eens.
thanks....en die titel is misleidend toch? of was er echt een wk in toscane toen.
.@thijszonneveld dit shirtje gekregen, maar geen idee wie de renners zijn. jullie wel?
lijkt mij duidelijk. .....en lekker ook
gewoon een gitaardagje afterpartees, the districts, allahlas, pond en straks nog ought en tame impala...#ll15
lets get serious de…
staat je goed hoor!
uitzicht met geen kinderen in huis en luisteren naar pulp
sunset strand van scheveningen
sinds weer hooked aan dit nummer
tour de france gaat zo beginnen! en morgen ook nog zoiets dat zo heet
topfiets!
feest! 1 jaar tivolivredenburg
handen in de lucht, groeten aan je tante!
in je laten snijden zonder verdoving en dat de arts dan op het moment supreme zegt zal ik je een anekdote vertellen
trouwzaal! in grunn. ...sfeertje hoor emg faktors
my top 3 artists de jeugd van tegenwoordig 28, tame impala 12 &amp yves montand 9
wel een momentje hoor.... oudste dochter net naar haar eerste schooldag gebracht
vakantie even aftoppen met shoppen in aixenprovence aixenprovence, france
zo toch maar weer even naar boven gefietst plan…
my top 3 artists nils frahm 31, kings of convenience 12 &amp kinderkoor kom maar op 12
yeah! bevrijdingsfestival utrecht
bloesem of niet!? julianaweg
my top 3 artists sufjan stevens 24, kinderkoor kom maar op 18 &amp waterstrider 9
een dag om te dansen...#frozen
jawel...ben erbij.
thanks voor de tip
gilbert...
taart!
en gelukt!
ik was gisteravond op het gezellige en vond kate tempest en alamo race track de beste
my top 3 artists kenny b 32, kinderkoor kom maar op 29 &amp k3 14
dit heerlijke album had ik even gemist
goed gemaakt! van harte
taart! wij zijn jarig! 13 juni tivolivredenburg festival wij zijn 1! info
tja....waarom niet
juni 2016 heerlijk bbqen in de tuin, zonder wapperende oranjevlaggetjes
sta je al 10 voor?
al iemand 16 kamelen geboden?
zo...de dag is al weer 2 uur oud.
brillen maken de man/vrouw
gekke boys! dejeugd 4x pandora tivreutrecht
slechte ogen
snel wegwezen daar. beter ga je snel naar san francisco.
my top 3 artists de jeugd van tegenwoordig 33, tori amos 16 &amp underworld 14
indeed!
niet schrikken van de bandfoto gewoon luisteren
my top 3 artists marika hackman 28, kinderkoor kom maar op 24 &amp radiohead 23
pak ze in johannes!
ja zeker...maar daardoor wel een mooi lijstje
mee eens! tip voor indierockliefhebbers woensdag alex g +
vorig jaar zelfs diarrhea planet op sxsw gezien. best een toffe band met helaas een slechte bandnaam.
de 4e serie kraamkost, het gaat maar door. superfijn bedankt allemaal
de 3e serie kraamkost maaltijden. en we eten heerlijk door.
hè, hè ik ben een keer een week thuis...en zie het verschil...gelijk geen frozen of kinderkoor in de top 3
de 2e serie kraamkost maaltijden waren weer erg smakelijk, nog steeds niet hoeven koken
ik heb net gehoord dat een bierdouche heel onfatsoenlijk is
dat je onder een heerlijke warme douche nog staat te rillen van de kou
de eerste maaltijden gehad! ideaal in de kraamtijd.
knapste jongen ever yves diakonessenhuis
noteer je deze !
protomartyr ! geef mij maar maidenhead
de kerst goed afgerond...met het wielerjaaroverzicht 2014 van
yeah!@hetiskoers je kunt vanaf vandaag tickets kopen voor het open nk wielerquiz op 11 april in
goed om te horen
net gedaan al was het mijn weetikhoeveelste en de meiden waren er blij mee.
my top 3 artists kinderkoor kom maar op 44, noortje herlaar 21 &amp the gents 17
de boom staat hoor! hoograven, utrecht, netherlands
wow, wat een kleine grootse show van tivoli de helling
verstopt onder de cloud9 met aafke romein tivolivredenburg cloud nine
buiten regen, binnen en helling is het droog met vanavond , sessions en
my top 3 artists kinderkoor kom maar op 13, silk rhodes 12 &amp michael jackson 10
ja oude school aangezet.....maar op de afstandsbediening zit gelukkig zon rode uit knop.
ik kijk weer eens televisie. ..poehee dat valt niet mee
heerlijk nachtje gehad in grunn, nu koffie in het altijd gezellige
weekendje groningen groot succes! oosterstraat groningen
my top 3 artists beirut 53, coldplay 26 &amp kinderkoor kom maar op 13
oh ik ga heerly op zo effe dansen op parquet courts
yes! vanavond een festivalletje
. ik lees toch echt boeiendste speler
ik zit echt te trippen bij deze plaat van hoe heerlijk
schoon is het zeker!
oja, zo heten ze dus tegenwoordig hoograven zuid
aanwezig! tivolivredenburg
nee bij paal 10, goed terras, prima lunch en mooie vlakte. hoe is portland?
uitwaaien met de familie strand ouddorp
.@chriswalraven echt wel!
met een k
jammer dat ik er voor moet missen maar ja, het morrissey
zo daar ga je dan....frontstage ronda....zet hem op
was er een voordeel van 1 uur vertraging gister vanuit ? jaaa s kunnen uitlezen
miniaturland, reeperbahn, we komen eraan!
check! in een ideale wereld gaat het er zo uitzien
het kostte mij een aantal draaibeurten maar die laatste plaat gaat er lekker in. volgende week zie ik ze in
vanavond marco, eefje, chefspecial, rumor, fools gold...pfff kan ik mijzelf in vijfen delen?...#zinin
lees ik het nou goed!? hoograven zuid
my top 3 artists kinderkoor kom maar op 26, nick drake 23 &amp mega mindy 21
inpakken....en wegwezen
man....was dat onze spiegelbar?
goed zo buurman!
sorry marnix, alle goede en leuke zitten op
ik ben de hele dag al in een franse bui
het feestje is in de middenmoot
dramatische start van mijn cluppie, evenals mijn zijn &amp wel tevreden?
en we gaan heerlijk op dag 2 a campingflight to lowlands paradise
op naar , lekker de phoon uit en genieten
+1 ik werd dat i amsterdam een beetje zat, dus ik heb even snel een alternatief gemaakt
coffee to go?
huisdieren zaak jongens dag! zelfs 2 dagen op een rij.
laat je dat toch doen.
wel als ze ook bewapend worden door poetin.
en ik laat mijn fietstripje naar luhansk ook maar zitten.....
wel een mooie stad om te bezoeken....naast het potje voetbal.
vuurdoop potje herrie/circlepit/blotebasten in pandora hebben we gehad. en met at the drive in op de roltrap
er valt geen ijs tegen op te eten vandaag, als kind zijnde
foyerdjs 2.0 tivolivredenburg
props voor hem! leuk voor jou en
vet! oordoppen in en gaan!
helemaal mee eens!
klasse....oftewel chapeau!
ben er ook zeer benieuwd naar.
mijn nieuwswoord van de dag worstkartel
dat deed hij! curl keep my dream living
my top 3 artists kinderkoor kom maar op 65, typhoon 21 &amp zig zags 12
tune van de dag voor mij, door
zeker voor de griekse en costa ricaanse kinderen
en we blijven hem maar draaien thuis....dolgedraaid hoogravenzuid, utrecht
sinds weer helemaal verliefd op
my top 3 artists coldplay 27, kinderen voor kinderen 19 &amp sharon van etten 14
lets go
my top 3 artists sharon van etten 29, pangea 24 &amp kinderen voor kinderen 22
+1 de prachtige nieuwe video van typhoon
glen de randamie !..oftewel typhoon ook in de pandora op 6 november
nog 1 avond! tivoli utrecht
opbouw toegift
das kunst met een hoofdletter k
kunst met een k
my top 3 artists kinderkoor kom maar op 29, sharon van etten 20 &amp pangea 14
verzameling van vakantiefotokiekjes uit ons resort van 2 weken terug
kan op dit moment van de dag wel goed genieten van de nieuwe plaat van
looking good! met dank aan de buurvrouw. alvast een bijdrage aan de
zo zie ik je morgen bij weer
geen grap.....nog maar 10 dagen te gaan tivoli utrecht
nadeel van eergister 14 uur in de auto hebben gezeten dat die verdomde kinderliedjes maar niet uit mijn kop gaan
was lekker kletse met jetse bij de start van vandaag. en hoe ging ie vandaag? foto krijg je nog te goed
mooi! mainstreet, vredenburg, uitverkocht, oordopjes — at vredenburg leidsche rijn
een bepaalde sweater?
laatste keer dj natte snor , de bezoekers van novastar zijn de gelukkigen!
vanavond vuurdoop ronda
allerlaatste avondje muziekcultuurbeleving met de dijk ten einde.
ja is geen mooi uitzicht zo.
en wanneer gaan jullie?
van harte joost!
check! correct
wicked! de nieuwe in de foyer van pandora
alleen voor 2 jarige doommetal liefhebbers
dit anders?
heel goed! hopen dat het helpt.
nou naar wii natuurlijk!
toppunt van lelijkheid?....een esmoker
dat is een boel vanavond
waterpokken all over.........niet bij mij gelukkig, maar bij de kleine meid en dat is veel zieliger
1 van mijn favoriete muren in tivoivredenburg
ja heb ik ooit ingesteld....vind het ook altijd hilarisch onze week top 3
haha je bedoelt de smaak van mijn familie
goed, hè
al 10 dagen lang om 06.00 wakker worden...begint nu zijn tol te eisen.....3 koppen koffie nodig om wakker te worden
en als het lekker wegleest wil ik hem ook eens lenen....
echt de plek waar elke ouder met zijn kind koffie doet......#vollebak
plus 1@atzedevrieze festivaljetlag en ook wat zere ribben van mijn pitavontuur hij togetherpangea
thanks voor een mooi einde van mijn
laatste avondje gaat beginnen, ik heb er zin in!
mijn hoogtepunten waren weekend, nick mulvey, dosh &amp angel olsen. zo naar the districts en tot bij burgers
heerlijk middagje fietsen, muziek en een biertje erbij, dwars door austin highlights? gems, wye oak, weekend en avi buffalo.
had ze op mijn lijstje staan, goed om te weten...morgenmiddag ga ik ze kijken op#sxsj parkeerplaats achter jos op congress
en lance zag dat het goed was!...wye oak
op een avond weer 26 jaar oud worden geschat en wat mergebandjes kijken met vrienden
voor het eerst in faderfort...#sxsw14 en ik snap hem wel! zo temples.
een uitdaging met de vele shows, maar gaan we doen!
mijn sxswdag begonnen bij neil young spreekstalmeester van ponomusic tja. evalueren met en
perfect pussy
trouwens, mcallentx een aanrader voor als je van zwart haar houdt
tussen de texmex hipsters wat fijne bandjes gekeken op met o.a. speedy ortiz goed, big ups zozo en perfect pussy beter
dat gaat wel lukken. jullie een zomerse dag gewenst vandaag.
daar gaan we! op naar texas
zijn vast alleen maar van nederlanders, die fietsen.
ben er trots op!
geniet ervan norbert!
zo weer even rondleiden in
maar er gaan nog betere komen
het lijkt wel carnaval......
hier word ik wel blij van!
goed, best leuk bandje.
beter norbert. hier stond toch een eigen tape aan
met deze tune aan van perfect pussy heb ik nog meer zin
my top 3 artists kinderkoor kom maar op 40, dirk scheele 18 &amp félice van der sande 17
ik kom 16 vd 40
en welke was dat dan?
mooi hoor dat , daar kunnen jullie trots op zijn!
boze sportmannen....niks mooiers dan dat. lekker ook met iets gooien
my top 3 artists kinderkoor kom maar op 36, coldplay 19 &amp pearl jam 19
mooi naslagwerk, met de wetenschap dat iedereen aan de epo zat......
ja sinds jaar en dag ben ik al fan!
my top 3 artists kinderkoor kom maar op 175, dirk scheele 47 &amp ik en den theo 14
das logisch! er komt een stripalbum over johan cruijff. hij heeft zelf meegewerkt aan de totstandkoming van het boek.
de te vermijden plek in utrecht om 18.00....utrecht centraal station.
gewoon met een lepeltje wat gebakken uitjes uit een bakje nemen omdat ik dat lekker vind...
eitje..... eeuh nootjes
zo naar de van met ron &amp bas, represent
met veel vrienden naar lowlands.....#ll14