waarom rotterdam niet zo moet zeiken over gentrificatie
gentrificatie nu is rotterdam aan de beurt
de laptopactivist krijgt de massa op de been via
rotterdam, nu de tweede stad ter wereld met een straatnamenapp via
dit wordt het kabinetrutte iii via
crisis in huis voor klokkenluiders via
‘stel vertrouwenspersoon verplicht in bedrijven en organisaties met meer dan 50 werknemers’
‘het wordt gênant om nog een linkedinprofiel te hebben’
hoe positiviteit tot meer succes leidt via
we stevenen af op een megahack waarbij we beseffen hoe kwetsbaar we onszelf maken via
regeerakkoord raakt ook indirect aan ambtenaren binnenlands bestuur
controle op gedrag van ambtenaren in vlissingen binnenlands bestuur
waarom werknemers zich niet durven uit te spreken
op zoek naar zwarte rolmodellen via
het pispaaltje houdt zijn mond.
premier aruba weg ondanks winst verkiezingen via
rotterdam krijgt vn klimaatcentrum
ongemerkt 2.1 miljard extra voor ouderenzorg het perfecte politieke misdrijf via
welke politicus durft onze bewindslieden meer loon te geven?
sintmaarten zwaar getroffen zeker zes doden op franse deel eiland | nos
waarom nieuwe bedrijvigheid zich in rotterdam niet beperkt tot het ‘innovation disctrict’
‘compliance, integriteit en risicomanagement moet je zien als een familie met drie kinderen’
meer functies krijgen ambtenarenstatus door normalisering rechtspositie binnenlands bestuur
35.000 bezoekers op 35ste antilliaanse feesten via
hoe overheid en individualistische burger elkaar in de houdgreep houden via
de drijfveren, motieven en achtergronden van lone wolves. via
ethiek, integriteit en moreel kompas in organsaties
nederlandse ambtenaar is geen inefficiënte luilak via
nederlandse overheid krimpt het snelste van europa binnenlands bestuur
laten we de zorg over integriteit bij lokale overheid niet overdrijven. de stormbal hoeft niet te worden gehesen.
de brexpats kijken met grote zorgen naar de brexitonderhandelingen via
werkgevers mogen niet zomaar de sociale media van werknemers of sollicitanten screenen | nos
metrostellen randstadrail overvol in spits deze zomer
de laatste jaren vinden er meer onderzoeken naar integriteitsschendingen bij provincies plaats. via
aruba heeft gelukkig geen last van de crisis in venezuela
wordt het nog wat met de circulaire economie?
integriteit vooral veel vragen over belangenverstrengeling
het verlies van de ambtenarenstatus leeft amper. bewustwordingstournee vng over normalisatie binnenlands bestuur
flexibeler overheid moet kansen digitalisering omarmen binnenlands bestuur
kijken, kijken en niet kunnen kopen hoe vind je als starter nog een betaalbaar huis?
een eerbetoon aan de popkoninginnen op north sea jazz via
waar begint en eindigt een angstcultuur? via
hoe groot is de schaduweconomie? hoe lastig is het om iets te meten dat niet gemeten kan en wil worden? nrc
nocnsf komt met regels integriteit na zaakeurlings
is de aandacht voor bestuurlijke integriteit een zegen of een vloek?
de speech van ien dales, na 25 jaar nog steeds relevant.
‘sociale achterstand curaçao werd opzettelijk in stand gehouden’
het rijk geeft rotterdam zes miljoen extra voor verpleeghuizen
elf bestraffingen in 2 jaren op een ambtenarenapparaat van 1200 zaanstad. binnenlands bestuur
topambtenaar van venj justitie houd superministerie heel.
zijn ze in de grachtengordel echt blij als zoonlief thuiskomt met een diepgelovige vriendin? via
geer en goor in het gemeentehuis binnenlands bestuur
toenemende frustratie over oncontroleerbaarheid rijksbeleid.
stille dinsdag en concentratieplekken tegen onrust kantoortuin binnenlands bestuur
10 persoonlijke columns ter gelegenheid van corruption awareness week. curacao |
eerherstel van het instituut feyenoord, na de diepe val via
oudministers mogen eerste twee jaar niet lobbyen via
baas rijkswaterstaat stopt na 7 jaar ’veiligheid is een werkwoord’ via
waarschijnlijk meer bewindslieden in nieuw kabinet
feyenoord is religie en de kuip is een voetbaltempel, met stadionspeaker peter houtman als voorganger
duitse bedrijven hebben de minste chefs en managers. hoe komt dat?
gemeente rotterdambuigt zich over levensgevaarlijke situaties festival pal mundo
de dag van de integriteit ultratransparant omgaan met nieuwe morele dilemmas.
commissie doet onderzoek naar de doelmatigheid en effectiviteit van de wet financiering politieke partijen.
hoogleraren roepen op tot groene economie en een minister voor energie en klimaat. via
wat een sportieve geste van schalke 👍
meer geld nodig om cybercrimineel te weren pw.
rotterdam is niet bang voor verandering via
hoe de smartphone ons verslaafd maakt via
‘meldingen identiteitsfraude afgelopen jaar verdubbeld’ via
directrice van een middelbare school in kansas stapt op na onthullend onderzoek van eigen scholieren
de marathon in 1.59 uur een kwestie van tijd via
raad van state functioneren rechtsstaat in het geding via
onverstoorbaar doorwerken ondanks luidruchtige collegas? zo doe je dat via
rotterdam blokkeert publicatie van kritisch rapport over slecht beveiligde informatie bij gemeente via
rotterdam is op weg om een superdiverse stad met een vlottende bevolking te worden.
het gaat niet slecht, maar corruptie is in nederland een taboe via
premier mike eman van aruba spreekt het publiek toe op arubadag in den haag.
honderd worden
er is meer aandacht voor ethiek nodig bij dataprojecten.
ambtenaren zijn de jongste pensionados.
derek walcott, de homerus van de cariben, overleed deze week op 87jarige leeftijd. via
nederlandse verkiezingen zijn breaking news op cnn
twee aardbevingen in het zuiden van het caribisch gebied op donderdag en vrijdag hebben de bewoners van aruba en cu…
nieuwe overheidsmanager moet steviger in zijn schoenen staan.
leidt meer openbaarheid tot een meer integere overheid?
identiteit ik ben meer rotterdams dan nederlands
stadsderby sparta feyenoord op het kasteel vanmiddag.
op curaçao was tania kross niet zwart, dat werd ze pas in nederland via
vijf jaar misbruik en manipulatie in de politiek
wat ministeries achterhouden bij wobverzoeken via
kabinet eendracht nodig tegen cyberaanvallen binnenlands bestuur
forse dalingen rotterdamse criminaliteit via
curaçaoënaars zitten niet altijd te wachten op kennis uit nederland
rotterdam straft negen ambtenaren om miljoenenfraude poppodium via
interview werkdruk heeft net zoals tijd een objectieve en een subjectieve kant via
hoofd integriteit volkswagen al na dertien maanden weg.
vanavond is de wereldpremière double play naar het boek dubbelspel van henk martinus arion
corruptieindex populisme en corruptie versterken elkaar via
van der laan oordeelt vernietigend over de korpsctuur van de amsterdamse brandweer. via
hoe rotterdam de muziekstad van kaapverdië werd via
jaap uijlenbroek wordt de nieuwe directeurgeneraal belastingdienst bij financiën
nooy om integer handelen is het goede doen als niemand kijkt
uitvoering zorgmanifest hugo borst gaat 2 miljard kosten. interessanter is de vraag wat het oplevert.
pianiste eliane rodrigues raakt in de doelen niet van de wijs door kapotte vleugel
woningen in lege marconitorens impuls voor rotterdamwest.
hoe je je goede voornemens binnen 66 dagen realiseert managementsite
in 2018 zijn er 8000 dataanalisten te weinig. hoe word je een dataminer?
antifraude offensief in amsterdam eén zieke collega in een rustige zomer is al genoeg voor gesjoemel via
frauderende ambtenaren duperen amsterdam. binnenlands bestuur
bas heijne wint p.c. hooftprijs voor zijn beschouwend oeuvre via
lang leve het rommelige bureau via
een pleidooi voor professionele ongehoorzaamheid
een kleurenmodel om je collega beter te leren kennen werkt dat? via
waarom een online bedreiger meestal vrijuit gaat
plasterk hulp voor aruba na noodweer via
klokkenluidersorganisatie ontvangt ruim 300 meldingen in eerste drie maanden via
het ideaal van zelfredzaamheid is armoedig via
wij zitten vast in aruba omdat vlucht kl0622 uit atlanta is geannuleerd. uw personeel kan geen zekerheid over zondag geven. terecht?
een zonsondergang op aruba blijft een bezienswaardigheid.
geen salaris wegens versturen whatsappjes tijdens werktijd. via
zadkine rotterdamwest ontruimd
‘een op de zes werknemers wordt gepest, gediscrimineerd of geïntimideerd’ waar via
champignons kweken op aruba
dorpen blijven vergrijzen, verstedelijking zet door via
koning beëdigt de heer boekhoudt tot gouverneur van aruba
het besluit over de normalisering van de ambtenarenstatus nadert de finale. binnenlands bestuur
de wraak van het smart home via
over het utrechtse huis voor klokkenluiders en venetiaanse leeuwenbekken.
de gedragscode integriteit rijk 2016.
plasterk en aruba leggen conflict om gouverneur bij via
deur wagenwijd open voor hackers 1 op de 10 nederlanders is wel eens gehackt
inhuren ontslagen rijksambtenaren mag weer binnenlands bestuur
klagen op je werk loont , volgens annefloor klep die promoveerde op de effecten van het delen van emoties in teams.
wat als opeens iemand beweert dat hij jou is? via
ontslag satudarahambtenaar was onterecht
kunnen wij het ouder worden vertragen? via
klokkenluider krijgt geen bescherming maar ontslag
straks kunnen we op afstand hersenen manipuleren
mijd zelfhulpboeken, ze maken je narcistisch
liefde op de werkvloer is geen reden voor ontslag, maar de gevolgen ervan kunnen dat wel zijn |
een relatiegeschenk van 100 euro leidt bij een filiaalmanager tot zijn wat vindt de rechter daar van?
omgaan met integriteitsschendingen 6 praktische tips
transparantie is een modewoord. volledige openheid kan doeltreffendheid in de weg staan.
vanavond antilliaanse feesten in hoogstraten met een fraaie lineup.
burgemeesters blijven veelal blanke mannen van middelbare leeftijd die lid zijn van de pvda, vvd of cda. via
35 procent van de mensen lijdt aan het post holiday syndrome
laurens geeft tekortkomingen die igz constateert, toe
rotterdam aan zee dit zijn de zes leukste stranden van de stad
leesbaar schrijven blijft uitdaging voor ambtenaren binnenlands bestuur
ambtenaren hebben het relatief vaak met elkaar aan de stok en staan hiermee in de top drie van ruziënde werknemers.
wat is een normale geste? wat is smeren? het vonnis in de zaakvan rey geeft antwoorden en verkent de grijstinten.
bestuurders worden vaker gescreend op integriteit binnenlands bestuur
de hartekreet van hugo borst over verpleeghuizen vergeef me mijn frustratie
lijst van slecht presterende verpleeghuisinstellingen openbaar gemaakt via
klokkenluiden zal nooit makkelijk worden. maar vanaf vandaag krijgen melders van misstanden in elk geval hulp.
dit zijn de ergste jeukwoorden op kantoor via
toch maar even de trap op. morgen is hij gesloten.
topambtenaren moeten beter zichtbaar het goede voorbeeld geven op het gebied van integriteit. binnenlands bestuur
werkgevers en werknemers in actie tegen ongewenst gedrag op het werk
eraf met haar hoofd! over het wegsturen van wethouders en burgemeesters via
rotterdam zet twee ambtenaren op nonactief in verband met fraudeonderzoek
steeds meer burgemeesters, wethouders en raadsleden zijn bang om beschuldigd te worden van nietinteger handelen,
de arjan van der meer bokaal. wat een mooie en terechte hommage.
een schreeuw om nuance via
de ambtenaar moet verschillende personen zijn. binnenlands bestuur
rijksoverheid haalt streefcijfer met 31% vrouwen in topfuncties via
aboutaleb opent uitkijkpunt de trap
wat kunnen we leren van het verhaal van arthur gotlieb?
feest in de doelen
we hebben ons eigen song and dancefestival in de doelen met prachtig jong zangtalent vanavond.
inburgeringscursus voor managers verdoezel wat je denkt en doe nooit wat je zegt
voor de diehard feyenoord fan
a1 drie uur eerder open, megaoperatie spoorbrug muiderberg klaar
top 3 management overtuigingen die lean leiderschap in de weg staan via
luisteren het belang en de grens via
over ethiek, integriteit en het moreel kompas managementsite kennisbank
bijzonder oorlogsdocument gevonden in rotterdam via
bios verhuist naar huis voor klokkenluiders, dat op 1 juli van start gaat.
alle topsalarissen semioverheid ingeperkt
rijk ontslaat 121 medewerkers wegens integriteitsschendingen.
aantal klokkenluiders blijft toenemen maar veel klokkenluiders ondervinden nog steeds negatieve gevolgen. via
supertrap biedt vanaf 16 mei een magnifieke blik op het nieuwe rotterdam
werk van ambtenaar verandert extreem
op weg naar het festival pal mundo in ahoy rotterdam
zo haal je het meeste resultaat uit je referentiecheck via
treinreizigers rotterdam we nemen het risico maar
hoezo technologische revolutie? alle grote uitvindingen zijn inmiddels wel gedaan. via
feyenoord wil de kuip behouden in strip aan de maas via
de 10 belangrijkste punten uit de wet huis voor klokkenluiders.
maak incidenten foute ambtenaren bekend
om rotterdam op internet groeit een nieuwe generatie boeven
doorbraak van duurzaam duurzame energie is goedkoper aan het worden dan energie uit fossiele brandstof.
mensen zijn geneigd om makkelijke wachtwoorden te kiezen als ze gedwongen worden om deze regelmatig te wijzigen.
loopbaanadvies van house of cards. voor wie wil leren hoe je meedogenloos en gewetenloos te werk gaat. via
dualisme in de politiek duet of duel? via lerendeleiders
hoe je brein reageert op financiële beloningen
gezondheidsrisicos van zittend werk sedentair gedrag
blok wil screenen huurders rechtmatig maken
artsen moeten stoppen met whatsappen over patiënten via
wie wil er nog bij de rotary of de lions? het ledenbestand van deze clubs wordt kleiner. via
eerste kamer stemt over huis voor klokkenluiders
meer hindernissen voor verklaring omtrent gedrag
alle politici vermengen belangen, maar liever niet in het openbaar via
begrip integriteit misbruikt in publieke discussies
‘geluk’ steeds belangrijker voor ambtenaar
minder ambtenaren, dus minder kantoren
wat zijn de taken van een vertrouwenspersoon?
op simpele wijze geheugen en besluitvorming verbeteren
koning benadrukt belang van vrijheid in kersttoespraak via nrc
op zondag 20 december concert van het rotterdams philharmonisch orkest in de stad
de ambtenaar als professional. wat betekent dat eigenlijk? via deambtenaarnl
waarom een strenge baas je minder productief maakt via nrcqnl
integriteit welkom in het mijnenveld van de moraal… via kennislink
niet te snel met de rode kaart voor ambtenaar binnenlands bestuur
trap je in die phishing mails? waarschijnlijk wel. onthoud dan de boats regels. via
welke rol kunnen vertrouwenspersonen en bedrijfsmaatschappelijk werkers spelen? een interview.
terlouw uit zorgen over integriteit afnemende integriteit komt uit samenleving binnenlands bestuur
een kansloos integriteitsonderzoek? niet aan beginnen. binnenlands bestuur
rijksambtenaren moeten veel vaker van baan wisselen via volkskrant
offline navigeren scheelt veel dure mb’s
uit onderzoek blijkt dat frauderende wetenschappers meer jargon gebruiken. via
zonder privacy verliezen we onze ziel
werkstress leidt jaarlijks tot 7,5 miljoen verzuimdagen en kost nederland per jaar 1,8 miljard euro.
getverderrie, wat een smeerboel op die bureaus. waarom clean desk niet werkt.
vier geruststellende feiten over imperfecties op de werkvloer. via nrcqnl
wie zegt dat je werk moet bestaan uit wat je het leukst vindt om te doen? |
vier lessen over transparantie die we kunnen leren van de vwdieselgate via
nederlandse ambtenaren beroofd en mishandeld tijdens werkbezoek parijs via
gen y wil kansen, gen x salaris. en de babyboomer? die wil dichtbij wonen
oudrechter moet als chief compliance officer integriteit herstellen bij volkswagen via
overheden veelvuldig doelwit van cyberaanvallen
rekenkamer arnhem nokt ‘m
airfrance klm een zachte landing gaat het niet worden
schaf het beoordelingsgesprek af
de gedragscode integriteit voor rijksambtenaren is opgefrist.
petitie voor minister van ict
kwart ambtenaren wil ander werk
hoe wapen je je tegen een ddosaanval? 6 domme vragen beantwoord via
finale normaliseringskwestie ambtenaren in zicht
wetsvoorstel ambtenarenzaken naar gewone gerechtshoven
gedrag ambtenaren cruciaal bij omgang met privacygevoelige gegevens
antilliaanse feesten halen caraïben naar hoogstraten
niet alle ambtenaren uitgerust terug van vakantie. 60plussers hebben de meeste energie om weer te beginnen.
zomercarnaval afgelast vanwege noodweer / rtv rijnmond
integriteit blijft belangrijke valfactor wethouders
de 19 grootste fouten die je op linkedin kunt maken via
vanavond, eindelijk, marc anthony in ahoy!
aardig zijn levert toch het meeste op | intermediair.nl
den haag en rotterdam hebben de hoogste digitale volwassenheid
rond 1530 uur fietsen de renners over de coolsingel, het hofplein en de erasmusbrug | rtv rijnmond
goedemiddag, bedankt voor de tip, leuk artikel
wachtgeld voor politici wekt vooral woede en dekt afbreukrisico onvoldoende via
zomergasten 2015 bekend aboutaleb, buwalda, simone van saarloos via
vvd wil declaratiegedrag bestuurders onderzoeken
zanger, dichter en taalvirtuoos drs. p op 95jarige leeftijd overleden via
haal je koffie voor ál je collega’s of sla je die ene altijd over? doe de test over pesten via
de senaatsverkiezing hebben wat weg van house of cards’
googles hr werkwijze geef personeel ruimte en verantwoordelijkheid via
provinciebestuurders worden voor hun aantreden steviger doorgelicht dan voorgaande jaren. via
waarom je straks geen 19 wachtwoorden meer nodig hebt via
strengere regels integriteit laarbeek
vws zet integriteitsregels op een rijtje. via
nederland en aruba hebben een akkoord gesloten dat een einde moet maken aan het conflict over de begroting van aruba
ben tiggelaar de beschermengelen van de ziel
zeilschool kralingse plas heeft weer eigenaar | rtv rijnmond
blok betaalt rijksambtenaren vrijgevallen pensioengeld
vier ambtenaren amsterdam verdacht van machtsmisbruik
rotterdam wil onderzoek naar ictaanbestedingen in de periode 2004 2009.
‘ambtenaar makkelijk slachtoffer voor hackers’
1 april de dag dat bankiers eerlijk worden. binnen 1 jaar moeten 90.000 bankmedewerkers een eed afleggen via
‘ontambtelijking zet loyaliteit ambtenaar onder druk’
ambtenaren en bestuurders zijn trouwe stembusgangers.
commissie cohen geen ontslag ambtenaar om istweet
7 tips om pesten op het werk te stoppen | intermediair.nl via
spookambtenaar dronten is zeldzaam exemplaar
aanpak schijnconstructies werknemers krijgt steun hele kamer
flexwerkers frauderen steeds vaker nieuws overhetnieuwewerken.nl
trouw? authentiek? onzin, integer leiderschap draait slechts om eerlijkheid via
ambtenaren negatief over zichzelf en hun baas
ambtenaren houden hart voor de zaak
wethoudersonderzoek 2014 integriteit is meer dan ooit een reden voor een tussentijds vertrek van de wethouder.
bonussen hebben een groter effect bij concrete denkers
vriendelijk dank voor de beide links. ik ga de artikelen. ik ga ze lezen.
vriendelijk dank voor de beide links. ik ga de artiekelen lezen!
integriteit bij overheidsinkopen stijgt, maar aandacht blijft noodzakelijk
burgemeester aboutaleb door elsevier uitgeroepen tot nederlander van het jaar
een indrukwekkende kijk van bovenaf op de highlights van rotterdam via
dank je voor de tip ik ga er naar kijken.
achmea werkgevers proberen vaker personeel weg te treiteren
deze ‘typisch rotterdamse’ wereldbollen komen voor het centraal station te staan. via
rotterdam is uitgeroepen tot de beste stad van europa via
ter ere van zijn 70e verjaardag is nachtburgemeester jules deelder ook 1 dag burgemeester van rotterdam bij daglicht
drie maanden meat less monday bij 4 departementen.
voor alle salsaliefhebbers marc anthony komt in 2015 naar nederland! via
wrr en scp ‘tweedeling in nederlandse samenleving’
de tweede kamer krijgt mogelijk een vertrouwenspersoon integriteit.
pestcultuur onder ambtenaren komt door gouden kooi
zeven experts over overheid en integriteit aan vooravond van dag van de integriteit.
plasterk stelling ‘je bent het of je bent het niet’ is te zwartwit je kan beter toegeven dat er een grijs gebied is