makelaars waarschuwen woningmarkt is aan het droogkoken en het kartel van en ?
kwart van huizen wordt boven vraagprijs verkocht behalve bij koopgarantkartel van en !
behalve de karteldeals van samen met feiten liegen niet
wij zijn de kampioenen... en we zijn beter dan onze vrienden.
tipgevers krijgen gelijk 1,2 miljoen euro teveel betaald voor koopgarantwoningen via
zit bij het hetzelfde bestuur als bij ? wat een rare contracten en regelingen
iedereen wil opeens makelaar worden ja allemaal dikke steekpenningen opstrijken van !!!
stuurt u mij een pb aub? ik ken u geen pb sturen krijg ik als melding
is goed ik stuur u een pb
extopman vestia door fiod gearresteerd nou de boekhouding bij nog!
maseratiman veroordeeld tot ruim 3 jaar cel zijn dat is 1! nou dat zooitje bij nog!
doe dat niet want is al geregeld met overmars
verwarrend woord korting nog niet helemaal verdwenen op koopgarantwebsite via
prijs rotterdamse appartementen schiet omhoog behalve die met van !
tekort aan huizen wordt groter, prijzen blijven hard stijgen behalve bij de criminelen van !
huizenprijs in twaalf jaar tijd niet zo hard gestegen behalve bij van !
goede deal met koophuis pakt slecht uit koop niet van
goede deal met koophuis pakt slecht uit
koopgarant veilig? nou, nee via koop niet van
onderzoek naar beïnvloeding taxateurs door woningcorporaties via
‘25% korting op een huis, wat denk je zelf? het is geen brood.’ via
bedenkers koopgarant schrappen het woord ‘korting’ op last van waakhond via
minister blok en vereniging eigen huis om tafel over problemen verkoop woningcorporatiehuizen via
is de uitzending morgen of zondag? het bericht geeft morgen aan maar de site zondag?
taalkenner kuitenbrouwer over korting koopgarant ‘ik vind dit misleiding’ via
helft tipgevers dacht onterecht dat hij woning kocht met èchte korting via
gerco vermeer voelt zich opgelicht vanwege koopgarant. via
woningcorporatie bodegraven gaat taxaties koopgarant onderzoeken via
huizenkopers bodegraven ‘wij hebben altijd gedacht dat we echte korting kregen’ via
koophuis via voor iedereen met problemen met en lees dit hele onderzoek!
advocaat over korting koopgarant ‘dit kan echt béter worden uitgelegd’ via
onderzoek naar beïnvloeding taxateurs koopgarantwoningen
tipgever ‘door jullie uitzending kwam ik erachter dat ik de korting moet terugbetalen’ via
tipgever ‘woningcorporatie verdient 19.000 euro over mijn rug’ via
koopgarant past regels aan na onze berichtgeving over partijdige taxateurs via
, mijn excuus heb het aangepast inmiddels
heeft u ook problemen met van o.a. en de goede woning, meld u dan nu aan bij de s…
meld u aan bij de stichting als u ook problemen ervaart met van oa etc. !!
apeldoornse huizenkopers slepen goede woning voor rechter
advocaat start rechtszaak ‘protesteer tegen te lage koopgaranttaxaties’ via
tips en tricks voor mensen met een koopgarantwoning via
tipgever over koopgarant ‘dit zijn maffiapraktijken’ via
zo gaat het dus ook bij ! koop geen woning met koopgarant van ze ! vanavond 22.35 npo2 de
makelaar ‘mensen met koopgarantwoningen zijn gegijzelden van de woningcorporatie’ via
, morgen allemaal kijken! ik zit er ook in voor mijn zaak tegen
apeldoorns wooncomplex boos op woningcorporatie over koopgarant via
vereniging eigen huis roept minister op onderzoek te doen naar koopgarant via
sanne boogaardt bekijkt cijfers over de huizenmarkt in apeldoorn. via
sanne boogaardt en michel bolsenbroek vergelijken hun woningen. via
een grote koopgarantwoning en een kleine, maar volgens taxateur zijn ze hetzelfde waard via
controleinstituut taxaties met 22.000 euro waardeverschil beide prima via
apeldoornse familie richt stichting op om vuist te maken tegen woningcorporatie via
makelaar ‘mensen met koopgarantwoningen zijn gegijzelden van de woningcorporatie’ via
bedenkers koopgarant ‘wij delen zorg over kwaliteit en onafhankelijkheid taxatie’ via
controleinstituut vindt dat er sprake is van belangenverstrengeling bij taxaties slimmer kopen via
taxatietest koophuis wijst uit je kunt bij taxateur wensbedrag bestellen via doet dit dus ook
bewoners winnen rechtszaak van woningcorporatie over koopgarantwoningen via yes !!! nu woonbron nog !!
tipgevers ‘belangenverstrengeling tussen taxateur en woningcorporatie bij slimmer kopen’ via
nvm onderzoek naar mogelijke belangenverstrengeling eindhovense taxateur en woningcorporatie via
taxaties met 22.000 euro waardeverschil volgens controleinstituut prima via
tipgevers ‘belangenverstrengeling tussen taxateur en woningcorporatie bij slimmer kopen’ via
veel boze tipgevers over ‘oplichting’ door woningcorporatie met koopgarant via
wil iedereen die problemen heeft met koopgarant van o.a. zich aub melden bij demonitor@kroncrv.nl, samen sterker!
door te hoge taxatie heb ik voor veel te hoge prijs gekocht via iedereen even melding maken aub!
2 oktober en 10 november iedereen kijken naar
begonnen met printen van ontelbare emails voor journalist die dossier komt doornemen woensdag, hopelijk wat schot in de zaak vs
doorbraak in mijn zaak tegen eindelijk! wie volhoud lacht het laatst!
en deel 2 van de pagina ... koop dus aub geen woning met koopgarant van woonbron 2/2
voor de geïnteresseerden van de zaak tegen woonbron 1/2
ik wil winnen!!!
gezonder worden en/of afvallen? ja? welkom!
nee loopt nog steeds, woensdag hoor ik meer
koop geen huis met koopgarant van u word opgelicht door deze boevenbende!!!
morgenochtend de hoorzitting vs einde kartelvorming en corruptie!!! gerechtigheid zal winnen!!!
ik ben zelf actief op dat forum als vincentfr1908 2/2
en dan zoeken op koopgarant of woonbron... daar vind u meerdere mensen met dezelfde problemen 1/2
tevens is er 116 een openbare zitting van de commissie wonen en rijksdienst der staten generaal van de tweede kamer
als u wilt kan ik u een overzicht via de mail sturen als u mij in een pb uw emailadres stuurt
11 juni word mijn zaak behandeld bij de commissie wonen en rijksdienst der staten generaal! is openbaar!!! ik zal winnen!!!
vuile oplichters!!! de rechter zal jullie niet meer redden!!! vuile boevenbende!!! corrupte zooi!!! ik betaal niet!!!
op naar de rechtbank om aan te klagen!!! 2/2 ... is kartelvormende boevenbende !!!!
koop geen woning met van ... u word opgelicht en ik ken het bewijzen! hopelijk snel uitspraak van gcwzh en dan ...1/2
ik heb net trendbreuk steeds meer huizen op het droge via gelezen. behalve bij
nee ik hou me mond niet! ... koop niet met koopgarant aub! zal u keihard oplichten!
koop geen woning met koopgarant van u word opgelicht door taxateurs zijn omgekocht!!!
rechter verkoop sociale woningen mag en dan mijn woning voor een prikkie willen kopen!
zo begon het vraag welke instantie houd de woning corporaties in de gaten… » rechtswinkel.nl
is meer bron van ellende! neem aub geen koopgarant! u word opgelicht!
ik zoek mensen die ook problemen hebben met van graag melden bij mijn advocaat!
koop geen woning met van ... uw waarde blijkt vele malen lager dan getaxeerde waarde bij aankoop! trap er niet in!
hahaha bedankt ik geef het wel door
ik zal het doorgeven als jullie het delen deal? 😜
bij is alleen garantie op extreme waardeverlaging van de woning! niet doen! ik heb er zelf 1 helaas
nee is niet van mij is van me collega dus als jullie het ook willen delen?
galerijflat appartement in rotterdam gevonden via
wat een fraudeurs... koop geen woning van ze met koopgarant!! u ben gewaarschuwd! oplichters zijn het!!
wow, te gek! super lage prijzen voor de nieuwste producten! kennen jullie 123bied.nl al? via
geld boven doel woningcorporatie... koop geen woning met koopgarant bij bij terugkoop word u flink opgelicht! op naar de rechter!
woningcorporaties eindelijk aangepakt! zal hopelijk ook eens goed aangepakt worden! mooi voor me rechtzaak dit nieuws!
wanbestuur en mismanagement bij woningcorporaties via hier vormt uiteraard geen uitzondering op !
heb er nog 1 en dat is de koopgarant constructie van en corrupt in de puurste vorm!
misschien is eerlijk te zijn in plaats van corrupt! is geen garantie op eerlijkheid!
koop geen woning met van bij terugkoop is de waarde extreem gedaald en worden afspraken niet nagekomen! corruptie!
laat mij lekker iedereen waarschuwen tegen uw foute organisatie, zie ook de s.s. rotterdam! het rechtshof beslist!
van taxateurs die woonbron inhuurt, en blijkbaar ook beïnvloed! maar nogmaals verdedig uzelf voor de rechter! en...
de taxateur daadwerkelijk onafhankelijk is? alles is van tevoren besproken met de door de heer v.s genoemde poule...
ik citeer de heer v.s de volgende taxatie valt gegarandeerd hoger uit dat beloof ik... hoe weet hij dit dan als...
deze procedure is al geweest en is anders verlopen als gegarandeerd werd door uw collega/manager vandaar de rechter!
momenteel is mijn rechtsbijstand de zaak aan het voorbereiden en als zei dit ook vinden zal ik dit uiteraard doen!
de onafhankelijke taxateurs van woonbron worden door woonbron geïnstrueerd zo laag mogelijk te taxeren bij terugkoop
beloftes van een manager van woonbron worden niet nagekomen... en is plotseling van de aardbodem verdwenen... etc.
type woning in de straat nog gebouwd worden... taxateur die niks wist van woonbron gaf waarde van 214,000
de waarde is in december 2012 212,500 euro en in juli 2014 170,000 euro... nieuwbouwwoning... terwijl dezelfde...
koop geen woning met koopgarant van ze lichten je op bij verkoop! op naar de rechter en straffen die maffia!
ik durf wel! wil graag die oplichters van is goed aangepakt zien worden! aanpakken die boevenbende!
laat het altijd afweten... afspraken niet nakomen is hun specialiteit! pure oplichters zijn het! op naar de rechtbank!
huizenprijzen stijgen voor vijfde maand op rij dus wat klopt er niet aan jullie 20% daling in 2 jaar ?@woonbron
woningen voor 5e maand op rij gestegen met 1,7%... bij woonbron een daling van 20% sinds december 2012... vreemd?
en bij word beweerd dat ze sinds december 2012 met 20% gedaald zijn?! wie verteld de waarheid?
blijft apart... hoe verder ze bouwen hoe minder het waard word prachthuis
en nieuwbouwwoningen uit december 2012 zijn 20% gedaald? volgens wie verteld de waarheid?
sociale huur voor 750 euro? terwijl woningwaarde 170.000 is? niet echt sociaal he
en de nieuwbouw is met 20% gedaald in 2 jaar? volgens is dit daadwerkelijk zo!
koop geen huis met koopgarant van bij verkoop word je keihard opgelicht! tijd voor parlementair onderzoek naar wbc! maffia is het
huizen prachthuis met sociale huur van 754 euro terwijl waarde bij optie naar koop is gedaald naar 170.000? sociaal of corrupt?
nieuwe woningen van prachthuis hoogvliet nu al in waarde gedaald van 212.500 naar 170.000 volgens
woningcorporaties te machtig? jazeker woonbron beïnvloed onafhankelijke partijen naar hun hand! koop niet met koopgarant!
iemand een woning gehuurd van prachthuis in hoogvliet? van wil graag de waarde weten als u van huur over gaat tot koop
of ik mijn negatieve ervaring van wil delen met journalist, uiteraard! alleen maar goed voor me rechtzaak vs
ze geven taxateurs de opdracht je woning zo laag mogelijk te taxeren bij terugkoop daarna beloven ze op te lossen wat niet gebeurd
koop nooit een woning van woonbron met koopgarant! bij terug verkoop proberen ze je op te lichten! pas op met deze corruptie!
koop nooit met koopgarant van woonbron! wat een oplichtpraktijken! op naar de rechter! woonbron is maffia!
verdien extra geld en ontvang direct 1 cashcoin.
huis in vlaardingen gevonden via
probeer de app words in a pic, hij is geweldig!
woning in honselersdijk gevonden via
dit is pas echt een goed voetbal manager spel! kom het bekijken
iemand kaarten kopen voor vrienden van amstel live donderdag 24113 ? 6 kaarten leggen
huis in honselersdijk gevonden via
huis in honselersdijk gevonden via
reactie van suzanne fint coach op
deel of retweet appartement in vlaardingen gevonden via
zaterdag 29 sept open huis !!! appartement in vlaardingen gevonden via
wie bied ? appartement in vlaardingen gevonden via
please retweet aub appartement in vlaardingen gevonden via
in prijs gezakt !!!!! appartement in vlaardingen gevonden via
pls rt de witte garantiemakelaars lepelaarsingel 350 te vlaardingen
please retweet help ons aub appartement in vlaardingen gevonden via
wie ? appartement in vlaardingen gevonden via
vanavond 18.00 tot 21.00 open huis avond !!! makelaar open tot 00.00!! appartement in vlaardingen gevonden via
pls rt appartement in vlaardingen gevonden via
please retweet garantiemakelaars lepelaarsingel 350 te vlaardingen ...
garantiemakelaars lepelaarsingel 350 te vlaardingen
nieuwe makelaar en fotos appartement in vlaardingen gevonden via
huis in vlaardingen gevonden via
pls rt huis in vlaardingen gevonden via
huis in vlaardingen gevonden via
checkook
huis in vlaardingen gevonden via
wie bied ? koop appartement lepelaarsingel 350 vlaardingen woningaanbod ooms makelaars schiedam/vlaardingen bv
retweet aub wie bied ? of ken iemand die op zoek is naar leuk appartement ? checkook
retweet aub wie bied ? appartement in vlaardingen gevonden via
koop appartement lepelaarsingel 350 vlaardingen woningaanbod ooms makelaars schiedam/vlaardingen bv via
pls rt appartement in vlaardingen gevonden via
open huis !!!! 11.0015.00 en geen kosten koper !!!! checkook
open huis vandaag 11.0015.00 !!! en geen kosten koper !!! tot straks appartement in vlaardingen gevonden via
morgen open huis !!!!
nu of nooit ! pls rt appartement in vlaardingen gevonden via
v.o.n&gt appartement in vlaardingen gevonden via
appartement in vlaardingen gevonden via
koop appartement lepelaarsingel 350 vlaardingen woningaanbod ooms makelaars schiedam/vlaardingen bv via
ook mijn huis !!! 335 verkopers uit de regio bieden woning vrij op naam aan tijdens de v.o.n. drink via
koop appartement lepelaarsingel 350 vlaardingen woningaanbod ooms makelaars schiedam/vlaardingen bv via
retweet appartement in vlaardingen gevonden via
koop appartement lepelaarsingel 350 vlaardingen woningaanbod ooms makelaars schiedam/vlaardingen bv via
31maartopenhuis22maarttot6april v.o.n. appartement in vlaardingen gevonden via checkook
31 maart open huis 22 maart tot 6 april v.o.n. !!!!!! appartement in vlaardingen gevonden via
31 maart open huis please retweet appartement in vlaardingen gevonden via
please retweet te koop appartement in vlaardingen gevonden via
t.e.a.b appartement in vlaardingen gevonden via
koop appartement lepelaarsingel 350 vlaardingen woningaanbod ooms makelaars schiedam/vlaardingen bv via
please retweet appartement in vlaardingen gevonden via
was zeker gezellig tor snel ! xxx
please retweet appartement in vlaardingen gevonden via
appartement in vlaardingen gevonden via
please retweet appartement in vlaardingen gevonden via
wie bied ? appartement in vlaardingen gevonden via
te koop t.e.a.b !!!! appartement in vlaardingen gevonden via
te koop via ooms makelaar appartement in vlaardingen gevonden via
for sale appartement in vlaardingen gevonden via
wie bied ? appartement in vlaardingen gevonden via
te koop appartement in vlaardingen gevonden via
hebben jullie enig idee hoe lang de levertijd van de iphone 4s 16 gb zwart momenteel is ? besteld op vodafone.nl alvast bedankt
wie bied ??? pls rt appartement in vlaardingen gevonden via
pls rt appartement in vlaardingen gevonden via
koop appartement lepelaarsingel 350 vlaardingen woningaanbod ooms makelaars schiedam/vlaardingen bv via
appartement in vlaardingen gevonden via
koop appartement lepelaarsingel 350 vlaardingen woningaanbod ooms makelaars schiedam/vlaardingen bv via
appartement in vlaardingen gevonden via
verdien geld via internet en krijg een schrijf je nu in bij nucash!
pls rt appartement in vlaardingen gevonden via
koop appartement lepelaarsingel 350 vlaardingen woningaanbod ooms makelaars schiedam/vlaardingen bv via
jaap.nl wat vinden jullie van dit huis?
appartement in vlaardingen gevonden via
koop appartement lepelaarsingel 350 vlaardingen woningaanbod ooms makelaars schiedam/vlaardingen bv via
koop appartement lepelaarsingel 350 vlaardingen woningaanbod ooms makelaars schiedam/vlaardingen bv via
jaap.nl wat vinden jullie van dit huis?
appartement in vlaardingen gevonden via
koop appartement lepelaarsingel 350 vlaardingen woningaanbod ooms makelaars schiedam/vlaardingen bv via
jaap.nl wat vinden jullie van dit huis?
appartement in vlaardingen gevonden via
jaap.nl wat vinden jullie van dit huis?
appartement in vlaardingen gevonden via
koop appartement lepelaarsingel 350 vlaardingen woningaanbod ooms makelaars schiedam/vlaardingen bv via
appartement in vlaardingen gevonden via
koop appartement lepelaarsingel 350 vlaardingen woningaanbod ooms makelaars schiedam/vlaardingen bv via
appartement in vlaardingen gevonden via
pls rt appartement in vlaardingen gevonden via
appartement in vlaardingen gevonden via
appartement in vlaardingen gevonden via
pls rt appartement in vlaardingen gevonden via
please retweet appartement in vlaardingen gevonden via
pls rt te koop prachtig appartement in vlaardingen gevonden via
pls rt appartement in vlaardingen gevonden via
appartement in vlaardingen gevonden via
appartement in vlaardingen gevonden via
pls rt appartement in vlaardingen gevonden via
appartement in vlaardingen gevonden via
pls rt happy new year ! appartement in vlaardingen gevonden via
pls rt appartement in vlaardingen gevonden via
appartement in vlaardingen gevonden via
appartement in vlaardingen gevonden via
appartement in vlaardingen gevonden via
pls rt appartement in vlaardingen gevonden via
jaap.nl wat vinden jullie van dit huis?
jaap.nl wat vinden jullie van dit huis?
rt pls appartement in vlaardingen gevonden via
koop of retweet aub appartement in vlaardingen gevonden via
appartement in vlaardingen gevonden via
appartement in vlaardingen gevonden via
please retweet !!!!!!! appartement in vlaardingen gevonden via
appartement in vlaardingen gevonden via
please retweet appartement in vlaardingen gevonden via
appartement in vlaardingen gevonden via
appartement in vlaardingen gevonden via
pls rt appartement in vlaardingen gevonden via
please rt of koop !!!!! appartement in vlaardingen gevonden via
pls rt appartement in vlaardingen gevonden via
appartement in vlaardingen gevonden via
020 feyenoord ! wij gaan winnen ! 12 !
please retweet of kopen natuurlijk p appartement in vlaardingen gevonden via
appartement in vlaardingen gevonden via
pls rt help je mee? via
te koop pls rt appartement in vlaardingen gevonden via
stuur door aub !!!! retweet please !!!!! appartement in vlaardingen gevonden via
pls rt appartement in vlaardingen gevonden via
appartement in vlaardingen gevonden via
retweet pls aub appartement in vlaardingen gevonden via
please retweet or buy appartement in vlaardingen gevonden via
rt pls appartement in vlaardingen gevonden via
pls rt appartement in vlaardingen gevonden via
doe net als ana ff retweet aub p appartement in vlaardingen gevonden via
appartement in vlaardingen gevonden via
please retweet appartement in vlaardingen gevonden via
please retweet appartement in vlaardingen gevonden via
pls rt appartement in vlaardingen gevonden via
pls rt help je mee? via
please retweet appartement in vlaardingen gevonden via
appartement in vlaardingen gevonden via
appartement in vlaardingen gevonden via
appartement in vlaardingen gevonden via
pls rt help je mee? via
appartement in vlaardingen gevonden via
jaap.nl wat vinden jullie van dit huis?
appartement in vlaardingen gevonden via of via
jaap.nl wat vinden jullie van dit huis?
appartement in vlaardingen gevonden via
pls rt help je mee? via
pls rt help je mee? via
reactie van suzanne fint coach op via
appartement in vlaardingen gevonden via vandaag open huis !!!!!!!!! koffie en cake staan klaar
appartement in vlaardingen gevonden via
appartement in vlaardingen gevonden via open huis as zaterdag 1 oktober
pls rt help je mee? via
appartement in vlaardingen gevonden via
pls rt help je mee? via
reactie van suzanne fint coach op via
pls rt help je mee? via
mijn voorspelkracht bij hyves eredivisie voorspellen is 50%
pls rt help je mee? via
pls rt help je mee? via
reactie van suzanne fint coach op via
reactie van suzanne fint coach op via
reactie van suzanne fint coach op via
reactie van suzanne fint coach op via
pls rt help je mee? via
hard werken stena line
pls rt help je mee? via
appartement in vlaardingen gevonden via
appartement in vlaardingen gevonden via