ik ben in 010 als koen
is een prima accommodatie heb ik vernomen
milo hou je bek gap
koentje is een feyenoorder!!
koen legend wat hou ik toch van jou❤❤
4 november vv ameideifc 😂. stond nog op de foto met je mat bij ifc. kom je kijken😜
wij ook! oh wacht, jullie spelen helemaal geen champions leaque
wat is er woensdag? feyenoord speelt op dinsdag, als we gaan praten kom dan met feiten
armin weet je ook waarom ik niet op de market kan
hoezo kunnen jullie geen speler meer aanbieden die ik wil kopen? wil graag coins op de site storten..
koentje pik ik zie jou zondaag kameraad. we hebben jou ook een heerlijk snappie gestuurd kan ik je vertellen
de vraag is, zit je ook in de kuip
en dat was ook voor het laatst
roelie heb je al je if icardis nog?
ze weten van je ballgame
ben ik ff laat mee, thanks in ieder geval!
mark ik heb me net aangemeld voor de fut champions club maar ik krijg geen tenue. hoe werkt dit?
ook opblijven tot 12uur? ✈✈
vincentverveer zette zojuist 5,000 coins in op futgalaxy bets. mogelijke terugkeer 10,462 coins via
vincentverveer zette zojuist 5,000 coins in op futgalaxy bets. mogelijke terugkeer 62,010 coins via
vincentverveer won 12,350 coins bij futgalaxy bets! via
vincentverveer zette zojuist 5,000 coins in op futgalaxy bets. mogelijke terugkeer 12,375 coins via
gevloerd???.
vincentverveer zette zojuist 5,000 coins in op futgalaxy bets. mogelijke terugkeer 10,075 coins via
is futgalaxyofficial op instagram een echt account?
dan zal het wel een lookalike geweest zijn haha. al nagedacht over een overstap naar vakkie s next season?
koen klopt het dat je gister in de rust van feyenoord psv broodjes ging halen? dacht dat ik je zag staan haha
dat lijkt me sterk
in de buurt van dordrecht dus valt mee, jij?
maar sfeer in vak s wel lauwer, vakkie n betaald van je yt moneys zeker😂
lol ik ook rij 19, volgend jaar ff vakkie s ?
hahaha noo ik zat p man maar ik hoorde jou een keer in stream zeggen dat je ergens bij n zat
sterk ik probeerde je te snipen daar ergens maar zag je niet, btw immers volgende week basis?
srry man heb hansen al verkocht en van beek heb ik al maar thnx
ben ff niet bereikbaar op wapp voor tijdje twitter me
tuurlijk gap
wat vind je van elia en evt kramer?
bellarabi lijkt me een beetje duur en te waardevol voor zn club
vakkie p ook lekker sappig in het hoekie
lekker vakkie n toch
had je liever ronaldo messi bale gehad zeker
en door een overtreding want de jong mag altijd overtredingen maken
ik wil dat account wel
ijselmeervogels niveua
je heb ook gwn kut internet robbie
trouwens dat boeit niemand
boetius smeert zich ook in
jij zou haar ook gwn prikken hoor
stuur link dan gap kan niet vinden want jij heb een remix met we found love
niet negeren gap
kan je me die remix sturen van boom boom boom boom vengaboys
welk twitch kanaal komt 24fifa m
dat doen wij beter
nee het is nooit zo want nu ook al weer 2 weken zonder uploafs
die kut friezen horen we alleen als de keeper een uitbal moet nemen
wat zei je ook al weer over de vrij?
zeg anders gewoon 1 video per week
als je het zegt, doe het dan ook
staat er in zijn banner, elke woensdag, zaterdag en zondag nieuwe video maar hij upload nooit...
jij bent echt een homo
matthy doe weer eens een keer een q/a ?
kijk naar feyenoord, clasie, boetius, vilhena, kongolo, van beek, nelom, karsdorp
depay en willems komen van sparta, jij bent ook al zon fucker he
als if achabar komt koop jij hem wel toch?
op sommige shots lijk jij kaulo erg op rick karsdorp
vanmiddag op de krommedijk ollie versus dolly.
matthy we pakken ze he als jens en jordy if zijn
ron jans volgend jaar ook trainer bij pec!
geeft niet man! snap dat je toetsen hebt
komt de vid vandaag nog?
nog steeds aan het editen zeker...
je zou bij 40k subs al een nieuwe q/a special doen maar nu heb je al 109k en nog steeds geeneen
nfs kijken
eindelijk thuis
ik ben goed in slapen, ik kan het met mijn ogen dicht
vermeer zelfs toen achterstonden hoorde ik ze zingen. laten we eerlijk zijn. dat was ik niet gewend. normaal fluitconcert. shots fired!
hoe leeg kan een stadion zijn in de laatste spannende minuten? zo dus.
nov&lt&gt rj nieteens kan je zelf
lekker kazachtstan!
morgen 8 uur melden😩
zlatan tot nu toe onzichtbaar. 👃
wanneer een nieuwe leven als een prof?
wat vinden jullie van mick jagger? beest
morgen naar feyenoord besiktas
heb een paar filmpjes van villalba gezien, hij is best goed op rechts, kan afmaken en heeft snelheid
als te vrede in de spits staat woensdag, dan weten we sowieso dat er niet gescoord gaat worden aan feyenoord kant
open dag feyenoord stadion de kuip rotterdam
ad manchester united wil feyenoorders clasie en indi halen voor 37 miljoen. feyenoorders
wie was er vrijdag de baas?
als louis bruno meeneemt naar manchester, zou dit wel eens een mooi duo kunnen worden.
wij zijn ook kampioen, zo leuk zijn als je bij ons ook ff komt draaien want je was goed toen bij ifc op de kampioensdag zelf!
heeft jullie ontwerp ook een spelerstunnel?
vandaar dat de kijkcijfers dermate slecht zijn
reden om gewoon naar streams te kijken met engels commentaar, want bij fox zijn ze allemaal voor ajax,
net even naar de gids van fox gekeken, alleen maar ajax word uitgezonden, zelfs tussen reclames zie je ajax tv
morgen kampioenswedstrijd!! 9 uur
subway met maat
volg ! beste feyenoord acc
gekte janmaat &amp mathijsen
02 gekkehuis
wij zijn feyenoord, wij zijn feyenoord
ajax pakt de dubbel niet, feyenoord kampioen!
haha, uniek dit. mourinho eindbaas geeneens kijk je ned3
lekker hoor
roué verveer bij weet ik veel
aids verdediging
kan ik die kopen?
16 dagen jarig
wou nike roshe run halen maar waren geen goeie kaulo
net bij fanshop en daka geweest, nieuwr schoenen en vest en nog paar dingen
laatste verzoek aan twente
wij staan bovenaan
60 gewonnen, 1 gemaakt 2 assist
je zou toch maar het 5e uit zijn en het 8e nakomen omdat je met je stoel kiept
als we winnen staan we 1e
onderweg naar wieldrecht
moeten winnen
al vanaf 5 uur wakker..
56 | enorm vrije kopkans voor pérez, die hem totaal verkeerd raakt en naast kopt. buitenspel
formule 1 kijken
27/04 sc cambuur thuis
06/04 rkc waalwijk thuis
al tijdje trouwens
arsenal 01 voor
en vanavond genoa juventus kijken
straks tottenhem arsenal kijken
feyenoord gewonnen
slechte eerste helft, hopen op een leukere 2e helft met veel goals!
03 gewonnen van peli 1 gemaakt
al uur wakker
het is een gatenkaas daar achterin bij manchester city... wat wil je ook als milner in de basis staat!
zin in zaterdag
morgen nakomen
hw al om 7 uur gemaakt
al 2 uur aan t voetballen
ze moeten nu roepen dat ze tweede willen worden jullie zijn kaolo smiek zeg gwn wie het zegt, unfollow
onderweg naar dfc
vzfotoquiz wie zoeken we hier? lex
waarom zet ik dat erop
hij is geen braziliaanse speler meer, maar we gaan zeker niet huilen
wenger geeft belangstelling voor mini messi toe ja, we volgen hem
ik naar real madrid of barcelona? dat is ridicuul, nonnieuws
pellè bromt ik kan aan je gezicht zien dat je een ajaxsupporter bent
touré dit was een van de mooiste doelpunten die ik ooit heb gemaakt
coup lijkt aanstaande bij kwakkelend sparta rotterdam er is storm op komst
touré maakt werelddoelpunt in finale hier waren twee keepers voor nodig
arsenal activeerde clausule suárez maar contracten stellen niet veel voor
rutten wilde altijd al in de kuip werken wat moet het toch geweldig zijn
feyenoordfans balen de meest kleurloze trainer, dramatische keuze
bayern münchen verlaat je niet, zelfs niet voor real madrid of barcelona
er zijn af en toe grenzen en in onze optiek heeft pellè die overschreden
ik heb nog maar weinig tijd, maar ik wil de champions league winnen
clasie lost pellè af als aanvoerder bij feyenoord
‘misschien had ik wel liever mourinho of ancelotti naar feyenoord gehaald’
zo krijgt feyenoord meer dan twee keer zoveel geld voor nieuwe spelers
feyenoord schorst pellè en pakt aanvoerdersband af
oscar weigert terugreis met spelersbus en loopt naar huis
5 dagen 18 uur 30 minuten 18 seconden feyenoord ajax
zaterdag met naar kuip
zo rii opa en oma en dan met opa naar con az!!!!
mijn app doet t gwn hoor...
willem van hanegem. white heart lane.
tyfus twente volgende week gaan ze zien
van marwijk moet naar feyenoord
wees sneller dan 6 uur als je de app flappy bird nog wilt downloaden om 6 uur word hij uit de app store verwijderdwaarom
hopen dat ajax straks gaat verliezen, feyenoord in punten gedeeltelijk 2e met vitesse en twente
lekker jpb 51 !!!!
jeanpaul boetius !!!!
pelle wat doe je
lexie gaat op jodenjacht lexie gaat op jodenjacht
eredivisie 1945 nac breda roda jc kerkrade 2045 feyenoord nec nijmegen
leuke wedstrijden vandaag
wedstrijd afgelast
feyenoord 12 gewonnen lekker hoor
net terug van trainen
ja dat bedoel ik ook ff typfout anders het ik wel gezegd dat t nu begint
lernliste overschrijven, morgen rep duits
5214 1845 sc cambuur psv 1945 n.e.c. nac breda 1945 go ahead rkc waalwijk 2045 sc heereveen fc twente
downie is net weg, vanavond fifa 14 bij igi
reuzendoder sno blijft bescheiden we hadden vandaag geluk nos lekker sno
mooi toch
haha, prinsejes met neuzen jurken aan zeker, kut neuzen
gooooaaal lekker rkc
vandaag 1230 fc utrecht neuzen
gefeliciteerd maat!
gister met team chille
net gegeten
feyenoord zeer slecht gister
vanochtend bij ifc
wat is je insta vincentifcc
maar ik haat messi
ik weet dat messi de beste is over alle jaren maar dit jaar sws niet suarez nog beter
ja weet ik maar ik haat messi dus cr7 maar eigenlijk moest li10 het worden
hij heeft wel alles gewonnen wat er te winnen valt
misschien naar deze film
met mb boydweeda
dekker is nieuwe clasie
in vrolijk italie!
maak jij is piccaik lig op bed ouwe, ik heb allen op insta
ja klopt john is iets kaler toch boeie hij is altijd fresh net als jpb en tv
beetje wel he maar lijkt ook op marco reusook john
ik heb beetje zelfde haar als joupicca ai graziano style
ik heb beetje zelfde haar als joupicca
nu ff nieuwjaarspagga
we moesten fresh het nieuwjaar in
gister kapper”hahha ai ik vandaagai is ie op 1 januari open dan, ik bedoel dat ik 31 december was gister dus
nog ff vuurwerk
al tijdje terug uit rotterdam
ai, waar was je geweest, rotterdam?
bros before hos is echt een grappige filmai ik ga daarheen
“@fifa14gives wie weet hoe deze app heet krijgt 1k! ”hoe heet die app?
als je kan nfilm
kan je ook mijn feyenoord op je gitaar
nog 23 uur en dan matchh
kijken
fabain kan een glass binnen 7 seconden opdrinken
laat mij is op tv komen doei
respect voor het verleden, viezier op de toekomst
gelijk die spanjaarden uitschakelen
fox sports 1,2,3,4,5 besteld blijj
foutje! onschuldige psvspeler krijgt rode kaart.. nee
net gedoucht, nu frikandellenbroodje eten
banaan
eentje komt twerken
hoelaat moet je spelen, kom ik ff kijken
klaaaar
zuid afrika heeft spanje gegeven 10 wehh
wat doet die colombiaan nou, hij moet zelf rood krijgen
er zij genoeg andere goede spitsen, en janmaar er niet in slaat ook nergens op
rechtsback ook, geeft 2 goede voorzetten bij psg, word gelijk geselecteerd
siem de jong in de spits pffff van persie is 100000x beter en dat middenveld is ook poep
haha nee, jelle verveer
houd je beeaak
met die tering jelle gs maken
koning voetbal is wel lauw
”redelijk waar is grazi?
nu vi straks koning voetbal
banaan
gooaaal
oke laat ajax winnen, maar dan moeten ze wel weten dat amsterdam kapot word gemaakt door die hooligans want die zijn gek
maarja wel kut voor juve
kunnen ijderltuiten niet normaal spellen...
hij staat er altijd, en hij maakt hem ook altijd
eindelijk thuis
adam maher heeft boete van clubleiding psv gekregen na rten bericht over toivonen. hij tekent geenens bjj
en dat mag zich knvb noemen
10 tella zet automatisch oja beste
ohja kut het is geen 10 uur maar 9 uur toch?
straks rodapsv kijken, daarna natuurlijk feyenoordheracles
met die mb boyd078 bij de macc
beste blijft koeman
ping verwijderd
voeg toe en zet eronder
je bent niet in gesprek
of de corners beter kunnen worden genomen en wanneer armenteros een keer gaat scoren
nee ik bedoel tegen go ahead eagels
noii boy de jong heeft 5 hechtingen in zn acjterhoofd
morgen dus 1ste 4 uur buiten handbaltournooi tfoeee is gewoon lauw hoor
wehh feyenoord moet zaterdag kwart voor 7
lens is echt een beest in oranje
“@vincentverveer meteen chagg doen ja kijk wat voor chaggies jij stuurt”oke oke
meteen chagg doen ja kijk wat voor chaggies jij stuurt
als je van persie niet steunt in goede tijden in oranje, support hem niet als hij scoort in oranje
r.i.p. zayn malik, van one direction
drink van mn moekoe
lekker weer
mijn familie staat boven alles.nadat ik komnatuurlijk lieverd hahaha xaii hahaha x
mijn familie staat boven alles.nadat ik kom
pff 0002 alweer
boys ??? dumpen en slaan
weekend ♫ weekend
singh herhaalt ik wil vertrekken bij feyenoord isgoed, ga weg je bent poep
maak nie uit, is net paar weken school, haal je wel weer op!x
wadap?
al tijdje op kranenburgmb
kompany is lauw want hij heeft een lauwe voornaam
eindelijk gta halen straks
ga jij lekker naar aswh, nepsupporter, je bent ifcer of je bent het niet
ifc uit altijd lastig
lachwekkend dit
naar de maan
paal
ik zei het, ruben gaat scoren 20
komen wij uit rotterdam
ja, hij s echt lauw
goossens schiet hem gewwoon in de kruising
waarom zouden ze armenteros dan halen, als feyenoord weet dat t nie goed gaat, zo dom zijn ze niet
ja ik gun het ze wel natuurlijk, ben ook altijd voor hun maar op 1 staat natuurlijk feyenoord
morgen wss gta halen eindelijk
aiai nelom er eindelijk in
wie voelt 100% procent familie voor je? &amp kuch vincent kuch
geef me een cijfer!! en 4 natuurlijk haha
geef me een cijfer!! 2 en 6
nog een zoon opmerking en k ga t verwijderen!!
bij dat ttdus deuts
kappertje geweest,
alleen maar hardwell
ben vandaag jarig gefeliciteerd maat!
nog 50 minuten wachten op fabian
slecht gekeepd