beetje laat, maar, ja!
wat een kul die plaatjes! hangt toch ook helemaal af van het soort band dat je met een collega hebt?
nintendo switch is echt een aanrader. zijn en komen hoop hele goede spellen voor uit.
altijd leuk! lekkere blije set om de laatste loodjes van de week lichter te maken. to…
ja ja, boetius laat weer zien hoe goed hij is ahum
ik snap het gewoon niet, je zet goede spelers op de bank, slechte in de basis, laat matige spelers invallen en goede vallen veel te laat in
feyenoord wil niet, gio wil niet. dat is wel duidelijk. inpakken en naar huis, en jezelf kapot schamen in een hoekje
nee, nee, nee, nee, nee!!! waarom de fuck wissel je jorgenson!??! wissel dan boetius, die presteert al niks...
wat doet gio nu dan?! larsson eindelijk inbrengen, dat is toch veel te logisch?! en veel te laat zucht
zeg waarom steeds van die flut wissels terwijl je sterspelers op de bank hebt zitten? wil je niet winnen?
nee nee, we krijgen zo toornstra of kramer. je weet hoe dat gaat.
kunnen we ook concluderen dat we niets aan boetius hebben? pfff
er stonden een tijd terug verkeersregelaars op dat kruispunt zodat niemand d…
zeg, vanaf de boompjes mag je met de auto toch de erasmusbrug niet op nu? kruising wordt geblokkeerd door mensen die toch gaan
het is echt om te janken!
wie schudt gio eens wakker?! elke keer van die prutsers opstellen en wisselen.... man man man
jones is zn basisplaats kwijt hoor
verlos me uit mn lijden, kramer, echt?!
diks repareert... dat hoor je niet vaak.
het is wel weer tijd voor hanson
ik tot nu ook niet! bedankt!
werken lukt zo weer niet echt...
o ja, tuurlijk! ze hebben van die slingers afgeschoten en confettiknallers, levensgevaarlijk!
gelukkig geen verlenging, dan zou die ellende nóg langer duren...
zeg feyenoord, je speelt tegen 10 man van een hoofdklasser. waar de neuk ben je mee bezig?!?!
die vlag moet toch kunnen als club uit 020? hoort er toch bij?
tot je door hebt dat je totaal niet meer kunt werken
ik herken dat wel, zonder pardon lekker in de weg gaan liggen.
daarom zit je in het stadion. dan mis je het allebei
ik las het al inderdaad. mooi statement. ook fijn dat nu ook de eredivisie meedoet, daar…
wordt er ook op hoger niveau eredivisie, jupiler league met deze regenboogbanden gespeeld komend weekend?
wat is dit nu weer voor een rare reactie?! heb je überhaupt een idee waarom ze met die banden spelen?
dit is toch even minder van oneplus /
toch een keer met de vvd eens, vooral omdat achteraf scheiden veel efficiënter en goedkoper is.
volgend seizoen is het bakken bijzaak en gaat het vooral tussen andré, janny en robèrt
gaan we weer!
haha, jep, helemaal waar.
volgens mij had lord nelom op 1 moeten staan hoor
kom op mensen, teken nou eens! of vind je het best dat de overheid bij alles wat je doet op internet over je schoud…
marco borsato is pulp. vind ik dan he.. kijk, dat klinkt al veel beter!
ja, nou, die achterlijke wapenwet in de vs helpt natuurlijk niet als je in sommige staten op elke str…
het is wachten op de nra die weer gaat gillen dat er meer wapens moeten komen om amerikanen te beschermen. murica
en nu probeert hans het weer bij janny met omas recept wink wink
hans staat janny te versieren met likeur...
zo, tijd voor heel holland bakt!
na die ellende van de afgelopen weken is dit weer zo ontzettend fijn!
ga lekker naar een andere stad, joh. je hoort hier helemaal niet thuis. jullie snappen niet…
wakker worden met op beter begin van de vrijdag is er bijna niet!
het is nu de zoveelste keer dat een pakketje door jullie bij buren is bezorgd zonder briefje in de bus. waar kan ik officieel klagen?
wat ik al zei, tapia nag gaan douchen. doei doei!
nou, tapia kan ook wel gaan douchen! bye bye!
diks mag wel gaan douchen. en toornstra ook.
die stadionspeaker van napels mag wel een poliep op zn stembanden krijgen. tering wat irritant!
eindelijk iets anders, ben heel benieuwd
mooi, stap in de goede richting
nou nou, het is wel belangrijk om even jullie christelijke standpunten te laten horen hè? vrede en gelijkhe…
op hoeveel staat de teller met de handtekeningen voor het referendum eigenlijk? weet je dat?
heel eenvoudig
hop! allemaal tekenen! en niet zeiken dat je, niks te verbergen hebt. je wilt niet dat iemand overal met je meeki…
het is toch mooi ahum om te zien dat zoveel mensen in stereotypen zitten vastgeroest e…
ja hoor. ben inmiddels op kantoor en kan gewoon nog lachen. jullie werkse nog!
ik ben maar gaan lopen, dat is sneller
en nu worden het komende half uur ook alle sprinters van hs naar den haag c er uitgegooid. dat schiet niet op zonder alternatief
ik zit er in. nu rijdt hij niet door naar den haag c. dat is niet handig, want op den haag hs rijden ook geen trams komend jaar
sta nog steeds stil tussen schiedam en delft. rotterdam ingestapt op de ic naar den haag van 717
hey kunnen jullie geen goede locomotieven kopen voor de hsl? sta nu weer stil ri. den haag omdat er 1 gereset moet worden
kramer
zeg kuipers fluit niet echt heel consistent hè? ga eens praten met die man
jongens, kappen nou! het is niet de bedoeling dat er iemand rood krijgt!
ik snap het issue niet, de bouwplannen liggen er al jaren, heeft de raad destijds toch al mee ingeste…
in 3032 had ik een halve minuut stroom. nu ligt alles er weer uit
er is geen stroom in 3032 ha. is dat al bekend?
voeg daar ook maar een deel van noord aan toe.
o ja, dan is een beetje licht wel handig d
nu de verlichting al aan? beetje aan de vroege kant!
veronica heeft wel weer pareltjes zitten voor de analyses hè..........?
hallo pvvstemmende haathollanders. wat een kansloos artikel. ga lekker stigmatiseren in een hoekje en val er verd…
dat dan weer wel. ben wel benieuwd wanneer het klaar is. zal wel 2030 worden d
dit had niemand zien aankomen natuurlijk
dit soort mensen zou je preventief moeten ruimen. kansloze manier van redeneren
uh, neger keer op rij...?
hoi zouden jullie die top 1000 in een spotify playlist willen zitten? zou echt heel, heel, heel tof zijn! $
leefbaar moet zich met politiek bemoeien, niet met de naam van een culture instelling
omg! wordart!!1!! fucking vet d
ik heb zojuist getekend. teken ook voor privacy op
ik ben benieuwd hoeveel van die cameras er daadwerkelijk afgeplakt gaan worden d
hey wtf, ik kende the antidote niet, maar wat vet lekker zeg!!
hey gaan jullie nog sets van afgelopen weekend op youtube zetten? zou heel tof zijn!
man man man, wat een niveau zeg. pfff
sowieso, wat doet de bus op de staphalte?!
een soort draaiend euromastrestaurant dus? waarom heeft niemand dat eerder bedacht?!
mooi zo, verkopen dan!
gelukkig gaan de gehaktballen en piepers overal mee naar toe. wat zou je zonder moeten?!
hobbelig weggetje hè?!
daar zal toch wel weer het vooroordeel uitkomen dat het te gev…
recht door zee vind ik het nou ook niet meer
ja, lekker de mix marathon aan. met 4 man opweg naar autotron voor een weekend electronic family! zin in! 😎
ik zat dus in de trein uit eindhoven die vastgelopen was. ik voel met je mee, ik moest vanaf hs gaan lopen naar kantoor.
dat was inderdaad mijn trein, ja. ben inmiddels op mn bestemming. dus duwen is niet meer nodig.
uh, en nu rijdt deze trein niet verder dan hs. is die 5 minuten extra naar cs normale eindpunt ineens niet meer te doen? 😑
hoi we staan al 10 min stil tussen schiedam en delft ic den haag. moeten we al gaan duwen? duurt het nog lang?
we zijn er bijna! terugkijken. heerlijk!
hey hebben we geen lineup voor de mix marathon vandaag?
ja, maar ik heb toch niets te verbergen? en het is toch anoniem? zucht
uh, het over een feest hebben en dan beelden van de aardbeving neerzetten? niet zo tactisch
wat een droeftoeter
wakker worden met op &lt3
betalen de bevers huur?
bedankt voor de info!
we hebben uiteindelijk niet ingecheckt, maar kunnen we nog vergoeding krijgen voor de vertraging?
ik neem jullie persoonlijk niets kwalijk, maar ns faalt hier echt keihard
we worden inmiddels al opgehaald in tilburg. die bussen hadden er echt veel eerder moeten zijn.
kunnen jullie regelen dat er extra bussen komen? er staat minstens 400 man nu die van tilburg naar breda moet
ja, maar er rijden veel te weinig bussen voor het aantal mensen. het is echt chaos. blijven honderden mensen achter
en het wordt alleen maar meer. 1 bus voor 300 man...
kijk dan. er moet minstens 200 man van tilburg naar breda en er zijn geen bussen
wat is het busvervoer tussen tilburg en breda kut geregeld zeg. veel te weinig bussen voor veel te veel mensen.
ja, hoi vet lekkere mix op nu! volgende week in de herhaling in toffler? doei!
ja, daarom. kan me dus ook niet voorstellen dat ze je kunnen verbieden zelf eten te regelen.
volgens mij betalen die mensen ook om daar te wonen en verzorgd te worden, dan moeten ze het toch lekker zelf weten lijkt me?
geen woorden voor dit soort triestheid...
zoals altijd weer echt een te lekkere mix. zo relaxt!
ik zoek wel een excuus om naar huis te kunnen
ik ben jaloers
maar zonder dollen. je moet je hier toch kapot voor schamen als vvder? klimaatverandering ontkennen, ga lekker naar trump toe ofzo.
wtf?! zelfs in nederland zijn dus mensen zo dom?
hoe breng je de rest van de wereld steeds dichter bij elkaar en isoleer je jezelf? neem een debiel als trump als president.
en zoeken maar weer!
altijd die reet naar achteren, ja.
mijn ervaring is toch dat die haarbal zo weg is als je ze een zetje geeft p
binnen onder de airco!
nu bij hofplein in rotterdam ik wil tuteren, tuteren is mij cultoer!!
wtf is dat nou weer voor een debiel, dom, achterlijk statement? alsof iemand met een hoofddoek om je minder goed kan helpen??
dit blijft een bizar gezicht
en nu weer terug naar de realiteit en de sleur van alledag. bedankt voor een onvergetelijk weekend
holy shit! wat een gruwelijke set van bij superveel zin in morgen!
bij de doelen kan ik alleen nog maar denken de doelen, de doelen, de doelen 50 jaar! de doelen, de doelen, de doe…
dat ben ik met je eens. maar je hebt ook een feyenoordhart, dus je hebt vast een voorkeur?
ben je dan wel voor bijvoorbeeld red de kuip? of eerder voor een ander, nieuw, beter plan?
komt moeilijk mn strot uit, maar, ajax, gefeliciteerd met de prestatie. doe nu maar de europa league winnen ook dan
ik zie nu dat er daar wel een addertje onder het gras zit. my bad.
maar dan staat dat nieuwe stadion er toch al? dan is dat toch al gefina…
dat stadion verdient zichzelf toch terug met tickets en events? dat sta…
ik ga er tenminste vanuit dat ze niet halverwege stoppen met bouwen omd…
ja, maar gebiedsontw. start pas met bouwen van nw. stadion. dat stadion…
herinrichting hele gebied feyenoord city ligt vooral bij de stad rotterdam 2/2
maar is het risico echt zoveel hoger? als je alleen naar het stadion ki…
als de mening van supporters wordt gevraagd dan is de overgrote meerderheid toch tegen elk nieuw stadion.
ik snap je punt hoor, maar feyenoord is niet de kuip en andersom als je echt objectief ki…
bestuur moet gewoon weg op termijn, de vertrouwensband met supporters is toch onherstelbaar…
die onderbouwing heb ik meer dan genoeg gezien. het is maar wat je niet wilt zien. ik ben niet perse voor fc hoor.
en red de kuip bijv heeft wel cijfers die glashard waar zijn en niet gebaseerd zijn op aa…
absoluut. was ook bij het arminius debat paar maanden terug.
joh, doe eens niet zo dramatisch! feyenoord is toch de club en het legioen? de sporters en…
dat weet ik. ik krijg ook regelmatig kippenvel als ik in de kuip zit. het is gewoon een bizar mooi stadion.
ik was ook bij het arminiusdebat, en daar kreeg ik echt wel de indruk dat feyenoord city echt wel heel goed doorgedacht is.
als daarmee in de toekomst de stad en supporters rustiger blijven dan zie ik het als een prima voorwaarde.
en dat is dus het sentiment. het is bijna heiligschennis om die prachtige oude kuip te verlaten.
ik ben absoluut geen heel groot van feyenoord city, maar bij red de kuip rammelt er ook genoeg waar niemand vragen over stelt.
laten we eerlijk zijn, een deel van de aanhang wilt nooit weg uit de kuip, welk fantastisch plan er ook gepresenteerd wordt.
en wat zou daar mis mee zijn? ik heb liever een plan wat nu eindelijk doorgaat dan nog jaren discussie en gezeur.
maar wat serieuzer, hoe voorkom je dat dat soort malloten de boel gaan verz…
mag ik hopen dat de me dat soort mensen even flink in elkaar mept? ze bezor…
ondernemers hadden niet kunnen voorspellen dat er 150k mensen in de stad waren? en dat het dus druk z…
vandaag het gezeik op de me weer, kan er boos om worden! als je gewoon weggaat zoals je hoort te doen dan krijg je geen klappen. triest volk
wat een trieste vent ben je dan. hoop dat ze hem vinden. en sluit m maar lekker op.
omdat aboutaleb gelukkig weet dat het maar een paar debielen zijn die het verkloten. grootste deel heeft zich prima gedragen.
er was meer dan 100000 man in de stad, zonder problemen. waarom horen we dat niet meer?
echt heel kut dat die beelden van 100 rellende supporters nu in de media komen, stelletje klootzakken.
kippenvel! hoe bizar is dit? uitverkochte kuip om tv te kijken.
crowd control is het enige wat in me opkomt. en het betekent dat je vet vroeg vast zit in een vak als j…
wat een vet lekker set van kan niet stil zitten achter mn laptop!
daar wil je dan ook echt mee geassocieerd worden... man man man
ja, daar ben ik ook wel benieuwd naar.
joepie! wat een feest weer
nu heb ik ook geklikt, bedankt...
wat een huilebalk 🙄
zijn er nou echt nog mensen die zoveel geld voor die kaarten betalen?
zo bizar. het hele seizoen durf je het niet hardop te zeggen, bang dat het fout gaat. maar dan gewoon wel doen.
het gaat dus gewoon echt gebeuren. feyenoord gaat kampioen worden.
al die fans van excelsior die hun kaarten al voor 1000 euro hebben verkocht aan feyenoordsupporters 🙄
jaaaa! dankjewel psv! en gefeliciteerd met de winst natuurlijk.
heel tof item, mooi gedaan!
zijn ze boos dat hun eigen supporters massaal hun plekken hebben verkocht aan feyenoordsupporters? 😂
heb eigenlijk nog meer stress voor psv ajax. worden we volgende week al kampioen of niet?
😂😂😂
ja, doe zondag maar winnen van ajax, vinden we leuk!
misschien tijd om lekker naar ziggo over te stappen?
eindelijk lid geworden van hoe meer sfeeracties hoe beter
jaaaa, eindelijk leuke muziek op hele dag uitgekeken naar
wat is de uefa toch een totaal onmenselijk, kansloos orgaan! moet ik even kwijt hoor.
vaart die sleepboot op kolen?! dikke zwarte rookpluim erboven /
en daarom moet je dus wifi en bluetooth buitenshuis zeker altijd uitzetten!
de internationale trein vanuit brussel reed met bijna 20 minuten vertraging na dordt. maar ik ben in rotterdam aangekomen
hoi van dordrecht richting rotterdam centraal staan de treinen helemaal stil nu. is er iets aan de hand?
wat doet verkeerd dat ze geen grote naam als hoofdsponsor kunnen vinden?! snap er echt niets van
dat kan toch helemaal niet? die vent doet helemaal geen zak op het veld.
inmiddels 50 en kramer heeft er nog geen één ingeschoten. wat doet die vent hier überhaupt? 😂
kom maar op!
is het al officieel? het is ook wel akelig dicht bij 1 april.
ja, dat gaan we poes dus niet aanleren
ga eens weg met je trap, hip hop en urban . we willen house!
klopt. moest natuurlijk even gezegd worden .
o ja, en iets over dat wij altijd worden benadeeld!!! en jullie worden altijd gematst!!! 1!1!1!
ik wilde het net zeggen. kut klaassen p
gefeliciteerd! netjes wat punten in rotterdam gehouden!
excelsior bedankt! leuke wedstrijd, en mooi dat die 2 punten niet naar 020 gaan d
voor het afhaalpunt is toch een code nodig voor openen kluisje? of is het afhaalpunt een normale balie op rotterdam c.?
hoi ik heb voor 3szwye009475719 nog geen afhaalcode ontvangen terwijl pakket wel op afhaallocatie ligt. help?
serieus, kan iemand zn mond laten houden? wat een bak met kots braakt hij uit. het is net erdogan.
dat van gisteren en het drama bij charlie hebdo is echt op geen enkele manier te vergelijken. rare vent is het.
ohhhw! maar gisteren was een grote grap dus!? nou ja, dan snap ik het allemaal wel.
misschien wordt het er wel tijd voor? geloof niet dat we als eu geassocieerd moeten willen worden met iemand die ons fascistisch noemt
nee. maar, noem je haar nou dik!? o
ah, duidelijk. weten jullie of het exact hetzelfde type gaat zijn? dat ivm. in raid zetten van de 2 disks.
hoi enige idee wanneer mn order 1654728a3 verzonden wordt? alles staat al sinds zondag op voorraad |.
dan gok ik niet dat ze familie zijn, mijnes is bijna 2 jaar
o, wow! die lijken wel erg op elkaar d. hoe oud is de jouwe?
op haar troon
hoi volgens conducteur moet een groepsretour geprint worden, en kan niet gescand vanaf scherm. klopt dat?
t is maar hoe je het leest . een idee tot hoe laat dit duurt? moet precies die kant op over een uur.
wel een beetje een ongelukkig hashtag haha
ook maandag reden er minder en korte treintjes.
ik zal die weer eens gebruiken dan inderdaad. thanks!
toch materieel over ergens lijkt me? maak dan de treinen die wel rijden langer zou ik zeggen, maar nu is het veevervoer 2/2
ja, het is echt absurd druk. zou verwachten dat treinen langer kunnen zijn omdat er minder treinen rijden. er blijft nu 1/2
weer geen langere treinen tussen dordt en rtd tijdens werkzaamheden. hier kun je toch al maanden extra materieel voor plannen?
een dag op kantoor kan doodsaai zijn, maar toch blijf ik scherp.
sorry, maar daar geloof ik niet in. op de metro en tram heb je ook minder afwisseling, gaat ook prima.
ik doe elke dag hetzelfde soort werk, daar zeur ik toch ook niet over? stelletje mauwerts die machinisten en conduc…
ik heb jullie net een dm gestuurd. bedankt alvast!
hallo al maanden zijn in internet bankieren gegevens van mijn zorgactief polis niet te zien of wijzigen. enig idee hoe dat kan?
dat je geen enkel vertrouwen hebt in de maatschappij. maar dat lijkt steeds meer een trend te worden.
heuj, de bovenste lijkt familie van de mijne
weten jullie wanneer het weer opgelost is? vandaag zijn de sprinters nog steeds een stuk korter /
ah, dat is dan wel weer fijn om te weten. thanks!
hoi met nwe dienst rijden er nu kortere spr. rtd den haag c. niet zo handig nu met de werkzaamheden. behoorlijk veevervoer
trolololo...
en een plastic beker er bij?
hoi hoe krijg ik de login voor de bezoekersparkeervergunning? heb die ooit in 2013 aangevraagd voor het digitaal werkte.
welk signaal? dat maar 16,9% van de mensen het nodig vond te gaan stemmen? blijkbaar vindt iedereen het wel best dus.
die 30% wordt niet gehaald zo hoor. toch?
hoi hebben jullie storing momenteel in 3032ha? modem blijft offline ook na uit en aanzetten
hoi eergisteren abo afgesloten, zou binnen 24 uur bij de shop liggen, maar nu 48 uur verder nog niets. weten jullie status?
de staat van het nederlandse voetbal anno 2016 zelfs gruwelijk veel moeite hebben met het elftal van luxemburg
alsof kramer nu het verschil gaat kunnen maken? haha, kom op zeg!
echt, alleen botteghin springt er in positief opzicht nog soort van uit, de rest speelt dramatisch
zeg, feyenoord, ga je nog voetballen, of hoe zit dat?! man man man
domste wissel ooit
ik vind het een prima stuk. allemaal goed verwoord en realistisch
ik sluit net op mn nieuwe ov kaart een nieuw ov fiets abo af. had niet gehoeven dus?
hoi ik zie in mijn ns dat mijn ov fietsabo op mn gestolen en geblokkeerde ov kaart nog actief is? kunnen jullie die annuleren?
en sam feldt? die draait niet vandaag, dus vandaar dat hij op het plaatje staat? p
moet je er eerst één weghalen bij schiphol
ik vond zn verhaal over een nieuwe lente en madeliefjes heel inspirerend
ja ja, het veld ziet er weer perfect uit, daaro. even al die lelijke bruine vlekken negeren.
jaaaaaaaaaaaaaaaa! commentaar van frank snoeks. super vet!
ik zie na inloggen nog niks op de ticketsite. wanneer zijn de kaarten echt te koop?
ziet er gezellig uit op de tribune in tilburg, man man man.
de duitse teksten zijn in ieder geval weg. its something.
zag toevallig gisteren dat het hier staat
ik zie ook dat ik niet al je berichten had gelezen. dan is je verhaal al een stuk duidelijker
staan op de trappen is toch al jaren verboden? er werd alleen niets tegen gedaan.
uhhh. grapje toch? dit plan is veiliger en beter dan alle in de illegaliteit houden.
het zou tijd worden...
kansloze wedstrijd. niet normaal
gaat zo echt tijdens een onbenullige bekerwedstrijd de trappen leeg vegen? kansloos zeg
zeg, we hebben nog 3/4 van het seizoen te gaan hoor, laten we eerst eens kijken hoe de komende maanden lopen...
mauwert
heb jullie net mijn gegevens doorgestuurd. bedankt alvast!
hoi mijn ovkaart met traject vrij is dit weekend gestolen. heb nwe kaart aangevraagd, maar kan ik losse kaartjes nu declareren?
en als dat op is gaan die fans zwerven door de stad en is dus alle controle weg...
een hekkie!?
maar aan wie dan!? ik heb vrijwel niemand gehoord die kaarten heeft
de eerste de beste duitser die bitte warten sie tegen me zegt hoek ik keihard neer
dat is het toch ook?
ik heb nog steeds elke keer teveel kaarten gekozen ...
en hu zijn weer vakken beschikbaar, maar kan weer niks in de winkelwagen gooien
zelfde hier. geen enkel vak meer beschikbaar.
man man man man man man man. wat een gepruts daar bij
ook met maar 1 kaart krijg je dat hoor.
heeft besloten geen tickets meer te verkopen. met deze maatregel verzekert de club zich van een rustig verloop van wedstrijden
volgens mij zijn de seizoenkaarten van veel niet bekend in het ticketsysteem. reactie graag?
dat ja. alsof mn sc niet gekoppeld is aan mijn account.
nee bedankt! doe eerst maar eens een goed systeem bouwen. kthxbai!
ik kan het me niet voorstellen
ik krijg steeds dat 1 kaart al teveel is
wel een goede manier om er voor te zorgen dat het stadion niet vol komt
hoi hebben jullie storing aan 4g / mobiel? heb hier in den haag 2595 da geen verbinding meer.
er is niets veranderd, dus dat lijkt me een goed plan.
hoi omdat ik per 1 oktober een ns business card krijg wil ik graag mijn traject vrij opzeggen. kunnen jullie me hier mee helpen?
hoi! voor op de camping, valt rumcola onder voorgemixte sterke drank, of zwak alcoholisch?
oh, ik zeur te vroeg. de app is er net zie ik, sorry! zie jullie dit weekend!
ik vind jouw enge, bekrompen visie schadelijker
je bent daar niet alleen in hoor. het begint bij je zelf, en laten zien dat je je wél kunt gedragen.
dan toch maar die gewraakte camerabeelden veel meer gebruiken?
met zn allen collectief wegblijven bij de europese thuiswedstrijden. laat de club maar dik verlies draaien.
ik stel voor dat we bij thuiswedstrijden allemaal thuis kijken en de kuip leeg laten.
hey, kunnen jullie voor de grap scooter niet eens halen voor volgend jaar?