van gerwen weer in topvorm. het gaat weer erg gemakkelijk. top, zo naar het einde van het jaar toe.
nee helaas niet. want dan was het probleem al eerder opgelost geweest.
r de boer zegt dat kampioen is geworden omdat ze vorig jaar geen europees speelden. huh?? europa league gespeeld.
lachertje van de eredivisie. dit kan zo niet langer. einde gio wat mij betreft. kuijt assistent en nieuwe trainer halen.
ik zou per direct ontslaan. wat een prutser.
spelers willen niet meer door met laten ze al weken zien.
je mist echt dirk . niet eens zozeer voor het voetbal, maar wel voor de mentaliteit.
el ahmadi zit maar te lachen. wat is dat voor mentaliteit. je moet je kapot schamen. ook als je op de bank zit.
wat een arrogantie van die nieuwkoop om zo te verdedigen. bah. diks doet ook nog even stapje opzij. verschrikkelijk.
bilal kramer diks nelom zijn onwaardig. zo snel mogelijk weg doen. hoog irritatiefactortje.
nelom, kramer en diks in een team is wel heel erg om naar te kijken. wat een amateuristisch niveau van het drietal.
laatste 9 wedstrijden 2 gewonnen. het lijkt op 2 seizoenen geleden. gio heeft krediet met kampioenschap, maar is niet houdbaar.
feyenoord echt beschamend en bedroevend niveau. gio is wel klaar bij feyenoord. 1 troost. over 17 jaar worden we weer kampioen.
feyenoord echt zo ongelofelijk slecht. nog erger dan de ondergrens. dramatisch niveau. krijgt van bronckhorst dit nog aan de praat?
feyenoord geen schim meer van vorig jaar. we gaan weer ouderwets supporter zijn van feyenoord. met veel gemopper en pijn lijden.
zelden zon slechte klassieker gezien. allebei de ploegen erg matig. scheids ook. huntelaar had al 2x geel moeten hebben.
het blijft toch altijd geweldig om van hanegem te zien. mooi ook hoe touzani met hem omgaat. mooie aflevering.
mooi om te zien dat je zo geliefd ben bij liverpool en fenerbahce. ze willen allemaal dat je terug komt. maar…
ja helemaal met je eens hoor. hoe minder selecties nationale elftallen. hoe beter het is.
speelden fantastisch. onbegrijpelijk niet in nl elftal. bij ajax je shirtje in 1 keer aantrekken, dan wordt je geselecteerd
aan het genieten van beide backs. wat een enorm verschil met diks en nelom.
goede opstelling volgens mij. jones amrabat, tapia, st.juste, haps el ahmadi, toornstra, vilhena berghuis, boetius, larsson.
wanneer wisselt gio die diks eens. echt verschrikkelijk. huurcontract per direct opzeggen. kan echt niet.
waarom staat nog steeds in dit elftal? zo hopeloos. gio, gio wat maak je toch tactische fouten met je spelers.
wanneer heeft schelvis door dat tapia speelt?
ach we hebben paar maanden lol gehad en nu maar weer 18 jaar wachten.
ik heb er nooit wat aan gevonden. paar aardige wedstrijden gefloten in het verleden en d…
niks aan het handje.
psv wordt tweede helft in eigen huis helemaal weggespeeld door 10 man van feyenoord. zal dus zo wel 20 worden.
kuipers is gewoon ingefluisterd in de rust dat hij direct rood had moeten geven. is…
kuipers is zeer bepalend deze wedstrijd. kan er niet veel meer van.
en dat is weer een stip. partijdig en beslissend. kan er helemaal niks van die scheidsrechter.
je voelt aan dat hij rood gaat krijgen. daar had van bronckhorst op moeten anticiperen.
maar koppen kan hij ook niet. wint geen duel in de lucht. zinloos om met kramer te voetballen.
weer tactische fout van van bronckhorst om te laten staan. dom.
je ziet nu hoe belangrijk jorgensen is voor feyenoord. kramer kan er echt helemaal niks van.
het verschil tussen rijke clubs en arme clubs in champions league wordt wel erg groot nu. niet zo leuk. ook gisteren al gezien
nelom en kramer kunnen al niet op eredivisie niveau. laat staan op dit niveau. erg matig.
wat haalt die commentator het vandaan dat veel balverlies heeft. commentator ziet ze vliegen.
het gaat langzaamaan een sleur worden al die prijzen.
echt fantastisch van tom . in milaan win je mooie prijzen.
waarom nu reclame? echt verschrikkelijk.
barazite ramadant de bal er in. knap gedaan.
gewoon krul geel geven als hij weer vervelend gaat doen. en dat van te voren ook zeggen als scheidsrechter.
wat een meutjes met allemaal kramp. ik hang al twee uur op de bank en heb nergens last van.
dat de scheidsrechter dit allemaal toe laat wat doet. slecht en slap optreden van de
ik kijk niet meer naar , die derksen is niet lekker en ik vind dat#boskamp stelling moe…
is dickie advocaat weer bezig geweest? van der wiel in turkije voor miljoenen opgelicht
die vond ik zelfs aardig invallen.
mooi zeg die emotie bij van hanegem. geweldig mens.
vandaag wordt nog maar eens bewezen dat supporter zijn van feyenoord niet altijd prettig is. maar ja, het zit gewoon in je bloed.
die de wijs had er al afgestuurd moeten worden. shirt trekken el ahmadi en hoge arm jörgensen. pfff. wat een spanning overigens.
in tilburg is er niet veel zangtalent. je zou er zo van weglopen.
het is niet eens de eerste maandag van de maand een het luchtalarm gaat nu al af in tilburg. verschrikkelijke zang
het is opvallend hoe spaanse ploegen bevoordeeld worden in champ league. eerst barca tegen psg en nu real tegen bayern.
ik zou nelom nu direct wisselen. hopeloos en feyenoord onwaardig.
zo de kampioen aspiraties zijn voorbij van feyenoord. als je zo begint. verschrikkelijk.
ja precies. zou er niet raar van opkijken als aboutaleb een eventueel kampioensfeest verbiedt. ik zou mijn…
wat een slechte middag. en supporters slopen nu stadhuisplein in rotterdam. stelletje hersenloze. kansloze middag.
waarom vinden we kuipers de beste van nederland? warrig is hij en ook pietluttig en dat is niet de eerste keer dit seizoen.
feyenoord staat meer dan verdiend achter. slap middenveld. verdediging niet wakker. geen kans gehad. slecht hoor.
zoek de verschillen. berghuis
nou lijkt me toch wel duidelijk.
lekker gekeept zoet.
zou danny blind de draden hebben doorgeknipt, zodat we geen commentaar hebben?
het valt blind koud op zijn dak
luxemburg scoren er 3. zweden 6 en nederland 0 tegen bulgarije. beschamend.
schip maakt van de ligt zn fout even martins indi zn fout. het is geloof ik niet goed om oud ajacied te zijn.
ik dacht al vaker dat de knvb zou ingrijpen bij slechte prestatie van dus ze gaan vast niet ingrijpen na deze wanvertoning
ik zou nu kluivert gaan in brengen als spits bij nlelftal. je moet toch een gokje gaan wagen
echt verdedigd door een speler van de fjes, o wacht effe, dat is hij net niet. nou opzouten en nooit meer laten zien
kluivert denkt dat het 13 wordt voor nederland. gezien zijn gok kunde zet ik mijn geld maar op een andere uitslag.
kijk zo help je, je rotterdamse kameraden. dankjewel
als ik jou was zou ik een bril aanschaffen.
younes hands bij 11. onterecht doelpunt. kluivert mag slaan en elleboog. geen kadertje en commentaar. fox heeft zijn voorkeur.
op basis van tweede helft wel verdiend. maar had de winst niet meer verwacht. heerlijk zeg.
sylvana simons heeft exit poll aangeklaagd. ze vindt dat ze genegeerd wordt in de uitslag.
sharon dijksma wil toch alle kiezers die op de pvda hebben gestemd bedanken. dat kan ze persoonlijk doen. zoveel zijn het er niet.
volgens ron jans speelt feyenoord zijn uitwedstrijden niet goed. nee ajax speelt wel goed zijn uitwedstrijden. zucht.
vandaag europees voetbal veilig gesteld. best vlot, het is pas maart. maar niemand heeft het erover.
feyenoord speelde beschamend. ik ben bang dat we hier de titel hebben verspeeld. prutsers.
zo lekker niveautje. maarre.. scheidsrechter floot niet voor overtreding. dus doelpunt.
bal was over de lijn. dat was gewoon de 11. soms zit het mee en soms zit het tegen.
sparta een klasse beter dan feyenoord. staan meer dan verdiend voor. kom op feyenoord.
karsdorp is rijp voor een wissel. wat speelt die dramatisch zeg.
calimero gedrag van heel veel psvers. had ik niet van ze verwacht.
volgens mij twijfelt heel erg aan het doellijn systeem. bijzondere gedachtengang van deze verslaggever.
di maria en falcao, de smaakmakers van vorige week en deze week. louis van gaal kreeg ze niet aan de praat.
wat speelt vilhena goed zeg. niet normaal.
zegt toine van peper... nou echt dat larsson en van bronckhorst ploeggenoten waren bij celtic?
vindt het wel tof van mvg dat hij zon haast heeft. morgen gaat bij mij weer vroeg de wekker om te werken.
ja bij mij ook.
ik denk dat het de adrenaline is. maar misschien toch even laten plassen.
ja, dit is echt te bizar voor woorden.
wat een niveau. echt ongelofelijk goed darten van beiden. mooie halve finale.
fantastisch gespeeld. dank voor een top dart avond. zo ongelooflijk knap gedaan van je.
eerst beyoncé met een verschrikkelijk nummer en nu kanye west met nog meer bagger. wordt er niet beter op, de
nog nooit zon slechte zogenaamde topwedstrijd gezien. wat een hopeloze wedstrijd zeg.
wat een slechte wedstrijd zeg. slaapverwekkend.
ik wist dat vals was. maar dit was wel heel erg vals gezongen. echt verschrikkelijk
wat een wedstrijd tussen taylor en wright. lang geleden zon spannende pot gezien. dat was wel weer effe nodig.
ik zag vandag spelen zoals ze ook speelden tijdens de 7 nederlagen op rij. verontrustend om te zien. is nu al de koek op?
feyenoord is heel erg matig met spelerers als veijnovic, tapia, berghuis en bilal. en dan ga je gewoon verliezen.
daar gaat het niet om. maar hij is fysiek gewoon te zwak.
dolberg. het geweldige talent niet gezien in eerste helft. wat een hype om niks.
maar een beetje buitenspel zeg die goal van psv. hoe kan je dat nou niet zien als assistent scheids? onbegrijpelijk
is de luis suarez van feyenoord qua achterlijk gedoe. heel erg irritant en feyenoord onwaardig. bah.
bijlow nieuwkoop, van beek, kongolo, woudenberg tapia, vejinovic, gustafson berghuis, kramer, elia zou mijn opst…
wat zeggen ze nou over als je hele slechte wedstrijden wint?? lekker hoor.
de opstelling van feyenoord.
ja klopt. helemaal blij mee. dank voor het antwoord.
we zitten al 2 dagen te wachten op pakket. we hebben dit pakket echt vandaag nodig. maar iedere keer staat…
heeft het nou over nieuwkoop die mee deed tegen fc oss? volgens mij heeft hij andere wedstrijd gezien
die leo driessen ziet pas kwartier later dat scheids al gefloten heeft. effe opletten. was wel terechte goal overigens.
wat is die scheidsrechter slecht zeg. die snapt er werkelijk waar helemaal niks van.
daar ben ik ook bang voor. de media is al een campagne begonnen hoeveel pech het nl elftal had. maar blind kan er echt niks van.
het gaat echt niet meer zo goed met je, nu je gestopt bent bij rijnmond. snoeks goed, whoehahahaha.
nou die blind wordt er uitgepleurt vanavond. welke ajax coach zullen ze dan gaan nemen de knvb?
slechtste service nummer ooit. uur bezig geweest en niet veel verder gekomen. 4 keer opnieuw bellen en tig keer doorverbonden.
ik blijf verbeek een goede vent vinden. zo jammer dat het niet gelukt is toen bij zou hem graag terug zien.
dank voor deze info. dat wist ik nog niet.
als bergkamp zon goal maakt, krijgen we een special op tv. als kuijt zon goal maakt is het functionele techniek. grapjassen
eindelijk eens iemand die het benoemt.
rusland lijkt mij best een mooi vakantie land. misschien wat voor peter bosz als hij vrije tijd over heeft.
ik hoop dat we vanavond kunnen zeggen dat trots koploper is van het linker rijtje en 020 koploper is van het rechter rijtje.
hij moet lekker gaan stoppen. wordt een beetje sneu zo.
het wordt tijd dat gaat stoppen. een ooit grote kampioen onwaardig. nu zou je nog kunnen stoppen. het wordt anders zielig.
1810 gewonnen. is echt vernederd. haalde gekke capriolen uit om uit de wedstrijd te halen. trok zich er niks van aan. knap.
spanje gaat niet ver komen. wat een ouwe mannen club.
nou toernooi voor is ook voorbij. een penalty die geen penalty was en een keeper die veel te vroeg uitkomt bij pingel.
ik doe mee aan wild! van de spits! zelf tot €120 p/m verdienen door het mijden van de spits? meld je nu aan op
ex 010 spits is ex 020 verdediging de baas.
zou karim rekik nou vanmiddag ook rekikikikiki hebben gezongen voor ?
dat is heel slim.
ik kijk nu 5 minuten nederlands elftal. wat speelt dat bagger zeg. snel weer zappen.
dit is niet goed voor mijn hart. kom op jongen.
darten gaat het schaatsen achterna. het wordt langzamerhand saai. en je weet vooraf, net zoals bij het schaatsen, de winnaar al.
ik denk dat hij fan is van shrek
is er ook een meldpunt om geluidsoverlast te melden?
even een vraagje aan jan smit? hebben ze bij de pearle ook gehoorapparaten? lijkt me hard nodig voor je.
in den haag heet het nummer slow down van douwe bob rustaaagh
het is echt verschrikkelijk
er wordt zo slecht gezongen op songfestival. het zijn allemaal valse nichten en neven.
zo te horen is de crisis nog lang niet voorbij in
uit de maat, zo ontzettend vals. dit is niet slecht, maar dit is echt heel erg slecht.
ik schrik me een hoedje van die stem van die presentatrice, ze is zeker vaak op maandag, de eerste van de maand, om 12 uur te horen?
jegaat toch niet rob jacobs vergelijken met sjaak swart? dat zou een belediging zijn voor jacobs.
zo het is exact 4 minuten over psv gegaan. schaam jullie diep studio voetbal
wat is die jan mulder zuur zeg. heerlijk om te zien.
krijgt ook de aandacht die ze verdienen bij not.
dit is bijna net zo leuk als de beker winnen.
guardiola is eigenlijk zwakke coach. kan geen ander systeem bedenken als je anders moet gaan voetballen.
vardy party. knap hoor van
men vond fc utrecht zwak qua voetbal. is nou ook niet al te best. staan alleen ietwat duurdere spelers op het veld.
zo heeft 90 procent van de voorbereiding aan fc utrecht besteed. dan weten we dat ook voor wie ze zijn.
feyenoord staat 21 punten achter op ajax en psv, dat zijn 7 nederlagen op een rij.
scheidsrechter zorgt ervoor dat ajax op 22 komt. competitie vervalsing ten top.
toch grappig. vandaag zo erg voor zijn. en volgende week zo erg tegen utrecht zijn.
alles was mooi aan deze wedstrijd. zelden zo enorm genoten van voetbal. beter dan die saaie champions league
in tijden niet zon leuke voetbalwedstrijd gezien. nu suarez er niet meer speelt, gun ik liverpool de overwinning ook.
oei oei, wat is die scheidsrechter pro barcelona, niet normaal.
is het niveau geworden zoals de landen finland, schotland en slovenie. dramatisch en om je kapot te schamen.
inderdaad. en die van oostveen houdt maar zijn hand boven zijn hoofd.
zei dat zijn zoon aanvoerder is omdat hij als enige op het veld in de basiself stond die 3e werd op een wk. ehh.. en dan?
als ik zou zijn, dan zou ik per direct bedanken voor oranje. wederom belachelijke keuze van
arena veldje bij atletico madrid. hoop spelers glijden uit.
als ik en hoor praten, moet ik altijd denken aan waldorf en statler van de muppets
had al 30 moeten staan. feyenoord is drie klassen beter.
toine van peperstraten is in diepe rouw. praat met zachte stem. feyenoord heeft gewonnen. vind hij vast jammer.
wat een partij. en wat een gemiddelde voor van . niet normaal.
die commentator is bijna net zo goed als de persvoorlichter van ado.
ik hoop wel dat en vanavond het hoge niveau van halen. wil wel op niveau blijven kijken.
tvp wenst kijkers veel plezier bij van van en de moeten we het niet hebben, want een saaie en depressieve analisten.
fijn dat van van tevoren al zegt dat er vijf doelpunten gaan vallen bij wedstrijd irritant.
ja, het was weer een lijdensweg. misschien kan casper van eijk voor feyenoord een actie opzetten. droeftoeters.
alle spelers presteren steeds minder. conclusie gio moet weg. heeft geen visie. onervaren.
niet eens bij de selectie. wat is van bronckhorst aan het doen?
hoe kan het nou dat dit zo lang duurt? aanvraag vergeten te doen?
mijn vader is fan met records, 1ste ec1 en wereldbeker. ik ben ook fan met records, 5x op rij verliezen, 100 verliezen tegen psv
ja zo is het. maar van geel is in paniek. dus zal nog wel wat komen. wat mij betreft ook weg van geel.
gio ontslaan. laffe trainer. krijgt het niet meer op de rails
het is zo ongelofelijk droevig
het is te triest voor woorden
en achahbar maar niet opstellen. dan begrijp je er ook niks van trainer.
iedereen zeurt over kunstgras. maar dat veld in de arena zou dan ook verboden moeten worden. bizar.
het was weer een rollercoaster. niet normaal.
hij doet het gewoon. geweldig van wat ontzettend knap zeg. erg blij voor hem.
het mag best wat positiever van de voort. ik snap dat je baalt dat hij je vriend mvg eruit heeft geknikkerd.
was dom gezwets van mij.
voor mij ook hoor.
nu ook nog wereldkampioen worden. slagroom op de taart.
wat heb ik genoten van de wedstrijd barney mvg. nog nooit zon goede partij gezien. terechte winnaar. wow, wat een wedstrijd.
wat een goede partij zeg van jelle klaasen, indrukwekkend.
hij big daddy, dan ben ik ugly bully
leuke gozer die van duijvenbode, die komt er wel.
wow, wat een goal van vilhena. prachtige vrije trap. lekker hoor. 01
hoe heerenveen vanavond speelt, dat is ook om te janken.
zo hype van de beek ook voorbij, slecht verdedigd zeg. leuk voor ayoub, uitgerekend tegen de club waar hij weggestuurd is.
wat een verschrikkelijke commentator bij die hoopt echt dat heracles wint.
hier was je te vroeg mee, dit klopt niet.
wat een fantastische sloopkogel is het toch die michael van gerwen. echt geweldig. wat een mooie finale, wat een hoog niveau.
tweede lange storing van in 1 maand, ik ben benieuwd hoe ze dit gaan compenseren.
en wederom weer storing met begin het niet zo leuk meer te vinden. waarom ben ik over gestapt!!
heb je het al gehoord van die zieke medewerker van renovatiebedrijf? die knapt nog steeds niet op.
de ministers zijn alweer terug zijn in nederland. zijn niet met de naar huis gegaan denk ik.
ik kan de video helaas niet vinden. kan je me helpen?
van harte gefeliciteerd
niet normaal mvg. echt niet normaal zo goed.
blijven staan was bijgeloof omdat 120 uit gooide op deze manier. misselijke actie van om geen hand te geven
en toen hadden we geen tv en internet meer van telfort. telfort
dat was toch hands van
ik geloof dat ik droom. wat een fantastische wedstrijd van feyenoord. 05 na 40 minuten.
wat geweldig voorbereid door wat een rust, wat een techeniek. klasse voetballer.
bewijst maar weer eens dat u zich meer bezig houdt met randzaken spelling. na punt komt overigens hoofdletter. voor u, u
en van zijn samen aan het bouwen.
iedereen zo positief over verdedigers tegen kazachstan. nu zien we hoe goed de vier verdedigers zijn. prutsers.
stelt tete, riedewald en el ghazi op. nee hoor, ik heb echt geen voorkeur voor ajax, zegt blind. whoehahaha. lachwekkend
ja dat is wel waar. nu maar verder met elia achahbar kuijt
zijn we daar goed weggekomen? karsdorp was echt niks aan de hand. en elia heeft niemand daadwerkelijk iets duidelijk gezien.
ik zie liever elia achahbar kuijt
ja, vind ik ook ,1 hoogstens 2 was meer dan voldoende geweest.
te bizar voor woorden dit. zo ingezet dat hij tegen 020 niet mee kan doen. erg opvallend.
bedankt voor het oneindig herhalen, jullie hebben het voor elkaar. kramer 3 wedstrijden geschorst.
ik, blind, heb het adresboekje gehad van hiddink en daar stond nummer van cocu niet in. ja, dan weet ik het ook niet.
mooi setje binnen gehaald door benito van der pas, knap om met 2 pijlen 100 uit te gooien, terwijl de eerste een bouncer was.
riedewald en tete zijn oranje waardig volgens blind. whahahaha.
dijkgraaf van de sgp stelt goede vragen zeg, weet gelijk wat de kern is,is duidelijk in zijn formulering. eindelijk niveau.
v/d steur had op die bewuste maandag 15 andere afspraken. kwestie van prioriteiten stellen lijkt me. erg slechte inschatting.
van heeft geen regie en leiding. wordt nog een beetje bij elkaar gehouden door paar mensen om haar heen. aanfluiting
volkert van de g. of volkert van de graaf? hoofdletter en punt gebruik je toch alleen bij verdachte en niet bij veroordeelde?
van oosten doet alsof hij open en eerlijk is. zijn lichaamstaal zegt iets anders. je zou bijna er wat van gaan denken
met een slap organisatorisch verhaal. als niet in coalitie had gezeten? hadden ze dan ook dit verhaal opgehangen?
geeft goed weer wat veel burgers denken. moet het politiek correct corrigeren. verschrikkelijk. volkert
ik zit ook te kijken, het heeft weer een hoog kolderiek karakter. ik heb het idee dat het goede spoor niet bereikt gaat worden.
fischer trekt al zijn shirt uit, die weet toch nooit wanneer er gevoetbald moet worden en tegen wie.
ik hoor zeggen, hij moet het met zijn mindere been doen. zou speler dan ook een betere linkerbeen hebben?
kunnen jullie misschien iets minder het woord verschrikkelijk zeggen. voor de rest prettig commentaar.
talenten in nederland? riedewald, el ghazi, kishna. het is 020 wat de klok slaat bij zelfs pierre doet er aan mee. zucht...
hou eens op met die verheerlijking over blind. jullie geloofwaardigheid was al niet groot, maar wordt met de minuut minder.
het is weer een hoog 020 gehalte bij bijv., het niet hebben over het gemis van clasie. martins indi is de schuldige.
welke wedstrijden zouden david endt hebben gekeken? een lans breken voor hahaha.
die blind is hopeloos. te treurig voor worden. ook rest van technische staf. meelopers en zwaar ongeschikt.
die zou de beste zijn. hahaha
knvb ernstige fout gemaakt om ooit hiddink aan te stellen in plaats van koeman
het nl elftal is traag, visieloos, zwak en te triest om te zien. en ziet niet in dat hij niet geschikt is voor deze functie.
die frank is ook de albert verlinde onder de sportcommentatoren. echt vreselijk.
iedere dag heeft of een audio probleem. dat is best wel amateuristisch of een slechte geluidstechnicus of apparatuur.
keuze wouters heb ik nooit begrepen. grijze muis.
feyenoord erg zwak. de resultaten hebben het zwakke niveau verbloemd. het is niet best.
ja of alles of niets voetballen en kramer erin voor kongolo
ja of vilhena erin voor bilal. en daardoor el ahmadi als rechter middenvelder laten spelen.
van beek en bilal mega zwak. gio moet echt gaan ingrijpen in de rust.
kongolo en van beek laten zien dat het geen backs zijn. van beek speelt wel erg matig zeg.
feyenoord speelt erg angstig. dit gaat niet goed zo.
vejinovic begint wel heel erg matig aan deze topper. je houdt je hart vast. feyenoord maakt het zich daardoor erg moeilijk.
ik moet zeggen dat kazim dat erg goed deed.
het is niet nodig. wij hebben bruma als spits.
nee. ik snap het ook niet. vilhena was ook nog optie geweest. is volgens mij erg gemotiveerd
als analist bij fox sports. dankzij hem een erg zwarte dag op 24 oktober 2010. staat nu vertellen hoe het moet. lachwekkend.
tete en riedewald in selectie. lachwekkend die blind. ik dacht dat hiddink seniel aan het worden is, maar kennelijk was het
ja met slecht voetbal. dat gebeurd meestal bij kampioenen.
weet je wat gio nu denkt. heeft niet gescoord en is beetje onzichtbaar. volgende week maar weer
nou gelukkig 20. maar wat een geluk
kazim word ik ook niet vrolijk van. maar je moet wat.
kuijt speelt bedroevend. is toe aan een wissel.
kazim staat altijd verkeerd, waardoor hij overal te laat is. zo is hij geen aanspeelpunt en houdt feyenoord niet de bal in de ploeg.
ik heb nog geen fatsoenlijke voorzet zien geven. zo fantastisch is het allemaal niet.
wat speelt wijnaldum goed zeg bij newcastle. snel tempo. zet de lijnen uit. balvast en erg veel diepgang. knap.
scheids bij s.v.p. geen bananen gooien en te hard juichen. krijg je boete en rode kaart.
de 10 van az was gewoon buitenspel. aanvaller az hinderde verdediger
vervelend gesprek gehad met mdw. telfort. proberen de schuld op mij te schuiven. steek hand is in eigen boezem.
onzin bij dat je mosselen alleen kan eten bij de r in de maand. dat was vroeger, toen er nog geen koeltransporten waren.
wordt weer zwaar jaar om feyenoord supporter te zijn.
03 in je openingswedstrijd. goeie grutten. toch wel ontluisterend dit. het is niet veel beter dan vorig jaar.
ik ben bang dat feyenoord niet gaat scoren. kuyt is geen spits meer en kazim komt tekort.
vermeer zwak tegen vvv. nu ook weer zwak tegen tegen southampton. hahn maar kans geven zou ik zeggen.
vejinovic echt een versterking voor feyenoord. verdediging oogt niet goed.
wat een traag ding die nieuwe dit is geen verbetering. maar een irritatie factortje erbij. sta er al ruim een kwartier voor.
speelt feyenoord nou vanavond om 20 45 uur ??
we zijn spitsloos. kazim kan er niks van. wisselen die gozer en niet meer opstellen.
de oude boskamp om het nog even te laten donderen in de kleedkamer. hebben de mannen nodig
kunnen we feyenoord niet gewoon scheelt mij in ieder geval een hoop frustratie.
en verdienen een vermogen om compleet uit je nek te lullen. zo kan ik het ook. echt verschrikkelijk die gasten
ja. feyenoord moet wel aankopen gaan doen.
nog wel derde. na volgende week niet meer.
erg leuk inderdaad
messi. dat wordt later een hele grote.
waarom speelt jong feyenoord om 1600 uur? om die tijd was ik namelijk aan het werk, met mij velen, denk ik.
ik ben voor het eerst in slaap gevallen bij feyenoord. echt vreselijk voetbal van feyenoord. armoedig zelfs.
succes zo thomas en huub en veel plezier. ben benieuwd.
hiddink snapt er niks van. de jong veruit zwakste schakel. waar is clasie?
jullie speelden beide erg goed. een genot om naar te kijken. dank voor deze mooie partij.
43 uit verliezen. en thuis 21 winnen. dan ben je wel door naar de volgende ronde. of werkt dat niet zo? was geweldig.
wat is jari schuurman een geweldig talent. prachtige hattrick bij jong zit erg te genieten van hem.
kon het bij excelsior ook niet aan in jupiler league. dan had er al lichtje moeten gaan branden.
alsjeblieft nooit meer in een shirt.
rutten moet per direct weg. van geel ook. zit niet meer goed in die ploeg.
manu. tevrede. toornstra. immers. el ahmadi. boulahrouz en nelom zwaar onvoldoende vandaag. clasie ook niet sterk.
die kan er toch helemaal, maar dan ook echt helemaal niks van. wat een verschrikkelijke spits. feyenoord onwaardig.