cursus voor befhorst leren omgaan met teleurstellingen
vandaag de ommekeer voor feyenoord
henk, je kan ineke patty mailen op inkypatty@hotmail.com groet. roberto
henk wat leuk. zal ik je in contact brengen met ineke patty?
ik kon niet eens keaad of boos worden dan er alleen om lachen.....te triest voor woorden.
begroting 20182021 begrotingsdebatten.
lekker is dat dan voel ik me een houten klaas bij
ik vind de wedstrijden om te kijken in engelan en duitsland over de breedte genomen mooier om te kijken.
schoonmaak actie ook op de molukken...
ach mensen, verwachtingen na kampioenschap te hoog?.... en allerlei oorzaken maken het nog erger. mooier…
btw ook nog de mooiste voetbalster
slaat nergens op! het sinterklaasfeest dit jaar ‘hipsterpieten’ en ‘glutenpieten’ en ook een heleboel zielepieten!
ik zeg hahahahaha
terecht wat een malloot
boetius speelde slap en inspiatieloos
ach ach...nl gezegde in verleden behaalde resultaten bieden geen garantie voor de toekomst.....
ook investeren toch?
haha hou van echte mannen die hun vrouw tevreden houden...........
ongelofelijk.... tis ok nog een smurf die daar kopt..
maak je toch niet zo druk om de reacties.... je mag tweeten wat je wilt.. met een beetje relativer…
de bal is en blijft rond......
5 tips hoe je moet overleven op kantoor
gelezen in een tijdschrift in de wachtkamer vd huisarts...
groot succesvol voetballer ........ jammer dat nl geen echte cultuur heeft in het respecteren van sporthelden.
voorster ambtenaren met gedoseerde inzet van energie een duurzaam resultaat
mooie voetballer
ik zie genoeg buiten lopen.....
ja en ik weiger therapie
lekker erik, om dit weer te horen.
rondgang gedaan met 26 leden van rotary voorst in voormalig woonoord teuge. na maaltijd in st. lawa mena een presen…
live anticlimax in cataloni&ampeuml ruim 400 gewonden bij referendum niet normaal.......
tis maar dat je het weet..
gelijk doen!!!!
boetius en berghuis niet sterk....dat moet ect beter..
berghuis en boetius niet sterk moet beter....
dumoulin rijdt met overmacht naar wereldtitel tijdrijden de tour het volgende jaar tom ..........
zo zo vipper
henk stefan staat niet op de foto..
robert eenhoorn
eerlijke jongens zonder poespas.....
gelukkig is bier minder zuur......
het dan toch ook kunstregen en kunstwatert
de penis is de antenne van het hart
speciaal voor paps....hoeveel heb je kunnen inslaan?
lekker ding heur
laatste dag klompenfeest 2017...wordt een mooie dag. kom naar twello...
van harte gefeliciteerd
hoeft niet blijft drruge
klumpkes en zakdoek ligt klaar
ik keek niet goed zie nu dat de foto vanuit de overkant is..... ik zit nl in j.
erik zit jij in vak y?
ik ook niet .... je zal maar zo 2 bier bestellen in de pub...haha
ome sjakie is een topperrrr
daar is er maar 1tje van.......gioooo
erger je niet, verwonder je slechts en blokkeer deze randdebiel
ok en omgezet naar hun salaris is dit te gek voor woorden.
wereldnieuws........
aanslag barcelona busje rijdt in op voetgangers, zeker dertien doden gvd halve gare idioten!
live zeker &ampeacute&ampeacuten dode en twintig gewonden bij aanslag barcelona omg!!!!
mogelijke gijzeling in radiostudios npo 3fm in hilversum
je wordt ook overal belazerd waar je bij staat......🤔
haha kentognie de andere wedstrijden geen storing...
klasse richard....op naar de finale!!
douma na dramatische val alsnog toegelaten tot halve finale 1500m richard douma mag door, nu de finale halen!!!
kabinet verzweeg eerste signaal eiercrisis, kamer verbijsterd politieke doodzonde dag minister schippers
op de boekenmarkt deventer lag het boek der boeken net als vorig jaar op mij te wachten.
en bedankt.........
op naar de grootste boekenmarkt in europa in deventer
toevallig een vitesse clubaansteker en dat mag niet gegooid worden op het heilig gras
het blijft dus afhankelijk van de waarneming en oordeel vd scheids of de videoscheids en beid…
vak j mijn plek voor dit seizoen. ben er blij mee. leuke gasten om me heen.
wat een goal jens.... tov vorig seizoen zit jij nog steeds in de goede flow en vorm.
diks moet maar eerst leren directe tegenstander uitschakelen en bal inleveren.
lekker prijs is binnen..dankzij gedoe videoref werd ik wakker geschud haha.
kan helaas niet.......
schitterend is dat, nederland moet wat dat betreft af van dat nuchter denken en meer chauvinistisch zijn.
ik ben erbij........
zo zo ziet er lekkerrrrr uut.
mooi artikel......kinderen moeten het leven spelend ontdekken om een creatief vrij denkende out of the box mens te…
oh oh westerse man / vrouw minder aan je carriere en roken drinken en denk aan je voedsel. in andere…
loop je in terneuzen kom je dit tegen..... heeft dit met burgemeester of de straat te maken?
jij kan dan op je 52ste eruit zien als 72. haha
oh? veel plezier
tikkie touzani top boodschap verander de wereld om ons heen, doe het samen.
ik wil graag de zwarte uitvoering van dit shirt...... nog niet gezien bij het aanbod
jazaker......daarom voor een ieder goede reis.
haha jullie in breskens????? groeten uit cadzand.
lekkerrrrrr hier aan de zeeuwse kust cadzand
vervolg elke ochtend eetlepel in glas met lauw water drinken voor het ontbijt reinigt lichaam en je krijgt een mooie huid.
van een chinese vrouw doe in een pot schijfje citroen, laagje honing, laagje gekookt water. herhaal volle pot . dag laten staan.
zie ik daar adidas badslippers ??? daar horen witte sokken bij ing....
als je de miljoenen leest die ajax vangt voor spelers..... wat doet feyenoord niet goed?
vaderdag moet net als elke andere dag leuk zijn
haha werd tijd
moeten kunnen sporten met nadruk op kunnen. het is dus niet verplicht.
live torenhoog flatgebouw londen compleet in brand omg...
mooi boek ontvangen
de wereld is aan het doordraaien.....en demonischer geworden
petertje jij slaapt zeker achterin....halve zool
dumoulin schrijft historie met eindzege in giro geweldig!!!!!!
live 19 doden en 50 gewonden na concert manchester niet normaal!!!
mijn hartslag door onderdrukking met medicijnen normaal tussen 5060 pm op 14 mei 2017 in de kuip op 104 pm.
mijn gemeten hartslag zondag 14 mei 2015......
de afloop was triest, maar daarvoor wel feest gehad. op naar volgende week
helaaaas van gisteren....maar kog steeds
ik heb de ticket op de mobiel.. moet ik nog een geprinte versie meenemen?
ook olli is er helemaal klaar voor....
live vitesse jaagt op eerste hoofdprijs in geschiedenis winnende goal door navarrone foor voor vitesse
elke afscheid is een nieuwe begin en elke einde een nieuwe start.....rest de herinneringen.
ik wilde gaan slapen nu de bittere waarheid over schaapjes tellen
wattan te veel gezongen in de tent?
vanavond naar het burgerweeshuis
topmanager !!!
haha mijn dochter ruth rechtsachter. zij heeft met d1 een goede wedstrijd gespeeld.
zielepiet die jij rijdt zeker ook geen opel enz.
mark, ben jij elk weekend in zeeuws vlaanderen? wij kamperen al jaren met de zomervakantie op het knocka…
jammwr dat het vrijdag om 1400 uur is. ik moet nl nog werken.
dit is in stockholm en in nederland lopen zulke gekken ook rond.......crazy idiots!
ja hoor geniet ervan ing
dan mijn generatie ....als de politie eraan kwam vlogen wij weg....al hebben we niks gedaan. heb ik eigenlijk nog steeds, respect
gesmst donatie sphia kinderziekenhuis
juiste conclusie en ik doneer liever dan dat ik geld ontvang.
stuurde dit berichtje alleen door helaas. kreeg snel te horen dat de prijzen anders lagen dus verwijderd
resultaat verkiezingen in de gemeente voorst..
rutte nederland is een trots land, net als turkije nu de rug kaarsrecht houden!
ik ben 60+
godsamme wat baal ik van het verlies van feyenoord!!!! gelukkig feyenoord blijft bovenaan staan. wat een zaadwedstrijd
anouk, nl is een notoire zeur land.
tigjaren lid fsv. nu ook van het legioen. alleen om voorrang bij kaartenverkoop. na jaren afwezig een seizoenkaart? doen! pff
een ander goedemorgen wensen is een uitspraak om de dag goed te beginnen. ik word er zelf vrolijk van...goedemorgen.
zonder doel struinen op dezaterdagochtend markt is heerlijk. wat een bedrijvigheid, mensen die alleen haast hebben. kom op mensen geniet!
komoptan voorwaarts!!!
sterk feyenoord slaat psv knockout in de titelrace
heerlijk om de reacties feypsv te lezen. tis gauw leren omgaan met een teleurstelling mensen!
vanmiddag gelezen bij de oogpoli deventer ziekenhuis kintra whisky label van erik molenaar...
en heb je mooie uitgezocht?
mo farah door trump voel ik mij een buitenaards wezen
vluchtelingenvilla twello brandt af
gelezen in een in memoriam advertentie wie nog wordt gezocht, is nooit verdwenen
vermiste meisje uit driebergen is terecht
ns stel reis naar amsterdam, utrecht, schiphol en lelystad uit
verdeling geld tussen rijk en gemeenten moet worden herzien
van gerwen op indrukwekkende wijze naar wereldtitel
voor iedereen .........
geduld opbrengen is een schone kunst, dat niemand je kan bijbrengen, behalve jezelf.
george michael 53 overleden
vermeer toppert
handbalsters overtuigend naar ekfinale geweldig
creativiteit is nodig voor oplossingen in de toekomst.....
interessant en inpirerende presentatie....
cubaanse oudleider fidel castro 90 overleden een revolutionair overleden
gelezen in zin van jul/aug 2016
behalve als hij tegen feyenoord scoort natuurlijk hahahaha
ben verre van ajax minded maar van een spits als dolberg kan ik van genieten.
hoe gaat het met jou?
goed georganiseerd en leuk om de wedstrijden te bekijken.
mannenbingo.....o.l.v. sinterklaas
mannenbingo frank overmars gaat de c3 en c4 trainen
goedemorgen fijne zondag
succes voooooooorwaarts h1 en d1
40 en 5 punten in twello
vrouw 83 ligt vier dagen hulpeloos in tuin, maar leeft nog
oh oh waar ik deze week van kan nagenieten is de gelijkmaker van feyenoord...........@feyenoord
het minste wat je kan doen om naar elkaar toe respect te tonen, is groeten. watti1956
laatste 5e set voorwaarts d1 verloren met 159 eindstand 32
goede degelijke4e set van voorwaarts met 1725 gewonnen
3e set moeizame set van voorwaarts 2519@volleybaltwello
voorwaarts d1 1e set 1125 2e set spannend 3230 het staat 11
te ergeren dus
allen een goede behouden reis terug!
je bent nooit te laat...... je was alleen niet op tijd. watti1956
op naar sporthal jachtlust.....
zeker weten ook andersom
een goed verhaal hoeft niet waar te zijn.
mooi complex mfc te klarenbeek
famo utrecht fv financiële verhouding door gerber van nijendaal. rol gemeente met welke middelen?
famo najaarsco gres utrecht
haha ha dan komen de heipalen........let op scheuren in de muren en plafonds
klasse opstelling van henk
u bent bijna overal een vip!!!!
zeker weten!!!!
das niet erg veel denk dat de goeisten meer ontvangen
ronaldo doet het toch weer...wereldspeler
haha ook de voeten wassen
dat vraag ik mij dan ook af.
btw ik bewonder jouw fotos daardoor kijk ik vaker naar mooie wolkenpartijen in de lucht.
mooie foto mark........maar het is fascineren.
zo zo.....
pfffffff
de wereld op zn kop nu staatsgreep in turkije. .....waar gaat dit allemaal heen???
vind ik ook......fiets er maar eens een keer door de gemeente en kijk goed om je heen...
wat een finish vd 2e etappe tourdefrance... mooie sportbeelden.
culturele manifestatie 65 jaar molukkers in de gemeente voorst zaterdag 11 juni multizaal jachtlust. vrij entree
kga er vanmiddag gelijk heen.........hmmmmmmm
ja hoor het kan!!!!
vandaag voorrond nk knikkeren marktplein twello vanaf 12.00 uur.
hoe ging het? kut zei dafne...daar hou ik nu van, geen lange verhalen.
haha moeilijk groet roberto.
mijn idee!!!! mag ook half uur na de wedstrijd, die klap op de bek!
spannende dag voor fc twente succes fc twente
humberto bedankt voor de foto...@humbertotan
is ook een bijzondere. foto. hij is de burgemeester van rotterdam maar absoluut geen feyenoorder
ik zag op tv ook een aantal die groen / blauw in hun gezicht zijn
mooi programma, daar kan ik dus de avond mee vullen.... heel interessant
wedstrijd in de grolsche veste gezien ziyech man vd wedstrijd hij is echt goed.
jahaaa de aanslag gemeentelijke belastingen 2016 door tribuut belastingcentrum is binnen.....
komt goed. duurt ff maar ze versturen het uiteindelijk wel.
doorstart v&ampd is mislukt via
heren afgelopen zaterdag een goede pot volleybal van jullie gezien. die hakkert van blauwwit kwam er niet aan te pas...
niet doen.
griepexplosie in oosten van het land
net als alle voorgaande seizoenen een slechte start van de 2e helft voor feyenoord...#feyenoord
winterweer op komst kans op marathon op natuurijs oh de borstrok en lange onderbokse aan....
heren ik verwacht op zn minst pd en zo niet rechtstreekse promotie succes!!!
code geel zondag kans op sneeuw in noordoosten
ik wens iedereen een goede jaarwisseling en een goed begin en voorspoedig en gezond 2016
moeten spelers die slecht presteren bij hun club dan nog opgeroepen worden voor het nl elftal is dan de vraag??
roombroodje voor de 2 vrouwelijke collegas en natuurlijk mijzelf.
hake is het zat en grijpt keihard in doelman wordt geslachtofferd onze nick marsman back in business
een goed verhaal hoeft niet waar te zijn....
ie hep helemoale geliek!
haha is het zo erg gesteld met vd hoorn??
succes met het toernooi.
barry atsma en noortje herlaar zijn een setje gelukkig niet met carmen van walraven.
wijken voor terreur??? lokaal, interlokaal of internationaal? dat moeten we niet laten gebeuren. we zijn er zelf bij.
hun punt is al genoeg gemaakt. alleen bij wet is niet verboden dat piet zwart is.
waanzin in parijs door gehersenspoelde terroristen. heeft niets met de religie te maken. kwaad in de kiem aanpakken.
dit weten we tot nu toe over de aanslagen in parijs
pas op gevaarlijke film. je gaat er raar van dromen!
geweldig wist niet dat er menselijke jet flyers bestonden
achter al die voetballers hebben er een cursus in gehad. zie het te vaak en pupillen nemen het over vd profs. te gek gewoon
ok gauw bijkletsen.
misschien moeten de spelers ook een focuscoach aanstellen..wel zelf betalen!
hoi ing, leuk gehad? ben benieuwd naar de belevenissen.
volg jou tweets graag. beetje elkaar kietelen is gezond.
huh huh u in het bos????
ik geef mijn meisje liefde......is niet te betalen!×
dat mag ik graag horen.
nou ja, das niet fijn. je betaalt voor service en kwaliteit. hebben incidenteel dat ook maar over het algemeen tevreden.
chrometofobie een zeldzame ziekte is?
is dit wat de vs betreft verontrustend?
mijn dochter neomi kan de hele dag zingen. gelijk bij het opstaan.
dat is zeker te veronderstellen.
flauw hoor, je blijft grappig winston!
zo zo ing. smaak van concerten te pakken?
kramer vrijgesproken door beroepscommissie /via gerechtigheid !
duitsland en polen naar ek, ieren naar playoffs /via
das dan weer leuk... vertel je mij nog wat hij ervan vindt?
en was er weer bij.......geweldig!
oh ok die zijn de moeite waard. niet van die kleine balletjes graag
wat voor lekkers??????
dit is toch geweldig!!!!
molen terwolde uitgebrand na blikseminslag voorst
zit je dan half uur te vroeg in een lege wachtkamer dz....
yep vond ik ook teveel blablabla
wolken boven duiven op de terugweg van schalke 04....
lekker is dat. ik zat ook voor de buis nav jouw tweet.
huh een muzikant in de flat???
wij doen echt iets verkeerd
mooie tourrit vandaag gezien. wat was gesink goed. zelfs zijn ploegleider was in tranen volgeschoten
die shirt sta je goed! laat al die kwallen van azijnzeikers in nederland een poepje ruiken. ik twijfel niet aan jou kunnen.
klasse rit vandaag dat het bij je ploegleider vol schoot. wat mooi, wat mooi. op naar een etappe zege robert!
jordy veel succes in engeland bij southampton. laat je zien en zorg dat je daar de baas op het middenveld bent.
“@wistjedattv en ben jij rijker dan 25% van de amerikanen? ” check it out!!!!
ik blijf bij de volgende stelling een goed verhaal hoeft niet waar te zijn!..........
allez daniel teklehaimanot..............pak die bolletjes trui als eerste afrikaan in de
11 geworden verdiend alleen spel niet best.
niet normaal na een snikhete dag nu heftige onweersbui......#voorst
beste rode kruis tip bij warm weer vermijdt zware inspanning tussen 12.00 uur en 16.00 uur.... iets voor de ambtenaar???
dat het zo lang heeft moeten duren.......
vierhofsteden volleybaltoernooi sv voorwaarts twello
kijken naar power tennis van wrawrinka tegen federer 1e set 64...@rolandgarros
de jongen seth en ivo testen ook het aed apparaat.
seth en vriendje ivo oefenen reanimeren op de pop van de ehbo open dag..brandweer twello
open dag brandweer twello
ik heb net knokpartij op tribunes roland garros via gelezen. hooliganisme bij tennis..
check
rutten en greveraars weg, gio hoofdcoach via
het wordt moeilijk voor juve. maar ze zijn zeker niet kansloos...
schitterend veel plezier
check de voorstelingen vd brothers timisela! hier met mijn neefjes op de foto
talenten blijven ontwikkelen en gebruiken
zijn de winnaars van het panna toernooi bekend gemaakt?
natgeregend door korte bui met flink veel druppels
rare weersomstandigheden vandaag...nu volop zon tussen de wolken door..
dank voor dit antwoord. heb jullie antwoord geretweet
belastingdienst jaagt op kinderen bij vrijmarkt is die wim heubel vd pot gerukt? waarom heet het vrijmarkt idioot?
het wordt een mooie zonnige dag............tdm terrasweer wie gaat mee?
“@nltopturnen zaterdag 24 april turninterland nederland belgië zweden in twello ”. btw het is zaterdag 25 april..
vandaag doedag gemeente voorst ism stichting present deventer. ik ga naar humanitas in deventer.
goed reisbureau aanbeveling waard.
ik heb net kuyt is duidelijk na de zomer weer thuis bij feyenoord via gelezen.
had er op gerekend dank je
orde op zaken in alkmaar
zo zo smikkelen en smullen
missie gebroeders timisela wij kunnen het geslaagd. talenten durf te gebruiken en ontwikkel
de film is de moeite waard om te kijken. en dat door molukse professionals met weinig middelen.
wilde zijn shirt uittrekken. gelukkig sprongen medespelers op hem tijdens het juichen. anders onnodig gele kaart.
karsdorp goede invalbeurt. geen onnodig balverlies, verdedigend en opkomend goed werk geleverd. uit de feyenoord jeugdopleiding!