je bent niet vervelend
fout gemaakt
😂😂😂had hij gezopen
nee hoor
heel veel sterkte nathalie en de familie ook
lekker gezopen
groot gelijk
ja dat ga je wel lukken
gefeliciteerd gerda😘😘❤️❤️
niet te geloven
wat is er toch
gefeliciteerd nog met je utreg
😂😂je heb wel gelijk
we moeten zorgen dat ajax geen kampioen wordt
nee joh dat twente is niks
lekker aan de martini
wij worden toch geen kampioen meer
laten jullie maar winnen
😂😂😂
alvast gefeliciteerd
gefeliciteerd
gecondoleerd met dit verlies
sterkte
en jij zou dat nooit durven zeggen
moet je nog tot laat werken
niet het echte hardrock wel rock.en van je broer?
wat voor muziek hou je van
feyenoordmuziek
jazeker
jij begrijp het
veel plezier
oke lekker
ben ik niet gewent van jou
heb je nog gedanst zeker.ik moet nog dansen met je
leuk feestje gehad
nog gefeliciteerd met je ouders
ben er een beetje klaar mee
ja maar positief blijven
nou je zoon zijn elftal nog
jazeker nu tweede als het goed is
o ik wel en het was wel koud maar wel gewonnen
ook bij het voetbal gestaan
oef ik dacht ojee
ja dat is waar maar wel respect voor hem
👍👍al hebben wij er ook niet veel aan
moet je niet doen
jij bent goed bezig roy
omdat je een fuifnummer bent
een goedemiddag
en anders psv .want die winnen vaak van 020
ja dat weet ik maar het was wel heel slecht en van 020 ook dus geflatteerd
voor ons zit het erop
dan jullie maar kampioen
het gaat weer iets beter
klote dag gehad
jazeker ze speelde de bal ook steeds door het midden
en wat was het weer slecht elke keer kon je muts op doen en dan weer af
jazeker maar die penalty had er ook in gemoeten
nee zeker en er waren er meer
het was echt slecht net zo als het weer
ik denk dat feyenoord de klassieker wint.
jazeker positief blijven je zoon gaat scoren
jazeker maar met jullie ploeg gaat het snel beter👍👍
wat een lul
wij hebben 162 gewonnen
ze kunnen het ook wel eens door de vingers zien
jazeker helemaal mee eens
samen een boswandeling
kan ik met jou ook een keer wandelen
wel gezond
was het lekker
welkom bij feyenoord
wie gaat er naar man city uit
ik heb dat eerst ook gedaan maar het gaat wel vervelen
wel sportief ik wil ook wel sportief zijn zijn maar ik heb geen zin alleen te gaan
gefeliciteerd
ja het gaat gebeuren
ja want ik heb het koud
vette😘😘terug schat
😘😘😘
zijn dat jou mooie benen
goedemorgen gerda💋💋
je heb gelijk sierd
maar sierd heb wel gelijk
jazeker zag ik later dat je dat gezegd had sorry
maar wel de mooiste kutste ploeg
dan gaan ze voor de dubbele cijfers en tapia er ook nog bij
wat een rare figuren zijn er toch op twitter
daaaaag
ik zou niet kwaad worden hoor
bedankt aardig van je
mij wel als je dat oplucht
wat een stelletje kanslozen
oke bedankt maar ik lees dat sommige zien dat ze al weer op marktplaats staan
ja dan heb hij pech
dus de wedstrijd is uitverkocht dus ik hoef het niet meer te proberen
goedemorgen klopt het dat feyenoordajax al uitverkocht is@vraagfeijenoord
huilie,huilie
goedemorgen
veel succes
gefeliciteerd
ook een 👍👍👍 voor de sponsoren
iets voor jou manon
ja dat heb ik ook wel eens gedaan toen ik maar een paar uur geslapen had
hoe is het met jou na 3uur slapen
ja maar het is gewoon een mooi nummer
jazeker een mooi nummer
jazeker alleen als het regent kom ik gratis met de tram maar dan ben ik gelijk weer later thuis
voor mij is het maar 20 minuten fietsen
het is ook klote als je uit brabant door de week zo laat naar een wedstrijd moet en je moet de volgende dag werken
oke
nadeel van mijn vak is al het regent ben je zeiknat
heb je een seizoenskaart daar
zit je daar een beetje goed
vak w1 nou staan want anders zie je niks
jazeker en ik wou eerst niet gaan maar toch maar gegaan
je had wel alle ruimte
ja ik ben maar even naar de toilet gegaan tijdens de wedstrijd
was slecht he
nee joh utrecht wint van fietstas dit was een incident
ja dat is ook wel zo
boetius ging nog wel maar kramer was echt slecht en kuipers ook
😂😂
wat is dat psv slecht
ja ik ook ze hadden minimaal gelijk moeten spelen
o dan begrijp ik wel dat je pissig was
voor welke club is je man
dat is wel veilig
jij bent morgen bij ziggo.ik vind dat leuk teminste een leuke gezicht daar
oke wel leuk zoals hij op de foto staat.ik kan begrijpen dat je trots bent
speelt hij bij willem2
veel plezier vanavond
goedemorgen nathalie
goedemorgen gerda💋💋
jij zeurt nooit
allemaal dagjesmensen en bij ons op vak w1 ook
heb je het nog makkelijk gehaald jessica
hij wil feyenoord niet afkraken maar de tweede helft ging wel beter
slaap lekker
je redt dat makkelijk het begint toch pas om 20.45 uur
hoi wilfred weet je of ze nog balletjes breed verkopen bij de plus
maar jij gaat toch ook
nee daar is het nu te laat voor.maar als je eraan begint blijf je kijken
ik heb seizoen 3 in 1 dag gekeken
van harte met je zus
stelletje kwallen vuile tering graaiers
je ziet er weer goed uit
ze worden deze week verstuurd
o die heb ik ook gehad.hij was een beetje agressief.die hing zo in me vinger
wat voor vogel is het
beterschap hoop dat je snel beter bent
mask er een mooie dag van
goedemorgen gerda💋
blijf je nog wel bij fox dan?
😂😂
nee daar heb je gelijk in
hetzelfde doen bij napoli
lekker
er was toch afsproken om te sproeien
😂😂😂
goedemorgen gerda💋
veel succes
geen 020 gedrag vertonen
nee napoli vind ik ook mooi maar shaktar vind ik zo niks zeggend
ik ook wat een kut ploegen
dood maken die gasten langzaam
toch plezier.ik heb over 2 weken 3 weken vrij en zal als ik weer moet werken ook geen zijn hebben
rustig aan maar
niet door mij👍👍
😂😂😂bedankt toch wel respect voor jullie
ik hoop het voor je .eh nee eigenlijk niet maar jullie mogen tweede worden
niet gek toch?hij kan al niet meer bij 020 mee
ja maar timmermans spoort niet en is een debiel
is dat jou paard?mooi paard zeg
😂😂het is een zuidamerikaan
lekker laten gaan en geen aandacht schenken
wel leuk voor ze
ja joh alleen wel scoren en goed tegenhouden
goed voor nederlandse voetbal en meer met utrecht dan die joden
gefeliciteerd en op naar de groepsfase
kom op utrecht scoor die goal
waarom ben je niet meegegaan
succes vanavond tegen die kut russen
drink ze neem er een van mij
goedenavond jan ik moet zeggen je heb leuke vlogs
oke wel injectie halen voor infectie
o hij of zij werd agresief
wat heb je gedaan dan?beterschap
ja dat is te zien.maar toch zie je er nog goed uit
😂😂😂
aangeschoten
ik denk dat ze helemaal niemand meer gaan halen
omdat je het leuk vind of nils te doen heb?
je blijft er wel mooi uit zien ondanks slaapgebrek
feyenoord was ook niet best maar ze winnen
gefeliciteerd
😂😂😂
ja die hebben er twee van jullie eruit geschop dat rood had moeten zijn
ja maar jullie spelen echt leuk al is den haag wel slecht
gefeliciteerd vast
ja dat zeker het is echt lelijk
ze spelen best wel leuk utrecht
best wel hoog
lekker zuipen.ik bedoel drinken
gefeliciteerd nederlandse voetbalvrouwen
😂😂😂
beterschap
is morgen ook de feyenoordshop open
😂😂😂😂
goedemorgen gerda
goedemorgen lieve mooie valentine en nog een fijne dag
😂😂😂😂
😂😂😂
sorry helemaal vanochtend vergeten te feliciteren
graag gedaan
want je was gisteren toch lam?wel lekker he dronken
het had gekund
😂😂😂😂😂
weet je het zeker
ze gaan echt nog wel wat kopen.wij hebben tapia nog voor jullie😉
nee volgens mij niet.ik ga maar weer door de regen naar feyenoord
wel een goede speler voor utrecht
rare opmerking jack is niet voor ajax maar voor afc
ja veel plezier morgen ik moet morgen naar feyenoord anders had ik komen kijken.laat ze je danstechniek zien
was het leuk manon bij onze utrechtse vrienden
maar je bent gewoon een lief persoon
goedemorgen valentine
goedemorgen gerda
ik vind die miedema nou niet bijzonder
sorry ik schaam me ik wil je nog feliciteren met je verjaardag ik was het vergeten
wij hebben dat met van persie
veel sterkte
goedemorgen gerda
goedemorgen en gefeliciteerd met je verjaardag
ik vind het wel leuk voor fc utrecht als het echt waar is
nog een mooie dag💋
goedemorgen gerda
goedemorgen
groot gelijk ik wil dan ook wel slaan
gefeliciteerd
daar hou ik wel van
je heb dat zuidamerikaanse temp.
hoe bedoel je 😂😂
nee jou fuck je niet
ja dat gaat wel goed komen
klote voor je
jazeker
dat bedoel ik
wel zwaaien donderdag bij die wedstrijd
goedemorgen valentine en een mooie dag
belachelijk
daar moeten we niet naar toe willen
lege glazen
zijn er nog geruchten
zo je kan weer gaan
de groeten terug
mooie foto
ik wil ook wel meedoen
jullie hebben altijd meer supporters in de kuip dan die gloeilampen
je moet die gloeilampen nooit serieus nemen
nee moet je zeker niet doen
😂😂
😂😂😂
jazeker hij zal toch niet op vakantie zijn😂😂
😂😂😂
😂😂😂
dat bedoel ik eigenlijk ook
ik ben feyenoorder maar feyenoord koop ook hoor.alleen toen ze geen geld hadden toen stond er jeugd in.dus niet zeiken
prettige vakantie
mooi zo
nee hoor
jullie mogen hem hebben
😂😂
oke ik dacht dat jullie dat hadden
die van geel is me toch traag
kunnen we niet jullie technisch directeur lenen
😂😂😂jazeker
jullie zijn lekker bezig met spelers halen
lekker toch
oppassen dat hij niet ziek wordt
utrecht meet kans om door te komen dan dat stront az
ja ik ook wel en vooral met jou
beter dan met wat er nu zit
met jou wordt het altijd gezellig
😂😂
😂😂😂😂
nee je zou er alleen maar aan ergeren
ja maar van geel had nelom moeten verkopen.niks voor jullie😂😂
dat gaat weer niks worden
laat hij maar eerst voetballen
jazeker allemaal fotos en filmpjes en spullen
ja vind ik ook en jullie veel succes in competitie en uefacup
ja dat wel maar ze wilden eerst belachelijk weinig betalen.
vind ik ook en feyenoord moet niet voor een dubbeltje op de eerste rang zitten en gewoon betalen wat hij…
nee verzetsmuseum en van goghmuseum
je weet ik ben voor feyenoord maar hij hoeft niet zo te slijmen hij heeft veel te danken aan fc utrecht
ik ook een dagje amsterdam
😂😂😂