de kenners bij die het telkens over vorig seizoen zonder eur. voetbal van hebben. wat een domheid.
is een prima keeper, maar heeft het niet op dit moment. te vaak betrokken bij tegengoals. het is nu tijd. tijd voor
when je box mislukt...#tvoh
toon, de zoon van geert...#tvoh
de gouden medalje voor puuzelen...#tvoh
weer een fout keepersfout jones
misschien ga je nu antwoorden, denk jij dat max zelf besloten heeft om excuses te maken, of heeft i…
denk jij dat max zijn excuses instagram uit zichzelf komen, of dat er iemand is geweest die zei…
dat moment dat je een column schrijft, het in de krant komt, maar net te laat bent..…
feyenoord speelde vorig seizoen 6 wedstrijden europa league. beetje vreemd dat je dat niet weet.
max wat.een.baas!
tweede geel hands maar geen strafschop tsja.....#makkelie is nog slechter dan
wat speelt ongelooflijk slecht zeg. niet om aan te gluren.
wat een verschrikking is dat van niet te harden. zap zap zapperdezap
ach, lacht weer. zo ziet weer een kans om een ander de grond in te boren.
achteruit lopen, achteruit lopen, achteruit lopen. en ja hoor. tegengoal.
als feyenoord meer durf toont 2e helft is winst binnen handbereik. halfbakken druk zetten gaat altijd fout. dat gaat altijd fout.
dirk voor altijd ❤️#kuyt
apart dat wel bij de overtreding van de regels toepast, maar bij van ehezibue niet...#feypec
tapia hamstringblessure. gaat super in de achterste lijn bij
misschien kan hij dinsdag nog meedoen, niveau kan ie wel aan in ieder geval 😂😂😂
nee, 71 mag ook 😂😂😂
ik ben eerst...
als ik was, ging ik lekker omkleden en op huis aan. wat een blamage!
die en kunnen er echt geen ene klote van. had echt al 04 kunnen/moeten staan...#blrned
even de lapdance bij gekeken. paste prima tijdens die zaadpot van
dick zweden wint echt niet met 80 advocaat....#zwelux
aangeboden voetballiefhebber die een land zoekt wat wel naar gaat. hoeft niet veel te kosten...…
kijk hier even , stroll stuurt met bocht mee. vettel botst...
doet alsof de van en het grootste probleem van nederland is. en die kan ook beter inpakken.
licht uit! spot aan!
leipzig verliest, dortmund verliest, bayern verliest. dat duitsland wordt ook een klein voetballand zeg...#parbay…
.@martinbosmapvv na verklapt te hebben dat zijn betoog voor 1op1 gekopieerd is van .
het erge is dat het allemaal persoonlijke fouten zijn. onvoorstelbaar.
zit er serieus een promo voor het nieuwe programma van in het nieuws?
crap! zeker tot eruit met kruisbandblessure. gaat lekker....
gelukkig hebben we de fotos nog...#feyenoord
zei het twee weken geleden al...
tsja, dit voorspelde ik 2 weken geleden al.
wat een trieste spelopvatting houdt de laatste wedstrijden erop na. de arrogantie past ons totaal niet.
wat speelt ontzettend slecht. geen passie, geen creativiteit, veel te laks, weer foute opstelling. wat een drama.
moet haast wel succesvol zijn. kom al jaren niet meer in de
aanval waar goal uitkomt, is volgens een aanval die er een beetje op lijkt. maar voor de rest doet i…
geen camera bij winnaar van de onbegrijpelijk.
zeg dat wel. prachtig.
100 % is een echte thuisfluiter.
wat een ontzettende thuisfluiter is die toch ook. elke keer hetzelfde in
wat mag psv veel van
je fins wordt al beter😂😂😂
het moet zijn prutser...
gelukkig nog geen opkomstplicht bij ons. ga je volgende keer weer als verkleed stoeltje?
geniet ervan! dat ga ik ook doen!
ok, dat wist ik niet. thanks!
klopt, maar kwam toch doordat beroepscommissie geen tijd had?
beroep dient dan toch donderdag met uitspraak vrijdag? niet zoveel kans schat ik in.
pijnlijk dat de beslissing om te laten starten op zo desastreus uitpakt. gaat feyenoord veel last van krijgen
overigens wel vervelend dat die twee 100% penaltygevallen in de eerste helft wel een tikje verkeerd beoordeelde...#herfey
waar blijft
het wordt tijd om clubs met financieel aansprakelijk te stellen voor spierblessures van bezoekende clubs.
gelukkig wint man met 50 van zal ze nu iig niet onderschatten in de
ik neem na het sporten altijd een paar gerstensmoothies🍺🍺. herstel je heel goed van..
moet niet gewoon in gespeeld worden ipv in de
vind ik een toepasselijk woord...#franed
zullen we een grote bos bloemen geven, een dikke dank u zeggen, en zsm wisselen?
leuk, toch nog in de basis...#franed
maar het lijkt erop dat we dat geluk niet gaan hebben...
regeren is vooruitzien
volgens niet voor half 6 toch?
toch lekker dat je zon in je team hebt.
gefeliciteerd met het realiseren van je boek!
zou cocu, mocht het gebeuren, de eerste trainer in nederland zijn die al voor de start van de competitie wordt ontslagen?
afbestellen en voor ander merk gaan. zijn genoeg andere merken zeker net zo goed.
onvoorstelbaar inderdaad. schande voor de kampioenstrui.
gefeliciteerd bob!
gelukkig toch de kampioens ontvangen. prachtig geworden ik ga me voorlopig niet vervel…
aarhggg!! de nieuwe helaas niet in de bus vandaag. dan maar verder in dit boek, kom ik de dag ook wel m…
boek over feyenoord?? wil ik, wil ik, wil ik!
lijkt me dus duidelijk, of met proberen of nieuwe zou schandalig zijn.
helaas weer te afwachtend gevochten. of misschien is wel gewoon net wat beter.
gecondoleerd en heel veel sterkte!
kippenvel kippenvel kippenvel maar zeker niet vergeten. bril.jant
manmanman wat een baas!
wat een geweldige wedstrijd is dit zeg! hup utrecht!
stemming in het
wowwwwww tom een klasse!!
schiet na 100x kijken nog net zo vol als de eerste keer.
dit dus!
die heeft vlak voor de uitzending een flesje azijn achterover geklokt....#natafelen
schaam me een beetje, ben nu pas lid van geworden. wat een acties hebben die gasten voor
ok, bedankt voor het antwoord. op naar de winkel!
we hebben nog iets geks nodig. ehhh, iemand in een apenpak? goed idee, doen we!
even aan de kant schuiven bob, voor nu genieten van dirk komende zondag!! hij gaat de schaal ontvangen!!
hemeltje mikmak, wat zijn die fransen ongelofelijk slecht zeg. oioioi...#olaja
ik zet in op 3 rode kaarten
hebben de spelers wel in de gaten dat ze kampioen kunnen worden?? wat een trieste bedoening zeg. wat staan we weer voor lul!
aan ons is de glorie, het dal is voorbij!
die gefrustreerde reacties uit amsterdam zijn echt goud. zon avond beleven en dan niet tegen een go…
zit er echt iemand met een megafoon in het ajaxpubliek? dat is dan wel weer een beetje sneu...#ajalyo
was twee weken geleden een stuk beter, of niet we worden node gemist daar aan de bar 😂😂😂
poeh, de documentaire van doet pijn. tranen.
is het al 7 mei?
ach, je kunt zeggen wat je wilt over maar ik heb me vanavond geen seconde geërgerd. topshow!
sorry bob, ben toch blij😉
dat worden op zeker tranen dan. ok, ik ben om, laat het maar 11 worden.
al is jouw scenario ideaal natuurlijk.
ik wel bob, hoe eerder de schaal, hoe beter...
😂😂😂 gtst de lappenmand van soapland
heeft zijn kleding aangepast aan zijn kwaliteit als analist...#barjuv
ben onderweg, samen met . zin an!
maar nelom kan echt niet meer, toch?
ja, had door mijn emotie niet je hele tweet gelezen,😍
sorry, dat zeg je ook....
onzin, de enige die echt verzwakt is nelom.
beste giovanni, kunnen we misschien afspreken dat we, wat er om gebeurt, nooit meer opstellen? lijkt me het beste...
donder op met hij kost je zo het kampioenschap!
zondag zal mentaal t lastigst zijn. plastic ondergrond en de geschiedenis daar. zelfde spelopvatting…
spelen met zelfde instelling en zelfde spelopvatting het belangrijkst. dat kan geen van de laatste…
reacties op verlies waren altijd top. daar houd ik mij aan vast...
bij mij andersom, was vanmiddag boos en depri. nu denk ik dat het niet mis kan gaan. ajax verliezen k…
ik snap je bob, voel alles wat jij nu ook voelt, denk echter nu ik kalm ben dat wij dit niet meer weg…
doelpunt zal beslissend zijn voor kampioenschap
humberto bij over vreemdgaande dieren. vind ik humor.
hoe dik moet die plaat voor zijn hoofd wel niet zijn....#blind
verschil ned.11tal vandaag en 2ehelft heerenveen levensgroot. urgentie, drang, alles voor de overwinning. vandaag niets.
het moment om de eer aan zichzelf te houden is misschien wel iets te laat hè?
pijnlijkste zin van vanavond? de jong. afgetroefd door manolev.
beterschap!
is er wel eens een bondscoach in de rust ontslagen?
wat speelt nederland slecht zeg. hoelang mag nog aanmodderen...#bulned
oef, heeft een relatief matige auto gebouwd. daar moet heel heel hard gewerkt worden, wil dat gat naar merc gedicht worden.#ausgp
vraag me af hoe laat de het vooronderzoek naar en aankondigt...#excaja
hoe ik me na deze competitieronde voel....#heefey
altijd hetzelfde liedje met je kunt nog beter met 10 man spelen...#heefey
dat deëscaleren begint zijn vruchten wel af te werpen..#turkijerel
grappig al die bashpvv berichtjes. de grote drie linkse partijen lijken in totaal 18 zetels te verliezen. over pijnlijk gesproken...#tk17
hoe kunnen stembureaus nog open zijn, terwijl er bekend gemaakt worden? mensen kunnen zo beïnvloed worden.
op geert denk ik toch?
eraf. 25c p/km kapot ? doe het niet!
geinig, nu bij het debat tussen en in het kader van zendtijd politieke partijen...#nietdoen!
tsjezis wat is die cabaretier slecht...#penj
waar de fuck blijft het leger om de boel in rotterdam op te knappen...oh wacht, pang pang....#turkijerel
nlers die met turkse vlaggen staan te zwaaien​, die tegen democratie zijn en tegen nl zijn. helaas wel als parasieten dit land uitzuigen...
ach, je laat je gebruiken vd politieke agenda van voor zon doorgewinterde journalist is dat oliedom!
bij jesse moet ik tegenwoordig aan dit plaatje denken....#rtlln
heeft maurice bij weer een peiling uit zijn duim gezogen? propaganda van voor begint triest te worden...
sluit alleen uit, omdat zij groepen mensen uitsluiten. en uitsluiten wil hij niet...…
dus top scheidsrechter claimt dat hij dit duel niet goed kon zien.... rightrightright
en terecht. het is onmogelijk dat dit duel niet gezien heeft.
in beroep gaan. duidelijk te zien dat duel ziet en dus beoordeeld. zijn verklaring achteraf i…
misschien nog maar eens een nachtje over slapen voordat je hier op stemt....#demeetup
je verwacht het niet....#jinek gaat teveel met om. rel rutte lijkt opzetje via
lachen om moraalridder als kerst en pasen op 1 dag vallen.
ohoh, eisen een nieuw politiek slachtoffer... gaat onderuit over in
wat is die trouwens oud geworden sinds dat hij uit is.
geert nu...#carredebat
in klavers plannen gaan forenzen pj gem 1700 euro aan kmheffing betalen aan woonwerk verkeer. excl. spitsheffing
transportsector gaat 2025 cent per km kmheffing betalen, is miljarden pj. komt op bord consument. is niet tegenop te balansen.
gaat niets oplossen, niet iedereen kan flexwerken.
kansloos verhaal van werkenden straffen, veel duurder, boodschappen zullen veel duurder worden. ziet niemand dat?
vooropgezet plan van om en kalt te stellen.
hè?! bij wordt een beetje aangepakt en een beetje verdedigd. is dit de
ach, michael van praag is al jaren voorzitter van de knvb en iedereen weet wat zijn voorkeur is. gedoe om niets dus
precies wat er mis is met ed zit aan de tafel te dutten maar het programmaatje van moet…
tuurlijk, niets aan de hand. beveiliging is totaal niet gecompromitteerd.
hashtag komt nu wel goed uit zeg maar...
hee waar is oh, het komt natuurlijk op de plek van omdat daar de kijkers compleet van wegrennen...
de linkse hobby van en de het is weer op de buis. het is weer genieten, het onderwerp
wat een lamlendigheid bij zeg. je voelt dat het misgaat. hopelijk zit er een hoop peper in de thee zo...#adofey
volgende filmpje van henk die dansend achter het gordijntje tevoorschijn komt...#jinek
ik wilde iets grappigs tweeten over bij maar meh
als kwaliteit leidend is, dan moet dus altijd spelen. jammer danny...
hè ja laten we het niet over het spel hebben of over de geweldige reeks, maar lekker zeuren over de woordjes van
denk het niet....
zou niet beter het reclamegeld kunnen gebruiken tgv dieren? zo maar een suggestie..
de een leegt zijn zak op en vult zijn zak door paay. verschil moet er zijn.
werd even gehackt? t werd er in ieder geval niet slechter op...
jules bij
lekker zon links tafeltje bij gaan de heren en ook nog een met elkaar in debat of zijn ze daar te schijterig voor?
het deskundige commentaar van de gasten bij en is te triest. niets geleerd van de verkiezingen een toontje lager zou sieren!
frank de boer trekt zijn succesvolle jaar 2016 moeiteloos door tijdens de uitreiking
gezonde hollandse jongens die in belgië schapen doodslaan? jij weet meer van de daders blijkbaar?
dat was een 100% voor botteghin.
volgens de vier je dit jaar ipv nog 16 dagen gourmetten dus. beetje misselijk van de persoon…
pffff wat praat veel. hij zegt daarentegen echt heel weinig. tenenkrommend om te zien.
leek schoolslag voor te doen. goede slag dat wel..
heel pijnlijk om te horen over niels holzken bij . had zich wel beter mogen voorbereiden.
ik vertel in ieder geval nooit meer een belgenmop. aan de andere kant, ze snappen toch niet dat ze nu een ras zijn.#wilders
jij krijgt een ras! en jij krijgt een ras! en jij krijgt een ras! en jij krijgt een ras!
hij deed niet mee aan t trashtalken. is wel iets anders
onzin bleef uiterst correct, kalm en respectvol tijdens de pc. kan hari nog heel veel van leren.
schorsen die club uit amsterdam! wat een schande, vuurpijlen naar supporters schieten!
spijker op zijn kop! en waarom bilal steeds de voorkeur boven verhuis krijgt, is mij echt een raadsel.
geruststellende gedachte als feyenoord een corner mag nemen rendement is nihil, dus je kunt gerust gaan pissen.
leuk grapje nog leuker zou het zijn om de go app tijdens formule1 races werkend te houden. maar dit is natuurlijk makkelijker..
gesignaleerd bij wat een lachertje
felix klos het gaat ok. en hij is nog steeds een beetje verdrietig....wat een grap zeg!
ik doe een gokje op bottas
och toch, t is me ook wat ervoor zorgen dat vaste klanten via de app kunnen kijken is heeeel moeilijk...#ziggo
wat een aandacht voor het programma van waar geen hond naar gaat kijken. maar ja, gonna vara.
ik snap het niet ik zit te kijken en ik zie niet, maar wel een wel divers....
remy bonjasky slaat raak. kan ook niet anders
heeft zijn muil vol over normen, maar is al weer bij haar moeder?
spijker. kop. raak.
👍 wel wekkertje zetten natuurlijk!
vannacht niet bij fox?
antwoord d de groene draeck...
vijftig jaar terug in de tijd met trump volgens maar ja, toen was geluk heel gewoon...
weet je wie ook gaat stemmen jij! ook dat kan in een democratie...#dwdd
6 gasten bij die het opeens allemaal heel goed weten. tot gister wisten ze dat zeker ging winnen. tot zover, tot morgen!
ik krijg steeds meer zin in 15 maart 2017...#verkiezingen
de voorkeur van de komt maar een klein beetje naar voren...totaal de weg kwijt
ah, de heeft in ieder geval weer een paar objectieve mensen uitgenodigd...#nosamerikakiest
blamage voor zeer slecht gespeeld. maar toch, genaaid worden door de knvb went nooit.
ik hoop dat bas degradeert!
genaaid worden door de knvb je verwacht het niet...oh eigenlijk wel!
op 80% ga je deze pot niet winnen feyenoord....gas erop!
speler scoort hattrick tegen ajax, krijgt 4 jaar later de volle arena volledig over de pis. maar hij is echt niet relevant hoor.
whahahahahahahaha john voor altijd
een figuur met een megafoon in de om er wanhopig een beetje sfeer in te krijgen. wat een armoe...#ajaclt
ongelofelijk wat is de vaccinatiedame bij sloom. heeft ze vroeger een shotje gemist?
dat klinkt niet best voor zondag....hoop dat het meevalt
waarom kwam in vredesnaam willems er eigenlijk in vandaag als rechtsbuiten/rechtshalf??? groetjes jens toornstra
vond het behoorlijk slecht gekeept van koscielny....#nedfra
wat speelt pröpper een dramatische wedstrijd zeg. komt zwaar tekort.
man man heeft met 10 verloren. kan hoor daar. de karaktermoord op van bronckhorst is triest.
ach wil ook graag weer even relevant zijn. wat een trieste figuren zijn die en who the f is die kees????
eens. denk veel te afwachtend begonnen, want er was best wat te halen vanavond.
mijn alterego is ook weer opgedoken...#fenfey
ja, ook feyenoord is op dit moment
zit dus te kijken, en het woord wil ik bij deze weer nieuw leven inblazen. allebei om te huilen zo slecht.
of zo u wilt...#mistwedstrijd
handig hoor, vuurwerk afsteken in een sporthal...#ajastl
alweer storing bij ziggo app? elke maand centjes incasseren kan zonder problemen, een app draaiend houden is lastig.
klaar voor feyenoordado!
wat een mietjes met die zonnenbrillen bij moet de me of het leger daar niet eens een klein beetje schoon schip maken? knuppel erover!
je bedoelt van persie natuurlijk....
kan kloppen, verdediging ned. is zo gammel als de goedkoopste ikeakast. en dondert bij eerste tegenwind in elkaar...
gelukkig zit het in de top van de wel goed. fijne stabiele omgeving om goed te presteren. dit is een incidentje. of wacht...#nedgri
wat! een! armoe!
de vraag stellen is em beantwoorden. hans blijkt ongeloofwaardig en onbetrouwbaar. begin medelijden met te krijgen...
van breukelen laat nu al zien ongeschikt te zijn. onderhandelen met gullit, kennis over van basten achter houden.
het schijnt dat sjaak hoopt dat degradeert.
wij zitten er al klaar voor! hup !
het is nog te vroeg voor conclusies, maar de infiltratie van bij ajax gaat tot nu toe volgens plan.
hé ja waarom zou je snel naar het gaan? reclame is veel leuker!
mijn favoriete woord van het moment?
youri van gelders prestatie via een omweg als middelmaat beschrijven, dan snap je er echt helemaal niets van.
1 en 3
gaan we nog zorgen dat de app het doet of storten we abo geld terug?
diep respect voor je manier van koersen vandaag, maar vooral voor je omgang met pers na teleurstelling gisteren. grote klasse!
neem maar eens een slok uit het flesje....
het was 21/03/02, 1 lege huiskamer die verbouwd werd, alleen 2 stoelen voor vader en zoon en 1 tv. en het hoofd van pierre.
quintana ontdekt tijdens beklimming ventoux perfecte manier om tijdverlies te beperken in tijdrit...#quintanagate
de gaat weer flink de mist in met reclame. uitreiking verliezersmedaille compleet gemist.
even een hele gekke gedachte, met louis wordt belgië over 2 jaar wereldkampioen.
ik moet aan denken, en eigenlijk heel hard lachen...
wat een fantastische goal!!
is een anonieme sport, hoor je nooit iets van...
vergeet arnar &amp bjarki gunnlaugsonn niet...#engijs
oh joe....#joehart
gelukkig doet nederland niet mee met , want wat een niveau zeg...#kropor
als dat de reden is, dan zou dat behoorlijk raar zijn. in de tour stel je het beste op. het is geen opleidingswedstrijd
mijn kinderen hebben aan mij maar ook aan jou gedacht deze vaderdag. 😂😂 topkado!
gaan we nu elke keer dat lulverhaal van en van 2004 oprakelen
als fatsoenlijk mens bedoelt u ik begrijp de frustratie van over dat spugende en kkhoer roepende scootertuig. toch??!!
de doodgeverfde favoriet. het hoogtepunt kwam vanavond van ronald de boer.
heeft iemand tegen gezegd dat ie ook een keer echt in een hoek mag duiken?
maar die twee analisten bij dan? euh euh euh... lekker niveautje hoor....#rmaatl
die ruim 100 bners kunnen zich beter druk maken over de opvolging van die krijgt vanavond de en hopelijk
ik ♥ ulrich van gobbel. voor altijd!
vooroordeel bevestigd, op geen zinnig antwoord te betrappen. dus die komt er wel.
ok, ik ga me nog één keer kapot ergeren aan en ik moet zeggen, ze heeft nog geen woord gezegd, maar brrr wat een mens...
economie skippen deed ik vroeger op school al veel succes en plezier!
fantastisch commentaar ollie! genoten van jouw emotie!
aah, bosnië heeft warmhoudsfolie aan. prettig!
klein tipje het filmpje van sjaak swart. hilarisch.
wat kun je op een dag als vandaag dan blij zijn met zon bekertje...
kindjes vanaf 2 jaar naar school? waarom niet meteen na het doorknippen van de navelstreng naar zuigelingenschool? hou eens op!
de tv draait door is wel eens grappiger geweest.
wat een genot om je ook vanavond weer bij rijnmond te zien en vandaag te horen. je gaat gemist worden! succes!
staat de einduitslag er inmiddels op?
dit zegt helaas alles. via
goede vergelijking. en jaap, ben je vandaag al opgepakt vanwege die kritiek?
was het uitvak al bijna leeg?
je verwacht het niet, ajax wordt in de cruciale fase van de comp. geholpen door de arbitrage. wat een farce!
maakt zichzelf weer eens onsterfelijk belachelijk...#erdogan
peter heeft nog nooit luckytv gezien...
heel veel succes vanavond!
wat een goal van
wat een van om voor wedstrijd te kiezen die vooraf al gespeeld was. gevalletje teveel fan ipv sportjournalisten.
broer mariah carey mijn zus is echt een harteloze heks
van harte!
niet mee eens, bisping ronde 1, 2 en 4, silva 3 en 5. wel geweldig om zulke topsporters aan het werk te zien, wie er ook wint.
was geweldig! en terecht gewonnen. dank aan voor het uitzenden. volgende week weer?
bedenkelijk is een understatement. zo waardeloos invallen in de klassieker is onbegrijpelijk.