vooral als swift met 11 man achterin blijft hangen. wordt een lange avond ben ik bang.
laten we hopen dat deze bankspelers dusdanig gemotiveerd zijn om er gehakt van te maken.
laten we het hopen !
shaktar voetbalde prima tegen city en napoli, als ze dat volhouden hebben we geen kans.
met het publiek erachter weet je het niet volgens advocaat hahah
jazeker spelen ze daar in de arena toch nog beetje europees 😜
nieuwe blog online! de nieuwe verslaving. obstaclerunning! valt hier te lezen 👉
haha ja knap hè! nee inderdaad maar hij is wel een stuk jonger, nog genoeg tijd om bij te slapen dus 😼
hij slaapt nog maar ik denk dat hij het daar wel mee eens is haha!😼
iedere dag blij mee, dat het ooit zover gekomen is...
kijk dit is doerak, die slaapt ook hele dagen. terwijl die voor nog paar dagen kitten is. 😻…
dankjewel ! was het maar zo makkelijk als het typen van een blog haha!
dan is slapen inderdaad wel het makkelijkst en meest fijne
sneu... moet je dan ook minder kip eten ? misschien moet je wat vaker met speelgoed spelen haha dan krijg je ook meer beweging.
och is het weer zo ver? waarom zeurt ze?
hahah ja groot gelijk! slapen is de beste tijdverdrijf die er is hè? dan hoef je ook niet zolang te wachten op je kip.
verbranden en goed blijven eten, je leest het in mijn nieuwe blog 👉
zoveelste bewijs om te stoppen met iphone/apple.
ja zeg dat wel! was een hele mooie dag haha
het zit je nog goed dwars, was zaterdag haha
llinks de foto van mudmasters vorig jaar, rechts van dit jaar. wat een jaar trainen bij wel niet kan do…
nieuwe blog staat online ! 💪👉
mensen moeten niet zo zeiken over die beste man, heeft veel punten voor ons gepakt.
ik ben er zo blij mee haha!
hartstikke bedankt voor jou tijd! al jaren vlieg ik feyenoord achterna, en thuis lukt het mij eindelijk een f…
ja mee eens !
moeilijk hij verdient een kans sowieso, maar niet ten koste van een basis plaats van el ahmadi, vilhe…
het volhouden van een gezonde levensstyle, het moeilijkste van alles. de blog staat erop 👉…
domweg vergeten haha!
nieuw blog online, 7 dagen in de week trainen
nieuwe blog online, afvallen en toch kunnen koken op professioneel niveau
nog lang niet waar ik wil zijn haha !
vanaf heden ook begonnen met mijn eigen blog over het afvallen en het hele verhaal daarvan tot nu. 👉…
we denken op sommige momenten nog steeds dat het is haha!
heerlijk ontbeten vanochtend 💪 🍓
gecondoleerd en sterkte !
voor puur fietsen zou ik lekker schier doen, lekker dichtbij nog en de auto mag geloof ik niet eens mee.
zeker ! heerlijk nagenieten dit haha
nieuw vak en een nieuw seizoen! lets gooo! 🔴⚪️💪
nee eens ! al heb je liever jones of vermeer, sta achter de gene die in het doel staat. bilal uitflu…
tot nu toe erg goed !
kat in de zak maar dan op de kitten manier 😽#kitten
hetzelfde haha! zou het mooi voor die jonge vinden maargoed, denk dat hij niet de voorkeur…
had stiekem de hoop dat dat kwam door bilal haha !
en haps niet te vergeten ! zeer sterk vandaag.
berghuis voor bilal, en qua keeper heb ik zelf voorkeur naar jones. ging prima verder, boetius ook pr…
niks te klagen eerlijk gezegd, team stond sterk alleen bilal viel mij zwaar tegen.. en vermeer had zijn momentjes.
je hebt hem nodig al is het maar voor de ervaring 👍we hebben genoeg@jonkies dit seizoen en h…
laatste kracht meting
liggend je buikspieren doen rond 7.30 is zo slecht nog niet 💪@basicfitnl
elke week uit en thuis vanuit harkema
10 miljoen net voorbij zien komen. 3,5 voor af juste, en 6 voor haps of het waar is, is dan vraag 2
rivaliteit een sprake van nu, stay strong !💪
je hebt je personeel toch? haha
ohh dan zul je wel moeten delen met ben voor hem ook al aan het koken.
het zou niet uit moeten maken wie. zal altijd een discussie blijven denk ik. denk dat kuyt wel degelijk e…
snapte sws al niet waarom kuyt er niet vanaf begin al in zat. hele andere wedstrijd, hiervoor is kuyt toch gehaald...
allemaal goed haha !
feyenoord supporter te worden? je wordt het niet. je bent het ga maar gauw naar 020.
gaan we doen haha !
daarbij is de kuip zowat alleen al bezet door seizoenkaart houders, dus reken je kans maar…
wat dacht je van nooit? seizoenkaarthouders en uitkaarthouders hebben veel meer recht op vo…
moet goed komen! goed bezig tegen einde van competitie. succes !
ik help het je hopen
helaas ... schade beperken dan maar
1e keer sinds 2005/6 dat ik het gevoel heb dat je hier kan winnen.
lekker dan gaat niet best zo...
wel een ene de ligt, maar geen jan arie? al ben ik opzich blij genoeg dat de feyenoorders thuis blijvend geen blessures.
heel zielig zelfs al is die voor de andere club, wisselen op zon moment doe je niet, had hem nooit een basis plek mogen geven.
deze man, blind doet zijn naam echt eer aan 😩
zeg dat wel !
vandaag maar eens genieten van een wedstrijdje dichtbij huis en zo goed als geen combi. zolang de 3 punten maar wel naar zuid gaan 💪
mijn speler van de week bij voetbal inside is nicolai jørgensen via
inderdaad maargoed hij weet net zo goed dat er via beelden alles teruggehaald wordt. zorg dat je dan niet in zon positie komt.
gewoon dom van vilhena..had beter moeten weten. zeker nu. of het nou 4 wedstrijden zijn of 2, de actie alleen al slaat nergens op
mijn speler van de week bij voetbal inside is jens toornstra via
hellemaal mee eens👌
mijn speler van de week bij voetbal inside is jens toornstra via
jahoor dat was alles behalve overtreding, doorgebroken speler en rode kaart. een kwade jorgenson, dit hele seizoen nog niet gezien
dat stomme gezeik over kuyt van de media... lekker onrust stoken.
heerlijke 3 verdiende punten! weer een stapje dichterbij 💪🔴⚪️
het is een mooi seizoen dit jaar! ben benieuwd wie het dit seizoen is.
al aan jochem gedacht ?
ijskoud en toch sfeer brengen kan alleen met het legioen.
leuk! das om de hoek
klinkt goed allemaal !
jaa wij hebben beide een kaart ! een van de gelukkige die wel mochten ! hotel vlakbij alle plaatsen waar moeten zijn.
jazeker haha !
we zijn er al
enig idee of er de avond voor de wedstrijd nog een openbare training is ?
dat mensen die paginas nog volgen, afschuwelijk...
van odessa naar deventer, wij zijn er bij. legioen on tour 🔴⚪️💪
we gaan het zien haha !
alles geboekt en gedaan ponden zelfs al binnen. ik een kaart al sinds woensdag dit is het enigste nog...
wij dus wel nu afwachten tot maandag
wel al betaald ?
groter bewijs dan betalen is er niet lijkt mij..
wel betaald geen bevestiging ... dus geen idee wat i denken moet ..
wel betaald geen bevestiging ?
vreemd weer wou net geld omruilen. kreeg advies het niet te doen omdat je daar met euros kan betalen.
klopt het dat je in odessa met euros betalen ?
wordt
tis en blijft een goeie keeper ... feit dat jones toe worst gezongen en vermeer niet zegt genoeg
hebben supporters die afreizen naar odessa geen visum nodig?
dan te bedenken dat de buscombi deventer letterlijk 5/10 minuten rijden naar is naar stadion 😂
dus eenmaal betaald verzekerd van een dag odessa ?
en hoeveel daarvan heeft de fsv tot beschikking voor die reis?
dat zeker ! enig idee hoeveel plaatsen er zijn?
prima geregelde reis naar odessa. hoe zit het met eventueel vervoer naar het stadion vanaf de stad? vrij vervoer?
wie verteld die man dat hij zich moet laten opnemen? 😂
dus geen plek voor een vol uitvak... eigen supporters dan? plek zat zeker. gaat weer hellemaal nergens over verdomde combis
zit amper volk va wat ik heb gelezen.
om geld op zij te zetten ben ik het mee eens. maar vrij krijgen is niet voor iedereen even makkelijk ..
er zullen er wss ook genoeg zijn die geen vrij van werk krijgen, of geen geld hebben/liever manchester gaan.
ieder zijn eigen mening, tis wel merkwaardig dat je hem vergelijkt met kuyt. kuyt is aan het einde van zijn loopbaan.
jij wil zeggen dat zijn broer bij ajax wel kan voetballen ? 😂
daarom hellemaal mee eens. dit ben je niet voor.
makkelijke zondebok. wees blij dat we überhaupt nog heen kunnen door dit
wat dacht je van trein 2 ?
keer iets anders dan geld munten en bier. prima actie 👌
aub niet .... zo walgelijk dit haha
daar hou je toch weer diamond en gold eerst, dan heb je al dikke 1000 minder. moet vast een wereld verschil maken ... not
waar is nou voor een simpele berichtgeving?
pfff ja ... je zult zien extra kaarten in de verkoop ofzo
rest mij 1 vraag, hoe willen zij op losse kaarten komen? als alles uitverkocht is door de passepartout.
het slaat ook nergens op ze hebben groot gelijk.
zie het woensdag nog wel gebeuren, alles moet ook nog verstuurd worden denk ik.
held ! 😁 we zullen het zien de komende tijd. afwachten
en hier voor rij je elk weekend rond de 5/6 uren... de tyfes serieus 😑
2/3x gereserveerd voor 20minuten... niet betaald zover kwam ik niet.
denk dat ze alles te niet gaan verklaren
voor gold begon psv uit vandaag ook 9.00 dat zal het vast zijn! niet ? niemand kan overigens überhaupt kaarten kopen.
nu niet voor iedereen?! gewoon niemand ....
wat een drama kom niet eens meer op feyenoord site ... en nu?
wou nog ff checken voor morgen... begint het nou al ? 😩
we hebben het sowieso gedaan wat er ook gebeurd tenzij het goed gaat, dan heeft feyenoord het gedaan.
pfff niet best je hebt zoveel mensen op losse kaarten. maakt de kans op ongeregeldheden alleen maar groter...
wat is reden volgens feyenoord om het niet te doen ?
helaas is dat nu wel erg duidelijk
ik had de hoop, na het eerste drama. dat ze er voor het wk wel klaar voor zouden zijn. maar goed blijkbaar nog lang niet.
lekker vertrouwen tanken voor zweden 😂 man wat ben ik blij dat zlatan geen interlands meer speelt.
wou net zeggen... zijn ze daar anders gewend dan ?
als het mee zit nog een dagje liverpool erbij
en wss nog steeds geen spijt dat ze koeman toen der tijd niet hebben gekozen.
leuk engeland is altijd goed !
we vliegen de 21e vanaf hamburg en komen 25e weer terug.
ja klopt hebben vanavond net geboekt haha
welke uitkaart heb je ?
blokkeren
die stewards stonden de mensen te blokeren die van y1 naar j wouden... om over een bedankje maar te zwijgen.
wat dacht je van de complete groene zijde ? mensen die van y naar j wouden om te helpen maar tegen werden gehouden.
aanstaande zondag
het leven van eigen supporters verneuken.
geen dank 👍 ben er zelf bij maar las het van de week dat sbs dit doet
sbs 6
gaat weer nergens over. waren toch goeie bronnen die het hadden gemeld dat ze er dichtbij zaten.
ahh balen hahah dacht kan wel omdat kuyt regelmatig op 10 speelt 😁 ik stuur zo wel een andere dan.
tsja .. inderdaad spoort niet.
schijnt een bom te zijn gevonden die uit voorzorg tot ontploffing is gemaakt. ze zijn gek die mensen die dit doen...
lees van alles over aanslagen daar...
als het door gaat
je kan het er altijd op wagen natuurlijk maar bij mijn weten mag het officieel niet.
kaarten zijn njet overdraagbaar
nee ze zijn sportief gedegradeerd. einde discussie lijkt me...
tis ook maar net waar je staat, vooraan wordt continu gezongen. achteraan kijken ze je raar aan...
ja tis ongelooflijk ... flink balen.
hahah nou niet door iedereen hoor... we doen ons best on iedereen mee te krijgen daar.
geen dank hoor ! graag gedaan ! 😁
wat een drama ...
uit friesland richting kerkrade dik 3 uur rijden, met de combi fantastisch! mag er om denken dat ik op tijd de kroeg uit ga
kwa wedstrijden is het dik prima 😁 wat er buiten gebeurd ... lijkt wel een oorlogs gebied.
pff lekker dan ... en dan ook nog maar 4500 kaarten ? dus er zal bijna de helft al verkocht zijn voor diamond en gold dus?
met de johan cruijf schaal zelfde verhaal als de beker finale? eerst gold en diamond weer, dan een grote loterij ?
inderdaad! een goeie voorbereiding en het team bij elkaar houden is wel een must dit komende seizoen
allemaal geruchten, moet het nog maar zien denk dat we dezelfde basis houden
ja gewoon bagger 😭
helaas laat mijn werk het niet toe... was anders al lang onderweg geweest haha 😁
voetballoos/feyenoordloos weekend... marteling van heb ik jou daar
heb 5 minuten mee gekeken, onvoorstelbaar wat een gezeik. dat hier zolang over gedaan moet worden.
ja indd zelfde verhaal
prima spits, alleen zijn houding staat me niet aan achterbaks gedrag.
je hebt robertha nog. tis achabar gegund maar hier is geen plek meer voor hem helaas. had hem graag eens op 10 gezien
denk dat hij wel wat langer dan 1 minuut stil is geweest 😂
helemaal niets in adam
hahah nee petje scoren, heb aan genoeg sfeeracties mee geholpen. dat jatten is niet voor mij bestemd 😂
staan jullie morgen weer op varkenoord ?
top ! mooi gebaar
slechte generale is een goeie officiële toch hou mijn hart vast voor zondag
heey johan! heb jij een sk voor feyenoord ?
een keer ?! hahahaha toch nog gelachen vandaag!
ja klopt hellemaal, gewoon dom van vardy
ja alleen is geel wel wat overdreven haha
alleen een schrikbarend aantal 😂
feyenoord is 1 van de weinige, die alleen sk houders een poging tot uitkaart geeft.
ja idd, nog even en je kan dag van nationale rauw aan tonen...
het houd een keer op dat is mijn mening... hoeveel respect ik ook voor die man heb.
om vervolgens verplicht te gaan zeker ?😂
alleen ado gemist dit seizoen, dus zal wel goed komen dan haha! thanx 👍
sk verlengd, kon niks invullen over mijn uitkaart... wordt die automatisch mee verlengd?
lijkt me duidelijk welke te doen haha! al is het maar voor de herinnering van die ene avond wedstrijd.
haha lekker bezig 😏😉 ! ik zie het kun je trots op zijn !
lekker dan sport zelf ook veel heb een stront hekel aan blessures haha 😂 doe goed dan, om zo door te zetten 💪
heerlijk ! sporten is ook gewoon fijn haha ! 😁
hahah heerlijke mentaliteit
balen das gewoon zwaar klote. die zelf survival wedstrijden, stromloop enz. vroeger ook gevoetbald maar niet te doen met werk
hahah ja 😂 al is dames voetbal altijd leuk om te kijken 😏
hahah ja dat hele ek ... enigste waar ik blij me ben is dat we nederland niet zien. moet we niet aan denken blind op ek😂
hahah groot gelijk 😂😂
heerenveen beschouw ik als 020 precies zelfde mentaliteit haha! dus van daar snap ik dat stukje antivries uit lwd wel
ben een geboren en getogen fries, maar heb een schijt hekel aan de friezen die zich niet kunnen aanpassen...
ja maar zodra je begint over eventueel niet gaan... zeggen ze allemaal dat je moet gaan haha
das nog te doen, beter dat dan opgelicht te worden door je mede supporters.
nee, voor de rest geen idee, ken geen mensen die op 2e ring zitten p
5 van y2, 2 van s, 3 van x. verder niks gezien...
zag ze net voor 500€ online staan, echt hellemaal gestoord. lekkere medesupporter ben je dan.
homos lopen hand in hand... ook zo vaak gehoord haha ! kan er alleen maar om lachen p
of in fast forward x10 .... neem een voorbeeld aan engelse supporters, met de passie doe daar gezongen word liverpool bijv.
1 vak stampens vol, de rest van stadion half leeg. lekkere support voor de thuis club.
aanwezig d
tja... noem het geluk of verdiend haha! p al blijft het gewoon klote om met een loterij te komen
ach bekijk het maar zo, compleet andere loterij dan je gewend vent waarschijnlijk 😅
geen 73 punten dus ?
cmon boys! tijd om te revancheren! een ding is zeker feyenoord wint de beker!
top ! thanks
mja file... ben iets later enig idee of dat een probleem is ?
bedoel zometeen met helpen
enig idee tot hoelaat je naar binnen mag ? last van file
gewoon je fatsoen houden, en rustig blijven. laat je niet op naaien.
ja inderdaad, rome dejavu.
goed uitkijken maar, zal wel weer voor minste geringste een sv krijgen.
hiermee lok je het juist uit, misschien precies wat ze willen daar.
terroristische aanslag gepland ?@frfc1908 😂😂 wel geteld 17 busjes, maar kreeg ze er niet allemaal op.
ja inderdaad, dat moet sowieso toch wel gaan lukken. tis wel weer tijd voor een europees tripje
jaa klopt haha! had er nog nooit echt zo over na gedacht uitwedstrijden zijn altijd losse kaarten, zo tikt het wel aan.
ja, daar heb je gelijk in. misschien toch maar es naar die printer gaan kijken. 😅
jaaa ach, opgelost zo scheelt een hoop irritaties haha 👍
ja zolang het goed werkt is het heel fijn. 😁 alleen gaat het bij mij al mis met goed en werkt...
haha ben gewoon te lui 😂 altijd gedonder met mijn printer. of ik vergeet te printen... enz.
beter dan haha
een van de reden dat ik het laat sturen. kost me 3 euro meer maja, geen geklooi zoals dit 😁
geen idee, vond het ook vaag. maar goed, echt raar van opkijken doe je ook niet meer tegenwoordig he 😂
ik had dit nog nooit mee gemaakt, alle combis zijn kut dat sws. maar dit sloeg echt alles...
laten we het maar een kut dag houden, dat er nog velen vaan volgen dit seizoen
ging nergens over... alsof je bij elkaar instappen het aantal autos/supporters verminderd...
dan nog kan feyenoord dat voor de eigen supporters toch beter regelen of zie ik dat heel verkeerd ? 😅
de rellen in nancy en rome en nog zijn er mensen die pro feyenoord steunen ? ze zijn er zeker niet bij geweest in rome. bah!
ja mee eens, maar ik zie het gebeuren...
dat word lopen 😜
zeker in combinatie met zijn profiel foto
1 wedstrijd zonder publiek in de beke... ohnee dat kan niet, naja dan maar geen straf toch?
hahah ja dat is waar. dan heb je aan een goede. komt toch alleen maar onzin uit.
niet zo druk maken, het is maar... zijn ergere dingen op de wereld.
ah joh de nul houden is genoeg, en met een een beetje mazzel prik je er eentje in in de slotminuten
beker winnen en prima plan !
behalve gudde/bestuur, zolang de portemonnee vol stroomt zijn ze daar blij.
ja haha! dat voorop gesteld.
daarom en gelijk poulfase. wordt wel weer tijd voor feest.
idd eerst maar eens halen, al mag dit eigenlijk niet fout gaan. 2x thuis spelen maar goed we kennen feyenoord.
dat is niet zo veel nee
hoe zit het met een eventuele finale ? 50/50? meer dan de helft is sk houder.
3 en een half uur naar huis moeten rijden afgelopen nacht, was lekker rustig op de zou het een voorbode zijn?
heerlijk die awaydays van 😁 13.30 vertrokken, nu net thuis. tijd voor bed...
feyenoord muziek in de bus, weer terug richting born. heerlijk dit 😁🔴⚪️
zo nog 5 uur richting huis, maar het was het waard !
het heeft dan even geduurd5 en half uur maar we zijn er.
8 uren reizen in totaal, maar aanwezig 🔴⚪️
scheer aub niet iedereen over 1 kam. te triest voor woorden dat zoiets al gebeurd is.
het is lekker makkelijk om supporters nu de schuld te geven. er gaat daar genoeg fout bij hen zelf...
misschien ivm wedstrijd
niet gelezen, excuses dan eerste in mijn timeline was een retweet via telegraaf.
media, dat de telegraaf hier ook als eerste mee komt zegt genoeg. eerst zien dan geloven...
ja inderdaad, gelukkig worden we allemaal weer over 1 kam geschoren.
geloof er niks van dat dat feyenoorders zijn 😕
ook goedemorgen op deze maandag....
tis al gebeurd... juist daar waar ze het legioen nodig zijn, zijn er een paar die het verneuken.
laat het aub niet waar zijn de echte supporters zullen altijd achter jullie staan. vergeet dat niet.
laat het aub niet waar zijn de echte supporters zullen altijd achter jullie staan. vergeet dat niet.
tijd om wakker te worden jullie kunnen het wel! woensdag weer volledige steun van ons, vreet het gras op daar!
hetzelfde geld voor mensen met het idee om je vak leeg te laten. achterlijke supporters ...
lijkt goed te werken dat nieuwe systeem alleen maar blije silvercard houders gehoord vanochtend haha!
zowel uit en thuis aanwezig vanuit friesland. ik zal mijn sk nooit opzeggen !
nee zeker niet! uitloop training he, gister was kut, ja indd gister was kut. hey heb je mijn nieuwe opel al gezien?
wees blij, ik word afgemaakt straks hier in friesland 😕
ze mogen er hier wel wat ontslaan. als ze daarna zelf ook maar oprotten
hahaha ja en het dwaasgebouw ook begin mezelf nu toch echt af te vragen waarom ik al een kaart heb gekocht voor roda uit
tot nu toe prima maar heb ook gold, wel chill 20 minuten reservering.
iemand met een positief puntje van vandaag ?
kaartje roda uit voor de beker is binnen, heerlijk dat nieuwe systeem met je gereserveerde kaart!
gaan hem missen, iemand met zijn mentaliteit. held was het 💪👍
meende dat twente niet in de positie staat om te eisen?
waarom een nieuwe keeper? hebben in de jeugd toch talent genoeg ?
feyenoorders he, abnormale mensen haha
als het uitverkocht raakt ja, zou snappen dat er genoeg supporters klaar mee zijn voor nu.
zoooooo fucking veel zin in
volgende week start voor de eerste keer de kaartverkoop voor een uitwedstrijd in onze nieuwe online ticketshop. roda uit beker?
wat een heerlijke pot is dit ! liverpool arsenal.
tijd voor klote winterstop... voelt zowat als zomervakantie man
van harte !
21 het aantal voorzetten.. nou nog het aantal dat je niet wist te scoren daaruit.
gaat me niet eens om kampioenschap.. de instelling is zo slecht.... continu elke wedstrijd full support, dan geef je dit terug