revalideren van mn ziekte
als jij daar met een nep account er grappig mee probeert te doen moet je niet verbaasd opkijken als ik daar wat van zeg.
de enige met wie ik ruzie gezocht hebt is die dikke omdat hij mn zus lastig valt, legitieme reden lijkt me.
ik zei al je gaat dit kk hard ontkennen, ga iemand anders lastig vallen man.
gaat sws gebeuren, feyenoord weer op 1 &lt3 en utrecht op 2
ik ben benieuwd naar je auditie, hoorde goeie verhaaltjes!
wel grappig dat een nep account van die dikke gemaakt heeft en dit waarschijnlijk kk hard gaat ontkennen
bewaar maar voor de battle paultje ik ben zelf ook wel benieuwd.
laten we het erop houden dat destijds de ovj een ander plan had met mijn carriere.
ik dacht dat mn boy voorspelbaar was maar die tazer kan er ook wat van zeg man man man
maar jij weet net als ik dat ik destijds zelf gestopt bent dus je laatste argument is al een fabeltje,…
jij hebt van een belg verloren.
dit is een vieze albino rat
man man man en dat was dan de nummer 7 van afgelopen seizoen
orgineel man!
neemt allemaal niet weg dat die dikke een pussy is
ik trashtalk met paultje, dat vind ik dope gek. paultje is zo trash ik laat hem ophalen door de roteb.
hahaha, ik kan goed neuken vraag je zusje.
hahaha ik ben echt de enige in mn familie die dat niet kan 😂😂
geef maar ik lijk net een manage omdat ik altijd op mn ponys ben.
want als ik flip, zet ik haar uit alsof ik kanker heb
maar jij krijgt sws pakkie van mij paultje,
en nog is zo obvious niet eens echt popjorn
ben je nou echt zo zielig dat je nepaccounts gaat maken? kom battlen pikkie
aiky houdt van mij alleen door mn alcoholisme wat moet ik dan?
wij zeiden chopper gaat nooit winnen, ik kom daar op terug chopper word champ.
julide gedraag je ik moet kotsen hiervan
fijn he dat je niet kan choken op twitter
als je denkt dat dat de enige angle is zou ik even in je kamertje choken en heel goed nadenken paultje
als je denkt dat dat de en
wil dat zn bloed eigen zusje dood ongelukkig word wat voor broer ben je dan
door dr liefde van dr leven zn drugsgebruik te exposen, lekkere broer ben jij
geef dan kanker rat ik zie t ook zonder mention, maak je zusje maar kapot
ik leg 100 om die rechtste homoget it!? pakkie te geven als jij hem al bodied is dat easy mode.
zeg je eerlijk blijf stuk gaan om op twitter die man blijft savage
bruh ik wil je best de bergen coke op mn spiegel laten zien maar dan heb ik t weer gedaan
volgends je comments wel g 😜
omdat al je comments je voor wausie uitmaken, moet je gewoon meer drugs gebruiken joh werkt t beste
kan ik ff 25 van je lenen voor een halfie?
na 36 stemmen is 75 procent ja. ik ben down maar diebildragende brabo is pussy.
nee ik dacht ga oefenen tegen een zielig persoon uit je regio maar hij durft niet
leuk al die excuses, koop maar een auto voor mn zus, dan kunnen we verder praten anders wil ik die battle.
ik voel me net van buitenlandse afkomt hoe graag ik wil aanpakken
ja je bent een kk pussy wel familieleden lastig vallen maar als puntje bij paaltje komt duiken, triest mannetje ben je.
ik verplaats mn vakantie volgend event voor een battle met
moet ik battlen voor een barkie?
kom battlen bij dan 👀
mn zus zei hij ziet eruit als een loser! ik ga nog steeds stuk 😂
tazer is tenminste echt in dr huis geweest en gaat dr niet stiekem toevoegen op facebook
haha mn zus vind een loser en ik kan dr geen ongelijk geven.
nee je haalt me door de war met je zusje.
echt he ik beschadig ze liever zelf!
onderweg naar agga
dit zou ik inderdaad doen 😂
hebben we ter ere aan jou gedaan 😜
dat klopt, ik zit heel de dag bier te drinken op mn veranda terwijl ik leun op mn shotgun.
het was voornamelijk 100.000 vriendinnetjes van hem die los gingen, hij heeft me geblockt
moet je een keer een grapje over afrika tegen el karbise maken
heb mn pilletjes nog niet genomen
ik had gister dus ff voor de grap een bettoltje met gedaan
man man man, volgende keer als je me bijna omver rijdt met je scootmobiel klaag ik je aan!
chris en ik hebben ook onze bars van onze telefoon opgelezen om jou te eren, en omdat we alles in 3 dagen geschreven hadden.
moeten en ik onze battle online gooien?
ik had onze rotterdamse eer hoog te houden bro! kampioen willen we graag blijven hier! 😎
en ik hebben gebattled heb m gewonnen volgens ons💪😎 online of niet?
wu tang luisteren via vevo is echt als neuken met condoom, haalt toch een beetje de plezier eraf.
hangen met en ff een battletje tegen hem eruitgooien ff in 3 dagen geschreven 😎💪
hoogtepunt van mijn carriere
ik was de uitblinker als linkerspits van de f5 in mijn tijd 😎
je kan gewoon drugs gebruiken tijdens je werk!
ik heb trek in kfc nu.
is dat het nieuwe 24/7?
technisch gezien had hij van de jury gewonnen alleen werd inne…
schoten zijn gevuurd 👀👀
ik vraag gewoon 1000 euro joh heb ik geleerd van
nja oke das meer eisen en niet vragen. nvm.
ja man hoe weet je dat?
nee ik ben te dun om goed te rollen, is overigens wel een goede bal!
door the walking dead heb ik echt weer zin om 7daystodie te spelen man!
hahaha je moet bij de politie gaan werken, je bent goed in etnisch profileren!
damn eurgh heeft er echt een tering zooi van gemaakt dan.
waarom de fuck doet mn geluid het niet meer?
ik heb wel andere opleidingen afgemaakt alleen mn vwo niet haha
ik heb t ook niet afgemaakt hoor ik was meer geintresseerd in drugs, daa…
eens met tees
ja dat weet ik, ik heb zelf atheneum gedaan 😂 maar jij doet toch ook atheneum?
was een grappie joey niet zo beledigd gelijk, ga dinobabies kijken op youtube!
pfff vwo, doe je niet eens gymnasium dom ben jij zeg!
ik was dus verbrand vorige week en nu ben ik aan het vervellen
komt omdat ze geen educatieve lessen van de dinobabies gehad hebben!
je moet ook niet denken dat je alles weet kevin
ben je al tegengekomen?
ik zie nu dat schep schep schep shirt van voorbij komen, hahaha keihard man!
de nieuwe generatie is verpest
snap je! dinobabies zijn goat
klopt idd, hij kent waarschijnlijk de dino babies ook niet en die zijn te gek!
ik vind odb echt een van de meest underrated rappers ever
ahh ik haat dat zo als mensen dat doen hahaha
mijn ex ook maar die krijgt ze niet!
van de week ook maar ff t nieuwe feyenoord shirt halen! 🔴⚪️
brokko 😂😂
kom maar jerry, je bent welkom!
het is de illuminatie!!!
dat zou echt keihard zijn! veel mensen willen het, make it happen ex!
mooi filmpje man
echt he!!
willen ze ruilen voor woudoberg
harbourclub is goeie man!
dus als er een zombie apocalypse komt is hij verantwoordelijk?
wat kwam eerder? de kip of het ei?
rot dan ook maar op!
lijkt me een goeie optie hoor zn naam wat vaker voorbij komen laatste dagen! ze zijn nu met haps en st. juste bezig las ik!
bars!!! 😱🔥
faat maakt zelfs begrafenissen gezellig 💪
gelukkig hebben we de screenshots nog!
😂😂😂
haha ik had precies t zelfde
ben echt benieuwd wat er gaat gebeuren nu
werd er inneens mee overladen op mn tl, ik vind zijn die tweet naar de fans schandalig man kan echt niet.
en deze u get the point.
ik ga ook helemaal stuk maar die esporter word ontslagen voor tweets uit 2012 dan zouden ze dat hier ook moeten doen
en bijvoorbeeld deze
en dat dit dan wel moet kunnen
deze oa check ff t gaat om de hypocrisie dat die esporter ontslagen is.
kan je ook uitleggen waarom nog niet ontslagen is?
gaat lekker daar in eindhoven 😂😂😂
ja de zak waar het in zit.
mag ik ook wat van die drugs?
word brenet nu ook ontslagen? zou ook maar even een kijkje nemen naar zijn tweets.
porto helaas nog nooit geweest! vond lissabon wel flex waar ga je nog meer heen?
hahahaha portugal is wel echt een fantastisch land
nou dat denk ik niet.
jaaaa jeevz je bent in portugal, oh wacht dit is tazer
en hoe zit het met half britten half nederlanders dan? slaat weer helemaal nergens op markie
schiet er dan eens mee op martin!
hahahaha genieten
ik hoorde busta was fire daar, jammer dat ik er niet bij kon zijn!
is soort van charles manson is te gevaarlijk dus nodigen we ted bundy uit 😂😂 ik ga nog steeds stuk
haha bang dat je jeugd aan de drugs gaat door je broer dus dan boek je mr polska als vervanger ik ga stuk 😂😂
ik was echt net in slaap gevallen toen je dit stuurde man
je kan niet eens een pen vast houden met die dikke klauwen van je
wtf zeggen mensen dit serieus tegen je? damn.
hahahaha kom erachter dat mensen in pussy zijn voor die battle joh man man man zeg dat gewoon ipv smoejes.
nee rat, ik krijg er nog 3 van je! ik tel alles gewoon erbij op als het online komt hahaha
ik ben niet in roffa bro! volgende week doen we ff een biertje!
hahaha beste smoes in deze situatie
waarom heb je 2 blije negers met dollars als profiel foto?
ik heb deze match al voor december vorig jaar afgesproken en nu gaatie eindelijk komen hahaha
tegen een vette tegenstander nee niet hij is dik dus ik snap dat jullie dat denken 😎😎
heb nu wel weer zin om die ring in te stappen, augustus event ben ik op vakantie maar t event erna zien jullie me weer terug 😎
ben aan walking dead begonnen ik snap de verslaving wel
heb een paar enge barz liggen voor die favella boy 😎😎
hahaha ja ik dacht ff flauw doen 😂😂
supermarkt moet toch ook omzet draaien 😂
ik had vannacht gedroomd dat ik mn moeders auto in de prak gereden had hahaha
haha dat kan ik begrijpen.
rustig aan binkies
wat is een prelec??
maar ik ben de beste!!!
haha dat zou wel overkill zijn, is het trouwens niets voor jou? jou style zou er wel goed passen denk ik.
zou dope zijn maar wie zou dat niveau aankunnen denk je?
hahaha geboren en getogen rotterdammer pik!
ik ben beter!!!
damn ik krijg hier honger van 😂
ik vond een leuke foto van
hahaha breng mee naar mij g
zullen we anders is ff lekker normaal doen met zn allen?
wauw... dit is echt schandalig man man man
word tijd voor een nieuwe dan 😏😏
designated survivor is echt een goeie serie 👏👏
voetbal is echt bijzaak op dit soort momenten. ik hoop echt dat die jongen nog een normaal leven kan leiden!
neemt niet weg dat one piece de goat is.
ben er van geschrokken man! dit gun je niemand!
terwijl zonder hem niet eens voorbij de groepsfase gekomen waren!
ik hoor net dat nouri blijvend hersenletsel heeft overgehouden, vreselijk! heel veel sterkte naar hem en zn familie! 🙏🙏
we houden al heel de tijd een betoog dat chris terug moet komen haha!
hahahaha rat. team detox vs team woudo en zijn liefdadigheidsinitiatief het dan!
zijn pen/bar game is insane man!
kan iemand mij vertellen waarom larsson een alternatief voor berghuis zou zijn? larsson is een linksbuiten en berghuis een rechtsbuiten.
breng ook terug bij man!!
hij heeft stipvieuw
ik hoorde hij kan goed kleiduif schieten, dat kan bdax weer niet.
gefeliciteerd faat!! 😘
ah damn dat heb ik altijd al willen worden!
onze battle zal sws dit jaar nog plaatsvinden!
hahaha ja echt erg rond sinterklaas vorig jaar afgesproken 😂😂
haha wij gingen allebei 50 cent inzetten toch? maar ik kan sws niet event van eind augustus geloof ik
to go to shoppa of blijf ik lui en ik niet naar shoppa
vrije school werkt soort van met de oude klas systemen, de 6e klas is groep 8.
kan echt niet die zwarte piet in de achtergrond. racist!!!!!!!
hahaha lekker tegen jezelf praten xd
duitsland is aan man je mag daar gewoon met bier over straat lopen
ey martin wanneer komen er ff echte versterkingen naar feyenoord dan??
je bent een baas! ik ga zo ff mn telefoon erbij pakken!
ja mn telefoon is nu aan het opladen, mn oplader was kapot en niet mijn telefoon hahah…
nice! lekker gedaan fransy!!
ik ben gelukkig.
mn telefoon is kapot, is door???
moet echt een nieuwe videokaart voor mn laptop hebben, iemand enig idee waar ik videokaarten voor een goeie prijs kan halen??
vroeg me al af waar ik t gelaten had
en sturen mij alleen maar vuur de laatste dagen. zelf weer zin om de geupgrade studio in te duiken 💪💪
ben op me groen net al gore 😎
bedankt voor de mooie jaren en het kampioenschap, heel veel succes in monaco 💪
een andere verklaring kan ik niet vinden. ik heb medelijden met dr.
waarschijnlijk kent die vrouw zelf geen liefde en is ze door dr ouders verwaarloosd.
wiskunde c? in mijn tijd had je alleen a en b 😩 ik word echt oud
as weekend ff uitrusten in duitsland
natuur en scheikunde waren mn minst favoriete vakken op school 😂 toen t kon alle beta vakken laten vallen 😂
behalve als je f1 coureur bent natuurlijk
ik dacht ff je gaat weer zeggen dat je telefoon kapot is 😂
gaan we traditioneel zuidafrikaanse sporten doen? in dat geval zit er misschien nog een kern van waarheid in.
je moet hele hoge uithalen doen, autotune eroverheen en heel veel ad libs dan zit je wel goed!
en hebben de studio ff onder handen genomen 💪💪
die was echt ijskoud 😂
als het aan google lag wel 😂
afgelopen dagen waren zwaar maar we zijn er nog!
hij komt naar feyenoord hoorde ik, ruildeal voor nelom en bilal
ikke! ik vind het echt niets 😂
jaaaaa man damn!
hahaha grapje tis wel echt
omdat hij een dikke homo is
ik had t alleen over je reply. ik zeg wat iedereen denkt we geloven er geen kanker van.
je reactie is van 2 uur geleden?
klinkt nogal vrolijk voor iemand van wie zn opa op sterven ligt.
ik wil heel veel succes wensen bij as roma. bedankt voor de afgelopen jaren.
dat kan nog wel eens backfiren paultje! wacht jij maar! 🔥😎
dat zou je niet exposen man kk lijer
jij ben een rat, zon witte met van die rooie ogen
hahaha paultje tis gewoon zo
vind de afgunst van sommige mensen wel fucking zielig trouwens.
al met al zijn t wel allemaal terechte winnaars.
buiten dat allemaal om mensen die gewonnen hebben en in kwartfinales zitten, gefeliciteerd!
en fucking zonde dat waldo stopt man.
ey publiek, waarom moeten de toppers persee verliezen?
die ene met dat popjorn dik is
ik bedoel 2
dus we zien je terug?
op vraag 3 geef ik volmondig ja!
en is een nep aziaat ik at met stokjes en hij met vork man man man 😂
en ook nog ff een shout out naar man!
hahahaha nee zo werkt t niet mijn naam gebruiken betekend bier betalen dat is de regel
vraag mij nooit meer om gokadvies trouwens al mijn voorspellingen kunnen de prullenbak in
kom maar
en nog shout out naar ook man was gezellig!
was gekkenhuis man dope battles damnnn
ik krijg nog 3 bier van en 3 van 😏
zie je daar!
ik heb de afgelopen 2/3 dagen zoveel gezopen dat ik geen drank meer aan kan! 😂
ik voel me weer een beetje levend
net terug toch nog op tijd, ff paar uurtjes slapen en dan zie ik jullie zo bij
waar is dion mase gebleven man?
deze blijft fire
staat al lang op de planning maar binnenkort met de studio in 😎💪
ik wil terug maar cypress hill en mos def! nu ken ik de helft niet en toen ik ze ging chekken was t allemaal the same
niet eens een shout out naar je leermeester woudo, ben teleurgesteld
hahaha t word alleen maar slechter
zeg je eerlijk ik vind een keiharde rapper man
wtf ik breng mn kinderen naar de bso als ik drugs ga halen
er komen slachtpartijen aan!
zo grappig dat mijn naam elk event meerdere keren gevallen is in battles terwijl ik niet meer battlede. maar de comeback komt eraan! 🔥😎
woudo vs malcolm x komt binnenkort
die eerste 101barz van green gang staat in mn top 3 beste 101barz ever 🔥🔥
dankzij en remc ben ik sinds dit jaar weer volop in de studio te vinden, er komen leuke dingen aan! 💪🙏
ik zeg je eerlijk door de tracks die mensen naar me sturen ben ik gemotiveerd om zelf mn game up te steppen!
ik heb t normaal niet zo met dat amsterdamse accent maar ik hoorde laatst een trackie van voorbij komen en die was echt fire
aan het rennen met mn tec
ziet er heel nice uit bro! 💪👊
ik ben haar buurt onveilig aan t maken.
maar wel gevaarlijk!!!!! 😁
ja schijnt een gevaarlijke gast te zijn
ze dachten ook dat een rapper genaamd woudo 7 banken had beroofd las ik laatst, wie de fuck is dat nou weer!?!?!?
ik dacht dat ik alles al gezien had. zie ik inneens hitlers gezicht strelen in een filmpje 😂😂
ik ga echt al uren lang stuk erom inmiddels, tis ook echt naast mn oude middelbare school 😂😂
weetje wat ook zo mooi is aan rotterdam? dat je gewoon je pan bami naar beneden ken pleuren! 😂😂😂😂
klinkt nog steeds als de tweede kamer.
is er eindelijk een kabinetsformatie dan?
wat is er zondag dan? voetbal???
zo begon het bij mij ook de slechte kant op te gaan 😂😂
stuurde me vannacht dit filmpje ik ga echt al een half uur stuk
dat maakt toch niet uit? ik ben zwaar door wu tang geïnspireerd, 36 chambers kwam uit in mn geboortejaar 😂
en ook rennen voor de popo hoor ik regelmatig voorbij komen bij je
jawel vooral jij waldo! met je autotune in elke track!
ik kom ook wel een keer dineren bij je samen met hij houd van kip, en is niet eens zwart.
waar is mennis? breng lijpe!
op de coolsingel 😎
morgen bezichtiging van een huis! 😁
haha t lijken nu net pokémon 😂
hahaha ja snap t zelf ook niet echt 😂😂
ik ruil ze allemaal in voor odb!
ze pakken altijd de verkeerde helaas. wel fucked up dat ze allemaal zo jong gaan.
mm is gewoon de generatiekloof, ben zelf altijd wel meer van biggie geweest tho
was echt een fucking held voor mij
en jullie noemen me niet voor niets opa 😂😂
idd 2015 was fcking vet! maar de namen worden steeds minder ik ga dit jaar ook niet
mee eens!
hahahaha nee meer dan terecht voor speler die international, kampioen en nog een 4 jarig contract heeft!
deze blijft te geniaal 😂😂😂
dames en heren voor het eerst een zwarte tazer
feyenoord vraagt 20m voor karsdorp haha lekker bezig mvg!
ik moet zo naar de tandarts echt geen zin in