een heerlijk tussendoortje gemaakt met bastogne koekjes en peer 👨‍🍳🍐
het gaat weer lekker in alkmaar!
helaas een dramatische wedstrijd op mijn verjaardag 🎉maar de eerste drie punten zijn met moeite binnen! ⚽️
ik heb hem goed en laag kunnen zien en dacht eerst aan vuurwerk of een vuurpijl. super gaaf om mee te maken! ☄️💥…
een klein uurtje geleden toen man city ons nog een sprankje hoop gunde. wat een ploeg...
vraagje mag ik een gopro camera meenemen naar binnen vanavond?
een dikke vette rt!
schaam je kapot
ja joh anders ga je daar ff uitgebreid staan lachen mark rutte....
ok het gaat slecht bij maar hebben ze nu ook al het marketing geld van nodig om zich staande te houde…
erg goede column van vandaag!
schokkend eigenlijk om te lezen dat een meerderheid van de betaald voetbalclubs in nl op speelt 18/34.…
de eerste 90 minuten weer in de benen na elf maanden 😃⚽️
ga ik zeker doen!
de normale zondagen met aan zijn weer begonnen, lekker hoor! de dag eerst maar beginnen met een bakkie☕️ en
het heerlijk avondje is vroeg dit jaar!
mooi interview in het van met eén van de weinige voetballers die normaal b…
rt johan derksen dat riepen wij hier thuis ook al het hele toernooi.
sc heerenveen heeft het leuk gedaan deze transferzomer maar dit is wel erg sneu!
hahaha heerlijke parodie op het rare nieuwsbericht van de van vanochtend.
ik heb zojuist de mail ontvangen voor de kaartverkoop maar er staat een verkeerde naam + email in. klop…
niet te geloven. wat een triest nieuws!
top! bedankt voor jullie reacties.
hoi tom, heb jij toevallig online ook ergens een overzicht gezien van engelse clubs die in nl zijn vo…
wat een verschrikkelijke beelden om te zien. kom op
trots op mijn neefje reno en zijn maatjes!
slechte timing aad 😉 14.30 uur toch wel even voor de ontknoping?
ook alles op station in staat van paraatheid voor de reizende fans.
toen we nog vol vertrouwen waren... nu weer een lange treinreis terug naar het noorden.
onderweg naar de had beter extra treinen in kunnen zetten. de trein vanuit zwolle naar rotterdam zit b…
helemaal mee eens! geen vluchtelingen herdenken met laten we onze tradities mooi in stand houden.
ja joh, straatvoetbal lijkt mij ook veel bevorderlijker voor je knieën dan voetballen op gras....
leuk! voor het eerst een lezersbrief ingezonden en meteen brief van de dag in het van vandaag.
een heerlijke gezien!
toch maar de zon verlaten, naar binnen en de tv aan op man man veel te spannend dat radioverslag van
lekker in de tuin genieten van de zon en ouderwets met spanning naar de radio luisteren!
wow, ik heb genoten van de uitzending! wat ben jij een bevoorrecht persoon. ontzettend knap dat je…
een prachtig weekend in liverpool achter de rug met twee wedstrijden!
heerlijk! hoe spannend kan een nabeschouwing zijn.
fenomenaal!!!
gedaan.
top dankje. dan ga ik daar even kijken.
de link op jullie website doet het niet.
feyenoorders op dit moment na de late goal van egypte tegen marokko
ai ai die wat hadden het mooie halve finales kunnen zijn in de nu is alle spanning weg.
derksen en driessen hebben groot gelijk over de nieuwe opzet van het jeugdvoetbal.
net voor de tweede keer het eerste deel van gekeken. zometeen eindelijk het tweede deel op tv!
rt cruijff
net gekeken. ze bezoekt precies dezelfde dingen die ik ook heb bezocht,leuk!
onder de indruk van en ik had deze combinatie nooit verwacht maar wat is dit goed neergezet! is het alweer bijna zondag?
wat mis ik is het al bijna 31122017? wat een saaie zo...
heerlijk wat een voetballer die
goede dag gehad bij de sessies in de leuke workshops + ondersteuning.…
ik weet het wel zeker! top interview met een eerlijke in het
trots op mijn ouwe heer mooi artikel in het van gisteren.
super jongens, gefeliciteerd!!
leuk interview gelezen in over de enige nlse toptrainer in het buitenland op dit moment,
haha geniaal bedacht dit
op het juiste moment wakker geworden, spannend!
mooi dat in het ad nog aandacht besteed aan hopen op een terugkeer.
toch ook wel weer lekker hoor in het donker naar huis rijden uit je werk. kacheltje aan, radiootje aan.
man man man. wat een spanning het laatste kwartier. als je dit soort wedstrijden wint dan.....
thanks voor dit mooie boek!
ik weet het niet hoor, maar volgens mij speelt die rechtsback van de fransen bij monaco...
ik ben nu toch wel blij dat ik niet zo vaak op heb hoeven voetballen. schokkende documentaire van
met horten en stoten dat nieuwe ticketsysteem. dan weer geen vakken beschikbaar, dan weer wel...maar kaarten zijn binnen!
ik heb gisteren fifa 17 bij jullie besteld in de webshop. wordt deze dan op de dag van release geleverd? as donderdag?
yes!! bedankt voor het goed maken van mijn weekend.
de eerste drie punten van het weekend zijn binnen! op naar morgen en zondag!
anders wordt er even een 100% terechte goal afgekeurd....
geweldige avond gehad in de met jari thanks
net nog het mooie interview met steven gelezen in de van vorige week. ik kan me er helemaal in vinden!
goed nieuws op de zondagochtend! wordt de nieuwe assistent bondscoach.
leuk je tweets met updates over de nederlanders in engeland!
voor de verandering pas op een zaterdagavond voetballen. nu dus lekker op tv en via de radio en twitter het amateurvoetbal volgen
ga je lekker zitten voor de premier league op krijgt een tvstoring met haperend beeld...
tijdens het terugkijken van met verbazing aanhoren dat elia in de rust van gewoon zijn vrienden gaat zitten appen...
het was niet de beste en leukste wedstrijd maar erg blij om het rood/zwart weer te kunnen dragen ⚽️🔴⚫️
zijn de kaarten aan de kassa vlak voor de wedstrijd wel vrij aan te schaffen voor iedereen zonder seizoen/clubkaart?
yes het normale voetballeven gaat vanaf vandaag weer los!
hij maakt zijn rondes al door kos 🇬🇷😉
prachtig artikel van de over de overleden winfried witjes.
toch jammer zon prijsuitreiking op de tribunes. doe dat toch lekker op het veld...
fantastisch! wat een heerlijk begin van het weekend en wat een prachtige pot! well done wales! 👏⚽️
onvoorstelbaar wat een stunt.
dat zijn nogal wat spelers dus...
daar zullen de premier league clubs niet blij mee zijn. veel spelers kunnen zonder werkvergunning komen te zitten, o.a. 20 nlers
zie deze tweet over een vacature.
en dan te bedenken dat wij niet tweemaal niet konden winnen van tsjechië en turkije in de kwalificatie. wat een teams..
hoe heeft de het in zijn hoofd gehaald om zon fantastische pot onder werktijd in te plannen...
jan mulder heeft het bij de belgische tv over we zitten nog altijd op het goede spoor. sinds wanneer is jan een belg?
r.i.p. veel te jong...
hallo, staat het filmpje van de dacia transferdagen reis naar udinese al ergens online?
vandaag binnengekomen inclusief handtekeningen van arnold mühren en frans thijssen. bedankt
met even een wedstrijdje in de regio meepikken
mooi interview in de met arnold mühren en frans thijssen.
en de warmingup op een bijveldje. ik was hem een behoorlijk geflipt als trainer/speler... lekker sfeertje zo 3/3
en scharnegoutum moeten 20 minuten wachten omdat een finalewedstrijd van een jeugdtoernooi uitloopt. 2/3
waardeloos van om het beslissingsduel om de titel in 5a bij vv heerenveen te laten spelen 1/3
wat een race. wat een prestatie, 1e!! 🇳🇱
lekker begin zo!
wat leven we ook een zieke wereld...
toch wel zonde hoor. kan zon kleine club eindelijk eens kampioen worden en dan word je dat zonder zelf te spelen.
zijn er de komende dagen nog meer signeersessies?
eén ding geleerd nooit meer eerder naar bed gaan als het uitzichtloos lijkt of als je moe bent 😓
knappe overwinning op de engelsen gisteren en heb genoten van vincent janssen! onbevangen en erg sterk. 🇳🇱
gefeliciteerd!
pfff dat komt toch als een schok binnen. wat is dat snel gedaan. r.i.p. johan cruijff! 🙏
blij voor mijn oom! 👏🏻
yeah finale! zondag 24 april wordt bij deze vrij gehouden in de agenda 😎
super. hopelijk is het snel opgelost.
ik wilde het account rapporteren maar alleen jij kan dit doen. zie
gisteren een middag vrij dus even fotos gemaakt bij woudsend blokzijl.
lekker kansloos dit. je verwacht natuurlijk totaal niet dat het koud kan zijn in de winter..😂organiseer het dan niet
gisteren mijn prijs ontvangen van de quizmasters! bedankt mannen harry en 👍
in de kuip bij
haha. ik hoop het wel. eerste helft was traag en saai..
aan als levenslang feyenoorder verdient hij wel eens een prijs.
heerlijke goals gezien van nu languit voor liverpool arsenal!
onderweg naar faro airport 🇵🇹over een aantal uren weer richting nl.
eerste trainingsdag in portugal zit er op! 🇵🇹 ⚽️
spiegelgladde straten in woudsend!
fijn.. over deze weg moet ik vanmiddag nog naar huis...
ideaal twitter! tien jaar geleden stonden wij lang in de kou te wachten bij de bushalte om te kijken of hij wel of niet reed😜
blij dat weer begonnen is. wederom met verbazing gekeken!
ah vandaar. we vroegen ons al af wat het was. bij ons gebeurde het dus ook.
pff wat maakte hij het weer spannend zeg. heerlijke comeback!
vanochtend uiteraard weer lekkere oliebollen gebakken!
lekker hoor wat een fantastische pot was dit 👌
precies. en dan spreken ze van een foppeeffect. paar keer winnen van lager geklasseerden. knap hoor!
haha, helemaal super! ik kijk er naar uit. succes met alle updates.
dat heb ik hem eerder zien doen... 👏🏻
ik zie net jullie tweet over het archief. gelukkig komt het terug. ben benieuwd naar de update
ook jammer dat de opstellingen per wedstrijd niet meer te zien zijn. de live tussenstanden optie is wel een verrijking! 3/3
ik mis het archief heel erg. dit was zo super. alleen uitslagen en spelersprofielen van dit seizoen zijn te bekijken. 2/3
ik vind het ook onoverzichtelijker dan eerst. het heeft zich erg aangepast naar de mobiele versie qua uiterlijk. zonde 1/3
nog nagenieten van een top weekend!
mooiste moment van mijn weekend! op de foto met javier zanetti!
wat een verschrikkelijke blessure en beelden afgelopen zaterdag bij de derby urk flevo boys...
vanavond de koploper van de serie a aanschouwen in het nieuwe stadion van udinese!
eindelijk weer een nederlandse ploeg bij de laatste zestien in de top prestatie van
hier wordt druk geluisterd naar de &amp op de achtergrond gewerkt. euh andersom uiteraard..
ik kan geen dm sturen. kan je op een andere manier meedoen?
net een mooie presentatie van de historische kring bijgewoond. met 3 leeftijdsgenoten veruit de jongsten in de zaal. jammer
dagelijks de live blog volgen van &amp inclusief engeland special &amp vi. top dit!
super! dan zie ik hem wel verschijnen. bedankt voor de snelle reacties.
top. ik heb hem zondag al besteld. worden ze dan vandaag ook thuisbezorgd?
net de live blog van weer gecheckt. ik herken veel van vandaag. vooral is idd een plaatje.
volgens mij speelden huntelaar en robben de laatste tijd nog minder door blessures. wees dan een vent en zeg waarop het staat.
hoe kun je binnen nog geen jaar tijd zon grote speler nog meer vernederen? en dan ook nog drogredenen aanhalen voor het niet selecteren...
pittige maar mooie discussies in hans kraay zet riemer van der velde even in zijn hempie.
veel succes en plezier in engeland en ik kijk uit naar de reportages.
haha top elma. leuk dat je ze eindelijk hebt ontmoet. ik krijg al een beroemd nichtje zag ik op insta van 😁
ja was leuk maar kort. verbleven voornamelijk in bogota. maar we hebben zijn huis gezien in guatapé.
net in een reportage over de colombiaanse stad medellin. toch wel apart dat ik daar precies een week geleden nog was.
21 oktober 2015, 16.29 uur. nl tijd pas 01.29 maar ach welcome marty!
net vanuit mijn bed het voetbal gevolgd op twitter. blijft apart zo vroeg in de ochtend.
ook colombia kon helaas niet winnen...
wat een ongelofelijke deceptie is dit... kunnen we de zomer van 2016 ook overslaan? 😢
twee krakers in engeland maar geen voorbeschouwing/analyse. mis ik trouwens het hele seizoen al. bezuinigingen?
gelukkig is het vandaag zo lekker beginnen met als opwarmertje daarna de buitenlandse toppers
haha dat maak ik niet openbaar 😉
daar is ie weer! alweer mijn 20e fifa!
wat een start van mijn weekend! een reis gewonnen naar udinese internazionale! thanks en
matchday! zo naar mijn neefje en vanmiddag weer zelf ⚽️
altijd leuk je vraag in 😉
dday! vanavond met spanning en het bord op schoot naar nl 🇳🇱 kijken. kom op jongens!
poeh wat zag dat er slecht uit zeg, verschrikkelijk... horrorblessure voor thijs bouma
haha in actie
nagenieten van gisteren. heerlijk begin in de eerste officiële wedstrijd voor mijn nieuwe club! ⚽️
haha ja klopt. dat dacht ik al, had het er nog over met julian.
matchday! zo mijn neefje in de f1 supporten en vanmiddag zelf ⚽️
genoten
topavondje bij
bedankt voor het boek!
multitasken. ook mannen kunnen meerdere dingen tegelijk...
heerlijke start! 👌
lekker dat alles weer begonnen is! ⚽️vanmiddag zelf de eerste wedstrijd en de eredivisie en pl zijn weer gestart. zo dus weer voor
haha nee helaas. vaste plekken en er kwamen uiteindelijk nog wel wat meer 😉
lekkere vrije dag vandaag ☀ straks kijken of met fenerbahçe de volgende ronde haalt in de
interessant artikel in de nieuwe met michael lindeman over trainen op basis van een analyse van je eigen dna.
bij terugkomst van vakantie ging er in één middag meteen 800 mb internet af. zoveel verbruikte ik echt niet. hoe kan dit?
mooi tripje naar frankrijk!
net geland in groningen vanuit kos, griekenland. nu snel naar huis en door naar voor
heerlijke middag/avond gehad. nu lekker op de bank voor de finale van de copa!
pezen in de provincie is weer begonnen zoals het altijd mooi noemt. genoten van younes namli gisteren
net kaarten besteld voor
bestelling van het nieuwe shirt is binnen 😎.
prachtige beelden van en een jonge fan
koeman, cruijff, vd gijp, mulder, everse, de jong en blind en wie weet straks berghuis.
heerlijk filmpje voor de voetballoze zaterdagmiddag
en terecht! alleen wel triest dat vidal niet uit het toernooi gezet is door hun bondscoach.
bedankt, ik heb er zin in! we zien elkaar hopelijk binnenkort. groeten
vandaag precies één jaar geleden beleefden we een onvergetelijke dag! bedankt helden! 15
net even gekeken bij workum t fean58 voor een plek in de 2e klasse. nu teveel zaterdagen zonder voetbal...
gefeliciteerd! mooi moment om morgen je 50e goal te maken 😉
gisteren in de kuip bij geweest.
matchday!! vandaag moet het dan eindelijk gebeuren.
dat zou een droom zijn! daarvoor zou ik er zelfs lopend heen gaan! 😉
gisteren bij real sociedad geweest!
dankje, zal ik doen. jullie ook nog fijne vakantie daar!
wachten op mijn vlucht naar barcelona! 👌
in woudsend. rit met oude wagens en uit
ok bedankt voor de info!
hallo, hoe laat reden ze joure uit?
dat is sportpark de biescamp in geffen!
gisteren eerste wedstrijd sinds bijna 7,5 maand! even wat eerste minuten gemaakt bij het 2e.…
lekker avondje voor de buis!
triest gedrag van genee en vooral johan derksen in tegenover verheijen liet zich niet gek maken!
goeie overwinning!
vanmiddag bij heerenveen ajax geweest. veel goals maar geen gunstige uitslag.
vanmiddag een stadiontour gedaan op old trafford. eindelijk gekeken waar zijn kunsten vertoont.
great night at anfield! mijn tweede bezoek aan liverpool brengt dit keer gelukkig wel een overwinning!
arrived at liverpool! vanavond naar morgen een dagje manchester!
gister utrecht feyenoord en woensdag richting engeland! paar dagen liverpool en manchester
overspannen scheids in de drama! laat zich volledig intimideren door de grote namen met name de rossi. 5/6e man ook top...
weer één erbij voor de collectie! hopelijk valt zijn blessure mee van afgelopen weekend.
👍😃 “@feyenoord afgelopen feyenoord speelt met 11 gelijk tegen as roma, een prima uitgangspositie voor de return in de kuip!
kijken. 100ste wedstrijd van voor 👌
mijn loop training op zondag weer achter de rug.
haha jazeker. was aanwezig.
net terug van een avondje voetbal in het abe lenstra stadion, heerenveen
wow, bijna een bomvol old trafford voor het duel tussen manu en een 4e divisionist! mooi voor die gasten.
ben onder de indruk van je illusies. geef je ook shows door het land? ik zou het graag eens zelf willen ervaren.
lekker systeem van op tijd klaar zitten voor de verkoop van feyenoordroma maar geen doorkomen aan 40 min.
avondje bankhangen met live voetbal
helaas nog geblesseerd dus vanmiddag mijn nieuwe weer ff getest. hier de penalty van broertje
mamma mia wat een goal! lekker potje
welkom in nederland, wonderland. inmiddels 8 januari met windkracht 8 en 10 graden... 😒
what a game! helaas zonder nederlanders, maar met gary anderson een prachtige winnaar.
yeah! fantastische laatste twee legs van staan als je er moet staan. top prestatie.
een legende stopt bij liverpool. gelukkig heb ik hem een paar keer in actie mogen zien op o.a. anfield en wembley.
ze zijn weer geslaagd! de beste van het land 😉 happy new year allemaal!
wow wat een prestatie van barney. drie nlers in kwartfinale. wat een pot.
belachelijk. ze hebben blijkbaar niet geleerd van hun aankopen in de zomer. veel geld betalen voor breedte aankopen
lekker middagje engels voetbal!
tijd voor de jaarlijkse kerstquiz van niks mis mee.
topavond voor het nederlandse voetbal!
jammer geen liverpool of spurs maar as roma! ook niet verkeerd.
het heerlijke zondagje is gekomen!
lekker wakker worden voor
net de goal van terug gekeken. wat een goal! hopelijk het begin van een sterke periode.
lekker avondje. kijken of feyenoord sevilla kan verslaan en of de oranjevrouwen zich kunnen plaatsen voor het wk.
yes, hopelijk weer op wembley! rt “@vinl engeland praat met knvb over oefenduel met oranje ”
yeah 60! heerlijke puntjes!
straks eindelijk weer eens met spanning naar een kijken. dat is lang geleden!
bij wijze van als ze maar weg zijn 😉
kan iemand die vreemd gekleurde pieten ook in het water gooien? wat een afgang dit....
zondag gaan we gewoon winnen hoor van die letten en we gaan ook gewoon naar het
fa cup finest. 8e klasser schakelt 4e klasser uit. wat een passie. blij dat de fa cup weer terug is bij bbc.
1e ronde fa cup kijken amateurs tegen exeter city uit 4e &amp laagste profniveau van engeland.
haha prachtig filmpje! bij fpupillen
met mijn vader een avondje bekervoetbal gehad bij zijn ouwe club tegen
wow. de van nl mooi in beeld gebracht door per mijn woonplaats
weer in leeuwarden voor een behandeling bij de fysio. 6 weken onderweg maar het duurt altijd te lang..
coutinho heeft wel laten zien dat hij in de basis hoort. ongelofelijk dat hij op de bank zit de laatste tijd. maar wat een einde!
de tegenstander trapt af maar toch krijg je na 10 seconden al een penalty. volgens mij is dat nog nooit gebeurd?
de goal van zojuist gekozen tot het tv moment van 2014! blijft genieten!
kaarten binnen voor met
altijd leuk die jaarlijkse teamfoto haha
heerlijke pot voetbal, wel erg zuur voor roma.
fysio tijd.
trots op mijn neefje reno! rt“@vvwoudsend woudsend f2 verslaat f2 met 21. doelpunten kwamen beide van reno nagelhout.”
wat een soap zeg bij
schandalig dat jullie geen uitzenden! hoe kun je de voorkeur geven aan oa monacoleverkussen..
even bij de training kijken van
rt “@foxsportsnl marco van basten keert dinsdag terug op het trainingsveld. dat meldt de club uit alkmaar via de officiële kanalen.”
bam!! 3 heerlijke punten in de derby!
matchday! vandaag eindelijk de start van de competitie en meteen een dikke derby! enorm veel zin in.
lekker weertje vandaag
benieuwd of, en wie, de engelse en nederlandse clubs nog uit de hoge hoed toveren.
zo, mijn stem op jou is uitgebracht 😉
oostergo woudsend. beide ploegen kunnen door bekeren.
wanneer komen de excel documenten online voor categorie b? dan kunnen we voor de jeugdteams een competitieschema maken
lekker op het bankje voor de eerste topper van het seizoen!
volgens mij ben ik de enige die niet wakker is geworden en heerlijk heeft geslapen.
zo, mijn tijdlijnen allemaal vol over een lange zoekactie van de op drie inbrekers afgelopen nacht hier.
wat heeft toch een fijne baan! gisteren op old trafford en vandaag op anfield.
heerlijk de is weer begonnen!
gisteren kaarten binnengekregen voor de klassieker feyenoord ajax! zin in!
vanmiddag voor het eerst sinds 6 maanden weer minuten gemaakt in een wedstrijd! ondanks de nederlaag een goed gevoel 😃
here we go again. weer een nieuw seizoen begonnen, hopen op een topseizoen
vakantie zit er weer op helaas. vanavond nog even lekker het meer op geweest.
nationale dag van
home sweet home. terug in nederland na een lekker weekje vakantie
ben je lekker op vakantie en dan hoor je het trieste nieuws van het neergestorte vliegtuig. 154 nederlanders overleden.
airport. over een klein uurtje richting
trots op wat hebben we genoten de afgelopen maand!
bam!! en in de basis!!!
ik krijg het mijn strot amper uit, maar wat zijn ze goed zeg....ai!
die jongen helemaal links is 17 en de rest 18+. ik heb hem er af geknipt. mag het zo?
vooruit, een na de knotsgekke thriller tegen costa rica. van tranen door spanning naar tranen van geluk!
filmpjes terugkijken op internet met kippenvel op de armen. wat een onvergetelijke avond! was het maar alvast woensdag
wat een trieste verslaggever bij de de boel een beetje proberen op te stoken. op het vliegtuig zetten die man
de eer van het dorp hoog gehouden in de finales 😉 3e prijs bij toernooi van 30 teams!
klaarmaken voor hopelijk weer een mooi beachfootvolley toernooi!
zo, mijn pauze op het werk even goed benutten
hoppa!! en dat zijn weer 3 hele fijne punten!