werd er ook afgekickt en kan er nu niet meer op
had misschien wel 3e plek verwacht maar daar mag je ook niet meer over praten.9
ik ben voor wie ben jij aanstaande zondag?
ja dit is echt moker sneu
ik denk dat feyenoord de klassieker wint.
twijfel om zlatan te verkopen.
is het erg dat ik dit heel slecht vind?
jaa 100% sommige clubs ken ik niet eens.
dat utrecht eruit ligt is kut
a had het beste geweest
is een mooie poule idd maar dit word wel echt heel lastig
wat zal je van deze poule vinden
hij zegt dat je incababel bent.
dat gaan we even voor je doen
hoe kan je dit nog zeggen als ze al 4 wedstrijden lang als debielen spelen?
hij is een namaak supporter en een debiel...
mij ook niet prima stand lijkt mij 1 feyenoord 2 utrecht🤝
zal wel wat zijn als utrecht kampioen word, maar ik denk dat utrecht dit niet heel het seizoen kan volhouden.
als dit zo doorgaat word feyenoord easy kampioen
doe maar andersom
als het zo doorgaat ook in de competitie dan word feyenoord easy kampioen
ja had ook rood moeten zijn, maar ff kijken hoeveel er gaan happen.
hij gleed op zen smoel, kon die niks aan doen ligt gewoon aan het veld🤣😉
wat is er gebeurd??
dit is toch een team van wereldklasse
ik meen het ook oprecht, je hebt echt een fijne stem om naar te luisteren en de manier waarop jij e…
ik wil niet lullig doen maar feyenoord speelde idd matig, dus thimo jij weet ook niet zo veel he?
hij is zon kneus
twente maakt moker veel overtredingen dat bedoeld hij denk ik
was gezellig 👋👋👋
zal ik voortaan doen😉
ja had al zon vermoeden
shit ik zal uitkijken.
is dit een bedreiging😂
sorry jongeman zal het niet meer doen🤝
sil, dat je het serieus neemt zegt ook wel iets over jou.
kom je daar nu pas achter is toch al tijdje bekend?
zijn we ook😉
veronica volgens mij
en dit vraag je aan een roda supporter?
laat em hij is een sukkel
het spijt me zeer maar jij bent pittig sneu
ik hoop zo dat ik deze keer mag winnen. 😱
whahaha wat heerlijk
heel graag
10k voor ps4 zal mooi zijn🤙
huh? hij heeft mij random geblokt hahaha
die polen zijn helemaal gek joh haha
hahaha ja zo blijkt maar weet
hij heeft alles uit zijn bio gehaald 😂😂😂
doe het lekker zelf
duurt niet lang meer denk ik💪
.@feyenoord trekt hem vandaag over de streep... 🏆
kan je het niet hebben dat nac wel een normale selectie heeft en roda alleen maar debielen heeft?
yehess het mooiste stadion ter wereld zit dan eindelijk in fifa
heel matig ingeschoten ook
en dan helemaal gaan juichen, dan worden ze echt gek.
dat zal toch geweldig zijn hahaha
dan ga je de eerste prijs van het seizoen meemaken😉 ziek mann
wat boeit het aantal subs voor een nieuwe headset?
vertrouwen is lastig man, zijn zo veel mensen die hier gebruik van gaan maken.
zal zijn contract ontbonden worden?😂
weet jij nog wanneer je je hebt geregistreerd bij twitter? ik wel!
nee dat kan niet dat is al
blijf jij lekker verder dromen knul.
hoe anders? pijp em meteen joh.
die thimo verdient gewoon zoveel messen in zijn rug he...
die guy is de grootste autist van heel nederland joh...
precies hun vinden het dus blijkbaar belangrijk omdat ze het gaan checken...
komt door je pf
balen van gesink man
hoeveel kost ie?
als eerste fellaini veranderen, daarna moreno, wie daarna?
maar ik twijfel, maar als smalling wint word deze kaart dan geüpgrade?
ja heb nu 3 bronze erin staan
heb nu 3 bronzen erbij en red de rating nog
ja of nee voor roze smalling past niet in mijn team
heb je de legende al?
klote ventje hahaha
is gewoon precies wat ik net 10 sec geleden tegen mijn pa zei😂😂
aii zit/zat je op voetbal toevallig?
wie zijn dat dan gaan we ze effe aanpakken
stalken makkelijker gemaakt😂
meen je dit of is et een grap?
dan ben je genaaid want die hoort er wel bij te zitten
wil zo graag winne he
ja man en als je wat over hem zegt gaat ie janken, sneu figuur
hij is kaulo vaag man, hij had van een maat van mij random zijn nummer op internet gezet.
wss zon ventje van net 9 jaar.
deze blijft ook wel leuk
de 3e 😉😏
prima kaartje
ik heb ze gewoon niet gekregen terwijl ik wel weekend leaque heb gespeeld😂😡
i didnt get my reward...
i didnt get my weekend leaque rewards
je lijkt toch niet alleen slim, dat ben je toch ook?
waarom in het engels
wie bij hun op social media zit wat een legend is dat😂
kan je weer is een potje? morgen of woensdag ofzo?
of jij bent heel goed😂😉
deed hij niks of heeft hij gewoon zo veel down ik zijn vingers?😂
en afgelopen zondag tegen ivoorkust zat er iemand in de kuip met een ajax tenue aan!!!
wat is dit voor onzin...
mark, de fifa 18 icon edition is toch alleen digitaal te kopen dus niet op disc? of heb ik dit mis?
wat was het een geweldige avond👍💪het juichen was geweldig maar het duimpie van bassie was toch het hoogte punt😂
meen je dit?
prima ingeschoten💪⚽️
klote niels😂
neus houd zelf je smoel
dan had die marokkaan al voor 2 jaar geschorst mogen worden.
dan had die marokkaan al voor 2 jaar geschorst mogen worden.
ik zeg zeker doen😀
roda word weer gematst man
het was niet bewust hoor, als je het expres zal doen zal je je excuses ook niet meteen aanbieden
spoor jij wel?
was echt totaal geen opzet.
wat is die scheids een debiel!!! nooit meer laten fluiten die vent
idd dat tering roda moet echt uit de eredivisie
omdat ik zei dat roda gaat degraderen 😂
moet ik jullie spijtig genoeg gelijk in geven.
maar maar roda is 20x matiger
maar roda gaat wel verliezen😉
hoopte et zeker niet
zie je dat ergens staan? maar stres me altijd aan die kindjes van 10 die zo kneiter stoer doen via twitter.
ik moet er nou niet bepaald van lachen moet ik zeggen.
sommige ventjes zijn gewoon debiel joh laat ze lekker😉💪
gap deze word echt 5x zo duur
wowowow dit had ik niet verwacht😂😅
waar kan je het zien?
uhm ik had hem voor ongeveer 150k
aii succes met je laatste examen💪
heb je je examens geklaard?
vandaag?
welke examens moet je nog doen?
maar ik probeer serieus niet leuk te doen. sorry als ik zo over kom
ow oke wist et nii zeker meer.
.@feyenoord trekt hem vandaag over de streep... 🏆
de graafschap speelde ook nergens meer voor toch?
dat is idd altijd zo met sit
nee ik bedoelde andere eredivise tots voor die neus
dit team speelt zo geweldig, alleen troare moet nog wel ff wachten op tots eredivisie
mijn speler van het jaar bij voetbal inside is nicolai jørgensen via
ajoh ,zondag feyenoord is kampioen. 24 mei ajax verliest finale met 30
een enige echte successupporter😉
ligt et aan mij of hebben heel veel mensen vaak beef met hem?
maar we pakken die schaal zondag.💪💪
maar dan kan ik ook beter paar maanden thuis blijven van school... ze houden er maar niet over op van zondag.
zo dan gaat echt alles kapot
wist nii dat et al bijna half 8 was...😅
moet straks voetballen doe andere keer maar als je zin hebt.
zin in een potje? psn is xqualitymxke
dit is echt dikke bullshit wat jij nu lult
hoe pak je een neus aan?
jij gaat zo te zien lekker vooraan staan💪 ben ik ook van plan
huldeging is 12 uur toch?
link om te kijken?
divisie 1, nu weekend leaque jij?
ik vind kouyate echt heel goed.
ja daar heb je gelijk in, maar het is wel goed dat ze hem wilden redden toch?
als die niet was op gevangen was het beestje waarschijnlijk sowieso dood gegaan.
ik hoop nu zo erg dat ik dit win🙏
ik heb alleen ps4 300000000+
hij wilde die guy wel neer steken😂
ik ga echt bidden nu🙏🙏🙏
hij heeft 1 groene pannenkoek
welke packs open jij steeds?
dat snap ik dus niet je kan ook gewoon alles zelf houden maar jij geeft et soms weg dus je moet gw…
hij had best wel 1x mogen scoren gister😉
mark, ik won net de fut draft maar ik heb gewoon mijn prijzen niet gekregen😂 heeft het denk je zin om ea te tweeten?
maar hoe kom je altijd aan die accounts? krijg je die gwn van andere en dan geef jij ze weg?
maar ik zal wel down hebben😂
meen je? ik volg je al 2x met kerst daar aan onthield ik het😂
ja ik en kennen elkaar in rl😉
je bent niet de enige nelis😂
ps4, succes iedereen incl 😉
zo klasse zin van mij😂 maar thanks
jitse, weet jij weet jij het beste moment om mijn spelers terug te kopen?
we mogen het nu wel zeggen dit is het moment voor feyenoord
zo precies deze gewoon😂
wel beetje sneu dat je zo gaat verdedigen de laatste minuut
aan mij geven😉😂
ooww ach ja, alleen kan je je ook wel vermaken in de kuip😉💪
ja, ga je alleen of met vrienden?
vv is ongeveer hetzelfde of nii?
ik zat tegen utrecht in pp op een seizoens kaart van een vriend en dat was best prima
kan je link sturen waar je kan zien welke vakken er nog zijn?
ik wil ook man. moet nog ff snel gaan kijken
ik had bij elkaar 25 glik, bruno en xhaka ingekocht voor 1500 voor tots heb ze nu maar verkocht voor 4k per stuk
ik snap hoe ik dit doe eigenlijk😂 ben helemaal niet goed.
for real?
hoe oud zal hij zijn 12?
volgende week zijn we kampioen.💪
aii. blom bij psv ajax toch?
wie is de scheids zondag?
de 2e en de 3e van ronaldo allebei buitenspel, neeemt niet weg dat het een geweldige speler is
hij heeft wel naar je geluisterd😂😂
is dit een overtreding?
hier gaan wij nog gebruik van maken😂👌😉
mijn speler van de week bij voetbal inside is karim el ahmadi via
manu? als het daar over hebt dat slaat helemaal nergens op idd
mijn hoogste was 80..........
kijk nu heeft ajax goed gevoel, volgende week sterkste opstelling en dan zijn ze moe tegen psv en dan verliezen ze😉
+ het word gemaakt door de beste dit klinkt misschien als slijmen maar ik vind het echt.
ik zal de dark super graag willen winnen, omdat mijn ouders het kopen van een dark te duur vinden om v…
gebleseerd
ja dat jong is zo incapabel
hopen dat psv wint van ajax
dat is echt een debiel, je gaat mij niet vertellen dat woudenberg slechter is dan nelom
die was echt de makkelijkste van alle 8😂
wanneer krijg je die packs?
kijk ermee uit man, voor je het weet ben je je account kwijt/ is fut club verwijderd
daar heb je zeker gelijk in😂
ja okay dat zal ik zeker niet doen👍
ow zo, ja zondag was niet best inderdaad maar mogen toch best blij zijn dat ze het nu herpa…
dat hoeft ook weer niet😉
zal wel mooi zijn voor vente
hij krijgt em er gewoon niet in😂
lekker kort ook
ja die snapt er ook geen klote van vandaag
die kan zo ontzettend weinig he
ik denk dat de wint. wat denk jij?
meteen verwijderen die handel😂😂
is gewoon een van de beste keepers van de eredivisie op dit moment👌
en heb ik gezegd dat het kht is dat ajax door is?😉
maar heb ik gezegd dan
ik heb niks verwijderd😉
kan je misschien een 300k team voor me maken? heb di maria untradable hoeft we nii persee in
mijn speler van de week bij voetbal inside is nicolai jørgensen via
ja zal ik wel willen alleen iets te weinig coins daarvoor😂😅
is dit team misschien iets?
ow heb jij misschien zin/ tijd om een 300k team te maken voor mij?
welk team zal jij doen of allebei niet?
dat is niet alleen zijn mening😉
verkeerde zoektermen?
mijn speler van de week bij voetbal inside is jens toornstra via
en dan bailly weg doen zeker?
wat vind je hiervan, nog tips waarvoor ik nu kan gaan sparen?
gun mij een keer whahah ik heb echt nog nooit gewonnen😂
wss teamspeak of skype?
ojaa natuurlijk thanks man!
uhm ja maar heel misschien n zonzi met shadow en dan sanches nog op bank moet ik effe kijken
thanks voor je reactie man💪 heb altijd veel aan je meningen/opmerkingen👍
ik heb niet zon zin om een duur team te maken omdat ik denk dat ik dan na de weekend leaque dikke verlies maak.
wat vind je van deze weekend leaque teams de 2e word het in game.
hoezo vraag je 2x et zelfde?😂
meen je deze?😂
maar het blijft spijtig om zo veel tijd te nemen voor zon pest pleuris spel😂
word nog wel bekeken hoor, zijn 2 van de beste cods wss dus mensen vinden et leuk om te zien denk k
als feyenoord van ajax wint word feyenoord kampioen. en anders gaat het echt spannend worden denk ik.
maar feyenoord dan?😉
dat is natuurlijk niet helemaal waar😉
zeker weten
wat vind je ervan dat toornstra op de bank zit?
als jij nou men snap had geopend had je de felicitatie op je verjaardag al gehad😉😅
wie heeft et gedaan?
geen follow meet van je? heb ik iets fout gedaan?
dus wat zal jij doen?
ja hij is goed, maar nu kost ie nog iets ben bang dat als zijn upgrade er is dat ie dan niks meer kost
hahahahahaha heerlijk
ik wist het niet zeker daarom vroeg ik het even, dank u wel
ik kreeg vanochtend een mail dat mijn bestelling is verzonden, krijg ik de bestelling dan morgen in huis of hoorde dat vandaag al?
hoezo krijg ik hier rood met shaw?😂
terug naar arsenal zal ik zeggen
dan doe ik et zi
ow
ik heb een psn card van 20 euro bij jullie gekocht, bij de bezorg datum staat uiterlijk 27012017 is er geen preciezere datum?
heb sif donnarumma al
zal ik if donnarumma?
wat denk je van dit team?
mark, ik open net mijn wl rewards en ik pack 2x achter elkaar david silva, zal ik er 1 houden of allebei verkopen?
81
? normale manolas moest et zijn
mark, ik heb nu bellerin rechtsback is walker beter of gewoon lekker bellerin houden?
cech is echt goed die moet je gewoon nemen.
is zeker zo😃
is et op fox sports 1 en hoelaat?
nu nog 1 gevecht en daarna rico vs badr geloof ik
maar nu komen al die neuzen die gaan zeggen was gewoon een penal
oehh zeker kijken👌
en dan herrera plekje naar achter en dan rooney cam of wat vind jij?
mark, dit zijn mijn 2 teams heb jij misschien upgrade punten?
je bent niet de enige
ik verlies alles man heb deze keer echt alles tegen, moet er gewoon om huilen😂
mijn teams voor de weekend leaque, wat vind je ervan?
ja ze quiten binnen 5 min in game omdat ik 10 voorsta
ik heb de draft in 20 min gewonnen👌
gaat deze stijgen als die word geüpgrade? of zal ik hem nu al verkopen
ik vind een van leuk het eerste team! | missie mark | fifa 17 nederlands
ah gvd had er 10k opgezet en ik heb nu 140k😅 dus jij zegt niet doen de coins terug zetten
raoul, weet jij of je gebant word als je je futgalaxy coins weer overzet naar fifa?
xqualitymxke pack geopend met waarde 98,650 coins. via
ik denk dat feyenoord de klassieker wint.
dat is echt kut😅
misschien een domme vraag maarja boeie😅😂
moet je met die sbc echt die scream speler hebben of mag je ook zijn normale kaart gebruiken?
mark, ik heb 60k zal ik die sbc voor payet doen of is dat zonde van mijn coins?